{
  "swagger": "2.0",
  "info": {
    "title": "signingUrl",
    "description": "This service support the use of the resndAgreement resource. an user defined resource",
    "version": "1.0.0",
    "contact": {
      "name": "Bharghav Sabbineni",
      "url": "http://www.t-mobile.com",
      "email": "bhargav.subbineni1@t-mobile.com"
    },
    "x-createdBy": {
      "dateCreated": "Wed May 29 17:03:24 2019",
      "createdBy": "bsubbin1",
      "application": "Recite",
      "appVersion": "1.0.0.2891",
      "documentId": "0d04be03-7fab-4942-9d87-f6feca4e4a28",
      "status": "Conceptual - Initial",
      "classification": "1.6.3 Customer Document Presentment",
      "profile": "Core Business Capability Service",
      "serviceLayer": "Enterprise - CustomerManagement"
    }
  },
  "x-servers": [
    {
      "url": "https://esign-generate-url-development-green.apps.px-npe01b.cf.t-mobile.com/document-presentment/v1",
      "description": "Dev Server 1"
    }
  ],
  "tags": [
    {
      "name": "generateesignurl",
      "description": "Executes a Function."
    }
  ],
  "host": "dev01.api.t-mobile.com",
  "basePath": "/document-presentment/v1/generate-esignurl",
  "x-tryOut":"yes",
  "schemes": [
    "https"
  ],
  "paths": {
    "/": {
      "post": {
        "tags": [
          "generateesignurl"
        ],
        "x-api-pattern": "ExecuteFunction",
        "summary": "A post for the resendAgreement resource using Digital Archecture's ExecuteFunction pattern.",
        "description": "Executes a Function.",
        "operationId": "signingUrl",
        "consumes": [
          "application/json"
        ],
        "produces": [
          "application/json"
        ],
        "parameters": [
          {
            "name": "signingUrl",
            "in": "body",
            "description": "This API resends the agreements to customers",
            "required": true,
            "schema": {
              "$ref": "#/definitions/SigningUrl"
            }
          },
          {
            "name": "Accept",
            "in": "header",
            "description": "Preferred content type _ default to application/json",
            "x-example": "application/json",
            "required": false,
            "type": "string",
            "minLength": 1,
            "maxLength": 256,
            "pattern": "^[ \\S]+$"
          },
          {
            "name": "Accept-Charset",
            "in": "header",
            "description": "Character sets that are acceptable.",
            "x-example": "ISO-8859-1,utf-8;q=0.7,*;q=0.7",
            "required": false,
            "type": "string",
            "minLength": 1,
            "maxLength": 256,
            "pattern": "^[\\S ]*$"
          },
          {
            "name": "Accept-Encoding",
            "in": "header",
            "description": "List of acceptable encodings. See HTTP compression.",
            "x-example": "gzip,deflate",
            "required": false,
            "type": "string",
            "minLength": 1,
            "maxLength": 256,
            "pattern": "^[\\S ]*$"
          },
          {
            "name": "Accept-Language",
            "in": "header",
            "description": "List of acceptable human languages for response",
            "x-example": "en-us,en;q=0.5",
            "required": false,
            "type": "string",
            "minLength": 1,
            "maxLength": 256,
            "pattern": "^[\\S ]*$"
          },
          {
            "name": "Authorization",
            "in": "header",
            "description": "The HTTP Authorization request header contains the credentials to authenticate a user agent with a server.",
            "x-example": "Bearer mF_9.B5f-4.1JqM",
            "required": true,
            "type": "string",
            "minLength": 1,
            "maxLength": 256,
            "pattern": "^[\\S ]+$"
          },
          {
            "name": "Content-Type",
            "in": "header",
            "description": "The MIME type of this content",
            "x-example": "text/xml",
            "required": true,
            "type": "string",
            "minLength": 1,
            "maxLength": 256,
            "pattern": "^[ \\S]+$"
          },
          {
            "name": "Date",
            "in": "header",
            "description": "The Date general HTTP header contains the date and time at which the message was originated.",
            "x-example": "Mon, 05 Mar 2018 16:38:08 GMT",
            "required": false,
            "type": "string",
            "format": "date-time",
            "pattern": "^(Mon|Tue|Wed|Thu|Fri|Sat|Sun), [0-3]{1}[0-9]{1} (Jan|Feb|Mar|Apr|May|Jun|Jul|Aug|Sep|Oct|Nov|Dec) [1-3][0-9]{3} [0-2][0-9]:[0-6][0-9]:[0-6][0-9] GMT$"
          },
          {
            "name": "activity-id",
            "in": "header",
            "description": "Unique id alphanumeric value generated and sent by the partner to identify every the service request uniquely. Sample: XyzA:D1s5s1i-X6AFRvfiPBfs-1234  Pass as is to downstream calls.",
            "x-example": "c34e7acd-384b-4c22-8b02-ba3963682508",
            "required": false,
            "type": "string",
            "minLength": 1,
            "maxLength": 256,
            "pattern": "^[\\S]*$"
          },
          {
            "name": "interaction-id",
            "in": "header",
            "description": "Alphanumeric value represent a common transaction id across all calls made from UI, while completing all business activity needs of a particular customer.",
            "x-example": "cc688d54-50d1-49d4-8c5d-95459d1172e8",
            "required": false,
            "type": "string",
            "minLength": 1,
            "maxLength": 256,
            "pattern": "^[\\S]*$"
          },
          {
            "name": "service-transaction-id",
            "in": "header",
            "description": "Request ID echoed back by server",
            "x-example": "23409209723",
            "required": false,
            "type": "string",
            "minLength": 1,
            "maxLength": 256,
            "pattern": "^[\\S]*$"
          },
          {
            "name": "session-id",
            "in": "header",
            "description": "A value populated by the sender used to track the transactions that occur during a session, a long-lasting interaction that ismaintained by the sender.",
            "x-example": "350b91ec-4a64-4b10-a3f3-a78c8db3924a",
            "required": false,
            "type": "string",
            "minLength": 1,
            "maxLength": 256,
            "pattern": "^[\\S]*$"
          },
          {
            "name": "timestamp",
            "in": "header",
            "description": "ms since 1/1/70 adjusted to GMT",
            "x-example": "1524599536",
            "required": false,
            "type": "integer",
            "format": "int64",
            "minimum": 0,
            "maximum": 999999999999,
            "pattern": "^[\\d]*$"
          },
          {
            "name": "workflow-id",
            "in": "header",
            "description": "Business Use Case",
            "x-example": "ACTIVATION",
            "required": false,
            "type": "string",
            "minLength": 1,
            "maxLength": 256,
            "pattern": "^[\\S]*$"
          }
        ],
        "responses": {
          "200": {
            "description": "Success",
            "schema": {
              "$ref": "#/definitions/SiginingUrlResponse"
            },
            "examples": {
              "application/json": {
				"status":"sent",  
                "url": "https://na2.docusign.net/Signing/StartInSession.aspx?t=cf2cf0cc-f3df-44e1-9c7c-b89786e2d03c"
              }
            },
            "headers": {
              "Cache-Control": {
                "description": "Cache policy supported for the resource by the server",
                "x-example": "no-cache",
                "type": "string",
                "minLength": 1,
                "maxLength": 256,
                "pattern": "^[\\S]*$"
              },
              "Content-Encoding": {
                "description": "The type of encoding used on the data",
                "x-example": "gzip,deflate",
                "type": "string",
                "minLength": 1,
                "maxLength": 15,
                "pattern": "^[\\S]*$"
              },
              "Content-Language": {
                "description": "The natural language or languages of the intended audience for the enclosed content",
                "x-example": "da",
                "type": "string",
                "minLength": 1,
                "maxLength": 15,
                "pattern": "^[\\S ]*$"
              },
              "Content-Length": {
                "description": "Length of the response body in octets; not supported if Transfer-Endoding = chunked",
                "x-example": "9112300000003",
                "type": "integer",
                "format": "int64",
                "minimum": 0,
                "pattern": "^[\\d]*$"
              },
              "Content-Type": {
                "description": "The MIME type of this content",
                "x-example": "text/xml",
                "type": "string",
                "minLength": 1,
                "maxLength": 256,
                "pattern": "^[ \\S]+$"
              },
              "Date": {
                "description": "The Date general HTTP header contains the date and time at which the message was originated.",
                "x-example": "Mon, 05 Mar 2018 16:38:08 GMT",
                "type": "string",
                "format": "date-time",
                "pattern": "^(Mon|Tue|Wed|Thu|Fri|Sat|Sun), [0-3]{1}[0-9]{1} (Jan|Feb|Mar|Apr|May|Jun|Jul|Aug|Sep|Oct|Nov|Dec) [1-3][0-9]{3} [0-2][0-9]:[0-6][0-9]:[0-6][0-9] GMT$"
              },
              "ETag": {
                "description": "The ETag header specifies the unique entity tag value for the returned resource.",
                "x-example": "*",
                "type": "string",
                "minLength": 1,
                "maxLength": 256,
                "pattern": "^[\\S]*$"
              },
              "Location": {
                "description": "The Location header specifies the URI of a created resource, or redirects the API consumer to an alternate resource location.",
                "x-example": "http://api.t-mo.com/order-mgmt/v1/orders/123xyz-0/status",
                "type": "string",
                "minLength": 1,
                "maxLength": 65536,
                "pattern": "^[\\S]*$"
              },
              "Transfer-Encoding": {
                "description": "The form of encoding used to safely transfer the entity to the user. Currently defined methods are: chunked, compress, deflate, gzip, identity.",
                "x-example": "chunked",
                "type": "string",
                "minLength": 1,
                "maxLength": 15,
                "pattern": "^[\\S]*$"
              }
            }
          },
          "400": {
            "description": "Bad Request",
            "schema": {
              "$ref": "#/definitions/Error"
            },
            "examples": {
              "application/json": {
                "code": "400",
                "userMessage": "Bad Request",
                "systemMessage": "Bad Request",
                "detailLink": "http://www.tmus.com"
              }
            },
            "headers": {}
          },
          "401": {
            "description": "Unauthorized",
            "schema": {
              "$ref": "#/definitions/Error"
            },
            "examples": {
              "application/json": {
                "code": "401",
                "userMessage": "Unauthorized",
                "systemMessage": "Unauthorized",
                "detailLink": "http://www.tmus.com"
              }
            },
            "headers": {}
          },
          "404": {
            "description": "Resource not found",
            "schema": {
              "$ref": "#/definitions/Error"
            },
            "examples": {
              "application/json": {
                "code": "404",
                "userMessage": "Resource not found",
                "systemMessage": "Resource not found",
                "detailLink": "http://www.tmus.com"
              }
            },
            "headers": {}
          },
          "405": {
            "description": "Method Not Allowed",
            "schema": {
              "$ref": "#/definitions/Error"
            },
            "examples": {
              "application/json": {
                "code": "405",
                "userMessage": "Method Not Allowed",
                "systemMessage": "Method Not Allowed",
                "detailLink": "http://www.tmus.com"
              }
            },
            "headers": {
              "Allow": {
                "description": "list of supported methods for URI",
                "x-example": "GET",
                "type": "string",
                "minLength": 1,
                "maxLength": 256,
                "pattern": "^[\\S]*$"
              },
              "service-transaction-id": {
                "description": "Request ID echoed back by server",
                "x-example": "23409209723",
                "type": "string",
                "minLength": 1,
                "maxLength": 256,
                "pattern": "^[\\S]*$"
              }
            }
          },
          "409": {
            "description": "Invalid data",
            "schema": {
              "$ref": "#/definitions/Error"
            },
            "examples": {
              "application/json": {
                "code": "409",
                "userMessage": "Invalid data",
                "systemMessage": "Invalid data",
                "detailLink": "http://www.tmus.com"
              }
            },
            "headers": {}
          },
          "415": {
            "description": "Unsupported Media Type",
            "schema": {
              "$ref": "#/definitions/Error"
            },
            "examples": {
              "application/json": {
                "code": "415",
                "userMessage": "Unsupported Media Type",
                "systemMessage": "Unsupported Media Type",
                "detailLink": "http://www.tmus.com"
              }
            },
            "headers": {}
          },
          "500": {
            "description": "System Error",
            "schema": {
              "$ref": "#/definitions/Error"
            },
            "examples": {
              "application/json": {
                "code": "500",
                "userMessage": "System Error",
                "systemMessage": "System Error",
                "detailLink": "http://www.tmus.com"
              }
            },
            "headers": {}
          },
          "503": {
            "description": "Service unavailable",
            "schema": {
              "$ref": "#/definitions/Error"
            },
            "examples": {
              "application/json": {
                "code": "503",
                "userMessage": "Service unavailable",
                "systemMessage": "Service unavailable",
                "detailLink": "http://www.tmus.com"
              }
            },
            "headers": {}
          }
        },
        "security": [
          {
            "oauth2-application": [
              "user"
            ]
          }
        ]
      }
    }
  },
  "definitions": {
    "ClientUrls": {
      "description": "This complex contains the call back URLS on customer action",
      "example": {
        "onSigningComplete": "www.t-mobile.com",
        "onViewingComplete": "www.t-mobile.com",
        "onCancel": "www.t-mobile.com",
        "onDecline": "www.t-mobile.com",
        "onSessionTimeout": "www.t-mobile.com",
        "onTtlExpired": "www.t-mobile.com",
        "onException": "www.t-mobile.com"
      },
      "type": "object",
      "required": [
        "onSigningComplete",
        "onViewingComplete",
        "onCancel",
        "onDecline",
        "onSessionTimeout",
        "onTtlExpired",
        "onException"
      ],
      "properties": {
        "onSigningComplete": {
          "description": "This field contains the call back URL when customer signs",
          "example": "www.t-mobile.com",
          "type": "string",
          "pattern": "^[\\S]*$"
        },
        "onViewingComplete": {
          "description": "This field contain the url for customer viewing action",
          "example": "www.t-mobile.com",
          "type": "string",
          "pattern": "^[\\S]*$"
        },
        "onCancel": {
          "description": "This field contains call back URL for cancel",
          "example": "www.t-mobile.com",
          "type": "string",
          "pattern": "^[\\S]*$"
        },
        "onDecline": {
          "description": "This field contains call back URL for decline",
          "example": "www.t-mobile.com",
          "type": "string",
          "pattern": "^[\\S]*$"
        },
        "onSessionTimeout": {
          "description": "This field contains call back URL for session timeout",
          "example": "www.t-mobile.com",
          "type": "string",
          "pattern": "^[\\S]*$"
        },
        "onTtlExpired": {
          "description": "This field contains the call back URL for TTL expiry",
          "example": "www.t-mobile.com",
          "type": "string",
          "pattern": "^[\\S]*$"
        },
        "onException": {
          "description": "This field contains call bacl URL for exception",
          "example": "www.t-mobile.com",
          "type": "string",
          "pattern": "^[\\S]*$"
        }
      }
    },
    "Error": {
      "description": "As defined in http://api-standards.apps.px-npe01.cf.t-mobile.com/http/status-codes/error-response-format/",
      "type": "object",
      "required": [
        "code",
        "userMessage"
      ],
      "properties": {
        "code": {
          "description": "A succinct, domain-specific, human-readable text string to identify the type of error for the given status code",
          "example": "ProductNotFound",
          "type": "string",
          "pattern": "^[\\S ]+$"
        },
        "userMessage": {
          "description": "A human-readable message describing the error.",
          "example": "Failed to find product.",
          "type": "string",
          "pattern": "^[\\S ]+$"
        },
        "systemMessage": {
          "description": "Text that provides a more detailed technical explanation of the error",
          "example": "PRODUCT_NOT_FOUND",
          "type": "string"
        },
        "detailLink": {
          "description": "link to custom information providing greater detail on error or errors",
          "example": "http://aaa.bbb.ccc/",
          "type": "string"
        }
      }
    },
    "SiginingUrlResponse": {
      "description": "This field contains the API success message",
      "type": "object",
      "required": [
        "status"
      ],
      "properties": {
        "status": {
          "description": "this field indicates the status of the envelope.",
          "example": "Completed",
          "type": "string",
          "pattern": "^[\\S]*$"
        },
        "url": {
          "description": "This field contains the Signing URL",
          "example": "https://na2.docusign.net/Signing/StartInSession.aspx?t=cf2cf0cc-f3df-44e1-9c7c-b89786e2d03c",
          "type": "string",
          "pattern": "^[\\S]*$"
        }
      }
    },
    "SigningUrl": {
      "description": "This API resends the agreements to customers",
      "type": "object",
      "required": [
        "envelopeId",
        "clientUrls"
      ],
      "properties": {
        "envelopeId": {
          "description": "This field contains the envolpe id foe which the signing url need to be sent.",
          "example": "ES2019052909521003",
          "type": "string",
          "pattern": "^[\\S]*$"
        },
        "clientUrls": {
          "$ref": "#/definitions/ClientUrls"
        }
      }
    }
  },
  "securityDefinitions": {
   "oauth2-application": {
      "type": "oauth2",
      "description": "When you sign up for an account, you are given your first API key. To do so please follow this link: https://www.t-mobile.com/site/signup/ Also you can generate additional API keys, and delete API keys (as you may need to rotate your keys in the future).",
      "tokenUrl": "https://qlab02.core.op.api.t-mobile.com/v1/oauth2/accesstoken?grant_type=client_credentials",
      "flow": "application",
      "scopes": {
        "user": "Grants read/write access to profile info only."
      }
    }
  }
}