{
    "swagger": "2.0",
    "info": {
        "title": "services",
        "description": "This service returns SOC(Service Order Code) Information for given MSISDN. This swagger was updated while migrating from DevPortal to Clearwater. The swagger was updated for increasing the Lint Score and incorporating Clearwater standards. For the current production implementation please refer to this Devportal swagger https://bitbucket.service.edp.t-mobile.com/projects/DEVPRT/repos/billing-and-charging/browse/LinesOfService/v2/services.swagger.json",
        "version": "3",
        "contact": {
            "name": "Naman Bansal",
            "url": "http://www.t-mobile.com",
            "email": "NBansal5@t-mobile.com"
        },
        "license": {
            "name": "Proprietary software",
            "url": "https://en.wikipedia.org/wiki/Proprietary_software"
        },
        "termsOfService": "https://www.t-mobile.com/templates/popup.aspx?PAsset=Ftr_Ftr_TermsAndConditions",
        "x-createdBy": {
            "dateCreated": "Thu Mar  7 20:44:24 2019",
            "createdBy": "cmuppall",
            "application": "Recite",
            "appVersion": "0.4.3.2801",
            "documentId": "b6c23012-34a6-4a75-82b5-2acce790a41d",
            "status": "Conceptual - Initial",
            "classification": "7.3.5 Agreement Billing Mgmt.",
            "profile": "Core Business Capability Service",
            "serviceLayer": "Enterprise - Billing"
        }
    },
    "tags": [
        {
            "name": "ExecuteFunction",
            "description": "The ExecuteFunction design pattern as defined by T-Mobile Digital Architecture."
        },
        {
            "name": "services",
            "description": ""
        }
    ],
    "host": "billingaccount",
    "basePath": "/v3/services",
    "schemes": [
        "https"
    ],
    "paths": {
        "/search": {
            "post": {
                "tags": [
                    "ExecuteFunction",
                    "services"
                ],
                "x-api-pattern": "ExecuteFunction",
                "summary": "post-services-search",
                "description": "post-services-search",
                "operationId": "post-services-search",
                "consumes": [
                    "application/json",
                    "application/xml"
                ],
                "produces": [
                    "application/json",
                    "application/xml"
                ],
                "parameters": [
                    {
                        "name": "services",
                        "in": "body",
                        "description": "services",
                        "required": false,
                        "schema": {
                            "$ref": "#/definitions/Services"
                        }
                    },
                    {
                        "name": "Accept",
                        "in": "header",
                        "description": "Preferred content type _ default to application/json",
                        "x-example": "application/json",
                        "required": false,
                        "type": "string",
                        "minLength": 1,
                        "maxLength": 256,
                        "pattern": "^[ \\S]+$"
                    },
                    {
                        "name": "Access-Control-Request-Headers",
                        "in": "header",
                        "description": "For CORS pre-flight OPTIONS requests sent by a browser, headers to be used.",
                        "x-example": "Authorization, Content-Type",
                        "required": false,
                        "type": "string",
                        "minLength": 1,
                        "maxLength": 256,
                        "pattern": "^[\\S ]*$"
                    },
                    {
                        "name": "Access-Control-Request-Method",
                        "in": "header",
                        "description": "In CORS, the Access-Control-Request-Method header indicates which method will be used in the actual request as part of a preflight request.",
                        "x-example": "POST",
                        "required": false,
                        "type": "string",
                        "enum": [
                            "GET",
                            "HEAD",
                            "POST",
                            "PUT",
                            "DELETE",
                            "CONNECT",
                            "OPTIONS",
                            "TRACE"
                        ],
                        "minLength": 1,
                        "maxLength": 256,
                        "pattern": "^[\\S]*$"
                    },
                    {
                        "name": "Authorization",
                        "in": "header",
                        "description": "The HTTP Authorization request header contains the credentials to authenticate a user agent with a server.",
                        "x-example": "Bearer mF_9.B5f-4.1JqM",
                        "required": true,
                        "type": "string",
                        "minLength": 1,
                        "maxLength": 256,
                        "pattern": "^[\\S ]+$"
                    },
                    {
                        "name": "Content-Type",
                        "in": "header",
                        "description": "The MIME type of this content",
                        "x-example": "text/xml",
                        "required": true,
                        "type": "string",
                        "minLength": 1,
                        "maxLength": 256,
                        "pattern": "^[ \\S]+$"
                    },
                    {
                        "name": "If-Match",
                        "in": "header",
                        "description": "The If-Match header specifies an ETag-related condition to be placed on the execution of a request.  The request will only be executed if the ETag of the requested resource matches one of those specified in the If-Match header.  Because the behavior is complex, the details for usage are provided at http://www.w3.org/Protocols/rfc2616/rfc2616-sec14.html .",
                        "x-example": "*",
                        "required": false,
                        "type": "string",
                        "minLength": 1,
                        "maxLength": 256,
                        "pattern": "^[\\S]*$"
                    },
                    {
                        "name": "If-Modified-Since",
                        "in": "header",
                        "description": "The If-Modified-Since header specifies date-related conditions to be placed on the execution of a request.  The request will only be executed if the requested resource has not been modified since the date-time specified.  Because the behavior is complex, the details for usage are provided at http://www.w3.org/Protocols/rfc2616/rfc2616-sec14.html",
                        "x-example": "Mon, 05 Mar 2018 16:38:08 GMT",
                        "required": false,
                        "type": "string",
                        "format": "date-time",
                        "pattern": "^(Mon|Tue|Wed|Thu|Fri|Sat|Sun), [0-3]{1}[0-9]{1} (Jan|Feb|Mar|Apr|May|Jun|Jul|Aug|Sep|Oct|Nov|Dec) [1-3][0-9]{3} [0-2][0-9]:[0-6][0-9]:[0-6][0-9] GMT$"
                    },
                    {
                        "name": "If-None-Match",
                        "in": "header",
                        "description": "The If-None-Match header specifies an ETag-related condition to be placed on the execution of a request.  The request will NOT be executed if the ETag of the requested resource matches one of those specified in the If-None-Match header.  Because the behavior is complex, the details for usage are provided at http://www.w3.org/Protocols/rfc2616/rfc2616-sec14.html",
                        "x-example": "*",
                        "required": false,
                        "type": "string",
                        "minLength": 1,
                        "maxLength": 256,
                        "pattern": "^[\\S]*$"
                    },
                    {
                        "name": "Origin",
                        "in": "header",
                        "description": "For simple CORS requests, the host from which the request originated",
                        "x-example": "https://www.t-mobile.com",
                        "required": false,
                        "type": "string",
                        "minLength": 1,
                        "maxLength": 65536,
                        "pattern": "^[\\S]*$"
                    },
                    {
                        "name": "timestamp",
                        "in": "header",
                        "description": "ms since 1/1/70 adjusted to GMT",
                        "x-example": "1524599536",
                        "required": false,
                        "type": "integer",
                        "format": "int64",
                        "minimum": 0,
                        "maximum": 999999999999,
                        "pattern": "^[\\d]*$"
                    },
                    {
                        "name": "x-auth-originator",
                        "in": "header",
                        "description": "API chain initiating callers access token",
                        "x-example": "c34e7acd-384b-4c22-8b02-ba3963682508",
                        "required": true,
                        "type": "string",
                        "minLength": 1,
                        "maxLength": 256,
                        "pattern": "^[\\S]*$"
                    },
                    {
                        "name": "x-authorization",
                        "in": "header",
                        "description": "Contains Proof of Possession token generated by API caller",
                        "x-example": "c34e7acd-384b-4c22-8b02-ba3963682508",
                        "required": true,
                        "type": "string",
                        "minLength": 1,
                        "maxLength": 256,
                        "pattern": "^[\\S ]*$"
                    }
                ],
                "responses": {
                    "200": {
                        "description": "OK",
                        "schema": {
                            "$ref": "#/definitions/ServiceCollection"
                        },
                        "headers": {
                            "Access-Control-Allow-Headers": {
                                "description": "For CORS pre-flight OPTIONS requests, used by the browser to block disallowed requests",
                                "x-example": "Authorization, Content-Type",
                                "type": "string",
                                "minLength": 1,
                                "maxLength": 256,
                                "pattern": "^[\\S ]+$"
                            },
                            "Access-Control-Allow-Methods": {
                                "description": "For CORS pre-flight OPTIONS requests, used by the browser to block disallowed requests.",
                                "x-example": "POST, PUT, GET. OPTIONS",
                                "type": "string",
                                "minLength": 1,
                                "maxLength": 256,
                                "pattern": "^[\\S ]*$"
                            },
                            "Access-Control-Allow-Origin": {
                                "description": "For CORS, an allowed origin, used by the browser to block disallowed requests",
                                "x-example": "https://www.t-mobile.com",
                                "type": "string",
                                "minLength": 1,
                                "maxLength": 65536,
                                "pattern": "^[\\S]*$"
                            },
                            "Cache-Control": {
                                "description": "Cache policy supported for the resource by the server",
                                "x-example": "no-cache",
                                "type": "string",
                                "minLength": 1,
                                "maxLength": 256,
                                "pattern": "^[\\S]*$"
                            },
                            "Content-Length": {
                                "description": "Length of the response body in octets; not supported if Transfer-Endoding = chunked",
                                "x-example": "9112300000003",
                                "type": "integer",
                                "format": "int64",
                                "minimum": 0,
                                "pattern": "^[\\d]*$"
                            },
                            "Content-Type": {
                                "description": "The MIME type of this content",
                                "x-example": "text/xml",
                                "type": "string",
                                "minLength": 1,
                                "maxLength": 256,
                                "pattern": "^[ \\S]+$"
                            },
                            "ETag": {
                                "description": "The ETag header specifies the unique entity tag value for the returned resource.",
                                "x-example": "*",
                                "type": "string",
                                "minLength": 1,
                                "maxLength": 256,
                                "pattern": "^[\\S]*$"
                            },
                            "Expires": {
                                "description": "The Expires header gives the date-time after which the response is considered stale.",
                                "x-example": "Mon, 05 Mar 2018 16:38:08 GMT",
                                "type": "string",
                                "format": "date-time",
                                "pattern": "^(Mon|Tue|Wed|Thu|Fri|Sat|Sun), [0-3]{1}[0-9]{1} (Jan|Feb|Mar|Apr|May|Jun|Jul|Aug|Sep|Oct|Nov|Dec) [1-3][0-9]{3} [0-2][0-9]:[0-6][0-9]:[0-6][0-9] GMT$"
                            },
                            "Location": {
                                "description": "The Location header specifies the URI of a created resource, or redirects the API consumer to an alternate resource location.",
                                "x-example": "http://api.t-mo.com/order-mgmt/v1/orders/123xyz-0/status",
                                "type": "string",
                                "minLength": 1,
                                "maxLength": 65536,
                                "pattern": "^[\\S]*$"
                            }
                        }
                    },
                    "400": {
                        "description": "Bad Request",
                        "schema": {
                            "$ref": "#/definitions/Error"
                        },
                        "examples": {
                            "application/json": {
                                "code": "400",
                                "userMessage": "Bad Request",
                                "systemMessage": "Bad Request",
                                "detailLink": "http://www.tmus.com"
                            }
                        },
                        "headers": {}
                    },
                    "401": {
                        "description": "Client not authorized",
                        "schema": {
                            "$ref": "#/definitions/Error"
                        },
                        "examples": {
                            "application/json": {
                                "code": "401",
                                "userMessage": "Client not authorized",
                                "systemMessage": "Client not authorized",
                                "detailLink": "http://www.tmus.com"
                            }
                        },
                        "headers": {}
                    },
                    "404": {
                        "description": "Not Found",
                        "schema": {
                            "$ref": "#/definitions/Error"
                        },
                        "examples": {
                            "application/json": {
                                "code": "404",
                                "userMessage": "Not Found",
                                "systemMessage": "Not Found",
                                "detailLink": "http://www.tmus.com"
                            }
                        },
                        "headers": {}
                    },
                    "405": {
                        "description": "Method Not Allowed",
                        "schema": {
                            "$ref": "#/definitions/Error"
                        },
                        "examples": {
                            "application/json": {
                                "code": "405",
                                "userMessage": "Method Not Allowed",
                                "systemMessage": "Method Not Allowed",
                                "detailLink": "http://www.tmus.com"
                            }
                        },
                        "headers": {
                            "Allow": {
                                "description": "list of supported methods for URI",
                                "x-example": "GET",
                                "type": "string",
                                "minLength": 1,
                                "maxLength": 256,
                                "pattern": "^[\\S]*$"
                            },
                            "service-transaction-id": {
                                "description": "Request ID echoed back by server",
                                "x-example": "23409209723",
                                "type": "string",
                                "minLength": 1,
                                "maxLength": 256,
                                "pattern": "^[\\S]*$"
                            }
                        }
                    },
                    "409": {
                        "description": "Invalid data",
                        "schema": {
                            "$ref": "#/definitions/Error"
                        },
                        "examples": {
                            "application/json": {
                                "code": "409",
                                "userMessage": "Invalid data",
                                "systemMessage": "Invalid data",
                                "detailLink": "http://www.tmus.com"
                            }
                        },
                        "headers": {}
                    },
                    "415": {
                        "description": "Unsupported Media Type",
                        "schema": {
                            "$ref": "#/definitions/Error"
                        },
                        "examples": {
                            "application/json": {
                                "code": "415",
                                "userMessage": "Unsupported Media Type",
                                "systemMessage": "Unsupported Media Type",
                                "detailLink": "http://www.tmus.com"
                            }
                        },
                        "headers": {}
                    },
                    "500": {
                        "description": "System Error",
                        "schema": {
                            "$ref": "#/definitions/Error"
                        },
                        "examples": {
                            "application/json": {
                                "code": "500",
                                "userMessage": "System Error",
                                "systemMessage": "System Error",
                                "detailLink": "http://www.tmus.com"
                            }
                        },
                        "headers": {}
                    },
                    "503": {
                        "description": "Service Unavailable",
                        "schema": {
                            "$ref": "#/definitions/Error"
                        },
                        "examples": {
                            "application/json": {
                                "code": "503",
                                "userMessage": "Service Unavailable",
                                "systemMessage": "Service Unavailable",
                                "detailLink": "http://www.tmus.com"
                            }
                        },
                        "headers": {}
                    }
                },
                "security": [
                    {
                        "JWT": []
                    }
                ]
            }
        }
    },
    "definitions": {
        "Error": {
            "type": "object",
            "description": "As defined in http://api-standards.apps.px-npe01.cf.t-mobile.com/http/status-codes/error-response-format/",
            "required": [
                "code",
                "userMessage"
            ],
            "properties": {
                "code": {
                    "description": "A succinct, domain-specific, human-readable text string to identify the type of error for the given status code",
                    "example": "ProductNotFound",
                    "type": "string",
                    "pattern": "^[\\S ]+$"
                },
                "userMessage": {
                    "description": "A human-readable message describing the error.",
                    "example": "Failed to find product.",
                    "type": "string",
                    "pattern": "^[\\S ]+$"
                },
                "systemMessage": {
                    "description": "Text that provides a more detailed technical explanation of the error",
                    "example": "PRODUCT_NOT_FOUND",
                    "type": "string"
                },
                "detailLink": {
                    "description": "link to custom information providing greater detail on error or errors",
                    "example": "http://aaa.bbb.ccc/",
                    "type": "string"
                }
            }
        },
        "Features": {
            "type": "object",
            "description": "features",
            "properties": {
                "featureId": {
                    "description": "Unique identifier of the feature.",
                    "type": "string"
                },
                "featureName": {
                    "description": "Name of the feature.",
                    "type": "string"
                },
                "featureStatus": {
                    "description": "Status of the feature.",
                    "type": "string"
                },
                "recurringCharge": {
                    "description": "The recurring charge amount the customer is charged for this feature.",
                    "type": "number",
                    "format": "double"
                }
            }
        },
        "IncludedServiceCapacities": {
            "type": "object",
            "description": "includedServiceCapacities",
            "properties": {
                "capacityType": {
                    "description": "Type of service",
                    "type": "string"
                },
                "size": {
                    "description": "Quantity of the service.",
                    "type": "number",
                    "format": "double"
                },
                "measurementUnit": {
                    "description": "Unit of measurement of the service.",
                    "type": "string"
                },
                "duration": {
                    "description": "The amount of time the customer has to use the includedServiceCapacity before it expires.",
                    "type": "integer",
                    "format": "int32",
                    "minimum": -2147483648,
                    "maximum": 2147483647
                },
                "durationMeasurementUnit": {
                    "description": "Unit of measurement of duration service.",
                    "type": "string"
                },
                "unlimitedIndicator": {
                    "description": "Indicate the capacity is unlimited",
                    "type": "boolean"
                }
            }
        },
        "OfferingStatusPeriod": {
            "type": "object",
            "description": "offeringStatusPeriod",
            "properties": {
                "startTime": {
                    "description": "startTime",
                    "type": "string",
                    "format": "date-time"
                },
                "endTime": {
                    "description": "endTime",
                    "type": "string",
                    "format": "date-time"
                }
            }
        },
        "ServiceCollection": {
            "type": "object",
            "description": "ServiceCollection",
            "properties": {
                "metadata": {
                    "description": "metadata",
                    "type": "string"
                },
                "pagination": {
                    "description": "pagination",
                    "type": "string"
                },
                "servicesResponse": {
                    "description": "An array of servicesResponse objects.",
                    "type": "array",
                    "items": {
                        "$ref": "#/definitions/ServicesResponse"
                    }
                }
            }
        },
        "ServiceProducts": {
            "type": "object",
            "description": "serviceProducts",
            "properties": {
                "productId": {
                    "description": "Uniquely identifies a known product.",
                    "type": "string"
                },
                "productName": {
                    "description": "The common name of the product, as defined in the product catalog.",
                    "type": "string"
                },
                "productKeywords": {
                    "description": "An array of productKeywords objects.",
                    "type": "array",
                    "items": {
                        "type": "string",
                        "description": "A single instance of the productKeywords object."
                    }
                },
                "description": {
                    "description": "Description of the product",
                    "type": "string"
                },
                "shortDescription": {
                    "description": "Short description of the product",
                    "type": "string"
                },
                "longDescription": {
                    "description": "Long description of the product",
                    "type": "string"
                }
            }
        },
        "Services": {
            "type": "object",
            "description": "services",
            "required": [
                "accountNumber",
                "phoneNumber"
            ],
            "properties": {
                "accountNumber": {
                    "description": "accountNumber",
                    "example": "960913889",
                    "type": "string",
                    "pattern": "^\\d{10}$"
                },
                "phoneNumber": {
                    "description": "phoneNumber",
                    "example": "4045103538",
                    "type": "string",
                    "pattern": "^\\d{10}$"
                }
            }
        },
        "ServicesResponse": {
            "type": "object",
            "description": "servicesResponse",
            "properties": {
                "offerId": {
                    "description": "Uniquely identifies a product offering in the sales catalog.",
                    "type": "string"
                },
                "offerType": {
                    "description": "Primary categorization of Product Offering.",
                    "type": "string"
                },
                "offerSubtype": {
                    "description": "Secondary categorization of Product Offering.",
                    "type": "string"
                },
                "productType": {
                    "description": "The category of product included in the offer: Plan, Service, Device, Accessory, or Financial.",
                    "type": "string"
                },
                "productSubtypes": {
                    "description": "An array of productSubtypes objects.",
                    "type": "array",
                    "items": {
                        "type": "string",
                        "description": "A single instance of the productSubtypes object."
                    }
                },
                "offeringStatus": {
                    "description": "Status of the product offering in the sales catalog.",
                    "type": "string"
                },
                "offeringStatusPeriod": {
                    "$ref": "#/definitions/OfferingStatusPeriod"
                },
                "businessUnit": {
                    "description": "The different T-Mobile business units require complete separation of assets. Separate companies that comprise TMUS corporation. The system restricts a Customer to one Business Unit. In other words, a Customer in one Business Unit is not visible in any of the other Business Units of the corporation. For example, a Metro PCS customers billing address cannot be looked up by a Magenta representative. There is no capability to override this in the system.",
                    "type": "string"
                },
                "billingMethod": {
                    "description": "The Billing Method specifies the billing experience that the customer has qualified for and requested. A change of the billing method implies the need to create a new billing arrangement.",
                    "type": "string"
                },
                "brand": {
                    "description": "The business name under which a TMUS product is sold. A Customer can have accounts in any Brand, within the same Business Unit. For example, a T-Mobile customer may also have a branded account with a national retailer.",
                    "type": "string"
                },
                "unitPrice": {
                    "description": "Full list price per unit as set by T-Mobile",
                    "type": "number",
                    "format": "double"
                },
                "offerCategory": {
                    "description": "Top-level display categorization for product offers.",
                    "type": "string"
                },
                "offerSubCategory1": {
                    "description": "Second-level display categorization for product offers.",
                    "type": "string"
                },
                "offerSubCategory2": {
                    "description": "Third-level display categorization for product offers.",
                    "type": "string"
                },
                "offerName": {
                    "description": "The commonly used name of the Offer, as defined in the Product Catalog.",
                    "type": "string"
                },
                "offerDescription": {
                    "description": "The description of the offer, as defined in the product catalog.",
                    "type": "string"
                },
                "offerShortDescription": {
                    "description": "The brief description of the offer, as defined in the product catalog.",
                    "type": "string"
                },
                "offerLongDescription": {
                    "description": "The verbose description of the offer, as defined in the product catalog.",
                    "type": "string"
                },
                "displayOrder": {
                    "description": "The sequence in which the offer is displayed.",
                    "type": "integer",
                    "format": "int32",
                    "minimum": -2147483648,
                    "maximum": 2147483647
                },
                "billingTypes": {
                    "description": "An array of billingTypes objects.",
                    "type": "array",
                    "items": {
                        "type": "string",
                        "description": "A single instance of the billingTypes object."
                    }
                },
                "legalDisclosure": {
                    "description": "Disclaimers or any other textual information that must be displayed to customers for legal reasons.",
                    "type": "string"
                },
                "specifications": {
                    "description": "An array of specifications objects.",
                    "type": "array",
                    "items": {
                        "$ref": "#/definitions/Specifications"
                    }
                },
                "offerLevel": {
                    "description": "Level in the customer hierarchy to which the offer should be applied.",
                    "type": "string"
                },
                "includedServiceCapacities": {
                    "description": "An array of includedServiceCapacities objects.",
                    "type": "array",
                    "items": {
                        "$ref": "#/definitions/IncludedServiceCapacities"
                    }
                },
                "supportsDataStash": {
                    "description": "True if the rate plan supports Data Stash",
                    "type": "boolean"
                },
                "serviceStartTime": {
                    "description": "Date and time when the service was started for the customer.",
                    "type": "string",
                    "format": "date-time"
                },
                "serviceEndTime": {
                    "description": "Date and time when the service was ended for the customer.",
                    "type": "string",
                    "format": "date-time"
                },
                "serviceStatus": {
                    "description": "Status of the service for the customer.",
                    "type": "string"
                },
                "recurringCharge": {
                    "description": "The recurring charge amount the customer is charged for this service.",
                    "type": "number",
                    "format": "double"
                },
                "oneTimeCharge": {
                    "description": "The one time charge the customer is charged for this service.",
                    "type": "number",
                    "format": "double"
                },
                "features": {
                    "description": "An array of features objects.",
                    "type": "array",
                    "items": {
                        "$ref": "#/definitions/Features"
                    }
                },
                "serviceProducts": {
                    "description": "An array of serviceProducts objects.",
                    "type": "array",
                    "items": {
                        "$ref": "#/definitions/ServiceProducts"
                    }
                }
            }
        },
        "Specifications": {
            "type": "object",
            "description": "specifications",
            "properties": {
                "name": {
                    "description": "name",
                    "type": "string"
                },
                "value": {
                    "description": "value",
                    "type": "string"
                }
            }
        }
    },
    "securityDefinitions": {
        "JWT": {
            "type": "apiKey",
            "description": "JWT is a means of representing claims to be transferred between two parties. The claims in a JWT are encoded as a JSON object that is digitally signed using JSON Web Signature (JWS) and/or encrypted using JSON Web Encryption (JWE).",
            "name": "Authorization",
            "in": "header"
        }
    }
}