{
    "swagger": "2.0",
    "info": {
        "title": "skuDownPayment",
        "description": "This API will be used to Post, Update and get loan details.",
        "version": "2.0.1",
        "x-createdBy": {
            "dateCreated": "Fri May 18 22:08:15 2018",
            "createdBy": "SSagara3",
            "application": "Recite",
            "appVersion": "0.3.8.2201",
            "documentId": "39528a2a-fc42-446f-9c6a-3fb0c2ca11a6",
            "status": "Conceptual - Initial",
            "classification": "6.3 Customer Loan / Lease / Insurance Mgmt",
            "profile": "Core Business Capability Service",
            "serviceLayer": "Enterprise - CustomerManagement"
        }
    },
    "tags": [
        {
            "name": "queryFinanceProducts",
            "description": "This API retrieves the finance products for the equipment installments "
        }
    ],
    "basePath": "/customer-loan/v1",
    "schemes": [
        "https"
    ],
    "paths": {
        "/finance-products/": {
            "get": {
                "tags": [
                    "queryFinanceProducts"
                ],
                "summary": "This API retrieves the finance products for the equipment installments ",
                "description": "Retrieves a single instance of the financeProductsResp resource.",
                "operationId": "queryFinanceProducts",
                "consumes": [
                    "application/json",
                    "application/xml"
                ],
                "produces": [
                    "application/json",
                    "application/xml"
                ],
                "parameters": [
                    {
                        "name": "financeTypes",
                        "in": "query",
                        "description": "Indicates the financeType like LOAN,LEASE",
                        "required": true,
                        "type": "string"
                    },
                    {
                        "name": "startDate",
                        "in": "query",
                        "description": "start time range for the request",
                        "required": true,
                        "type": "string"
                    },
                    {
                        "name": "endDate",
                        "in": "query",
                        "description": "end time for the request",
                        "required": true,
                        "type": "string"
                    },
                    {
                        "name": "equipmentTypes",
                        "in": "query",
                        "description": "indicates the type of product like DEVICE,ACCESSORY. If nothing is passed all types will be returned in the response",
                        "required": false,
                        "type": "string"
                    },
                    {
                        "name": "Accept",
                        "in": "header",
                        "description": "Content-Types that are acceptable including application/json or application/xml (default assumed application/json)",
                        "required": false,
                        "type": "string"
                    },
                    {
                        "name": "Accept-Charset",
                        "in": "header",
                        "description": "Character sets that are acceptable.",
                        "required": false,
                        "type": "string"
                    },
                    {
                        "name": "Accept-Encoding",
                        "in": "header",
                        "description": "List of acceptable encodings. See HTTP compression.",
                        "required": false,
                        "type": "string"
                    },
                    {
                        "name": "Accept-Language",
                        "in": "header",
                        "description": "List of acceptable human languages for response",
                        "required": false,
                        "type": "string"
                    },
                    {
                        "name": "Authorization",
                        "in": "header",
                        "description": "OAuth 2.0 access token with the authentication type set as Bearer.",
                        "required": true,
                        "type": "string"
                    },
                    {
                        "name": "Content-Type",
                        "in": "header",
                        "description": "The Content-Length header specifies the actual length of the returned payload.",
                        "required": true,
                        "type": "string"
                    },
                    {
                        "name": "Date",
                        "in": "header",
                        "description": "The date and time that the message was originated (in HTTP-date format as defined by RFC 7231 Date/Time Formats).",
                        "required": false,
                        "type": "string",
                        "format": "date-time"
                    },
                    {
                        "name": "If-Modified-Since",
                        "in": "header",
                        "description": "The If-Modified-Since header specifies date-related conditions to be placed on the execution of a request.  The request will only be executed if the requested resource has not been modified since the date-time specified.  Because the behavior is complex, the details for usage are provided at http://www.w3.org/Protocols/rfc2616/rfc2616-sec14.html",
                        "required": false,
                        "type": "string"
                    },
                    {
                        "name": "If-None-Match",
                        "in": "header",
                        "description": "The If-None-Match header specifies an ETag-related condition to be placed on the execution of a request.  The request will NOT be executed if the ETag of the requested resource matches one of those specified in the If-None-Match header.  Because the behavior is complex, the details for usage are provided at http://www.w3.org/Protocols/rfc2616/rfc2616-sec14.html",
                        "required": false,
                        "type": "string"
                    },
                    {
                        "name": "activityid",
                        "in": "header",
                        "description": "Unique id alphanumeric value generated and sent by the partner to identify every the service request uniquely. Sample: XyzA:D1s5s1i-X6AFRvfiPBfs-1234  Pass as is to downstream calls.",
                        "required": true,
                        "type": "string"
                    },
                    {
                        "name": "applicationid",
                        "in": "header",
                        "description": "Identifies the application, system, or tool that is being used to perform the transaction related to this request. Below are the sample values.ACUI, ESERVICE, REBELLION, WARP",
                        "required": true,
                        "type": "string"
                    },
                    {
                        "name": "applicationuserid",
                        "in": "header",
                        "description": "NT id of the one who is managing the transaction from CARE/RETAIL channels.",
                        "required": false,
                        "type": "string"
                    },
                    {
                        "name": "authcustomerid",
                        "in": "header",
                        "description": "Customer id _ of the person that is interacting with the system.",
                        "required": false,
                        "type": "string"
                    },
                    {
                        "name": "authfinancialaccountid",
                        "in": "header",
                        "description": "Financial account that the customer intends to operate on, while interacting with the system.",
                        "required": false,
                        "type": "string"
                    },
                    {
                        "name": "authlineofserviceid",
                        "in": "header",
                        "description": "Service Line that the customer intends to operate on, while interacting with the system.",
                        "required": false,
                        "type": "string"
                    },
                    {
                        "name": "channelid",
                        "in": "header",
                        "description": "Identifies the business unit or sales channel for the Request.Below are the sample values:            Care            TeleSales            FullService            BusinessDirect            FinancePartners            NonFinancePartners            SelfServiceAuthenticated            SelfServiceAnonymous            InteractiveVoiceResponse",
                        "required": true,
                        "type": "string"
                    },
                    {
                        "name": "dealercode",
                        "in": "header",
                        "description": "Unique code to identify the dealer/rep user.",
                        "required": false,
                        "type": "integer",
                        "format": "int32",
                        "minimum": -2147483648.0,
                        "maximum": 2147483647.0
                    },
                    {
                        "name": "interactionid",
                        "in": "header",
                        "description": "Alphanumeric value represent a common transaction id across all calls made from UI, while completing all business activity needs of a particular customer.",
                        "required": false,
                        "type": "string"
                    },
                    {
                        "name": "segmentationid",
                        "in": "header",
                        "description": "Identifier of customers primary data center.Sample: Polaris,Titan",
                        "required": false,
                        "type": "string"
                    },
                    {
                        "name": "senderid",
                        "in": "header",
                        "description": "Uniquely identifies an Operation consumer. Below are the sample values.ACUI, MYTMO, QVXP, REBELLION, WALMARTRETAIL, SAMSCLUBRETAIL.",
                        "required": false,
                        "type": "string"
                    },
                    {
                        "name": "sessionid",
                        "in": "header",
                        "description": "A value populated by the sender used to track the transactions that occur during a session, a long-lasting interaction that ismaintained by the sender.",
                        "required": false,
                        "type": "string"
                    },
                    {
                        "name": "storeid",
                        "in": "header",
                        "description": "Unique identifier for the retail store location.",
                        "required": false,
                        "type": "string"
                    },
                    {
                        "name": "terminalid",
                        "in": "header",
                        "description": "Unique identifier for the retail store terminal. Needed for FullService  (Tmobile RETAIL channel). Need to discuss with T-Mobile business liaison if there is a need for Partner to pass their retail Store Id).",
                        "required": false,
                        "type": "string"
                    },
                    {
                        "name": "tillid",
                        "in": "header",
                        "description": "Unique identifier for the retail register. Needed for FullService  (Tmobile RETAIL channel). Need to discuss with T-Mobile business liaison if there is a need for Partner to pass their retail Store Id).",
                        "required": false,
                        "type": "string"
                    },
                    {
                        "name": "timestamp",
                        "in": "header",
                        "description": "A timestamp provided by sender to track their workflow. If it is empty APIGEE can send current system timestamp.",
                        "required": true,
                        "type": "string",
                        "format": "date-time"
                    },
                    {
                        "name": "workflowid",
                        "in": "header",
                        "description": "Workflow name (NEW/ADD/EXCHANGE/RETURN)/OrderTypes _ ACTIVATION ADDALINE CHANGEDEVICE_JUMP CHANGEDEVICE",
                        "required": false,
                        "type": "string"
                    }
                ],
                "responses": {
                    "200": {
                        "description": "The financeProductsResp resource has been found.  Returning the financeProductsResp.",
                        "schema": {
                            "$ref": "#/definitions/financeProductsResp"
                        },
                        "headers": {
                            "Cache-Control": {
                                "description": "No cache indicators supported at this time. Samples: no-cache",
                                "type": "string"
                            },
                            "Content-Encoding": {
                                "description": "The type of encoding used on the data",
                                "type": "string"
                            },
                            "Content-Language": {
                                "description": "The natural language or languages of the intended audience for the enclosed content",
                                "type": "string"
                            },
                            "Content-Length": {
                                "description": "The Content-Length header specifies the actual length of the returned payload.",
                                "type": "string"
                            },
                            "Content-Type": {
                                "description": "The Content-Length header specifies the actual length of the returned payload.",
                                "type": "string"
                            },
                            "Date": {
                                "description": "The date and time that the message was originated (in HTTP-date format as defined by RFC 7231 Date/Time Formats).",
                                "type": "string",
                                "format": "date-time"
                            },
                            "ETag": {
                                "description": "The ETag header specifies the unique entity tag value for the returned resource.",
                                "type": "string"
                            },
                            "Last-Modified": {
                                "description": "The Last-Modified entity-header field indicates the date and time at which the origin server believes the variant was last modified.",
                                "type": "string",
                                "format": "date-time"
                            },
                            "Transfer-Encoding": {
                                "description": "The form of encoding used to safely transfer the entity to the user. Currently defined methods are: chunked, compress, deflate, gzip, identity.",
                                "type": "string"
                            },
                            "servicetransactionid": {
                                "description": "Internal identifier for transaction tracking an individual transaction/API request within API platform. Don_t receive/don_t send to downstream",
                                "type": "string"
                            }
                        }
                    },
                    "400": {
                        "description": "Bad Request",
                        "headers": {},
                        "schema": {
                            "$ref": "#/definitions/errorResponse"
                        }
                    },
                    "401": {
                        "description": "Unauthorized",
                        "headers": {},
                        "schema": {
                            "$ref": "#/definitions/errorResponse"
                        }
                    },
                    "404": {
                        "description": "Resource not found",
                        "headers": {},
                        "schema": {
                            "$ref": "#/definitions/errorResponse"
                        }
                    },
                    "405": {
                        "description": "Method Not Allowed",
                        "headers": {},
                        "schema": {
                            "$ref": "#/definitions/errorResponse"
                        }
                    },
                    "406": {
                        "description": "Mismatching data format",
                        "headers": {},
                        "schema": {
                            "$ref": "#/definitions/errorResponse"
                        }
                    },
                    "500": {
                        "description": "System Error",
                        "headers": {},
                        "schema": {
                            "$ref": "#/definitions/errorResponse"
                        }
                    },
                    "503": {
                        "description": "Service unavailable",
                        "headers": {},
                        "schema": {
                            "$ref": "#/definitions/errorResponse"
                        }
                    }
                },
                "security": [
                    {
                        "Oauth": []
                    }
                ]
            }
        }
    },
    "definitions": {
        "ConfiguredDownPayments": {
            "type": "object",
            "description": "An array of configuredDownPayments objects.",
            "properties": {
                "configuredDownPaymentAmount": {
                    "type": "number",
                    "format": "double"
                },
                "residualAmount": {
                    "type": "number",
                    "format": "double"
                },
                "effectiveDate": {
                    "$ref": "#/definitions/EffectiveDate"
                }
            }
        },
        "CreditConfigurations": {
            "type": "object",
            "description": "An array of creditConfigurations objects.",
            "properties": {
                "creditRiskProfileId": {
                    "description": "Unique identifier generated from risk system which is derived from multple business inputs -creditscore, tenure and payment history etc.",
                    "type": "string"
                },
                "terms": {
                    "description": "An array of terms objects.",
                    "type": "array",
                    "items": {
                        "$ref": "#/definitions/Terms"
                    }
                },
                "downPaymentModifiers": {
                    "description": "An array of downPaymentModifiers objects.",
                    "type": "array",
                    "items": {
                        "$ref": "#/definitions/DownPaymentModifiers"
                    }
                }
            }
        },
        "DeviceConfigurations": {
            "type": "object",
            "description": "An array of deviceConfigurations objects.",
            "properties": {
                "sku": {
                    "description": "Stock keeping unit (SKU).  Uniquely identifies the product in the inventory system.",
                    "type": "string"
                },
                "skuDescription": {
                    "description": "Description of the SKU",
                    "type": "string"
                },
                "equipmentType": {
                    "description": "Identifying the type of equipment: DEVICE,ACCESSORY",
                    "type": "string"
                },
                "configuredDownPayments": {
                    "description": "An array of configuredDownPayments objects.",
                    "type": "array",
                    "items": {
                        "$ref": "#/definitions/ConfiguredDownPayments"
                    }
                },
                "creditConfigurations": {
                    "description": "An array of creditConfigurations objects.",
                    "type": "array",
                    "items": {
                        "$ref": "#/definitions/CreditConfigurations"
                    }
                }
            }
        },
        "DownPaymentModifiers": {
            "type": "object",
            "description": "An array of downPaymentModifiers objects.",
            "properties": {
                "amount": {
                    "type": "number",
                    "format": "double"
                },
                "effectiveDate": {
                    "$ref": "#/definitions/FinanceProductsRespEffectiveDate_1"
                }
            }
        },
        "EffectiveDate": {
            "type": "object",
            "description": "Effective date",
            "properties": {
                "startDate": {
                    "description": "Start date",
                    "type": "string",
                    "format": "date"
                },
                "endDate": {
                    "description": "End date",
                    "type": "string",
                    "format": "date"
                }
            }
        },
        "error": {
            "description": "Error object.",
            "type": "object",
            "properties": {
                "code": {
                    "description": "A specific T-Mobile error code.",
                    "type": "string"
                },
                "userMessage": {
                    "description": "A human-readable message describing the error.",
                    "type": "string"
                },
                "systemMessage": {
                    "description": "Backend system error message.",
                    "type": "string"
                }
            }
        },
        "errorResponse": {
            "description": "The array of error objects. As defined in https://tmobileusa.sharepoint.com/teams/EnterpriseServices/ESG%20Standards%20Documents/APIs/T-Mobile%20API%20Design%20Guidelines%20v1.0.docx",
            "type": "object",
            "properties": {
                "errors": {
                    "description": "An array of errors",
                    "type": "array",
                    "items": {
                        "$ref": "#/definitions/error"
                    }
                }
            }
        },
        "FinanceProducts": {
            "type": "object",
            "description": "An array of financeProducts objects.",
            "properties": {
                "financeTypes": {
                    "description": "Indicates the financeType like LOAN,LEASE",
                    "type": "string"
                },
                "deviceConfigurations": {
                    "description": "An array of deviceConfigurations objects.",
                    "type": "array",
                    "items": {
                        "$ref": "#/definitions/DeviceConfigurations"
                    }
                }
            }
        },
        "financeProductsResp": {
            "type": "object",
            "properties": {
                "financeProducts": {
                    "description": "An array of financeProducts objects.",
                    "type": "array",
                    "items": {
                        "$ref": "#/definitions/FinanceProducts"
                    }
                }
            }
        },
        "FinanceProductsRespEffectiveDate": {
            "type": "object",
            "description": "Effective date",
            "properties": {
                "startDate": {
                    "description": "Start date",
                    "type": "string",
                    "format": "date"
                },
                "endDate": {
                    "description": "End date",
                    "type": "string",
                    "format": "date"
                }
            }
        },
        "FinanceProductsRespEffectiveDate_1": {
            "type": "object",
            "description": "Effective date",
            "properties": {
                "startDate": {
                    "description": "Start date",
                    "type": "string",
                    "format": "date"
                },
                "endDate": {
                    "description": "End date",
                    "type": "string",
                    "format": "date"
                }
            }
        },
        "Terms": {
            "type": "object",
            "description": "An array of terms objects.",
            "properties": {
                "paymentTerm": {
                    "minimum": -2147483648.0,
                    "maximum": 2147483647.0,
                    "type": "integer",
                    "format": "int32"
                },
                "effectiveDate": {
                    "$ref": "#/definitions/FinanceProductsRespEffectiveDate"
                }
            }
        }
    },
    "securityDefinitions": {
        "Oauth": {
            "type": "oauth2",
            "tokenUrl": "https://dlab03.core.op.api.t-mobile.com:443/v2/oauth2/accesstoken?grant_type=client_credentials",
            "flow": "application",
            "scopes": {}
        }
    },
    "security": [
        {
            "Oauth": []
        }
    ]
}