{
    "swagger": "2.0",
    "info": {
        "title": "getCharges",
        "description": "These Customer Finance-Loan APIs provide a holistic view of all customer financing activities across loan financial products. This portal provides an ability to self service the Finance-Loan APIs catalog and onboard the business partners and applications developers. All these APIs are protected with OAuth 2.0 security and a valid client credentials are required to generate the bearer access token and try it out live.",
        "version": "1.0.0",
        "x-createdBy": {
            "dateCreated": "Fri Jan 11 06:26:49 2019",
            "createdBy": "ssagara3",
            "application": "Recite",
            "appVersion": "0.4.3.2801",
            "documentId": "b850817c-0917-408d-81fe-55248be22d2a",
            "status": "Conceptual - Initial",
            "classification": "6.3 Customer Loan / Lease / Insurance Mgmt",
            "profile": "Core Business Capability Service",
            "serviceLayer": "Resource - Other"
        }
    },
    "x-servers": [
        {
            "url": "https://dlab01.core.op.api.t-mobile.com/customer-loan/v1",
            "description": "Sandbox Server"
        },
        {
            "url": "https://ilab03.core.op.api.t-mobile.com/customer-loan/v1",
            "description": "ILAB03-Live Server"
        }
    ],
    "tags": [
        {
            "name": "QueryResource",
            "description": "The QueryResource design pattern as defined by T-Mobile Digital Architecture."
        }
    ],
    "host": "tmobileb-sb01.apigee.net",
    "basePath": "/customer-loan/v1",
    "schemes": [
        "https"
    ],
    "paths": {
        "/loan-profiles/charges": {
            "get": {
                "tags": [
                    "QueryResource"
                ],
                "x-api-pattern": "QueryResource",
                "description": "The base resource path with a GET method and query parameters defines a search for an array of getChargesResponse objects that match the given criteria, or an empty array if none are found.",
                "operationId": "getCharges",
                "consumes": [
                    "application/json",
                    "application/xml"
                ],
                "produces": [
                    "application/json",
                    "application/xml"
                ],
                "parameters": [
                    {
                        "name": "account-number",
                        "in": "query",
                        "description": "string is a predefined object from an igniteXml model - cabinet 1001760002 build 1001760247 key 1001760477",
                        "required": true,
                        "type": "string"
                    },
                    {
                        "name": "phone-number",
                        "in": "query",
                        "description": "string is a predefined object from an igniteXml model - cabinet 1001760002 build 1001760247 key 1001760477",
                        "required": false,
                        "type": "string"
                    },
                    {
                        "name": "Accept",
                        "in": "header",
                        "description": "Content-Types that are acceptable including application/json or application/xml (default assumed application/json)",
                        "x-example": "application/json,text/html,application/xhtml+xml,application/xml;q=0.9,*/*;q=0.8",
                        "required": false,
                        "type": "string"
                    },
                    {
                        "name": "Accept-Charset",
                        "in": "header",
                        "description": "Character sets that are acceptable.",
                        "x-example": "ISO-8859-1,utf-8;q=0.7,*;q=0.7",
                        "required": false,
                        "type": "string"
                    },
                    {
                        "name": "Accept-Encoding",
                        "in": "header",
                        "description": "List of acceptable encodings. See HTTP compression.",
                        "x-example": "gzip,deflate",
                        "required": false,
                        "type": "string"
                    },
                    {
                        "name": "Accept-Language",
                        "in": "header",
                        "description": "List of acceptable human languages for response",
                        "x-example": "en-us,en;q=0.5",
                        "required": false,
                        "type": "string"
                    },
                    {
                        "name": "Authorization",
                        "in": "header",
                        "description": "OAuth 2.0 access token with the authentication type set as Bearer.",
                        "x-example": "Basic YUFSbFZHQ1p5dE5KMzV6RVAzOVFneXFUS0tRM1VONHM6QmtYN0c5RmQxTnNEaHRsWg==",
                        "required": true,
                        "type": "string",
                        "pattern": "^[\\S]*$"
                    },
                    {
                        "name": "Content-Type",
                        "in": "header",
                        "description": "The MIME type of this content",
                        "x-example": "text/xml",
                        "required": true,
                        "type": "string",
                        "pattern": "^[\\S]*$"
                    },
                    {
                        "name": "Date",
                        "in": "header",
                        "description": "The date and time that the message was originated (in HTTP-date format as defined by RFC 7231 Date/Time Formats).",
                        "x-example": "Wed, 18-Apr-2018 11:34:57 GMT",
                        "required": false,
                        "type": "string",
                        "format": "date-time"
                    },
                    {
                        "name": "activityid",
                        "in": "header",
                        "description": "Unique id alphanumeric value generated and sent by the partner to identify every the service request uniquely. Sample: XyzA:D1s5s1i-X6AFRvfiPBfs-1234  Pass as is to downstream calls.",
                        "x-example": "c34e7acd-384b-4c22-8b02-ba3963682508",
                        "required": false,
                        "type": "string",
                        "pattern": "^[\\S]*$"
                    },
                    {
                        "name": "applicationid",
                        "in": "header",
                        "description": "Identifies the application, system, or tool that is being used to perform the transaction related to this request. Below are the sample values.ACUI, ESERVICE, REBELLION, WARP",
                        "x-example": "TBD",
                        "required": true,
                        "type": "string"
                    },
                    {
                        "name": "applicationuserid",
                        "in": "header",
                        "description": "NT id of the one who is managing the transaction from CARE/RETAIL channels.",
                        "x-example": "TBD",
                        "required": false,
                        "type": "string"
                    },
                    {
                        "name": "authcustomerid",
                        "in": "header",
                        "description": "Customer id _ of the person that is interacting with the system.",
                        "x-example": "TBD",
                        "required": false,
                        "type": "string"
                    },
                    {
                        "name": "authfinancialaccountid",
                        "in": "header",
                        "description": "Financial account that the customer intends to operate on, while interacting with the system.",
                        "x-example": "TBD",
                        "required": false,
                        "type": "string"
                    },
                    {
                        "name": "authlineofserviceid",
                        "in": "header",
                        "description": "Service Line that the customer intends to operate on, while interacting with the system.",
                        "x-example": "TBD",
                        "required": false,
                        "type": "string"
                    },
                    {
                        "name": "channelid",
                        "in": "header",
                        "description": "Identifies the business unit or sales channel for the Request.Below are the sample values:            Care            TeleSales            FullService            BusinessDirect            FinancePartners            NonFinancePartners            SelfServiceAuthenticated            SelfServiceAnonymous            InteractiveVoiceResponse",
                        "x-example": "TBD",
                        "required": true,
                        "type": "string"
                    },
                    {
                        "name": "dealercode",
                        "in": "header",
                        "description": "Unique code to identify the dealer/rep user.",
                        "x-example": "TBD",
                        "required": true,
                        "type": "integer",
                        "format": "int32",
                        "minimum": -2147483648,
                        "maximum": 2147483647
                    },
                    {
                        "name": "interactionid",
                        "in": "header",
                        "description": "Alphanumeric value represent a common transaction id across all calls made from UI, while completing all business activity needs of a particular customer.",
                        "x-example": "cc688d54-50d1-49d4-8c5d-95459d1172e8",
                        "required": true,
                        "type": "string"
                    },
                    {
                        "name": "masterdealercode",
                        "in": "header",
                        "description": "Unique code to identify the master dealer for a large retail partner. Will not be applicable for TMO channels.",
                        "x-example": "TBD",
                        "required": false,
                        "type": "string"
                    },
                    {
                        "name": "segmentationid",
                        "in": "header",
                        "description": "Identifier of customers primary data center.Sample: Polaris,Titan",
                        "x-example": "TBD",
                        "required": false,
                        "type": "string"
                    },
                    {
                        "name": "senderid",
                        "in": "header",
                        "description": "Uniquely identifies an Operation consumer. Below are the sample values.ACUI, MYTMO, QVXP, REBELLION, WALMARTRETAIL, SAMSCLUBRETAIL.",
                        "x-example": "TBD",
                        "required": false,
                        "type": "string"
                    },
                    {
                        "name": "servicetransactionid",
                        "in": "header",
                        "description": "Internal identifier for transaction tracking an individual transaction/API request within API platform. Don_t receive/don_t send to downstream",
                        "x-example": "23409209723",
                        "required": false,
                        "type": "string"
                    },
                    {
                        "name": "sessionid",
                        "in": "header",
                        "description": "A value populated by the sender used to track the transactions that occur during a session, a long-lasting interaction that ismaintained by the sender.",
                        "x-example": "350b91ec-4a64-4b10-a3f3-a78c8db3924a",
                        "required": false,
                        "type": "string"
                    },
                    {
                        "name": "storeid",
                        "in": "header",
                        "description": "Unique identifier for the retail store location.",
                        "x-example": "TBD",
                        "required": false,
                        "type": "string"
                    },
                    {
                        "name": "terminalid",
                        "in": "header",
                        "description": "Unique identifier for the retail store terminal. Needed for FullService  (Tmobile RETAIL channel). Need to discuss with T-Mobile business liaison if there is a need for Partner to pass their retail Store Id).",
                        "x-example": "TBD",
                        "required": false,
                        "type": "string"
                    },
                    {
                        "name": "tillid",
                        "in": "header",
                        "description": "Unique identifier for the retail register. Needed for FullService  (Tmobile RETAIL channel). Need to discuss with T-Mobile business liaison if there is a need for Partner to pass their retail Store Id).",
                        "x-example": "TBD",
                        "required": false,
                        "type": "string"
                    },
                    {
                        "name": "timestamp",
                        "in": "header",
                        "description": "A timestamp provided by sender to track their workflow. If it is empty APIGEE can send current system timestamp.",
                        "x-example": "TBD",
                        "required": false,
                        "type": "string",
                        "format": "date-time"
                    },
                    {
                        "name": "workflowid",
                        "in": "header",
                        "description": "Workflow name (NEW/ADD/EXCHANGE/RETURN)/OrderTypes _ ACTIVATION ADDALINE CHANGEDEVICE_JUMP CHANGEDEVICE",
                        "x-example": "ACTIVATION",
                        "required": false,
                        "type": "string"
                    }
                ],
                "responses": {
                    "200": {
                        "description": "Ok",
                        "schema": {
                            "$ref": "#/definitions/GetChargesResponse"
                        },
                        "headers": {
                            "Content-Encoding": {
                                "description": "The type of encoding used on the data",
                                "x-example": "gzip,deflate",
                                "type": "string"
                            },
                            "Content-Length": {
                                "description": "The Content-Length header specifies the actual length of the returned payload.",
                                "x-example": "1024",
                                "type": "string"
                            },
                            "Content-Type": {
                                "description": "The MIME type of this content",
                                "x-example": "text/xml",
                                "type": "string",
                                "pattern": "^[\\S]*$"
                            },
                            "Date": {
                                "description": "The date and time that the message was originated (in HTTP-date format as defined by RFC 7231 Date/Time Formats).",
                                "x-example": "Wed, 18-Apr-2018 11:34:57 GMT",
                                "type": "string",
                                "format": "date-time"
                            },
                            "Transfer-Encoding": {
                                "description": "The form of encoding used to safely transfer the entity to the user. Currently defined methods are: chunked, compress, deflate, gzip, identity.",
                                "x-example": "chunked",
                                "type": "string"
                            },
                            "servicetransactionid": {
                                "description": "Internal identifier for transaction tracking an individual transaction/API request within API platform. Don_t receive/don_t send to downstream",
                                "x-example": "23409209723",
                                "type": "string"
                            }
                        }
                    },
                    "400": {
                        "description": "Bad Request",
                        "schema": {
                            "$ref": "#/definitions/ErrorResponse"
                        },
                        "examples": {
                            "application/json": {
                                "code": "400",
                                "userMessage": "Bad Request",
                                "systemMessage": "Bad Request",
                                "detailLink": "http://www.tmus.com"
                            }
                        },
                        "headers": {}
                    },
                    "401": {
                        "description": "Unauthorized",
                        "schema": {
                            "$ref": "#/definitions/ErrorResponse"
                        },
                        "examples": {
                            "application/json": {
                                "code": "401",
                                "userMessage": "Unauthorized",
                                "systemMessage": "Unauthorized",
                                "detailLink": "http://www.tmus.com"
                            }
                        },
                        "headers": {}
                    },
                    "404": {
                        "description": "Resource not found",
                        "schema": {
                            "$ref": "#/definitions/ErrorResponse"
                        },
                        "examples": {
                            "application/json": {
                                "code": "404",
                                "userMessage": "Resource not found",
                                "systemMessage": "Resource not found",
                                "detailLink": "http://www.tmus.com"
                            }
                        },
                        "headers": {}
                    },
                    "405": {
                        "description": "Method Not Allowed",
                        "schema": {
                            "$ref": "#/definitions/ErrorResponse"
                        },
                        "examples": {
                            "application/json": {
                                "code": "405",
                                "userMessage": "Method Not Allowed",
                                "systemMessage": "Method Not Allowed",
                                "detailLink": "http://www.tmus.com"
                            }
                        },
                        "headers": {}
                    },
                    "406": {
                        "description": "Mismatching data format",
                        "schema": {
                            "$ref": "#/definitions/ErrorResponse"
                        },
                        "examples": {
                            "application/json": {
                                "code": "406",
                                "userMessage": "Mismatching data format",
                                "systemMessage": "Mismatching data format",
                                "detailLink": "http://www.tmus.com"
                            }
                        },
                        "headers": {}
                    },
                    "500": {
                        "description": "System Error",
                        "schema": {
                            "$ref": "#/definitions/ErrorResponse"
                        },
                        "examples": {
                            "application/json": {
                                "code": "500",
                                "userMessage": "System Error",
                                "systemMessage": "System Error",
                                "detailLink": "http://www.tmus.com"
                            }
                        },
                        "headers": {}
                    },
                    "503": {
                        "description": "Service unavailable",
                        "schema": {
                            "$ref": "#/definitions/ErrorResponse"
                        },
                        "examples": {
                            "application/json": {
                                "code": "503",
                                "userMessage": "Service unavailable",
                                "systemMessage": "Service unavailable",
                                "detailLink": "http://www.tmus.com"
                            }
                        },
                        "headers": {}
                    }
                },
                "security": [
                    {
                        "Oauth": []
                    }
                ]
            }
        }
    },
    "definitions": {
        "ErrorResponse": {
            "type": "object",
            "description": "As defined in http://api-standards.apps.px-npe01.cf.t-mobile.com/http/status-codes/error-response-format/",
            "properties": {
                "errors": {
                    "description": "An array of errors objects.",
                    "type": "array",
                    "minItems": 1,
                    "items": {
                        "$ref": "#/definitions/Errors"
                    }
                }
            }
        },
        "Errors": {
            "type": "object",
            "description": "As defined in http://api-standards.apps.px-npe01.cf.t-mobile.com/http/status-codes/error-response-format/",
            "required": [
                "code",
                "userMessage"
            ],
            "properties": {
                "code": {
                    "description": "A succinct, domain-specific, human-readable text string to identify the type of error for the given status code",
                    "example": "ProductNotFound",
                    "type": "string",
                    "pattern": "^[\\S ]+$"
                },
                "userMessage": {
                    "description": "A human-readable message describing the error.",
                    "example": "Failed to find product.",
                    "type": "string",
                    "pattern": "^[\\S ]+$"
                },
                "systemMessage": {
                    "description": "Text that provides a more detailed technical explanation of the error",
                    "example": "PRODUCT_NOT_FOUND",
                    "type": "string"
                },
                "detailLink": {
                    "description": "link to custom information providing greater detail on error or errors",
                    "example": "http://aaa.bbb.ccc/",
                    "type": "string"
                }
            }
        },
        "GetChargesResponse": {
            "type": "object",
            "description": "getCharges Response object to return charges collection",
            "properties": {
                "totalCurrentMonthlyFinancingCharge": {
                    "description": "Total current monthly financing charge amount",
                    "type": "number",
                    "format": "double",
                    "minimum": -2147483648.0,
                    "maximum": -2147483648.0
                }
            }
        }
    },
    "securityDefinitions": {
        "Oauth": {
            "type": "oauth2",
            "description": "When you sign up for an account, you are given your first API key. To do so please follow this link: https://www.t-mobile.com/site/signup/ Also you can generate additional API keys, and delete API keys (as you may need to rotate your keys in the future).",
            "tokenUrl": "https://ilab03.core.op.api.t-mobile.com/v1/oauth2/accesstoken?grant_type=client_credentials",
            "flow": "application",
            "scopes": {}
        }
    }
}