@startuml
title ** __DSPA Selfcare PCF: GetCustomerLoginStatus __ **\n

actor Client #Magenta

participant SelfcareService as "<b><color:white>SelfcareService" #Magenta
participant IAM_LDAP #DarkSeaGreen

skinparam sequenceGroupBorderColor blue 
group#Magenta <b><color:white> GetCustomerLoginStatus
Client->SelfcareService: [[lowlevel/ce.dsg.dice.prov.selfcare.pcf.getcustomerloginstatus.svg getCustomerLoginStatus]] [[https://servicecatalog.internal.t-mobile.com/servicecat/dspa/2016-10-14/wsdl_api/wsdl/SelfCareService.wsdl WSDL]]\n (JAX-RPC XML Request over Http)
note left
  Clients: TIBCO_ESOA, MyTmo
  URI: /webservice/SelfCareService
endnote 
SelfcareService->IAM_LDAP: searchLDAP to get the customer's Login status details
IAM_LDAP->SelfcareService: returns Customer Login status info
SelfcareService-[#green]>Client: returns Customer Login status info
end
@enduml