@startuml
title ** __DSPA Selfcare PCF: LockCustomer __ **\n

actor Client #Magenta


participant SelfcareService as "<b><color:white>SelfcareService" #Magenta
participant IAM_LDAP #DarkSeaGreen

skinparam sequenceGroupBorderColor blue 
group#Magenta <b><color:white> LockCustomer
Client->SelfcareService: [[lowlevel/ce.dsg.dice.prov.selfcare.pcf.lockcustomer.svg lockCustomer]] [[https://servicecatalog.internal.t-mobile.com/servicecat/dspa/2016-10-14/wsdl_api/wsdl/SelfCareService.wsdl WSDL]]\n (JAX-RPC XML Request over Http)
note left
  Clients: StreamLine
  URI: /webservice/SelfCareService
endnote 
SelfcareService->IAM_LDAP: searchLDAP with msisdn to getCustomerLogins
IAM_LDAP->SelfcareService: returns customer logins 
SelfcareService->IAM_LDAP: update LDAP with atrributes <back:cadetblue><b>tmlogincount, tmauthfailurecount, tmpasswordresetcount, \n tmauthzipfailcount, tmanswerfailcount</back> to unlockCustomer
IAM_LDAP->SelfcareService: return void
SelfcareService-[#green]>Client: return void
end
@enduml