@startuml
title ** __DSPA Selfcare PCF: UpdateEmail __ **\n

actor Client #Magenta


participant SelfcareService as "<b><color:white>SelfcareService" #Magenta
participant IAM_LDAP #DarkSeaGreen
queue PUBLISH_TOPIC #Magenta

skinparam sequenceGroupBorderColor blue 
group#Magenta <b><color:white> UpdateEmail
Client->SelfcareService: [[lowlevel/ce.dsg.dice.prov.selfcare.pcf.updateemail.svg updateEmail]] [[https://servicecatalog.internal.t-mobile.com/servicecat/dspa/2016-10-14/wsdl_api/wsdl/SelfCareService.wsdl WSDL]]\n (JAX-RPC XML Request over Http)
note left
  Clients: TIBCO_ESOA
  URI: /webservice/SelfCareService
endnote 
SelfcareService->IAM_LDAP: update LDAP attribute <back:cadetblue><b>tmemail, tmlastemailupdate</back> for customer
IAM_LDAP->SelfcareService: return void
group#DarkSeaGreen <b>Topic: TMOBILE.<env>.DSPA.TOPIC.PUBLISH, event: 'updateEmail' and MsgType: "Publish"
SelfcareService[#blue]-->PUBLISH_TOPIC : Publish the message \n [[../provisioningems/ce.dsg.dice.prov.ems.pcf.publishtopic.updateemail.svg Provisioning_AsncFlow_updateemail]]	
end
SelfcareService-[#green]>Client: return void
end
@enduml