{
    "swagger": "2.0",
    "info": {
        "title": "lead-services-sf",
        "description": "API's developed to use  Salesforce Leads, Engagements, and lead searching",
        "version": "1.0.0",
        "contact": {
            "name": "Kishore",
            "url": "http://www.t-mobile.com",
            "email": "Kishore.Gandra1@t-mobile.com"
        },
        "x-createdBy": {
            "dateCreated": "Tue May  7 16:32:05 2019",
            "createdBy": "bpunniy1",
            "application": "Recite",
            "appVersion": "1.0.0.2891",
            "documentId": "0c856434-975c-4b4c-9938-57248058bf03",
            "status": "Conceptual - Initial",
            "classification": "1.2.4 Interactive Customer Assistance Mgmt.",
            "profile": "Application Integration Service",
            "serviceLayer": "Resource - CustomerManagement"
        }
    },
    "x-servers": [
        {
            "url": "http://127.0.0.1/",
            "description": "Test Server 1"
        }
    ],
    "tags": [
        {
            "name": "CreateInCollection",
            "description": "The CreateInCollection design pattern as defined by T-Mobile Digital Architecture."
        },
        {
            "name": "LeadMgmnt",
            "description": ""
        },
        {
            "name": "QueryResource",
            "description": "The QueryResource design pattern as defined by T-Mobile Digital Architecture."
        }
    ],
    "host": "tmobilea-sb01.apigee.net",
    "basePath": "/lead-services-sf/v1",
    "schemes": [
        "https"
    ],
    "paths": {
        "/store/create-lead": {
            "post": {
                "tags": [
                    "CreateInCollection",
                    "LeadMgmnt"
                ],
                "x-api-pattern": "CreateInCollection",
                "summary": "Creates a lead in the SalesForce environment",
                "description": "Creates a lead in the SalesForce environment",
                "operationId": "createLead",
                "consumes": [
                    "application/json",
                    "application/xml"
                ],
                "produces": [
                    "application/json",
                    "application/xml"
                ],
                "parameters": [
                    {
                        "name": "CreateLead",
                        "in": "body",
                        "description": "CreateLead",
                        "required": false,
                        "schema": {
                            "$ref": "#/definitions/CreateLead"
                        }
                    },
                    {
                        "name": "Authorization",
                        "in": "header",
                        "description": "The HTTP Authorization request header contains the credentials to authenticate a user agent with a server.",
                        "x-example": "Bearer mF_9.B5f-4.1JqM",
                        "required": true,
                        "type": "string",
                        "minLength": 1,
                        "maxLength": 256,
                        "pattern": "^[\\S ]+$"
                    },
                    {
                        "name": "Content-Type",
                        "in": "header",
                        "description": "The MIME type of this content",
                        "x-example": "text/xml",
                        "required": true,
                        "type": "string",
                        "minLength": 1,
                        "maxLength": 256,
                        "pattern": "^[ \\S]+$"
                    }
                ],
                "responses": {
                    "201": {
                        "description": "Lead that is created in SalesForce",
                        "schema": {
                            "$ref": "#/definitions/CreateLeadResponse"
                        },
                        "examples": {
                            "application/json": {
                                "result": {
                                    "returnCode": 0,
                                    "errorList": [
                                        "string"
                                    ]
                                },
                                "leadId": "00Q2F000002ewTzUAI"
                            }
                        },
                        "headers": {
                            "Cache-Control": {
                                "description": "Cache policy supported for the resource by the server",
                                "x-example": "no-cache",
                                "type": "string",
                                "minLength": 1,
                                "maxLength": 256,
                                "pattern": "^[\\S]*$"
                            },
                            "Content-Type": {
                                "description": "The MIME type of this content",
                                "x-example": "text/xml",
                                "type": "string",
                                "minLength": 1,
                                "maxLength": 256,
                                "pattern": "^[ \\S]+$"
                            },
                            "Date": {
                                "description": "The Date general HTTP header contains the date and time at which the message was originated.",
                                "x-example": "Mon, 05 Mar 2018 16:38:08 GMT",
                                "type": "string",
                                "format": "date-time",
                                "pattern": "^(Mon|Tue|Wed|Thu|Fri|Sat|Sun), [0-3]{1}[0-9]{1} (Jan|Feb|Mar|Apr|May|Jun|Jul|Aug|Sep|Oct|Nov|Dec) [1-3][0-9]{3} [0-2][0-9]:[0-6][0-9]:[0-6][0-9] GMT$"
                            },
                            "Location": {
                                "description": "The Location header specifies the URI of a created resource, or redirects the API consumer to an alternate resource location.",
                                "x-example": "http://api.t-mo.com/order-mgmt/v1/orders/123xyz-0/status",
                                "type": "string",
                                "minLength": 1,
                                "maxLength": 65536,
                                "pattern": "^[\\S]*$"
                            }
                        }
                    },
                    "400": {
                        "description": "Invalid request error",
                        "schema": {
                            "$ref": "#/definitions/Error"
                        },
                        "examples": {
                            "application/json": {
                                "code": "400",
                                "userMessage": "Invalid request error",
                                "systemMessage": "Invalid request error",
                                "detailLink": "http://www.tmus.com"
                            }
                        },
                        "headers": {}
                    },
                    "401": {
                        "description": "Unauthorized",
                        "schema": {
                            "$ref": "#/definitions/Error"
                        },
                        "examples": {
                            "application/json": {
                                "code": "401",
                                "userMessage": "Unauthorized",
                                "systemMessage": "Unauthorized",
                                "detailLink": "http://www.tmus.com"
                            }
                        },
                        "headers": {}
                    },
                    "403": {
                        "description": "Client access denied",
                        "schema": {
                            "$ref": "#/definitions/Error"
                        },
                        "examples": {
                            "application/json": {
                                "code": "403",
                                "userMessage": "Client access denied",
                                "systemMessage": "Client access denied",
                                "detailLink": "http://www.tmus.com"
                            }
                        },
                        "headers": {}
                    },
                    "404": {
                        "description": "Resource not found",
                        "schema": {
                            "$ref": "#/definitions/Error"
                        },
                        "examples": {
                            "application/json": {
                                "code": "404",
                                "userMessage": "Resource not found",
                                "systemMessage": "Resource not found",
                                "detailLink": "http://www.tmus.com"
                            }
                        },
                        "headers": {}
                    },
                    "405": {
                        "description": "Method Not Allowed",
                        "schema": {
                            "$ref": "#/definitions/Error"
                        },
                        "examples": {
                            "application/json": {
                                "code": "405",
                                "userMessage": "Method Not Allowed",
                                "systemMessage": "Method Not Allowed",
                                "detailLink": "http://www.tmus.com"
                            }
                        },
                        "headers": {
                            "Allow": {
                                "description": "list of supported methods for URI",
                                "x-example": "GET",
                                "type": "string",
                                "minLength": 1,
                                "maxLength": 256,
                                "pattern": "^[\\S]*$"
                            },
                            "service-transaction-id": {
                                "description": "Request ID echoed back by server",
                                "x-example": "23409209723",
                                "type": "string",
                                "minLength": 1,
                                "maxLength": 256,
                                "pattern": "^[\\S]*$"
                            }
                        }
                    },
                    "406": {
                        "description": "Mismatching data format",
                        "schema": {
                            "$ref": "#/definitions/Error"
                        },
                        "examples": {
                            "application/json": {
                                "code": "406",
                                "userMessage": "Mismatching data format",
                                "systemMessage": "Mismatching data format",
                                "detailLink": "http://www.tmus.com"
                            }
                        },
                        "headers": {}
                    },
                    "409": {
                        "description": "Invalid data",
                        "schema": {
                            "$ref": "#/definitions/Error"
                        },
                        "examples": {
                            "application/json": {
                                "code": "409",
                                "userMessage": "Invalid data",
                                "systemMessage": "Invalid data",
                                "detailLink": "http://www.tmus.com"
                            }
                        },
                        "headers": {}
                    },
                    "415": {
                        "description": "Unsupported Media Type",
                        "schema": {
                            "$ref": "#/definitions/Error"
                        },
                        "examples": {
                            "application/json": {
                                "code": "415",
                                "userMessage": "Unsupported Media Type",
                                "systemMessage": "Unsupported Media Type",
                                "detailLink": "http://www.tmus.com"
                            }
                        },
                        "headers": {}
                    },
                    "500": {
                        "description": "Internal server error",
                        "schema": {
                            "$ref": "#/definitions/Error"
                        },
                        "examples": {
                            "application/json": {
                                "code": "500",
                                "userMessage": "Internal server error",
                                "systemMessage": "Internal server error",
                                "detailLink": "http://www.tmus.com"
                            }
                        },
                        "headers": {}
                    },
                    "503": {
                        "description": "Service unavailable",
                        "schema": {
                            "$ref": "#/definitions/Error"
                        },
                        "examples": {
                            "application/json": {
                                "code": "503",
                                "userMessage": "Service unavailable",
                                "systemMessage": "Service unavailable",
                                "detailLink": "http://www.tmus.com"
                            }
                        },
                        "headers": {}
                    }
                },
                "security": [
                    {
                        "Authorization": []
                    }
                ]
            }
        },
        "/store/get-lead": {
            "get": {
                "tags": [
                    "QueryResource",
                    "LeadMgmnt"
                ],
                "x-api-pattern": "QueryResource",
                "summary": "Gets Lead info from Salesforce.",
                "description": "Gets Lead info from Salesforce.",
                "operationId": "getLead",
                "consumes": [
                    "application/json",
                    "application/xml"
                ],
                "produces": [
                    "application/json",
                    "application/xml"
                ],
                "parameters": [
                    {
                        "name": "leadId",
                        "in": "query",
                        "description": "string is a predefined object from an igniteXml model - cabinet 1001760002 build 1001760247 key 1001760477",
                        "required": true,
                        "type": "string",
                        "pattern": "^[\\S]*$",
                        "x-example": "00QW0000005UJwSMAW"
                    },
                    {
                        "name": "Authorization",
                        "in": "header",
                        "description": "The HTTP Authorization request header contains the credentials to authenticate a user agent with a server.",
                        "x-example": "Bearer mF_9.B5f-4.1JqM",
                        "required": true,
                        "type": "string",
                        "minLength": 1,
                        "maxLength": 256,
                        "pattern": "^[\\S ]+$"
                    }
                ],
                "responses": {
                    "200": {
                        "description": "Lead info that contains first name, last name, email, and lead info.",
                        "schema": {
                            "$ref": "#/definitions/GetLeadResponse"
                        },
                        "examples": {
                            "application/json": {
                                "result": {
                                    "returnCode": 0,
                                    "errorList": [
                                        "string"
                                    ]
                                },
                                "leadId": "00Q2F00000335C8UAI",
                                "lastName": "Gump",
                                "firstName": "Bubba",
                                "existingCustomer": "New Customer",
                                "email": "bubba3@none.com",
                                "reason": "New Service",
                                "phoneNumber": "4235555016",
                                "numberOfLines": "2",
                                "notes": "Some Notes",
                                "locale": "English"
                            }
                        },
                        "headers": {
                            "Cache-Control": {
                                "description": "Cache policy supported for the resource by the server",
                                "x-example": "no-cache",
                                "type": "string",
                                "minLength": 1,
                                "maxLength": 256,
                                "pattern": "^[\\S]*$"
                            },
                            "Content-Type": {
                                "description": "The MIME type of this content",
                                "x-example": "text/xml",
                                "type": "string",
                                "minLength": 1,
                                "maxLength": 256,
                                "pattern": "^[ \\S]+$"
                            },
                            "Date": {
                                "description": "The Date general HTTP header contains the date and time at which the message was originated.",
                                "x-example": "Mon, 05 Mar 2018 16:38:08 GMT",
                                "type": "string",
                                "format": "date-time",
                                "pattern": "^(Mon|Tue|Wed|Thu|Fri|Sat|Sun), [0-3]{1}[0-9]{1} (Jan|Feb|Mar|Apr|May|Jun|Jul|Aug|Sep|Oct|Nov|Dec) [1-3][0-9]{3} [0-2][0-9]:[0-6][0-9]:[0-6][0-9] GMT$"
                            }
                        }
                    },
                    "400": {
                        "description": "Invalid request error",
                        "schema": {
                            "$ref": "#/definitions/Error"
                        },
                        "examples": {
                            "application/json": {
                                "code": "400",
                                "userMessage": "Invalid request error",
                                "systemMessage": "Invalid request error",
                                "detailLink": "http://www.tmus.com"
                            }
                        },
                        "headers": {}
                    },
                    "401": {
                        "description": "Unauthorized",
                        "schema": {
                            "$ref": "#/definitions/Error"
                        },
                        "examples": {
                            "application/json": {
                                "code": "401",
                                "userMessage": "Unauthorized",
                                "systemMessage": "Unauthorized",
                                "detailLink": "http://www.tmus.com"
                            }
                        },
                        "headers": {}
                    },
                    "404": {
                        "description": "Resource not found",
                        "schema": {
                            "$ref": "#/definitions/Error"
                        },
                        "examples": {
                            "application/json": {
                                "code": "404",
                                "userMessage": "Resource not found",
                                "systemMessage": "Resource not found",
                                "detailLink": "http://www.tmus.com"
                            }
                        },
                        "headers": {}
                    },
                    "405": {
                        "description": "Method Not Allowed",
                        "schema": {
                            "$ref": "#/definitions/Error"
                        },
                        "examples": {
                            "application/json": {
                                "code": "405",
                                "userMessage": "Method Not Allowed",
                                "systemMessage": "Method Not Allowed",
                                "detailLink": "http://www.tmus.com"
                            }
                        },
                        "headers": {
                            "Allow": {
                                "description": "list of supported methods for URI",
                                "x-example": "GET",
                                "type": "string",
                                "minLength": 1,
                                "maxLength": 256,
                                "pattern": "^[\\S]*$"
                            },
                            "service-transaction-id": {
                                "description": "Request ID echoed back by server",
                                "x-example": "23409209723",
                                "type": "string",
                                "minLength": 1,
                                "maxLength": 256,
                                "pattern": "^[\\S]*$"
                            }
                        }
                    },
                    "406": {
                        "description": "Mismatching data format",
                        "schema": {
                            "$ref": "#/definitions/Error"
                        },
                        "examples": {
                            "application/json": {
                                "code": "406",
                                "userMessage": "Mismatching data format",
                                "systemMessage": "Mismatching data format",
                                "detailLink": "http://www.tmus.com"
                            }
                        },
                        "headers": {}
                    },
                    "500": {
                        "description": "Internal server error",
                        "schema": {
                            "$ref": "#/definitions/Error"
                        },
                        "examples": {
                            "application/json": {
                                "code": "500",
                                "userMessage": "Internal server error",
                                "systemMessage": "Internal server error",
                                "detailLink": "http://www.tmus.com"
                            }
                        },
                        "headers": {}
                    },
                    "503": {
                        "description": "Service unavailable",
                        "schema": {
                            "$ref": "#/definitions/Error"
                        },
                        "examples": {
                            "application/json": {
                                "code": "503",
                                "userMessage": "Service unavailable",
                                "systemMessage": "Service unavailable",
                                "detailLink": "http://www.tmus.com"
                            }
                        },
                        "headers": {}
                    }
                },
                "security": [
                    {
                        "Authorization": []
                    }
                ]
            }
        },
        "/store/save-lead-cart": {
            "post": {
                "tags": [
                    "CreateInCollection",
                    "LeadMgmnt"
                ],
                "x-api-pattern": "CreateInCollection",
                "summary": "Save a cart associated to a lead",
                "description": "Save a cart associated to a lead",
                "operationId": "saveLeadCart",
                "consumes": [
                    "application/json",
                    "application/xml"
                ],
                "produces": [
                    "application/json",
                    "application/xml"
                ],
                "parameters": [
                    {
                        "name": "SaveLeadCart",
                        "in": "body",
                        "description": "SaveLeadCart",
                        "required": false,
                        "schema": {
                            "$ref": "#/definitions/SaveLeadCart"
                        },
                        "x-example": {
                            "result": {
                                "returnCode": 0,
                                "errorList": [
                                    "string"
                                ]
                            }
                        }
                    },
                    {
                        "name": "Authorization",
                        "in": "header",
                        "description": "The HTTP Authorization request header contains the credentials to authenticate a user agent with a server.",
                        "x-example": "Bearer mF_9.B5f-4.1JqM",
                        "required": true,
                        "type": "string",
                        "minLength": 1,
                        "maxLength": 256,
                        "pattern": "^[\\S ]+$"
                    },
                    {
                        "name": "Content-Type",
                        "in": "header",
                        "description": "The MIME type of this content",
                        "x-example": "text/xml",
                        "required": true,
                        "type": "string",
                        "minLength": 1,
                        "maxLength": 256,
                        "pattern": "^[ \\S]+$"
                    }
                ],
                "responses": {
                    "201": {
                        "description": "Detail of the new appointment",
                        "schema": {
                            "$ref": "#/definitions/SaveLeadCartResponse"
                        },
                        "examples": {
                            "application/json": {
                                "result": {
                                    "returnCode": 0,
                                    "errorList": [
                                        "string"
                                    ]
                                }
                            }
                        },
                        "headers": {
                            "Cache-Control": {
                                "description": "Cache policy supported for the resource by the server",
                                "x-example": "no-cache",
                                "type": "string",
                                "minLength": 1,
                                "maxLength": 256,
                                "pattern": "^[\\S]*$"
                            },
                            "Content-Type": {
                                "description": "The MIME type of this content",
                                "x-example": "text/xml",
                                "type": "string",
                                "minLength": 1,
                                "maxLength": 256,
                                "pattern": "^[ \\S]+$"
                            },
                            "Date": {
                                "description": "The Date general HTTP header contains the date and time at which the message was originated.",
                                "x-example": "Mon, 05 Mar 2018 16:38:08 GMT",
                                "type": "string",
                                "format": "date-time",
                                "pattern": "^(Mon|Tue|Wed|Thu|Fri|Sat|Sun), [0-3]{1}[0-9]{1} (Jan|Feb|Mar|Apr|May|Jun|Jul|Aug|Sep|Oct|Nov|Dec) [1-3][0-9]{3} [0-2][0-9]:[0-6][0-9]:[0-6][0-9] GMT$"
                            },
                            "Location": {
                                "description": "The Location header specifies the URI of a created resource, or redirects the API consumer to an alternate resource location.",
                                "x-example": "http://api.t-mo.com/order-mgmt/v1/orders/123xyz-0/status",
                                "type": "string",
                                "minLength": 1,
                                "maxLength": 65536,
                                "pattern": "^[\\S]*$"
                            }
                        }
                    },
                    "400": {
                        "description": "Invalid request error",
                        "schema": {
                            "$ref": "#/definitions/Error"
                        },
                        "examples": {
                            "application/json": {
                                "code": "400",
                                "userMessage": "Invalid request error",
                                "systemMessage": "Invalid request error",
                                "detailLink": "http://www.tmus.com"
                            }
                        },
                        "headers": {}
                    },
                    "401": {
                        "description": "Unauthorized",
                        "schema": {
                            "$ref": "#/definitions/Error"
                        },
                        "examples": {
                            "application/json": {
                                "code": "401",
                                "userMessage": "Unauthorized",
                                "systemMessage": "Unauthorized",
                                "detailLink": "http://www.tmus.com"
                            }
                        },
                        "headers": {}
                    },
                    "403": {
                        "description": "Client access denied",
                        "schema": {
                            "$ref": "#/definitions/Error"
                        },
                        "examples": {
                            "application/json": {
                                "code": "403",
                                "userMessage": "Client access denied",
                                "systemMessage": "Client access denied",
                                "detailLink": "http://www.tmus.com"
                            }
                        },
                        "headers": {}
                    },
                    "404": {
                        "description": "Resource not found",
                        "schema": {
                            "$ref": "#/definitions/Error"
                        },
                        "examples": {
                            "application/json": {
                                "code": "404",
                                "userMessage": "Resource not found",
                                "systemMessage": "Resource not found",
                                "detailLink": "http://www.tmus.com"
                            }
                        },
                        "headers": {}
                    },
                    "405": {
                        "description": "Method Not Allowed",
                        "schema": {
                            "$ref": "#/definitions/Error"
                        },
                        "examples": {
                            "application/json": {
                                "code": "405",
                                "userMessage": "Method Not Allowed",
                                "systemMessage": "Method Not Allowed",
                                "detailLink": "http://www.tmus.com"
                            }
                        },
                        "headers": {
                            "Allow": {
                                "description": "list of supported methods for URI",
                                "x-example": "GET",
                                "type": "string",
                                "minLength": 1,
                                "maxLength": 256,
                                "pattern": "^[\\S]*$"
                            },
                            "service-transaction-id": {
                                "description": "Request ID echoed back by server",
                                "x-example": "23409209723",
                                "type": "string",
                                "minLength": 1,
                                "maxLength": 256,
                                "pattern": "^[\\S]*$"
                            }
                        }
                    },
                    "406": {
                        "description": "Mismatching data format",
                        "schema": {
                            "$ref": "#/definitions/Error"
                        },
                        "examples": {
                            "application/json": {
                                "code": "406",
                                "userMessage": "Mismatching data format",
                                "systemMessage": "Mismatching data format",
                                "detailLink": "http://www.tmus.com"
                            }
                        },
                        "headers": {}
                    },
                    "409": {
                        "description": "Invalid data",
                        "schema": {
                            "$ref": "#/definitions/Error"
                        },
                        "examples": {
                            "application/json": {
                                "code": "409",
                                "userMessage": "Invalid data",
                                "systemMessage": "Invalid data",
                                "detailLink": "http://www.tmus.com"
                            }
                        },
                        "headers": {}
                    },
                    "415": {
                        "description": "Unsupported Media Type",
                        "schema": {
                            "$ref": "#/definitions/Error"
                        },
                        "examples": {
                            "application/json": {
                                "code": "415",
                                "userMessage": "Unsupported Media Type",
                                "systemMessage": "Unsupported Media Type",
                                "detailLink": "http://www.tmus.com"
                            }
                        },
                        "headers": {}
                    },
                    "500": {
                        "description": "Internal server error",
                        "schema": {
                            "$ref": "#/definitions/Error"
                        },
                        "examples": {
                            "application/json": {
                                "code": "500",
                                "userMessage": "Internal server error",
                                "systemMessage": "Internal server error",
                                "detailLink": "http://www.tmus.com"
                            }
                        },
                        "headers": {}
                    },
                    "503": {
                        "description": "Service unavailable",
                        "schema": {
                            "$ref": "#/definitions/Error"
                        },
                        "examples": {
                            "application/json": {
                                "code": "503",
                                "userMessage": "Service unavailable",
                                "systemMessage": "Service unavailable",
                                "detailLink": "http://www.tmus.com"
                            }
                        },
                        "headers": {}
                    }
                },
                "security": [
                    {
                        "Authorization": []
                    }
                ]
            }
        }
    },
    "definitions": {
        "CreateLead": {
            "description": "CreateLead",
            "type": "object",
            "required": [
                "lastName",
                "email"
            ],
            "properties": {
                "storeId": {
                    "description": "storeId",
                    "example": "1212",
                    "type": "string"
                },
                "socialId": {
                    "description": "socialId",
                    "example": "11272025",
                    "type": "string"
                },
                "channel": {
                    "description": "channel",
                    "type": "string"
                },
                "socialProfilePicUrl": {
                    "description": "socialProfilePicUrl",
                    "example": "https://fbcdn-profi...",
                    "type": "string"
                },
                "firstName": {
                    "description": "firstName",
                    "example": "James",
                    "type": "string"
                },
                "lastName": {
                    "description": "lastName",
                    "example": "Dean",
                    "type": "string",
                    "pattern": "^[\\S]*$"
                },
                "email": {
                    "description": "email",
                    "example": "JDean@none.com",
                    "type": "string",
                    "pattern": "^[\\S]*$"
                },
                "phoneNumber": {
                    "description": "phoneNumber",
                    "example": "706555556",
                    "type": "string"
                },
                "phoneType": {
                    "description": "phoneType",
                    "example": "Home",
                    "type": "string"
                },
                "phoneColor": {
                    "description": "phoneColor",
                    "example": "BLue",
                    "type": "string"
                },
                "phoneMake": {
                    "description": "phoneMake",
                    "example": "Samsung",
                    "type": "string"
                },
                "phoneModel": {
                    "description": "phoneModel",
                    "example": "8",
                    "type": "string"
                },
                "phoneOS": {
                    "description": "phoneOS",
                    "example": "Android",
                    "type": "string"
                },
                "timezone": {
                    "description": "timezone",
                    "example": "-5",
                    "type": "string"
                },
                "locale": {
                    "description": "locale",
                    "type": "string"
                },
                "gender": {
                    "description": "gender",
                    "example": "male",
                    "type": "string"
                },
                "notes": {
                    "description": "notes",
                    "example": "Some notes",
                    "type": "string"
                },
                "numberofLines": {
                    "description": "numberofLines",
                    "example": "2",
                    "type": "string"
                },
                "existingCustomer": {
                    "description": "existingCustomer",
                    "example": "true",
                    "type": "string"
                },
                "consent": {
                    "description": "consent",
                    "example": "true",
                    "type": "string"
                },
                "contactMethod": {
                    "description": "contactMethod",
                    "example": "Email",
                    "type": "string"
                },
                "reason": {
                    "description": "reason",
                    "example": "AAL",
                    "type": "string"
                },
                "updateRecord": {
                    "description": "To check if the customer exists in Salesforce and update the record accordingly",
                    "example": "string",
                    "type": "string"
                },
                "zip": {
                    "description": "zip",
                    "example": "123",
                    "type": "string"
                },
				"adobeCampaignId": {
                    "description": "adobeCampaignId",
                    "example": "sfgh123rsdght",
                    "type": "string"
                }
            }
        },
        "CreateLeadResponse": {
            "description": "CreateLeadResponse",
            "example": {
                "result": {
                    "returnCode": 0,
                    "errorList": [
                        "string"
                    ]
                },
                "leadId": "00Q2F000002ewTzUAI"
            },
            "type": "object",
            "properties": {
                "result": {
                    "$ref": "#/definitions/CreateLeadResponseResult"
                },
                "leadId": {
                    "description": "leadId",
                    "example": "00Q2F000002ewTzUAI",
                    "type": "string"
                }
            }
        },
        "CreateLeadResponseResult": {
            "description": "result",
            "type": "object",
            "properties": {
                "returnCode": {
                    "description": "returnCode",
                    "type": "integer",
                    "format": "int32",
                    "pattern": "^[\\S ]+$"
                },
                "errorList": {
                    "description": "An array of errorList objects.",
                    "type": "array",
                    "items": {
                        "type": "string",
                        "description": "A single instance of the errorList object."
                    }
                }
            }
        },
        "Error": {
            "description": "As defined in http://api-standards.apps.px-npe01.cf.t-mobile.com/http/status-codes/error-response-format/",
            "type": "object",
            "required": [
                "code",
                "userMessage"
            ],
            "properties": {
                "code": {
                    "description": "A succinct, domain-specific, human-readable text string to identify the type of error for the given status code",
                    "example": "ProductNotFound",
                    "type": "string",
                    "pattern": "^[\\S ]+$"
                },
                "userMessage": {
                    "description": "A human-readable message describing the error.",
                    "example": "Failed to find product.",
                    "type": "string",
                    "pattern": "^[\\S ]+$"
                },
                "systemMessage": {
                    "description": "Text that provides a more detailed technical explanation of the error",
                    "example": "PRODUCT_NOT_FOUND",
                    "type": "string"
                },
                "detailLink": {
                    "description": "link to custom information providing greater detail on error or errors",
                    "example": "http://aaa.bbb.ccc/",
                    "type": "string"
                }
            }
        },
        "GetLeadResponse": {
            "description": "GetLeadResponse",
            "example": {
                "result": {
                    "returnCode": 0,
                    "errorList": [
                        "string"
                    ]
                },
                "leadId": "00Q2F00000335C8UAI",
                "lastName": "Gump",
                "firstName": "Bubba",
                "existingCustomer": "New Customer",
                "email": "bubba3@none.com",
                "reason": "New Service",
                "phoneNumber": "4235555016",
                "numberOfLines": "2",
                "notes": "Some Notes",
                "locale": "English",
                "contactMethod": "Email",
                "consent": "true"
            },
            "type": "object",
            "properties": {
                "result": {
                    "$ref": "#/definitions/GetLeadResponseResult"
                },
                "leadId": {
                    "description": "leadId",
                    "example": "00Q2F00000335C8UAI",
                    "type": "string"
                },
                "lastName": {
                    "description": "lastName",
                    "example": "Gump",
                    "type": "string"
                },
                "firstName": {
                    "description": "firstName",
                    "example": "Bubba",
                    "type": "string"
                },
                "existingCustomer": {
                    "description": "existingCustomer",
                    "example": "New Customer",
                    "type": "string"
                },
                "email": {
                    "description": "email",
                    "example": "bubba3@none.com",
                    "type": "string"
                },
                "reason": {
                    "description": "reason",
                    "example": "New Service",
                    "type": "string"
                },
                "phoneNumber": {
                    "description": "phoneNumber",
                    "example": "4235555016",
                    "type": "string"
                },
                "numberOfLines": {
                    "description": "numberOfLines",
                    "example": "2",
                    "type": "string"
                },
                "notes": {
                    "description": "notes",
                    "example": "Some Notes",
                    "type": "string"
                },
                "locale": {
                    "description": "locale",
                    "example": "English",
                    "type": "string"
                },
                "contactMethod": {
                    "description": "contact preference",
                    "example": "Email",
                    "type": "string"
                },
                "consent": {
                    "description": "consent",
                    "example": "true",
                    "type": "string"
                }
            }
        },
        "GetLeadResponseResult": {
            "description": "result",
            "type": "object",
            "properties": {
                "returnCode": {
                    "description": "returnCode",
                    "type": "integer",
                    "format": "int32",
                    "pattern": "^[\\S ]+$"
                },
                "errorList": {
                    "description": "An array of errorList objects.",
                    "type": "array",
                    "items": {
                        "type": "string",
                        "description": "A single instance of the errorList object."
                    }
                }
            }
        },
        "Result": {
            "description": "result",
            "type": "object",
            "properties": {
                "returnCode": {
                    "description": "returnCode",
                    "type": "integer",
                    "format": "int32",
                    "pattern": "^[\\S ]+$"
                },
                "errorList": {
                    "description": "An array of errorList objects.",
                    "type": "array",
                    "items": {
                        "type": "string",
                        "description": "A single instance of the errorList object."
                    }
                }
            }
        },
        "SaveLeadCart": {
            "description": "SaveLeadCart",
            "type": "object",
            "required": [
                "leadId",
                "cartURL",
                "cartType"
            ],
            "properties": {
                "leadId": {
                    "description": "leadId",
                    "example": "00Q2F000002ewTzUAI",
                    "type": "string",
                    "pattern": "^[\\S]*$"
                },
                "cartURL": {
                    "description": "URL to retrieve any cart web/saved to retail or dash cart",
                    "example": "https://t-mobile.com/tokenid",
                    "type": "string",
                    "maxLength": 255,
                    "pattern": "^[\\S]*$"
                },
                "cartType": {
                    "description": "cartType",
                    "example": "cart",
                    "type": "string",
                    "pattern": "^[\\S]*$"
                }
            }
        },
        "SaveLeadCartResponse": {
            "description": "SaveLeadCartResponse",
            "example": {
                "result": {
                    "returnCode": 0,
                    "errorList": [
                        "string"
                    ]
                }
            },
            "type": "object",
            "properties": {
                "result": {
                    "$ref": "#/definitions/Result"
                }
            }
        }
    },
    "securityDefinitions": {
        "Authorization": {
            "type": "oauth2",
            "description": "Bearer Token",
            "tokenUrl": "https://tmobilea-sb01.apigee.net/v1/oauthv2/accessToken?grant_type=client_credentials",
            "flow": "application",
            "scopes": {}
        }
    }
}