@startuml
skinparam style strictuml
participant UI
participant APIGEE
participant Heroku
database POSTGRES
database SalesForce

Title __Get Store Agents __

UI -> APIGEE :  Request Apigee Access Token
APIGEE -[#Green]--> UI : Success Response with Apigee Token
|||
UI -> APIGEE : getStoreAgents [get:/get-store-agents]
APIGEE -> APIGEE :  Validates Access Token

APIGEE -> Heroku : Request Herkou Access Token
Heroku -> APIGEE : Success Response with Heroku Token

POSTGRES <-> SalesForce : Synchronization

APIGEE -> Heroku : GetStoreAgentsRequest
Heroku -> Heroku :  Process GetStoreAgentsRequest
Heroku -> POSTGRES : Retreive data from Database

POSTGRES -[#Green]--> Heroku : Success
Heroku -[#Green]--> APIGEE : Success
APIGEE -[#Green]--> UI : Success

@enduml