@startuml
skinparam style strictuml
participant UI
participant APIGEE
participant Heroku
database POSTGRES
database SalesForce

Title __Search Customer__

UI -> APIGEE :  Request Apigee Access Token
APIGEE -[#Green]--> UI : Success Response with Apigee Token
|||
UI -> APIGEE : getSearchCustomer [get:/get-search-customer]
APIGEE -> APIGEE :  Validates Access Token

APIGEE -> Heroku : Request Herkou Access Token
Heroku -> APIGEE : Success Response with Heroku Token

POSTGRES <-> SalesForce : Synchronization

APIGEE -> Heroku : GetSearchCustomerRequest
Heroku -> Heroku :  Process GetSearchCustomerRequest
Heroku -> POSTGRES : Retreive data from Database

POSTGRES -[#Green]--> Heroku : Success
Heroku -[#Green]--> APIGEE : Success
APIGEE -[#Green]--> UI : Success

@enduml