@startuml
skinparam style strictuml
participant UI
participant APIGEE
participant Heroku
database POSTGRES
database SalesForce
participant Deep_IO
participant Sms_Notification
participant Chub
participant Gip_Whip
participant DND
participant BNE_SDE
participant MSP
participant Sellegent
actor Customer

Title __Add/Update Customer InLine__

UI -> APIGEE :  Request Apigee Access Token
APIGEE -[#Green]--> UI : Success Response with Apigee Token
|||
UI -> APIGEE : Add/Update Customer InLine [post:/in-line]
APIGEE -> APIGEE :  Validates Access Token

APIGEE -> Heroku : Request Herkou Access Token
Heroku -> APIGEE : Success Response with Heroku Token

POSTGRES <-> SalesForce : Synchronization

APIGEE -> Heroku : InLineRequest
Heroku -> Heroku :  Process InLineRequest
Heroku -> POSTGRES : Update Database

POSTGRES -[#Green]--> Heroku : Success

note over Heroku: Consent true and Mobile Number Present
Heroku -> Deep_IO : SMS Notifications Request [post:/deep/v1/events/]
Deep_IO -> Sms_Notification : SMS Notifications Request
Sms_Notification -> Chub : Verify TMO/Non-TMO
Chub -> Sms_Notification : Chub verification response
Sms_Notification -> DND : TMO SMS Notification
DND -> BNE_SDE : TMO SMS Notification
BNE_SDE -> Customer : TMO SMS Notification
Sms_Notification -> Gip_Whip : Non-TMO SMS Notification
Gip_Whip -> Customer : Non-TMO SMS Notification

note over Heroku: Consent true and only Email Present
Heroku -> MSP : Email Notifications Request [post:/isa-producer/v1/publish]
MSP -> Sellegent : Email Notifications Request
Sellegent -> Customer : Email Notification

Heroku -[#Green]--> APIGEE : Success
APIGEE -[#Green]--> UI : Success

@enduml