{
  "swagger": "2.0",
  "basePath": "/reb2-payment /v1",
  "host": "qlab22.op.api.t-mobile.com",
  "x-servers": [
    {
      "url": "qlab02.op.api.t-mobile.com"
    },
    {
      "descritpion": "qlab environment"
    }
  ],
  "info": {
    "description": "This service is used to get auto pay calls backend financialAccountWsil.getFinancialAccountDetails ",
    "version": "1.0.0",
    "title": "API:2623(216):getAutopay",
    "contact": {
      "name": "Shashi Bandi",
      "email": "shashi.bandi4@t-mobile.com"
    }
  },
  "schemes": [
    "https"
  ],
  "tags": [
    {
      "name": "payment"
    }
  ],
  "paths": {
    "/customers/{customerId}/accounts/{accountId}/auto-pay": {
      "get": {
        "summary": "GetAutoPay",
        "description": "API:216:getAutoPay",
        "operationId": "getPaymentMethods",
        "consumes": [
          "application/json",
          "application/xml"
        ],
        "produces": [
          "application/json"
        ],
        "parameters": [
          {
            "name": "content-type",
            "in": "header",
            "description": "content type",
            "required": false,
            "type": "string",
            "x-example": "application/json"
          },
          {
            "name": "cache-control",
            "in": "header",
            "description": "cache control param",
            "required": false,
            "type": "string",
            "x-example": "no-cache"
          },
          {
            "name": "senderid",
            "in": "header",
            "description": "senderid",
            "required": false,
            "type": "string",
            "x-example": "SOA"
          },
          {
            "name": "channelid",
            "in": "header",
            "description": "channelid",
            "required": false,
            "type": "string",
            "x-example": "receive"
          },
          {
            "name": "applicationid",
            "in": "header",
            "description": "applicationid",
            "required": false,
            "type": "string",
            "x-example": "4654623324534"
          },
          {
            "name": "applicationuserid",
            "in": "header",
            "description": "applicationuserid",
            "required": false,
            "type": "string",
            "x-example": "Bellarmin"
          },
          {
            "name": "activityid",
            "in": "header",
            "description": "activityid",
            "required": false,
            "type": "string",
            "x-example": "745545345"
          },
          {
            "name": "interactionid",
            "in": "header",
            "description": "interactionid",
            "required": false,
            "type": "string",
            "x-example": "68564653454"
          },
          {
            "name": "sessionid",
            "in": "header",
            "description": "sessionid",
            "required": false,
            "type": "string",
            "x-example": "98657463542342335"
          },
          {
            "name": "dealercode",
            "in": "header",
            "description": "dealercode",
            "required": false,
            "type": "string",
            "x-example": "SOA"
          },
          {
            "name": "masterdealercode",
            "in": "header",
            "description": "masterdealercode",
            "required": false,
            "type": "string",
            "x-example": "SOA"
          },
          {
            "name": "workflowid",
            "in": "header",
            "description": "workflowid",
            "required": false,
            "type": "string",
            "x-example": "SOA"
          },
          {
            "name": "storeid",
            "in": "header",
            "description": "storeid",
            "required": false,
            "type": "string",
            "x-example": "2011"
          },
          {
            "name": "timestamp",
            "in": "header",
            "description": "timestamp",
            "required": false,
            "type": "string",
            "x-example": "2018-04-23T07:24:46+00:00"
          },
          {
            "name": "Authorization",
            "in": "header",
            "description": "Authorization",
            "required": false,
            "type": "string",
            "x-example": "KKJAemHqsy9TVQ2ljqFxzSLwNzjC"
          },
          {
            "name": "customerId",
            "in": "path",
            "description": "valid customerId",
            "required": true,
            "type": "number",
            "x-example": "C320026563"
          },
          {
            "name": "accountId",
            "in": "path",
            "description": "valid financial accountId",
            "required": true,
            "type": "number",
            "x-example": "172544729"
          }
        ],
        "tags": [
          "payment"
        ],
        "security": [
          {
            "Oauth": []
          }
        ],
        "responses": {
          "201": {
            "description": "Successful response",
            "schema": {
              "$ref": "#/definitions/GetAutoPaymentItems"
            },
            "headers": {
              "Location": {
                "description": "The Location header specifies the URI of a created resource, or redirects the API consumer to an alternate resource location.",
                "type": "string",
                "x-example": "URL"
              }
            }
          },
          "204": {
            "description": "No Content"
          },
          "400": {
            "description": "Status 400",
            "schema": {
              "$ref": "#/definitions/Errors"
            }
          },
          "401": {
            "description": "Unauthorized Access",
            "schema": {
              "$ref": "#/definitions/Errors"
            },
            "examples": {
              "application/json": [
                {
                  "code": "401",
                  "userMessage": "Unauthorised Access",
                  "systemMessage": "Unauthorised Access"
                }
              ]
            }
          },
          "403": {
            "description": "Accessing the resource you were trying to reach is forbidden",
            "schema": {
              "$ref": "#/definitions/Errors"
            },
            "examples": {
              "application/json": [
                {
                  "code": "403",
                  "userMessage": "Access Denied",
                  "systemMessage": "Forbidden"
                }
              ]
            }
          },
          "404": {
            "description": "The resource you were trying to reach is not found",
            "schema": {
              "$ref": "#/definitions/Errors"
            }
          },
          "500": {
            "description": "Status 500",
            "schema": {
              "$ref": "#/definitions/Errors"
            }
          },
          "503": {
            "description": "Status 503",
            "schema": {
              "$ref": "#/definitions/Errors"
            }
          }
        }
      }
    }
  },
  "definitions": {
    "Errors": {
      "description": "Describes the collection of error",
      "type": "array",
      "items": {
        "$ref": "#/definitions/Error"
      }
    },
    "Error": {
      "type": "object",
      "description": "Describes the error collection",
      "properties": {
        "userMessage": {
          "$ref": "#/definitions/UserMessage"
        },
        "systemMessage": {
          "$ref": "#/definitions/SystemMessage"
        },
        "code": {
          "$ref": "#/definitions/ErrorCode"
        }
      }
    },
    "ErrorCode": {
      "type": "string",
      "description": "Error Code as per the T-Mobile standards"
    },
    "SystemMessage": {
      "type": "string",
      "description": "Error information from the system"
    },
    "UserMessage": {
      "type": "string",
      "description": "User friendly information for the error"
    },
    "GetAutoPaymentItems": {
      "title": "GetAutoPaymentItems",
      "description": "Get Auto Payment Method",
      "type": "object",
      "properties": {
        "billCycle": {
          "$ref": "#/definitions/GetAutoPayBillCycle"
        },
        "funds": {
          "$ref": "#/definitions/GetAutoPayFunds"
        },
        "payment": {
          "$ref": "#/definitions/GetAutoPaymentPaymentItems"
        },
        "type": {
          "type": "string",
          "description": "Type"
        },
        "status": {
          "type": "string",
          "description": "Status"
        },
        "blackoutPeriod": {
          "type": "boolean",
          "description": "Blackout Period"
        },
        "monthlyRecurringCharge": {
          "type": "string",
          "description": "Monthly recurring charge"
        },
        "nextAutoPayPayment": {
          "type": "string",
          "description": "Next Auto Pay Payment"
        },
        "autoPayEffectivePeriod": {
          "$ref": "#/definitions/GetAutoPayEffectivePeriod"
        },
        "autopayEnabled": {
          "type": "boolean",
          "description": "Auto pay enabled or not"
        }
      }
    },
    "GetAutoPaymentPaymentItems": {
      "title": "GetAutoPaymentPaymentItems",
      "description": "Get Auto Payment Method",
      "type": "object",
      "properties": {
        "nextPayment": {
          "$ref": "#/definitions/GetAutopayNextPayment"
        },
        "amount": {
          "type": "string",
          "description": "Amount"
        },
        "dueDate": {
          "type": "string",
          "description": "Due date"
        },
        "startDate": {
          "type": "string",
          "description": "Start date"
        },
        "frequency": {
          "$ref": "#/definitions/GetAutopayPaymentFrequencyItem"
        },
        "paymentMethod": {
          "$ref": "#/definitions/GetAutopayPaymentPaymentMethodItem"
        }
      }
    },
    "GetAutopayNextPayment": {
      "title": "GetAutopayNextPayment",
      "description": "Get Auto pay next payment",
      "type": "object",
      "properties": {
        "amount": {
          "type": "string",
          "description": "Next payment amount"
        },
        "date": {
          "type": "string",
          "description": "Next payment date"
        }
      }
    },
    "GetAutoPayFunds": {
      "title": "funds",
      "type": "object",
      "description": "Get autopay funds",
      "properties": {
        "available": {
          "type": "string",
          "description": "Available"
        },
        "required": {
          "type": "string",
          "description": "Required"
        },
        "availableExpiration": {
          "type": "string",
          "description": "Available expiration"
        }
      }
    },
    "GetAutopayPaymentPaymentMethodItem": {
      "title": "paymentMethod",
      "type": "object",
      "description": "Get autopay payment method",
      "properties": {
        "zipcode": {
          "type": "string",
          "description": "Zip code"
        },
        "type": {
          "type": "string",
          "description": "Type"
        },
        "refNumber": {
          "type": "string",
          "description": "Referance number"
        },
        "cardNumber": {
          "type": "string",
          "description": "Card number"
        },
        "cardHolderName": {
          "type": "string",
          "description": "Name of card holder"
        },
        "expirationMonthYear": {
          "type": "string",
          "description": "Expiration month year"
        },
        "cardType": {
          "type": "string",
          "description": "Card type"
        }
      }
    },
    "GetAutoPayBillCycle": {
      "title": "billCycle",
      "type": "object",
      "description": "Autopay billcycle start and end date",
      "properties": {
        "startDate": {
          "type": "string",
          "description": "Start date"
        },
        "endDate": {
          "type": "string",
          "description": "End date"
        }
      }
    },
    "GetAutoPayEffectivePeriod": {
      "title": "billCycle",
      "type": "object",
      "description": "Autopay billcycle start and end date",
      "properties": {
        "startDate": {
          "type": "string",
          "description": "Start date"
        },
        "dueDate": {
          "type": "string",
          "description": "Due date"
        }
      }
    },
    "GetAutopayPaymentFrequencyItem": {
      "title": "frequency",
      "type": "object",
      "description": "Get autopay payment frequency",
      "properties": {
        "startDate": {
          "type": "string",
          "description": "Start date"
        },
        "firstDate": {
          "type": "string",
          "description": "First date"
        },
        "type": {
          "type": "string",
          "description": "Type"
        },
        "secondDate": {
          "type": "string",
          "description": "Second date"
        },
        "dayOfWeek": {
          "type": "string",
          "description": "Day of Week"
        }
      }
    }
  },
  "securityDefinitions": {
    "Oauth": {
      "type": "oauth2",
      "tokenUrl": "https://qlab01.facade.op.api.t-mobile.com/v1/oauth2-facade/access-token?grant_type=client_credentials",
      "description": "When you sign up for an account, you are given your first API key\n",
      "flow": "application"
    }
  }
}