@startuml

title U2 Postpaid #1\n\n\n

ms -> exp
exp -> expQ
expQ -> expHandler
expHandler -> DB
expHandler -> expDB
expDB -> expManualRecovery
expManualRecovery <- expRecoveryUI
expDB -> recoveryProcess
recoveryProcess <- expManualRecovery
recoveryProcess <- autoRecovery
recoveryProcess -> replay
replay -> ms

@enduml