@startuml

participant "MicroApp" as app
participant "Microservices" as ms
participant "ExceptionQueue" as expQ
participant "ExceptionHandler" as expHandle
participant "ExceptionDataGrid" as datagrid
participant "CloudNativeService" as cns

activate app
app -> ms : Exception Recovery Manual
activate ms
ms -> expQ : Rabbit MQ
deactivate app
activate expQ
expQ -> expHandle : Rabbit MQ
activate expHandle
expHandle -> datagrid
activate datagrid
datagrid -> cns : Recovery Process
activate cns
cns -> cns: Auto Recovery
deactivate datagrid
deactivate expHandle
deactivate expQ
cns -> ms : replay
deactivate cns

deactivate ms



@enduml