@startuml
actor OMS
actor TibcoADBAdapter
actor EBSWrapper
actor RSP
actor OpenText

OMS -> TibcoADBAdapter: OMSOrder CreateEIPDisclosure Request
TibcoADBAdapter->EBSWrapper
EBSWrapper-> RSP:AsyncCreateEIPDisclosure Request [[https://servicecatalog.internal.t-mobile.com/servicecat/rsppcf/2019-03-16/wsdl_api/wsdl/EquipmentInstallmentProgramService.wsdl WSDL]]
RSP->OpenText: Disclosure request
OpenText->RSP: Disclosure response
 alt CreateEIPDisclosure call success
RSP->EBSWrapper:CreateEIPDisclosure response
else CreateEIPDisclosure call failure
EBSWrapper->TibcoADBAdapter:Update the ADB_L_DELIVERY_STATUS E 
end
@enduml