@startuml
participant OMAPI
participant OMS
participant "OF Loan \n Handler" as OFLH
participant "OF Document \nHandler" as OFDH
participant "OF SAP \n Shipment Handler" as OFSH
participant "OF Event \n Publisher" as OFEP
participant DEEP.io

OMAPI -> OMS : SubmitOrder (EMS)
OMS -> OMS   : Decompose Order \n & Create Build Plan

Opt TradeIn Child Order
   OMS -> OMS  : IF Order has TradeIn
   OMS -> OFTH : TradeIn Child Order [[./ce.dsg.od.of.tradeInDispositionHandler.svg TradeIn Handler SD]]
end

Opt Loan Child Order
   OMS -> OMS  : IF Order has Loan
   OMS -> OFLH : Loan Child Order [[./ce.dsg.od.loanFlow.svg Loan Flow SD]]
end

Par Shipment & Document Child Orders are trigerred parallely
   Opt Shipment Child Order
      OMS -> OFSH : Shipment Child Order [[./ce.dsg.od.shipmentFlow.svg Shipment Flow SD]]
   end

   Opt Document Child Order
      OMS -> OMS  : IF Offline Document Flow
      OMS -> OFDH : Document Child Order [[./ce.dsg.od.documentFlow.svg Document Flow SD]]
   end
end

Group Parent Order Completion
   OMS -> OMS      : IF all Child Orders are Completed
   OMS -> OMS      : Mark Parent Order as Completed
   OMS -> OMAPI    : Update Order in DataGrid
   OMAPI -> OFEP   : Publish Event
   OFEP -> DEEP.io : Publish OrderCompleted \nEvent
end
@enduml