﻿@startuml
title PHP feature response handler
participant OF_feature_Handler
participant EMS
participant OMS
participant microservice
participant StateMachineService

OF_feature_Handler->EMS:[[./ce.dsg.od.of.featureHandler.puml.svg OF Feature handler event]]
note left:TMOBILE.ICLOUD.ORDERMANAGEMENT.Feature.RESPONSE.V4
EMS->OMS:Feature Response
alt success response from microservice
	alt Feature changed Successfully Event
		autonumber 1		
		microservice->OMS:PHP child order Complete
	else PHP creation failed event
		autonumber 2
		microservice->OMS:Add error code description on order
		microservice->OMS:PHP child order Complete
	end
else  failure response from microservice
	opt circuit breaker is on
		OMS->OMS: OMS consumes event BAU
	end
end
OMS-> EMS: Publish PHP child order status
	note left : internal queue
	alt if boot is on
		EMS->microservice: publisheorder boot
		microservice->API: publish child order update
	else if boot is off
		EMS->OMS: publisheorder service
		OMS->API: publish child order update
	end
OMS-> EMS: Message to Internal queue for State Machine
note left: buildplan.process.queue \n Order status changes to Interim/<substatus>, Completed, Cancelled will be evaluated
OMS --> StateMachineService: Trigger Next Dependent Child orders
@enduml