@startuml
participant RSP
participant OMS
participant Tibco
participant Deep.io
participant EEREventHandler as "OF-EER-EventHandler"
participant OrdersDataAccess
database OrderRepository

RSP -> OMS: TMOProcessHoldType request with eSig complete

OMS -> OMS: OMS will update the order in OMS

OMS -> RSP: TMOProcessHoldType response to RSP with success

OMS -> Tibco: eSign Complete Event update is posted
Tibco -> EEREventHandler : ESIGN_SIGNED Event update is posted to JMS via EDB
EEREventHandler -> EEREventHandler: process message in JMSQueue
alt Order is not in GF
    EEREventHandler -> Tibco: GetOrderDetails
    Tibco -> OMS
    OMS -> Tibco
    Tibco -> EEREventHandler: order payload
end
EEREventHandler -> EEREventHandler: order payload transformation
EEREventHandler -> OrdersDataAccess: Update order status \n POST /v2/dataaccess/orders \n[[..ce.dsg.od.api.orders-data-access.svg]] \n[[..ce.dsg.om/Order-Data-Access.json]]
OrdersDataAccess -> OrderRepository: update legacy order
OrdersDataAccess -> EEREventHandler: 204 No Content

Opt

OMS -> OMS: OMS will check if ATP Configuration is turned ON

OMS -[#blue]> Tibco: ATP Check via [[http://flows.corporate.t-mobile.com/all-diagrams/sequence_diagrams/dice/ce.dsg.dice.dm.pcf.getinventorystatus.txt/ Inventory Check]]

Alt Success

Tibco-> OMS: ESD Information for Devices are returned

OMS -> OMS: OMS will update ESD information on order

OMS -> Deep.io: OMS will publish events to Deep for Esig completion

Else Error

Tibco -> OMS: Tibco responds with error


OMS -> OMS: OMS will implement CB

OMS -> OMS: OMS will fetch ESD information from Inventory Feed cache

end

OMS -[#blue]> Deep.io: OMS publishes UpdateOMSOrder to Deep.io with eSign completed status \n consumed by SAP

end
@enduml