@startuml
skinparam SequenceMessageAlign center
Participant "OMS" as Source
Participant "EMS" as Queue
Participant "ShipmentStatus Handler\nOrders-oms-shipmentstatus-handler" as QReciever
Participant "ErrorLookup" as EL
Participant "APIGEE" as API 
Participant "UPS API" as UPSAPI
Participant "Tibco Event Management" as EventManagementment

Source -> Queue :shipmentstatus child order message\n Post the message to the Queue-TMO.ENVNAME.OMS.SHIPMENT.DELIVERY.UPDATE.V1
Queue->Queue:DeliveryCount=1
Queue -> QReciever : Consumes the message
QReciever -> API : Invoke the APIGEE Layer  \n getShipmentStatus REST API Call  \n https://HOSTNAME:PORT/ordermanagement/v1/shipping-history?tracking-number&order-id&carrier
API-> UPSAPI : Invoke UPS API \n getShipmentStatus
UPSAPI -> API : Response

API -> QReciever : Response
QReciever->QReciever:if Shipmentstatus = 'Delivered'
QReciever -> EventManagementment : Invoke TIBCO SOAP service  createOrderEvent \n https:/HOSTNAME:PORT//Event/Publish/OrderEvent
EventManagementment -> QReciever : Success response
QReciever ->Queue : Acknowledge the message
Queue ->Source : Acknowledge the message
alt
QReciever->QReciever:if Shipmentstatus! = 'Delivered'
QReciever ->Queue : Acknowledge the message
Queue ->Source : Acknowledge the message
end

group Retry-able Error
EventManagementment--[#blue]>EventManagementment:if statusCode!=S
EventManagementment--[#blue]>EL:Error Response
EL->EL:if Retry=true
EL-[#blue]-> QReciever : Error Response
QReciever->QReciever:if DeliveryCount<MaxRetryCount 
QReciever ->Queue : Request to Fetch the message again
Queue->Queue: DeliveryCount Incremented
Queue -> QReciever : Consumes the message
QReciever -> API : Invoke the APIGEE Layer  \n getShipmentStatus REST API Call  \n https://HOSTNAME:PORT/ordermanagement/v1/shipping-history?tracking-number&order-id&carrier
API-> UPSAPI : Invoke UPS API \n getShipmentStatus
UPSAPI -> API : Success Response
API -> QReciever : Success Response
QReciever -> QReciever : if Shipmentstatus = 'Delivered'
QReciever -> EventManagementment : Invoke TIBCO SOAP service createOrderEvent \n https:/HOSTNAME:PORT//Event/Publish/OrderEvent
EventManagementment -> QReciever : Success Response
QReciever ->Queue : Acknowledge the message
Queue ->Source : Acknowledge the message
alt
QReciever -> QReciever : if Shipmentstatus! = 'Delivered'
QReciever ->Queue : Acknowledge the message
Queue ->Source : Acknowledge the message
end


Alt If Maximum RetryAttempts Completed
EventManagementment  -[#blue]-> QReciever : Error Response

QReciever-[#blue]->QReciever:if DeliveryCount>=MaxRetryCount
QReciever -[#blue]->Queue :Acknowledge the message
Queue -[#blue]->Source :Acknowledge the message
end
end


group Non-Retry-able Error
EventManagementment  -[#blue]-> EL: Error Response
EL->EL:if Retry=false
EL-[#blue]-> QReciever :Acknowledge the message 
QReciever -[#blue]->Queue :Acknowledge the message
Queue -[#blue]->Source :Acknowledge the message
end
@enduml
