@startuml
skinparam SequenceMessageAlign center
actor "EBS" as Y
actor "OF" as X
participant "post-return-orders(APIGEE)" as APG
participant "generic-orders-preprocessor(PCF APP)" as C
participant "return-orders-preprocessor(PCF App)" as A
participant "EMS MW Processor POST Queue" as Q1
participant "EMS MW Processor PUT Queue" as Q4
participant "return-orders-processor(PCF APP)" as B
participant "return-orders-data-access" as ROD
participant "legacy-orders-data-access" as LOD
participant "orders-data-access" as OD
participant "child-orders-data-access" as COD
participant "EMS OMS Queue" as Q2
participant "EMS ERROR Queue" as Q3


Y->APG: POST:https://<host>:<port>/ordermanagement/v4/orders/return
note right of Y #ee00aa: digital returns of device/accessory
APG->A: POST:https://<host>:<port>/ordermanagement/v4/orders/return
note right of Y #ee00aa: send it to return-orders preprocessor in case of returns
A-[#MidnightBlue]>A : Authenticate user
A-[#MidnightBlue]>A : validation against schema, transactionType
note right of A #ee00aa: upon successfully authentication
alt if original orderId present
	A -> OD : get original orderId segmentation
	OD -> A : order details/empty records
end
alt if validation is success and original order exists
	alt if async enabled
		A -> Q1 : Publish return orders data to processor submit mw queue
	else
		A -> B : post return order
	end
		A->APG: 201 OK
		APG->Y: 201 OK	
else
		A->APG: 400 Bad Request
		APG->Y: 400 Bad Request
end


X->C: POST:https://<host>:<port>/ordermanagement/v4/orders
note right of X #ee00aa: HIR blind return of device \n legacy blind return of device  \n digital blind return \n HIR regular return \n Legacy regular return
C->A: POST:https://<host>:<port>/ordermanagement/v4/orders/return
note right of C #ee00aa: send it to return-orders preprocessor in case of returns
A-[#MidnightBlue]>A : Authenticate user
A-[#MidnightBlue]>A : validation against schema, transactionType
note right of A #ee00aa: upon successfully authentication
alt if original orderId present \n for legacy blind return, \n digital blind return \n 
	A -> OD : get original orderId segmentation
	OD -> A : order details/empty records
else if HIR
	A -> OD : get order api with msisdn/imei/ban
	OD -> A : original HI order
else if Legacy regular return
	A -> A : no validation check
end
A -> A : check for forward order present \n and duplicate order except for Legacy regular return
alt if validation is success and \noriginal order present and not duplicate
	A->A : generateorderid (not in case of legacy RAOTF/legacy Regular)
	alt if async enabled
		A -> Q1 : Publish return orders data to processor submit mw queue with orderid header
	else
		A -> B : post return order with orderid header
	end
	A->X : 201 OK
else
		A->X: 400 Bad Request
end


X->C: PUT:https://<host>:<port>/ordermanagement/v4/orders
note right of X #ee00aa: HIR blind return of device \n legacy blind return of device  \n digital blind return \n HIR regular return \n Legacy regular return
C->A: PUT:https://<host>:<port>/ordermanagement/v4/orders/return
note right of C #ee00aa: send it to return-orders-preprocessor in case of returns
A-[#MidnightBlue]>A : Authenticate user
A-[#MidnightBlue]>A : validation against schema, transactionType
note right of A #ee00aa: upon successfully authentication
alt if not Legacy regular return
	alt if async enabled
		A -> Q4 : place order to put  processor mw queue
	else
		A -> B : put order call to update eventid in the return order
	end
else if Legacy regular return
	alt if async enabled
		A -> 4 : place order to put processor mw queue
	else
		A -> B : put order call to update eventid or childorder status history
	end
end
B -> A : 200 ok

@enduml