@startuml
actor OMS
actor TibcoADBAdapter
actor EBSWrapper
actor OrderFulfilment

OMS -> TibcoADBAdapter: OMSOrder StoreOrderCompleteEvent Request
TibcoADBAdapter->EBSWrapper
EBSWrapper-> OrderFulfilment: Message will be posted in OrderFulfilment queue -Fire and Forget
 alt StoreOrderCompleteEvent call success
else StoreOrderCompleteEvent call failure
EBSWrapper->TibcoADBAdapter:Update the ADB_L_DELIVERY_STATUS E 
end
@enduml