@startuml
participant CallingClient 
participant GetDeviceAssessmentQuestions 
participant WSIL


CallingClient -> GetDeviceAssessmentQuestions : GET ordermanagement/v1/device-assessment-questions? \n transaction-type={RETURN|EXCHANGE}&return-type={REMORSE|WARRANTY} [[./ce.dsg.om/order_v1_device_assessment.json Swagger]] 
GetDeviceAssessmentQuestions -> GetDeviceAssessmentQuestions : Validate OAuth
GetDeviceAssessmentQuestions -> GetDeviceAssessmentQuestions : check if cache is not expired
GetDeviceAssessmentQuestions -> GetDeviceAssessmentQuestions : check if data in cache
alt cache not expired AND data in cache 
GetDeviceAssessmentQuestions -> CallingClient : Response GET ordermanagement/v1/device-assessment-questions? \n transaction-type={RETURN|EXCHANGE}&return-type={REMORSE|WARRANTY} 
end

GetDeviceAssessmentQuestions -> WSIL: OrderReferenceDataWSIL.getDeviceAssessmentQuestions
note right
    WSDL not in CW
end note
WSIL -> GetDeviceAssessmentQuestions : Response getDeviceAssessmentQuestions
GetDeviceAssessmentQuestions -> GetDeviceAssessmentQuestions : add to cache
GetDeviceAssessmentQuestions -> CallingClient : Response GET ordermanagement/v1/device-assessment-questions? \n transaction-type={RETURN|EXCHANGE}&return-type={REMORSE|WARRANTY}
@enduml