@startuml

actor Client
actor EBS
participant OMS

Client -> EBS: Resolve Shipping Method Hold via updateOptionDetails request

EBS -> OMS: TMOProcessHoldType [[http://flows.corporate.t-mobile.com/all-diagrams/sequence_diagrams/omd/ce.dsg.od.omni.oms.tmoprocessholdtype.shippingmethod.puml/ TMOProcessHoldType]]

note left: Hold Type is M_ShippingMethod

alt success

OMS -> EBS: TMOProcessHoldType responds with success message

EBS -> Client: updateOptionDetails responds with success message

else error 

OMS -> EBS: TMOProcessHoldType responds with error message

EBS -> Client: updateOptionDetails responds with error message

end

@enduml