﻿@startuml
title loan response handler
participant OF_Loan_Handler
participant EMS
participant OMS
participant microservice
participant StateMachineService

OF_Loan_Handler->EMS:[[./ce.dsg.od.of.loanHandler.puml.svg Order Fulfillment Loan handler publishes event to OMS]]
note left:TMOBILE.ICLOUD.ORDERMANAGEMENT.Loan.RESPONSE.V4
EMS->OMS:Loan Response
alt success response from microservice
	alt Loan Created Successfully Event
		autonumber 1		
		microservice->OMS:Save data from loan response on loan child order
		microservice->OMS:Save data from loan response on shipment child order
		microservice->OMS:Save data from loan response on disclosure child order
		microservice->OMS:Loan Complete
	else Loan creation failed event
		autonumber 2
		microservice->OMS:Add error code description on order
	end
else  failure response from microservice
	opt circuit breaker is on
		OMS->OMS: OMS consumes event BAU
	end
end

OMS-> EMS: Publish loan child order status
note left : internal queue
	alt if boot is on
		EMS->microservice: publisheorder boot
		microservice->API: publish child order update
	else if boot is off
		EMS->OMS: publisheorder service
		OMS->API: publish child order update
	end
OMS-> EMS: Message to Internal queue for State Machine
note left: buildplan.process.queue \n Order status changes to Interim/<substatus>, Completed, Cancelled will be evaluated
OMS --> StateMachineService: Trigger Next Dependent Child orders
@enduml