@startuml

actor "Client" as client

participant "return-orders-data-access" as dataaccess

database "Gemfire" as GF

participant "orders-admin-gf-cs-sync" as gfcs

database "Cassandra" as Cassandra

participant "jms-adapter" as JMS

participant "EMS" as Queue

 

client -> dataaccess : POST : /v1/dataaccess/return-orders

note left: post-orders \n region : ordermanagment_returnorders

				alt isPayloadEncrptionEnabled true
					dataaccess -> dataaccess : encrypt payload
				end
                alt payload is valid

                                alt cache-system=gemfire

                                                dataaccess -> GF : getOrder

                                                GF -> dataaccess : orderResponse

                                                alt OrderResponse has order-id

                                                                dataaccess->client: Response 404

                                                                note right: order is duplicate

                                                else

                                                                dataaccess-> GF: persistOrder

                                                                GF ->> gfcs : GF event

                                                                gfcs ->> Cassandra : persist order

                                                    GF->client : Response 204

                                                end  

                                else cache-system=cassandra

                                                dataaccess -> Cassandra : getOrder

                                                Cassandra -> dataaccess : orderResponse

                                                alt OrderResponse has order-id

                                                dataaccess->client: Response 404

                                                note right: order is duplicate

                                else

                                                dataaccess-> Cassandra: persistOrder

                                                dataaccess->JMS: /ORDERMANAGEMENT/ORDERS/PERSISTENCE/TOGGLEDORDERS/V4

                                                JMS->>Queue: TMO.PROD.ORDERMANAGEMENT.ORDERS.PERSISTENCE.TOGGLEDORDERS.V4

                                                JMS->dataaccess: Message published Successfully

                                   dataaccess->client : Response 204

                                end

                end

                else

                                dataaccess->client : Response 503

                end

 

client -> dataaccess : GET: /v1/dataacess/return-orders/{orderId}

note left: get-orders-byId

                alt cache-system=gemfire

                                                dataaccess -> GF : getOrder

                                                GF -> dataaccess : orderResponse

                                                alt OrderResponse has order-id

                                                                dataaccess->client: Response 200

                                                else

                                                    dataaccess->client : Response 404

                                                    note right: order not found

                                                end  

                                else cache-system=cassandra

                                                dataaccess -> Cassandra : getOrder

                                                Cassandra -> dataaccess : orderResponse

                                                alt OrderResponse has order-id

                                                                dataaccess->client: Response 200

                                                else

                                                                dataaccess->client : Response 404

                                                    note right: order not found

                                end

                end

               

 

client -> dataaccess : PUT: /v1/dataacess/return-orders/{orderId}

note left: put-orders-byId
                dataaccess -> dataaccess : set cassandra table name to segmentation
                alt cache-system=gemfire
                    dataaccess -> GF : get segmentation payload
                    GF -> dataaccess : segmentation json response
                else cache-system=CASSANDRA
                	dataaccess -> CASSANDRA : get segmentation payload
                    CASSANDRA -> dataaccess : segmentation json response
                end
                
                dataaccess -> dataaccess : set cassandra table name back to order
				alt getSegmenattion.encrypted true
					dataaccess -> dataaccess : encrypt payload
				end

alt partial=false query param

                alt payload is valid

                                alt cache-system=gemfire

                                                dataaccess-> GF: persistOrder

                                                GF ->> gfcs : GF event

                                                gfcs ->> Cassandra : persist order

                                    GF->client : Response 204

                                else cache-system=cassandra

                                                dataaccess-> Cassandra: persistOrder

                                                dataaccess->JMS: /ORDERMANAGEMENT/ORDERS/PERSISTENCE/TOGGLEDORDERS/V4

                                                JMS->>Queue: TMO.PROD.ORDERMANAGEMENT.ORDERS.PERSISTENCE.TOGGLEDORDERS.V4

                                                JMS->dataaccess: Message published Successfully

                                   dataaccess->client : Response 204

                                end

                else

                                dataaccess->client : Response 503

  else

                                alt cache-system=gemfire

                                                dataaccess -> GF : getOrder

                                                GF -> dataaccess : orderResponse

                                                alt OrderResponse has order-id

                                                    dataaccess->dataaccess: Update the order existing order with the new request order

                                                    dataaccess-> GF: persistOrder

                                                                GF ->> gfcs : GF event

                                                                gfcs ->> Cassandra : persist order

                                                                dataaccess->client: Response 204

                                                else

                                                                dataaccess-> GF: persistOrder

                                                                GF ->> gfcs : GF event

                                                                gfcs ->> Cassandra : persist order

                                                    dataaccess->client : Response 201

                                                end

                                else cache-system=cassandra

                                                dataaccess -> Cassandra : getOrder

                                                Cassandra -> dataaccess : orderResponse

                                                alt OrderResponse has order-id

                                                    dataaccess->dataaccess: Update the order existing order with the new request order

                                                    dataaccess-> Cassandra: persistOrder

                                                                dataaccess->JMS: /ORDERMANAGEMENT/ORDERS/PERSISTENCE/TOGGLEDORDERS/V4

                                                				JMS->>Queue: TMO.PROD.ORDERMANAGEMENT.ORDERS.PERSISTENCE.TOGGLEDORDERS.V4

                                                                JMS->dataaccess: Message published Successfully

                                               dataaccess->client : Response 204

                                                else

                                                                dataaccess-> Cassandra: persistOrder

                                                                dataaccess->JMS: /ORDERMANAGEMENT/ORDERS/PERSISTENCE/TOGGLEDORDERS/V4

                                                				JMS->>Queue: TMO.PROD.ORDERMANAGEMENT.ORDERS.PERSISTENCE.TOGGLEDORDERS.V4

                                                                JMS->dataaccess: Message published Successfully

                                                    dataaccess->client : Response 201

                                                end

                                end

                                end

                else

                                dataaccess->client : Response 503

                end

 

client->dataaccess: POST: /v1/dataacess/return-orders/search

note left: post-orders-search

alt valid request

                alt cache is Gemfire

                    dataaccess-> GF: searchOrder

                    alt searchOrder response doesn't contain body

                        dataaccess->client : No orders found error

                    else

                        dataaccess->client: Response 200

                    end      

                else cache is Cassandra

                    dataaccess->Cassandra: searchCassandraOrder

                   alt searchOrder response doesn't contain body

                        dataaccess->client : No orders found error

                    else

                        dataaccess->client: Response 200

                    end

                end

                else

                                dataaccess->client: Error Response 400

end

@enduml