@startuml


actor Client
actor OMS
actor EBSWrapper
actor Tibco


Client -> OMS: tmoConfirmDraftOrder request

OMS -> OMS: OMS will fetch order details for the order ID

OMS -> OMS: OMS will ensure all holds are resolved

OMS -> EBSWrapper: OMSOrder.TMOPublishOrderToSAP request

EBSWrapper -> Tibco: SAPHandsetOrderSubmit request to submit WE to SAP

note left: no sequence diagram exists in CW to stitch the flow

alt success

Tibco -> EBSWrapper: SAPHandetOrderSubmit response to EBS with SAP Order ID

EBSWrapper -> OMS: OMSOrder.TMOPublishOrderToSAP response containing SAP Order ID

OMS -> OMS: OMS will order to WIP status

OMS -> Client: TMOConfirmDraftOrder response to EBS with success message

else error

Tibco -> EBSWrapper: SAPHandetOrderSubmit response to EBS with no SAP Order ID

EBSWrapper -> OMS: OMSOrder.TMOPublishOrderToSAP response not containing SAP Order ID

OMS -> OMS: OMS will order to WIP status

OMS -> Client: TMOConfirmDraftOrder response to EBS with success message

end
@enduml