@startuml
actor OMS
actor EBS
actor SAPPI

OMS -> EBS:omsShipmentRequest
EBS -> SAPPI: SAPOrderStatusRequest mi_GetOrderStatusService.mi_GetOrderStatus
SAPPI->EBS:SAPOrderStatusResponse
EBS->OMS:omsShipmentResponse
@enduml