﻿@startuml
title activate msisdn child order
participant orders_oms_nm_ActmsisdnUpdate_handler
participant EMS
participant OMS
participant microservice
participant StateMachineService

orders_oms_nm_ActmsisdnUpdate_handler->EMS: Activate msisdn (billing system) handler event
note left:Queue TBA OF Activate msisdn handler to be stitched
EMS->OMS:Activate msisdn Response
alt success response from microservice
	alt Activate msisdn successful in billing system Event
		autonumber 1		
		microservice->OMS:Activate msisdn child order Complete
	else Activate msisdn failed Event
		autonumber 1
		microservice->OMS:Activate msisdn child order status updated to Failed
		note left: To be confirmed if there is a failed Activate msisdn event
		microservice->OMS:Backend error code and desc updated on child order
		microservice->OMS:customer order status updated to Failed
		microservice->OMS:domain and Backend error code and desc updated on customer order
	end
else  failure response from microservice
		OMS->OMS: create reprocessible exception
end
OMS-> EMS: Publish Activate msisdn child order status
note left : To be updated order.update.status.out.queue
EMS->microservice: publisheorder boot
microservice->API: publish child order update
OMS-> EMS: Message to Internal queue for State Machine
note left: buildplan.process.queue \n Order status changes to Interim/<substatus>, Completed, Cancelled will be evaluated (this will publish customer order update)
OMS --> StateMachineService: Trigger Next Dependent Child orders
@enduml