@startuml
actor Client
actor OMS
actor app_processholdtype
actor DPS_ManagePayment
actor EBSWrapper
actor Tibco
actor TSafe
actor Keymanager
actor Apigee





Client -> OMS: UpdateOptionDetails(TMOProcessHoldType) request to OMS for Payment Hold
note left: HoldType is M_PaymentHold
alt #ffe4c4 springboot is enabled for processholdtype
                app_processholdtype -> Tibco: ATP Check via [[http://flows.corporate.t-mobile.com/all-diagrams/sequence_diagrams/dice/ce.dsg.dice.dm.pcf.getinventorystatus.txt/ getInventoryStatus]]
                alt Success
                                Tibco -> app_processholdtype: getAvailabilityStatus response to app_processholdtype with ESD info
                                app_processholdtype -> app_processholdtype: to execute inventory rules based on ESD and finds product to be in-stock
                                opt Product Back-Order/OOS
                                                app_processholdtype -> OMS: TMOProcessHoldType response saying product is in back-order/OOS
                                                OMS -> Client: TMOProcessHoldType response saying product is in back-order/OOS
                                end
                else Error
                                Tibco -> app_processholdtype: getAvailabilityStatus returns error to app_processholdtype
                                app_processholdtype -> app_processholdtype: app_processholdtype invokes CB approach and moves to CC encryption
                end
                Opt Bypass Payment Processing
                                app_processholdtype -> app_processholdtype: app_processholdtype will check if byPassPaymentProcessing is set to TRUE
                                app_processholdtype -> app_processholdtype: will resolve Payment Hold successfully
                                app_processholdtype -> OMS: TMOProcessHoldType response with success
                                OMS -> Client: TMOProcessHoldType response with success
                end
                Opt isDpay
                                app_processholdtype -> app_processholdtype: app_processholdtype will check if isDPay set to true. 
                                app_processholdtype -> app_processholdtype: will resolve Payment Hold successfully
                                app_processholdtype -> OMS: TMOProcessHoldType response with success
                                OMS -> Client: TMOProcessHoldType response with success
                end
                app_processholdtype -> app_processholdtype: app_processholdtype will check isDPay set to False

Opt ClearCreditCardEncryption

OMS -> Apigee: payments V3 publickey
Apigee -> Keymanager: payments V3 publickey
Keymanager -> Apigee : return publickey
Apigee -> OMS :  return publickey
OMS -> OMS : EncyptedCard(CardNumber, publickey)

End

                OMS-> DPS_ManagePayment: OMS to DPS ManagePayment API request
                
                note left: no sequence diagram exists in CW to stitch the flow
                alt Success                          
                                DPS_ManagePayment -> OMS: DPS ManagePayment API responds with successful encryption message
                                OMS-> OMS: OMS will store encrypted card info and move onto authorization.
                else Error
                                DPS_ManagePayment-> OMS: DPS_ManagePayment responds with error
                                OMS-> OMS: TMOProcessHoldType responds with error message
                                OMS -> Client: TMOProcessHoldType responds with error message
                end

                OMS-> DPS_ManagePayment: OMSOrder authorizeCreditCard request to DPS-ManagePayment
                
                note left: no sequence diagram exists in CW to stitch the flow
                alt Success
                                
                                DPS_ManagePayment-> OMS: OMSOrder auhtorizeCreditCard response with success
                                OMS-> OMS: OMS will persist the payment info and resolve the payment hold successfully
                                OMS-> OMS: TMOProcessHoldType response with success message.
                                OMS -> Client: TMOProcessHoldType response with success message.
                else error
                                
                                DPS_ManagePayment-> OMS: DPS_ManagePayment API responds with error message
                                OMS-> OMS: OMS will NOT persist the payment info and NOR resolve the payment hold successfully
                                OMS-> OMS: TMOProcessHoldType response with error message.
                                OMS -> Client: TMOProcessHoldType response with error message.
                end

else #e0ffff legacy oms service is invoked
                OMS -> Tibco: ATP Check via [[http://flows.corporate.t-mobile.com/all-diagrams/sequence_diagrams/dice/ce.dsg.dice.dm.pcf.getinventorystatus.txt/ getInventoryStatus]]
                alt Success
                                Tibco -> OMS: getAvailabilityStatus response to OMS with ESD info
                                OMS -> OMS: to execute inventory rules based on ESD and finds product to be in-stock
                                opt Product Back-Order/OOS
                                                OMS -> Client: TMOProcessHoldType response saying product is in back-order/OOS
                                end
                else Error
                                Tibco -> OMS: getAvailabilityStatus returns error to OMS
                                OMS -> OMS: OMS invokes CB approach and moves to CC encryption
                end
                Opt Bypass Payment Processing
                                OMS -> OMS: OMS will check if byPassPaymentProcessing is set to TRUE
                                OMS -> OMS: will resolve Payment Hold successfully
                                OMS -> Client: TMOProcessHoldType response with success
                end
                Opt isDpay
                                OMS -> OMS: OMS will check if isDPay set to true. 
                                OMS -> OMS: will resolve Payment Hold successfully
                                OMS -> Client: TMOProcessHoldType response with success
                end

                OMS -> OMS: OMS will check isDPay set to False

Opt ClearCreditCardEncryption

OMS -> Apigee: payments V3 publickey
Apigee -> Keymanager: payments V3 publickey
Keymanager -> Apigee : return publickey
Apigee -> OMS :  return publickey
OMS -> OMS : EncyptedCard(CardNumber, publickey)

End

                OMS -> DPS_ManagePayment: DPS-ManagePaymentAPI StoreCreditCard request
                
                note left: no sequence diagram exists in CW to stitch the flow
                alt Success
                                
                                DPS_ManagePayment-> OMS: DPS_ManagePayment APIresponds with successful encryption message
                                OMS -> OMS: OMS will store encrypted card info and move onto authorization.
                else Error
                                DPS_ManagePayment -> OMS: DPS_ManagePaymentAPI responds with error
                                OMS -> Client: TMOProcessHoldType responds with error message
                end
                OMS -> DPS_ManagePayment: DPS_ManagePaymentAPI request to EBS
                
                note left: no sequence diagram exists in CW to stitch the flow
                alt Success                          
                                DPS_ManagePayment -> OMS:  DPS_ManagePayment API response with success
                                OMS -> OMS: OMS will persist the payment info and resolve the payment hold successfully
                                OMS -> Client: TMOProcessHoldType response with success message.
                else error
                                
                                DPS_ManagePayment-> OMS: DPS_ManagePayment responds with error message
                                OMS -> OMS: OMS will NOT persist the payment info and NOR resolve the payment hold successfully
                                OMS -> Client: TMOProcessHoldType response with error message.
                end
end
@enduml