@startuml
title
<font color=red size="50"><u:black>Get Device Assessment Questions Sequence Diagram</u></font>
end title

skinparam SequenceMessageAlign center
participant "API Consumer" as consumer
participant "APIGEE GATEWAY" as gateway
participant "WSIl Services" as wsil

consumer->gateway:/ordermanagement/v1/device-assessment-questions?transaction-type={RETURN|EXCHANGE}&return-type={REMORSE|WARRANTY}
gateway->wsil:/services/OrderReferenceDataWSIL
gateway<-[#0000FF]- wsil: Get orders Assessment Question (response)
consumer<-[#0000FF]- gateway: Get orders Assessment Question (response)

@enduml