@startuml

actor Client
actor EBS
participant OMS

Client -> EBS: Resolve E911 Address Hold via updateOptionDetails request

EBS -> OMS: Resolve E911 Address Hols via [[http://flows.corporate.t-mobile.com/all-diagrams/sequence_diagram/ce.dsg.od.omni.oms.tmoprocessholdtype.e911address.puml/ TMOProcessHoldType]]

note left: Hold Type as M_E911Address

alt success

OMS -> EBS: TMOProcessHoldType responds with success message

EBS -> Client: updateOptionDetails responds with success message

else error 

OMS -> EBS: TMOProcessHoldType responds with error message

EBS -> Client: updateOptionDetails responds with error message

end

@enduml