@startuml
title disclosure response and event handler
participant OFDocumentHandler
participant EMS
participant EER
participant OMS
participant order.update.status.int.queue
participant StateMachineService
participant microservice

OFDocumentHandler-->EMS: [[./ce.dsg.od.of.documentHandler.puml.svg document handler]]
OFDocumentHandler-->EMS: [[./ce.dsg.od.of.documentStatusHandler.puml.svg document Event]]
note left: TMOBILE.ICLOUD.ORDERMANAGEMENT.ESIGN.RESPONSE.V4
EMS->OMS:Document Event
OMS->microservice: invoke microservice responsehandler
alt success response microservice
	alt successful document creation
		autonumber 1	
		microservice->OMS:Save documentid
	else failure in doc creation
		autonumber 1	
		microservice->OMS:save error and error desc on order notes
	else customer signed event
		autonumber 1
		microservice->OMS:Update esign status and order completed
	else document cancelled event
		autonumber 1
		microservice->OMS:Update esign status and order is not completed
	end
	OMS-> EMS: disclosure child order status
	note left : internal queue
	alt if boot is on
		EMS->microservice: publisheorder boot
		microservice->API: publish child order update
	else if boot is off
		EMS->OMS: publisheorder service
		OMS->API: publish child order update
	end
	OMS-> EMS: Message to Internal queue for State Machine
	note left:buildplan.process.queue \n Order status changes to Interim/<substatus>, Completed, Cancelled will be evaluated
	OMS --> StateMachineService: Trigger Next Dependent Child orders
	note left: buildplan.process.queue
else failure response microservice
	alt circuit breaker is on
		OMS->OMS:OMS consumes event using BAU flow
	else
		OMS->OMS:OMS generates reprocessible exception
	end
end
@enduml