@startuml
actor Client 
actor EBS
actor WCS
actor ODC

Alt if EnableMPM false: flow will go to WCS system

Client -> EBS: getAvailableProducts Request

EBS -> WCS: getCatalogNavigationView Request

WCS -> EBS: getCatalogNavigationView Response

EBS -> Client: getAvailableProducts Response

end alt


Alt if EnableMPM true: flow will go to ODC system

Client -> EBS: getAvailableProducts Request

EBS -> ODC: getCatalogNavigationView Request

ODC-> EBS: getCatalogNavigationView Response

EBS -> Client: getAvailableProducts Response
end Alt
@enduml