@startuml
skinparam SequenceMessageAlign center
Participant "Deep.IO \n [https:HOSTNAME/ENVNAME/rules]" as Source
Participant "RabbitMQ" as Queue
Participant "Events Billing Handler\norders-events-billing-handler Participant" as QReceiver
Participant "ErrorLookup" as EL
Participant "Tibco" as tibco

Source -> Queue :  Memo & HOTI child orders 
Queue -> QReceiver : Post the message to the queue ordercompleted_orderfulfillment_billing
QReceiver ->  tibco : Post message to update Memo in the queue TMOBILE.ENVNAME-ENV1.JMS.SAMSON.MEMO.INSERT
QReceiver ->  tibco : Post message to update HOTI in the queue TMOBILE.ENVNAME-ENV1.JMS.SAMSON.SUBSCRIBER.HANDSETOFFERTYPE.UPDATE
tibco -> QReceiver :  Success 
QReceiver-> Queue :  Message Acknowledged
Queue-> Source :  Message Acknowledged

group Retry-able Error
tibco--[#blue]>tibco:if error
tibco--[#blue]>EL:Error Response
EL -[#blue]->EL:if Retry=true
EL-[#blue]->QReceiver:Error Response
QReceiver->QReceiver:if DeliveryCount<MaxRetryCount
QReceiver ->Queue : Request to Fetch the message again
Queue->Queue: DeliveryCount Incremented
Queue->QReceiver:Consumes the message
QReceiver ->  tibco : Post message to update Memo in the queue TMOBILE.ENVNAME-ENV1.JMS.SAMSON.MEMO.INSERT
QReceiver ->  tibco : Post message to update HOTI in the queue TMOBILE.ENVNAME-ENV1.JMS.SAMSON.SUBSCRIBER.HANDSETOFFERTYPE.UPDATE
tibco -> QReceiver :  Success 
QReceiver -> Queue :  Message Acknowledged
Queue -> Source :  Message Acknowledged


Alt If Maximum RetryAttempts Completed
tibco  -[#blue]-> QReceiver : Error response
QReceiver-[#blue]->QReceiver: if DeliveryCount>=MaxRetryCount
QReceiver -[#blue]->Queue :Message Acknowledged
Queue -[#blue]->Source :Message Acknowledged
end
end

group Non-Retry-able Error
tibco  -[#blue]-> EL: Error Response
EL -[#blue]->>EL:if Retry=false
EL-[#blue]-> QReceiver :Message Acknowledged
QReceiver -[#blue]->Queue :Message Acknowledged
Queue -[#blue]->Source :Message Acknowledged
end
@enduml