@startuml
actor SAPPI
actor DICE
actor EBS
actor OMS

SAPPI -> DICE : [SAPPI Posts the RemindReturnorder information in Dice queue  ]
DICE->EBS: [Dice system posts RemindReturnorder information  to EBS  queue]
EBS -> OMS: [ EBS posts the message to OMS queue -fire and forget]
@enduml