@startuml

actor Client
actor EBS

Client -> EBS: createDraftOrder request

EBS -> OMS: Create Draft Order in OMNI via [[http://flows.corporate.t-mobile.com/all-diagrams/sequence_diagrams/omd/ce.dsg.od.omni.oms.tmocreatedraftorder.puml/ TMOCreateDraftOrder]]

alt success

OMS -> EBS: TMOCreateDraftOrder responds with success message

EBS -> Client: createDraftOrder response with success message 


else error 

OMS -> EBS: TMOCreateDraftOrder responds with error message

EBS -> Client: createDraftOrder responds with error message

end

@enduml