@startuml
skinparam SequenceMessageAlign left
Actor "METRO" as Source
participant "APIGEEProxy" as APIGEE
participant "HAProxy" as Gateway
participant "TIBCOCE-ProvisionService" as TIBCOCE
participant "SAMSON" as SAMSON
participant "POPTokenAPI" as POPTokenAPI
participant "JWTTokenAPI" as JWTTokenAPI
participant "OMAPI" as OMAPI
participant "REEF" as REEF
participant "PublishEvent" as PublishEvent

Source ->APIGEE : makes a SOAP call by invoking \nProvisionService.activateSubscriber operation [[https://bitbucket.service.edp.t-mobile.com/projects/EITCODEDOC/repos/flow-documentation/browse/swagger/ce.dsg.dice.metro/ProvisionService.wsdl WSDL]]
	note left: NB sequence diagram not available in Clearwater for this API
APIGEE-> Gateway : APIGEE makes a SOAP call by invoking \nProvisionService.activateSubscriber operation [[https://bitbucket.service.edp.t-mobile.com/projects/EITCODEDOC/repos/flow-documentation/browse/swagger/ce.dsg.dice.metro/ProvisionService.wsdl WSDL]]
	note left: NB sequence diagram not available in Clearwater for this API
	Gateway -> TIBCOCE : Receives request and routes it to TIBCOCE handler <color:green><B>"ProvisionService"</B></color>			
	group Orchestration
		group ValidateProvisionRequest
			TIBCOCE -> TIBCOCE : Validate incoming provision request
		end
   alt validations are success
		group GetSimDetails
			TIBCOCE -> SAMSON : Invoke SAMSON's API "plugin-icGtSit" using Tuxedo call \t\t\t\t\t\t\t\t\t\t\t\t
			note right: SB sequence diagram not available in Clearwater for this API
			SAMSON -> TIBCOCE : Return the response back
		end
		group ValidateGetSimDetails
			TIBCOCE -> TIBCOCE : Validate GetSimDetailsResponse using ResourceStatus and SvcStatus
        end
    alt GETSIM validations are success
		group GetSubscriberMode
			TIBCOCE -> SAMSON : Invoke SAMSON's API "evGtSubInfo" using Tuxedo call 
			note right: SB sequence diagram not available in Clearwater for this API
			SAMSON -> TIBCOCE : Return the response back	
		end	
		group ValidateGetSubscriberMode
			TIBCOCE -> TIBCOCE : Validate using GetCurrentAllocationResponse received from GetSubscriberMode 
		end
alt if TMO/Env/EventManagement/enableOMAPIFlow="true" and SpecificationGroup name is "Provisioning" and specificationValue of "ProvisioningSystem" is "EDA"
					group GetPoPTokenWithBasicAuth
						TIBCOCE -> POPTokenAPI: Invoke POPTokenAPI using basic authentication using Consumerkey to get POPTokenID 
						POPTokenAPI -> TIBCOCE: Return the response back
					end
					group GetJWTToken
						TIBCOCE -> JWTTokenAPI: Invoke JWTTokenAPI to get PopTokenId
						note right: SB sequence diagram not available in Clearwater for this API
						JWTTokenAPI -> TIBCOCE: Send the response back
					end
					group GetPoPTokenWithJWT
						TIBCOCE -> POPTokenAPI: Invoke POPTokenAPI using bearer authentication
						POPTokenAPI -> TIBCOCE: Return the response back
					end
					group GetOrderId
						TIBCOCE -> OMAPI: Invoke GetOrderAPI call
						note right: SB sequence diagram not available in Clearwater for this API
						OMAPI -> TIBCOCE: Return the response back
					end							
					group SubmitOrder [[https://bitbucket.service.edp.t-mobile.com/projects/EITCODEDOC/repos/flow-documentation/browse/swagger/ce.dsg.om/ProvisioningOrder.json OMAPI Swagger]]
						TIBCOCE -> APIGEE: Invoke APIGEEgateway using provisioning-order-id with JWTTokenAuthorization and PopToken x-Authorization
						note right: SB sequence diagram not available in Clearwater for this API
						APIGEE -> OMAPI:  Invoke  [[http://flows.corporate.t-mobile.com/all-diagrams/sequence_diagrams/omd/ce.dsg.od.networkactivationflow.puml OMAPI]] using provisioning-order-id with JWTTokenAuthorization and PopToken x-Authorization
					  OMAPI -> APIGEE: Send the aknowledgement back
            APIGEE -> TIBCOCE: Send the aknowledgement back
           TIBCOCE -> Source: Send response as status code 100 
          end
        else else				
			alt if TMO/Env/EventManagement/useTIBCOBEEventFramework="true"
				group REEF JMS
						TIBCOCE -> REEF : Initiate [[../EDA_REEF/ce.dsg.dice.mpcs.eda.provision.resetVoiceMailPassword.reef.svg ResetVoiceMailPassword Async]] flow by publishing message to REEF JMS Queue: \n 'TMOBILE.',$_globalVariables/pfx3:GlobalVariables/TMO/Env/Env_Name_BE,'.EVENTFRAMEWORK.REQUEST'
						REEF -> TIBCOCE : Return Response to TIBCOCE
             TIBCOCE ->Source : Send response as status code 100 
				end	
			else else
				group PublishEvent[[https://bitbucket.service.edp.t-mobile.com/projects/EITCODEDOC/repos/flow-documentation/browse/swagger/ce.dsg.dice.metro/PublishEventService.wsdl WSDL]]
					TIBCOCE -> PublishEvent : Invoke [[../PublishEvent/ce.dsg.dice.mpcs.publishEvent.postEvent.svg PublishEvent.postEvent]] operation by SOAP Call
					PublishEvent -> TIBCOCE : Return Response to TIBCOCE
          TIBCOCE ->Source : Send response as status code 100 
				end	
			end	
		end
  else else
       TIBCOCE -> Source : SIM not found//SIM not in valid status 
				end	
else else
   TIBCOCE -> Source : Request failure
end
end
	
@enduml