{
  "swagger": "2.0",
  "info": {
    "title": "billImageServiceExt",
    "description": "retrieve invoice PDF ",
    "version": "1.0.0",
    "contact": {
      "name": "Karen Samoila",
      "email": "karen.samoila@T-mobile.com",
      "url": "http://www.t-mobile.com"
    },
    "license": {
      "name": "Proprietary software",
      "url": "https://en.wikipedia.org/wiki/Proprietary_software"
    },
    "termsOfService": "https://www.t-mobile.com/templates/popup.aspx?PAsset=Ftr_Ftr_TermsAndConditions",
    "x-createdBy": {
      "dateCreated": "Thu May 30 14:27:52 2019",
      "createdBy": "nhaj1",
      "application": "Recite",
      "appVersion": "1.0.0.2891",
      "documentId": "7763e801-4fec-4780-a43b-f25ecb7c3882",
      "status": "Conceptual - Initial",
      "classification": "1.1 Customer Account Mgmt.",
      "profile": "Core Business Capability Service",
      "serviceLayer": "Enterprise - ProductManagement"
    }
  },
  "tags": [
    {
      "name": "retrieveBillImageExternal",
      "description": ""
    }
  ],
  "host": "dev01.api.t-mobile.com",
  "basePath": "/billing/v2",
  "schemes": [
    "https"
  ],
  "paths": {
    "/bill-image": {
      "post": {
        "tags": [
          "retrieveBillImageExternal"
        ],
        "summary": "POST API to get the bill image (PDF)",
        "description": "POST API to get the bill image (PDF)",
        "operationId": "retrieveBillImageExternal",
        "consumes": [],
        "produces": [],
        "parameters": [
          {
            "name": "retrieveBillImageRequest",
            "in": "body",
            "description": "request to get the bill image",
            "required": true,
            "schema": {
              "$ref": "#/definitions/RetrieveBillImageRequest"
            }
          },
          {
            "name": "Accept",
            "in": "header",
            "description": "Preferred content type _ default to application/json",
            "x-example": "application/json",
            "required": false,
            "type": "string",
            "minLength": 1,
            "maxLength": 256,
            "pattern": "^[ \\S]+$"
          },
          {
            "name": "Authorization",
            "in": "header",
            "description": "The HTTP Authorization request header contains the credentials to authenticate a user agent with a server.",
            "x-example": "Bearer mF_9.B5f-4.1JqM",
            "required": true,
            "type": "string",
            "minLength": 1,
            "maxLength": 256,
            "pattern": "^[\\S ]+$"
          },
          {
            "name": "Content-Type",
            "in": "header",
            "description": "The MIME type of this content",
            "x-example": "text/xml",
            "required": true,
            "type": "string",
            "minLength": 1,
            "maxLength": 256,
            "pattern": "^[ \\S]+$"
          },
          {
            "name": "Date",
            "in": "header",
            "description": "The Date general HTTP header contains the date and time at which the message was originated.",
            "x-example": "Mon, 05 Mar 2018 16:38:08 GMT",
            "required": false,
            "type": "string",
            "format": "date-time",
            "pattern": "^(Mon|Tue|Wed|Thu|Fri|Sat|Sun), [0-3]{1}[0-9]{1} (Jan|Feb|Mar|Apr|May|Jun|Jul|Aug|Sep|Oct|Nov|Dec) [1-3][0-9]{3} [0-2][0-9]:[0-6][0-9]:[0-6][0-9] GMT$"
          },
          {
            "name": "activity-id",
            "in": "header",
            "description": "Unique id alphanumeric value generated and sent by the partner to identify every the service request uniquely. Sample: XyzA:D1s5s1i-X6AFRvfiPBfs-1234  Pass as is to downstream calls.",
            "x-example": "c34e7acd-384b-4c22-8b02-ba3963682508",
            "required": true,
            "type": "string",
            "minLength": 1,
            "maxLength": 256,
            "pattern": "^[\\S]*$"
          },
          {
            "name": "interaction-id",
            "in": "header",
            "description": "Alphanumeric value represent a common transaction id across all calls made from UI, while completing all business activity needs of a particular customer.",
            "x-example": "cc688d54-50d1-49d4-8c5d-95459d1172e8",
            "required": false,
            "type": "string",
            "minLength": 1,
            "maxLength": 256,
            "pattern": "^[\\S]*$"
          },
          {
            "name": "service-transaction-id",
            "in": "header",
            "description": "Request ID echoed back by server",
            "x-example": "23409209723",
            "required": false,
            "type": "string",
            "minLength": 1,
            "maxLength": 256,
            "pattern": "^[\\S]*$"
          },
          {
            "name": "session-id",
            "in": "header",
            "description": "A value populated by the sender used to track the transactions that occur during a session, a long-lasting interaction that ismaintained by the sender.",
            "x-example": "350b91ec-4a64-4b10-a3f3-a78c8db3924a",
            "required": false,
            "type": "string",
            "minLength": 1,
            "maxLength": 256,
            "pattern": "^[\\S]*$"
          },
          {
            "name": "timestamp",
            "in": "header",
            "description": "ms since 1/1/70 adjusted to GMT",
            "x-example": "1524599536",
            "required": false,
            "type": "integer",
            "format": "int64",
            "minimum": 0,
            "maximum": 999999999999,
            "pattern": "^[\\d]*$"
          },
          {
            "name": "workflow-id",
            "in": "header",
            "description": "Business Use Case",
            "x-example": "ACTIVATION",
            "required": false,
            "type": "string",
            "minLength": 1,
            "maxLength": 256,
            "pattern": "^[\\S]*$"
          },
          {
            "name": "x-auth-originator",
            "in": "header",
            "description": "API chain initiating callers access token",
            "x-example": "c34e7acd-384b-4c22-8b02-ba3963682508",
            "required": true,
            "type": "string",
            "minLength": 1,
            "maxLength": 256,
            "pattern": "^[\\S]*$"
          },
          {
            "name": "x-authorization",
            "in": "header",
            "description": "Contains Proof of Possession token generated by API caller",
            "x-example": "c34e7acd-384b-4c22-8b02-ba3963682508",
            "required": false,
            "type": "string",
            "minLength": 1,
            "maxLength": 256,
            "pattern": "^[\\S ]*$"
          }
        ],
        "responses": {
          "200": {
            "description": "Success",
            "schema": {
              "description": "byte[] representing the PDF response",
              "title": "retrieveBIllImageResponse",
              "type": "object"
            },
            "examples": {
              "application/json": "byte[] representing the PDF content"
            },
            "headers": {
              "Date": {
                "description": "The Date general HTTP header contains the date and time at which the message was originated.",
                "x-example": "Mon, 05 Mar 2018 16:38:08 GMT",
                "type": "string",
                "format": "date-time",
                "pattern": "^(Mon|Tue|Wed|Thu|Fri|Sat|Sun), [0-3]{1}[0-9]{1} (Jan|Feb|Mar|Apr|May|Jun|Jul|Aug|Sep|Oct|Nov|Dec) [1-3][0-9]{3} [0-2][0-9]:[0-6][0-9]:[0-6][0-9] GMT$"
              },
              "ETag": {
                "description": "The ETag header specifies the unique entity tag value for the returned resource.",
                "x-example": "*",
                "type": "string",
                "minLength": 1,
                "maxLength": 256,
                "pattern": "^[\\S]*$"
              },
              "Location": {
                "description": "The Location header specifies the URI of a created resource, or redirects the API consumer to an alternate resource location.",
                "x-example": "http://api.t-mo.com/order-mgmt/v1/orders/123xyz-0/status",
                "type": "string",
                "minLength": 1,
                "maxLength": 65536,
                "pattern": "^[\\S]*$"
              },
              "Transfer-Encoding": {
                "description": "The form of encoding used to safely transfer the entity to the user. Currently defined methods are: chunked, compress, deflate, gzip, identity.",
                "x-example": "chunked",
                "type": "string",
                "minLength": 1,
                "maxLength": 15,
                "pattern": "^[\\S]*$"
              },
              "service-transaction-id": {
                "description": "Request ID echoed back by server",
                "x-example": "23409209723",
                "type": "string",
                "minLength": 1,
                "maxLength": 256,
                "pattern": "^[\\S]*$"
              }
            }
          },
          "400": {
            "description": "Bad Request",
            "schema": {
              "$ref": "#/definitions/Error"
            },
            "examples": {
              "application/json": {
                "code": "400",
                "userMessage": "Bad Request",
                "systemMessage": "Bad Request",
                "detailLink": "http://www.tmus.com"
              }
            },
            "headers": {}
          },
          "401": {
            "description": "Unauthorized",
            "schema": {
              "$ref": "#/definitions/Error"
            },
            "examples": {
              "application/json": {
                "code": "401",
                "userMessage": "Unauthorized",
                "systemMessage": "Unauthorized",
                "detailLink": "http://www.tmus.com"
              }
            },
            "headers": {}
          },
          "403": {
            "description": "Client access denied",
            "schema": {
              "$ref": "#/definitions/Error"
            },
            "examples": {
              "application/json": {
                "code": "403",
                "userMessage": "Client access denied",
                "systemMessage": "Client access denied",
                "detailLink": "http://www.tmus.com"
              }
            },
            "headers": {}
          },
          "404": {
            "description": "Resource not found",
            "schema": {
              "$ref": "#/definitions/Error"
            },
            "examples": {
              "application/json": {
                "code": "404",
                "userMessage": "Resource not found",
                "systemMessage": "Resource not found",
                "detailLink": "http://www.tmus.com"
              }
            },
            "headers": {}
          },
          "405": {
            "description": "Method Not Allowed",
            "schema": {
              "$ref": "#/definitions/Error"
            },
            "examples": {
              "application/json": {
                "code": "405",
                "userMessage": "Method Not Allowed",
                "systemMessage": "Method Not Allowed",
                "detailLink": "http://www.tmus.com"
              }
            },
            "headers": {
              "Allow": {
                "description": "list of supported methods for URI",
                "x-example": "GET",
                "type": "string",
                "minLength": 1,
                "maxLength": 256,
                "pattern": "^[\\S]*$"
              },
              "service-transaction-id": {
                "description": "Request ID echoed back by server",
                "x-example": "23409209723",
                "type": "string",
                "minLength": 1,
                "maxLength": 256,
                "pattern": "^[\\S]*$"
              }
            }
          },
          "406": {
            "description": "Mismatching data format",
            "schema": {
              "$ref": "#/definitions/Error"
            },
            "examples": {
              "application/json": {
                "code": "406",
                "userMessage": "Mismatching data format",
                "systemMessage": "Mismatching data format",
                "detailLink": "http://www.tmus.com"
              }
            },
            "headers": {}
          },
          "409": {
            "description": "Invalid data",
            "schema": {
              "$ref": "#/definitions/Error"
            },
            "examples": {
              "application/json": {
                "code": "409",
                "userMessage": "Invalid data",
                "systemMessage": "Invalid data",
                "detailLink": "http://www.tmus.com"
              }
            },
            "headers": {}
          },
          "415": {
            "description": "Unsupported Media Type",
            "schema": {
              "$ref": "#/definitions/Error"
            },
            "examples": {
              "application/json": {
                "code": "415",
                "userMessage": "Unsupported Media Type",
                "systemMessage": "Unsupported Media Type",
                "detailLink": "http://www.tmus.com"
              }
            },
            "headers": {}
          },
          "500": {
            "description": "System Error",
            "schema": {
              "$ref": "#/definitions/Error"
            },
            "examples": {
              "application/json": {
                "code": "500",
                "userMessage": "System Error",
                "systemMessage": "System Error",
                "detailLink": "http://www.tmus.com"
              }
            },
            "headers": {}
          },
          "503": {
            "description": "Service unavailable",
            "schema": {
              "$ref": "#/definitions/Error"
            },
            "examples": {
              "application/json": {
                "code": "503",
                "userMessage": "Service unavailable",
                "systemMessage": "Service unavailable",
                "detailLink": "http://www.tmus.com"
              }
            },
            "headers": {}
          }
        },
        "security": []
      }
    }
  },
  "definitions": {
    "Error": {
      "description": "As defined in http://api-standards.apps.px-npe01.cf.t-mobile.com/http/status-codes/error-response-format/",
      "type": "object",
      "required": [
        "code",
        "userMessage"
      ],
      "properties": {
        "code": {
          "description": "A succinct, domain-specific, human-readable text string to identify the type of error for the given status code",
          "example": "ProductNotFound",
          "type": "string",
          "pattern": "^[\\S ]+$"
        },
        "userMessage": {
          "description": "A human-readable message describing the error.",
          "example": "Failed to find product.",
          "type": "string",
          "pattern": "^[\\S ]+$"
        },
        "systemMessage": {
          "description": "Text that provides a more detailed technical explanation of the error",
          "example": "PRODUCT_NOT_FOUND",
          "type": "string"
        },
        "detailLink": {
          "description": "link to custom information providing greater detail on error or errors",
          "example": "http://aaa.bbb.ccc/",
          "type": "string"
        }
      }
    },
    "RetrieveBillImageRequest": {
      "description": "request to get the bill image",
      "type": "object",
      "required": [
      	"financialAccountNumber",
      	"billSource"
      ],
      "properties": {
        "financialAccountNumber": {
          "description": "The financial account number. Represents either TMO BAN (TMUS) or source BAN (SPRINT), based on billSource",
          "example": "123456789",
          "type": "string",
          "minLength": 9,
          "maxLength": 9,
          "pattern": "^(\\\\d{9})$"
        },
        "billSource": {
          "description": "The source of the bill. Valid values: TMO (TMUS), SPR (SPRINT)",
          "example": "TMO",
          "type": "string",
          "minLength": 3,
          "maxLength": 3
        },
        "billDate": {
          "description": "The bill date on format YYYYMMDD. Not relevant for TMO",
          "example": "20160820",
          "type": "string",
          "minLength": 8,
          "maxLength": 8,
          "pattern": "^(\\\\d{8})$"
        },
        "billType": {
          "description": "The invoice type. Valid values: DETAILED (D)/SUMMARY (S). Not relevant for TMO",
          "example": "DETAILED",
          "type": "string",
          "minLength": 1,
          "maxLength": 1
        },
        "billSequenceNumber": {
          "description": "The bill sequence number. Relevant for M1/M3 TMO only",
          "example": "12",
          "type": "string",
          "minLength": 1
        },
        "documentId": {
          "description": "The document ID. Relevant for M4 TMO only",
          "example": "83416950-0951665748_35",
          "type": "string",
          "minLength": 1
        }
      }
    }
  },
  "securityDefinitions": {}
}
