{
    "swagger": "2.0",
    "info": {
        "title": "changeMsisdn",
        "description": "This service support the change of customers' mobileNumber",
        "version": "1.0.0",
        "contact": {
            "name": "Gnanasambanthan Velusamy",
            "url": "https://www.t-mobile.com/",
            "email": "gnanasambanthan.velusamy1@t-mobile.com"
        },
        "termsOfService": "https://www.t-mobile.com/templates/popup.aspx?PAsset=Ftr_Ftr_TermsAndConditions",
        "x-createdBy": {
            "dateCreated": "Tue Feb 12 21:16:04 2019",
            "createdBy": "ajkashya",
            "application": "Recite",
            "appVersion": "0.4.3.2801",
            "documentId": "e11d791a-555b-4461-96b6-4027dd5937bb",
            "status": "Conceptual - Initial",
            "classification": "7.5 Network Number Inventory Management",
            "profile": "Core Business Capability Service",
            "serviceLayer": "Enterprise - Billing"
        }
    },
    "x-servers": [
        {
            "url": "http://127.0.0.1/",
            "description": "Test Server 1"
        }
    ],
    "tags": [
        {
            "name": "change-mobile-number",
            "description": "Change MSISDN API is used to perform the change msisdn operation"
        }
    ],
    "host": "dev01.api.t-mobile.com",
    "basePath": "/billing-aggregator/v1",
    "schemes": [
        "https"
    ],
    "paths": {
        "/change-mobile-number": {
            "post": {
                "tags": [
                    "change-mobile-number"
                ],
                "x-api-pattern": "CreateInCollection",
                "summary": "Change MSISDN API is used to perform the change msisdn operation",
                "description": "Change MSISDN API is used to perform the change msisdn operation",
                "operationId": "change-mobile-number",
                "consumes": [
                    "application/json",
                    "application/xml"
                ],
                "produces": [
                    "application/json",
                    "application/xml"
                ],
                "parameters": [
                    {
                        "name": "changeMsisdnRequest",
                        "in": "body",
                        "description": "changeMsisdn request body",
                        "required": true,
                        "schema": {
                            "$ref": "#/definitions/ChangeMsisdnRequest"
                        }
                    },
                    {
                        "name": "Accept",
                        "in": "header",
                        "description": "Preferred content type _ default to application/json",
                        "x-example": "application/json",
                        "required": false,
                        "type": "string",
                        "minLength": 1,
                        "maxLength": 256,
                        "pattern": "^[ \\S]+$"
                    },
                    {
                        "name": "Authorization",
                        "in": "header",
                        "description": "The HTTP Authorization request header contains the credentials to authenticate a user agent with a server.",
                        "x-example": "Bearer mF_9.B5f-4.1JqM",
                        "required": true,
                        "type": "string",
                        "minLength": 1,
                        "maxLength": 256,
                        "pattern": "^[\\S ]+$"
                    },
                    {
                        "name": "Content-Type",
                        "in": "header",
                        "description": "The MIME type of this content",
                        "x-example": "text/xml",
                        "required": true,
                        "type": "string",
                        "minLength": 1,
                        "maxLength": 256,
                        "pattern": "^[ \\S]+$"
                    },
                    {
                        "name": "Date",
                        "in": "header",
                        "description": "The Date general HTTP header contains the date and time at which the message was originated.",
                        "x-example": "Mon, 05 Mar 2018 16:38:08 GMT",
                        "required": false,
                        "type": "string",
                        "format": "date-time",
                        "pattern": "^(Mon|Tue|Wed|Thu|Fri|Sat|Sun), [0-3]{1}[0-9]{1} (Jan|Feb|Mar|Apr|May|Jun|Jul|Aug|Sep|Oct|Nov|Dec) [1-3][0-9]{3} [0-2][0-9]:[0-6][0-9]:[0-6][0-9] GMT$"
                    },
                    {
                        "name": "activity-id",
                        "in": "header",
                        "description": "Unique id alphanumeric value generated and sent by the partner to identify every the service request uniquely. Sample: XyzA:D1s5s1i-X6AFRvfiPBfs-1234  Pass as is to downstream calls.",
                        "x-example": "c34e7acd-384b-4c22-8b02-ba3963682508",
                        "required": false,
                        "type": "string",
                        "minLength": 1,
                        "maxLength": 256,
                        "pattern": "^[\\S]*$"
                    },
                    {
                        "name": "interaction-id",
                        "in": "header",
                        "description": "Alphanumeric value represent a common transaction id across all calls made from UI, while completing all business activity needs of a particular customer.",
                        "x-example": "cc688d54-50d1-49d4-8c5d-95459d1172e8",
                        "required": false,
                        "type": "string",
                        "minLength": 1,
                        "maxLength": 256,
                        "pattern": "^[\\S]*$"
                    },
                    {
                        "name": "service-transaction-id",
                        "in": "header",
                        "description": "Request ID echoed back by server",
                        "x-example": "23409209723",
                        "required": false,
                        "type": "string",
                        "minLength": 1,
                        "maxLength": 256,
                        "pattern": "^[\\S]*$"
                    },
                    {
                        "name": "session-id",
                        "in": "header",
                        "description": "A value populated by the sender used to track the transactions that occur during a session, a long-lasting interaction that ismaintained by the sender.",
                        "x-example": "350b91ec-4a64-4b10-a3f3-a78c8db3924a",
                        "required": false,
                        "type": "string",
                        "minLength": 1,
                        "maxLength": 256,
                        "pattern": "^[\\S]*$"
                    },
                    {
                        "name": "timestamp",
                        "in": "header",
                        "description": "ms since 1/1/70 adjusted to GMT",
                        "x-example": "1524599536",
                        "required": false,
                        "type": "integer",
                        "format": "int64",
                        "minimum": 0,
                        "maximum": 999999999999,
                        "pattern": "^[\\d]*$"
                    },
                    {
                        "name": "workflow-id",
                        "in": "header",
                        "description": "Business Use Case",
                        "x-example": "ACTIVATION",
                        "required": false,
                        "type": "string",
                        "minLength": 1,
                        "maxLength": 256,
                        "pattern": "^[\\S]*$"
                    },
                    {
                        "name": "x-auth-originator",
                        "in": "header",
                        "description": "API chain initiating callers access token",
                        "x-example": "c34e7acd-384b-4c22-8b02-ba3963682508",
                        "required": false,
                        "type": "string",
                        "minLength": 1,
                        "maxLength": 256,
                        "pattern": "^[\\S]*$"
                    },
                    {
                        "name": "x-authorization",
                        "in": "header",
                        "description": "Contains Proof of Possession token generated by API caller",
                        "x-example": "c34e7acd-384b-4c22-8b02-ba3963682508",
                        "required": false,
                        "type": "string",
                        "minLength": 1,
                        "maxLength": 256,
                        "pattern": "^[\\S ]*$"
                    }
                ],
                "responses": {
                    "201": {
                        "description": "Success",
                        "schema": {
                            "$ref": "#/definitions/Response"
                        },
                        "examples": {
                            "application/json": {
                                "charges": {
                                    "amount": 0,
                                    "taxCityCustAmount": 0,
                                    "taxCountyCustAmount": 0,
                                    "taxStateCustAmount": 0,
                                    "taxMis1CustAmount": 0,
                                    "taxMis2CustAmount": 0,
                                    "taxFederalAmount": 0,
                                    "taxRoamingAmount": 0
                                },
                                "portInResponse": {
                                    "status": "New",
                                    "requestNumber": "string",
                                    "reason": "string",
                                    "reasonCode": "string"
                                }
                            }
                        },
                        "headers": {
                            "Content-Type": {
                                "description": "The MIME type of this content",
                                "x-example": "text/xml",
                                "type": "string",
                                "minLength": 1,
                                "maxLength": 256,
                                "pattern": "^[ \\S]+$"
                            },
                            "Date": {
                                "description": "The Date general HTTP header contains the date and time at which the message was originated.",
                                "x-example": "Mon, 05 Mar 2018 16:38:08 GMT",
                                "type": "string",
                                "format": "date-time",
                                "pattern": "^(Mon|Tue|Wed|Thu|Fri|Sat|Sun), [0-3]{1}[0-9]{1} (Jan|Feb|Mar|Apr|May|Jun|Jul|Aug|Sep|Oct|Nov|Dec) [1-3][0-9]{3} [0-2][0-9]:[0-6][0-9]:[0-6][0-9] GMT$"
                            },
                            "ETag": {
                                "description": "The ETag header specifies the unique entity tag value for the returned resource.",
                                "x-example": "*",
                                "type": "string",
                                "minLength": 1,
                                "maxLength": 256,
                                "pattern": "^[\\S]*$"
                            },
                            "Location": {
                                "description": "The Location header specifies the URI of a created resource, or redirects the API consumer to an alternate resource location.",
                                "x-example": "http://api.t-mo.com/order-mgmt/v1/orders/123xyz-0/status",
                                "type": "string",
                                "minLength": 1,
                                "maxLength": 65536,
                                "pattern": "^[\\S]*$"
                            },
                            "Transfer-Encoding": {
                                "description": "The form of encoding used to safely transfer the entity to the user. Currently defined methods are: chunked, compress, deflate, gzip, identity.",
                                "x-example": "chunked",
                                "type": "string",
                                "minLength": 1,
                                "maxLength": 15,
                                "pattern": "^[\\S]*$"
                            },
                            "service-transaction-id": {
                                "description": "Request ID echoed back by server",
                                "x-example": "23409209723",
                                "type": "string",
                                "minLength": 1,
                                "maxLength": 256,
                                "pattern": "^[\\S]*$"
                            }
                        }
                    },
                    "400": {
                        "description": "Bad Request",
                        "schema": {
                            "$ref": "#/definitions/Error"
                        },
                        "examples": {
                            "application/json": {
                                "code": "400",
                                "userMessage": "Bad Request",
                                "systemMessage": "Bad Request",
                                "detailLink": "http://www.tmus.com"
                            }
                        },
                        "headers": {}
                    },
                    "401": {
                        "description": "Unauthorized",
                        "schema": {
                            "$ref": "#/definitions/Error"
                        },
                        "examples": {
                            "application/json": {
                                "code": "401",
                                "userMessage": "Unauthorized",
                                "systemMessage": "Unauthorized",
                                "detailLink": "http://www.tmus.com"
                            }
                        },
                        "headers": {}
                    },
                    "403": {
                        "description": "Client access denied",
                        "schema": {
                            "$ref": "#/definitions/Error"
                        },
                        "examples": {
                            "application/json": {
                                "code": "403",
                                "userMessage": "Client access denied",
                                "systemMessage": "Client access denied",
                                "detailLink": "http://www.tmus.com"
                            }
                        },
                        "headers": {}
                    },
                    "404": {
                        "description": "Resource not found",
                        "schema": {
                            "$ref": "#/definitions/Error"
                        },
                        "examples": {
                            "application/json": {
                                "code": "404",
                                "userMessage": "Resource not found",
                                "systemMessage": "Resource not found",
                                "detailLink": "http://www.tmus.com"
                            }
                        },
                        "headers": {}
                    },
                    "405": {
                        "description": "Method Not Allowed",
                        "schema": {
                            "$ref": "#/definitions/Error"
                        },
                        "examples": {
                            "application/json": {
                                "code": "405",
                                "userMessage": "Method Not Allowed",
                                "systemMessage": "Method Not Allowed",
                                "detailLink": "http://www.tmus.com"
                            }
                        },
                        "headers": {
                            "Allow": {
                                "description": "list of supported methods for URI",
                                "x-example": "GET",
                                "type": "string",
                                "minLength": 1,
                                "maxLength": 256,
                                "pattern": "^[\\S]*$"
                            },
                            "service-transaction-id": {
                                "description": "Request ID echoed back by server",
                                "x-example": "23409209723",
                                "type": "string",
                                "minLength": 1,
                                "maxLength": 256,
                                "pattern": "^[\\S]*$"
                            }
                        }
                    },
                    "406": {
                        "description": "Mismatching data format",
                        "schema": {
                            "$ref": "#/definitions/Error"
                        },
                        "examples": {
                            "application/json": {
                                "code": "406",
                                "userMessage": "Mismatching data format",
                                "systemMessage": "Mismatching data format",
                                "detailLink": "http://www.tmus.com"
                            }
                        },
                        "headers": {}
                    },
                    "409": {
                        "description": "Invalid data",
                        "schema": {
                            "$ref": "#/definitions/Error"
                        },
                        "examples": {
                            "application/json": {
                                "code": "409",
                                "userMessage": "Invalid data",
                                "systemMessage": "Invalid data",
                                "detailLink": "http://www.tmus.com"
                            }
                        },
                        "headers": {}
                    },
                    "415": {
                        "description": "Unsupported Media Type",
                        "schema": {
                            "$ref": "#/definitions/Error"
                        },
                        "examples": {
                            "application/json": {
                                "code": "415",
                                "userMessage": "Unsupported Media Type",
                                "systemMessage": "Unsupported Media Type",
                                "detailLink": "http://www.tmus.com"
                            }
                        },
                        "headers": {}
                    },
                    "500": {
                        "description": "System Error",
                        "schema": {
                            "$ref": "#/definitions/Error"
                        },
                        "examples": {
                            "application/json": {
                                "code": "500",
                                "userMessage": "System Error",
                                "systemMessage": "System Error",
                                "detailLink": "http://www.tmus.com"
                            }
                        },
                        "headers": {}
                    },
                    "503": {
                        "description": "Service unavailable",
                        "schema": {
                            "$ref": "#/definitions/Error"
                        },
                        "examples": {
                            "application/json": {
                                "code": "503",
                                "userMessage": "Service unavailable",
                                "systemMessage": "Service unavailable",
                                "detailLink": "http://www.tmus.com"
                            }
                        },
                        "headers": {}
                    }
                },
                "security": [
                    {
                        "oauth2-accessCode": [
                            "user",
                            "financial",
                            "read:customer",
                            ""
                        ]
                    }
                ]
            }
        }
    },
    "definitions": {
        "ChangeMsisdnRequest": {
            "type": "object",
            "description": "Request parameter for change-msisdn operation",
            "properties": {
                "ban": {
                    "description": "Represents the customer account number.",
                    "type": "string"
                },
                "oldMsisdn": {
                    "description": "The MSISDN being ported.",
                    "type": "string",
                    "minLength": 10,
                    "maxLength": 15,
                    "pattern": "[0-9]{10,15}"
                },
                "newMsisdn": {
                    "description": "The MSISDN being ported.",
                    "type": "string",
                    "minLength": 10,
                    "maxLength": 15,
                    "pattern": "[0-9]{10,15}"
                },
                "reasonCode": {
                    "description": "Order reason code",
                    "type": "string"
                },
                "effectiveDate": {
                    "description": "effectiveDate is a predefined object from an igniteXml model - cabinet 1030178313 build 1036834997 key 1030657172",
                    "type": "string",
                    "format": "date"
                },
                "memoText": {
                    "description": "manualText is a predefined object from an igniteXml model - cabinet 1030178313 build 1036834997 key 1030703182",
                    "type": "string"
                },
                "numberLocation": {
                    "description": "Number Location of the mobileNumber",
                    "type": "string"
                },
                "portInFlag": {
                    "description": "Indicates the porting status of the MSISDN.",
                    "type": "boolean"
                },
                "portData": {
                    "$ref": "#/definitions/PortData"
                }
            }
        },
        "Charges": {
            "type": "object",
            "properties": {
                "amount": {
                    "description": "Charge Amount in the transactional currency",
                    "type": "number",
                    "format": "double"
                },
                "taxCityCustAmount": {
                    "description": "This field contains the portion of the transaction amount that represents the tax.",
                    "type": "number",
                    "format": "double"
                },
                "taxCountyCustAmount": {
                    "description": "This field contains the portion of the transaction amount that represents the tax.",
                    "type": "number",
                    "format": "double"
                },
                "taxStateCustAmount": {
                    "description": "This field contains the portion of the transaction amount that represents the tax.",
                    "type": "number",
                    "format": "double"
                },
                "taxMis1CustAmount": {
                    "description": "This field contains the portion of the transaction amount that represents the tax.",
                    "type": "number",
                    "format": "double"
                },
                "taxMis2CustAmount": {
                    "description": "This field contains the portion of the transaction amount that represents the tax.",
                    "type": "number",
                    "format": "double"
                },
                "taxFederalAmount": {
                    "description": "This field contains the portion of the transaction amount that represents the tax.",
                    "type": "number",
                    "format": "double"
                },
                "taxRoamingAmount": {
                    "description": "This field contains the portion of the transaction amount that represents the tax.",
                    "type": "number",
                    "format": "double"
                }
            }
        },
        "Error": {
            "type": "object",
            "description": "As defined in http://api-standards.apps.px-npe01.cf.t-mobile.com/http/status-codes/error-response-format/",
            "required": [
                "code",
                "userMessage"
            ],
            "properties": {
                "code": {
                    "description": "A succinct, domain-specific, human-readable text string to identify the type of error for the given status code",
                    "example": "ProductNotFound",
                    "type": "string",
                    "pattern": "^[\\S ]+$"
                },
                "userMessage": {
                    "description": "A human-readable message describing the error.",
                    "example": "Failed to find product.",
                    "type": "string",
                    "pattern": "^[\\S ]+$"
                },
                "systemMessage": {
                    "description": "Text that provides a more detailed technical explanation of the error",
                    "example": "PRODUCT_NOT_FOUND",
                    "type": "string"
                },
                "detailLink": {
                    "description": "link to custom information providing greater detail on error or errors",
                    "example": "http://aaa.bbb.ccc/",
                    "type": "string"
                }
            }
        },
        "PortData": {
            "type": "object",
            "properties": {
                "dueDateTime": {
                    "description": "Captured the date associated with the subscription balance details (ie. payment due date).",
                    "type": "string",
                    "format": "date"
                },
                "memoText": {
                    "description": "manualText is a predefined object from an igniteXml model - cabinet 1030178313 build 1036834997 key 1030703182",
                    "type": "string"
                },
                "portInAccountNumber": {
                    "description": "The account number in the billing system that will be donating the MSISDN.",
                    "type": "string"
                },
                "portInAccountPassword": {
                    "description": "The security password or PIN that will be used to validate the port request at the donor billing system.",
                    "type": "string"
                },
                "portPath": {
                    "description": "portPath is a predefined object from an igniteXml model - cabinet 1030178313 build 1036834997 key 1030674832",
                    "type": "string"
                },
                "retossp": {
                    "description": "retossp",
                    "type": "string"
                },
                "serviceProvider": {
                    "description": "The service provider code of the tier 1 service provider being asked to release the MSISDN.",
                    "type": "string"
                }
            }
        },
        "PortInResponse": {
            "type": "object",
            "description": "PortIn details",
            "properties": {
                "status": {
                    "description": "A short hand identifier for the status of the port request, at the point in time specified by the effectivePeriod.",
                    "type": "string",
                    "enum": [
                        "New",
                        "InProgress",
                        "Error",
                        "Cancelled",
                        "Complete"
                    ]
                },
                "requestNumber": {
                    "description": "PortIn request number",
                    "type": "string"
                },
                "reason": {
                    "description": "The reason for porting the mobile number.",
                    "type": "string"
                },
                "reasonCode": {
                    "description": "Specifies the reason for the change in status.",
                    "type": "string"
                }
            }
        },
        "Response": {
            "type": "object",
            "properties": {
                "charges": {
                    "$ref": "#/definitions/Charges"
                },
                "portInResponse": {
                    "$ref": "#/definitions/PortInResponse"
                }
            }
        }
    },
    "securityDefinitions": {
        "oauth2-accessCode": {
            "type": "oauth2",
            "description": "The most common flow, mostly used for server-side and mobile web applications. This flow is similar to how users sign up into a web application using their Facebook or Google account.",
            "authorizationUrl": "https://example.com/oauth/authorize",
            "tokenUrl": "https://tmobileb-sb01.apigee.net/v1/oauth2/accesstoken?grant_type=client_credentials",
            "flow": "accessCode",
            "scopes": {
                "user": "Grants read/write access to profile info only",
                "financial": "Grants read/write access to financial transactions",
                "read:customer": "read only access to customer information",
                "": ""
            }
        }
    }
}