{
  "swagger": "2.0",
  "info": {
    "description": "These APIs are used for all document service related APIs",
    "version": "1.0.0",
    "title": "B2B Document service",
    "contact": {
      "name": "Apigee/Documentation Support",
      "email": "TFB_DTD_API_DEVOPS@T-Mobile.com"
    }
  },
  "host": "tmobileqat-qat01.apigee.net",
  "basePath": "/b2b-experience/v1/documents",
  "x-servers": {
    "url": "https://tmobileqat-qat01.apigee.net",
    "description": "server path"
  },
  "tags": [
    {
      "name": "Document Service",
      "description": "Document service APIs"
    }
  ],
  "securityDefinitions": {
    "OAuth2": {
      "type": "oauth2",
      "description": "oauth2",
      "flow": "accessCode",
      "authorizationUrl": "https://tmobileqat-qat01.apigee.net/v1/oauth2/accesstoken?grant_type=client_credentials",
      "tokenUrl": "https://tmobileqat-qat01.apigee.net/v1/oauth2/accesstoken?grant_type=client_credentials",
      "scopes": {
        "read": "Grants read access"
      }
    }
  },
  "schemes": [
    "https"
  ],
  "consumes": [
    "application/json"
  ],
  "produces": [
    "application/json"
  ],
  "paths": {
    "/": {
      "patch": {
        "security": [
          {
            "OAuth2": [
              "read"
            ]
          }
        ],
        "description": "\n***\n\n    * The purpose of this API is to post consent to terms and records the consent details.",
        "operationId": "patchSubmitcustomerconsent",
        "x-api-pattern": "ModifyResource",
        "summary": "Submit customer consent",
        "tags": [
          "Document Service"
        ],
        "parameters": [
          {
            "$ref": "#/parameters/Accept"
          },
          {
            "$ref": "#/parameters/Content-Type"
          },
          {
            "$ref": "#/parameters/Authorization"
          },
          {
            "$ref": "#/parameters/B2b-Client"
          },
          {
            "$ref": "#/parameters/B2b-Org"
          },
          {
            "$ref": "#/parameters/B2b-userId"
          },
          {
            "$ref": "#/parameters/B2b-ccid"
          },
          {
            "name": "body",
            "in": "body",
            "required": true,
            "description": "Provide json body request",
            "schema": {
              "$ref": "#/definitions/PatchConsentRequest"
            }
          }
        ],
        "responses": {
          "200": {
            "description": "Success",
            "headers": {
              "Date": {
                "type": "string",
                "description": "Tue, 11 Sep 2018 20:42:21 GMT",
                "x-example": "Tue, 11 Sep 2018 20:42:21 GMT"
              },
              "Content-Type": {
                "type": "string",
                "description": "application/json;charset=UTF-8",
                "x-example": "application/json;charset=UTF-8"
              }
            },
            "schema": {
              "$ref": "#/definitions/PatchConsentResponse"
            }
          },
          "400": {
            "description": "Bad Request",
            "schema": {
              "$ref": "#/definitions/ErrorResponse"
            }
          },
          "401": {
            "description": "Unauthorized",
            "schema": {
              "$ref": "#/definitions/ErrorResponse"
            }
          },
          "403": {
            "description": "Forbidden",
            "schema": {
              "$ref": "#/definitions/ErrorResponse"
            }
          },
          "404": {
            "description": "Resource not found",
            "schema": {
              "$ref": "#/definitions/ErrorResponse"
            }
          },
          "500": {
            "description": "System Error",
            "schema": {
              "$ref": "#/definitions/ErrorResponse"
            }
          },
          "501": {
            "description": "Method Not Allowed",
            "schema": {
              "$ref": "#/definitions/ErrorResponse"
            }
          },
          "502": {
            "description": "Gateway timeout",
            "schema": {
              "$ref": "#/definitions/ErrorResponse"
            }
          },
          "503": {
            "description": "Service unavailable",
            "schema": {
              "$ref": "#/definitions/ErrorResponse"
            }
          }
        }
      }
    },
    "/service-agreement": {
      "post": {
        "security": [
          {
            "OAuth2": [
              "read"
            ]
          }
        ],
        "description": "# Description \n\nThe Retrieve Service Agreement API is used to build a service agreement consent form for a specific rate plan give you a list of services that may be added for a specific rate plan.\n\nThe purpose of this API is  return terms for display based on transaction type and creates a document ID for the content to display.",
        "operationId": "postServiceagreement",
        "x-api-pattern": "CreateInCollection",
        "summary": "Service Agreement",
        "tags": [
          "Document Service"
        ],
        "parameters": [
          {
            "$ref": "#/parameters/Accept"
          },
          {
            "$ref": "#/parameters/Content-Type"
          },
          {
            "$ref": "#/parameters/Authorization"
          },
          {
            "$ref": "#/parameters/B2b-Client"
          },
          {
            "$ref": "#/parameters/B2b-Org"
          },
          {
            "$ref": "#/parameters/x-authorization"
          },
          {
            "$ref": "#/parameters/x-auth-originator"
          },
          {
            "name": "body",
            "in": "body",
            "required": true,
            "description": "Provide json body request",
            "schema": {
              "$ref": "#/definitions/ServiceAgreementRequest"
            }
          }
        ],
        "responses": {
          "200": {
            "description": "Success",
            "headers": {
              "Date": {
                "type": "string",
                "description": "Tue, 11 Sep 2018 20:42:21 GMT",
                "x-example": "Tue, 11 Sep 2018 20:42:21 GMT"
              },
              "Content-Type": {
                "type": "string",
                "description": "application/json;charset=UTF-8",
                "x-example": "application/json;charset=UTF-8"
              }
            },
            "schema": {
              "$ref": "#/definitions/ServiceAgreementResponse"
            }
          },
          "400": {
            "description": "Bad Request",
            "schema": {
              "$ref": "#/definitions/ErrorResponse1"
            }
          },
          "401": {
            "description": "Unauthorized",
            "schema": {
              "$ref": "#/definitions/ErrorResponse"
            }
          },
          "403": {
            "description": "Forbidden",
            "schema": {
              "$ref": "#/definitions/ErrorResponse"
            }
          },
          "404": {
            "description": "Resource not found",
            "schema": {
              "$ref": "#/definitions/ErrorResponse"
            }
          },
          "500": {
            "description": "System Error",
            "schema": {
              "$ref": "#/definitions/ErrorResponse"
            }
          },
          "501": {
            "description": "Method Not Allowed",
            "schema": {
              "$ref": "#/definitions/ErrorResponse"
            }
          },
          "502": {
            "description": "Gateway timeout",
            "schema": {
              "$ref": "#/definitions/ErrorResponse"
            }
          },
          "503": {
            "description": "Service unavailable",
            "schema": {
              "$ref": "#/definitions/ErrorResponse"
            }
          }
        }
      }
    },
    "/business-advisement": {
      "post": {
        "security": [
          {
            "OAuth2": [
              "read"
            ]
          }
        ],
        "description": "\nThe purpose of this API is to return the business advisement terms for display based on transaction type and creates a document ID for the content to display.",
        "operationId": "postBusinessadvisement",
        "x-api-pattern": "CreateInCollection",
        "summary": "Business Advisement",
        "tags": [
          "Document Service"
        ],
        "parameters": [
          {
            "$ref": "#/parameters/Accept"
          },
          {
            "$ref": "#/parameters/Content-Type"
          },
          {
            "$ref": "#/parameters/Authorization"
          },
          {
            "$ref": "#/parameters/B2b-Client"
          },
          {
            "$ref": "#/parameters/B2b-Org"
          },
          {
            "name": "body",
            "in": "body",
            "required": true,
            "description": "Provide json body request",
            "schema": {
              "$ref": "#/definitions/BusinessAdvisementRequest"
            }
          }
        ],
        "responses": {
          "200": {
            "description": "Success",
            "headers": {
              "Date": {
                "type": "string",
                "description": "Tue, 11 Sep 2018 20:42:21 GMT",
                "x-example": "Tue, 11 Sep 2018 20:42:21 GMT"
              },
              "Content-Type": {
                "type": "string",
                "description": "application/json;charset=UTF-8",
                "x-example": "application/json;charset=UTF-8"
              }
            },
            "schema": {
              "$ref": "#/definitions/BusinessAdvisementResponse"
            }
          },
          "400": {
            "description": "Bad Request",
            "schema": {
              "$ref": "#/definitions/ErrorResponse"
            }
          },
          "401": {
            "description": "Unauthorized",
            "schema": {
              "$ref": "#/definitions/ErrorResponse"
            }
          },
          "403": {
            "description": "Forbidden",
            "schema": {
              "$ref": "#/definitions/ErrorResponse"
            }
          },
          "404": {
            "description": "Resource not found",
            "schema": {
              "$ref": "#/definitions/ErrorResponse"
            }
          },
          "500": {
            "description": "System Error",
            "schema": {
              "$ref": "#/definitions/ErrorResponse"
            }
          },
          "501": {
            "description": "Method Not Allowed",
            "schema": {
              "$ref": "#/definitions/ErrorResponse"
            }
          },
          "502": {
            "description": "Gateway timeout",
            "schema": {
              "$ref": "#/definitions/ErrorResponse"
            }
          },
          "503": {
            "description": "Service unavailable",
            "schema": {
              "$ref": "#/definitions/ErrorResponse"
            }
          }
        }
      }
    },
    "/terms-conditions": {
      "post": {
        "security": [
          {
            "OAuth2": [
              "read"
            ]
          }
        ],
        "description": "\n***\n\n    * The purpose of this API is to return consent for a transaction and historical terms",
        "operationId": "postTermscondition",
        "x-api-pattern": "CreateInCollection",
        "summary": "Terms Conditions",
        "tags": [
          "Document Service"
        ],
        "parameters": [
          {
            "$ref": "#/parameters/Accept"
          },
          {
            "$ref": "#/parameters/Content-Type"
          },
          {
            "$ref": "#/parameters/Authorization"
          },
          {
            "$ref": "#/parameters/B2b-Client"
          },
          {
            "$ref": "#/parameters/B2b-Org"
          },
          {
            "name": "body",
            "in": "body",
            "required": true,
            "description": "Provide json body request",
            "schema": {
              "$ref": "#/definitions/TermConditionRequest"
            }
          }
        ],
        "responses": {
          "200": {
            "description": "Success",
            "headers": {
              "Date": {
                "type": "string",
                "description": "Tue, 11 Sep 2018 20:42:21 GMT",
                "x-example": "Tue, 11 Sep 2018 20:42:21 GMT"
              },
              "Content-Type": {
                "type": "string",
                "description": "application/json;charset=UTF-8",
                "x-example": "application/json;charset=UTF-8"
              }
            },
            "schema": {
              "$ref": "#/definitions/TermConditionResponse"
            }
          },
          "400": {
            "description": "Bad Request",
            "schema": {
              "$ref": "#/definitions/ErrorResponse"
            }
          },
          "401": {
            "description": "Unauthorized",
            "schema": {
              "$ref": "#/definitions/ErrorResponse"
            }
          },
          "403": {
            "description": "Forbidden",
            "schema": {
              "$ref": "#/definitions/ErrorResponse"
            }
          },
          "404": {
            "description": "Resource not found",
            "schema": {
              "$ref": "#/definitions/ErrorResponse"
            }
          },
          "500": {
            "description": "System Error",
            "schema": {
              "$ref": "#/definitions/ErrorResponse"
            }
          },
          "501": {
            "description": "Method Not Allowed",
            "schema": {
              "$ref": "#/definitions/ErrorResponse"
            }
          },
          "502": {
            "description": "Gateway timeout",
            "schema": {
              "$ref": "#/definitions/ErrorResponse"
            }
          },
          "503": {
            "description": "Service unavailable",
            "schema": {
              "$ref": "#/definitions/ErrorResponse"
            }
          }
        }
      }
    },
    "/additional-terms": {
      "get": {
        "security": [
          {
            "OAuth2": [
              "read"
            ]
          }
        ],
        "description": "\n***\n\n    * The purpose of this API is to return legal fragments of additional terms for EIP plan that needs be dynamically concatenated with device FRP price.",
        "operationId": "getadditionalTerms",
        "x-api-pattern": "QueryCollection",
        "summary": "Get Additional Terms",
        "tags": [
          "Document Service"
        ],
        "parameters": [
          {
            "$ref": "#/parameters/Accept"
          },
          {
            "$ref": "#/parameters/Content-Type"
          },
          {
            "$ref": "#/parameters/Authorization"
          },
          {
            "$ref": "#/parameters/B2b-Client"
          },
          {
            "$ref": "#/parameters/B2b-Org"
          },
          {
            "$ref": "#/parameters/fragment-types"
          }
        ],
        "responses": {
          "200": {
            "description": "Success",
            "headers": {
              "Date": {
                "type": "string",
                "description": "Tue, 11 Sep 2018 20:42:21 GMT",
                "x-example": "Tue, 11 Sep 2018 20:42:21 GMT"
              },
              "Content-Type": {
                "type": "string",
                "description": "application/json;charset=UTF-8",
                "x-example": "application/json;charset=UTF-8"
              }
            },
            "schema": {
              "$ref": "#/definitions/AdditionalTermResponse"
            }
          },
          "400": {
            "description": "Bad Request",
            "schema": {
              "$ref": "#/definitions/ErrorResponse"
            }
          },
          "401": {
            "description": "Unauthorized",
            "schema": {
              "$ref": "#/definitions/ErrorResponse"
            }
          },
          "403": {
            "description": "Forbidden",
            "schema": {
              "$ref": "#/definitions/ErrorResponse"
            }
          },
          "404": {
            "description": "Resource not found",
            "schema": {
              "$ref": "#/definitions/ErrorResponse"
            }
          },
          "500": {
            "description": "System Error",
            "schema": {
              "$ref": "#/definitions/ErrorResponse"
            }
          },
          "501": {
            "description": "Method Not Allowed",
            "schema": {
              "$ref": "#/definitions/ErrorResponse"
            }
          },
          "502": {
            "description": "Gateway timeout",
            "schema": {
              "$ref": "#/definitions/ErrorResponse"
            }
          },
          "503": {
            "description": "Service unavailable",
            "schema": {
              "$ref": "#/definitions/ErrorResponse"
            }
          }
        }
      }
    },
    "/document-history": {
      "get": {
        "security": [
          {
            "OAuth2": [
              "read"
            ]
          }
        ],
        "description": "\n***\n\n    * The purpose of this API is to retrieve list of document IDs and documentType for a TFB Order ID.",
        "operationId": "getdocumentIDandtype",
        "x-api-pattern": "QueryCollection",
        "summary": "Get documentId and documentType",
        "tags": [
          "Document Service"
        ],
        "parameters": [
          {
            "$ref": "#/parameters/Accept"
          },
          {
            "$ref": "#/parameters/Content-Type"
          },
          {
            "$ref": "#/parameters/Authorization"
          },
          {
            "$ref": "#/parameters/B2b-Client"
          },
          {
            "$ref": "#/parameters/B2b-Org"
          },
          {
            "$ref": "#/parameters/tfbOrderId"
          }
        ],
        "responses": {
          "200": {
            "description": "Success",
            "headers": {
              "Date": {
                "type": "string",
                "description": "Tue, 11 Sep 2018 20:42:21 GMT",
                "x-example": "Tue, 11 Sep 2018 20:42:21 GMT"
              },
              "Content-Type": {
                "type": "string",
                "description": "application/json;charset=UTF-8",
                "x-example": "application/json;charset=UTF-8"
              }
            },
            "schema": {
              "$ref": "#/definitions/DocumentResponse"
            }
          },
          "400": {
            "description": "Bad Request",
            "schema": {
              "$ref": "#/definitions/ErrorResponse"
            }
          },
          "401": {
            "description": "Unauthorized",
            "schema": {
              "$ref": "#/definitions/ErrorResponse"
            }
          },
          "403": {
            "description": "Forbidden",
            "schema": {
              "$ref": "#/definitions/ErrorResponse"
            }
          },
          "404": {
            "description": "Resource not found",
            "schema": {
              "$ref": "#/definitions/ErrorResponse"
            }
          },
          "500": {
            "description": "System Error",
            "schema": {
              "$ref": "#/definitions/ErrorResponse"
            }
          },
          "501": {
            "description": "Method Not Allowed",
            "schema": {
              "$ref": "#/definitions/ErrorResponse"
            }
          },
          "502": {
            "description": "Gateway timeout",
            "schema": {
              "$ref": "#/definitions/ErrorResponse"
            }
          },
          "503": {
            "description": "Service unavailable",
            "schema": {
              "$ref": "#/definitions/ErrorResponse"
            }
          }
        }
      }
    },
    "/{document-id}/document-details": {
      "get": {
        "security": [
          {
            "OAuth2": [
              "read"
            ]
          }
        ],
        "description": "\n***\n\n    * The purpose of this API is to retrieve the content/Url based on document return type.",
        "operationId": "getContentDetails",
        "summary": "Get Binary Content/URL",
        "x-api-pattern": "QueryCollection",
        "tags": [
          "Document Service"
        ],
        "parameters": [
          {
            "$ref": "#/parameters/Accept"
          },
          {
            "$ref": "#/parameters/Content-Type"
          },
          {
            "$ref": "#/parameters/Authorization"
          },
          {
            "$ref": "#/parameters/B2b-Client"
          },
          {
            "$ref": "#/parameters/B2b-Org"
          },
          {
            "$ref": "#/parameters/documentReturnType"
          },
          {
            "$ref": "#/parameters/document-id"
          }
        ],
        "responses": {
          "200": {
            "description": "Success",
            "headers": {
              "Date": {
                "type": "string",
                "description": "Tue, 11 Sep 2018 20:42:21 GMT",
                "x-example": "Tue, 11 Sep 2018 20:42:21 GMT"
              },
              "Content-Type": {
                "type": "string",
                "description": "application/json;charset=UTF-8",
                "x-example": "application/json;charset=UTF-8"
              }
            },
            "schema": {
              "$ref": "#/definitions/ContentResponse"
            }
          },
          "400": {
            "description": "Bad Request",
            "schema": {
              "$ref": "#/definitions/ErrorResponse"
            }
          },
          "401": {
            "description": "Unauthorized",
            "schema": {
              "$ref": "#/definitions/ErrorResponse"
            }
          },
          "404": {
            "description": "Resource not found",
            "schema": {
              "$ref": "#/definitions/ErrorResponse"
            }
          },
          "500": {
            "description": "System Error",
            "schema": {
              "$ref": "#/definitions/ErrorResponse"
            }
          },
          "503": {
            "description": "Service unavailable",
            "schema": {
              "$ref": "#/definitions/ErrorResponse"
            }
          }
        }
      }
    },
    "/easypay-agreement": {
      "post": {
        "security": [
          {
            "OAuth2": [
              "read"
            ]
          }
        ],
        "description": "\n***\n\n    * The purpose of this API is to create easy pay agreement content based on documentType.",
        "operationId": "postEasyPayAgreement",
        "summary": "Easy pay agreement",
        "x-api-pattern": "CreateInCollection",
        "tags": [
          "Document Service"
        ],
        "parameters": [
          {
            "$ref": "#/parameters/Accept"
          },
          {
            "$ref": "#/parameters/Content-Type"
          },
          {
            "$ref": "#/parameters/Authorization"
          },
          {
            "$ref": "#/parameters/B2b-Client"
          },
          {
            "$ref": "#/parameters/B2b-Org"
          },
          {
            "name": "body",
            "in": "body",
            "required": true,
            "description": "Provide json body request",
            "schema": {
              "$ref": "#/definitions/EasyPayAgreementRequest"
            }
          }
        ],
        "responses": {
          "200": {
            "description": "Success",
            "headers": {
              "Date": {
                "type": "string",
                "description": "Tue, 11 Sep 2018 20:42:21 GMT",
                "x-example": "Tue, 11 Sep 2018 20:42:21 GMT"
              },
              "Content-Type": {
                "type": "string",
                "description": "application/json;charset=UTF-8",
                "x-example": "application/json;charset=UTF-8"
              }
            },
            "schema": {
              "$ref": "#/definitions/EasyPayAgreementResponse"
            }
          },
          "400": {
            "description": "Bad Request",
            "schema": {
              "$ref": "#/definitions/ErrorResponse"
            }
          },
          "401": {
            "description": "Unauthorized",
            "schema": {
              "$ref": "#/definitions/ErrorResponse"
            }
          },
          "403": {
            "description": "Forbidden",
            "schema": {
              "$ref": "#/definitions/ErrorResponse"
            }
          },
          "404": {
            "description": "Resource not found",
            "schema": {
              "$ref": "#/definitions/ErrorResponse"
            }
          },
          "500": {
            "description": "System Error",
            "schema": {
              "$ref": "#/definitions/ErrorResponse"
            }
          },
          "501": {
            "description": "Method Not Allowed",
            "schema": {
              "$ref": "#/definitions/ErrorResponse"
            }
          },
          "502": {
            "description": "Gateway timeout",
            "schema": {
              "$ref": "#/definitions/ErrorResponse"
            }
          },
          "503": {
            "description": "Service unavailable",
            "schema": {
              "$ref": "#/definitions/ErrorResponse"
            }
          }
        }
      }
    },
    "/static-content": {
      "get": {
        "security": [
          {
            "OAuth2": [
              "read"
            ]
          }
        ],
        "description": "\n***\n\n    * The purpose of this API is to get the static content for business advisement",
        "operationId": "getstatic-content",
        "x-api-pattern": "QueryCollection",
        "summary": "Get static-content",
        "tags": [
          "Document Service"
        ],
        "parameters": [
          {
            "$ref": "#/parameters/Accept"
          },
          {
            "$ref": "#/parameters/Content-Type"
          },
          {
            "$ref": "#/parameters/Authorization"
          },
          {
            "$ref": "#/parameters/B2b-Client"
          },
          {
            "$ref": "#/parameters/B2b-Org"
          }
        ],
        "responses": {
          "200": {
            "description": "Success",
            "headers": {
              "Date": {
                "type": "string",
                "description": "Tue, 11 Sep 2018 20:42:21 GMT",
                "x-example": "Tue, 11 Sep 2018 20:42:21 GMT"
              },
              "Content-Type": {
                "type": "string",
                "description": "application/json;charset=UTF-8",
                "x-example": "application/json;charset=UTF-8"
              }
            },
            "schema": {
              "$ref": "#/definitions/StaticContentResponse"
            }
          },
          "400": {
            "description": "Bad Request",
            "schema": {
              "$ref": "#/definitions/ErrorResponse"
            }
          },
          "401": {
            "description": "Unauthorized",
            "schema": {
              "$ref": "#/definitions/ErrorResponse"
            }
          },
          "403": {
            "description": "Forbidden",
            "schema": {
              "$ref": "#/definitions/ErrorResponse"
            }
          },
          "404": {
            "description": "Resource not found",
            "schema": {
              "$ref": "#/definitions/ErrorResponse"
            }
          },
          "500": {
            "description": "System Error",
            "schema": {
              "$ref": "#/definitions/ErrorResponse"
            }
          },
          "501": {
            "description": "Method Not Allowed",
            "schema": {
              "$ref": "#/definitions/ErrorResponse"
            }
          },
          "502": {
            "description": "Gateway timeout",
            "schema": {
              "$ref": "#/definitions/ErrorResponse"
            }
          },
          "503": {
            "description": "Service unavailable",
            "schema": {
              "$ref": "#/definitions/ErrorResponse"
            }
          }
        }
      }
    }
  },
  "parameters": {
    "Accept": {
      "name": "Accept",
      "in": "header",
      "description": "+   The request header must contain the Accept element.\n\n+   Accept header is used by HTTP clients to tell the server what content types they'll accept\n\n+   The default value is *'application/json'*.",
      "required": false,
      "type": "string",
      "x-example": "application/json",
      "pattern": "application/json"
    },
    "Content-Type": {
      "name": "Content-Type",
      "in": "header",
      "description": "+   The request header must contain the Content-Type element.\n\n+   In HTTP requests, API clients must specify the format in which the data is submitted.\n\n+   The default value is *'application/json'*.",
      "required": true,
      "type": "string",
      "x-example": "application/json",
      "pattern": "application/json"
    },
    "Authorization": {
      "name": "Authorization",
      "in": "header",
      "description": "+   The request header must contain a valid access token generated by APIGEE.\n\n+   The access token is environment specific and is generated dynamically.\n\n+   It is mandatory to be passed in the request parameter for authentication.\n\n+   The sample Value is *'EGQ94pYxAzk2JRmSoW1GTZifPAJI'*.",
      "required": true,
      "type": "string",
      "x-example": "EGQ94pYxAzk2JRmSoW1GTZifPAJI",
      "pattern": "EGQ94pYxAzk2JRmSoW1GTZifPAJI"
    },
    "B2b-Client": {
      "name": "B2b-Client",
      "in": "header",
      "description": "+   The request header must contain B2b Client Id.\n\n\n+   All  B2B customers will have a distinct Client Id. For testing purposes use 'TEST'",
      "required": true,
      "type": "string",
      "x-example": "TEST",
      "pattern": "TEST"
    },
    "B2b-Org": {
      "name": "B2b-Org",
      "in": "header",
      "required": true,
      "description": "+   The request header contains OrgId.\n\n\n+   It is usually a 19 digit number. \n\n\n+   All B2B customers will have an organization Id, which needs to be passed here. \n\n\n+   It is mandatory to have OrgId either in header or in path param/query param. ",
      "type": "string",
      "x-example": "7000000000000013000",
      "pattern": "7000000000000013000"
    },
    "B2b-userId": {
      "name": "B2b-userId",
      "in": "header",
      "required": false,
      "description": "+   The request header contains B2b-userId.",
      "type": "string",
      "x-example": "1-5CZSC",
      "pattern": "1-5CZSC"
    },
    "B2b-ccid": {
      "name": "B2b-ccid",
      "in": "header",
      "required": false,
      "description": "+   The request header contains B2b-ccid.",
      "type": "string",
      "x-example": "1-3TYZC",
      "pattern": "1-3TYZC"
    },
    "fragment-types": {
      "name": "fragment-types",
      "in": "query",
      "required": true,
      "type": "string",
      "x-example": "dynamic_finance_cancelation_frp",
      "pattern": "dynamic_finance_cancelation_frp",
      "description": "+ Provide the fragment type.\n\n+ It can be single/multiple comma separated value.\n\n\nPossible Values:\n+ dynamic_finance_cancelation_frp\n+ dynamic_finance_cancelation_term\n+ dynamic_finance_cancelation_balance\n+ generic_finance_cancelation\n+ finance_payment_period"
    },
    "tfbOrderId": {
      "name": "tfbOrderId",
      "in": "query",
      "required": true,
      "type": "string",
      "x-example": "1234",
      "pattern": "1234",
      "description": "+ Provide the TFB Order Id."
    },
    "document-id": {
      "name": "document-id",
      "in": "path",
      "required": true,
      "type": "string",
      "x-example": "1234",
      "pattern": "1234",
      "description": "+ Provide the document Id."
    },
    "documentReturnType": {
      "name": "documentReturnType",
      "in": "query",
      "required": true,
      "type": "string",
      "x-example": "URL",
      "pattern": "URL",
      "description": "+ Provide the document return type.\n\n+ It can be CONTENT or URL\n\n+ If documentReturnType is CONTENT, then return binary content in response\n\n+ If documentReturnType is URL, then return url in response"
    },
    "x-authorization": {
      "name": "x-authorization",
      "in": "header",
      "description": "+ Validity of PoP Token is one Hop and one Message, a Proof of Possession Token (PoP Token) to bind the access token to the rest of the request using a digital signature.",
      "required": false,
      "type": "string",
      "format": "string",
      "x-tmo-sensitive": "private",
      "x-example": "aodsidj9038j203jd203dj230djaSFAfa3",
      "pattern": "^[\\S]+$"
    },
    "x-auth-originator": {
      "name": "x-auth-originator",
      "in": "header",
      "description": "+ ID Token is valid across domains/hops and the received token needs to be propagated across.",
      "required": false,
      "type": "string",
      "format": "string",
      "x-tmo-sensitive": "private",
      "x-example": "Bearer aasFAFq3fwsdgsw4GTgw442.sdjbfsdjksg2o34t. dsfbhifh9h2wf92f",
      "pattern": "^[\\S]+$"
    }
  },
  "definitions": {
    "StaticContentResponse": {
      "type": "object",
      "description": "Return static content response",
      "properties": {
        "documentSet": {
          "type": "object",
          "description": "Return documentSet",
          "properties": {
            "documents": {
              "type": "object",
              "description": "Return documents",
              "properties": {
                "documentType": {
                  "type": "string",
                  "description": "Return documentType"
                },
                "documentSubType": {
                  "type": "string",
                  "description": "Return documentSubType"
                },
                "attachments": {
                  "type": "object",
                  "description": "Return attachments",
                  "properties": {
                    "typeCode": {
                      "type": "string",
                      "description": "Return typeCode"
                    },
                    "staticData": {
                      "type": "string",
                      "description": "Return staticData"
                    }
                  }
                }
              }
            }
          }
        }
      }
    },
    "EasyPayAgreementResponse": {
      "type": "object",
      "description": "Return easy pay agreement response",
      "properties": {
        "documentType": {
          "type": "string",
          "description": "Provide document type. For example:- BAN_AUTOPAY_ENROLL"
        },
        "documentSubType": {
          "type": "string",
          "description": "Return the document sub type."
        },
        "acceptDocumentId": {
          "type": "string",
          "description": "Provide the accept document Id"
        },
        "attachments": {
          "type": "object",
          "description": "attachments",
          "properties": {
            "typeCode": {
              "type": "string",
              "description": "Return type code"
            },
            "embeddedData": {
              "type": "object",
              "description": "Return embeddedData",
              "properties": {
                "binaryContent": {
                  "type": "string",
                  "description": "Return the binary Content"
                }
              }
            }
          }
        }
      }
    },
    "EasyPayAgreementRequest": {
      "type": "object",
      "description": "Provide easy pay agreement request details",
      "properties": {
        "customerDetails": {
          "type": "object",
          "description": "Provide customer details",
          "properties": {
            "fullName": {
              "type": "string",
              "description": "Provide full name",
              "pattern": "ALLEN  JHON",
              "x-example": "ALLEN JHON"
            },
            "firstName": {
              "type": "string",
              "description": "Provide first name",
              "pattern": "ALLEN",
              "x-example": "ALLEN"
            },
            "lastName": {
              "type": "string",
              "description": "provide last name",
              "pattern": "JHON",
              "x-example": "JHON"
            },
            "contactInformation": {
              "type": "array",
              "description": "Provide contact information",
              "items": {
                "type": "object",
                "description": "items",
                "properties": {
                  "phoneNumber": {
                    "type": "string",
                    "description": "Provide Phone number."
                  }
                }
              }
            }
          }
        },
        "transactionType": {
          "type": "string",
          "description": "Provide the transaction type.",
          "pattern": "string",
          "x-example": "string"
        },
        "transactionId": {
          "type": "string",
          "description": "Provide transaction Id",
          "pattern": "string",
          "x-example": "string"
        },
        "ban": {
          "type": "string",
          "description": "Provide billing account number. (Unique)",
          "pattern": "984512345",
          "x-example": "984512345"
        },
        "tagInfo": {
          "type": "object",
          "description": "Provide tag info",
          "properties": {
            "firstName": {
              "type": "string",
              "description": "Provide first name"
            },
            "lastName": {
              "type": "string",
              "description": "Provide last name"
            },
            "contractBan": {
              "type": "string",
              "description": "Provide contract BAN"
            },
            "dateTime": {
              "type": "string",
              "description": "Provide the datetime"
            }
          }
        },
        "documentReturnType": {
          "type": "string",
          "description": "Provide the document type. It may be HTML/PDF format",
          "pattern": "HTML",
          "x-example": "HTML"
        },
        "templateLanguage": {
          "type": "string",
          "description": "Provide the template language",
          "pattern": "string",
          "x-example": "string"
        }
      }
    },
    "ContentResponse": {
      "type": "object",
      "description": "Return binary content/url based on input documentReturnType",
      "properties": {
        "attachments": {
          "type": "object",
          "description": "Return the binary content/Url",
          "properties": {
            "embeddedData": {
              "type": "object",
              "description": "Return the embedded data.",
              "properties": {
                "binaryContent": {
                  "type": "string",
                  "description": "Return the binary content"
                }
              }
            },
            "url": {
              "type": "string",
              "description": "Return the Url"
            }
          }
        }
      }
    },
    "DocumentResponse": {
      "type": "object",
      "description": "Return the response with docId and docType",
      "properties": {
        "legalDocuments": {
          "type": "array",
          "description": "Return the legal documents with docId and docType",
          "items": {
            "type": "object",
            "properties": {
              "docId": {
                "type": "string",
                "description": "Return the document Id"
              },
              "docType": {
                "type": "string",
                "description": "Return the document type"
              }
            }
          }
        }
      }
    },
    "AdditionalTermResponse": {
      "type": "object",
      "description": "Return the response for additional terms.",
      "properties": {
        "legalContent": {
          "type": "array",
          "description": "Return the content.",
          "items": {
            "type": "object",
            "properties": {
              "fragmentType": {
                "type": "string",
                "description": "+ Return the fragment type.\n+ It can be DYNAMIC_FINANCE_CANCELATION_TERM, FINANCE_PAYMENT_PERIOD, DYNAMINC_FINANCE_CANCELATION_FRP etc."
              },
              "templateLanguage": {
                "type": "string",
                "description": "+ Return template language. (For example:en-US)"
              },
              "typeCode": {
                "type": "string",
                "description": "+ Return typecode. (For example:TEXT )"
              },
              "encodeType": {
                "type": "string",
                "description": "+ Return the encode type. (For example:BASE64)"
              },
              "binaryContent": {
                "type": "string",
                "description": "+ Return the  binary content."
              }
            }
          }
        }
      }
    },
    "PatchConsentRequest": {
      "type": "object",
      "description": "Provide Json body request",
      "properties": {
        "transactionId": {
          "type": "string",
          "description": "Provide the transaction Id."
        },
        "transactionType": {
          "type": "string",
          "description": "Provide transaction type. For example:-\n +   a). SIM_SWAP\n +   b). LINE_SOC_CHANGE\n +   c). CHANGE_MOBILE_NUMBER\n +   d). SUSPEND_REQUEST\n +   e). RESTORE_REQUEST\n +   f). TERMS_CONDITIONS\n +   g). PAPERLESS_BILLING_ENROLL\n +   h). BAN_AUTOPAY_ENROLL\n +   i). RATE_PLAN_CHANGE\n +   j). CHANGEDEVICE_JUMP\n +   k). CHANGEDEVICE"
        },
        "documentDetails": {
          "type": "array",
          "description": "Provide the required document details like Id, type and timestamp",
          "items": {
            "type": "object",
            "properties": {
              "documentId": {
                "type": "string",
                "description": "Provide the identifier for the document."
              },
              "documentType": {
                "type": "string",
                "description": "Return the type of the document. (For example:BUSINESS_ADVISEMENT, SERVICE_AGREEMENT,TERM_CONDITIONS)"
              },
              "acceptedTimeStamp": {
                "type": "string",
                "description": "Provide accepted time stamp."
              }
            }
          }
        }
      }
    },
    "PatchConsentResponse": {
      "type": "object",
      "description": "Return the term condition response",
      "properties": {
        "postedDocumentDetails": {
          "type": "array",
          "description": "Return the document details",
          "items": {
            "type": "object",
            "properties": {
              "documentId": {
                "type": "string",
                "description": "Return the identifier for the document."
              },
              "documentType": {
                "type": "string",
                "description": "Return the document type. (For example:BUSINESS_ADVISEMENT, SERVICE_AGREEMENT,AUTOPAY_AGREEMENT)"
              },
              "status": {
                "type": "string",
                "description": "Return the status. Status can be 'SUCCESS' or 'FAILURE'"
              },
              "ingestDocumentId": {
                "type": "string",
                "description": "Return the ingest document identifier."
              }
            }
          }
        },
        "status": {
          "type": "string",
          "description": "Return the status. Status can be 'SUCCESS', 'FAILURE', 'WARN'"
        },
        "message": {
          "type": "string",
          "description": "Return the message."
        }
      }
    },
    "TermConditionResponse": {
      "type": "object",
      "description": "Return term condition response",
      "properties": {
        "documentId": {
          "type": "string",
          "description": "Return the identifier for the document"
        },
        "documentTimestamp": {
          "type": "string",
          "description": "Return documentTimestamp"
        },
        "documentType": {
          "type": "string",
          "description": "Return the type of the document. (For example:BUSINESS_ADVISEMENT, SERVICE_AGREEMENT,TERM_CONDITIONS)"
        },
        "documentSubType": {
          "type": "string",
          "description": "Return the sub type of the document. Returns the transcation type."
        },
        "attachments": {
          "type": "object",
          "description": "attachments",
          "properties": {
            "typeCode": {
              "type": "string",
              "description": "Return type code"
            },
            "embeddedData": {
              "type": "object",
              "description": "Return embeddedData",
              "properties": {
                "binaryContent": {
                  "type": "string",
                  "description": "Return binaryContent"
                }
              }
            }
          }
        }
      }
    },
    "TermConditionRequest": {
      "type": "object",
      "description": "Provide request deatils for term condition",
      "properties": {
        "ban": {
          "type": "string",
          "description": "Provide Billing Account Number.(Unique number)"
        },
        "transactionId": {
          "type": "string",
          "description": "Provide the unique identifier for the transaction."
        },
        "customerDetails": {
          "type": "object",
          "description": "Provide the required details for the cuatomer like name contact info etc",
          "properties": {
            "fullName": {
              "type": "string",
              "description": "Provide the customer full name"
            },
            "templateLanguage": {
              "type": "string",
              "description": "Provide the required language of the template"
            },
            "contactInformation": {
              "type": "array",
              "description": "Provide contactInformation",
              "items": {
                "type": "object",
                "description": "items",
                "properties": {
                  "phoneNumber": {
                    "type": "string",
                    "description": "Provide the phone number details"
                  },
                  "email": {
                    "type": "string",
                    "description": "Provide the email"
                  }
                }
              }
            }
          }
        },
        "documentReturnType": {
          "type": "string",
          "description": "Provide the document type. It may be HTML/PDF format"
        }
      }
    },
    "ServiceAgreementRequest": {
      "type": "object",
      "description": "Provide service agreement request",
      "required": [
        "ban",
        "documentReturnType",
        "transactionType"
      ],
      "properties": {
        "ban": {
          "type": "string",
          "description": "This field contains the Billing Account Number.(Unique number). The value must be the 9 digit billing account number (BAN) for the line (phone number) you wish to activate.  This is a 9 digit numeric value.",
          "example": "985612345",
          "pattern": "985612345"
        },
        "documentReturnType": {
          "type": "string",
          "description": "This field contains the document type. It may be HTML/PDF format. This parameter must contain the value PDF or HTML  If you use PDF, the response body will contain the a 64bit encrypted Service Agreement PDF.  If you use HTML, the response body will contain the a 64bit encrypted Service Agreement HTML page.",
          "example": "HTML or PDF",
          "pattern": "HTML"
        },
        "transactionId": {
          "type": "string",
          "description": "Not Used for Partner. This field contains the transaction Id. The sample value is '12345678'",
          "example": "12345678'"
        },
        "transactionType": {
          "type": "string",
          "description": "Provide transaction type. This parameter must contain the value `NEW_LINE_ACTIVATION` ,(only for partner)for the SIM on Hand Activation flow. For example:-\n +   a). SIM_SWAP\n +  b). LINE_SOC_CHANGE\n +  c). CHANGE_MOBILE_NUMBER\n +  d). SUSPEND_REQUEST\n +  e). RESTORE_REQUEST\n +  f). TERMS_CONDITIONS\n +  g). PAPERLESS_BILLING_ENROLL\n +  h). BAN_AUTOPAY_ENROLL\n +  i). ADD_A_LINE\n +  j). UPGRADE\n +  k). NEW_LINE_ACTIVATION\n +  l). RATE_PLAN_CHANGE\n +  m). CHANGEDEVICE_JUMP\n +  n). CHANGEDEVICE",
          "example": "NEW_LINE_ACTIVATION",
          "pattern": "NEW_LINE_ACTIVATION"
        },
        "customerDetails": {
          "type": "object",
          "description": "Provide customer details",
          "required": [
            "fullName"
          ],
          "properties": {
            "fullName": {
              "type": "string",
              "description": "Provide full name. The value in this parameter is added to the Service Agreement document generated.  If a value is not included, there will be no information on the agreement indicating who\ufffds line will be activated.",
              "example": "Allen Jhon",
              "pattern": "Allen Jhon"
            },
            "contactInformation": {
              "type": "array",
              "description": "Not Used for Partner. Provide contact information",
              "items": {
                "type": "object",
                "description": "items",
                "properties": {
                  "phoneNumber": {
                    "type": "string",
                    "description": "Not Used for Partner. This field contains the Phone number.The value in this parameter is added to the Service Agreement document generated.  It is recommended that you include the phone number of the line being activated.  If a value is not included, there will be no information on the agreement indicating what line is being activated.",
                    "example": "4042000899"
                  },
                  "email": {
                    "type": "string",
                    "description": "Not Used for Partner. This field contains the email Id. The sample value is 'abc@xyz.com'",
                    "example": "abc@xyz.com"
                  }
                }
              }
            }
          }
        },
        "serviceAgreementDetails": {
          "type": "array",
          "description": "Provide the serviceAgreementDetails",
          "items": {
            "type": "object",
            "description": "Provide array of items for service agreement details",
            "properties": {
              "msisdn": {
                "type": "string",
                "description": "Not Used for Partner. This field contains the mobile number. It is a 10 digit value. The sample value is '4042000899'",
                "example": "4042000899"
              },
              "sim": {
                "type": "string",
                "description": "Not Used for Partner. This field contains the sim number. It is a 19 digit number. The sample value is '8901260143789686189'",
                "example": "8901260143789686189"
              },
              "imei": {
                "type": "string",
                "description": "Not Used for Partner. This field contains the international mobility equipment identity number. The sample value is '35944402131910'",
                "example": "35944402131910"
              },
              "serviceDetails": {
                "type": "array",
                "description": "Provide the array of service details",
                "items": {
                  "type": "object",
                  "description": "Provide the list of service details",
                  "properties": {
                    "serviceName": {
                      "type": "string",
                      "description": "+ Not Used for Partner. Provide name of the service requested.Use \ufffditems:partNumber\ufffd (Service Code) selected from the Select Service API. *Note:This parameter may be specified as an array which allows you to indicate none, one or many services be added to the line that will be activated.  All services included will be shown on the Service Agreement generated by this API.",
                      "example": "ILDBARSB"
                    },
                    "changeEffectiveDate": {
                      "type": "string",
                      "description": "Not Used for Partner. This field contains the changeEffectiveDate. The sample value is '2019-06-19'",
                      "example": "2019-06-19"
                    },
                    "mrc": {
                      "type": "string",
                      "description": "Not Used for Partner. This field contains the mrc.( Monthly recurring charge)",
                      "example": "0.0"
                    },
                    "serviceChargeType": {
                      "type": "string",
                      "description": "Not Used for Partner. This field contains the serviceChargeType. The sample value is '0'",
                      "example": "0"
                    }
                  }
                }
              },
              "ratePlanDetails": {
                "type": "array",
                "description": "Provide the ratePlanDetails",
                "items": {
                  "type": "object",
                  "description": "Provide the array of ratePlanDetails",
                  "required": [
                    "planName"
                  ],
                  "properties": {
                    "planName": {
                      "type": "string",
                      "description": "This field contains the planName. Use `$.plans[].name` (Rate Plan name) selected from the Select Rate Plan API. The sample value is '2GB Enterprise Mobile Broadband (No Overage)'",
                      "example": "2GB Enterprise Mobile Broadband (No Overage)",
                      "pattern": "2GB Enterprise Mobile Broadband (No Overage)"
                    },
                    "planStatus": {
                      "type": "string",
                      "description": "Not Used for Partner. This field contains the planStatus. This parameter must contain the value \"Added/Removed\" for the SIM on Hand Activation flow.",
                      "example": "Added/Removed"
                    },
                    "changeEffectiveDate": {
                      "type": "string",
                      "description": "Not Used for Partner. This field contains the changeEffectiveDate. The sample value is '2019-06-19'",
                      "example": "2019-06-19"
                    },
                    "mrc": {
                      "type": "string",
                      "description": "Not Used for Partner. This field contains the mrc.( Monthly recurring charge)",
                      "example": "0"
                    },
                    "activationFee": {
                      "type": "string",
                      "description": "Not Used for Partner. This field contains the activationFee. The sample value is '0'",
                      "example": "0"
                    },
                    "depositAmount": {
                      "type": "string",
                      "description": "Not Used for Partner. This field contains the depositAmount. The sample value is '0'",
                      "example": "0"
                    },
                    "amountDue": {
                      "type": "string",
                      "description": "Not Used for Partner.This field contains the amount due. The sample value is '0'",
                      "example": "0"
                    }
                  }
                }
              }
            }
          }
        },
        "serviceAgreementChargeDetails": {
          "type": "object",
          "description": "Provide service Agreement Charge Details",
          "properties": {
            "regulatoryProgramFeeAmount": {
              "type": "string",
              "description": "Not Used for Partner. This field contains regulatoryProgramFeeAmount. The sample value is '0'",
              "example": "0"
            },
            "totalActivationFee": {
              "type": "string",
              "description": "Not Used for Partner. This field contains totalActivationFee. The sample value is '0'",
              "example": "0"
            },
            "previousTotalMonthlyCharges": {
              "type": "string",
              "description": "Not Used for Partner. This field contains previousTotalMonthlyCharges. The sample value is '0'",
              "example": "0"
            },
            "firstBillTotalMonthlyCharges": {
              "type": "string",
              "description": "Not Used for Partner. This field contains firstBillTotalMonthlyCharges. The sample value is '0'",
              "example": "0"
            },
            "regularTotalMonthlyCharges": {
              "type": "string",
              "description": "Not Used for Partner. This field contains regularTotalMonthlyCharges. It must be a numerical value. The sample value is '130'",
              "example": 130
            },
            "totalMonthlyChargesDiff": {
              "type": "string",
              "description": "Not Used for Partner. This field contains totalMonthlyChargesDiff. The sample value is '0'",
              "example": "0"
            },
            "totalAmountDue": {
              "type": "string",
              "description": "Not Used for Partner. This field contains totalAmountDue. The totalAmountDue is exlcusive of tax amount. The sample value is '0'",
              "example": "0"
            },
            "taxTreatment": {
              "type": "string",
              "description": "Not Used for Partner. This field contains tax treatment. For example:\"TI\"",
              "example": "TI"
            },
            "digitsIndicator": {
              "type": "boolean",
              "description": "Not Used for Partner. This field contains digitsIndicator.This Boolean parameter must contain the value \"false\" for the SIM on Hand Activation flow.",
              "example": false
            }
          }
        }
      }
    },
    "ServiceAgreementResponse": {
      "type": "object",
      "description": "An encrypted PDF or HTML Service Agreement Document with customer name, activation phone number, rate pan, service(s) information and legal service agreement language is generated along with a unique document identifier.",
      "properties": {
        "documentSet": {
          "type": "object",
          "description": "Returns the document set root field.",
          "properties": {
            "documents": {
              "type": "object",
              "description": "Return the documents",
              "properties": {
                "documentType": {
                  "type": "string",
                  "description": "Return the type of the document. (For example:BUSINESS_ADVISEMENT, SERVICE_AGREEMENT,TERM_CONDITIONS)",
                  "example": "SERVICE_AGREEMENT"
                },
                "documentSubType": {
                  "type": "string",
                  "description": "Return the sub type of the document.",
                  "example": "ACTIVATION_NEW_ACCOUNT_SERVICE_AGREEMENT"
                },
                "attachments": {
                  "type": "object",
                  "description": "attachments",
                  "properties": {
                    "typeCode": {
                      "type": "string",
                      "description": "Return type code",
                      "example": "HTML"
                    },
                    "embeddedData": {
                      "type": "object",
                      "description": "Return embeddedData",
                      "properties": {
                        "binaryContent": {
                          "type": "string",
                          "description": "Return binaryContent. The encrypted PDF or HTML page in a binary format.  The value can be copied out to a 64bit decoder to see the PDF or HTML unencrypted.",
                          "example": "ESDEXCVBNMJHFRTHHJMJHFFDS"
                        }
                      }
                    }
                  }
                }
              }
            }
          }
        },
        "acceptDocumentId": {
          "type": "string",
          "description": "Return identifier for the document. This is a unique number that identifies the service agreement generated by this request.This value is used as an input in the SIM on Hand Activation API.  Document IDs may only be used once.",
          "example": "430336"
        },
        "acceptDocumentTimestamp": {
          "type": "string",
          "description": "Return documentTimestamp.This is time and date stamp that identifies when the service agreement was generated by this request.  This value is used as an input in the SIM on Hand Activation API.  This parameter has a standard time-date-stamp format.An example time-date-stamp:2019-06-05T18:07:57.472+0000.",
          "example": "2019-06-05T18:07:57.472+0000."
        }
      }
    },
    "BusinessAdvisementResponse": {
      "type": "object",
      "description": "An encrypted PDF or HTML business advisement Agreement Document with customer name, phone number,msisdn, new msisdn information for mobile number port in and legal service agreement language is generated along with a unique document identifier.",
      "properties": {
        "documentSet": {
          "type": "object",
          "description": "Returns the document set root field.",
          "properties": {
            "documents": {
              "type": "object",
              "description": "Return the documents",
              "properties": {
                "documentType": {
                  "type": "string",
                  "description": "Return the type of the document. (For example:BUSINESS_ADVISEMENT, SERVICE_AGREEMENT,TERM_CONDITIONS)",
                  "example": "BUSINESS_ADVISEMENT"
                },
                "documentSubType": {
                  "type": "string",
                  "description": "Return the sub type of the document.",
                  "example": "CHANGE_MOBILE_NUMBER"
                },
                "attachments": {
                  "type": "object",
                  "description": "attachments",
                  "properties": {
                    "typeCode": {
                      "type": "string",
                      "description": "Return type code",
                      "example": "HTML"
                    },
                    "embeddedData": {
                      "type": "object",
                      "description": "Return embeddedData",
                      "properties": {
                        "binaryContent": {
                          "type": "string",
                          "description": "Return binaryContent. The encrypted PDF or HTML page in a binary format.  The value can be copied out to a 64bit decoder to see the PDF or HTML unencrypted.",
                          "example": "ESDEXCVBNMJHFRTHHJMJHFFDS"
                        }
                      }
                    }
                  }
                }
              }
            }
          }
        },
        "acceptDocumentId": {
          "type": "string",
          "description": "Return identifier for the document. This is a unique number that identifies the business advisement agreement generated .This value is used as an input in the process port in  API.  Document IDs may only be used once.",
          "example": "430336"
        },
        "acceptDocumentTimestamp": {
          "type": "string",
          "description": "Return documentTimestamp.This is time and date stamp that identifies when the business advisement agreement was generated . This value is used as an input in the process port in  API.  This parameter has a standard time-date-stamp format.An example time-date-stamp:2019-06-05T18:07:57.472+0000.",
          "example": "2019-06-05T18:07:57.472+0000."
        }
      }
    },
    "BusinessAdvisementRequest": {
      "type": "object",
      "description": "Business advisement request",
      "required": [
        "ban",
        "documentReturnType",
        "transactionType"
      ],
      "properties": {
        "ban": {
          "type": "string",
          "description": "T-Mobile financial account number. Unique 9 digit billing account number",
          "example": "984512345",
          "pattern": "984512345",
          "x-tmo-sensitive": "protected"
        },
        "transactionId": {
          "type": "string",
          "description": "Transaction identifier. This field is optional. Not required for partners",
          "example": ""
        },
        "documentReturnType": {
          "type": "string",
          "description": "Provide the document type. It may be HTML/PDF format",
          "example": "HTML",
          "pattern": "HTML"
        },
        "transactionType": {
          "type": "string",
          "description": "Provide transaction type.Fields required for transaction are mandatory.\n  For example:-\n +   a). SIM_SWAP\n +  b). LINE_SOC_CHANGE\n +  c). CHANGE_MOBILE_NUMBER\n +  d). SUSPEND_REQUEST\n +  e). RESTORE_REQUEST\n +  f). TERMS_CONDITIONS\n +  g). PAPERLESS_BILLING_ENROLL\n +  h). BAN_AUTOPAY_ENROLL\n +  i). ADD_A_LINE\n +  j). UPGRADE\n +  k). NEW_LINE_ACTIVATION\n +  l). RATE_PLAN_CHANGE\n +  m). CHANGEDEVICE_JUMP\n +  n). CHANGEDEVICE",
          "example": "CHANGE_MOBILE_NUMBER",
          "pattern": "CHANGE_MOBILE_NUMBER"
        },
        "customerDetails": {
          "type": "object",
          "description": "customer details node with name and contact information",
          "required": [
            "fullName"
          ],
          "properties": {
            "fullName": {
              "type": "string",
              "description": "The value in this parameter is added to the Agreement document generated. If a value is not included, there will be no information on the agreement indicating whos line will be port in.",
              "example": "Allen Jhon",
              "pattern": "Allen Jhon"
            },
            "contactInformation": {
              "type": "array",
              "description": "Contact information node with phone number and email",
              "items": {
                "type": "object",
                "description": "items",
                "properties": {
                  "phoneNumber": {
                    "type": "string",
                    "description": "Not Used for Partner. This field contains the Phone number.The value in this parameter is added to the Agreement document generated. It is recommended that you include the phone number of the line being port in. If a value is not included, there will be no information on the agreement indicating what line is being port in",
                    "example": "(404)-200-7549",
                    "pattern": "(404)-200-7549"
                  },
                  "email": {
                    "type": "string",
                    "description": "Not Used for Partner. This field contains the email Id. The sample value is 'abc@xyz.com'",
                    "example": "abc@xyz.com",
                    "pattern": "abc@xyz.com"
                  }
                }
              }
            }
          }
        },
        "msisdnDetails": {
          "type": "object",
          "description": "MSISDN details required only for mobile number change/port in",
          "properties": {
            "msisdn": {
              "type": "string",
              "description": "T-Mobile current MSISDN (Mobile number). Mobile number should be a 10 digit valid number",
              "example": "9432123456",
              "pattern": "9432123456"
            },
            "newMsisdn": {
              "type": "string",
              "description": "Other Service Provider [osp] MSISDN (Mobile Number) to be ported-in.",
              "example": "8888899999",
              "pattern": "8888899999"
            }
          }
        },
        "simDetails": {
          "type": "object",
          "description": "SIM details required Only for SIM Swap",
          "properties": {
            "sim": {
              "type": "string",
              "description": "T-Mobile current SIM number. SIM number shoulbe a valid 19 digit number",
              "example": "8888888887777777777",
              "pattern": "8888888887777777777"
            },
            "newSim": {
              "type": "string",
              "description": "The sim number that is required to perform  sim swap",
              "example": "6666666665555555555",
              "pattern": "6666666665555555555"
            }
          }
        },
        "serviceDetails": {
          "type": "object",
          "description": "Service details node required only for change of service",
          "properties": {
            "addedServices": {
              "type": "array",
              "description": "added services",
              "items": {
                "type": "object",
                "description": "items",
                "properties": {
                  "serviceName": {
                    "type": "string",
                    "description": "The name of the service added",
                    "example": "SCAMBLOCK",
                    "pattern": "SCAMBLOCK"
                  },
                  "serviceType": {
                    "type": "string",
                    "description": "Provide service type. \nThe possible values:PHP and FEATURE",
                    "example": "PHP",
                    "pattern": "PHP"
                  }
                }
              }
            },
            "removedServices": {
              "type": "array",
              "description": "removed services",
              "items": {
                "type": "object",
                "description": "items",
                "properties": {
                  "serviceName": {
                    "type": "string",
                    "description": "The name of the service removed",
                    "example": "SCAMBLOCK",
                    "pattern": "SCAMBLOCK"
                  },
                  "serviceType": {
                    "type": "string",
                    "description": "Provide service type. \nThe possible values:PHP and FEATURE",
                    "example": "PHP",
                    "pattern": "PHP"
                  }
                }
              }
            }
          }
        },
        "ratePlanDetails": {
          "type": "object",
          "description": "Rate plan details node required only for plan change",
          "properties": {
            "currentPlanName": {
              "type": "string",
              "description": "Current plan name.",
              "example": "BIZ SC North America TT+D",
              "pattern": "BIZ SC North America TT+D"
            },
            "newPlanName": {
              "type": "string",
              "description": "The new plan name required to perform the change of plan.",
              "example": "BIZ SC North America TT+D",
              "pattern": "BIZ SC North America TT+D"
            }
          }
        }
      }
    },
    "ErrorResponse1": {
      "type": "object",
      "description": "Returns ErrorResponse",
      "properties": {
        "error": {
          "description": "Used to pass error information in a response.",
          "type": "array",
          "items": {
            "$ref": "#/definitions/Error1"
          }
        }
      }
    },
    "Error1": {
      "type": "object",
      "description": "Returns error",
      "properties": {
        "code": {
          "type": "string",
          "description": "Returns the code to identify the error",
          "example": "ATWRK_DCMTSVC_ERR_40042"
        },
        "userMessage": {
          "type": "string",
          "description": "Returns the message to identify the error",
          "example": "Requested documentReturnType not supported"
        }
      }
    },
    "ErrorResponse": {
      "type": "object",
      "description": "error response",
      "properties": {
        "code": {
          "type": "string",
          "description": "Provides the error code",
          "x-example": "ATWRK_ORDSVC_ERR_50205"
        },
        "userMessage": {
          "type": "string",
          "description": "Provides the error message",
          "x-example": "Cannot process request . Re-try required"
        }
      }
    }
  }
}
