{
  "swagger": "2.0",
  "info": {
    "version": "1.0.0",
    "title": "B2B Experience Account Management Service v1",
    "description": "These APIs will be used for Billing Account Management",
    "contact": {
      "name": "Apigee/Documentation Support",
      "email": "TFB_DTD_API_DEVOPS@T-Mobile.com"
    }
  },
  "host": "tmobileqat-qat01.apigee.net",
  "basePath": "/b2b-experience/v1/account-management-service-v1",
  "x-servers": [
    {
      "url": "https://tmobileqat-qat01.apigee.net",
      "description": "server path"
    }
  ],
  "tags": [
    {
      "name": "Account Management Service v1",
      "description": "Account Management Service v1 APIs"
    }
  ],
  "securityDefinitions": {
    "OAuth2": {
      "type": "oauth2",
      "description": "oauth2",
      "flow": "accessCode",
      "authorizationUrl": "https://tmobileqat-qat01.apigee.net/v1/oauth2/accesstoken?grant_type=client_credentials",
      "tokenUrl": "https://tmobileqat-qat01.apigee.net/v1/oauth2/accesstoken?grant_type=client_credentials",
      "scopes": {
        "read": "Grants read access"
      }
    }
  },
  "schemes": [
    "https"
  ],
  "consumes": [
    "application/json"
  ],
  "produces": [
    "application/json"
  ],
  "paths": {
    "/billing-accounts/tentative-ban": {
      "post": {
        "security": [
          {
            "OAuth2": [
              "read"
            ]
          }
        ],
        "description": "\n# Description \n\n  The purpose of this API is to create tentative BAN.",
        "operationId": "createTentativeBan",
        "summary": "B2B Create Tentative Ban",
        "x-api-pattern": "CreateInCollection",
        "tags": [
          "Account Management Service v1"
        ],
        "parameters": [
          {
            "name": "Accept",
            "in": "header",
            "required": false,
            "description": "+   The request header must contain the Accept element. \n\n\n+ Accept header is used by HTTP clients to tell the server what content types they'll accept. \n\n\n+   The default value is *'application/json'*.",
            "type": "string",
            "pattern": "application/json",
            "x-example": "application/json"
          },
          {
            "name": "Content-Type",
            "in": "header",
            "required": true,
            "description": "\n+   The request header must contain the Content-Type element. \n\n\n\n + In HTTP requests, API clients must specify the format in which the\n data is submitted.\n\n\n\n +   The default value is *'application/json'*.",
            "type": "string",
            "pattern": "application/json",
            "x-example": "application/json"
          },
          {
            "name": "Authorization",
            "in": "header",
            "required": true,
            "description": "\n+   The request header must contain a valid access token. \n\n\n+   The access token is environment specific and is generated dynamically. \n\n\n+   It is mandatory to be passed in the request parameter for authentication.",
            "type": "string",
            "pattern": "EGQ94pYxAzk2JRmSoW1GTZifPAJI",
            "x-example": "Bearer EGQ94pYxAzk2JRmSoW1GTZifPAJI"
          },
          {
            "name": "B2b-client",
            "in": "header",
            "required": true,
            "description": "+   The request header must contain B2b Client Id.\n\n+   The sample value is *'TEST'*.",
            "type": "string",
            "pattern": "TEST",
            "x-example": "TEST"
          },
          {
            "name": "B2b-org",
            "in": "header",
            "required": false,
            "description": "+   The request header B2b Org Id.\n\n+   The sample value is 19 chars '0000000000000000TSB'",
            "type": "string",
            "pattern": "7000000000000013000",
            "x-example": "7000000000000013000"
          },
          {
            "$ref": "#/parameters/x-authorization"
          },
          {
            "$ref": "#/parameters/x-auth-originator"
          },
          {
            "name": "application-id",
            "in": "header",
            "required": false,
            "description": "application-id",
            "x-example": "TFB-CREDITCHECK-APP",
            "type": "string",
            "pattern": "^[\\S]*$",
            "minLength": 1,
            "maxLength": 100
          },
          {
            "name": "channel-id",
            "in": "header",
            "required": false,
            "description": "channel-id",
            "x-example": "TFB",
            "type": "string",
            "pattern": "^[\\S]*$",
            "minLength": 1,
            "maxLength": 100
          },
          {
            "name": "operator-id",
            "in": "header",
            "required": true,
            "description": "operator-id",
            "x-example": "12234553",
            "pattern": "12234553",
            "type": "number",
            "minLength": 1,
            "maxLength": 100
          },
          {
            "name": "client-id",
            "in": "header",
            "required": false,
            "description": "client-id",
            "x-example": "TMO",
            "type": "string",
            "pattern": "^[\\S]*$",
            "minLength": 1,
            "maxLength": 100
          },
          {
            "name": "service-partner-id",
            "in": "header",
            "required": false,
            "description": "service-partner-id",
            "x-example": "*",
            "type": "string",
            "pattern": "^[\\S]*$",
            "minLength": 1,
            "maxLength": 100
          },
          {
            "name": "CreateTentativeBanRequest",
            "in": "body",
            "description": "An User Defined Object",
            "required": true,
            "schema": {
              "$ref": "#/definitions/CreateTentativeBanRequest"
            }
          }
        ],
        "responses": {
          "201": {
            "description": "Success",
            "headers": {
              "Date": {
                "type": "string",
                "description": "Tue, 11 Sep 2018 20:42:21 GMT",
                "x-example": "Tue, 11 Sep 2018 20:42:21 GMT"
              },
              "Content-Type": {
                "type": "string",
                "description": "application/json;charset=UTF-8",
                "x-example": "application/json;charset=UTF-8"
              },
              "B2b-requestId": {
                "type": "string",
                "description": "B2b-requestId-84b2fab6-7656-47f9-beea-f0dc02c8a956",
                "x-example": "B2b-requestId-84b2fab6-7656-47f9-beea-f0dc02c8a956"
              },
              "b2b-client": {
                "type": "string",
                "description": "B2b-requestId",
                "x-example": "B2b-requestId"
              },
              "Location": {
                "type": "string",
                "description": "Location",
                "x-example": "Location"
              }
            },
            "schema": {
              "$ref": "#/definitions/CreateTentativeBanResponse"
            },
            "examples": {
              "application/json": {
                "status": "SUCCESS",
                "ban": "123456789"
              }
            }
          },
          "400": {
            "description": "Bad Request",
            "schema": {
              "$ref": "#/definitions/ErrorResponse"
            },
            "examples": {
              "aplication/json": {
                "error": [
                  {
                    "code": "400",
                    "userMessage": "Bad Request"
                  }
                ]
              }
            }
          },
          "401": {
            "description": "Unauthorized",
            "schema": {
              "$ref": "#/definitions/ErrorResponse"
            },
            "examples": {
              "aplication/json": {
                "error": [
                  {
                    "code": "401",
                    "userMessage": "Unauthorized"
                  }
                ]
              }
            }
          },
          "403": {
            "description": "Forbidden",
            "schema": {
              "$ref": "#/definitions/ErrorResponse"
            },
            "examples": {
              "aplication/json": {
                "error": [
                  {
                    "code": "403",
                    "userMessage": "Forbidden"
                  }
                ]
              }
            }
          },
          "404": {
            "description": "Resource not found",
            "schema": {
              "$ref": "#/definitions/ErrorResponse"
            },
            "examples": {
              "aplication/json": {
                "error": [
                  {
                    "code": "404",
                    "userMessage": "Resource not found"
                  }
                ]
              }
            }
          },
          "500": {
            "description": "System Error",
            "schema": {
              "$ref": "#/definitions/ErrorResponse"
            },
            "examples": {
              "aplication/json": {
                "error": [
                  {
                    "code": "500",
                    "userMessage": "System Error"
                  }
                ]
              }
            }
          },
          "501": {
            "description": "Method Not Allowed",
            "schema": {
              "$ref": "#/definitions/ErrorResponse"
            },
            "examples": {
              "aplication/json": {
                "error": [
                  {
                    "code": "501",
                    "userMessage": "Method Not Allowed"
                  }
                ]
              }
            }
          },
          "502": {
            "description": "Gateway timeout",
            "schema": {
              "$ref": "#/definitions/ErrorResponse"
            },
            "examples": {
              "aplication/json": {
                "error": [
                  {
                    "code": "502",
                    "userMessage": "Gateway timeout"
                  }
                ]
              }
            }
          },
          "503": {
            "description": "Service unavailable",
            "schema": {
              "$ref": "#/definitions/ErrorResponse"
            },
            "examples": {
              "aplication/json": {
                "error": [
                  {
                    "code": "503",
                    "userMessage": "Service unavailable"
                  }
                ]
              }
            }
          }
        }
      }
    },
    "/billing-accounts/authorize-user": {
      "post": {
        "security": [
          {
            "OAuth2": [
              "read"
            ]
          }
        ],
        "description": "\n# Description \n\n  The purpose of this API is to Authorize users on BAN.",
        "operationId": "authorizeBanUser",
        "summary": "B2B Authorize Users on Ban",
        "x-api-pattern": "CreateInCollection",
        "tags": [
          "Account Management Service v1"
        ],
        "parameters": [
          {
            "name": "Accept",
            "in": "header",
            "required": false,
            "description": "+   The request header must contain the Accept element. \n\n\n+ Accept header is used by HTTP clients to tell the server what content types they'll accept. \n\n\n+   The default value is *'application/json'*.",
            "type": "string",
            "pattern": "application/json",
            "x-example": "application/json"
          },
          {
            "name": "Content-Type",
            "in": "header",
            "required": true,
            "description": "\n+   The request header must contain the Content-Type element. \n\n\n\n + In HTTP requests, API clients must specify the format in which the\n data is submitted.\n\n\n\n +   The default value is *'application/json'*.",
            "type": "string",
            "pattern": "application/json",
            "x-example": "application/json"
          },
          {
            "name": "Authorization",
            "in": "header",
            "required": true,
            "description": "\n+   The request header must contain a valid access token. \n\n\n+   The access token is environment specific and is generated dynamically. \n\n\n+   It is mandatory to be passed in the request parameter for authentication.",
            "type": "string",
            "pattern": "EGQ94pYxAzk2JRmSoW1GTZifPAJI",
            "x-example": "EGQ94pYxAzk2JRmSoW1GTZifPAJI"
          },
          {
            "name": "B2b-client",
            "in": "header",
            "required": true,
            "description": "+   The request header must contain B2b Client Id.\n\n+   The sample value is *'TEST'*.",
            "type": "string",
            "pattern": "TEST",
            "x-example": "TEST"
          },
          {
            "name": "B2b-org",
            "in": "header",
            "required": false,
            "description": "+   The request header B2b Org Id.\n\n+   The sample value is 19 chars '7000000000000013000'",
            "type": "string",
            "pattern": "7000000000000013000",
            "x-example": "7000000000000013000"
          },
          {
            "name": "partner-id",
            "in": "header",
            "required": false,
            "description": "partner-id",
            "x-example": "ATSVC",
            "type": "string",
            "pattern": "^[\\S]*$",
            "minLength": 1,
            "maxLength": 100
          },
          {
            "name": "application-id",
            "in": "header",
            "required": false,
            "description": "application-id",
            "x-example": "TFB",
            "type": "string",
            "pattern": "^[\\S]*$",
            "minLength": 1,
            "maxLength": 100
          },
          {
            "name": "application-user-id",
            "in": "header",
            "required": false,
            "description": "application-user-id",
            "x-example": "ATUSR",
            "type": "string",
            "pattern": "^[\\S]*$",
            "minLength": 1,
            "maxLength": 100
          },
          {
            "name": "channel-id",
            "in": "header",
            "required": false,
            "description": "channel-id",
            "x-example": "TFB",
            "type": "string",
            "pattern": "^[\\S]*$",
            "minLength": 1,
            "maxLength": 100
          },
          {
            "name": "store-id",
            "in": "header",
            "required": false,
            "description": "store-id",
            "x-example": "5214",
            "type": "number",
            "minLength": 1,
            "maxLength": 100
          },
          {
            "name": "dealer-code",
            "in": "header",
            "required": false,
            "description": "dealer-code",
            "x-example": "5434567",
            "type": "number",
            "minLength": 1,
            "maxLength": 100
          },
          {
            "name": "AuthorizeUserRequest",
            "in": "body",
            "description": "List of Authorize user and max 2 allowed",
            "required": true,
            "schema": {
              "$ref": "#/definitions/AuthorizeUserRequest"
            }
          }
        ],
        "responses": {
          "201": {
            "description": "Success",
            "headers": {
              "Date": {
                "type": "string",
                "description": "Tue, 11 Sep 2018 20:42:21 GMT",
                "x-example": "Tue, 11 Sep 2018 20:42:21 GMT"
              },
              "Content-Type": {
                "type": "string",
                "description": "application/json;charset=UTF-8",
                "x-example": "application/json;charset=UTF-8"
              },
              "B2b-requestId": {
                "type": "string",
                "description": "B2b-requestId-84b2fab6-7656-47f9-beea-f0dc02c8a956",
                "x-example": "B2b-requestId-84b2fab6-7656-47f9-beea-f0dc02c8a956"
              },
              "b2b-client": {
                "type": "string",
                "description": "B2b-requestId",
                "x-example": "B2b-requestId"
              },
              "Location": {
                "type": "string",
                "description": "Location",
                "x-example": "Location"
              }
            },
            "schema": {
              "$ref": "#/definitions/AuthorizeUserResponse"
            },
            "examples": {
              "ban": "123456789",
              "authorizeUsers": [
                {
                  "status": "SUCCESS"
                },
                {
                  "firstName": "string"
                },
                {
                  "lastName": "string"
                }
              ]
            }
          },
          "400": {
            "description": "Bad Request",
            "schema": {
              "$ref": "#/definitions/ErrorResponse"
            },
            "examples": {
              "aplication/json": {
                "error": [
                  {
                    "code": "400",
                    "userMessage": "Bad Request"
                  }
                ]
              }
            }
          },
          "401": {
            "description": "Unauthorized",
            "schema": {
              "$ref": "#/definitions/ErrorResponse"
            },
            "examples": {
              "aplication/json": {
                "error": [
                  {
                    "code": "401",
                    "userMessage": "Unauthorized"
                  }
                ]
              }
            }
          },
          "403": {
            "description": "Forbidden",
            "schema": {
              "$ref": "#/definitions/ErrorResponse"
            },
            "examples": {
              "aplication/json": {
                "error": [
                  {
                    "code": "403",
                    "userMessage": "Forbidden"
                  }
                ]
              }
            }
          },
          "404": {
            "description": "Resource not found",
            "schema": {
              "$ref": "#/definitions/ErrorResponse"
            },
            "examples": {
              "aplication/json": {
                "error": [
                  {
                    "code": "404",
                    "userMessage": "Resource not found"
                  }
                ]
              }
            }
          },
          "500": {
            "description": "System Error",
            "schema": {
              "$ref": "#/definitions/ErrorResponse"
            },
            "examples": {
              "aplication/json": {
                "error": [
                  {
                    "code": "500",
                    "userMessage": "System Error"
                  }
                ]
              }
            }
          },
          "501": {
            "description": "Method Not Allowed",
            "schema": {
              "$ref": "#/definitions/ErrorResponse"
            },
            "examples": {
              "aplication/json": {
                "error": [
                  {
                    "code": "501",
                    "userMessage": "Method Not Allowed"
                  }
                ]
              }
            }
          },
          "502": {
            "description": "Gateway timeout",
            "schema": {
              "$ref": "#/definitions/ErrorResponse"
            },
            "examples": {
              "aplication/json": {
                "error": [
                  {
                    "code": "502",
                    "userMessage": "Gateway timeout"
                  }
                ]
              }
            }
          },
          "503": {
            "description": "Service unavailable",
            "schema": {
              "$ref": "#/definitions/ErrorResponse"
            },
            "examples": {
              "aplication/json": {
                "error": [
                  {
                    "code": "503",
                    "userMessage": "Service unavailable"
                  }
                ]
              }
            }
          }
        }
      }
    }
  },
  "parameters": {
    "x-authorization": {
      "name": "x-authorization",
      "in": "header",
      "description": "+ Validity of PoP Token is one Hop and one Message, a Proof of Possession Token (PoP Token) to bind the access token to the rest of the request using a digital signature.",
      "required": true,
      "type": "string",
      "format": "string",
      "x-tmo-sensitive": "private",
      "x-example": "aodsidj9038j203jd203dj230djaSFAfa3",
      "pattern": "^[\\S]+$"
    },
    "x-auth-originator": {
      "name": "x-auth-originator",
      "in": "header",
      "description": "+ ID Token is valid across domains/hops and the received token needs to be propagated across.",
      "required": false,
      "type": "string",
      "format": "string",
      "x-tmo-sensitive": "private",
      "x-example": "Bearer aasFAFq3fwsdgsw4GTgw442.sdjbfsdjksg2o34t. dsfbhifh9h2wf92f",
      "pattern": "^[\\S]+$"
    }
  },
  "definitions": {
    "CreateTentativeBanRequest": {
      "type": "object",
      "description": "Request object for create tentative BAN",
      "required": [
        "createTentativeBAN"
      ],
      "properties": {
        "createTentativeBAN": {
          "$ref": "#/definitions/CreditTentativeBAN"
        }
      }
    },
    "CreditTentativeBAN": {
      "description": "Tentative BAN information",
      "type": "object",
      "required": [
        "account",
        "billing"
      ],
      "properties": {
        "account": {
          "$ref": "#/definitions/Account"
        },
        "billing": {
          "$ref": "#/definitions/Billing"
        }
      }
    },
    "Account": {
      "description": "Account information",
      "type": "object",
      "required": [
        "accountCode",
        "accountReason",
        "accountType",
        "accountSubtype"
      ],
      "properties": {
        "accountCode": {
          "description": "For new BAN creation, set to TEN",
          "type": "string",
          "example": "TEN",
          "pattern": "^[\\S]*$",
          "minLength": 1,
          "maxLength": 50
        },
        "accountReason": {
          "description": "For new BAN, set to NB",
          "type": "string",
          "example": "NB",
          "pattern": "^[\\S]*$",
          "minLength": 1,
          "maxLength": 50
        },
        "accountType": {
          "description": "BAN Account Type",
          "type": "string",
          "example": "B",
          "pattern": "^[\\S]*$",
          "minLength": 1,
          "maxLength": 50
        },
        "accountSubtype": {
          "description": "BAN accountSubtype",
          "type": "string",
          "example": "L",
          "pattern": "^[\\S]*$",
          "minLength": 1,
          "maxLength": 50
        },
        "dealerCode": {
          "description": "Client specific value",
          "type": "string",
          "example": "0000001",
          "pattern": "^[\\S]*$",
          "minLength": 1,
          "maxLength": 50
        },
        "nl": {
          "description": "Samson Number location. Default to GNRL",
          "type": "string",
          "example": "GNRL",
          "pattern": "^[\\S]*$",
          "minLength": 1,
          "maxLength": 50
        },
        "activationDate": {
          "description": "If not current date, Activation Date required by Client. If not sent, Samson logical date is used",
          "type": "string",
          "pattern": "^[\\S]*$",
          "minLength": 1,
          "maxLength": 50
        },
        "ixcCode": {
          "description": "The customer's preferred inter exchange land carrier. Defaults to 278",
          "type": "string",
          "example": "278",
          "pattern": "^[\\S]*$",
          "minLength": 1,
          "maxLength": 50
        },
        "billCycleCode": {
          "description": "Billing Cycle Code for the Account",
          "type": "string",
          "pattern": "^[\\S]*$",
          "minLength": 1,
          "maxLength": 50
        },
        "location": {
          "description": "location",
          "type": "string",
          "pattern": "^[\\S]*$",
          "minLength": 1,
          "maxLength": 50
        },
        "employerName": {
          "description": "employerName",
          "type": "string",
          "example": "L",
          "pattern": "^[\\S]*$",
          "minLength": 1,
          "maxLength": 50
        },
        "accountNumber": {
          "description": "Represents an account that is 9 numeric digits",
          "type": "string",
          "example": "908980798",
          "pattern": "^[\\S]*$",
          "minLength": 9,
          "maxLength": 9
        },
        "customerType": {
          "description": "Represents Customer type. example: SCNC,PREPAID,METRO and WFM",
          "type": "string",
          "example": "PREPAID",
          "pattern": "^[\\S]*$",
          "minLength": 1,
          "maxLength": 50
        },
        "msisdn": {
          "description": "MSISDN",
          "type": "string",
          "example": "1111111111",
          "pattern": "^[\\S]*$",
          "minLength": 10,
          "maxLength": 10
        },
        "eligibility": {
          "description": "Represents if the subscriber is currently eligible",
          "type": "boolean",
          "pattern": "^[\\S]*$",
          "minLength": 1,
          "maxLength": 50
        },
        "eligibilityDate": {
          "description": "The date when the subscriber is graduated credit eligible",
          "type": "string",
          "format": "date",
          "pattern": "^[\\S]*$",
          "minLength": 1,
          "maxLength": 50
        },
        "numberOfPayments": {
          "description": "Number of payments that subscriber made consecutively . Only applicable for prepaid",
          "type": "string",
          "example": "4",
          "pattern": "^[\\S]*$",
          "minLength": 1,
          "maxLength": 50
        }
      }
    },
    "Billing": {
      "description": "An User Defined Object",
      "type": "object",
      "required": [
        "address"
      ],
      "properties": {
        "address": {
          "$ref": "#/definitions/AddressRequest"
        },
        "creditInfo": {
          "$ref": "#/definitions/CreditInfo"
        },
        "businessInfo": {
          "$ref": "#/definitions/BusinessInfo"
        }
      }
    },
    "AddressRequest": {
      "description": "Billing address details",
      "type": "object",
      "required": [
        "state",
        "zip"
      ],
      "properties": {
        "primaryLine": {
          "description": "Address Line1",
          "type": "string",
          "example": "1,Ravinia dr",
          "pattern": "^[\\S]*$",
          "minLength": 1,
          "maxLength": 100
        },
        "secondaryLine": {
          "description": "Address Line2",
          "type": "string",
          "pattern": "^[\\S]*$",
          "minLength": 1,
          "maxLength": 100
        },
        "city": {
          "description": "City Name",
          "type": "string",
          "example": "B",
          "pattern": "^[\\S]*$",
          "minLength": 1,
          "maxLength": 50
        },
        "state": {
          "description": "State Name",
          "type": "string",
          "example": "L",
          "pattern": "^[\\S]*$",
          "minLength": 1,
          "maxLength": 50
        },
        "zip": {
          "description": "Zip code",
          "type": "string",
          "example": "0000001",
          "pattern": "^[\\S]*$",
          "minLength": 1,
          "maxLength": 50
        },
        "zip4": {
          "description": "Zip 4 code",
          "type": "string",
          "pattern": "^[\\S]*$",
          "minLength": 1,
          "maxLength": 50
        },
        "addressType": {
          "description": "Address type",
          "type": "string",
          "pattern": "^[\\S]*$",
          "minLength": 1,
          "maxLength": 50
        }
      }
    },
    "CreditInfo": {
      "description": "Customer credit information",
      "type": "object",
      "properties": {
        "nameTitle": {
          "description": "Customer Title",
          "type": "string",
          "pattern": "^[\\S]*$",
          "minLength": 1,
          "maxLength": 100
        },
        "firstName": {
          "description": "First Name",
          "type": "string",
          "example": "test",
          "pattern": "^[\\S]*$",
          "minLength": 1,
          "maxLength": 100
        },
        "lastName": {
          "description": "Last Name",
          "type": "string",
          "example": "test",
          "pattern": "^[\\S]*$",
          "minLength": 1,
          "maxLength": 50
        },
        "middleInitial": {
          "description": "Middle Initial",
          "type": "string",
          "example": "test",
          "pattern": "^[\\S]*$",
          "minLength": 1,
          "maxLength": 50
        },
        "ssn": {
          "description": "Either SSN or PIN should be sent",
          "type": "string",
          "example": "{cipher}SDFSDGWERW",
          "pattern": "^[\\S]*$",
          "minLength": 1,
          "maxLength": 50,
          "format": "encrypted",
          "x-tmo-cipher-format": "string"
        },
        "pin": {
          "description": "Either SSN or PIN should be sent",
          "type": "string",
          "example": "{cipher}SDFSDGWERW",
          "pattern": "^[\\S]*$",
          "minLength": 1,
          "maxLength": 50,
          "format": "encrypted",
          "x-tmo-cipher-format": "string"
        },
        "dateOfBirth": {
          "description": "dateOfBirth",
          "type": "string",
          "example": "{cipher}SDFSDGWERW",
          "pattern": "^[\\S]*$",
          "minLength": 1,
          "maxLength": 50,
          "format": "encrypted",
          "x-tmo-cipher-format": "string"
        },
        "homePhone": {
          "description": "Home Phone Number",
          "type": "string",
          "pattern": "^[\\S]*$",
          "example": "2222222222",
          "minLength": 1,
          "maxLength": 50
        },
        "workPhone": {
          "description": "Work Phone Number",
          "type": "string",
          "pattern": "^[\\S]*$",
          "example": "2222222222",
          "minLength": 1,
          "maxLength": 50
        },
        "idNumber": {
          "description": "Identification card number",
          "type": "string",
          "pattern": "^[\\S]*$",
          "example": "{cipher}SDFSDGWERW",
          "minLength": 1,
          "maxLength": 50,
          "format": "encrypted",
          "x-tmo-cipher-format": "string"
        },
        "idType": {
          "description": "Identification Type - DL,PASS,MILI or OTHR",
          "type": "string",
          "pattern": "^[\\S]*$",
          "example": "DL",
          "minLength": 1,
          "maxLength": 50
        },
        "idState": {
          "description": "State where ID was issues",
          "type": "string",
          "pattern": "^[\\S]*$",
          "minLength": 1,
          "example": "GA",
          "maxLength": 50
        },
        "idExpirationDate": {
          "description": "idExpirationDate",
          "type": "string",
          "pattern": "^[\\S]*$",
          "minLength": 1,
          "example": "{cipher}SDFSDGWERW",
          "maxLength": 50,
          "format": "encrypted",
          "x-tmo-cipher-format": "string"
        },
        "employerName": {
          "description": "Name of employer. Defaulted to NA",
          "type": "string",
          "pattern": "^[\\S]*$",
          "minLength": 1,
          "maxLength": 50
        },
        "creditDate": {
          "description": "Date when credit check was done",
          "type": "string",
          "format": "date",
          "pattern": "^[\\S]*$",
          "minLength": 1,
          "example": "2017-07-24",
          "maxLength": 50
        },
        "creditStatus": {
          "description": "Credit Evaluation processing State",
          "type": "string",
          "pattern": "^[\\S]*$",
          "minLength": 1,
          "example": "Progress",
          "maxLength": 50
        },
        "creditClass": {
          "description": "Credit Class of the customer",
          "type": "string",
          "format": "date",
          "example": "H",
          "pattern": "^[\\S]*$",
          "minLength": 1,
          "maxLength": 50
        },
        "approvedNumberOfLines": {
          "description": "Number of lines customer is approved for",
          "type": "string",
          "pattern": "^[\\S]*$",
          "minLength": 1,
          "example": "2",
          "maxLength": 50
        }
      }
    },
    "BusinessInfo": {
      "description": "Customer business information",
      "type": "object",
      "properties": {
        "name": {
          "description": "A unique value that represents the company name example IBM CORPORATION, MICROSOFT CORPORATION",
          "type": "string",
          "pattern": "^[\\S]*$",
          "minLength": 1,
          "maxLength": 100
        },
        "taxId": {
          "description": "The business customers IRS (internal revenue service) tax identification number.",
          "type": "string",
          "example": "{cipher}SDFSDGWERW",
          "pattern": "^[\\S]*$",
          "minLength": 1,
          "maxLength": 100,
          "format": "encrypted",
          "x-tmo-cipher-format": "string"
        },
        "creditClass": {
          "description": "A unique identifier dynamically assigned to a Customer based on his current credit history. Usually this is a single alphabet such 'A', 'B' or a number such as '1', '2'.",
          "type": "string",
          "example": "B",
          "pattern": "^[\\S]*$",
          "minLength": 1,
          "maxLength": 50
        },
        "type": {
          "description": "The business type values are C-Corporation, P-Partnership, S- Sole owner",
          "type": "string",
          "example": "C",
          "pattern": "^[\\S]*$",
          "minLength": 1,
          "maxLength": 50
        },
        "marketCode": {
          "description": "market code for the account. default value is VST",
          "type": "string",
          "example": "VST",
          "pattern": "^[\\S]*$",
          "minLength": 1,
          "maxLength": 50
        },
        "businessNature": {
          "description": "Description of business",
          "type": "string",
          "pattern": "^[\\S]*$",
          "minLength": 1,
          "maxLength": 50
        },
        "personelGuarantorId": {
          "description": "Personel Guarantor id number",
          "type": "string",
          "pattern": "^[\\S]*$",
          "minLength": 1,
          "maxLength": 50
        },
        "noOfYearsInBusiness": {
          "description": "No of years in the busines",
          "type": "string",
          "pattern": "^[\\S]*$",
          "minLength": 1,
          "maxLength": 50
        }
      }
    },
    "CreateTentativeBanResponse": {
      "description": "Create tentative BAN response",
      "type": "object",
      "properties": {
        "status": {
          "description": "Response status",
          "type": "string",
          "example": "SUCCESS",
          "pattern": "^[\\S]*$",
          "minLength": 1,
          "maxLength": 50
        },
        "ban": {
          "description": "New BAN 9 digit number",
          "type": "number",
          "example": "123456789",
          "minLength": 1,
          "maxLength": 50
        }
      }
    },
    "ErrorResponse": {
      "type": "object",
      "description": "error response",
      "properties": {
        "code": {
          "type": "string",
          "description": "Provides the error code"
        },
        "userMessage": {
          "type": "string",
          "description": "Provides the error message"
        }
      }
    },
    "AuthorizeUserRequest": {
      "type": "object",
      "description": "List of Authorize Users",
      "required": [
        "ban",
        "authorizeUsers"
      ],
      "properties": {
        "ban": {
          "description": "BAN number",
          "type": "number",
          "example": "{cipher}SDFSDGWERW",
          "minLength": 1,
          "maxLength": 50,
          "format": "encrypted",
          "x-tmo-cipher-format": "string"
        },
        "authorizeUsers": {
          "type": "array",
          "description": "Provides the Authroize user information",
          "items": {
            "$ref": "#/definitions/AuthorizeUser"
          }
        }
      }
    },
    "AuthorizeUser": {
      "type": "object",
      "description": "Returns an error",
      "properties": {
        "nameTitle": {
          "type": "string",
          "description": "Title for the name like Dr., Sir. etc."
        },
        "additionalTitle": {
          "type": "string",
          "description": "Title for the name like Dr., Sir. etc.."
        },
        "firstName": {
          "type": "string",
          "description": "First name of the person"
        },
        "middleName": {
          "type": "string",
          "description": "Middle Initial of the person"
        },
        "lastName": {
          "type": "string",
          "description": "Last name of the person or business entity"
        },
        "nameSuffix": {
          "type": "string",
          "description": "Name suffix like Jr, Sr"
        },
        "nameType": {
          "type": "string",
          "description": "Indicates the type of name that this instance represents, such as Billing, AuthorizedUser, User, etc.,"
        },
        "businessName": {
          "type": "string",
          "description": "Business name of the customer if a business"
        }
      }
    },
    "AuthorizeUserResponse": {
      "description": "Authorize users response",
      "type": "object",
      "properties": {
        "ban": {
          "description": "New BAN 9 digit number",
          "type": "number",
          "example": "123456789",
          "minLength": 1,
          "maxLength": 50
        },
        "authorizeUsers": {
          "type": "array",
          "description": "Provides the Authroize user information",
          "items": {
            "$ref": "#/definitions/AuthorizeUser1"
          }
        }
      }
    },
    "AuthorizeUser1": {
      "type": "object",
      "description": "Returns an error",
      "properties": {
        "status": {
          "description": "Response status",
          "type": "string",
          "example": "SUCCESS",
          "pattern": "^[\\S]*$",
          "minLength": 1,
          "maxLength": 50
        },
        "firstName": {
          "type": "string",
          "description": "First name of the person"
        },
        "lastName": {
          "type": "string",
          "description": "Last name of the person or business entity"
        },
        "businessName": {
          "type": "string",
          "description": "Business name of the customer if a business"
        }
      }
    }
  }
}
