@startuml

!define MS_SERVICE Case-Management-v4
!define MS_OPERATION my-queue-cases
!define LAST_UPDATE %date[yyyy.MM.dd 'at' HH:mm]%
!define module(x) component x <<module>> 
!define send(a,b,c) a->b : c
!define response(a,b) a-->b : Response
left header
<font color=blue>MS: MS_SERVICE/MS_OPERATION</font>
endheader

title
MS: MS_SERVICE/MS_OPERATION
Last update: LAST_UPDATE

end title

/' 
 ' This is our suppression for the footbox (aka. our diagrams box a the bottom of each flow
' tower - comment out the next line and regenerate the diagram, to see what I mean)
'/
hide footbox


/'
' The spacing in the following text is important. 
 ' 
 ' Trust me.
'/ 
center footer

 
Copyright (c) 2019 Amdocs.

Information Security Level 1 - Confidential

CONTAINS RESTRICTED - PROPRIETARY INFORMATION

This document is strictly confidential and proprietary; to be used only by authorized persons
on a need to know basis, and must not be distributed without specific permission.

In the event of unauthorized use of this document or the confidential information it contains,
violators will be subject to sever disciplinary action, based on Amdocs regulations, as well as
any other sanctions applicable by law.

endfooter


participant Channel
participant "case\nmanagement-v4\nMS" as CM
database DB

skinparam sequenceArrowThickness 2
skinparam ArrowColor  #blue 

Channel -> CM: my-queue-cases\n Token
Activate CM #lightgreen


send(CM,DB,retrieveNonClosedCases from  CASE_DETAILS)
Activate DB #lightgreen

response(DB,CM)
Deactivate DB

send(CM,DB,retrieveNonClosedCasesCount from  CASE_DETAILS)
Activate DB #lightgreen

response(DB,CM)
Deactivate DB

send(CM,DB,retrieveClosedCases from CLOSED_CASE_DETAILS)
Activate DB #lightgreen

response(DB,CM)
Deactivate DB

send(CM,DB,retrieveClosedCasesCount from CLOSED_CASE_DETAILS)
Activate DB #lightgreen


response(DB,CM)
Deactivate DB


response(CM,Channel)
Deactivate CM

@enduml
