@startuml
skinparam SequenceMessageAlign left
Actor "REEF" as REEF
participant "Provision Async Handler" as ProvisionAsyncHandler
participant "PortIn Async Handler" as PortInAsyncHandler
participant "Notification Async Handler" as NotificationAsyncHandler

REEF -> REEF : Receives a JMS message published on Queue 'TMOBILE.',$_globalVariables/pfx3:GlobalVariables/TMO/Env/Env_Name_BE,'.EVENTFRAMEWORK.REQUEST'. \nBased on the <B>"eventName/sender"</B> REEF invokes the appropritae operation.

	group REEFActivateSubscriber
		REEF -> ProvisionAsyncHandler : Initiates [[ce.dsg.dice.mpcs.provision.activateSubscriber.reef.svg ActivateSubscriber]] Asynchronous flow if eventName="ActivateSubscriber" and sender="METRO" from up stream.
		ProvisionAsyncHandler -> REEF : Acknowledges JMS message
	end
	group REEFUpdateFeatures
		REEF -> ProvisionAsyncHandler : Initiates [[../REEF/ce.dsg.dice.mpcs.provision.updateFeatures.reef.svg UpdateFeatures]] Asynchronous flow if eventName="UpdateFeatures" and sender="METRO" from up stream.
		ProvisionAsyncHandler -> REEF : Acknowledges JMS message
	end
	group REEFUpdateSubscriberDetails
		REEF -> ProvisionAsyncHandler : Initiates [[../REEF/ce.dsg.dice.mpcs.provision.updateSubscriberDetails.reef.svg UpdateSubscriberDetails]] Asynchronous flow if eventName="UpdateSubscriberDetails" and sender="METRO" from up stream.
		ProvisionAsyncHandler -> REEF : Acknowledges JMS message
	end
	group REEFUpdateSIM
		REEF -> ProvisionAsyncHandler : Initiates [[../REEF/ce.dsg.dice.mpcs.provision.updateSIM.reef.svg UpdateSIM]] Asynchronous flow if eventName="UpdateSIM" and sender="METRO" from up stream.
		ProvisionAsyncHandler -> REEF : Acknowledges JMS message
	end
	group REEFUpdateMSISDN
		REEF -> ProvisionAsyncHandler : Initiates [[../REEF/ce.dsg.dice.mpcs.provision.updateMSISDN.reef.svg UpdateMSISDN]] Asynchronous flow if eventName="UpdateMSISDN" and sender="METRO" from up stream.
		ProvisionAsyncHandler -> REEF : Acknowledges JMS message
	end
	group REEFUpdateIMEI
		REEF -> ProvisionAsyncHandler : Initiates [[../REEF/ce.dsg.dice.mpcs.provision.updateIMEI.reef.svg UpdateIMEI]] Asynchronous flow if eventName="UpdateIMEI" and sender="METRO" from up stream.
		ProvisionAsyncHandler -> REEF : Acknowledges JMS message
	end
	group REEFResetVoiceMailPassword
		REEF -> ProvisionAsyncHandler : Initiates [[../REEF/ce.dsg.dice.mpcs.provision.resetVoiceMailPassword.reef.svg ResetVoiceMailPassword]] Asynchronous flow if eventName="ResetVoiceMailPassword" and sender="METRO" from up stream.
		ProvisionAsyncHandler -> REEF : Acknowledges JMS message
	end
	group REEFSuspendSubscriber
		REEF -> ProvisionAsyncHandler : Initiates [[../REEF/ce.dsg.dice.mpcs.provision.suspendSubscriber.reef.svg SuspendSubscriber]] Asynchronous flow if eventName="SuspendSubscriber" and sender="METRO" from up stream.
		ProvisionAsyncHandler -> REEF : Acknowledges JMS message
	end
	group REEFRestoreSubscriber
		REEF -> ProvisionAsyncHandler : Initiates [[../REEF/ce.dsg.dice.mpcs.provision.restoreSubscriber.reef.svg RestoreSubscriber]] Asynchronous flow if eventName="RestoreSubscriber" and sender="METRO" from up stream.
		ProvisionAsyncHandler -> REEF : Acknowledges JMS message
	end
	group REEFReactivateSubscriber
		REEF -> ProvisionAsyncHandler : Initiates [[../REEF/ce.dsg.dice.mpcs.provision.reactivateSubscriber.reef.svg ReactivateSubscriber]] Asynchronous flow if eventName="ReactivateSubscriber" and sender="METRO" from up stream.
		ProvisionAsyncHandler -> REEF : Acknowledges JMS message
	end
	group REEFDeactivateSubscriber
		REEF -> ProvisionAsyncHandler : Initiates [[../REEF/ce.dsg.dice.mpcs.provision.deactivateSubscriber.reef.svg DeactivateSubscriber]] Asynchronous flow if eventName="DeactivateSubscriber" and sender="METRO" from up stream.
		ProvisionAsyncHandler -> REEF : Acknowledges JMS message
	end	
	group REEFMetroPortInActivateSubscriber
		REEF -> ProvisionAsyncHandler : Initiates [[../REEF/ce.dsg.dice.mpcs.provision.metroPortInActivateSubscriber.reef.svg MetroPortInActivateSubscriber]] Asynchronous flow if eventName="MetroPortInActivateSubscriber" and sender="METRO" from up stream.
		ProvisionAsyncHandler -> REEF : Acknowledges JMS message
	end
	group REEFNotifyPortActivity
		REEF -> PortInAsyncHandler : Initiates [[../REEF/ce.dsg.dice.mpcs.portIn.notifyPortActivity.reef.svg NotifyPortActivity]] Asynchronous flow if eventName="NotifyPortActivity" and sender="METRO" from up stream.
		PortInAsyncHandler -> REEF : Acknowledges JMS message
	end
	group REEFNotifyDataUsageActivity
		REEF -> NotificationAsyncHandler : Initiates [[../REEF/ce.dsg.dice.mpcs.notification.notifyDataUsageActivity.reef.svg NotifyDataUsageActivity]] Asynchronous flow if eventName="NotifyDataUsageActivity" and sender="METRO" from up stream.
		NotificationAsyncHandler -> REEF : Acknowledges JMS message
	end
	group REEFSendSMS
		REEF -> NotificationAsyncHandler : Initiates [[../REEF/ce.dsg.dice.mpcs.notification.sendSMS.reef.svg SendSMS]] Asynchronous flow if eventName="SendSMS" and sender="METRO" from up stream.
		NotificationAsyncHandler -> REEF : Acknowledges JMS message
	end		
@enduml