@startuml
title CallSchedule.GetCustomerColor
actor Client

group <font color=#FF0090><b> GetCustomerColor
Client->TIBCO: [[https://servicecatalog.internal.t-mobile.com/servicecat/tibco/2018-08-25/sid/html/CallScheduleService.html#GetCustomerColor GetCustomerColor]]
TIBCO->SIVR:Reference.getCustomerColors
SIVR->TIBCO:Response
TIBCO->Client:Response
end group

@enduml