
@startuml
title CatalogNotificationService.sendCatalogNotification
actor Client

group <font color=#FF0090><b> sendCatalogNotification  
Client->TIBCO: [[https://servicecatalog.internal.t-mobile.com/servicecat/tibco/2018-08-25/sid/html/CatalogNotificationService.html#sendCatalogNotification sendCatalogNotification]]
alt <font color=#FF8C00> Sender Id in request is 'RPX'
TIBCO->BWEPC:Publish message
alt <font color=#FF8C00>notification type is 'SUCCESS NOTIFICATION' and notificationStatus is 'REFRESHED_CACHE'
TIBCO->BWSIVR: publish message
end
else Sender Id in request is 'EPC'
TIBCO->BWRPX:Publish message
end

end group




@endum1




