
@startuml
title GetStoreLocationsService.LookupRetailStore
actor Client

group <font color=#FF0090><b> lookupRetailStore     
Client->TIBCO:[[https://servicecatalog.internal.t-mobile.com/servicecat/tibco/2018-08-25/sid/html/GetStoreLocations.html#LookupRetailStore LookupRetailStore]]
alt <font color=#FF8C00> Input Validation Failed
TIBCO->TIBCO : Validate Store Id
TIBCO->Client: Store Id is Required
else  Input Validation Successful
TIBCO->Cache:Retrieve LookupRetail store details
Cache->TIBCO:Response
alt <font color=#FF8C00>application Id in request is 'POS'
alt <font color=#FF8C00> EDP Cache Enabled
TIBCO->Cache : call LookupPilotStore details
Cache->TIBCO : Response
else EDPCache not enabled
TIBCO->DB : call RetrieveEDPPilotStoreFromRSP[datasource=RSP]
DB->TIBCO : Response
end
else includeStoreCapability is true
TIBCO->CaaS: call ReadCaaSData
CaaS->TIBCO: Response
else RetailStoreApplicationId = applicationId in request
TIBCO->Cache:get POSLookUpRetailStore details
Cache->TIBCO:Response
alt <font color=#FF8C00>if no records found
TIBCO->DB:call getStoreLevelEligibility[datasource=TIBCO]
DB->TIBCO:Response
TIBCO->Cache:store the details
end
end
TIBCO->Client: Return Consolidated Response
end
end group

@endum1




