@startuml
title IBPAsync.CollectionIBP
actor Client
Client->Tibco :[TMO.Env.Env_Name#.COMMON.COLLECTIONPAYMENT.DETAILS.SYNC]
Tibco ->Abp:[TMO-Env-Env_Name_ORD), ".COMMONONQUEUE.COLLECTIONPAYMENT.DETAILS.SYNC")]
Abp->Jms :[status]
Tibco->Jms :[error log when error]
@enduml