
@startuml
title NotificationService.sendSms
actor Client

group <font color=#FF0090><b> sendSMS
Client->TIBCO: [[https://servicecatalog.internal.t-mobile.com/servicecat/tibco/2018-08-25/sid/html/Notification.html#SendSMSOperation sendSms]]
TIBCO->TIBCO:ValidateSendsmsRequest
alt <font color=#FF8C00>ResponseCode is not equal to 100
TIBCO->Client:Send response Error
else Validation success
TIBCO->TIBCO: call DecryptPassword
TIBCO->SDG:call BulkNotificationService.addSubscriberJobItems
SDG->TIBCO:Response
alt <font color=#FF8C00> If response is success
TIBCO->TIBCO: Map Response
else error response 
TIBCO->JMS: Post BE-EF Event
TIBCO->TIBCO: Map Response
end
end
TIBCO->Client: Response
end group




@endum1




