
@startuml
title Notification.sendEmail
actor Client

group <font color=#FF0090><b> sendEmail
Client->TIBCO: [[https://servicecatalog.internal.t-mobile.com/servicecat/tibco/2018-08-25/sid/html/Notification.html#SendEmail sendEmail]]
alt <font color=#FF8C00> if checkProfilePreference in request=true
alt <font color=#FF8C00> callCHUB is true
alt <font color=#FF8C00>if ban>0
TIBCO->CHUB:call LookupBANContactInfoSoap.lookupBANContactInfo
CHUB->TIBCO:Response
else if MSISDN>0
TIBCO->CHUB: call LookupMSISDNContactInfoSoap.lookupMSISDNContactInfo
CHUB->TIBCO:Response
else if profileInfo = 'MARKETING_PRIMARY'
TIBCO->CHUB:call LookupPrimaryEmailSoap.lookupPrimaryEmail
CHUB->TIBCO:Response
end
else callCP is true
TIBCO->TIBCO:if (length of BAN>0 and less than 9) or (length of BAN=9 and BAN is not number)
TIBCO->Client:BAN is invalid, it should be of length 9 and numerical
TIBCO->TIBCO:if (length of MSISDN>0 and less than 10) or (length of MSISDN=10 and MSISDN is not number)
TIBCO->Client:MSISDN is invalid, it should be of length 10 and numerical
TIBCO->CustomerProfile:call GetCustomerProfileDetails
CustomerProfile->TIBCO:Response
end
end
TIBCO->DST:sendEmail
end group




@endum1




