@startuml
title QRCodeService.generateQRCode
actor Client

group <font color=#FF0090><b> generateQRCode
Client->TIBCO: [[https://servicecatalog.internal.t-mobile.com/servicecat/tibco/2018-08-25/sid/html/QRCodeService.html#generateQRCode generateQRCode]] 
TIBCO->TIBCO:Generate HMAC Code
TIBCO->TIBCO:Encrypt SSN
TIBCO->DB:call InsertQRCodeTransactionDetails[datasource=CHUB] to store JSON,Last name,Last 4 SSN
DB->TIBCO:JSON response
TIBCO->Client:JSON Response
end group

@enduml