
@startuml
title RetailAsyncService.Order
actor Client

group <font color=#FF0090><b> Order  
Client->TIBCO: Order
TIBCO->RSP: call OrderFulfillmentService.updateShipmentInfo

end group




@endum1




