
@startuml
title UpdateDPFInfo Service
actor Client

group <font color=#FF0090><b> updateDPFInfo     
Client->TIBCO:[[https://servicecatalog.internal.t-mobile.com/servicecat/tibco/2018-08-25/sid/html/UpdateDPFInfo.html#UpdateDPFInfo UpdateDPFInfo]]
TIBCO->TIBCO:Validate CounterId
group <b> Pass without Memo (if memo=0 and counterName>0)
TIBCO->Samson:Invokes evLsSubPasAgr
Samson->TIBCO:Return Response
TIBCO->Samson:Invokes evUpPassSts
Samson->TIBCO:Return Response
end group
group <b> PASS/SOC with MEMO(if memoText>0 and (counterId!=1009and counterEvent!=20 in memo))
TIBCO->Samson:Invokes csSrchSub
Samson->TIBCO : Return Response
alt <font color=#FF8C00> if Event-Enable_AAE = "Y" and counterId in request =1009
TIBCO->Samson : Invokes csLsBanSub
Samson->TIBCO : Return Response
TIBCO->JMS: send AccountActivity event
JMS->TIBCO:Response
end

end group
group <b> SOC Without MEMO
TIBCO->Samson : Invokes evUpDPFThrSts
Samson->TIBCO:Return Response
alt <font color=#FF8C00>if CustomerType in Request=1 and counterEvent =60
TIBCO->Samson : Invoke-evUpDPFThrSts-to-update-Upsell
Samson->TIBCO:Return Response
end
end group
TIBCO->Client:Response
end

@endum1




