{
    "swagger": "2.0",
    "info": {
        "title": "domain-notifications-events",
        "description": "API to publish domain data to send notifications",
        "version": "1.0.0",
        "contact": {
            "name": "notifications",
            "email": "DTDNotificationsDev@T-Mobile.com"
        },
        "x-createdBy": {
            "dateCreated": "Tue Jan  09 16:08:01 2020",
            "createdBy": "jboddu",
            "application": "Recite",
            "appVersion": "0.3.6.2170",
            "documentId": "6f3b66cf-1eb4-4b83-abef-7b76178c40db",
            "status": "Conceptual - Initial",
            "classification": "1.2 Customer Contact Mgmt.",
            "profile": "Application Integration Service",
            "serviceLayer": "Enterprise - EventManagement"
        }
    },
    "host": "dev01.api.t-mobile.com",
    "basePath": "/notificationmgmt/v2",
    "schemes": [
        "https"
    ],
    "paths": {
        "/domain-notifications-events": {
            "post": {
                "tags": [
                    "createDomain-notifications-events"
                ],
                "summary": "Provides a method to create an instance of the domain-notifications-events resource.",
                "description": "Provides a method to create an instance of the domain-notifications-events resource.",
                "operationId": "createDomain-notifications-events",
                "consumes": [
                    "application/json",
                    "application/xml"
                ],
                "produces": [
                    "application/json",
                    "application/xml"
                ],
                "parameters": [
                    {
                        "name": "domain-notifications-events",
                        "in": "body",
                        "description": "API to publish domain data to send notifications",
                        "required": true,
                        "schema": {
                            "$ref": "#/definitions/domain-notifications-events"
                        }
                    },
                    {
                        "name": "Accept",
                        "in": "header",
                        "description": "Content-Types that are acceptable including application/json or application/xml (default assumed application/json)",
                        "required": false,
                        "type": "string"
                    },
                    {
                        "name": "Access-Control-Request-Headers",
                        "in": "header",
                        "description": "In CORS, the Access-Control-Request-Headers header indicates which headers will be used in the actual request as part of a preflight request.",
                        "required": false,
                        "type": "string"
                    },
                    {
                        "name": "Access-Control-Request-Method",
                        "in": "header",
                        "description": "In CORS, the Access-Control-Request-Method header indicates which method will be used in the actual request as part of a preflight request.",
                        "required": false,
                        "type": "string"
                    },
                    {
                        "name": "Cache-Control",
                        "in": "header",
                        "description": "No cache indicators supported at this time. Samples: no-cache",
                        "required": false,
                        "type": "string"
                    },
                    {
                        "name": "If-Match",
                        "in": "header",
                        "description": "The If-Match header specifies an ETag-related condition to be placed on the execution of a request.  The request will only be executed if the ETag of the requested resource matches one of those specified in the If-Match header.  Because the behavior is complex, the details for usage are provided at http://www.w3.org/Protocols/rfc2616/rfc2616-sec14.html .",
                        "required": false,
                        "type": "string"
                    },
                    {
                        "name": "If-Modified-Since",
                        "in": "header",
                        "description": "The If-Modified-Since header specifies date-related conditions to be placed on the execution of a request.  The request will only be executed if the requested resource has not been modified since the date-time specified.  Because the behavior is complex, the details for usage are provided at http://www.w3.org/Protocols/rfc2616/rfc2616-sec14.html",
                        "required": false,
                        "type": "string"
                    },
                    {
                        "name": "If-None-Match",
                        "in": "header",
                        "description": "The If-None-Match header specifies an ETag-related condition to be placed on the execution of a request.  The request will NOT be executed if the ETag of the requested resource matches one of those specified in the If-None-Match header.  Because the behavior is complex, the details for usage are provided at http://www.w3.org/Protocols/rfc2616/rfc2616-sec14.html",
                        "required": false,
                        "type": "string"
                    },
                    {
                        "name": "Origin",
                        "in": "header",
                        "description": "The Origin header indicates where a cross-origin resource or pre-flight request originates from.  The header is required in all requests that require CORS",
                        "required": false,
                        "type": "string"
                    },
                    {
                        "name": "activityid",
                        "in": "header",
                        "description": "Unique id alphanumeric value generated and sent by the partner to identify every the service request uniquely. Sample: XyzA:D1s5s1i-X6AFRvfiPBfs-1234  Pass as is to downstream calls.",
                        "required": true,
                        "type": "string"
                    },
                    {
                        "name": "applicationid",
                        "in": "header",
                        "description": "Identifies the application, system, or tool that is being used to perform the transaction related to this request. Below are the sample values.ACUI, ESERVICE, REBELLION, WARP",
                        "required": false,
                        "type": "string"
                    },
                    {
                        "name": "applicationuserid",
                        "in": "header",
                        "description": "NT id of the one who is managing the transaction from CARE/RETAIL channels.",
                        "required": false,
                        "type": "string"
                    },
                    {
                        "name": "authcustomerid",
                        "in": "header",
                        "description": "Customer id _ of the person that is interacting with the system.",
                        "required": false,
                        "type": "string"
                    },
                    {
                        "name": "authfinancialaccountid",
                        "in": "header",
                        "description": "Financial account that the customer intends to operate on, while interacting with the system.",
                        "required": false,
                        "type": "string"
                    },
                    {
                        "name": "authlineofserviceid",
                        "in": "header",
                        "description": "Service Line that the customer intends to operate on, while interacting with the system.",
                        "required": false,
                        "type": "string"
                    },
                    {
                        "name": "channelid",
                        "in": "header",
                        "description": "Identifies the business unit or sales channel for the Request.Below are the sample values:            Care            TeleSales            FullService            BusinessDirect            FinancePartners            NonFinancePartners            SelfServiceAuthenticated            SelfServiceAnonymous            InteractiveVoiceResponse",
                        "required": false,
                        "type": "string"
                    },
                    {
                        "name": "dealercode",
                        "in": "header",
                        "description": "Unique code to identify the dealer/rep user.",
                        "required": false,
                        "type": "integer",
                        "format": "int32"
                    },
                    {
                        "name": "interactionid",
                        "in": "header",
                        "description": "Alphanumeric value represent a common transaction id across all calls made from UI, while completing all business activity needs of a particular customer.",
                        "required": false,
                        "type": "string"
                    },
                    {
                        "name": "segmentationid",
                        "in": "header",
                        "description": "Identifier of customers primary data center.Sample: Polaris,Titan",
                        "required": false,
                        "type": "string"
                    },
                    {
                        "name": "senderid",
                        "in": "header",
                        "description": "Uniquely identifies an Operation consumer. Below are the sample values.ACUI, MYTMO, QVXP, REBELLION, WALMARTRETAIL, SAMSCLUBRETAIL.",
                        "required": false,
                        "type": "string"
                    },
                    {
                        "name": "servicetransactionid",
                        "in": "header",
                        "description": "Internal identifier for transaction tracking an individual transaction/API request within API platform. Don_t receive/don_t send to downstream",
                        "required": false,
                        "type": "string"
                    },
                    {
                        "name": "sessionid",
                        "in": "header",
                        "description": "A value populated by the sender used to track the transactions that occur during a session, a long-lasting interaction that ismaintained by the sender.",
                        "required": false,
                        "type": "string"
                    },
                    {
                        "name": "storeid",
                        "in": "header",
                        "description": "Unique identifier for the retail store location.",
                        "required": false,
                        "type": "string"
                    },
                    {
                        "name": "terminalid",
                        "in": "header",
                        "description": "Unique identifier for the retail store terminal. Needed for FullService  (Tmobile RETAIL channel). Need to discuss with T-Mobile business liaison if there is a need for Partner to pass their retail Store Id).",
                        "required": false,
                        "type": "string"
                    },
                    {
                        "name": "tillid",
                        "in": "header",
                        "description": "Unique identifier for the retail register. Needed for FullService  (Tmobile RETAIL channel). Need to discuss with T-Mobile business liaison if there is a need for Partner to pass their retail Store Id).",
                        "required": false,
                        "type": "string"
                    },
                    {
                        "name": "timestamp",
                        "in": "header",
                        "description": "A timestamp provided by sender to track their workflow. If it is empty APIGEE can send current system timestamp.",
                        "required": false,
                        "type": "string",
                        "format": "date-time"
                    },
                    {
                        "name": "workflowid",
                        "in": "header",
                        "description": "Workflow name (NEW/ADD/EXCHANGE/RETURN)/OrderTypes _ ACTIVATION ADDALINE CHANGEDEVICE_JUMP CHANGEDEVICE",
                        "required": false,
                        "type": "string"
                    }
                ],
                "responses": {
                    "201": {
                        "description": "The domain-notifications-events resource has been created.  Returning a domain-notifications-events.",
                        "schema": {
                            "$ref": "#/definitions/domain-notifications-events"
                        },
                        "headers": {
                            "Access-Control-Allow-Headers": {
                                "description": "The Access-Control-Allow-Headers header indicates, as part of a pre-flight request which headers can be used on the actual request.",
                                "type": "string"
                            },
                            "Access-Control-Allow-Methods": {
                                "description": "The Access-Control-Allow-Methods header indicates, as part of a pre-flight request which methods can be used on the actual request.",
                                "type": "string"
                            },
                            "Access-Control-Allow-Origin": {
                                "description": "The Access-Control-Allow-Origin header indicates whether a resource can be shared by returning the value of the Origin request header or _*_ in the response.",
                                "type": "string"
                            },
                            "Cache-Control": {
                                "description": "No cache indicators supported at this time. Samples: no-cache",
                                "type": "string"
                            },
                            "Content-Length": {
                                "description": "The Content-Length header specifies the actual length of the returned payload.",
                                "type": "string"
                            },
                            "Content-Type": {
                                "description": "The Content-Length header specifies the actual length of the returned payload.",
                                "type": "string"
                            },
                            "ETag": {
                                "description": "The ETag header specifies the unique entity tag value for the returned resource.",
                                "type": "string"
                            },
                            "Expires": {
                                "description": "The Expires header gives the date-time after which the response is considered stale.",
                                "type": "string"
                            },
                            "Location": {
                                "description": "The Location header specifies the URI of a created resource, or redirects the API consumer to an alternate resource location.",
                                "type": "string"
                            }
                        }
                    },
                    "304": {
                        "description": "Not Modified"
                    },
                    "400": {
                        "description": "Bad Request",
                        "schema": {
                            "$ref": "#/definitions/errorCollection"
                        }
                    },
                    "401": {
                        "description": "Client not authorized",
                        "schema": {
                            "$ref": "#/definitions/errorCollection"
                        }
                    },
                    "403": {
                        "description": "Client access denied",
                        "schema": {
                            "$ref": "#/definitions/errorCollection"
                        }
                    },
                    "404": {
                        "description": "Resource not found",
                        "schema": {
                            "$ref": "#/definitions/errorCollection"
                        }
                    },
                    "406": {
                        "description": "Mismatching data format",
                        "schema": {
                            "$ref": "#/definitions/errorCollection"
                        }
                    },
                    "409": {
                        "description": "Invalid data",
                        "schema": {
                            "$ref": "#/definitions/errorCollection"
                        }
                    },
                    "412": {
                        "description": "Stale data",
                        "schema": {
                            "$ref": "#/definitions/errorCollection"
                        }
                    },
                    "500": {
                        "description": "System Error",
                        "schema": {
                            "$ref": "#/definitions/errorCollection"
                        }
                    },
                    "502": {
                        "description": "Backend system problem",
                        "schema": {
                            "$ref": "#/definitions/errorCollection"
                        }
                    },
                    "503": {
                        "description": "Service unavailable",
                        "schema": {
                            "$ref": "#/definitions/errorCollection"
                        }
                    }
                },
                "security": []
            }
        }
    },
    "definitions": {
        "AddressCommunication": {
            "type": "object",
            "description": "AddressCommunication is a predefined object from an igniteXml model - cabinet 1030178313 build 1031864927 key 1032307980",
            "properties": {
                "communicationId": {
                    "description": "Uniquely identifies the communication pathway described by this structure.",
                    "type": "string"
                },
                "preference": {
                    "$ref": "#/definitions/Preference"
                },
                "effectivePeriod": {
                    "$ref": "#/definitions/TimePeriod"
                },
                "privacyProfiles": {
                    "description": "Privacy controls for this communication, indicating the circumstances in which this communication should beused.",
                    "type": "array",
                    "items": {
                        "$ref": "#/definitions/PrivacyProfile"
                    }
                },
                "collectionSource": {
                    "description": "Identifies the source from which this communication information was collected: Customer, Census, Facebook, Employer, etc.",
                    "type": "string",
                    "enum": [
                        "CUSTOMER",
                        "ACXIOM",
                        "CENSUS",
                        "DRG",
                        "FACEBOOK",
                        "LINKEDIN",
                        "OTHER",
                        "EMPLOYER",
                        "GOOGLEPLUS",
                        "TWITTER"
                    ]
                },
                "uiAdded": {
                    "description": "To indicate that the entity is added from user interface.",
                    "type": "string"
                },
                "addressFormatType": {
                    "description": "A code specifying the format of this address (STREET_ADDRESS, POBOX_ADDRESS, MILITARY_ADDRESS, FOREIGN_ADDRESS, HWY_ADDRESS, RURALROUTE_ADDRESS)",
                    "type": "string",
                    "enum": [
                        "STREET",
                        "POBOX",
                        "MILITARY",
                        "FOREIGN",
                        "HIGHWAY",
                        "RURALROUTE"
                    ]
                },
                "addressLine1": {
                    "description": "The first free form line, expressed as text, of an address",
                    "type": "string"
                },
                "addressLine2": {
                    "description": "The second free form line, expressed as text, of an address",
                    "type": "string"
                },
                "addressLine3": {
                    "description": "The third free form line, expressed as text, of an address",
                    "type": "string"
                },
                "addressLine4": {
                    "description": "The fourth free form line, expressed as text, of an address",
                    "type": "string"
                },
                "cityName": {
                    "description": "The name, expressed as text, of the city, town or village of this address",
                    "type": "string"
                },
                "stateName": {
                    "description": "Name of the state in which  the city falls, where applicable",
                    "type": "string"
                },
                "stateCode": {
                    "description": "Code of the state in which the city falls, where applicable(WA, TX, GA)",
                    "type": "string",
                    "minLength": 2,
                    "maxLength": 2
                },
                "provinceName": {
                    "description": "Name of the province where the address is located, if applicable",
                    "type": "string"
                },
                "provinceCode": {
                    "description": "Code of the province where the address is located, if applicable(OX,PQ)",
                    "type": "string"
                },
                "countyName": {
                    "description": "County Name, if applicable",
                    "type": "string"
                },
                "countryCode": {
                    "description": "The unique identifier of a country for this address (Reference ISO 3166 and UN/ECE Rec 3)",
                    "type": "string",
                    "minLength": 3,
                    "maxLength": 3,
                    "pattern": "[A-Z][A-Z][A-Z]"
                },
                "countryName": {
                    "description": "The name of a country for this address (Reference ISO 3166 and UN/ECE Rec 3)",
                    "type": "string"
                },
                "attentionOf": {
                    "description": "The name, expressed as text, of a person or department in the organization to whom incoming mail is marked with words such as for the attention of or FAO or ATTN for this address",
                    "type": "string"
                },
                "careOf": {
                    "description": "The name, expressed as text, of a person or organization at this address to whom incoming mail is marked with words such as care of or C/O",
                    "type": "string"
                },
                "postalCode": {
                    "description": "A code specifying the postal code of the address",
                    "type": "string"
                },
                "postalCodeExtension": {
                    "description": "An extension to the postalcode of the address, e.g., in 94070-3541, the extension is 3541.",
                    "type": "string"
                },
                "uncertaintyIndicator": {
                    "description": "Uncertainty code for geoCode: FULL-Full Address, ZIP-Rural Zip+4, E-Rural Zip+2, RURAL-Rural Zip, D-Street Zip+4, L-Street Zip+2, STREET-Street zip",
                    "type": "string"
                },
                "inCityLimit": {
                    "description": "Indicates whether or not this address is within the taxing boundary of the jurisdiction thats provided in the address, possible values are ~Incorporated~, ~Unincorporated~, and ~Unknown~.",
                    "type": "string"
                },
                "latitude": {
                    "description": "Latitude lines run horizontally on a map. Latitude lines are also known as parallels since they are parallel and are an equal distant from each other.",
                    "type": "string"
                },
                "longitude": {
                    "description": "longitude is a predefined object from an igniteXml model - cabinet 1030178313 build 1031864927 key 1032322512",
                    "type": "string"
                },
                "countyCode": {
                    "description": "A numeric code identifying the county from the Federal Information Processing Standard (FIPS).",
                    "type": "string"
                },
                "keys": {
                    "description": "keys is a predefined object from an igniteXml model - cabinet 1030178313 build 1031864927 key 1032322406",
                    "type": "array",
                    "items": {
                        "$ref": "#/definitions/DomainKey"
                    }
                },
                "residential": {
                    "description": "To indicate if the address is for residential or business",
                    "type": "string"
                },
                "geoCode": {
                    "$ref": "#/definitions/GeoCode"
                },
                "purposes": {
                    "description": "The Address Usage Context specifies a way in which the address should be used.",
                    "type": "array",
                    "items": {
                        "type": "string",
                        "enum": [
                            "HOME",
                            "WORK",
                            "MAILING",
                            "SHIPPING",
                            "BILLING",
                            "PHYSICAL",
                            "E911",
                            "PPU",
                            "SKIPTRACE",
                            "PRIMARY",
                            "PREVIOUS",
                            "OTHER"
                        ]
                    }
                },
                "communicationStatus": {
                    "$ref": "#/definitions/AddressCommunicationStatus"
                },
                "specialInstructions": {
                    "description": "Instruction to identify additional address information.",
                    "type": "array",
                    "items": {
                        "type": "string"
                    }
                }
            }
        },
        "AddressCommunicationStatus": {
            "type": "object",
            "description": "Condition of the AddressCommunication, at the time expressed in the effectivePeriod.",
            "properties": {
                "statusCode": {
                    "description": "A short hand identifier for the state of the Address, at the point in time specified by the effectivePeriod.",
                    "type": "string",
                    "enum": [
                        "VALIDATED",
                        "NONVALIDATED",
                        "UNDELIVERABLE"
                    ]
                },
                "subStatusCode": {
                    "description": "A finer division of Address status code.",
                    "type": "string",
                    "enum": [
                        "OVERWRITTEN",
                        "Confirmed",
                        "UnitUnconfirmed",
                        "UnitMissing",
                        "Indistinct",
                        "ZipError",
                        "FalsePositive"
                    ]
                },
                "name": {
                    "description": "The user-friendly label that defines the state of the object, as the point in time expressed by effectivePeriod.",
                    "type": "string"
                },
                "description": {
                    "description": "An explanation of the status.",
                    "type": "string"
                },
                "effectivePeriod": {
                    "$ref": "#/definitions/TimePeriod"
                },
                "reasonCodes": {
                    "description": "Specifies the reason for the change in status.",
                    "type": "array",
                    "items": {
                        "type": "string"
                    }
                }
            }
        },
        "CommunicationDetails": {
            "type": "object",
            "properties": {
                "contact": {
                    "type": "array",
                    "items": {
                        "$ref": "#/definitions/Contact"
                    }
                }
            }
        },
        "Contact": {
            "type": "object",
            "description": "A resource serving as a go-between, messenger, connection, or source of special information.",
            "properties": {
                "contactId": {
                    "description": "Uniquely identifies the Contact.",
                    "type": "string"
                },
                "nameId": {
                    "description": "Uniquely identifies the name being used by the person, with the knowledge that names may change over time.",
                    "type": "string"
                },
                "nameType": {
                    "description": "Type of name such as Legal name, official name and so on.",
                    "type": "string"
                },
                "fullName": {
                    "description": "The persons full name.",
                    "type": "string"
                },
                "firstName": {
                    "description": "Is the Persons given name or first name",
                    "type": "string"
                },
                "middleNames": {
                    "description": "Is the persons middle name or initial.",
                    "type": "array",
                    "items": {
                        "type": "string"
                    }
                },
                "familyNames": {
                    "description": "Is the persons family name",
                    "type": "array",
                    "items": {
                        "type": "string"
                    }
                },
                "maidenName": {
                    "description": "A married name is the family name adopted by a person upon marriage, and in speaking of the many cultures where the practice is traditional for women, the maiden name is the family name that the married name replaces.",
                    "type": "string"
                },
                "titles": {
                    "description": "Is the title of the person. For example Dr, Senator, Mr..",
                    "type": "array",
                    "items": {
                        "type": "string"
                    }
                },
                "salutations": {
                    "description": "Way the person is addressed e.g. Honorable etc?",
                    "type": "array",
                    "items": {
                        "type": "string"
                    }
                },
                "prefix": {
                    "description": "Prefix to the last name that is not considered part of the last name, such as German von or French dela, etc.",
                    "type": "string"
                },
                "suffix": {
                    "description": "Suffix to the last name, such as Senior, III, the Third etc.",
                    "type": "string"
                },
                "militaryRank": {
                    "description": "Military Rank",
                    "type": "string"
                },
                "preferredName": {
                    "description": "Name by which the person prefers to be addressed",
                    "type": "string"
                },
                "aliasNames": {
                    "description": "Alias by which the person is known",
                    "type": "array",
                    "items": {
                        "type": "string"
                    }
                },
                "effectivePeriod": {
                    "$ref": "#/definitions/TimePeriod"
                },
                "status": {
                    "description": "status is a predefined object from an igniteXml model - cabinet 1030178313 build 1031864927 key 1032363409",
                    "type": "array",
                    "items": {
                        "$ref": "#/definitions/ContactStatus"
                    }
                },
                "preference": {
                    "$ref": "#/definitions/Preference"
                },
                "addressCommunications": {
                    "description": "addressCommunications is a predefined object from an igniteXml model - cabinet 1030178313 build 1031864927 key 1032363434",
                    "type": "array",
                    "items": {
                        "$ref": "#/definitions/AddressCommunication"
                    }
                },
                "phoneCommunications": {
                    "description": "phoneCommunications is a predefined object from an igniteXml model - cabinet 1030178313 build 1031864927 key 1032363445",
                    "type": "array",
                    "items": {
                        "$ref": "#/definitions/PhoneCommunication"
                    }
                },
                "emailCommunications": {
                    "description": "emailCommunications is a predefined object from an igniteXml model - cabinet 1030178313 build 1031864927 key 1032363456",
                    "type": "array",
                    "items": {
                        "$ref": "#/definitions/EmailCommunication"
                    }
                },
                "websiteCommunications": {
                    "description": "websiteCommunications is a predefined object from an igniteXml model - cabinet 1030178313 build 1031864927 key 1032363467",
                    "type": "array",
                    "items": {
                        "$ref": "#/definitions/WebsiteCommunication"
                    }
                },
                "preferredLanguages": {
                    "description": "The preferred language of communication in the specified usage context. ISO 639-1 Code (en-US,en-CA,en-GB)",
                    "type": "array",
                    "items": {
                        "$ref": "#/definitions/PreferredLanguage"
                    }
                },
                "preferredCommunicationChannels": {
                    "description": "Precedence, advantage, or choice of one communication channel, for example  email vs phone",
                    "type": "array",
                    "items": {
                        "$ref": "#/definitions/PreferredCommunicationChannel"
                    }
                },
                "socialCommunications": {
                    "description": "socialCommunications is a predefined object from an igniteXml model - cabinet 1030178313 build 1031864927 key 1032363502",
                    "type": "array",
                    "items": {
                        "$ref": "#/definitions/SocialCommunication"
                    }
                }
            }
        },
        "ContactStatus": {
            "type": "object",
            "description": "Condition of a Contact, at the time expressed in the effectivePeriod.",
            "properties": {
                "statusCode": {
                    "description": "A short hand identifier for the state of the Contact, at the point in time specified by the effectivePeriod.",
                    "type": "string",
                    "enum": [
                        "VALIDATED",
                        "NONVALIDATED"
                    ]
                },
                "subStatusCode": {
                    "description": "A finer division of code.",
                    "type": "string"
                },
                "name": {
                    "description": "The user-friendly label that defines the state of the object, as the point in time expressed by effectivePeriod.",
                    "type": "string"
                },
                "description": {
                    "description": "An explanation of the status.",
                    "type": "string"
                },
                "effectivePeriod": {
                    "$ref": "#/definitions/TimePeriod"
                },
                "reasonCodes": {
                    "description": "Specifies the reason for the change in status.",
                    "type": "array",
                    "items": {
                        "type": "string"
                    }
                }
            }
        },
        "domain-notifications-events": {
            "type": "object",
            "description": "API to publish domain data to send notifications",
            "required": [
                "transactionId"
            ],
            "properties": {
                "transactionId": {
                    "description": "Unique identifier for the data generated by the producer domain. This element will be searchable in notification Domain.",
                    "type": "string"
                },
                "publisherDomain": {
                    "$ref": "#/definitions/PublisherDomain"
                },
                "communicationDetails": {
                    "$ref": "#/definitions/CommunicationDetails"
                },
                "payload": {
                    "type": "string"
                },
                "specifications": {
                    "type": "array",
                    "items": {
                        "$ref": "#/definitions/Specifications"
                    }
                }
            }
        },
        "DomainKey": {
            "type": "object",
            "description": "The Domain Key structure is used to uniquely identifiy an object in a system (or domain) other than the system of record.",
            "properties": {
                "keyName": {
                    "description": "The name of the key identifier, within the specified domain. For example, if an object can be identified by a field called code, then keyName = code.",
                    "type": "string"
                },
                "keyValue": {
                    "description": "The value of the key identifier.  For example, if an object can be identified by a field called code, then keyName = code.  The keyValue would be set to the value of the field called code.",
                    "type": "string"
                },
                "additionalKeyParts": {
                    "description": "Additional key values that are needed to uniquely identify the object within the domain.  For example, if an object can be identified by (code + effectiveDate), the keyName=code and additionalKeyPart/keyName = effectiveDate.",
                    "type": "array",
                    "items": {
                        "$ref": "#/definitions/KeyPart"
                    }
                },
                "domainName": {
                    "description": "The system or business domain that is the source of the key. For example: PREPAIDBILLING, WEBCATALOG, SAMSON, SAP.",
                    "type": "string"
                }
            }
        },
        "EmailCommunication": {
            "type": "object",
            "description": "EmailCommunication is a predefined object from an igniteXml model - cabinet 1030178313 build 1031864927 key 1032308028",
            "properties": {
                "communicationId": {
                    "description": "Uniquely identifies the communication pathway described by this structure.",
                    "type": "string"
                },
                "preference": {
                    "$ref": "#/definitions/Preference"
                },
                "effectivePeriod": {
                    "$ref": "#/definitions/TimePeriod"
                },
                "privacyProfiles": {
                    "description": "Privacy controls for this communication, indicating the circumstances in which this communication should beused.",
                    "type": "array",
                    "items": {
                        "$ref": "#/definitions/PrivacyProfile"
                    }
                },
                "collectionSource": {
                    "description": "Identifies the source from which this communication information was collected: Customer, Census, Facebook, Employer, etc.",
                    "type": "string",
                    "enum": [
                        "CUSTOMER",
                        "ACXIOM",
                        "CENSUS",
                        "DRG",
                        "FACEBOOK",
                        "LINKEDIN",
                        "OTHER",
                        "EMPLOYER",
                        "GOOGLEPLUS",
                        "TWITTER"
                    ]
                },
                "uiAdded": {
                    "description": "To indicate that the entity is added from user interface.",
                    "type": "string"
                },
                "emailAddress": {
                    "description": "URI in the case of email communication",
                    "type": "string"
                },
                "emailFormat": {
                    "description": "Indicates that the email communication is preferred in HTML format, Plain Text, Rich Text.",
                    "type": "string",
                    "enum": [
                        "HTML",
                        "PLAINTEXT",
                        "RICHTEXT"
                    ]
                },
                "purposes": {
                    "description": "Identifies the circumstances for which we are to use this email address for communication.",
                    "type": "array",
                    "items": {
                        "type": "string",
                        "enum": [
                            "PRIMARY",
                            "SECONDARY",
                            "BILLING",
                            "HOME",
                            "WORK",
                            "DATANOTIFY",
                            "OTHER",
                            "SECURITY"
                        ]
                    }
                },
                "communicationStatus": {
                    "$ref": "#/definitions/EmailCommunicationStatus"
                }
            }
        },
        "EmailCommunicationStatus": {
            "type": "object",
            "description": "Condition of the EmailCommunication, at the time expressed in the effectivePeriod.",
            "properties": {
                "statusCode": {
                    "description": "A short hand identifier for the state of the email communication, at the point in time specified by the effectivePeriod.",
                    "type": "string",
                    "enum": [
                        "VALIDATED",
                        "NONVALIDATED",
                        "DELIVERED",
                        "UNDELIVERABLE"
                    ]
                },
                "subStatusCode": {
                    "description": "A finer division of status code for email address.",
                    "type": "string",
                    "enum": [
                        "OVERWRITTEN",
                        "HARDBOUNCE",
                        "SOFTBOUNCE"
                    ]
                },
                "name": {
                    "description": "The user-friendly label that defines the state of the object, as the point in time expressed by effectivePeriod.",
                    "type": "string"
                },
                "description": {
                    "description": "An explanation of the status.",
                    "type": "string"
                },
                "effectivePeriod": {
                    "$ref": "#/definitions/TimePeriod"
                },
                "reasonCodes": {
                    "description": "Specifies the reason for the change in status.",
                    "type": "array",
                    "items": {
                        "type": "string"
                    }
                }
            }
        },
        "error": {
            "description": "Error object.",
            "type": "object",
            "properties": {
                "code": {
                    "description": "A specific T-Mobile error code.",
                    "type": "string"
                },
                "userMessage": {
                    "description": "A human-readable message describing the error.",
                    "type": "string"
                },
                "systemMessage": {
                    "description": "Backend system error message.",
                    "type": "string"
                }
            }
        },
        "errorCollection": {
            "description": "The array of error objects. As defined in https://tmobileusa.sharepoint.com/teams/EnterpriseServices/ESG%20Standards%20Documents/APIs/T-Mobile%20API%20Design%20Guidelines%20v1.0.docx",
            "type": "object",
            "properties": {
                "errors": {
                    "type": "array",
                    "items": {
                        "$ref": "#/definitions/error"
                    }
                }
            }
        },
        "GeoCode": {
            "type": "object",
            "description": "geoCode is a predefined object from an igniteXml model - cabinet 1030178313 build 1031864927 key 1032322429",
            "properties": {
                "geoCodeId": {
                    "description": "A unique code that represents a geospatial coordinate measurement of an exact geographic location and time at, below, or above the surface of the earth.",
                    "type": "string"
                },
                "manual": {
                    "description": "Flag to indicate if GeoCodeID or TaxAreaID is entered manually by user.",
                    "type": "string"
                },
                "referenceLayer": {
                    "description": "The reference layer that the geocode id was calculated from.",
                    "type": "string"
                },
                "purpose": {
                    "description": "The context within which the geocode id should be used.",
                    "type": "string"
                }
            }
        },
        "KeyPart": {
            "type": "object",
            "description": "Additional key values that are needed to uniquely identify the object within the domain.  For example, if an object can be identified by (code + effectiveDate), the keyName=code and additionalKeyPart/keyName = effectiveDate.",
            "properties": {
                "keyPartName": {
                    "description": "The name of the additional key part, if a multi-part key is required to uniquely identify an object, as specified in the alternate system (domain), other than the system of record.",
                    "type": "string"
                },
                "keyPartValue": {
                    "description": "The value of the additional key part, if a multi-part key is required to uniquely identify an object, as specified in the alternate system (domain), other than the system of record.",
                    "type": "string"
                },
                "ordinal": {
                    "description": "The ordinal is used to sequence the key parts when accessing the object in the specified domain.",
                    "type": "integer",
                    "format": "int32"
                }
            }
        },
        "PhoneCommunication": {
            "type": "object",
            "description": "PhoneCommunication is a predefined object from an igniteXml model - cabinet 1030178313 build 1031864927 key 1032308012",
            "properties": {
                "communicationId": {
                    "description": "Uniquely identifies the communication pathway described by this structure.",
                    "type": "string"
                },
                "preference": {
                    "$ref": "#/definitions/Preference"
                },
                "effectivePeriod": {
                    "$ref": "#/definitions/TimePeriod"
                },
                "privacyProfiles": {
                    "description": "Privacy controls for this communication, indicating the circumstances in which this communication should beused.",
                    "type": "array",
                    "items": {
                        "$ref": "#/definitions/PrivacyProfile"
                    }
                },
                "collectionSource": {
                    "description": "Identifies the source from which this communication information was collected: Customer, Census, Facebook, Employer, etc.",
                    "type": "string",
                    "enum": [
                        "CUSTOMER",
                        "ACXIOM",
                        "CENSUS",
                        "DRG",
                        "FACEBOOK",
                        "LINKEDIN",
                        "OTHER",
                        "EMPLOYER",
                        "GOOGLEPLUS",
                        "TWITTER"
                    ]
                },
                "uiAdded": {
                    "description": "To indicate that the entity is added from user interface.",
                    "type": "string"
                },
                "phoneType": {
                    "description": "Indicates the type of phone: LANDLINE, MOBILE, FAX, SATELLITE.",
                    "type": "string",
                    "enum": [
                        "LANDLINE",
                        "MOBILE",
                        "FAX",
                        "SATELLITE"
                    ]
                },
                "phoneNumber": {
                    "description": "The complete number without separation between  country code, area code etc",
                    "type": "string"
                },
                "countryDialingCode": {
                    "description": "The country dialing code for a telephone communication number.",
                    "type": "string"
                },
                "areaCode": {
                    "description": "The area dialing code for a communication number",
                    "type": "string"
                },
                "localNumber": {
                    "description": "The communication number, not including country dialing or area dialing codes",
                    "type": "string"
                },
                "phoneExtension": {
                    "description": "The extension of the associated communicationnumber",
                    "type": "string"
                },
                "accessCode": {
                    "description": "The text that permits access to the electronic network of the associated ommunication number such as telephone network, for example 9, *70.",
                    "type": "string"
                },
                "serviceUsageTypes": {
                    "description": "Indicates what type of phone service is governed by this Communication. Example, SMS, MMS",
                    "type": "array",
                    "items": {
                        "type": "string",
                        "enum": [
                            "VOICE",
                            "SMS",
                            "MMS",
                            "DATA",
                            "APP",
                            "FAX",
                            "VOICEMAIL"
                        ]
                    }
                },
                "purposes": {
                    "description": "Identifies the circumstances for which we are to use this phone number for communication.",
                    "type": "array",
                    "items": {
                        "type": "string",
                        "enum": [
                            "PRIMARY",
                            "SECONDARY",
                            "BILLING",
                            "HOME",
                            "WORK",
                            "DATANOTIFY",
                            "OTHER",
                            "SECURITY",
                            "SKIPTRACE"
                        ]
                    }
                },
                "communicationStatus": {
                    "$ref": "#/definitions/PhoneCommunicationStatus"
                }
            }
        },
        "PhoneCommunicationStatus": {
            "type": "object",
            "description": "Condition of the PhoneCommunication, at the time expressed in the effectivePeriod.",
            "properties": {
                "statusCode": {
                    "description": "A short hand identifier for the state of the object, at the point in time specified by the effectivePeriod.",
                    "type": "string",
                    "enum": [
                        "INSERVICE",
                        "FORWARDED",
                        "DISCONNECTED"
                    ]
                },
                "subStatusCode": {
                    "description": "A finer division of code.",
                    "type": "string"
                },
                "name": {
                    "description": "The user-friendly label that defines the state of the object, as the point in time expressed by effectivePeriod.",
                    "type": "string"
                },
                "description": {
                    "description": "An explanation of the status.",
                    "type": "string"
                },
                "effectivePeriod": {
                    "$ref": "#/definitions/TimePeriod"
                },
                "reasonCodes": {
                    "description": "Specifies the reason for the change in status.",
                    "type": "array",
                    "items": {
                        "type": "string"
                    }
                }
            }
        },
        "Preference": {
            "type": "object",
            "description": "Determines the relative preference of a list of objects.",
            "properties": {
                "preferred": {
                    "description": "Indicator if this is a preferred communication. If false, this communication should be less used.",
                    "type": "boolean"
                },
                "ranking": {
                    "description": "Priority of ranking of the associated object or component. The lower the number, the higher the priority.",
                    "type": "integer",
                    "format": "int32"
                }
            }
        },
        "PreferredCommunicationChannel": {
            "type": "object",
            "description": "A preferred type of communication for the specified usage context, ranked according to preference.",
            "properties": {
                "communicationType": {
                    "description": "The type of communication for example EmailCommunication or PhoneCommunication",
                    "type": "string",
                    "enum": [
                        "EMAIL",
                        "SMS",
                        "MAIL",
                        "PHONE",
                        "PUSHNOTIFICATION"
                    ]
                },
                "preference": {
                    "$ref": "#/definitions/Preference"
                },
                "channelId": {
                    "description": "The id of the communication channel",
                    "type": "string"
                },
                "purpose": {
                    "description": "Identifies the circumstances for which we are to use this communication channel as the preferred channel.",
                    "type": "string",
                    "enum": [
                        "SECURITY",
                        "USAGE",
                        "ROAMING",
                        "MARKETING",
                        "ORDERING",
                        "3RDPARTYPURCHASES"
                    ]
                }
            }
        },
        "PreferredLanguage": {
            "type": "object",
            "description": "PreferredLanguage is a predefined object from an igniteXml model - cabinet 1030178313 build 1031864927 key 1032329177",
            "properties": {
                "language": {
                    "description": "The preferred language of communication in the specified usage context.",
                    "type": "string",
                    "minLength": 2,
                    "maxLength": 2,
                    "pattern": "[a-z][a-z]"
                },
                "purpose": {
                    "description": "Identifies the circumstances for which we are to use this language as the preferred language.",
                    "type": "string"
                }
            }
        },
        "PrivacyProfile": {
            "type": "object",
            "description": "Privacy controls, indicating the circumstances in which communication is acceptable.",
            "properties": {
                "optOut": {
                    "description": "Indicates the privacy option for this communication channel. If opted out, this communication cannot be used for telemarketing calls, mails, emails...etc.",
                    "type": "string",
                    "enum": [
                        "DEFAULT",
                        "OPTIN",
                        "OPTOUT"
                    ]
                },
                "reason": {
                    "description": "Indicates the reason for applying the Opt Out, if any.",
                    "type": "string"
                },
                "activityType": {
                    "description": "Indicates the type of marketing activity that the customer has opted in/out from. If no value is provided, it is assumed that the customer has opted in/out from all activity through this communication channel.",
                    "type": "string",
                    "enum": [
                        "BILLING",
                        "MARKETING",
                        "MAILING",
                        "DealsAndPromotions",
                        "PersonalizedOffers"
                    ]
                }
            }
        },
        "PublisherDomain": {
            "type": "object",
            "required": [
                "messageType"
            ],
            "properties": {
                "messageVersion": {
                    "type": "string"
                },
                "messageType": {
                    "description": "Type/state of the message published.",
                    "type": "string"
                },
                "domainName": {
                    "description": "Name of the publisher domain.",
                    "type": "string"
                },
                "messageObject": {
                    "description": "Entity of the message published.",
                    "type": "string"
                }
            }
        },
        "SocialCommunication": {
            "type": "object",
            "description": "SocialCommunication is a predefined object from an igniteXml model - cabinet 1030178313 build 1031864927 key 1032362575",
            "properties": {
                "communicationId": {
                    "description": "Uniquely identifies the communication pathway described by this structure.",
                    "type": "string"
                },
                "preference": {
                    "$ref": "#/definitions/Preference"
                },
                "effectivePeriod": {
                    "$ref": "#/definitions/TimePeriod"
                },
                "privacyProfiles": {
                    "description": "Privacy controls for this communication, indicating the circumstances in which this communication should beused.",
                    "type": "array",
                    "items": {
                        "$ref": "#/definitions/PrivacyProfile"
                    }
                },
                "collectionSource": {
                    "description": "Identifies the source from which this communication information was collected: Customer, Census, Facebook, Employer, etc.",
                    "type": "string",
                    "enum": [
                        "CUSTOMER",
                        "ACXIOM",
                        "CENSUS",
                        "DRG",
                        "FACEBOOK",
                        "LINKEDIN",
                        "OTHER",
                        "EMPLOYER",
                        "GOOGLEPLUS",
                        "TWITTER"
                    ]
                },
                "uiAdded": {
                    "description": "To indicate that the entity is added from user interface.",
                    "type": "string"
                },
                "purposes": {
                    "description": "The Social Communication Usage Context specifies a way in which the social media should be used.",
                    "type": "array",
                    "items": {
                        "type": "string"
                    }
                },
                "communicationStatus": {
                    "$ref": "#/definitions/SocialCommunicationStatus"
                },
                "socialMediaType": {
                    "description": "The social media type identifies the type of social media used by this communication channel: FACEBOOK, TWITTER, etc.",
                    "type": "string",
                    "enum": [
                        "FACEBOOK",
                        "TWITTER",
                        "GOOGLEPLUS",
                        "INSTAGRAM",
                        "YOUTUBE",
                        "FOURSQUARE",
                        "MYSPACE"
                    ]
                },
                "socialMediaHandle": {
                    "description": "The handle or identifiying token used by the person in communication via this social media channel.",
                    "type": "string"
                },
                "customerSentiment": {
                    "description": "The prevailing attitude of the person towards T-Mobile as expressed via this social media communication channel.",
                    "type": "string",
                    "enum": [
                        "POSITIVE",
                        "NEGATIVE",
                        "NEUTRAL"
                    ]
                }
            }
        },
        "SocialCommunicationStatus": {
            "type": "object",
            "description": "SocialCommunicationStatus is a predefined object from an igniteXml model - cabinet 1030178313 build 1031864927 key 1032364082",
            "properties": {
                "statusCode": {
                    "description": "A short hand identifier for the state of the object, at the point in time specified by the effectivePeriod.",
                    "type": "string"
                },
                "subStatusCode": {
                    "description": "A finer division of code.",
                    "type": "string"
                },
                "name": {
                    "description": "The user-friendly label that defines the state of the object, as the point in time expressed by effectivePeriod.",
                    "type": "string"
                },
                "description": {
                    "description": "An explanation of the status.",
                    "type": "string"
                },
                "effectivePeriod": {
                    "$ref": "#/definitions/TimePeriod"
                },
                "reasonCodes": {
                    "description": "Specifies the reason for the change in status.",
                    "type": "array",
                    "items": {
                        "type": "string"
                    }
                }
            }
        },
        "Specifications": {
            "type": "object",
            "properties": {
                "name": {
                    "type": "string"
                },
                "value": {
                    "type": "string"
                }
            }
        },
        "TimePeriod": {
            "type": "object",
            "description": "A span of time defined by any two of these three: a start time, a duration, and an end time.",
            "properties": {
                "startTime": {
                    "description": "Start DateTime of the Time Period",
                    "type": "string",
                    "format": "date-time"
                },
                "endTime": {
                    "description": "End Date Time of the Time Period",
                    "type": "string",
                    "format": "date-time"
                },
                "duration": {
                    "description": "Duration of the Time Period. For additional information on the duration data type see:  http://www.w3schools.com/schema/schema_dtypes_date.asp",
                    "type": "string"
                }
            }
        },
        "WebsiteCommunication": {
            "type": "object",
            "description": "WebsiteCommunication is a predefined object from an igniteXml model - cabinet 1030178313 build 1031864927 key 1032307996",
            "properties": {
                "communicationId": {
                    "description": "Uniquely identifies the communication pathway described by this structure.",
                    "type": "string"
                },
                "preference": {
                    "$ref": "#/definitions/Preference"
                },
                "effectivePeriod": {
                    "$ref": "#/definitions/TimePeriod"
                },
                "privacyProfiles": {
                    "description": "Privacy controls for this communication, indicating the circumstances in which this communication should beused.",
                    "type": "array",
                    "items": {
                        "$ref": "#/definitions/PrivacyProfile"
                    }
                },
                "collectionSource": {
                    "description": "Identifies the source from which this communication information was collected: Customer, Census, Facebook, Employer, etc.",
                    "type": "string",
                    "enum": [
                        "CUSTOMER",
                        "ACXIOM",
                        "CENSUS",
                        "DRG",
                        "FACEBOOK",
                        "LINKEDIN",
                        "OTHER",
                        "EMPLOYER",
                        "GOOGLEPLUS",
                        "TWITTER"
                    ]
                },
                "uiAdded": {
                    "description": "To indicate that the entity is added from user interface.",
                    "type": "string"
                },
                "websiteURI": {
                    "description": "URI or URL for the communication",
                    "type": "string"
                },
                "purposes": {
                    "description": "The Website Usage Context specifies a way in which the website communication should be used.",
                    "type": "array",
                    "items": {
                        "type": "string",
                        "enum": [
                            "PERSONAL",
                            "BUSINESS"
                        ]
                    }
                },
                "communicationStatus": {
                    "$ref": "#/definitions/WebsiteCommunicationStatus"
                }
            }
        },
        "WebsiteCommunicationStatus": {
            "type": "object",
            "description": "Condition of the WebsiteCommunication, at the time expressed in the effectivePeriod.",
            "properties": {
                "statusCode": {
                    "description": "A short hand identifier for the state of the Web Communication, at the point in time specified by the effectivePeriod.",
                    "type": "string",
                    "enum": [
                        "AVAILABLE",
                        "NOTFOUND"
                    ]
                },
                "subStatusCode": {
                    "description": "A finer division of status code for web communication channel.",
                    "type": "string",
                    "enum": [
                        "UNDERCONSTRUCTION"
                    ]
                },
                "name": {
                    "description": "The user-friendly label that defines the state of the object, as the point in time expressed by effectivePeriod.",
                    "type": "string"
                },
                "description": {
                    "description": "An explanation of the status.",
                    "type": "string"
                },
                "effectivePeriod": {
                    "$ref": "#/definitions/TimePeriod"
                },
                "reasonCodes": {
                    "description": "Specifies the reason for the change in status.",
                    "type": "array",
                    "items": {
                        "type": "string"
                    }
                }
            }
        }
    },
    "securityDefinitions": {}
}