{
  "swagger" : "2.0",
  "info" : {
    "version" : "1.0",
    "title" : "Summary about the new REST service.",
    "description" : "Summary about the new REST service."
  },
  "host" : "localhost:8080",
  "basePath" : "/",
  "schemes" : [ "http" ],
  "paths" : {
    "/healthcheck" : {
      "get" : {
        "description" : "",
        "operationId" : "get-healthcheck",
        "consumes" : [ "application/json" ],
        "produces" : [ "application/json" ],
        "parameters" : [ ],
        "responses" : {
          "200" : {
            "description" : "a string to be returned",
            "schema" : {
              "type" : "string"
            }
          }
        }
      }
    },
    "/notifications/v1/config" : {
      "get" : {
        "description" : "",
        "operationId" : "get-notifications-config-V1-searchNotificationConfigeventNameeventName",
        "consumes" : [ "application/json" ],
        "produces" : [ "application/json", "application/xml" ],
        "parameters" : [ {
          "name" : "eventName",
          "in" : "query",
          "description" : "",
          "type" : "string",
          "required" : false
        } ],
        "responses" : {
          "200" : {
            "description" : "a configCollection to be returned",
            "schema" : {
              "$ref" : "#/definitions/configCollection"
            }
          }
        }
      }
    }
  },
  "definitions" : {
    "filter" : {
      "type" : "object",
      "properties" : {
        "description" : {
          "type" : "string"
        },
        "rule" : {
          "type" : "string"
        }
      }
    },
    "container" : {
      "type" : "object",
      "properties" : {
        "iterator" : {
          "type" : "string"
        },
        "name" : {
          "type" : "string"
        },
        "description" : {
          "type" : "string"
        },
        "attribute" : {
          "type" : "array",
          "items" : {
            "$ref" : "#/definitions/attribute",
            "uniqueItems" : false
          }
        }
      }
    },
    "notification" : {
      "type" : "object",
      "properties" : {
        "container" : {
          "type" : "array",
          "items" : {
            "$ref" : "#/definitions/container",
            "uniqueItems" : false
          }
        },
        "isTemplateManaged" : {
          "type" : "boolean"
        },
        "optional" : {
          "$ref" : "#/definitions/optional"
        },
        "isBatch" : {
          "type" : "boolean"
        },
        "templateId" : {
          "type" : "string"
        },
        "type" : {
          "type" : "string"
        },
        "isActive" : {
          "type" : "boolean"
        },
        "filter" : {
          "$ref" : "#/definitions/filter"
        },
        "maxRetry" : {
          "type" : "integer"
        },
        "iterator" : {
          "type" : "string"
        },
        "name" : {
          "type" : "string"
        },
        "recipient" : {
          "type" : "array",
          "items" : {
            "$ref" : "#/definitions/recipient",
            "uniqueItems" : false
          }
        },
        "retryInterval" : {
          "type" : "string"
        },
        "id" : {
          "type" : "string"
        },
        "category" : {
          "type" : "string"
        }
      }
    },
    "preferenceValues" : {
      "type" : "object",
      "properties" : {
        "name" : {
          "type" : "string"
        },
        "value" : {
          "type" : "string"
        }
      }
    },
    "configCollection" : {
      "type" : "object",
      "properties" : {
        "size" : {
          "type" : "integer"
        },
        "config" : {
          "type" : "array",
          "items" : {
            "$ref" : "#/definitions/config",
            "uniqueItems" : false
          }
        }
      }
    },
    "roles" : {
      "type" : "object",
      "properties" : {
        "name" : {
          "type" : "string"
        }
      }
    },
    "recipient" : {
      "type" : "object",
      "properties" : {
        "preferenceValues" : {
          "type" : "array",
          "items" : {
            "$ref" : "#/definitions/preferenceValues",
            "uniqueItems" : false
          }
        },
        "roles" : {
          "type" : "array",
          "items" : {
            "$ref" : "#/definitions/roles",
            "uniqueItems" : false
          }
        },
        "systemOfRecord" : {
          "type" : "string"
        }
      }
    },
    "suppressionList" : {
      "type" : "object",
      "properties" : {
        "name" : {
          "type" : "string"
        },
        "value" : {
          "type" : "string"
        }
      }
    },
    "optional" : {
      "type" : "object",
      "properties" : {
        "alertType" : {
          "type" : "string"
        },
        "suppressionList" : {
          "type" : "array",
          "items" : {
            "$ref" : "#/definitions/suppressionList",
            "uniqueItems" : false
          }
        },
        "priority" : {
          "type" : "integer"
        },
        "ttl" : {
          "type" : "string"
        }
      }
    },
    "attribute" : {
      "type" : "object",
      "properties" : {
        "name" : {
          "type" : "string"
        },
        "description" : {
          "type" : "string"
        },
        "value" : {
          "type" : "string"
        }
      }
    },
    "config" : {
      "type" : "object",
      "properties" : {
        "publisherEventName" : {
          "type" : "string"
        },
        "filter" : {
          "$ref" : "#/definitions/filter"
        },
        "notification" : {
          "type" : "array",
          "items" : {
            "$ref" : "#/definitions/notification",
            "uniqueItems" : false
          }
        },
        "publisherName" : {
          "type" : "string"
        },
        "name" : {
          "type" : "string"
        },
        "description" : {
          "type" : "string"
        },
        "id" : {
          "type" : "string"
        }
      }
    }
  }
}