{"swagger":"2.0","info":{"title":"templateService","description":"templateService","version":"0.0.0","x-createdBy":{"dateCreated":"10/17/17 17:26:21","createdBy":"gramanu","application":"Recite","appVersion":"0.0.71.607"}},"host":"dev.t-mobilapis.com","basePath":"/","schemes":["https"],
"paths":{"/addTemplates":{"post":{"tags":["addTemplates"],
"operationId":"addTemplates","consumes":["application/json","application/xm"],
"produces":["application/json","application/xm"],
"parameters":[{"name":"templatesCollection","in":"body","description":"A collection of templates objects.","required":true,"schema":{"$ref":"#/definitions/templatesCollection"}},{"$ref":"#/parameters/AuthorizationParam"},{"$ref":"#/parameters/Content-typeParam"},{"$ref":"#/parameters/AcceptParam"},{"$ref":"#/parameters/applicationuseridParam"},{"$ref":"#/parameters/sessionidParam"},{"$ref":"#/parameters/interactionidParam"},{"$ref":"#/parameters/activityidParam"},{"$ref":"#/parameters/workflowidParam"},{"$ref":"#/parameters/timestampParam"},{"$ref":"#/parameters/storeidParam"},{"$ref":"#/parameters/terminalidParam"},{"$ref":"#/parameters/tillidParam"},{"$ref":"#/parameters/dealercodeParam"},{"$ref":"#/parameters/segmentationidParam"},{"$ref":"#/parameters/authcustomeridParam"},{"$ref":"#/parameters/authfinancialaccountidParam"},{"$ref":"#/parameters/authlineofserviceidParam"},{"$ref":"#/parameters/Access-Control-Request-HeadersParam"},{"$ref":"#/parameters/Access-Control-Request-MethodParam"},{"$ref":"#/parameters/If-MatchParam"},{"$ref":"#/parameters/If-Modified-SinceParam"},{"$ref":"#/parameters/If-None-MatchParam"},{"$ref":"#/parameters/OriginParam"}],
"responses":{"200":{"description":"Ok","headers":{"Access-Control-Allow-Headers":{"type":"string"},"Access-Control-Allow-Methods":{"type":"string"},"Access-Control-Allow-Origin":{"type":"string"},"Cache-Control":{"type":"string"},"Content-Length":{"type":"string"},"Content-Type":{"type":"string"},"ETag":{"type":"string"},"Expires":{"type":"string"},"Location":{"type":"string"},"servicetransactionid":{"type":"string"}}},"304":{"description":"Not Modified","schema":{"$ref":"#/definitions/errors"}},"400":{"description":"Bad Request","schema":{"$ref":"#/definitions/errors"}},"401":{"description":"Client not authorized","schema":{"$ref":"#/definitions/errors"}},"403":{"description":"Client access denied","schema":{"$ref":"#/definitions/errors"}},"404":{"description":"Resource not found","schema":{"$ref":"#/definitions/errors"}},"406":{"description":"Mismatching data format","schema":{"$ref":"#/definitions/errors"}},"409":{"description":"Invalid data","schema":{"$ref":"#/definitions/errors"}},"412":{"description":"Stale data","schema":{"$ref":"#/definitions/errors"}},"500":{"description":"System Error","schema":{"$ref":"#/definitions/errors"}},"502":{"description":"Backend system problem","schema":{"$ref":"#/definitions/errors"}},"503":{"description":"Service unavailable","schema":{"$ref":"#/definitions/errors"}}},"summary":"templatesCollection instance replaced for the provided instance."}},"/applyTemplates":{"post":{"tags":["applyTemplate"],
"operationId":"applyTemplate","consumes":["application/json","application/xm"],
"produces":["application/json","application/xm"],
"parameters":[{"name":"applyTemplate","in":"body","description":"An User Defined Object","required":true,"schema":{"$ref":"#/definitions/applyTemplate"}},{"$ref":"#/parameters/AuthorizationParam"},{"$ref":"#/parameters/Content-typeParam"},{"$ref":"#/parameters/AcceptParam"},{"$ref":"#/parameters/applicationuseridParam"},{"$ref":"#/parameters/sessionidParam"},{"$ref":"#/parameters/interactionidParam"},{"$ref":"#/parameters/activityidParam"},{"$ref":"#/parameters/workflowidParam"},{"$ref":"#/parameters/timestampParam"},{"$ref":"#/parameters/storeidParam"},{"$ref":"#/parameters/terminalidParam"},{"$ref":"#/parameters/tillidParam"},{"$ref":"#/parameters/dealercodeParam"},{"$ref":"#/parameters/segmentationidParam"},{"$ref":"#/parameters/authcustomeridParam"},{"$ref":"#/parameters/authfinancialaccountidParam"},{"$ref":"#/parameters/authlineofserviceidParam"},{"$ref":"#/parameters/Access-Control-Request-HeadersParam"},{"$ref":"#/parameters/Access-Control-Request-MethodParam"},{"$ref":"#/parameters/If-MatchParam"},{"$ref":"#/parameters/If-Modified-SinceParam"},{"$ref":"#/parameters/If-None-MatchParam"},{"$ref":"#/parameters/OriginParam"}],
"responses":{"201":{"description":"The applyTemplate resource has been created.  Returning a applyTemplate.","schema":{"$ref":"#/definitions/template"},"headers":{"Access-Control-Allow-Headers":{"type":"string"},"Access-Control-Allow-Methods":{"type":"string"},"Access-Control-Allow-Origin":{"type":"string"},"Cache-Control":{"type":"string"},"Content-Length":{"type":"string"},"Content-Type":{"type":"string"},"ETag":{"type":"string"},"Expires":{"type":"string"},"Location":{"type":"string"},"servicetransactionid":{"type":"string"}}},"304":{"description":"Not Modified","schema":{"$ref":"#/definitions/errors"}},"400":{"description":"Bad Request","schema":{"$ref":"#/definitions/errors"}},"401":{"description":"Client not authorized","schema":{"$ref":"#/definitions/errors"}},"403":{"description":"Client access denied","schema":{"$ref":"#/definitions/errors"}},"404":{"description":"Resource not found","schema":{"$ref":"#/definitions/errors"}},"406":{"description":"Mismatching data format","schema":{"$ref":"#/definitions/errors"}},"409":{"description":"Invalid data","schema":{"$ref":"#/definitions/errors"}},"412":{"description":"Stale data","schema":{"$ref":"#/definitions/errors"}},"500":{"description":"System Error","schema":{"$ref":"#/definitions/errors"}},"502":{"description":"Backend system problem","schema":{"$ref":"#/definitions/errors"}},"503":{"description":"Service unavailable","schema":{"$ref":"#/definitions/errors"}}},"summary":"Provides a method to create an instance of the applyTemplate resource."}}},"definitions":{"applyTemplate":{"type":"object","description":"An User Defined Object","properties":{"typeId":{"description":"An User Defined Object","type":"string"},"notificationType":{"description":"An User Defined Object","type":"string"},"templateLanguage":{"description":"An User Defined Object","type":"string"},"templateName":{"description":"An User Defined Object","type":"string"},"notificationId":{"description":"An User Defined Object","type":"string"},"content":{"description":"An User Defined Object","type":"array","items":{"$ref":"#/definitions/content"}}}},"attributeList":{"type":"object","description":"An User Defined Object","properties":{"attributes":{"description":"An User Defined Object","type":"array","items":{"$ref":"#/definitions/attributes"}}}},"attributes":{"type":"object","description":"An User Defined Object","properties":{"contentId":{"description":"An User Defined Object","type":"string"},"contentValue":{"description":"An User Defined Object","type":"string"}}},"content":{"type":"object","description":"An User Defined Object","properties":{"contentName":{"description":"An User Defined Object","type":"string"},"attributeList":{"description":"An User Defined Object","type":"array","items":{"$ref":"#/definitions/attributeList"}}}},"errors":{"description":"a collection of errors","type":"array","items":{"$ref":"#/definitions/responseError"}},"responseError":{"description":"Used to pass error information in a response.","type":"object","properties":{"code":{"description":"Used to pass error codes","type":"string"},"userMessage":{"description":"Use to pass human friendly information to the user.","type":"string"},"systemMessage":{"description":"Used to pass system information.","type":"string"}}},"template":{"type":"object","description":"an user defined resource","properties":{"notificationId":{"description":"An User Defined Object","type":"string"},"templateContent":{"description":"An User Defined Object","type":"string"},"templateName":{"description":"An User Defined Object","type":"string"},"typeId":{"description":"An User Defined Object","type":"string"},"templateId":{"description":"An User Defined Object","type":"string"}}},"templatesCollection":{"type":"object","description":"A collection of templates objects.","properties":{"template":{"description":"an user defined resource","type":"array","items":{"$ref":"#/definitions/template"}}}}},"parameters":{"AuthorizationParam":{"name":"Authorization","in":"header","required":true,"type":"string"},"Content-typeParam":{"name":"Content-type","in":"header","required":true,"type":"string"},"AcceptParam":{"name":"Accept","in":"header","required":false,"type":"string"},"applicationuseridParam":{"name":"applicationuserid","in":"header","required":false,"type":"string"},"sessionidParam":{"name":"sessionid","in":"header","required":false,"type":"string"},"interactionidParam":{"name":"interactionid","in":"header","required":false,"type":"string"},"activityidParam":{"name":"activityid","in":"header","required":true,"type":"string"},"workflowidParam":{"name":"workflowid","in":"header","required":false,"type":"string"},"timestampParam":{"name":"timestamp","in":"header","required":false,"type":"string","format":"date-time"},"storeidParam":{"name":"storeid","in":"header","required":false,"type":"string"},"terminalidParam":{"name":"terminalid","in":"header","required":false,"type":"string"},"tillidParam":{"name":"tillid","in":"header","required":false,"type":"string"},"dealercodeParam":{"name":"dealercode","in":"header","required":false,"type":"integer","format":"int32"},"segmentationidParam":{"name":"segmentationid","in":"header","required":false,"type":"string"},"authcustomeridParam":{"name":"authcustomerid","in":"header","required":false,"type":"string"},"authfinancialaccountidParam":{"name":"authfinancialaccountid","in":"header","required":false,"type":"string"},"authlineofserviceidParam":{"name":"authlineofserviceid","in":"header","required":false,"type":"string"},"Access-Control-Request-HeadersParam":{"name":"Access-Control-Request-Headers","in":"header","required":false,"type":"string"},"Access-Control-Request-MethodParam":{"name":"Access-Control-Request-Method","in":"header","required":false,"type":"string"},"If-MatchParam":{"name":"If-Match","in":"header","required":false,"type":"string"},"If-Modified-SinceParam":{"name":"If-Modified-Since","in":"header","required":false,"type":"string"},"If-None-MatchParam":{"name":"If-None-Match","in":"header","required":false,"type":"string"},"OriginParam":{"name":"Origin","in":"header","required":false,"type":"string"}}}
