{
  "swagger": "2.0",
  "info": {
    "title": "AccountResourceService",
    "description": "This service support the use of the financial account and subscriber level resource. Finnancial Account and subscriber level attributes used to determine eligibility for device financing",
    "version": "1.0.0",
    "x-createdBy": {
      "dateCreated": "Fri Apr 20 23:45:23 2018",
      "createdBy": "AIliesc2",
      "application": "Recite",
      "appVersion": "0.3.6.2170",
      "documentId": "f3522bfc-cf15-4c4c-844b-ae9923a578aa",
      "status": "Conceptual - Initial",
      "classification": "7.0 Billing & Charging Management",
      "profile": "Facade Business Capability Service",
      "serviceLayer": "Enterprise - Billing"
    }
  },
  "host": "dev01.api.t-mobile.com",
  "basePath": "/billing-experience/v1/installment-eligibility",
  "schemes": [
    "https"
  ],
  "paths": {
    "/billing-experience/v1/installment-eligibility/query-attributes": {
      "post": {
        "tags": [
          "Financial Account and Subscriber Information"
        ],
        "summary": "Retrieve the BAN level and subscriber level attributes for a given BAN",
        "description": "This API will return BAN level and subscriber level attributes for active and suspended subscribers considering the total number of subscribers present in BAN and based on required SubscribersList or excluded SubscribersList indication.",
        "operationId": "retrieveBillingAccountsAndSubscribersInfo",
        "consumes": [
          "application/json"
        ],
        "produces": [
          "application/json"
        ],
        "parameters": [
          {
            "name": "DeviceFinanceEipRequest",
            "in": "body",
            "description": "Describes the request structure for get the BAN and subscriber level attributes. ",
            "required": true,
            "schema": {
              "$ref": "#/definitions/DeviceFinanceEipRequest"
            }
          },
          {
            "name": "Accept",
            "in": "header",
            "description": "Content-Types that are acceptable including application/json or application/xml (default assumed application/json)",
            "required": false,
            "type": "string",
            "x-example": "application/json"
          },
          {
            "name": "Accept-Charset",
            "in": "header",
            "description": "Character sets that are acceptable.",
            "required": false,
            "type": "string"
          },
          {
            "name": "Accept-Encoding",
            "in": "header",
            "description": "List of acceptable encodings. See HTTP compression.",
            "required": false,
            "type": "string"
          },
          {
            "name": "Accept-Language",
            "in": "header",
            "description": "List of acceptable human languages for response",
            "required": false,
            "type": "string"
          },
          {
            "name": "Authorization",
            "in": "header",
            "description": "OAuth 2.0 access token with the authentication type set as Bearer.",
            "required": true,
            "type": "string"
          },
          {
            "name": "Content-Type",
            "in": "header",
            "description": "The Content-Length header specifies the actual length of the returned payload.",
            "required": true,
            "type": "string",
            "x-example": "application/json"
          },
          {
            "name": "Date",
            "in": "header",
            "description": "The date and time that the message was originated (in HTTP-date format as defined by RFC 7231 Date/Time Formats).",
            "required": false,
            "type": "string",
            "format": "date-time",
            "x-example": "2017-08-05T07:00:00.000Z"
          },
          {
            "name": "If-Modified-Since",
            "in": "header",
            "description": "The If-Modified-Since header specifies date-related conditions to be placed on the execution of a request.  The request will only be executed if the requested resource has not been modified since the date-time specified.  Because the behavior is complex, the details for usage are provided at http://www.w3.org/Protocols/rfc2616/rfc2616-sec14.html",
            "required": false,
            "type": "string"
          },
          {
            "name": "If-None-Match",
            "in": "header",
            "description": "The If-None-Match header specifies an ETag-related condition to be placed on the execution of a request.  The request will NOT be executed if the ETag of the requested resource matches one of those specified in the If-None-Match header.  Because the behavior is complex, the details for usage are provided at http://www.w3.org/Protocols/rfc2616/rfc2616-sec14.html",
            "required": false,
            "type": "string"
          },
          {
            "name": "activityid",
            "in": "header",
            "description": "Unique id alphanumeric value generated and sent by the partner to identify every the service request uniquely. Sample: XyzA:D1s5s1i-X6AFRvfiPBfs-1234  Pass as is to downstream calls.",
            "required": true,
            "type": "string",
            "x-example": "A342431"
          },
          {
            "name": "applicationid",
            "in": "header",
            "description": "Identifies the application, system, or tool that is being used to perform the transaction related to this request. Below are the sample values.ACUI, ESERVICE, REBELLION, WARP",
            "required": false,
            "type": "string",
            "x-example": "MS"
          },
          {
            "name": "applicationuserid",
            "in": "header",
            "description": "NT id of the one who is managing the transaction from CARE/RETAIL channels.",
            "required": false,
            "type": "string",
            "x-example": "rmeher1"
          },
          {
            "name": "authcustomerid",
            "in": "header",
            "description": "Customer id _ of the person that is interacting with the system.",
            "required": false,
            "type": "string"
          },
          {
            "name": "authfinancialaccountid",
            "in": "header",
            "description": "Financial account that the customer intends to operate on, while interacting with the system.",
            "required": false,
            "type": "string"
          },
          {
            "name": "authlineofserviceid",
            "in": "header",
            "description": "Service Line that the customer intends to operate on, while interacting with the system.",
            "required": false,
            "type": "string"
          },
          {
            "name": "channelid",
            "in": "header",
            "description": "Identifies the business unit or sales channel for the Request.Below are the sample values:            Care            TeleSales            FullService            BusinessDirect            FinancePartners            NonFinancePartners            SelfServiceAuthenticated            SelfServiceAnonymous            InteractiveVoiceResponse",
            "required": false,
            "type": "string",
            "x-example": "60"
          },
          {
            "name": "dealercode",
            "in": "header",
            "description": "Unique code to identify the dealer/rep user.",
            "required": false,
            "type": "integer",
            "format": "int32",
            "x-example": 2
          },
          {
            "name": "interactionid",
            "in": "header",
            "description": "Alphanumeric value represent a common transaction id across all calls made from UI, while completing all business activity needs of a particular customer.",
            "required": false,
            "type": "string",
            "x-example": "A545345"
          },
          {
            "name": "segmentationid",
            "in": "header",
            "description": "Identifier of customers primary data center.Sample: Polaris,Titan",
            "required": false,
            "type": "string",
            "x-example": "Polaris"
          },
          {
            "name": "senderid",
            "in": "header",
            "description": "Uniquely identifies an Operation consumer. Below are the sample values.ACUI, MYTMO, QVXP, REBELLION, WALMARTRETAIL, SAMSCLUBRETAIL.",
            "required": false,
            "type": "string",
            "x-example": "MYTMO"
          },
          {
            "name": "sessionid",
            "in": "header",
            "description": "A value populated by the sender used to track the transactions that occur during a session, a long-lasting interaction that ismaintained by the sender.",
            "required": false,
            "type": "string"
          },
          {
            "name": "storeid",
            "in": "header",
            "description": "Unique identifier for the retail store location.",
            "required": false,
            "type": "string"
          },
          {
            "name": "terminalid",
            "in": "header",
            "description": "Unique identifier for the retail store terminal. Needed for FullService  (Tmobile RETAIL channel). Need to discuss with T-Mobile business liaison if there is a need for Partner to pass their retail Store Id).",
            "required": false,
            "type": "string"
          },
          {
            "name": "tillid",
            "in": "header",
            "description": "Unique identifier for the retail register. Needed for FullService  (Tmobile RETAIL channel). Need to discuss with T-Mobile business liaison if there is a need for Partner to pass their retail Store Id).",
            "required": false,
            "type": "string"
          },
          {
            "name": "timestamp",
            "in": "header",
            "description": "A timestamp provided by sender to track their workflow. If it is empty APIGEE can send current system timestamp.",
            "required": false,
            "type": "string",
            "format": "date-time"
          },
          {
            "name": "workflowid",
            "in": "header",
            "description": "Workflow name (NEW/ADD/EXCHANGE/RETURN)/OrderTypes _ ACTIVATION ADDALINE CHANGEDEVICE_JUMP CHANGEDEVICE",
            "required": false,
            "type": "string"
          }
        ],
        "responses": {
          "200": {
            "description": "The device-finance-account-attributes resource has been found.  Returning the device-finance-account-attributes.",
            "schema": {
              "$ref": "#/definitions/DeviceFinanceEipResponse"
            },
            "headers": {
              "Cache-Control": {
                "description": "No cache indicators supported at this time. Samples: no-cache",
                "type": "string"
              },
              "Content-Encoding": {
                "description": "The type of encoding used on the data",
                "type": "string"
              },
              "Content-Language": {
                "description": "The natural language or languages of the intended audience for the enclosed content",
                "type": "string"
              },
              "Content-Length": {
                "description": "The Content-Length header specifies the actual length of the returned payload.",
                "type": "string"
              },
              "Content-Type": {
                "description": "The Content-Length header specifies the actual length of the returned payload.",
                "type": "string"
              },
              "Date": {
                "description": "The date and time that the message was originated (in HTTP-date format as defined by RFC 7231 Date/Time Formats).",
                "type": "string",
                "format": "date-time"
              },
              "ETag": {
                "description": "The ETag header specifies the unique entity tag value for the returned resource.",
                "type": "string"
              },
              "Last-Modified": {
                "description": "The Last-Modified entity-header field indicates the date and time at which the origin server believes the variant was last modified.",
                "type": "string",
                "format": "date-time"
              },
              "Transfer-Encoding": {
                "description": "The form of encoding used to safely transfer the entity to the user. Currently defined methods are: chunked, compress, deflate, gzip, identity.",
                "type": "string"
              },
              "servicetransactionid": {
                "description": "Internal identifier for transaction tracking an individual transaction/API request within API platform. Don_t receive/don_t send to downstream",
                "type": "string"
              }
            }
          },
          "207": {
            "description": "Combination of success and failure response",
            "schema": {
              "$ref": "#/definitions/DeviceFinanceEipResponse"
            }
          },
          "304": {
            "description": "Not Modified",
            "schema": {
              "$ref": "#/definitions/ErrorCollection"
            },
            "headers": {
              "Cache-Control": {
                "description": "No cache indicators supported at this time. Samples: no-cache",
                "type": "string"
              },
              "ETag": {
                "description": "The ETag header specifies the unique entity tag value for the returned resource.",
                "type": "string"
              }
            }
          },
          "400": {
            "description": "Bad Request",
            "schema": {
              "$ref": "#/definitions/ErrorCollection"
            }
          },
          "401": {
            "description": "Unauthorized",
            "schema": {
              "$ref": "#/definitions/ErrorCollection"
            }
          },
          "404": {
            "description": "Resource not found",
            "schema": {
              "$ref": "#/definitions/ErrorCollection"
            }
          },
          "405": {
            "description": "Method Not Allowed",
            "schema": {
              "$ref": "#/definitions/ErrorCollection"
            }
          },
          "406": {
            "description": "Mismatching data format",
            "schema": {
              "$ref": "#/definitions/ErrorCollection"
            }
          },
          "500": {
            "description": "System Error",
            "schema": {
              "$ref": "#/definitions/ErrorCollection"
            }
          },
          "503": {
            "description": "Service unavailable",
            "schema": {
              "$ref": "#/definitions/ErrorCollection"
            }
          }
        },
        "security": []
      }
    }
  },
  "definitions": {
    "Error": {
      "description": "Error object.",
      "type": "object",
      "properties": {
        "code": {
          "description": "A specific T-Mobile error code.",
          "type": "string"
        },
        "userMessage": {
          "description": "A human-readable message describing the error.",
          "type": "string"
        },
        "systemMessage": {
          "description": "Backend system error message.",
          "type": "string"
        }
      }
    },
    "ErrorCollection": {
      "description": "The array of error objects. As defined in https://tmobileusa.sharepoint.com/teams/EnterpriseServices/ESG%20Standards%20Documents/APIs/T-Mobile%20API%20Design%20Guidelines%20v1.0.docx",
      "type": "object",
      "properties": {
        "errors": {
          "description": "list of errors.",
          "type": "array",
          "items": {
            "$ref": "#/definitions/Error"
          }
        }
      }
    },
    "DeviceFinanceEipRequest": {
      "type": "object",
      "description": "Describes the request structure for payment and reversal.",
      "properties": {
        "financialAccountNumber": {
          "description": "Uniquely describes financial Account Number",
          "type": "string",
          "x-example": "123456789",
          "pattern": "^(\\d{9})$"
        },
        "actionType": {
          "description": "Type of filter",
          "type": "string",
          "x-example": "INCLUDE",
          "enum": [
            "ALL",
            "INCLUDE",
            "EXCLUDE"
          ]
        },
        "subscribersList": {
          "description": "Comma delimited list of MSISDNs that need to be included in the response",
          "type": "array",
          "minItems": 0,
          "example": [
            "6106393837",
            "6106393839",
            "6106393836"
          ],
          "items": {
            "type": "string",
            "description": "subscriber identification number"
          }
        }
      },
      "required": [
        "financialAccountNumber"
      ]
    },
    "AccountInfo": {
      "type": "object",
      "description": "Describe the billing account profile attributes",
      "properties": {
        "financialAccountNumber": {
          "description": "Uniquely describes financial account number",
          "type": "string",
          "example": "123456789",
          "pattern": "^(\\d{9})$"
        },
        "accountType": {
          "description": "Defines financial account type, sample values: B ,E ,G ,I ,N ,R ,S.",
          "type": "string",
          "example": "B"
        },
        "accountTypeDescription": {
          "description": "Defines financial account type description, sample values: EXCEPTION_CONTROL, RESELLER, SPECIAL, BUSINESS, GOVERNMENT, INDIVIDUAL, NATIONAL_TYPE, MNVO_TYPE.",
          "type": "string",
          "example": "BUSINESS"
        },
        "accountSubType": {
          "description": "Defines financial account sub type, sample values: L, E, D, C, F, T, J, R, S, W, 4, 5, 1, 2, 3, Q, Y, 6.",
          "type": "string",
          "example": "R"
        },
        "accountSubTypeDescription": {
          "description": "Defines financial account sub type, sample values: ALLIANCE, AR_EXCPT_ACCT, DEALER_REP, DELIVERY_COMPANY, FUYT, MAJOR, NATIONAL_ACCT, REGULAR, SBMS_EMP, SW_SHARE, STORE_BAN, TRUE_RES, AGENT, PIA_NO_CONTRACT, ONE_SS, CREDIT_LIMIT, BCG, PIA_CONTRACT, PRLFL_CUSTOMER, MKB_CUST, MKB_EMP,  MVNO_ONE_TFONE, WHOLESALE_CUST, MVNO_SIMPLE, NO_CREDIT, EMPLOYEE_ACC, NON_TMUS_EMP.",
          "type": "string",
          "example": "REGULAR"
        },
        "accountStatus": {
          "description": "Defines financial account status, sample values: N, C, O, S, T.",
          "type": "string",
          "example": "S"
        },
        "accountStatusDescription": {
          "description": "Defines financial account status, sample values: CANCELED, CLOSED, OPENED, SUSPENDED, TENTATIVE.",
          "type": "string",
          "example": "SUSPENDED"
        },
        "statusDate": {
          "description": "Defines financial account status date.",
          "type": "string",
          "format": "date-time",
          "example": "2017-08-05T07:00:00.000Z"
        },
        "billCycleCode": {
          "description": "Defines financial account bill cycle code.",
          "type": "integer",
          "format": "int32",
          "minimum": 1,
          "maximum": 99999,
          "example": 10
        },
        "delinquencyStatus": {
          "description": "Indicates delinquency code of BAN, enum values D, N.",
          "type": "string",
          "example": "D"
        },
        "delinquencyStatusDescription": {
          "description": "Indicates delinquency of BAN, enum values DELINQUENT, NORMAL.",
          "type": "string",
          "example": "DELINQUENT"
        },
        "lastStatusActivity": {
          "description": "Last activity performed on the BAN. sample values :CAN ,CBN ,CCN ,CCP ,CHS ,DCK ,DCO ,DFO ,DRC ,DRE ,DRK ,DRR ,DRS ,DTO ,DUA ,DVA ,DVC ,DVS ,HUP ,MCN ,NAC ,OPN ,RCL",
          "type": "string",
          "example": "DVS"
        },
        "lastStatusActivityDescription": {
          "description": "Last activity performed on the BAN. sample values :Activate Device ,Activation ,Bill Reprint ,CDU Address Update ,Cancel Dev Order ,Cancel Device ,Cancellation ,Change CTN ,Change Product ,Change SIM ,Close BAN ,MCN Cancellation ,MCN Open BAN ,MCN Suspension ,Move CTN ,Move Deceased ,Open BAN ,Reassign Device ,Recover Device ,Recover Dvc - RA Exp ,Release CTN ,Reserve CTN ,Reserve Multi CTN ,Reserve multi CTN ,Restore ,Restore Device ,Restore Suspend ,Resume Device ,Resume From Cancel ,Return Cancelled ,Return Order ,SA Subsidy Change ,Submit Dev Order ,Subsidy Update ,Suspend ,Suspend Device ,Suspension ,Tentative BAN.",
          "type": "string",
          "example": "Suspend Device"
        },
        "statusReasonCode": {
          "description": "StatusReason code ",
          "type": "string",
          "example": "CASU"
        },
        "statusReasonDescription": {
          "description": "Defines financial account status reason. sample values: Additional W/O Acct ,Addl WO Acct ,Aged Suspension Cancel ,Amazon in 14 days ,Auto Credit Limit ,Auto SmartAccess ,Automatic Release CTN ,BAN Cancel ,Back Order Upgrade SIM ,Bankruptcy ,Bill copies set to 0 ,Bill prob/pmt ,Blind Return ,Breach of Terms and Conditions ,Bus Non-Verified ,Bus Risk with Pers Guarantor ,Business Risk ,Business Verified ,Buyers Remorse Subsidy Change",
          "type": "string",
          "example": "Aged Suspension Cancel"
        },
        "tenureDays": {
          "description": "Defines financial account tenure days. The Difference in days between the logical date and the service start date.",
          "type": "integer",
          "format": "int32",
          "minimum": 1,
          "maximum": 99999,
          "example": 30
        },
        "billingAddressState": {
          "description": "Defines financial account billing address state code.",
          "type": "string",
          "example": "CA"
        }
      }
    },
    "CreditProfileInfo": {
      "type": "object",
      "description": "Describe the billing account profile attributes",
      "properties": {
        "creditClass": {
          "description": "Defines financial account credit class, sample values : 2 ,3 ,4 ,5 ,6 ,A ,B ,C ,D ,E ,0 ,G ,H ,I ,7 ,8 ,9 ,R ,S ,F ,J ,K ,V ,1 ,L ,M ,N ,O ,P ,Q ,T ,U ,W ,X ,Y ,Z",
          "type": "string",
          "example": "A"
        },
        "creditClassDescription": {
          "description": "Defines financial account credit class, sample values : 200 LINES ,150 LINES ,15 LINES ,15 LINES $0 DEP ,5 LINES $400 DEP ,12 LINES ,12 LINES ,12 LINES ,5 LINES $0 DEP ,EMPLOYEE OR D/C ,15 LINES ,GOVERNMENT ,5 LINES $0 DEP ,5 LINES $250 DEP ,15 LINES $0 DEP ,300 LINES ,FORTUNE 500 CO ,5 LINES SCNC CONV TO POSTPD ,TEMP MANUAL REVIEW ,LIFELINE - NO CREDIT CK ,12 LINES OLD APPLE PROMO ,TEMP PREPD PORT-IN ,VIP ,300 LINES ,5 LINES ,5 LINES / PREV FLEXPAY ,12 LINES RANDOM TEST ,12 LINES LONG TENURED BANS ,RESELLER ,5 LINES SCNC ,WFM ,3 LINES / PREV FPNC ,12 LINES / 12 ON-TIME PYMNTS ,NOT IN USE ,5 LINES $75/$50/$25 DEP ,BANKRUPTCY.",
          "type": "string",
          "example": "12 LINES"
        },
        "behaviorScore": {
          "description": "Defines financial account behaviour score.",
          "type": "integer",
          "format": "int32",
          "minimum": 1,
          "maximum": 99999,
          "example": 610
        }
      }
    },
    "FinancialAccount": {
      "type": "object",
      "description": "Describe the billing account level attributes",
      "properties": {
        "accountInfo": {
          "$ref": "#/definitions/AccountInfo"
        },
        "creditProfileInfo": {
          "$ref": "#/definitions/CreditProfileInfo"
        },
        "extendedPaymentSchedule": {
          "description": "Extended payment schedule. sample values: true,, false",
          "type": "boolean",
          "example": true
        },
        "largeFinancialAccount": {
          "type": "boolean",
          "description": "defines large financial account status",
          "example": true
        }
      }
    },
    "SubscribersList": {
      "type": "object",
      "description": "Describe the list of subscriber and its currently active rate plan",
      "properties": {
        "mobileNumber": {
          "description": "unique subscriber number",
          "type": "string",
          "example": "3219605582"
        },
        "ratePlanCode": {
          "description": "currently active rate plan for respective subscriber",
          "type": "string",
          "example": "USAECA"
        }
      }
    },
    "FailedSubscribersList": {
      "type": "object",
      "description": "Describe the list of subscriber and its currently active rate plan",
      "properties": {
        "mobileNumber": {
          "description": "unique subscriber number",
          "type": "string",
          "example": "3219605582"
        },
        "errors": {
          "type": "array",
          "description": "list of errors",
          "items": {
            "$ref": "#/definitions/Error"
          }
        }
      }
    },
    "DeviceFinanceEipResponse": {
      "type": "object",
      "description": "Account attributes used to determine eligibility for device financing",
      "properties": {
        "financialAccount": {
          "$ref": "#/definitions/FinancialAccount"
        },
        "totalSubscribersCount": {
          "type": "integer",
          "format": "int32",
          "description": "total number of active and suspended subscribers in BAN",
          "minimum": 1,
          "maximum": 9999999,
          "x-example": 250
        },
        "filteredSubscribersList": {
          "description": "describe the subscriber level details for list of subscriber present in BAN",
          "type": "array",
          "items": {
            "$ref": "#/definitions/SubscribersList"
          }
        },
        "failedSubscribersList": {
          "description": "describe the failed subscriber list and its failure reason",
          "type": "array",
          "items": {
            "$ref": "#/definitions/FailedSubscribersList"
          }
        }
      },
      "required": [
        "financialAccount",
        "totalSubscribersCount",
        "filteredSubscribersList"
      ]
    }
  },
  "securityDefinitions": {}
}