﻿{
  "swagger": "2.0",
  "x-servers": "",
  "tags": [
    {
      "name": "Order"
    }
  ],
  "info": {
    "title": "migration-order-ms-v1",
    "description": "Capability SA for migration order creation.",
    "version": "1.0.0",
    "contact": {
      "name": "Amir Afrimian",
      "email": "amir.afrimian@t-mobile.com"
    },
    "x-createdBy": {
      "dateCreated": "Tue Jun 26 10:04:18 2018",
      "createdBy": "Amir Afrimian",
      "application": "Recite",
      "appVersion": "0.3.6.2170",
      "status": "Conceptual - Initial",
      "classification": "1.0 Customer Interaction Management",
      "profile": "Core Business Capability Service ",
      "serviceLayer": "Enterprise - Billing"
    }
  },
  "host": "dev01.api.t-mobile.com",
  "basePath": "/billing/v1/order",
  "schemes": [
    "https"
  ],
  "paths": {
    "/activation": {
      "post": {
        "tags": [
          "Order"
        ],
        "summary": "submit migration order",
        "description": "submit migration order",
        "operationId": "submitOrder",
        "x-api-pattern": "ExecuteFunction",
        "security": [],
        "consumes": [
          "application/json"
        ],
        "produces": [
          "application/json"
        ],
        "parameters": [
          {
            "name": "orderRequest",
            "required": true,
            "in": "body",
            "description": "submit migration order",
            "schema": {
              "$ref": "#/definitions/OrderCreationRequest"
            }
          },
          {
            "$ref": "#/parameters/header-activityid"
          },
          {
            "$ref": "#/parameters/header-Content-Type"
          },
          {
            "$ref": "#/parameters/header-X-Authorization"
          },
          {
            "$ref": "#/parameters/header-X-Auth-Originator"
          },
          {
            "$ref": "#/parameters/header-Accept"
          },
          {
            "$ref": "#/parameters/header-Accept-Charset"
          },
          {
            "$ref": "#/parameters/header-Accept-Encoding"
          },
          {
            "$ref": "#/parameters/header-Accept-Language"
          },
          {
            "$ref": "#/parameters/header-Authorization"
          },
          {
            "$ref": "#/parameters/header-Date"
          },
          {
            "$ref": "#/parameters/header-If-Modified-Since"
          },
          {
            "$ref": "#/parameters/header-If-None-Match"
          },
          {
            "$ref": "#/parameters/header-interaction-id"
          },
          {
            "$ref": "#/parameters/header-service-transaction-id"
          },
          {
            "$ref": "#/parameters/header-session-id"
          },
          {
            "$ref": "#/parameters/header-timestamp"
          },
          {
            "$ref": "#/parameters/header-workflow-id"
          },
          {
            "$ref": "#/parameters/header-dealer-code"
          },
          {
            "$ref": "#/parameters/header-master-dealer-code"
          },
          {
            "$ref": "#/parameters/header-store-id"
          }
        ],
        "responses": {
          "200": {
            "description": "The charges resource has been found.  Returning the ban charges.",
            "headers": {
              "Cache-Control": {
                "description": "Cache policy supported for the resource by the server",
                "x-example": "no-cache",
                "type": "string",
                "minLength": 1,
                "maxLength": 256,
                "pattern": "^[\\S]*$"
              },
              "Content-Encoding": {
                "description": "The type of encoding used on the data",
                "x-example": "gzip,deflate",
                "type": "string",
                "pattern": "^[\\S]*$",
                "minLength": 1,
                "maxLength": 15
              },
              "Content-Length": {
                "description": "Length of the response body in octets; not supported if Transfer-Endoding = chunked",
                "x-example": "9112300000003",
                "type": "integer",
                "pattern": "^[\\d]*$",
                "format": "int64",
                "minimum": 0
              },
              "Content-Type": {
                "description": "The MIME type of this content",
                "x-example": "text/xml",
                "type": "string",
                "pattern": "^[ \\S]+$",
                "minLength": 1,
                "maxLength": 256
              },
              "Date": {
                "minLength": 1,
                "maxLength": 256,
                "description": "The Date general HTTP header contains the date and time at which the message was originated.",
                "x-example": "Mon, 05 Mar 2018 16:38:08 GMT",
                "type": "string",
                "format": "date-time",
                "pattern": "^(Mon|Tue|Wed|Thu|Fri|Sat|Sun), [0-3]{1}[0-9]{1} (Jan|Feb|Mar|Apr|May|Jun|Jul|Aug|Sep|Oct|Nov|Dec) [1-3][0-9]{3} [0-2][0-9]:[0-6][0-9]:[0-6][0-9] GMT$"
              },
              "Transfer-Encoding": {
                "description": "The form of encoding used to safely transfer the entity to the user. Currently defined methods are: chunked, compress, deflate, gzip, identity.",
                "x-example": "chunked",
                "type": "string",
                "pattern": "^[\\S]*$",
                "minLength": 1,
                "maxLength": 15
              },
              "service-transaction-id": {
                "description": "Request ID echoed back by server",
                "x-example": "23409209723",
                "type": "string",
                "pattern": "^[\\S]*$",
                "minLength": 1,
                "maxLength": 256
              },
              "Content-Language": {
                "description": "The natural language or languages of the intended audience for the enclosed content",
                "x-example": "da",
                "type": "string",
                "minLength": 1,
                "maxLength": 15,
                "pattern": "^[\\S ]*$"
              },
              "ETag": {
                "description": "The ETag header specifies the unique entity tag value for the returned resource.",
                "x-example": "*",
                "type": "string",
                "minLength": 1,
                "maxLength": 256,
                "pattern": "^[\\S]*$"
              },
              "Last-Modified": {
                "minLength": 1,
                "maxLength": 256,
                "description": "The Last-Modified entity-header field indicates the date and time at which the origin server believes the variant was last modified.",
                "x-example": "Mon, 05 Mar 2018 16:38:08 GMT",
                "type": "string",
                "format": "date-time",
                "pattern": "^(Mon|Tue|Wed|Thu|Fri|Sat|Sun), [0-3]{1}[0-9]{1} (Jan|Feb|Mar|Apr|May|Jun|Jul|Aug|Sep|Oct|Nov|Dec) [1-3][0-9]{3} [0-2][0-9]:[0-6][0-9]:[0-6][0-9] GMT$"
              }
            }
          },
          "400": {
            "description": "Bad Request.",
            "schema": {
              "$ref": "#/definitions/Error"
            },
            "examples": {
              "application/json": {
                "code": "400",
                "userMessage": "Bad Request.",
                "systemMessage": "Bad Request.",
                "detailLink": "http://www.tmus.com"
              }
            },
            "headers": {}
          },
          "401": {
            "description": "Unauthorized.",
            "schema": {
              "$ref": "#/definitions/Error"
            },
            "examples": {
              "application/json": {
                "code": "401",
                "userMessage": "Unauthorized.",
                "systemMessage": "Unauthorized.",
                "detailLink": "http://www.tmus.com"
              }
            },
            "headers": {}
          },
          "404": {
            "description": "Resource not found.",
            "schema": {
              "$ref": "#/definitions/Error"
            },
            "examples": {
              "application/json": {
                "code": "404",
                "userMessage": "Resource not found.",
                "systemMessage": "Resource not found.",
                "detailLink": "http://www.tmus.com"
              }
            },
            "headers": {}
          },
          "405": {
            "description": "Method Not Allowed.",
            "schema": {
              "$ref": "#/definitions/Error"
            },
            "examples": {
              "application/json": {
                "code": "405",
                "userMessage": "Method Not Allowed.",
                "systemMessage": "Method Not Allowed.",
                "detailLink": "http://www.tmus.com"
              }
            },
            "headers": {
              "Allow": {
                "description": "list of supported methods for URI",
                "x-example": "GET",
                "type": "string",
                "minLength": 1,
                "maxLength": 256,
                "pattern": "^[\\S]*$"
              },
              "service-transaction-id": {
                "description": "Request ID echoed back by server",
                "x-example": "23409209723",
                "type": "string",
                "minLength": 1,
                "maxLength": 256,
                "pattern": "^[\\S]*$"
              }
            }
          },
          "409": {
            "description": "Invalid data.",
            "schema": {
              "$ref": "#/definitions/Error"
            },
            "examples": {
              "application/json": {
                "code": "409",
                "userMessage": "Invalid data.",
                "systemMessage": "Invalid data.",
                "detailLink": "http://www.tmus.com"
              }
            },
            "headers": {}
          },
          "415": {
            "description": "Unsupported Media Type.",
            "schema": {
              "$ref": "#/definitions/Error"
            },
            "examples": {
              "application/json": {
                "code": "415",
                "userMessage": "Unsupported Media Type.",
                "systemMessage": "Unsupported Media Type.",
                "detailLink": "http://www.tmus.com"
              }
            },
            "headers": {}
          },
          "500": {
            "description": "System Error.",
            "schema": {
              "$ref": "#/definitions/Error"
            },
            "examples": {
              "application/json": {
                "code": "500",
                "userMessage": "System Error.",
                "systemMessage": "System Error.",
                "detailLink": "http://www.tmus.com"
              }
            },
            "headers": {}
          },
          "503": {
            "description": "Service unavailable.",
            "schema": {
              "$ref": "#/definitions/Error"
            },
            "examples": {
              "application/json": {
                "code": "503",
                "userMessage": "Service unavailable.",
                "systemMessage": "Service unavailable.",
                "detailLink": "http://www.tmus.com"
              }
            },
            "headers": {}
          }
        }
      }
    },
    "/activation-validation": {
      "post": {
        "tags": [
          "Order"
        ],
        "summary": "validate migration order",
        "description": "validate migration order",
        "operationId": "validateOrder",
        "x-api-pattern": "ExecuteFunction",
        "security": [],
        "consumes": [
          "application/json"
        ],
        "produces": [
          "application/json"
        ],
        "parameters": [
          {
            "name": "orderValidationRequest",
            "required": true,
            "in": "body",
            "description": "validate migration order",
            "schema": {
              "$ref": "#/definitions/OrderValidationRequest"
            }
          },
          {
            "$ref": "#/parameters/header-activityid"
          },
          {
            "$ref": "#/parameters/header-Content-Type"
          },
          {
            "$ref": "#/parameters/header-X-Authorization"
          },
          {
            "$ref": "#/parameters/header-X-Auth-Originator"
          },
          {
            "$ref": "#/parameters/header-Accept"
          },
          {
            "$ref": "#/parameters/header-Accept-Charset"
          },
          {
            "$ref": "#/parameters/header-Accept-Encoding"
          },
          {
            "$ref": "#/parameters/header-Accept-Language"
          },
          {
            "$ref": "#/parameters/header-Authorization"
          },
          {
            "$ref": "#/parameters/header-Date"
          },
          {
            "$ref": "#/parameters/header-If-Modified-Since"
          },
          {
            "$ref": "#/parameters/header-If-None-Match"
          },
          {
            "$ref": "#/parameters/header-interaction-id"
          },
          {
            "$ref": "#/parameters/header-service-transaction-id"
          },
          {
            "$ref": "#/parameters/header-session-id"
          },
          {
            "$ref": "#/parameters/header-timestamp"
          },
          {
            "$ref": "#/parameters/header-workflow-id"
          },
          {
            "$ref": "#/parameters/header-dealer-code"
          },
          {
            "$ref": "#/parameters/header-master-dealer-code"
          },
          {
            "$ref": "#/parameters/header-store-id"
          }
        ],
        "responses": {
          "200": {
            "schema": {
              "$ref": "#/definitions/OrderValidationResponse"
            },
            "examples": {
              "application/json": {
                "token": "eyJraWQiOiI0Nzc1M2UzZi0zOGFjLTQ1ODQtZDcxYy0zZDgxYTE1Nzk5NWMiLCJ0eXAiOiJKV1QiLCJhbGciOiJSUzI1NiJ9.eyJzdWIiOiJ0SXlBTXBRYUpWazJPYU83YmY2T2dTUUM1UHkzWTBxbSIsInJ0Ijoie1wic2VnbWVudGF0aW9uSWRcIjpcIlBPTEFSSVNcIn0iLCJpc3MiOiJodHRwczpcL1wvcWF0MDEuYXBpLnQtbW9iaWxlLmNvbVwvb2F1dGgyXC92NCIsIm1hc3RlckRlYWxlckNvZGUiOiIiLCJhdXRoVGltZSI6IjE1NTcxNjQyNjQzMTkiLCJ1c24iOiIwZDIwOGQwYy02NDRlLTk1NGQtN2I0ZC00MmFkM2NkNzY4NjEiLCJhdWQiOiJ0SXlBTXBRYUpWazJPYU83YmY2T2dTUUM1UHkzWTBxbSIsInNlbmRlcklkIjoiIiwibmJmIjoxNTU3MTY0MjY0LCJhcHBsaWNhdGlvbklkIjoiIiwiZXhwIjoxNTU3MTY3ODY0LCJpYXQiOjE1NTcxNjQyNjQsImNoYW5uZWxJZCI6IiIsImp0aSI6IjA5N2U3M2M2LTlmNzQtOTk3My00OWU0LWJkMDQ4ZWM5OGZjNyJ9.BpivoxWrONtOvrwZM4UBjbbHhCnIqFWxx5AV_zUVEFjCvedcvKoTkCIAUmBmyM3XWn1ycYbjwsTTgvHrgfbkegkN2_NHjpm-FoJjLtTnyiVVX5kGMKSNWcgK6lEOBDZyv_kBLxcMx7JQLAsHhIDmkpKLjWCff_U2hKq8lKPUXqLPaP4FdLgX2gVM5xN2tuuiVBAheAXkh-fGodbRNDRJcL1PwQ64bnGW6JlSBmCkozTokDH-KUkLjBZq5SZIZbzR65v_djOV_CLTXDgzmdGEO6fISRho_7c8nkvKyBgQD9JrVPRGHza5pKY9BNxKN3wtK2t6qXrkJbGSLB67b1MhfA"
              }
            },
            "description": "The charges resource has been found.  Returning the ban charges.",
            "headers": {
              "Cache-Control": {
                "description": "Cache policy supported for the resource by the server",
                "x-example": "no-cache",
                "type": "string",
                "minLength": 1,
                "maxLength": 256,
                "pattern": "^[\\S]*$"
              },
              "Content-Encoding": {
                "description": "The type of encoding used on the data",
                "x-example": "gzip,deflate",
                "type": "string",
                "pattern": "^[\\S]*$",
                "minLength": 1,
                "maxLength": 15
              },
              "Content-Length": {
                "description": "Length of the response body in octets; not supported if Transfer-Endoding = chunked",
                "x-example": "9112300000003",
                "type": "integer",
                "pattern": "^[\\d]*$",
                "format": "int64",
                "minimum": 0
              },
              "Content-Type": {
                "description": "The MIME type of this content",
                "x-example": "text/xml",
                "type": "string",
                "pattern": "^[ \\S]+$",
                "minLength": 1,
                "maxLength": 256
              },
              "Date": {
                "minLength": 1,
                "maxLength": 256,
                "description": "The Date general HTTP header contains the date and time at which the message was originated.",
                "x-example": "Mon, 05 Mar 2018 16:38:08 GMT",
                "type": "string",
                "format": "date-time",
                "pattern": "^(Mon|Tue|Wed|Thu|Fri|Sat|Sun), [0-3]{1}[0-9]{1} (Jan|Feb|Mar|Apr|May|Jun|Jul|Aug|Sep|Oct|Nov|Dec) [1-3][0-9]{3} [0-2][0-9]:[0-6][0-9]:[0-6][0-9] GMT$"
              },
              "Transfer-Encoding": {
                "description": "The form of encoding used to safely transfer the entity to the user. Currently defined methods are: chunked, compress, deflate, gzip, identity.",
                "x-example": "chunked",
                "type": "string",
                "pattern": "^[\\S]*$",
                "minLength": 1,
                "maxLength": 15
              },
              "service-transaction-id": {
                "description": "Request ID echoed back by server",
                "x-example": "23409209723",
                "type": "string",
                "pattern": "^[\\S]*$",
                "minLength": 1,
                "maxLength": 256
              },
              "Content-Language": {
                "description": "The natural language or languages of the intended audience for the enclosed content",
                "x-example": "da",
                "type": "string",
                "minLength": 1,
                "maxLength": 15,
                "pattern": "^[\\S ]*$"
              },
              "ETag": {
                "description": "The ETag header specifies the unique entity tag value for the returned resource.",
                "x-example": "*",
                "type": "string",
                "minLength": 1,
                "maxLength": 256,
                "pattern": "^[\\S]*$"
              },
              "Last-Modified": {
                "minLength": 1,
                "maxLength": 256,
                "description": "The Last-Modified entity-header field indicates the date and time at which the origin server believes the variant was last modified.",
                "x-example": "Mon, 05 Mar 2018 16:38:08 GMT",
                "type": "string",
                "format": "date-time",
                "pattern": "^(Mon|Tue|Wed|Thu|Fri|Sat|Sun), [0-3]{1}[0-9]{1} (Jan|Feb|Mar|Apr|May|Jun|Jul|Aug|Sep|Oct|Nov|Dec) [1-3][0-9]{3} [0-2][0-9]:[0-6][0-9]:[0-6][0-9] GMT$"
              }
            }
          },
          "400": {
            "description": "Bad Request.",
            "schema": {
              "$ref": "#/definitions/Error"
            },
            "examples": {
              "application/json": {
                "code": "400",
                "userMessage": "Bad Request.",
                "systemMessage": "Bad Request.",
                "detailLink": "http://www.tmus.com"
              }
            },
            "headers": {}
          },
          "401": {
            "description": "Unauthorized.",
            "schema": {
              "$ref": "#/definitions/Error"
            },
            "examples": {
              "application/json": {
                "code": "401",
                "userMessage": "Unauthorized.",
                "systemMessage": "Unauthorized.",
                "detailLink": "http://www.tmus.com"
              }
            },
            "headers": {}
          },
          "404": {
            "description": "Resource not found.",
            "schema": {
              "$ref": "#/definitions/Error"
            },
            "examples": {
              "application/json": {
                "code": "404",
                "userMessage": "Resource not found.",
                "systemMessage": "Resource not found.",
                "detailLink": "http://www.tmus.com"
              }
            },
            "headers": {}
          },
          "405": {
            "description": "Method Not Allowed.",
            "schema": {
              "$ref": "#/definitions/Error"
            },
            "examples": {
              "application/json": {
                "code": "405",
                "userMessage": "Method Not Allowed.",
                "systemMessage": "Method Not Allowed.",
                "detailLink": "http://www.tmus.com"
              }
            },
            "headers": {
              "Allow": {
                "description": "list of supported methods for URI",
                "x-example": "GET",
                "type": "string",
                "minLength": 1,
                "maxLength": 256,
                "pattern": "^[\\S]*$"
              },
              "service-transaction-id": {
                "description": "Request ID echoed back by server",
                "x-example": "23409209723",
                "type": "string",
                "minLength": 1,
                "maxLength": 256,
                "pattern": "^[\\S]*$"
              }
            }
          },
          "409": {
            "description": "Invalid data.",
            "schema": {
              "$ref": "#/definitions/Error"
            },
            "examples": {
              "application/json": {
                "code": "409",
                "userMessage": "Invalid data.",
                "systemMessage": "Invalid data.",
                "detailLink": "http://www.tmus.com"
              }
            },
            "headers": {}
          },
          "415": {
            "description": "Unsupported Media Type.",
            "schema": {
              "$ref": "#/definitions/Error"
            },
            "examples": {
              "application/json": {
                "code": "415",
                "userMessage": "Unsupported Media Type.",
                "systemMessage": "Unsupported Media Type.",
                "detailLink": "http://www.tmus.com"
              }
            },
            "headers": {}
          },
          "500": {
            "description": "System Error.",
            "schema": {
              "$ref": "#/definitions/Error"
            },
            "examples": {
              "application/json": {
                "code": "500",
                "userMessage": "System Error.",
                "systemMessage": "System Error.",
                "detailLink": "http://www.tmus.com"
              }
            },
            "headers": {}
          },
          "503": {
            "description": "Service unavailable.",
            "schema": {
              "$ref": "#/definitions/Error"
            },
            "examples": {
              "application/json": {
                "code": "503",
                "userMessage": "Service unavailable.",
                "systemMessage": "Service unavailable.",
                "detailLink": "http://www.tmus.com"
              }
            },
            "headers": {}
          }
        }
      }
    },
    "/account-migration": {
      "post": {
        "tags": [
          "getAccountMigrationDetails"
        ],
        "x-api-pattern": "CreateInCollection",
        "summary": "get Account Migration Details",
        "description": "get Account Migration Details.",
        "operationId": "getAccountMigrationDetails",
        "consumes": [
          "application/json"
        ],
        "produces": [
          "application/json"
        ],
        "parameters": [
          {
            "name": "getAccountMigrationDetailsRequest",
            "in": "body",
            "description": "Get migrated account details request",
            "required": true,
            "schema": {
              "$ref": "#/definitions/GetAccountMigrationDetailsRequest"
            }
          },
          {
            "name": "Accept",
            "in": "header",
            "description": "Preferred content type _ default to application/json",
            "x-example": "application/json",
            "required": false,
            "type": "string",
            "minLength": 1,
            "maxLength": 256,
            "pattern": "^[ \\S]+$"
          },
          {
            "name": "Authorization",
            "in": "header",
            "description": "The HTTP Authorization request header contains the credentials to authenticate a user agent with a server.",
            "x-example": "Bearer mF_9.B5f-4.1JqM",
            "required": true,
            "type": "string",
            "minLength": 1,
            "maxLength": 256,
            "pattern": "^[\\S ]+$"
          },
          {
            "name": "Content-Type",
            "in": "header",
            "description": "The MIME type of this content",
            "x-example": "text/xml",
            "required": true,
            "type": "string",
            "minLength": 1,
            "maxLength": 256,
            "pattern": "^[ \\S]+$"
          },
          {
            "name": "Date",
            "in": "header",
            "description": "The Date general HTTP header contains the date and time at which the message was originated.",
            "x-example": "Mon, 05 Mar 2018 16:38:08 GMT",
            "required": false,
            "type": "string",
            "format": "date-time",
            "pattern": "^(Mon|Tue|Wed|Thu|Fri|Sat|Sun), [0-3]{1}[0-9]{1} (Jan|Feb|Mar|Apr|May|Jun|Jul|Aug|Sep|Oct|Nov|Dec) [1-3][0-9]{3} [0-2][0-9]:[0-6][0-9]:[0-6][0-9] GMT$"
          },
          {
            "name": "activity-id",
            "in": "header",
            "description": "Unique id alphanumeric value generated and sent by the partner to identify every the service request uniquely. Sample: XyzA:D1s5s1i-X6AFRvfiPBfs-1234  Pass as is to downstream calls.",
            "x-example": "c34e7acd-384b-4c22-8b02-ba3963682508",
            "required": false,
            "type": "string",
            "minLength": 1,
            "maxLength": 256,
            "pattern": "^[\\S]*$"
          },
          {
            "name": "interaction-id",
            "in": "header",
            "description": "Alphanumeric value represent a common transaction id across all calls made from UI, while completing all business activity needs of a particular customer.",
            "x-example": "cc688d54-50d1-49d4-8c5d-95459d1172e8",
            "required": false,
            "type": "string",
            "minLength": 1,
            "maxLength": 256,
            "pattern": "^[\\S]*$"
          },
          {
            "name": "service-transaction-id",
            "in": "header",
            "description": "Request ID echoed back by server",
            "x-example": "23409209723",
            "required": false,
            "type": "string",
            "minLength": 1,
            "maxLength": 256,
            "pattern": "^[\\S]*$"
          },
          {
            "name": "session-id",
            "in": "header",
            "description": "A value populated by the sender used to track the transactions that occur during a session, a long-lasting interaction that ismaintained by the sender.",
            "x-example": "350b91ec-4a64-4b10-a3f3-a78c8db3924a",
            "required": false,
            "type": "string",
            "minLength": 1,
            "maxLength": 256,
            "pattern": "^[\\S]*$"
          },
          {
            "name": "timestamp",
            "in": "header",
            "description": "ms since 1/1/70 adjusted to GMT",
            "x-example": "1524599536",
            "required": false,
            "type": "integer",
            "format": "int64",
            "minimum": 0,
            "maximum": 999999999999,
            "pattern": "^[\\d]*$"
          },
          {
            "name": "workflow-id",
            "in": "header",
            "description": "Business Use Case",
            "x-example": "ACTIVATION",
            "required": false,
            "type": "string",
            "minLength": 1,
            "maxLength": 256,
            "pattern": "^[\\S]*$"
          },
          {
            "name": "x-auth-originator",
            "in": "header",
            "description": "API chain initiating callers access token",
            "x-example": "c34e7acd-384b-4c22-8b02-ba3963682508",
            "required": false,
            "type": "string",
            "minLength": 1,
            "maxLength": 256,
            "pattern": "^[\\S]*$"
          },
          {
            "name": "x-authorization",
            "in": "header",
            "description": "Contains Proof of Possession token generated by API caller",
            "x-example": "c34e7acd-384b-4c22-8b02-ba3963682508",
            "required": false,
            "type": "string",
            "minLength": 1,
            "maxLength": 256,
            "pattern": "^[\\S ]*$"
          }
        ],
        "responses": {
          "200": {
            "description": "Ok",
            "schema": {
              "$ref": "#/definitions/GetAccountMigrationDetailsResponse"
            },
            "headers": {
              "Cache-Control": {
                "description": "Cache policy supported for the resource by the server",
                "x-example": "no-cache",
                "type": "string",
                "minLength": 1,
                "maxLength": 256,
                "pattern": "^[\\S]*$"
              },
              "Date": {
                "description": "The Date general HTTP header contains the date and time at which the message was originated.",
                "x-example": "Mon, 05 Mar 2018 16:38:08 GMT",
                "type": "string",
                "format": "date-time",
                "pattern": "^(Mon|Tue|Wed|Thu|Fri|Sat|Sun), [0-3]{1}[0-9]{1} (Jan|Feb|Mar|Apr|May|Jun|Jul|Aug|Sep|Oct|Nov|Dec) [1-3][0-9]{3} [0-2][0-9]:[0-6][0-9]:[0-6][0-9] GMT$"
              },
              "ETag": {
                "description": "The ETag header specifies the unique entity tag value for the returned resource.",
                "x-example": "*",
                "type": "string",
                "minLength": 1,
                "maxLength": 256,
                "pattern": "^[\\S]*$"
              },
              "Location": {
                "description": "The Location header specifies the URI of a created resource, or redirects the API consumer to an alternate resource location.",
                "x-example": "http://api.t-mo.com/order-mgmt/v1/orders/123xyz-0/status",
                "type": "string",
                "minLength": 1,
                "maxLength": 65536,
                "pattern": "^[\\S]*$"
              },
              "Transfer-Encoding": {
                "description": "The form of encoding used to safely transfer the entity to the user. Currently defined methods are: chunked, compress, deflate, gzip, identity.",
                "x-example": "chunked",
                "type": "string",
                "minLength": 1,
                "maxLength": 15,
                "pattern": "^[\\S]*$"
              },
              "service-transaction-id": {
                "description": "Request ID echoed back by server",
                "x-example": "23409209723",
                "type": "string",
                "minLength": 1,
                "maxLength": 256,
                "pattern": "^[\\S]*$"
              }
            }
          },
          "400": {
            "description": "Bad Request",
            "schema": {
              "$ref": "#/definitions/Error"
            },
            "examples": {
              "application/json": {
                "code": "400",
                "userMessage": "Bad Request",
                "systemMessage": "Bad Request",
                "detailLink": "http://www.tmus.com"
              }
            },
            "headers": {}
          },
          "401": {
            "description": "Unauthorized",
            "schema": {
              "$ref": "#/definitions/Error"
            },
            "examples": {
              "application/json": {
                "code": "401",
                "userMessage": "Unauthorized",
                "systemMessage": "Unauthorized",
                "detailLink": "http://www.tmus.com"
              }
            },
            "headers": {}
          },
          "403": {
            "description": "Client access denied",
            "schema": {
              "$ref": "#/definitions/Error"
            },
            "examples": {
              "application/json": {
                "code": "403",
                "userMessage": "Client access denied",
                "systemMessage": "Client access denied",
                "detailLink": "http://www.tmus.com"
              }
            },
            "headers": {}
          },
          "404": {
            "description": "Resource not found",
            "schema": {
              "$ref": "#/definitions/Error"
            },
            "examples": {
              "application/json": {
                "code": "404",
                "userMessage": "Resource not found",
                "systemMessage": "Resource not found",
                "detailLink": "http://www.tmus.com"
              }
            },
            "headers": {}
          },
          "405": {
            "description": "Method Not Allowed",
            "schema": {
              "$ref": "#/definitions/Error"
            },
            "examples": {
              "application/json": {
                "code": "405",
                "userMessage": "Method Not Allowed",
                "systemMessage": "Method Not Allowed",
                "detailLink": "http://www.tmus.com"
              }
            },
            "headers": {
              "Allow": {
                "description": "list of supported methods for URI",
                "x-example": "GET",
                "type": "string",
                "minLength": 1,
                "maxLength": 256,
                "pattern": "^[\\S]*$"
              },
              "service-transaction-id": {
                "description": "Request ID echoed back by server",
                "x-example": "23409209723",
                "type": "string",
                "minLength": 1,
                "maxLength": 256,
                "pattern": "^[\\S]*$"
              }
            }
          },
          "406": {
            "description": "Mismatching data format",
            "schema": {
              "$ref": "#/definitions/Error"
            },
            "examples": {
              "application/json": {
                "code": "406",
                "userMessage": "Mismatching data format",
                "systemMessage": "Mismatching data format",
                "detailLink": "http://www.tmus.com"
              }
            },
            "headers": {}
          },
          "409": {
            "description": "Invalid data",
            "schema": {
              "$ref": "#/definitions/Error"
            },
            "examples": {
              "application/json": {
                "code": "409",
                "userMessage": "Invalid data",
                "systemMessage": "Invalid data",
                "detailLink": "http://www.tmus.com"
              }
            },
            "headers": {}
          },
          "415": {
            "description": "Unsupported Media Type",
            "schema": {
              "$ref": "#/definitions/Error"
            },
            "examples": {
              "application/json": {
                "code": "415",
                "userMessage": "Unsupported Media Type",
                "systemMessage": "Unsupported Media Type",
                "detailLink": "http://www.tmus.com"
              }
            },
            "headers": {}
          },
          "500": {
            "description": "System Error",
            "schema": {
              "$ref": "#/definitions/Error"
            },
            "examples": {
              "application/json": {
                "code": "500",
                "userMessage": "System Error",
                "systemMessage": "System Error",
                "detailLink": "http://www.tmus.com"
              }
            },
            "headers": {}
          },
          "503": {
            "description": "Service unavailable",
            "schema": {
              "$ref": "#/definitions/Error"
            },
            "examples": {
              "application/json": {
                "code": "503",
                "userMessage": "Service unavailable",
                "systemMessage": "Service unavailable",
                "detailLink": "http://www.tmus.com"
              }
            },
            "headers": {}
          }
        }
      }
    }
  },
  "definitions": {
    "AccountBaseData": {
      "description": "Account base data",
      "type": "object",
      "properties": {
        "financialAccountNumber": {
          "description": "The financial account number",
          "example": "123456789",
          "type": "string",
          "maxLength": 9,
          "pattern": "^(\\d{9})$"
        },
        "accountStatus": {
          "description": "A short hand identifier for the state of the Financial Account, at the point in time specified by the effectivePeriod.",
          "type": "string",
          "minLength": 1,
          "maxLength": 1,
          "enum": [
            "Tentative",
            "Open",
            "Suspended",
            "Cancelled",
            "Closed"
          ]
        },
        "financialAccountType": {
          "description": "The account type code.",
          "type": "string",
          "minLength": 1,
          "maxLength": 1,
          "enum": [
            "Exception Control",
            "Reseller",
            "Special",
            "Business",
            "Individual",
            "National",
            "Government",
            "MVNO"
          ],
          "pattern": "^[a-zA-Z0-9_\\-]*$"
        },
        "financialAccountSubType": {
          "description": "Code specifying the account subtype.",
          "type": "string",
          "minLength": 1,
          "maxLength": 1,
          "enum": [
            "Allience",
            "ECA",
            "Dealer",
            "Corporate",
            "GSA",
            "MCSA",
            "National",
            "Regular",
            "Sole proprietorship",
            "Prepaid",
            "Test Phones",
            "AGENT",
            "FlexPay Monthly Contract",
            "ONE_SS",
            "CREDIT_LIMIT",
            "BCG",
            "FlexPay Annual Contract",
            "Lifeline",
            "Family Mobile Customer",
            "Walmart Employee",
            "MVNO1 Simple",
            "No Credit",
            "Employee",
            "Non TMO Employee"
          ],
          "pattern": "^[a-zA-Z0-9_\\-]*$"
        }
      }
    },
    "AccountIndicators": {
      "description": "account indicators details",
      "type": "object",
      "properties": {
        "taxTreatment": {
          "description": "Tax Treatment . Possible Values TI - Tax Inclusive   TE - Tax Exclusive",
          "type": "string",
          "minLength": 2,
          "maxLength": 2,
          "enum": [
            "Tax Inclusive",
            "Tax Exclusive"
          ]
        },
        "epsIndicator": {
          "description": "Extended Payment Schedule Indicator",
          "type": "boolean",
          "default": false
        },
        "planType": {
          "description": "indicative of whether the Account is considered as NEO (N), Classic (C) or Legacy (empty or no tag) Account",
          "type": "string"
        },
        "upfrontPaymentEligibility": {
          "description": "Provides the list of transactions that are eligible for upfront payment and the possible values are M and N",
          "type": "string"
        },
        "isInvoluntarySuspended": {
          "description": "indicator to identify if the account is involuntary suspended",
          "type": "boolean",
          "default": false
        }
      }
    },
    "ContactAddress": {
      "description": "adress details",
      "type": "object",
      "properties": {
        "baseData": {
          "$ref": "#/definitions/BaseData"
        }
      }
    },
    "AddressBaseData": {
      "description": "address base data",
      "type": "object",
      "properties": {
        "addressLine1": {
          "description": "The first free form line, expressed as text, of an address",
          "type": "string",
          "minLength": 1,
          "maxLength": 128,
          "pattern": "^[\\S ]*$"
        },
        "addressLine2": {
          "description": "The second free form line, expressed as text, of an address",
          "type": "string",
          "minLength": 1,
          "maxLength": 128,
          "pattern": "^[\\S ]*$"
        },
        "city": {
          "description": "The name, expressed as text, of the city, town or village of this address",
          "type": "string",
          "minLength": 1,
          "maxLength": 256,
          "pattern": "^[a-zA-Z0-9\\-,\\.() ]*$"
        },
        "countryCode": {
          "description": "The unique identifier of a country for this address (Reference ISO 3166 and UN/ECE Rec 3)",
          "type": "string",
          "minLength": 3,
          "maxLength": 3,
          "pattern": "^[A-Z][A-Z][A-Z]$"
        },
        "geoCode": {
          "description": "Geographic coding metadata for identifying a location on the earths surface.",
          "type": "string"
        },
        "zip": {
          "description": "zip code of FAN address",
          "example": "10001",
          "type": "string",
          "pattern": "^[\\S]*$"
        },
        "stateCode": {
          "description": "Code of the state in which the city falls, where applicable (WA, TX, GA)",
          "type": "string",
          "minLength": 2,
          "maxLength": 2,
          "pattern": "^[A-Z][A-Z]$"
        },
        "type": {
          "description": "A code specifying the format of this address (STREET_ADDRESS, POBOX_ADDRESS, MILITARY_ADDRESS, FOREIGN_ADDRESS, HWY_ADDRESS, RURALROUTE_ADDRESS)",
          "type": "string",
          "enum": [
            "STREET",
            "POBOX",
            "MILITARY",
            "FOREIGN",
            "HIGHWAY",
            "RURALROUTE"
          ]
        },
        "taxAreaId": {
          "description": "tax area id",
          "type": "string"
        },
        "zip4": {
          "description": "The four characters or digits of the first zip code extension of the address",
          "example": "9401",
          "type": "string"
        }
      }
    },
    "Base": {
      "description": "contact base data details",
      "type": "object",
      "properties": {
        "socialSecurityNumber": {
          "description": "Social Security Number for this person, used for tax identification.  When used in a request, it must only be sent by secure transport. When used in a response, it should be blank or contain at most the last four digits.",
          "type": "string",
          "minLength": 4,
          "maxLength": 9,
          "pattern": "^[0-9]*$"
        },
        "birthDate": {
          "description": "Date of birth of the customer. (valid date format is - YYYYMMDD)",
          "type": "string",
          "example": "20010903"
        }
      }
    },
    "BaseData": {
      "description": "address base data",
      "type": "object",
      "properties": {
        "addressLine1": {
          "description": "The first free form line, expressed as text, of an address",
          "type": "string",
          "minLength": 1,
          "maxLength": 128,
          "pattern": "^[\\S ]*$"
        },
        "addressLine2": {
          "description": "The second free form line, expressed as text, of an address",
          "type": "string",
          "minLength": 1,
          "maxLength": 128,
          "pattern": "^[\\S ]*$"
        },
        "city": {
          "description": "The name, expressed as text, of the city, town or village of this address",
          "type": "string",
          "minLength": 1,
          "maxLength": 256,
          "pattern": "^[a-zA-Z0-9\\-,\\.() ]*$"
        },
        "countryCode": {
          "description": "The unique identifier of a country for this address (Reference ISO 3166 and UN/ECE Rec 3)",
          "type": "string",
          "minLength": 3,
          "maxLength": 3,
          "pattern": "^[A-Z][A-Z][A-Z]$"
        },
        "geoCode": {
          "description": "Geographic coding metadata for identifying a location on the earths surface.",
          "type": "string"
        },
        "postalCode": {
          "description": "A code used by the postal service for routing letters and packages.",
          "type": "string",
          "maxLength": 10,
          "pattern": "^[a-zA-Z0-9 \\-]*$"
        },
        "stateCode": {
          "description": "Code of the state in which the city falls, where applicable (WA, TX, GA)",
          "type": "string",
          "minLength": 2,
          "maxLength": 2,
          "pattern": "^[A-Z][A-Z]$"
        },
        "type": {
          "description": "A code specifying the format of this address (STREET_ADDRESS, POBOX_ADDRESS, MILITARY_ADDRESS, FOREIGN_ADDRESS, HWY_ADDRESS, RURALROUTE_ADDRESS)",
          "type": "string",
          "enum": [
            "STREET",
            "POBOX",
            "MILITARY",
            "FOREIGN",
            "HIGHWAY",
            "RURALROUTE"
          ]
        },
        "taxAreaId": {
          "description": "tax area id",
          "type": "string"
        },
        "zip4": {
          "description": "Postal code of the store",
          "type": "string",
          "maxLength": 10,
          "pattern": "^[a-zA-Z0-9 \\-]*$"
        }
      }
    },
    "BillingProfile": {
      "description": "billing profile details",
      "type": "object",
      "properties": {
        "billCycleCode": {
          "description": "Alphanumeric identifier of the bill cycle. Sometimes equal to the day of the month. More than one bill cycle may run on the same day of the month, including different accounts in each bill cycle.",
          "type": "string"
        },
        "delinquentStatusCode": {
          "description": "Delinquent Status Code",
          "type": "string",
          "minLength": 0,
          "maxLength": 10
        }
      }
    },
    "Contact": {
      "description": "contact details",
      "type": "object",
      "properties": {
        "base": {
          "$ref": "#/definitions/Base"
        },
        "nameData": {
          "$ref": "#/definitions/NameData"
        },
        "creditData": {
          "$ref": "#/definitions/CreditData"
        },
        "method": {
          "$ref": "#/definitions/Method"
        }
      }
    },
    "CreditData": {
      "description": "credit classifications details",
      "type": "object",
      "properties": {
        "creditClass": {
          "description": "The calculated credit classification of the customer.",
          "type": "string"
        }
      }
    },
    "EMail": {
      "description": "email details",
      "type": "object",
      "properties": {
        "emailAddress": {
          "description": "Email address of the recipient of the notification.",
          "type": "string",
          "minLength": 6,
          "maxLength": 256,
          "pattern": "^([a-zA-Z0-9_\\-\\.]+)@([a-zA-Z0-9_\\-\\.]+)\\.([a-zA-Z]{2,5})$"
        }
      }
    },
    "Error": {
      "description": "As defined in http://api-standards.apps.px-npe01.cf.t-mobile.com/http/status-codes/error-response-format/",
      "type": "object",
      "required": [
        "code",
        "userMessage"
      ],
      "properties": {
        "code": {
          "description": "A succinct, domain-specific, human-readable text string to identify the type of error for the given status code",
          "example": "ProductNotFound",
          "type": "string",
          "pattern": "^[\\S ]+$"
        },
        "userMessage": {
          "description": "A human-readable message describing the error.",
          "example": "Failed to find product.",
          "type": "string",
          "pattern": "^[\\S ]+$"
        },
        "systemMessage": {
          "description": "Text that provides a more detailed technical explanation of the error",
          "example": "PRODUCT_NOT_FOUND",
          "type": "string"
        },
        "detailLink": {
          "description": "link to custom information providing greater detail on error or errors",
          "example": "http://aaa.bbb.ccc/",
          "type": "string"
        }
      }
    },
    "GetAccountMigrationDetailsRequest": {
      "description": "Get migrated account details request",
      "type": "object",
      "properties": {
        "financialAccountNumber": {
          "description": "The financial account number",
          "example": "123456789",
          "type": "string",
          "maxLength": 9,
          "pattern": "^(\\d{9})$"
        },
        "mobileNumber": {
          "description": "The Number of the subscriber.",
          "example": "1234567809",
          "pattern": "^\\d{10}$",
          "type": "string"
        },
        "requestTime": {
          "description": "The current request time. This will be in UTC format.",
          "example": "2018-10-23T07:09:30.762Z",
          "type": "string",
          "format": "date-time"
        }
      }
    },
    "GetAccountMigrationDetailsResponse": {
      "description": "Get Account Details response",
      "type": "object",
      "properties": {
        "accountBaseData": {
          "$ref": "#/definitions/AccountBaseData"
        },
        "accountIndicators": {
          "$ref": "#/definitions/AccountIndicators"
        },
        "billingProfile": {
          "$ref": "#/definitions/BillingProfile"
        },
        "contact": {
          "$ref": "#/definitions/Contact"
        },
        "stmtBalance": {
          "$ref": "#/definitions/StmtBalance"
        },
        "noOfActiveSubscribers": {
          "description": "number of active subscriber",
          "example": "0",
          "type": "integer",
          "format": "int32",
          "default": 0,
          "minimum": 0,
          "maximum": 2147483647,
          "pattern": "^[\\-+]?[0-9]+$"
        },
        "noOfCancelledSubscribers": {
          "description": "number of cancelled subscriber",
          "example": "0",
          "type": "integer",
          "format": "int32",
          "default": 0,
          "minimum": 0,
          "maximum": 2147483647,
          "pattern": "^[\\-+]?[0-9]+$"
        },
        "noOfSuspendedSubscribers": {
          "description": "number of suspended subscriber",
          "example": "0",
          "type": "integer",
          "format": "int32",
          "default": 0,
          "minimum": 0,
          "maximum": 2147483647,
          "pattern": "^[\\-+]?[0-9]+$"
        },
        "noOfReservedSubscribers": {
          "description": "number of reserved subscriber",
          "example": "0",
          "type": "integer",
          "format": "int32",
          "default": 0,
          "minimum": 0,
          "maximum": 2147483647,
          "pattern": "^[\\-+]?[0-9]+$"
        },
        "listOfSubscriberInfo": {
          "description": "An array of listOfSubscriberInfo objects.",
          "type": "array",
          "items": {
            "$ref": "#/definitions/ListOfSubscriberInfo"
          }
        }
      }
    },
    "ListOfSubscriberInfo": {
      "description": "subscribers information list",
      "type": "object",
      "properties": {
        "subscriberInfo": {
          "$ref": "#/definitions/SubscriberInfo"
        },
        "subscriberContract": {
          "$ref": "#/definitions/SubscriberContract"
        }
      }
    },
    "Method": {
      "description": "contact method details",
      "type": "object",
      "properties": {
        "address": {
          "$ref": "#/definitions/ContactAddress"
        },
        "phone": {
          "$ref": "#/definitions/Phone"
        },
        "eMail": {
          "$ref": "#/definitions/EMail"
        }
      }
    },
    "NameData": {
      "description": "name data details",
      "type": "object",
      "properties": {
        "firstName": {
          "description": "Represents the first name.",
          "type": "string",
          "maxLength": 256,
          "pattern": "^[a-zA-Z][a-zA-Z\\d\\-\\.,() ]*$"
        },
        "lastName": {
          "description": "Represents the last name.",
          "type": "string",
          "maxLength": 256,
          "pattern": "^[a-zA-Z][a-zA-Z\\d\\-\\.,() ]*$"
        },
        "middleName": {
          "description": "Middle name or initial of a person",
          "type": "string",
          "maxLength": 256,
          "pattern": "^[a-zA-Z][a-zA-Z\\d\\-\\.,() ]*$"
        },
        "nameSuffix": {
          "description": "Suffix to the last name, such as Senior, III, the Third etc.",
          "type": "string",
          "minLength": 1,
          "maxLength": 50,
          "pattern": "^[a-zA-Z0-9_\\-]*$"
        },
        "titleCode": {
          "description": "Is the title of the person. For example Dr, Senator, Mr..",
          "type": "string",
          "minLength": 1,
          "maxLength": 50,
          "pattern": "^[a-zA-Z0-9_\\-]*$"
        },
        "additionalTitle": {
          "description": "Is the title of the person. For example Dr, Senator, Mr..",
          "type": "string",
          "minLength": 1,
          "maxLength": 50,
          "pattern": "^[a-zA-Z0-9_\\-]*$"
        }
      }
    },
    "Phone": {
      "description": "phone details",
      "type": "object",
      "properties": {
        "telephoneNumber": {
          "description": "contact number",
          "type": "string"
        },
        "telephoneNumberExt": {
          "description": "contact ext",
          "type": "string"
        },
        "workTelephoneNumber": {
          "description": "work tel number",
          "type": "string"
        },
        "workTelephoneNumberExt": {
          "description": "work tel ext",
          "type": "string"
        },
        "homeTelephoneNumber": {
          "description": "home tel no",
          "type": "string"
        },
        "otherTelephoneNumber": {
          "description": "other tel no",
          "type": "string"
        },
        "otherTelephoneNumberType": {
          "description": "other telno type",
          "type": "string"
        },
        "otherTelephoneNumberExt": {
          "description": "other tel ext",
          "type": "string"
        }
      }
    },
    "StmtBalance": {
      "description": "stmt Balance",
      "type": "object",
      "properties": {
        "currentDueAmount": {
          "description": "Current due amount",
          "type": "number",
          "format": "double",
          "default": 0
        },
        "outstandingAmount": {
          "description": "Outstanding amount",
          "type": "number",
          "format": "double",
          "default": 0
        }
      }
    },
    "SubscriberContract": {
      "description": "subscriber Contract details",
      "type": "object",
      "properties": {
        "contractLengthInMonths": {
          "description": "contract length in months",
          "type": "integer",
          "format": "int32",
          "default": 0,
          "pattern": "^[\\-+]?[0-9]+$"
        },
        "classicToValue": {
          "description": "Denotes if this subscriber enjoys the advantage offered as part of classic to value program. The eligibility could be at the",
          "type": "string",
          "enum": [
            "NONE",
            "TENTATIVE",
            "INVALID_ACCOUNT_TYPE_SUB_TYPE",
            "RATEPLAN",
            "ADD_A_LINE",
            "DATA",
            "RATEPLAN_AND_DATA",
            "ADD_A_LINE_AND_DATA",
            "NON_POOLED_VOICE",
            "NON_POOLED_DATA"
          ],
          "default": "NONE"
        }
      }
    },
    "SubscriberInfo": {
      "description": "subscriber information",
      "type": "object",
      "properties": {
        "primaryInd": {
          "description": "Indicates if this the primary subscriber",
          "type": "boolean"
        },
        "subStatus": {
          "description": "Short identifier for the status of the Subscriber.",
          "example": "A",
          "type": "string",
          "enum": [
            "Reserve",
            "Active",
            "Suspended",
            "Cancelled"
          ]
        },
        "mobileNumber": {
          "description": "actual subscriber number",
          "example": "1234567809",
          "type": "string",
          "pattern": "^[\\d]*$"
        },
        "sim": {
          "description": "actual subscriber sim number",
          "type": "string"
        },
        "productType": {
          "description": "Categorizes the different types of product offered for sale: Service, Device, Accessory, or Financial.",
          "type": "string",
          "enum": [
            "GSM",
            "Mobile Internet",
            "All"
          ]
        },
        "lineType": {
          "description": "The type of subscription.  For example Shared",
          "type": "string",
          "enum": [
            "Virtual",
            "Duplicate",
            "Auto Attendant",
            "Fax",
            "Conference",
            "IOT",
            "Home Internet",
            "GSM",
            "Mobile Internet"
          ]
        },
        "address": {
          "$ref": "#/definitions/SubscriberInfoAddress"
        }
      }
    },
    "SubscriberInfoAddress": {
      "description": "address details",
      "type": "object",
      "properties": {
        "baseData": {
          "$ref": "#/definitions/AddressBaseData"
        }
      }
    },
    "OrderValidationResponse": {
      "description": "Order validation response object",
      "type": "object",
      "properties": {
        "token": {
          "$ref": "#/definitions/Token"
        },
        "failures": {
          "type": "array",
          "description": "list of validations failures",
          "items": {
            "$ref": "#/definitions/ValidationFailure"
          }
        }
      }
    },
    "ValidationFailure": {
      "description": "Order validations failure",
      "type": "object",
      "properties": {
        "mobileNumber": {
          "type": "string",
          "description": "Validation failure related subscriber number",
          "example": "1234567890"
        },
        "message": {
          "type": "string",
          "description": "Validation failure message",
          "example": "Incompatible SOC XXXXXX with Rate Plan YYYYYY"
        }
      }
    },
    "Token": {
      "description": "Payload token oject",
      "type": "object",
      "properties": {
        "value": {
          "description": "JWT token which contain the  payload for validating if data is malformed",
          "example": "eyJhbGciOiJIUzI1NiIsInR5cCI6IkpXVCJ9.eyJzdWIiOiI0MjU2MTY3ODQzIiwibmFtZSI6IkFtaXIgQWZyaW1pYW4iLCJpYXQiOjE1MTYyMzkwMjJ9.gMGaOAHqQ334ulEX2hiKR5R9A0XFM5Ne4ZWYMVKT86c",
          "type": "string"
        }
      }
    },
    "OrderValidationRequest": {
      "description": "Order validation request object",
      "type": "object",
      "properties": {
        "order": {
          "$ref": "#/definitions/Order"
        }
      }
    },
    "OrderCreationRequest": {
      "description": "Order creation request object",
      "type": "object",
      "properties": {
        "order": {
          "$ref": "#/definitions/Order"
        },
        "token": {
          "description": "Address payload token - Should be generated by Validate Address API",
          "$ref": "#/definitions/Token"
        }
      }
    },
    "Order": {
      "description": "request object",
      "type": "object",
      "properties": {
        "financialAccountNumber": {
          "description": "account number - Optional for validate \\ Mandatory for Activation",
          "example": "123456789",
          "type": "string",
          "pattern": "^\\d{9}$"
        },
        "financialAccountType": {
          "description": "Destination account type",
          "example": "Individual",
          "type": "string",
          "pattern": "^[\\S]*$"
        },
        "financialAccountSubtype": {
          "description": "Destination account sub type",
          "example": "Regular",
          "type": "string",
          "pattern": "^[\\S]*$"
        },
        "businessName": {
          "type": "string",
          "description": "Business Name of the port-in"
        },
        "startServiceDate": {
          "description": "Service start date",
          "example": "2015-10-26T07:46:36.611Z",
          "type": "string",
          "pattern": "^[\\\\S]*$"
        },
        "billMediaCategory": {
          "description": "Billing Media Category",
          "example": "CD_ROAM",
          "type": "string",
          "enum": [
            "CD_ROAM",
            "DISKETTE",
            "ELECTRONIC_DATA",
            "MAGNETIC_TAPE",
            "PAPER",
            "ZERO_BAL_BY_POST_PYM",
            "PAPER_AND_CD"
          ]
        },
        "billFormat": {
          "description": "The format of the bill. Used by bill formatter",
          "example": "BIF_TAPE",
          "type": "string",
          "enum": [
            "BIF_TAPE",
            "MBL_WITH_PA_BILL_TAPE",
            "MBL_WITHOUT_PA_TAPE",
            "MKT_REGULAR_BILL",
            "RESELLER_BILL",
            "RESELLER_TAPE",
            "EMR_TAPE",
            "BIF_TAPE_SAM_HUSTON",
            "BIF_TAPE_BELL_HELIC",
            "BIF_TAPE_CHILD_HOSP",
            "BIF_TAPE_CITY_OF_SA",
            "ASCII_TAPE",
            "MBL_CYC_WITH_PA_TAPE",
            "MBL_CYC_NO_PA_TAPE",
            "BAF_ASCII_TAPE",
            "HIERARCHY_SUMMARY_BAN",
            "COURTESY_BILL",
            "GENERAL_MABEL_FORMAT_CODE",
            "PAYMENTREMINDER",
            "SB_MKT_REGULAR_BILL",
            "BRITE_BILL"
          ]
        },
        "billPrintBatch": {
          "description": "Print Category",
          "example": "none",
          "type": "string"
        },
        "billLanguage": {
          "description": "bill Language",
          "example": "ENGLISH",
          "type": "string",
          "enum": [
            "ENGLISH",
            "SPANISH"
          ]
        },
        "paperlessBill": {
          "$ref": "#/definitions/PaperlessBill"
        },
        "creditClass": {
          "$ref": "#/definitions/CreditClass"
        },
        "subscribers": {
          "description": "list of subscirber to port-in",
          "type": "array",
          "items": {
            "$ref": "#/definitions/Subscriber"
          }
        }
      },
      "required": [
        "financialAccountType",
        "financialAccountSubtype",
        "creditClass"
      ]
    },
    "CreditClass": {
      "description": "Account credit class infromation",
      "type": "object",
      "properties": {
        "score": {
          "description": "Account credit score",
          "example": 750,
          "type": "number",
          "pattern": "^[\\d]*$"
        },
        "class": {
          "description": "This field is returned from the Credit Evaluation process. It describes the BAN credit class as determined by the credit bureau.",
          "example": "none",
          "pattern": "^[\\S]*$",
          "type": "string"
        },
        "source": {
          "description": "This field contains a code that identifies the source of the credit change that the record describes.",
          "example": "MANUAL_CS",
          "type": "string",
          "enum": [
            "AUTO_COLLECTION",
            "CAS",
            "MANUAL_CS",
            "EXT_SOURCE",
            "DECISION_ENGINE"
          ]
        },
        "depositAmountPerLine": {
          "description": "The deposit amount that is needed for a new subscriber activation.",
          "example": 12.12,
          "type": "number",
          "pattern": "^[\\d]*$"
        },
        "numberOfRequestedLines": {
          "description": "This field contains the number of CTNs requested for approval.",
          "example": 4,
          "type": "number"
        },
        "creditEvaluationRefId": {
          "description": "Reference ID geneated in TCAT after customer's credit evaluation",
          "example": "none",
          "type": "string"
        }
      },
      "required": [
        "class",
        "score",
        "depositAmountPerLine"
      ]
    },
    "ProductType": {
      "type": "string",
      "description": "Product type",
      "example": "MI",
      "enum": [
        "MI",
        "GSM",
        "ALL"
      ]
    },
    "Subscriber": {
      "description": "Subscriber details object",
      "type": "object",
      "properties": {
        "token": {
          "description": "Subscriber payload token - Should be generated by Validate Subscriber API",
          "$ref": "#/definitions/Token"
        },
        "mobileNumber": {
          "type": "string",
          "description": "Subscriber to be ported in",
          "example": "1234567890",
          "pattern": "^\\d{10}$"
        },
        "isPrimary": {
          "type": "boolean",
          "description": "Primary subscriber indicator",
          "example": true
        },
        "productType": {
          "$ref": "#/definitions/ProductType"
        },
        "email": {
          "type": "string",
          "description": "E-mail for the subscriber",
          "example": "my-mail@provider.com"
        },
        "imei": {
          "type": "string",
          "description": "imei details - Mandatory for subscriber level"
        },
        "sim": {
          "type": "string",
          "description": "sim details"
        },
        "paperworkDate": {
          "type": "string",
          "description": "paperwork date",
          "example": "2015-10-26T07:46:36.611Z"
        },
        "paperworkRefNumber": {
          "type": "string",
          "description": "Paper work reference number."
        },
        "sprintSubscriberNumber": {
          "type": "string",
          "description": "Sprint subscriber number - Mandatory For Actual Subscriber",
          "example": 3334445551,
          "pattern": "^\\d{10}$"
        },
        "sprintSubscriberNumberDate": {
          "type": "string",
          "description": "Sprint subscriber status date",
          "example": "2015-10-26T07:46:36.611Z",
          "pattern": "^[\\S]*$"
        },
        "subStatusReasonCode": {
          "type": "string",
          "description": "Activation reason"
        },
        "courtesyStatement": {
          "type": "boolean",
          "description": "Indicates whether the subscriber will receive the bill's courtesy statements.",
          "example": true
        },
        "welcomeLetter": {
          "type": "boolean",
          "description": "Indicates whether a welcome letter needs to be produced.",
          "example": true
        },
        "waiveActivationFee": {
          "type": "boolean",
          "description": "(Mandatory For Actual Subscriber) This is a waive activation fee indicator. If set to true, The activation fee will be waived off."
        },
        "voiceMailLanguage": {
          "description": "voice mail language",
          "example": "ENGLISH",
          "type": "string",
          "enum": [
            "ENGLISH",
            "SPANISH"
          ]
        },
        "name": {
          "description": "subscriber name details - Mandatory for subscriber level",
          "$ref": "#/definitions/Name"
        },
        "portInDetails": {
          "$ref": "#/definitions/PortInDetails"
        },
        "addresses": {
          "description": "addresses list - Mandatory for subscriber level",
          "type": "array",
          "items": {
            "$ref": "#/definitions/Address"
          }
        },
        "services": {
          "description": "socs list",
          "type": "array",
          "items": {
            "$ref": "#/definitions/Service"
          }
        }
      }
    },
    "Address": {
      "description": "Address details",
      "type": "object",
      "properties": {
        "addressType": {
          "description": "The Address type (e.g., M - MILITARY, S - STREET) This field is mandatory if 'deploy' is FALSE, and 'type' is MILITARY, RURAL, or FOREIGN or 'fielded' is FALSE - Mandatory for subscriber level",
          "example": "MILITARY",
          "type": "string",
          "enum": [
            "STREET",
            "MILITARY",
            "RURAL",
            "POB",
            "FOREIGN"
          ]
        },
        "linkType": {
          "type": "string",
          "description": "Link Type - Mandatory for subscriber level",
          "enum": [
            "USER",
            "PPU",
            "E911"
          ],
          "example": "PPU"
        },
        "deploy": {
          "example": true,
          "type": "boolean",
          "description": "User address depoly indicator - An indicator field to indicate whether or not to deploy BAN (Billing Address) as User Address.If its set to true, fields prefixed with USER ADDRESS i.e. User Address attributes will not be mandatory fields and Billing Address will be deployed as User Address. -  - Mandatory for subscriber level"
        },
        "addressLine1": {
          "type": "string",
          "example": "1505 ne 14th pl",
          "description": "User address primary line - Mandatory for subscriber level"
        },
        "addressLine2": {
          "type": "string",
          "example": "APT 156",
          "description": "User address secondary line"
        },
        "city": {
          "type": "string",
          "example": "BELLEVUE",
          "description": "User address city User Address city must be a valid city name.This fields is mandatory if 'deploy' is FALSE, and 'type' is Miliatary/Rural/ Street/POB"
        },
        "stateCode": {
          "type": "string",
          "example": "WA",
          "description": "User address state code User Address state must be a valid city name.This fields is mandatory if 'deploy' is FALSE, and 'type' is Miliatary/Rural/ Street/POB  - Mandatory for subscriber level"
        },
        "postCode": {
          "type": "string",
          "description": "User address zip User Address state must be a valid city name.This fields is mandatory if 'deploy' is FALSE, and 'type' is Miliatary/Rural/ Street/POB",
          "example": "98004",
          "pattern": "^[\\-+]?[0-9]+$"
        },
        "postCodeFour": {
          "type": "string",
          "example": "7680",
          "description": "User address zip4"
        },
        "countryCode": {
          "description": "Country Code (for Ex us = United State)",
          "example": "us",
          "type": "string"
        },
        "override": {
          "type": "boolean",
          "example": true,
          "description": "User Address address validation override indicator"
        },
        "houseNumber": {
          "type": "string",
          "example": 1,
          "description": "User address house number"
        },
        "streetName": {
          "type": "string",
          "example": "14TH",
          "description": "User address street name"
        },
        "streetSuffix": {
          "type": "string",
          "example": "ST",
          "description": "User address street suffix"
        },
        "addressStatus": {
          "type": "string",
          "description": "User address status"
        },
        "fieldedInd": {
          "type": "string",
          "example": "Y",
          "description": "User address fielded indicator",
          "pattern": "^[\\S]*$"
        },
        "addressAttention": {
          "type": "string",
          "description": "Address attention of User Address."
        },
        "carrierCode": {
          "type": "string",
          "example": "R023",
          "description": "Carried code of User Address."
        },
        "barcodeSuffix": {
          "description": "Bar Code Suffix of User Address.",
          "example": "05",
          "type": "string"
        },
        "streetDirection": {
          "type": "string",
          "example": "North East",
          "description": "Street direction of User Address."
        },
        "trailingDirection": {
          "type": "string",
          "example": "NE",
          "description": "User addresses trailing street direction."
        },
        "apartmentDesignator": {
          "type": "string",
          "example": "Apt 912",
          "description": "User addresses apartment designator."
        },
        "apartmentNumber": {
          "type": "string",
          "example": 912,
          "description": "User addresses apartment number."
        },
        "controlNumber": {
          "type": "string",
          "example": "27 highway segments",
          "description": "User addresses rural road highway control number.  This fileld is mandatory for POB address, if fielded is true and deployed is false"
        },
        "boxNumber": {
          "type": "string",
          "example": "HC 68 box 23A",
          "description": "User addresses rural road highway box number."
        },
        "postOfficeBox": {
          "description": "The Post Office Box number",
          "example": "980",
          "type": "string"
        },
        "taxCity": {
          "type": "string",
          "description": "User addresses tax city.",
          "pattern": "^[\\S]*$",
          "example": "none"
        },
        "countyCode": {
          "type": "string",
          "example": "033",
          "description": "county  - Mandatory for subscriber level"
        },
        "geoZipCode": {
          "description": "The Address geographical zip code. This attribute is used for addresses on certain geographical maps  - Mandatory for subscriber level",
          "example": "480331410",
          "type": "string",
          "pattern": "^[\\S]*$"
        },
        "inCorpInd": {
          "type": "string",
          "example": "Y",
          "description": "incorp"
        },
        "geoCodeInd": {
          "description": "Manual Geo Code Indicator",
          "example": "missingExamle",
          "type": "string",
          "pattern": "^[\\S]*$"
        },
        "determinationInd": {
          "description": "Indicate if the PPU is valid E - EXACT_MATCH D - FAILED_JURISDICTION P - CODE1_PARTIAL_MATCH A - CODE1_ALTERNATE_MATCH N - CODE1_DEFAULT_MATCH O - DETERIND_MANUAL_GEOCODE",
          "example": "E",
          "type": "string"
        },
        "geoCode": {
          "description": "Address Latitude and Longitude  - Mandatory for subscriber level",
          "example": "047.54464/-122.01026",
          "type": "string",
          "pattern": "^[\\S]*$"
        },
        "uncertaintyInd": {
          "description": "Indicates which part of address is uncertain - F-Full Address, Z-Rural Zip+4, E-Rural Zip+2, R-Rural Zip, D-Street Zip+4, L-Street Zip+2, S-Stret zip  - Mandatory for subscriber level",
          "example": "Z",
          "type": "string",
          "pattern": "^[\\S]*$"
        },
        "incorporatedPlace": {
          "type": "string",
          "example": 33,
          "description": "incorporatedPlace"
        },
        "taxArea": {
          "type": "string",
          "example": "480331410",
          "description": "taxArea - Field is mandatory if PPU ADDRESS DEPLOY INDICATOR is not true."
        },
        "taxIdDeterminationInd": {
          "description": "taidDetermine - Field is mandatory if PPU ADDRESS DEPLOY INDICATOR is not true.",
          "example": "Y",
          "type": "string"
        },
        "taxIdManualInd": {
          "description": "The Tax Area ID Manual Override Indicator.",
          "example": "Y",
          "type": "string"
        },
        "billCopies": {
          "type": "number",
          "description": "Number Of Bill Copies"
        }
      },
      "required": [
        "linkType",
        "deploy",
        "fieldedInd",
        "geoZipCode",
        "uncertaintyInd"
      ]
    },
    "Service": {
      "description": "SOC details",
      "type": "object",
      "properties": {
        "code": {
          "type": "string",
          "description": "Subscriber level SOC",
          "example": "1PLSALL",
          "pattern": "^[\\S]*$"
        },
        "effectiveDate": {
          "type": "string",
          "description": "SOC effective date",
          "example": "2015-10-26T07:46:36.611Z",
          "pattern": "^[\\S]*$"
        },
        "expirationDate": {
          "type": "string",
          "description": "SOC expiration date",
          "example": "2015-10-26T07:46:36.611Z"
        },
        "productType": {
          "$ref": "#/definitions/ProductType"
        },
        "serviceIndicator": {
          "type": "string",
          "description": "specify the type of SOCs. Eg: for data SOCs, SOC_IND is ‘OMW/OMC’.",
          "pattern": "^[\\S]*$",
          "example": "CLS"
        },
        "externalId": {
          "type": "number",
          "description": "SOC external id",
          "example": 1,
          "pattern": "^[\\S]*$"
        },
        "serviceType": {
          "type": "string",
          "description": "Service_type of SOC",
          "example": "P",
          "pattern": "^[\\S]*$"
        },
        "levelCode": {
          "type": "string",
          "description": "Soc Level Code",
          "example": "Account",
          "enum": [
            "Account",
            "Line",
            "AllGsmLines",
            "AllMobileInternetLines"
          ]
        },
        "minNumOfMonth": {
          "type": "integer",
          "description": "minimum no of Months"
        },
        "splitDealerCode": {
          "type": "string",
          "description": "split dealer code is used when multiple dealers involved. In case, the activity is done by single dealer, then split dealer code field will be empty"
        }
      },
      "required": [
        "code",
        "productType",
        "serviceType",
        "levelCode",
        "effectiveDate",
        "serviceIndicator",
        "externalId"
      ]
    },
    "Name": {
      "description": "subscriber name details",
      "type": "object",
      "properties": {
        "namePrefix": {
          "type": "string",
          "description": "Title name for subscriber.",
          "example": "MISTER",
          "enum": [
            "MR.",
            "MS.",
            "MRS.",
            "MISS",
            "DR.",
            "REV.",
            "HON.",
            "COL.",
            "MAJ.",
            "LT.",
            "GEN.",
            "ADM.",
            "CAPT.",
            "SEN.",
            "REP.",
            "FR.",
            "RABBI",
            "BISH",
            "PAST",
            "SGT"
          ]
        },
        "firstName": {
          "type": "string",
          "description": "First name for subscriber - First name is mandetory except for Business\\Government account type.",
          "example": "Amir"
        },
        "middleName": {
          "type": "string",
          "description": "middle name for subscriber."
        },
        "lastName": {
          "type": "string",
          "description": "Last name for subscriber.",
          "example": "Afrimian",
          "pattern": "^[\\S]*$"
        },
        "nameSuffix": {
          "type": "string",
          "description": "Name suffix of subscriber",
          "example": "JR",
          "enum": [
            "JR",
            "SR",
            "II",
            "III",
            "IV",
            "V",
            "ESQ",
            "I"
          ]
        }
      },
      "required": [
        "lastName"
      ]
    },
    "PortInName": {
      "allOf": [
        {
          "$ref": "#/definitions/Name"
        },
        {
          "type": "object",
          "properties": {
            "type": {
              "type": "string",
              "description": "Name Type of port-in subscriber.  - Individual , Business",
              "example": "INDIVIDUAL",
              "enum": [
                "INDIVIDUAL",
                "BUSINESS"
              ]
            },
            "subscriberName": {
              "type": "string",
              "description": "Port-in subscriber Name."
            }
          }
        }
      ]
    },
    "PaperlessBill": {
      "description": "Port-in subscriber information",
      "type": "object",
      "properties": {
        "deliveryMethod": {
          "type": "string",
          "description": "delivery method for paperless bill",
          "example": "EMAIL_SMS",
          "enum": [
            "EMAIL",
            "SMS",
            "EMAIL_SMS"
          ]
        },
        "email": {
          "type": "string",
          "description": "E-mail for the subscriber for paperless bills",
          "example": "my-mail@provider.com"
        },
        "mobileNumber": {
          "type": "string",
          "description": "Subscriber number for which paperless bills needs to set for SMS",
          "pattern": "^\\d{10}$",
          "example": "1111222245"
        }
      }
    },
    "PortInDetails": {
      "description": "Port-in subscriber information",
      "type": "object",
      "properties": {
        "sprintAccountFinancialNumber": {
          "type": "string",
          "description": "Account Number of the port-in subscriber.",
          "example": 123456789,
          "pattern": "^[\\S]*$"
        },
        "portInPin": {
          "type": "string",
          "description": "The subscriber Password in the old Account (of previous Service Provider)"
        },
        "authorizationName": {
          "type": "string",
          "description": "Name of the Authorization Agency.",
          "example": "Akshay",
          "pattern": "^[\\S]*$"
        },
        "authorizationDate": {
          "type": "string",
          "description": "Date at which authorization is done",
          "example": "2015-10-26T07:46:36.611Z",
          "pattern": "^[\\S]*$"
        },
        "contact": {
          "type": "string",
          "description": "This field identifies the NSP representative who is in control of the port."
        },
        "contactTelephone": {
          "type": "string",
          "description": "Telephone number of the implementation contact."
        },
        "reuseSimIndicator": {
          "type": "boolean",
          "description": "Indicates whether the SIM is to be reused in case of prepaid port-in subscriber."
        },
        "previousProvider": {
          "type": "string",
          "description": "Service Provider ID of previous provider.",
          "example": "TMO7",
          "pattern": "^[\\S]*$"
        },
        "localRoutingNumber": {
          "type": "string",
          "description": "Local Routing Number",
          "example": 2063340081,
          "pattern": "^[\\S]*$"
        },
        "socialSecurityNumber": {
          "type": "string",
          "description": "SSN of port-in subscriber."
        },
        "taxId": {
          "type": "string",
          "description": "Tax ID of port-in subscriber."
        },
        "name": {
          "$ref": "#/definitions/PortInName"
        }
      },
      "required": [
        "sprintAccountFinancialNumber",
        "authorizationName",
        "authorizationDate",
        "previousProvider",
        "localRoutingNumber"
      ]
    }
  },
  "parameters": {
    "header-activityid": {
      "in": "header",
      "name": "activity-id",
      "description": "activity id",
      "required": true,
      "type": "string",
      "x-example": 1,
      "pattern": "^[ \\S]+$"
    },
    "header-X-Authorization": {
      "name": "x-authorization",
      "in": "header",
      "description": "OAuth 2.0 access token with the authentication type set as Bearer.",
      "required": false,
      "type": "string",
      "x-example": "eyJraWQiOiI0Nzc1M2UzZi.......",
      "pattern": "^[\\S ]*$"
    },
    "header-X-Auth-Originator": {
      "name": "x-auth-originator",
      "in": "header",
      "description": "OAuth 2.0 access token with the authentication type set as Bearer.",
      "x-example": "eyJraWQiOiI0Nzc1M2UzZi...",
      "required": true,
      "type": "string",
      "pattern": "^[\\S ]*$"
    },
    "header-Accept": {
      "name": "Accept",
      "in": "header",
      "description": "Preferred content type _ default to application/json",
      "x-example": "application/json",
      "required": false,
      "type": "string",
      "minLength": 1,
      "maxLength": 256,
      "pattern": "^[ \\S]+$"
    },
    "header-Accept-Charset": {
      "name": "Accept-Charset",
      "in": "header",
      "description": "Character sets that are acceptable.",
      "x-example": "ISO-8859-1,utf-8;q=0.7,*;q=0.7",
      "required": false,
      "type": "string",
      "minLength": 1,
      "maxLength": 256,
      "pattern": "^[\\S ]*$"
    },
    "header-Accept-Encoding": {
      "name": "Accept-Encoding",
      "in": "header",
      "description": "List of acceptable encodings. See HTTP compression.",
      "x-example": "gzip,deflate",
      "required": false,
      "type": "string",
      "minLength": 1,
      "maxLength": 256,
      "pattern": "^[\\S ]*$"
    },
    "header-Accept-Language": {
      "name": "Accept-Language",
      "in": "header",
      "description": "List of acceptable human languages for response",
      "x-example": "en-us,en;q=0.5",
      "required": false,
      "type": "string",
      "minLength": 1,
      "maxLength": 256,
      "pattern": "g'^[\\S ]*$'."
    },
    "header-Authorization": {
      "name": "Authorization",
      "in": "header",
      "description": "The HTTP Authorization request header contains the credentials to authenticate\na user agent with a server.",
      "x-example": "Bearer mF_9.B5f-4.1JqM",
      "required": true,
      "type": "string",
      "minLength": 1,
      "maxLength": 256,
      "pattern": "^[\\S ]+$"
    },
    "header-Content-Type": {
      "name": "Content-Type",
      "in": "header",
      "description": "The MIME type of this content",
      "x-example": "text/xml",
      "required": true,
      "type": "string",
      "minLength": 1,
      "maxLength": 256,
      "pattern": "^[ \\S]+$"
    },
    "header-Date": {
      "name": "Date",
      "in": "header",
      "description": "The Date general HTTP header contains the date and time at which the\nmessage was originated.",
      "x-example": "Mon, 05 Mar 2018 16:38:08 GMT",
      "required": false,
      "type": "string",
      "format": "date-time",
      "pattern": "^(Mon|Tue|Wed|Thu|Fri|Sat|Sun), [0-3]{1}[0-9]{1} (Jan|Feb|Mar|Apr|May|Jun|Jul|Aug|Sep|Oct|Nov|Dec)\n[1-3][0-9]{3} [0-2][0-9]:[0-6][0-9]:[0-6][0-9] GMT$"
    },
    "header-If-Modified-Since": {
      "name": "If-Modified-Since",
      "in": "header",
      "description": "The If-Modified-Since header specifies date-related conditions to be\nplaced on the execution of a request.  The request will only be executed if the\nrequested resource has not been modified since the date-time specified.  Because\nthe behavior is complex, the details for usage are provided at http://www.w3.org/Protocols/rfc2616/rfc2616-sec14.html",
      "x-example": "Mon, 05 Mar 2018 16:38:08 GMT",
      "required": false,
      "type": "string",
      "format": "date-time",
      "pattern": "^(Mon|Tue|Wed|Thu|Fri|Sat|Sun), [0-3]{1}[0-9]{1} (Jan|Feb|Mar|Apr|May|Jun|Jul|Aug|Sep|Oct|Nov|Dec)\n[1-3][0-9]{3} [0-2][0-9]:[0-6][0-9]:[0-6][0-9] GMT$"
    },
    "header-If-None-Match": {
      "name": "If-None-Match",
      "in": "header",
      "description": "The If-None-Match header specifies an ETag-related condition to be\nplaced on the execution of a request.  The request will NOT be executed if the\nETag of the requested resource matches one of those specified in the If-None-Match\nheader.  Because the behavior is complex, the details for usage are provided at\nhttp://www.w3.org/Protocols/rfc2616/rfc2616-sec14.html",
      "x-example": "*",
      "required": false,
      "type": "string",
      "minLength": 1,
      "maxLength": 256,
      "pattern": "^[\\S]*$"
    },
    "header-application-id": {
      "name": "application-id",
      "in": "header",
      "description": "Identifies the application, system, or tool that is being used to perform\nthe transaction related to this request. Sample values:ACUI, ESERVICE, REBELLION,\nWARP",
      "x-example": "REBELLION",
      "required": false,
      "type": "string",
      "minLength": 1,
      "maxLength": 256,
      "pattern": "^[\\S]*$"
    },
    "header-auth-customer-id": {
      "name": "auth-customer-id",
      "in": "header",
      "description": "Customer id _ of the person that is interacting with the system.",
      "x-example": "Deprecated Header",
      "required": false,
      "type": "string",
      "minLength": 1,
      "maxLength": 256,
      "pattern": "^[\\S ]*$"
    },
    "header-auth-financial-account-id": {
      "name": "auth-financial-account-id",
      "in": "header",
      "description": "Financial account that the customer intends to operate on, while interacting\nwith the system.",
      "x-example": "Deprecated Header",
      "required": false,
      "type": "string",
      "minLength": 1,
      "maxLength": 256,
      "pattern": "^[\\S ]*$"
    },
    "header-auth-line-of-service-id": {
      "name": "auth-line-of-service-id",
      "in": "header",
      "description": "Service Line that the customer intends to operate on, while interacting\nwith the system.",
      "x-example": "Deprecated Header",
      "required": false,
      "type": "string",
      "minLength": 1,
      "maxLength": 256,
      "pattern": "^[\\S ]*$"
    },
    "header-authorization-idp": {
      "name": "authorization-idp",
      "in": "header",
      "description": "API chain initiating caller_s IDP token",
      "x-example": "c34e7acd-384b-4c22-8b02-ba3963682508",
      "required": false,
      "type": "string",
      "minLength": 1,
      "maxLength": 256,
      "pattern": "^[\\S]*$"
    },
    "header-channel-id": {
      "name": "channel-id",
      "in": "header",
      "description": "Categorization of access or business stream",
      "x-example": "IVR",
      "required": false,
      "type": "string",
      "minLength": 1,
      "maxLength": 256,
      "pattern": "^[\\S]*$"
    },
    "header-dealer-code": {
      "name": "dealer-code",
      "in": "header",
      "description": "Unique code to identify the dealer/rep user.",
      "x-example": "34234322",
      "required": false,
      "type": "string"
    },
    "header-interaction-id": {
      "name": "interaction-id",
      "in": "header",
      "description": "Alphanumeric value represent a common transaction id across all calls\nmade from UI, while completing all business activity needs of a particular customer.",
      "x-example": "cc688d54-50d1-49d4-8c5d-95459d1172e8",
      "required": false,
      "type": "string",
      "minLength": 1,
      "maxLength": 256,
      "pattern": "^[\\S]*$"
    },
    "header-master-dealer-code": {
      "name": "master-dealer-code",
      "in": "header",
      "description": "Unique code to identify the master dealer for a large retail partner.\nWill not be applicable for TMO channels.",
      "x-example": "3571232",
      "required": false,
      "type": "string",
      "minLength": 1,
      "maxLength": 256,
      "pattern": "^[\\S]*$"
    },
    "header-origin-sender-id": {
      "name": "origin-sender-id",
      "in": "header",
      "description": "replaced by _aud_ in authorization",
      "x-example": "Deprecated Header",
      "required": false,
      "type": "string",
      "minLength": 1,
      "maxLength": 256,
      "pattern": "^[\\S ]*$"
    },
    "header-segmentation-id": {
      "name": "segmentation-id",
      "in": "header",
      "description": "Identifier of customers primary data center.Sample: Polaris,Titan",
      "x-example": "Polaris",
      "required": false,
      "type": "string",
      "minLength": 1,
      "maxLength": 256,
      "pattern": "^[\\S]*$"
    },
    "header-sender-id": {
      "name": "sender-id",
      "in": "header",
      "description": "The related business partner or T-Mobile organization",
      "x-example": "QVXP",
      "required": false,
      "type": "string",
      "minLength": 1,
      "maxLength": 256,
      "pattern": "^[\\S]*$"
    },
    "header-service-transaction-id": {
      "name": "service-transaction-id",
      "in": "header",
      "description": "Request ID echoed back by server",
      "x-example": "23409209723",
      "required": false,
      "type": "string",
      "minLength": 1,
      "maxLength": 256,
      "pattern": "^[\\S]*$"
    },
    "header-session-id": {
      "name": "session-id",
      "in": "header",
      "description": "A value populated by the sender used to track the transactions that\noccur during a session, a long-lasting interaction that ismaintained by the sender.",
      "x-example": "350b91ec-4a64-4b10-a3f3-a78c8db3924a",
      "required": false,
      "type": "string",
      "minLength": 1,
      "maxLength": 256,
      "pattern": "^[\\S]*$"
    },
    "header-store-id": {
      "name": "store-id",
      "in": "header",
      "description": "Unique identifier for the retail store location.",
      "x-example": 23,
      "required": false,
      "type": "string",
      "minLength": 1,
      "maxLength": 256,
      "pattern": "^[\\S]*$"
    },
    "header-terminal-id": {
      "name": "terminal-id",
      "in": "header",
      "description": "Unique identifier for the retail store terminal. Needed for FullService  (Tmobile\nRETAIL channel). Need to discuss with T-Mobile business liaison if there is a\nneed for Partner to pass their retail Store Id).",
      "x-example": "Deprecated Header",
      "required": false,
      "type": "string",
      "minLength": 1,
      "maxLength": 256,
      "pattern": "^[\\S ]*$"
    },
    "header-till-id": {
      "name": "till-id",
      "in": "header",
      "description": "Unique identifier for the retail register. Needed for FullService  (Tmobile\nRETAIL channel). Need to discuss with T-Mobile business liaison if there is a\nneed for Partner to pass their retail Store Id).",
      "x-example": "Deprecated Header",
      "required": false,
      "type": "string",
      "minLength": 1,
      "maxLength": 256,
      "pattern": "^[\\S ]*$"
    },
    "header-timestamp": {
      "name": "timestamp",
      "in": "header",
      "description": "ms since 1/1/70 adjusted to GMT",
      "x-example": "1524599536",
      "required": false,
      "type": "integer",
      "format": "int64",
      "minimum": 0,
      "maximum": 999999999999,
      "pattern": "^[\\d]*$"
    },
    "header-tmo-authorization": {
      "name": "tmo-authorization",
      "in": "header",
      "description": "Contains Proof of Possession token generated by API caller",
      "x-example": "c34e7acd-384b-4c22-8b02-ba3963682508",
      "required": false,
      "type": "string",
      "minLength": 1,
      "maxLength": 256,
      "pattern": "^[\\S ]*$"
    },
    "header-user-id": {
      "name": "user-id",
      "in": "header",
      "description": "NT id of the one who is managing the transaction from CARE/RETAIL channels.",
      "x-example": "Deprecated Header",
      "required": false,
      "type": "string",
      "minLength": 1,
      "maxLength": 256,
      "pattern": "^[\\S ]*$"
    },
    "header-workflow-id": {
      "name": "workflow-id",
      "in": "header",
      "description": "Business Use Case",
      "x-example": "ACTIVATION",
      "required": false,
      "type": "string",
      "minLength": 1,
      "maxLength": 256,
      "pattern": "^[\\S]*$"
    }
  }
}
 