@startuml

 title ** __DSPA Provisioning PCF - Samreplite(Samson replication lite db) Postpaid Account payload flow 2__ **\n
 
 queue PAYLOAD_TOPIC #Magenta

 participant SamrepliteEMSConsumer as SamrepliteEMSConsumer.accountPayloadProcessor
 participant ProvisioningProcessorUtil as provisioningProcessorUtil
 participant SamreplitePayloadProcessorService
 participant ProvisioningProcessorService as provisioningProcessorService
 participant DBProcessorManager as dbProcessorManager
 participant DBProcessorDao as dbProcessorDao
 participant RestServiceClient as restServiceClient
 database DSPA_DB as dspa_dbprocessor #palegreen
 queue PUBLISH_TOPIC as MessageHelper.publishToTopic #Magenta
 
 PAYLOAD_TOPIC <- SamrepliteEMSConsumer.accountPayloadProcessor: listens on this payload topic 

 note left
   provisioningprocessor app listens on this tmobile.dspa.queue.payload.account queue
 endnote 
 
 alt try
  SamrepliteEMSConsumer.accountPayloadProcessor-> provisioningProcessorUtil: getDSPMessage(message) parses dspMessage object
  SamrepliteEMSConsumer.accountPayloadProcessor-> provisioningProcessorUtil: clone(dspMessage) to dspMessageInput
  SamrepliteEMSConsumer.accountPayloadProcessor-> SamreplitePayloadProcessorService: accountPayloadProcess(dspMessage)
  SamreplitePayloadProcessorService-> SamreplitePayloadProcessorService: create new dspMessageStatus object
  SamreplitePayloadProcessorService-> SamreplitePayloadProcessorService: delete all events from dspMessage 
  note left
     clear all events
     before processing 
     account payload
  endnote
  alt try
    SamreplitePayloadProcessorService-> provisioningProcessorService: accountService(dspMessage)
    note left
       extract the list of customers
    endnote
    provisioningProcessorService-> provisioningProcessorService: extract and create account from dspMessage
    provisioningProcessorService-> provisioningProcessorService: getAccountInfo(account.getBan()) returns Account object
    provisioningProcessorService-> dbProcessorManager: getAccountInfo(ban) returns Account object
    dbProcessorManager-> dbProcessorDao: getAccountInfo(ban) returns Account object
    dbProcessorDao-> restServiceClient: getAccountInfo() returns Account object
    restServiceClient-> dspa_dbprocessor: getAccountInfo(dbRestUrl)
    note left
       get the url from 
       config for the property
       get.account.info.uri
       append the ban with the url 
       to create dbRestUrl
    endnote
	alt if Account object not null
        provisioningProcessorService-> provisioningProcessorService: setAccount to dspMessage 
		provisioningProcessorService-> provisioningProcessorService: saveAccountInfo(account) 
		provisioningProcessorService-> dbProcessorManager: saveAccountInfo(account)
	    dbProcessorManager-> dbProcessorDao: saveAccountInfo(account)
		dbProcessorDao-> dbProcessorDao: create AccountRequest object
		dbProcessorDao-> dbProcessorDao: set account into AccountRequest object
        dbProcessorDao-> restServiceClient: saveAccountInfo(AccountReques)
        restServiceClient-> dspa_dbprocessor: saveAccountInfo(dbRestUrl, AccountRequest)
		note left
		   get the url from 
		   config for the property
		   save.account.info.uri
		endnote		
		provisioningProcessorService-> provisioningProcessorService: getSubscribers(account.getBan()) returns subscribers
	    dbProcessorManager-> dbProcessorDao: getSubscribers(ban) returns subscribers
		dbProcessorDao-> dbProcessorDao: getSubscribers(ban) returns subscribers
        dbProcessorDao-> restServiceClient: getSubscribers(dbRestUrl) returns subscribers
        restServiceClient-> dspa_dbprocessor: getSubscribers(dbRestUrl)
		note left
		   get the url from 
		   config for the property
		   get.subscribers.uri
		   append the ban with the url 
		   to create dbRestUrl
		endnote		
		alt if subscribers is null
		  provisioningProcessorService-> provisioningProcessorService: returns empty arrayList of Customers
		else
			loop subscribers
				note left
				   create customer object per subscriber
				   add customer object to the customers arrayList
				endnote			  
				provisioningProcessorService-> provisioningProcessorService: returns Customers arrayList
			end
		end 
	else 
		provisioningProcessorService-> provisioningProcessorService: addEvent(accountCreate)
		provisioningProcessorService-> provisioningProcessorService: saveAccountInfo(account)
	end
  end

  loop customers
	provisioningProcessorService->MessageHelper.publishToTopic: publish pubDspMessage to topic with MsgType as Publish  
	note left
	   create pubDspMessage object per customer object with eventId 
	   set event source as DSP
	   set existing customer from dspMessage
	   set events from dspMessage
	endnote     
  end
  SamrepliteEMSConsumer.accountPayloadProcessor-> SamrepliteEMSConsumer.accountPayloadProcessor: set Success
 else dspmwException
  SamrepliteEMSConsumer.accountPayloadProcessor-> SamrepliteEMSConsumer.accountPayloadProcessor: throws exception
  note left
       log error 
       throw dspmwexception
  endnote
 else exception
  SamrepliteEMSConsumer.accountPayloadProcessor-> SamrepliteEMSConsumer.accountPayloadProcessor: throws exception
  note left
       log error 
   endnote
   SamrepliteEMSConsumer.accountPayloadProcessor ->  PAYLOAD_TOPIC:  throw dspmwexception

 end
 

@enduml