@startuml
title ** __DSPA Provisioning PCF - SOAP PartialRegistration - AAL flow __ **\n

queue AAL_QUEUE #Magenta

participant "AALEMSConsumer" as AALEMSConsumer.aalprocessor
participant soapProcessorUtil
participant aalProcessorService
participant aalPublisherManager
participant aalPublisherDao
participant aalServiceLocator
participant tibcoServiceClient
participant AAL #DarkSeaGreen

skinparam sequenceGroupBorderColor blue 
group#Magenta <b><color:white> PartialRegistration
AAL_QUEUE <- AALEMSConsumer.aalprocessor: aalProcessor\n (Message object from EMS)
note left
	ems/TMOBILE.<env>.DSPA.QUEUE.PUBLISH.AAL 
endnote

AALEMSConsumer.aalprocessor-> soapProcessorUtil: getPublishDSPMessage with source=DSP, target=NAP \n and event=aalTMOPartialRegistration

soapProcessorUtil--> AALEMSConsumer.aalprocessor: returns dspMessage object

alt try 

 AALEMSConsumer.aalprocessor-> aalProcessorService: aalProcess(dspMessage)
 aalProcessorService-> aalProcessorService: processCustomerEvents(dspMessage) \n  process customer events
 loop events
     aalProcessorService-> aalProcessorService: aalTMOPartialRegistration(dspMessage, dspMsgStatus)
	 aalProcessorService-> aalPublisherManager: postEvent(dspMessage, "MyTMOPartialRegistration", true)
	 aalPublisherManager->aalPublisherDao: postEvent(dspMessage, "MyTMOPartialRegistration", true)
     alt try
	    aalPublisherDao-> aalServiceLocator: getAccountActivityEvent(aalServiceUrl) as pub
		aalPublisherDao-> aalPublisherDao: CreateAccountActivityEventRequestType as request
		aalPublisherDao-> aalPublisherDao: create AccountActivityEventType as event
		note left
		  populates all the logging event information in the request object 
		endnote
		aalPublisherDao-> tibcoServiceClient: createAccountActivityEvent(request, pub) sends request to AAL
		tibcoServiceClient-> AAL: createAccountActivityEvent(request, pub) sends request to AAL
note over AAL
No AAL sequence diagrams are available 
in Clearwater for now to stitch
endnote
		AAL-->tibcoServiceClient: AAL returns response as res
		tibcoServiceClient-->aalPublisherDao: AAL returns response as res
	  else catch exception
	    aalPublisherDao-> aalPublisherDao: throws TibcoServiceException
		aalPublisherDao-> aalProcessorService : throws TibcoServiceException
		aalProcessorService -> AALEMSConsumer.aalprocessor : throws DSPMWException
		AALEMSConsumer.aalprocessor -> AAL_QUEUE: throws DSPPWException
	  end
	 end
   end
   end
@enduml