@startuml
title ** __DSPA Provisioning PCF - NAP Updatelogin flow __ **\n

queue NAP_QUEUE #Magenta

participant NAPEmsConsumer
participant NAPProvisioningService
participant NAPProvisioningManager
participant NAPProvisioningDao
participant NAP #darkseagreen

skinparam sequenceGroupBorderColor blue 
group#Magenta <b><color:white> Updatelogin
NAP_QUEUE <- NAPEmsConsumer : Message object from EMS
note left
	ems/TMOBILE.<env>.DSPA.QUEUE.PUBLISH.NAP 
endnote
NAPEmsConsumer -> NAPProvisioningService : processMessage(dspMessage, msgTypeValue, isJmsRedelivered, jmsRedeliveredRetreived)
note left 
	messageType value is POSTPAID or PREPAID
endnote
NAPProvisioningService -> NAPProvisioningService : processCustomerEvents(dspMessage, msgTypeValue, isJmsRedelivered, jmsRedeliveredRetreived) 
loop events
	NAPProvisioningService-> NAPProvisioningService: updatelogin(dspMessage, napprovisioningData)
	NAPProvisioningService-> NAPProvisioningManager : updateCustomerLogin(customer)
	NAPProvisioningManager-> NAPProvisioningDao : updateCustomerLogin(customer)
	NAPProvisioningDao-> NAP: getTmoUsNapSoapServicePortType(napServiceUrl) as pub
	NAPProvisioningDao-> NAPProvisioningDao: create updateloginRequest as request	
	NAPProvisioningDao -> NAP : updateCustomerProfile(updateloginRequest, pub)
	note left 
		No sequence diagrams of NAP available for stitching
	endnote
	alt catch exception
		NAPProvisioningDao-> NAPProvisioningService: handleException() throws exception
		alt catch exception
		NAPProvisioningDao-> NAPProvisioningService: handleException() throws exception
		NAPProvisioningService->NAPEmsConsumer: throws JMSRetryException
		NAPEmsConsumer->NAP_QUEUE: throws DSPMWException
	end		
	NAPProvisioningService->NAPEmsConsumer : return void
end
end
@enduml