@startuml
title ** __DSPA Provisioning PCF - NAP DeviceRegister flow __ **\n

queue NAP_QUEUE #Magenta

participant NAPEmsConsumer
participant NAPProvisioningService
participant NAPProvisioningManager
participant NAPProvisioningDao
participant NAP #darkseagreen 

skinparam sequenceGroupBorderColor blue 
group#Magenta <b><color:white> DeviceRegister
NAP_QUEUE <- NAPEmsConsumer : Message object from EMS
note left
	ems/TMOBILE.<env>.DSPA.QUEUE.PUBLISH.NAP 
endnote
NAPEmsConsumer -> NAPProvisioningService : processMessage(dspMessage, msgTypeValue, isJmsRedelivered, jmsRedeliveredRetreived)
note left 
	messageType value is POSTPAID or PREPAID
endnote
NAPProvisioningService -> NAPProvisioningService : processCustomerEvents(dspMessage, msgTypeValue, isJmsRedelivered, jmsRedeliveredRetreived) 
loop events
	NAPProvisioningService-> NAPProvisioningService: deviceRegister(dspMessage, napprovisioningData)
	NAPProvisioningService-> NAPProvisioningService: updateProfile(dspMessage, napprovisioningData)
	NAPProvisioningService-> NAPProvisioningManager : updateCustomerProfile(customer)
	NAPProvisioningManager-> NAPProvisioningDao : updateCustomerProfile(customer)
	NAPProvisioningDao-> NAP: getTmoUsNapSoapServicePortType(napServiceUrl) as pub
	NAPProvisioningDao-> NAPProvisioningDao: create updateProfileRequest as request	for registering the device
	NAPProvisioningDao -> NAP : updateCustomerProfile(updateProfileRequest, pub)
	note left 
		No sequence diagrams of NAP available for stitching
	endnote
	alt catch exception
		NAPProvisioningDao-> NAPProvisioningService: handleException() throws exception
		alt catch exception
		NAPProvisioningDao-> NAPProvisioningService: handleException() throws exception
		alt exception is persistencenorecordfoundexception and errorcode is 5030, events list contains DEVICEREGISTER
         note left
          extract customer object and loop thru the events
         endnote
		 NAPProvisioningService->NAPEmsConsumer: throws Persistencenorecordfoundexception
		 NAPEmsConsumer->NAP_QUEUE: throws DSPMWException
		end
		NAPProvisioningService->NAPEmsConsumer: throws JMSRetryException
		NAPEmsConsumer->NAP_QUEUE: throws DSPMWException
	end		
	NAPProvisioningService->NAPEmsConsumer : return void
end
end
@enduml