@startuml
title ** __DSPA Provisioning PCF - SwitchControl Postpaid ChangeMsisdn flow 1__ **\n

actor SwitchControl #Magenta

participant "SwitchRestController" as provisioninghandler.switchRestController
participant "createDspMessage" as provisioningHandlerUtil.constructDSPMessage
queue EVENT_TOPIC #Magenta

SwitchControl -> provisioninghandler.switchRestController: ChangeMsisdn \n (ChangeMsisdnRequest XML over Http)

note left
Prerequisite: SwitchControl should have updated the EIR/HLR with changed msisdn
URI: /ChangeMsisdn
endnote

provisioninghandler.switchRestController -> provisioningHandlerUtil.constructDSPMessage: with source=SWITCH, target=DSP \n and event=updateMSISDN 

provisioningHandlerUtil.constructDSPMessage --> provisioninghandler.switchRestController: returns dspMessage object

alt try 

 provisioninghandler.switchRestController -> provisioninghandler.switchRestController: validate ChangeMsisdn Request

 provisioninghandler.switchRestController -> provisioninghandler.switchRestController: construct Subscriber and Account models
 
 provisioninghandler.switchRestController -> provisioninghandler.switchRestController: update Subscriber and Account models to dspMessage 

 

group#DarkSeaGreen <b>Topic: TMOBILE.<env>.DSPA.TOPIC.EVENT, event:'updateMSISDN' and MsgType: "ChangeMsisdn"
 provisioninghandler.switchRestController [#blue]--> EVENT_TOPIC :  Publish the message\n [[../provisioningems/ce.dsg.dice.prov.ems.pcf.eventtopic.updatemsisdn.svg Provisioning_AsncFlow_updateMSISDN_event]] 
end

 else InvalidRequestException

 provisioninghandler.switchRestController -> provisioninghandler.switchRestController: set exception in dspMsgStatus

 note left
   set errorCode as "2003" and StatusMessage as "INVALID XML SYNTAX"
 endnote

 provisioninghandler.switchRestController-[#red]>SwitchControl: return error response

else Exception

 provisioninghandler.switchRestController -> provisioninghandler.switchRestController: set exception in dspMsgStatus

 note left
   set errorCode as "9999" and StatusMessage as "INTERNAL_ERROR"
 endnote 

 provisioninghandler.switchRestController-[#red]>SwitchControl: return error response

end
provisioninghandler.switchRestController-[#green]>SwitchControl: acknowledgement with "200 OK"
@enduml