@startuml
title ** __DSPA Provisioning PCF - NAP UpdateBillCycleCloseDay flow __ **\n

queue NAP_QUEUE #Magenta

participant NAPEmsConsumer
participant NAPProvisioningService
participant NAPProvisioningManager
participant NAPProvisioningDao
participant NAP #darkseagreen

skinparam sequenceGroupBorderColor blue 
group#Magenta <b><color:white> updateBillCycleCloseDay
NAP_QUEUE <- NAPEmsConsumer : Message object from EMS
note left
	ems/TMOBILE.<env>.DSPA.QUEUE.PUBLISH.NAP 
endnote
NAPEmsConsumer -> NAPProvisioningService : processMessage(dspMessage, msgTypeValue, isJmsRedelivered, jmsRedeliveredRetreived)
note left 
		messageType value is POSTPAID or PREPAID
endnote
NAPProvisioningService -> NAPProvisioningService : processCustomerEvents(dspMessage, msgTypeValue, isJmsRedelivered, jmsRedeliveredRetreived) 
loop events
	NAPProvisioningService-> NAPProvisioningService: updateBillCycleCloseDay(dspMessage, napprovisioningData)
	NAPProvisioningService-> NAPProvisioningManager : updateBAN (customer) calls updateBan to updateBillCycle close day
	NAPProvisioningManager-> NAPProvisioningDao : updateBAN (customer)
	NAPProvisioningDao-> NAP: getTmoUsNapSoapServicePortType(napServiceUrl) as pub
	NAPProvisioningDao-> NAPProvisioningDao: create updateBANReq as request
	NAPProvisioningDao -> NAP : updateBAN (updateBANRequest, pub) with updated billCycleCloseDay
	note left 
		No sequence diagrams of NAP available for stitching
	endnote
	alt catch exception
		NAPProvisioningDao-> NAPProvisioningService: handleException() throws exception
		alt exception is of type persistenceNoRecordFoundException
	     NAPProvisioningService-> NAPProvisioningService: set resync to true
		 NAPProvisioningService->NAPEmsConsumer: return void
         note left
          extract customer object and loop thru the events
         endnote
		end
		NAPProvisioningService->NAPEmsConsumer: throws JMSRetryException
		NAPEmsConsumer->NAP_QUEUE: throws DSPMWException
	end		
	NAPProvisioningService->NAPEmsConsumer : return void
end
end
@enduml