@startuml
title ** __DSPA NAP PCF: DeleteCustomer __ **\n

queue NAP_QUEUE #Magenta

participant NAPEMSConsumer
participant NapProvisioningService
participant NapProvisioningManager
participant NapProvisioningDao
participant NAP #darkseagreen

skinparam sequenceGroupBorderColor blue 
group#Magenta <b><color:white> DeleteCustomer

NAP_QUEUE <- NAPEMSConsumer : Message object from EMS
note left
	ems/TMOBILE.<env>.DSPA.QUEUE.PUBLISH.NAP 
endnote
alt try

NAPEMSConsumer -> NapProvisioningService : processMessage(dspMessage, msgTypeValue, isJmsRedelivered, jmsRedeliveredRetreived)
note left
msgTypeValue: POSTPAID or PREPAID
Event: deleteCustomer
endnote
NapProvisioningService -> NapProvisioningService : deleteCustomer(dspMessage,napProvisioningData)

alt dspMessage.getExistingCustomer().getSubscriber() is not null 
note over NapProvisioningService #white 
Set customerIdList and custTypeList from existingCustomer
endnote
else
note over NapProvisioningService #white
Set customerIdList and custTypeList from dspMessage.getCustomer()
endnote
end

NapProvisioningService -> NapProvisioningManager : deleteCustomer(customerIdList, custTypeList)
NapProvisioningManager -> NapProvisioningDao : deleteCustomer(customerIdList, custTypeList)

loop for each customer id in customerIdList
alt customerIdList and custTypeList are not in sync
NapProvisioningDao -> NapProvisioningManager : throw PersistenceException
NapProvisioningManager -> NapProvisioningService : throw PersistenceException
NapProvisioningService -> NAPEMSConsumer : throw JMSRetryException
NAPEMSConsumer -> NAP_QUEUE : throw DSPMWException
end
alt customerId is not valid
NapProvisioningDao -> NapProvisioningManager : throw PersistenceInvalidInputException
NapProvisioningManager -> NapProvisioningService : throw PersistenceInvalidInputException
NapProvisioningService -> NAPEMSConsumer : throw JMSRetryException
NAPEMSConsumer -> NAP_QUEUE : throw DSPMWException
end

NapProvisioningDao -> NAP : deleteCustomer(request,port)
note left 
		No sequence diagrams of NAP available for stitching
endnote
NAP -> NapProvisioningDao : return response
NapProvisioningDao -> NapProvisioningDao : if result code is not success, handle the error
note left: Add result code into a list
end

NapProvisioningDao -> NapProvisioningManager : return resultList
NapProvisioningManager -> NapProvisioningService : return resultList
NapProvisioningService -> NAPEMSConsumer : return void

else
NAPEMSConsumer -> NAP_QUEUE : throw DSPMWException
end
end
@enduml