@startuml
title ** __DSPA NAP PCF: UpdateStatus __ **\n

queue NAP_QUEUE #Magenta

participant NAPEMSConsumer
participant NapProvisioningService
participant NapProvisioningManager
participant NapProvisioningDao
participant NAP #darkseagreen

skinparam sequenceGroupBorderColor blue 
group#Magenta <b><color:white> UpdateStatus

NAP_QUEUE <- NAPEMSConsumer : Message object from EMS
note left
	ems/TMOBILE.<env>.DSPA.QUEUE.PUBLISH.NAP 
endnote
alt try

NAPEMSConsumer -> NapProvisioningService : processMessage(dspMessage, msgTypeValue, isJmsRedelivered, jmsRedeliveredRetreived)
note left
msgTypeValue: POSTPAID or PREPAID
Event: updateStatus
endnote
NapProvisioningService -> NapProvisioningService : updateStatus(dspMessage,napProvisioningData)
NapProvisioningService -> NapProvisioningManager : updateStatus(customer)
NapProvisioningManager -> NapProvisioningDao : updateStatus(customer)

alt customerId or statusCode is not valid
NapProvisioningDao -> NapProvisioningManager : throw PersistenceInvalidInputException
NapProvisioningManager -> NapProvisioningService : throw PersistenceInvalidInputException
NapProvisioningService -> NAPEMSConsumer : throw JMSRetryException
NAPEMSConsumer -> NAP_QUEUE : throw DSPMWException
end
note left
Set subStatusReasonCode as blank if its not PANP
endnote
NapProvisioningDao -> NAP : updateStatus(request,port)
note left 
		No sequence diagrams of NAP available for stitching
	endnote
NAP -> NapProvisioningDao : return response
NapProvisioningDao -> NapProvisioningDao : if result code is not success, handle the error

NapProvisioningDao -> NapProvisioningManager : return void
NapProvisioningManager -> NapProvisioningService : return void
NapProvisioningService -> NAPEMSConsumer : return void

else
NAPEMSConsumer -> NAP_QUEUE : throw DSPMWException
end
end
@enduml