@startuml
title ** __DSPA NAP PCF: UpdateCustomer __ **\n

queue NAP_QUEUE #Magenta

participant NAPEMSConsumer
participant NapProvisioningService
participant NapProvisioningManager
participant NapProvisioningDao
participant NAP #darkseagreen

skinparam sequenceGroupBorderColor blue 
group#Magenta <b><color:white> UpdateCustomer

NAP_QUEUE <- NAPEMSConsumer : Message object from EMS
note left
	ems/TMOBILE.<env>.DSPA.QUEUE.PUBLISH.NAP 
endnote
alt try

NAPEMSConsumer -> NapProvisioningService : processMessage(dspMessage, msgTypeValue, isJmsRedelivered, jmsRedeliveredRetreived)
note left
msgTypeValue: POSTPAID or PREPAID
Event: updateCustomer
endnote
NapProvisioningService -> NapProvisioningService : updateCustomer(dspMessage,napProvisioningData)
NapProvisioningService -> NapProvisioningManager : updateCustomer(customer)
NapProvisioningManager -> NapProvisioningDao : updateCustomer(customer)

alt customerId is not valid
NapProvisioningDao -> NapProvisioningManager : throw PersistenceInvalidInputException
NapProvisioningManager -> NapProvisioningService : throw PersistenceInvalidInputException
NapProvisioningService -> NAPEMSConsumer : throw JMSRetryException
NAPEMSConsumer -> NAP_QUEUE : throw DSPMWException
end

NapProvisioningDao -> NAP : updateCustomer(request,port)
note left 
		No sequence diagrams of NAP available for stitching
endnote
NAP -> NapProvisioningDao : return response
NapProvisioningDao -> NapProvisioningDao : if result code is not success, handle the error

NapProvisioningDao -> NapProvisioningManager : return void
NapProvisioningManager -> NapProvisioningService : return void
NapProvisioningService -> NAPEMSConsumer : return void

else
NAPEMSConsumer -> NAP_QUEUE : throw DSPMWException
end
end
@enduml