@startuml
title ** __DSPA Provisioning PCF - NAP UpdateCustomerSOCArray flow __ **\n

queue NAP_QUEUE #Magenta

participant NAPEmsConsumer
participant NAPDirectProvisioningService
participant NAPProvisioningManager
participant NAPProvisioningDao
participant NAP #darkseagreen
queue CALLBACK_QUEUE #Magenta

skinparam sequenceGroupBorderColor blue 
group#Magenta <b><color:white> updateCustomerSOCArray
NAP_QUEUE <- NAPEmsConsumer : Message object from EMS
note left
	ems/TMOBILE.<env>.DSPA.QUEUE.PUBLISH.NAP 
endnote
NAPEmsConsumer -> NAPDirectProvisioningService : processMessage(dspMessage, msgTypeValue, isJmsRedelivered, jmsRedeliveredRetreived)
note left 
	messageType value is 2BRAND or METRO or WHOLESALE
endnote
NAPDirectProvisioningService -> NAPDirectProvisioningService : processCustomerEvents(dspMessage, msgTypeValue, isJmsRedelivered, jmsRedeliveredRetreived) 
loop events
	NAPDirectProvisioningService-> NAPDirectProvisioningService: updateCustomerSOCArray(dspMessage, napprovisioningData)
	NAPDirectProvisioningService-> NAPProvisioningManager : updateCustomerSOCArray (customer)
	NAPProvisioningManager-> NAPProvisioningDao : updateCustomerSOCArray (customer)
	NAPProvisioningDao-> NAP: getTmoUsNapSoapServicePortType(napServiceUrl) as pub
	NAPProvisioningDao-> NAPProvisioningDao: create updateCustomerSOCArrayReq as request	
	NAPProvisioningDao -> NAP : updateCustomerSOCs(updateCustomerSOCArrayRequest, pub)
	note left 
		No sequence diagrams of NAP available for stitching
	endnote
	NAPProvisioningDao -> NAPProvisioningDao : add empty socErrors array
	alt socfaults
		NAPProvisioningDao -> NAPProvisioningDao : add errors to SocErrorArray and return
	end
	alt catch exception
		NAPProvisioningDao-> NAPDirectProvisioningService: handleException() throws exception
		alt exception is persistencenorecordfoundexception
	     NAPDirectProvisioningService-> NAPDirectProvisioningService: set resync to true
		 NAPDirectProvisioningService->NAPEmsConsumer: return void
         note left
          extract customer object and loop thru the events
         endnote
		end
		NAPDirectProvisioningService->NAPEmsConsumer: throws JMSRetryException
		NAPEmsConsumer->NAP_QUEUE: throws DSPMWException
	end		
	group#DarkSeaGreen <b>Topic: TMOBILE.<env>.DSPA.QUEUE.CALLBACK, event:'callback'
	NAPDirectProvisioningService-[#blue]-> CALLBACK_QUEUE : sends call back message to Tibco \n [[../provisioningems/ce.dsg.dice.prov.ems.pcf.queue.callback.svg Provisioning_AsyncFlow_callback_event]] 
	end
	NAPDirectProvisioningService->NAPEmsConsumer : return void
end
end
@enduml