@startuml
actor User #Black
participant "HAProxy" #MistyRose
participant "Bulwark" #MistyRose
participant "Union" #MistyRose
== JWT access ==
User -[#red]> HAProxy: JWT auth
note left #Pink: Send in a JWT
HAProxy -[#red]> Bulwark:
Bulwark -[#red]> Union: Union key
Union -[#red]> Bulwark
Bulwark -[#red]> HAProxy
HAProxy -[#red]> User
== Key access ==
User -[#blue]> HAProxy: DAB key
note left #PowderBlue: OR request using a key
HAProxy -[#blue]> Union: Union key
Union -[#blue]> HAProxy
HAProxy -[#blue]> User
@enduml
