@startuml
skinparam roundcorner 20
skinparam ActorBorderColor #DeepPink
skinparam ParticipantBorderColor #Black

Title Card Engine Flow for Home, Account, More pages

ClientApp -> HAProxy: Request for \n Home/Account/More page
HAProxy -> Bulwark: Request for \n Home/Account/More page
Bulwark -> CardEngine: Request for \n Home/Account/More page
CardEngine -> CardData: get Content
CardEngine <- CardData: Return Content
CardEngine -> FactsController: get Required Facts
CardEngine <- FactsController: Return Facts
Bulwark <- CardEngine: Response
HAProxy <- Bulwark: Response
ClientApp <- HAProxy: Response
@enduml

