@startuml

title Home Internet Exchange

actor FrontlineRep

participant QV
participant QVXP
participant RSP
participant EBS
participant TIBCO
participant ODM
participant DMW
participant OMS


FrontlineRep   -> QV:
QV -> QVXP:
== QVXP  calls Service API "getWarrantyEligibility(MSISDN , LineType)" ==
QVXP -> EBS: QVXP calls getWarrantyEligibility to validate eligibility of Subscriber.
EBS -> ODM :

ODM --> QVXP : <font color=green>If Subscriber is Eligible
       QVXP-> QVXP : <font color=blue>Continue Warranty

alt <font color=red> If Subscriber not Eligible
ODM --> QVXP : <font color=red> Display Error message "Customer account not eligible."
end
alt <Font color=red> if Eligibility service down
ODM --> QVXP : <Font color=red> Display Error message "Unable to validate account. Please retry or create a ticket with Service Desk."
end
note over QVXP
Scenario 
1)Reps selects the Line type ISP from QV and toggles to Microapp Warranty Initiation page
2)getWarrantyEligibility service calls determines if the subcriber is eligible or not
3)If Success reps navigates to device Validation page
end note

== QVXP calls Service API "getWarrantyLookUp(MSISDN)" ==
QVXP -> TIBCO :
TIBCO -> DMW :
DMW ->  QVXP : <font color=blue> Display all the Device History and only the Line Type Device will be Eligible
note over QVXP
Scenario 
1)Reps lands to Device Validation page
2)getWarrantyLookUp service displays all the Device History

end note

== QVXP calls Service API "getDeviceEligibility(LineType, Device data)" ==
QVXP -> TIBCO : QVXP Calls getDeviceEligibility . Swagger for [[https://flows.corporate.t-mobile.com/all-swaggers/swagger/ce.dsg.dm/device-warranty-v1.json/**/getDeviceEligibility]]  API **
TIBCO -> ODM :

ODM  -> QVXP : <font color = green> If Device is eligible for replacement
QVXP -> QVXP : <font color=blue>Continue Exchange
alt <font color=red> If Device not Eligible
ODM -> QVXP : <Font color = red > Halt Progress
end

note over QVXP
Scenario 
1)Reps lands to Device Validation page
2)Reps validates the defective device and checks the eligibility of the device
3) If the Device is eligible for exchange, reps proceed to continue exchange
4)If device is not eligible, exchange option is disabled.
end note
== QVXP calls Service API "getReferenceData(datakey)" ==

QVXP -> RSP : Service call to fetch Manager-Override reason codes to Bypass Validation
RSP -> QVXP : <font color=blue> Display all the Manager-Override reason codes required to Bypass Validation

== QVXP calls Service API "QueryAuthentication(UserName,password)" ==

QVXP -> RSP : Service call to Authenticate Manager Override Credentials

RSP  -> QVXP : <font color = green> If Authentication Success
QVXP -> QVXP : <font color=blue>Continue Manager Override
alt <font color=red> If Authentication Failed
TIBCO -> QVXP : <Font color = red > Halt Progress
end



    == QVXP calls Service API "getReplacementDevice(IMEI,ProductType)" ==


TIBCO  -> QVXP : <font color = green> If Replacement device available
QVXP -> QVXP : <font color=blue>Continue Exchange
alt <font color=red> If replacement Device not available
TIBCO -> QVXP : <Font color = red > Halt Progress
end
note over QVXP
Scenario 
1)Reps proceeds to Replacement Device page
2)Reps selects the replacement device if it is available
3)If replacement is device is not available, exchange option is disabled.
end note
== QVXP calls Service API "getShippingOptions  (OTV,ProductType,LineType)" ==
QVXP -> TIBCO : QVXP Calls getShippingOptions . Swagger for [[https://flows.corporate.t-mobile.com/all-swaggers/swagger/ce.dsg.dm/device-warranty-v1.json/**/getShippingOptions]]  API **
TIBCO -> WCS
WCS -> QVXP: <Font color =blue> Displays All available Shipping methods
note over QVXP
Scenario 
1)Reps proceeds to Shipping page
2)Overnight Shipping option will be displayed for Reps selection
3)Shipping options Expression
1.	The value of OTV should be only “AdvancedExchange”.
2.	The value of ProductType should be only “Device”.
3.	The value of LineType should only be “ISP”


end note
== QVXP calls Service API "getSubscriberInfo  (MSISDN)" ==
QVXP -> TIBCO :
TIBCO -> WCS
WCS -> QVXP: <Font color =blue> This is used to display shipping address
note over QVXP
Scenario 
1)Reps proceeds to Shipping page
2)Reps can Edit/Add Shipping address
3)Reps selects SMS or Email Notifications
end note
== QVXP calls Service API "getSubscriberList  (BAN)" ==
QVXP -> RSP :
RSP -> QVXP : <Font color =blue> This is used to display all available MSISDN in the BAN
note over QVXP
Scenario 
1)Reps proceeds to Shipping page
2)Fetch all all available MSISDN in the BAN under SMS notification
3)Reps selects the MSISDN for SMS notification
end note
== QVXP calls Service API "CreateDraftOrder (LineType, Defective device, Replacement Device)" ==

QVXP -> EBS : QVXP calls CreateDraftOrder. Swagger for [[https://flows.corporate.t-mobile.com/all-diagrams/sequence_diagrams/omd/ce.dsg.od.homeinternetrouter_warrantyreplacement.puml/**/CreateDraftOrder]]  API **
EBS -> OMS
OMS -> QVXP: <Font color =blue> This will create a draft order
note over QVXP
Scenario 
1)Reps proceeds to Checkout Page
2)ExchangeType = ISP will be passed to identify Home-Internet Warranty Exchange Order.
3)Createdraft order is called to create a draft orders
end note

== QVXP calls Service API "getOrderDetails(Order Number)" ==
QVXP -> EBS :
EBS -> OMS :
OMS -> QVXP: <Font color =blue> This will display the estimated Shipping date

== QVXP calls Service API "ConfirmOrder(Order Number)" ==
QVXP -> EBS : QVXP calls ConfirmOrder. Swagger for [[https://flows.corporate.t-mobile.com/all-diagrams/sequence_diagrams/omd/ce.dsg.od.homeinternetrouter_warrantyreplacement.puml/**/ConfirmOrder]]
EBS -> OMS :
OMS -> QVXP: <Font color =blue> This confirms the Order


@enduml

