@startuml
participant QVFlex as QVF
participant QVXP as QVXP
participant OMNI as O
participant "DICE\nTIBCO/RSP" as T
participant Samson as S
participant Pos as P



note over QVXP
   The Use Cases below reflect the possible Retail or Care Ship-To Fulfillment flows where <u>Financing is initiated in QVXP</u>

   Retail/Care Ship-To Fulfillment Flows
         Alternate:  QVFlex passes Role = BRP or OTHER
         Alternate:  QVFlex passes Role = AU1 or AU2
         Alternate:  QVFlex passes Role = AU
         Alternate:  Flow Initiated from QVXP. Role automatically assigned from existing customer verification process

In each Use Case, the option to finance device/accessory is selected in QVXP and this is where UX/Wireframe captures requestor name

end note

group Care/Retail Ship-To Fulfillment Flows Where Financing Selected in QVXP
group Flow Initiated from QVFlex
QVF -> QVF: Verify User\nDetermine ROLE
QVF -> QVXP: Pass ROLE in handoff to QVXP
QVXP -> QVXP: Rep selects POIP financing


Note over QVXP #aqua
   QVXP will obtain account details for following purpose:
   (1) Obtain AU1/AU2 names from Samson to dispaly on UX, when required

end note

QVXP -> T: RSP/<i>getBasicAccountDetails</i>
T -> S: <i>evGtCustInfo</i>
S --> T:
T --> QVXP: Return




alt QXFlex Passes Role = BRP or OTHER
QVXP -> QVXP: Treat as BAU w/r/t UI/UX
Note over QVXP
   BAU w/r/t UI/UX means that QVXP does not need to capture name of requestor,
   since Disclosure Agreement will be BAU and contain only the BRP name. BRP name
   is already passed today
end note
end

alt QXFlex Passes Role = AU1 or AU2
QVXP -> QVXP: Via QVXP UX, Prompt Rep to enter FN & LN of AU1 or AU2
end

alt QXFlex Passes Role = AU
QVXP -> QVXP: Via QVXP UX, Prompt Rep to Select AU1 or AU2. Then prompt to enter FN & LN
QVXP -> QVXP: Set ROLE Value to AU1 or AU2, based on Rep selection
end
end


group Flow Initiated from Tapestry/QVXP
QVXP -> QVXP: Verify customer
QVXP -> QVXP: As part of verification process, Role is automatically assigned as BRP, AU1, or AU2
QVXP -> QVXP: Rep selects POIP financing
QVXP -> QVXP: Via QVXP UX, prompt for FN & LN if Role = AU1 or AU2
end


Note over QVXP #aqua
   QVXP passes new parameters to OMNI:

   (1) Role (BRP, AU1, AU2, OTHER, AU):  Required
   (2) Auth User FN:  Required if  Role = ( AU1 or AU2 )
   (3) Auth User LN:  Required if  Role = ( AU1 or AU2 )

    end note



alt IF POIP Care flow
QVXP -> O:  <i>createDraftOrder</i>
O --> QVXP: orderID
QVXP -> O: <i>confirmOrder</i>
end

alt IF POIP Retail flow
QVXP -> P:  <i>Toggle to Mpos</i>

end




end

@enduml