@startuml
actor Customer
participant Web
participant Sigma
participant WCS
participant Amdocs
title Account History

== Display Account History ==

Customer ->> Web : Load Order History.
activate Web
Web -> Sigma : **getOrders (wcToken, wcTrustedToken, EMAIL_ID, STARTDATE, ENDDATE)**
activate Sigma
Sigma -> WCS : **getOrderBySearchTerm (wcToken, wcTrustedToken, EMAIL_ID, STARTDATE, ENDDATE)**
activate WCS
WCS --> Sigma : Orders
deactivate WCS
Sigma --> Web : Orders
deactivate Sigma
Web --> Customer : Orders
deactivate Web

Customer ->> Web : Load Order Detail.
activate Web
Web -> Sigma : **orderDetails (wcToken, wcTrustedToken, orderId)**
activate Sigma
Sigma -> WCS : **getOrderDetails (orderId)**
activate WCS
WCS --> Sigma : OrderDetails
deactivate WCS
Sigma --> Web : OrderDetails
deactivate Sigma
Web --> Customer : OrderDetails
deactivate Web

Customer ->> Web : Get Statement History.
activate Web
Web -> Sigma : **billStatements (JWT, MDN, RM)**
activate Sigma
Sigma -> Amdocs : **getBillStatements (JWT, MDN, RM)**
activate Amdocs
Amdocs --> Sigma : billStatementsList
deactivate Amdocs
Sigma --> Web : billStatementsList
deactivate Sigma
Web --> Customer : billStatementsList
deactivate Web

Customer ->> Web : View/Download PDF.
activate Web
Web -> Sigma : **getBillStatementPDF (MDN, JWT, RM, ebillDate, isAccountLevelBill)**
activate Sigma
Sigma -> Amdocs : **getBillStatementPDF (MDN, JWT, RM, ebillDate, isAccountLevelBill)**
activate Amdocs
Amdocs --> Sigma : pdfByteArray
deactivate Amdocs
Sigma --> Web : pdfByteArray
deactivate Sigma
Web --> Customer : pdfByteArray
deactivate Web

Customer ->> Web : Get Call History.
activate Web
Web -> Sigma : **getSubscriberCallHistory (JWT, RM, subscriberUsageDetailsRequest)**
activate Sigma
Sigma -> Amdocs : **getSubscriberUsageDetails (JWT, RM, subscriberUsageDetailsRequest)**
activate Amdocs
Amdocs --> Sigma : subscriberUsageDetails
deactivate Amdocs
Sigma --> Web : subscriberCallDetails
deactivate Sigma
Web --> Customer : subscriberCallDetails
deactivate Web

@enduml