@startuml
actor Customer
participant Web
participant Sigma
participant Amdocs
participant Commerce
title Profile

== Password Management==
Customer->Web : Load Security Questions
activate Web
Web->Sigma : **getAccountSecurityQuestions**
activate Sigma
Sigma->Amdocs : **getAccountSecurityQuestions**
activate Amdocs
Amdocs-->Sigma : SecurityQuestions
deactivate Amdocs
Sigma->Amdocs : **getAccountAndSubscriber(MDN, JWT, RM)**
activate Amdocs
Amdocs-->Sigma : securityQuestionCode
deactivate Amdocs
Sigma->Sigma:return security questions and securityQuestionCode to Web
Sigma-->Web : SecurityQuestionsWithCurrent
deactivate Sigma
Web-->Customer : Next Step
deactivate Web
Customer->Web : Submit SecurityInformation (PIN, Security Question answer)
activate Web
Web->Sigma : **updateAccountSecurityInformation (MDN, JWT, securityInformation)**
activate Sigma
Sigma->Amdocs : **updateAccountSecurityInformation (MDN, JWT, securityInformation)**
activate Amdocs
note right
    Manage-Account-And-Subscriber MS
end note
Amdocs-->Sigma : Acknowledgement
deactivate Amdocs
Sigma-->Web : Acknowledgement
deactivate Sigma
Web-->Customer : Acknowledgement
deactivate Web

== Profile Billing Information update==

Customer->Web : Edit Billing Information
activate Web
Web->Sigma : **updateAccountinfo(Name, Email, Address)**
activate Sigma
Sigma->Amdocs: validateAddress(Address)
activate Amdocs
Amdocs-->Sigma: validateAddressResponse
deactivate Amdocs
alt InValid Address, Submit the change, Confirm from Customer
    Sigma-->Web: suggestedAddress
    deactivate Sigma
    Web-->Customer: suggestedAddress
    deactivate Web
    Customer->Web: Confirm Address
    activate Web
    Web->Sigma : **updateAccountinfo(Name, Email, Address)**
    note left
        set addressApproved=TRUE, if user
        choses to keep the address they entered
    end note
else Valid Address, Submit the change
    activate Sigma

    Sigma->Amdocs : **updateAccountInformation(MDN, Name, Address)**
    note left
        call Amdocs if addressApproved=TRUE
        or address is valid
    end note
    activate Amdocs
    note right
        Manage-Account-And-Subscriber MS
    end note
    Amdocs-->Sigma : Acknowledgement
    deactivate Amdocs
end

Sigma-->Web : Acknowledgement
deactivate Sigma
Web-->Customer : Acknowledgement
deactivate Web

== Profile E911 Information update==

Customer->Web : Edit E911 Address
activate Web
Web->Sigma : **updateE911(Address)**
activate Sigma
Sigma->Amdocs: validateAddress(Address)
activate Amdocs
Amdocs-->Sigma: validateAddressResponse
deactivate Amdocs

alt InValid Address, Submit the change, Confirm from Customer
    Sigma-->Web: suggestedAddress
    deactivate Sigma
    Web-->Customer: suggestedAddress
    deactivate Web
    Customer->Web: Confirm Address
    activate Web
    Web->Sigma : **updateE911(Address)**
    note left
        set addressApproved=TRUE, if user
        choses to keep the address they entered
    end note
else Valid Address, Submit the change
    activate Sigma
    Sigma->Amdocs : **updateSubscriberDetails(Address)**
    note left
        call Amdocs if addressApproved=TRUE
        or address is valid
    end note
    activate Amdocs
    note right
        Manage-Account-And-Subscriber MS
    end note
    Amdocs-->Sigma : Acknowledgement
    deactivate Amdocs
end

Sigma-->Web : Acknowledgement
deactivate Sigma
Web-->Customer : Acknowledgement
deactivate Web

== Add Shipping Address ==

Customer->Web : Add Shipping Information
activate Web
Web->Sigma : **addShipping(Address)**

activate Sigma
Sigma->Amdocs: validateAddress(Address)
activate Amdocs
Amdocs-->Sigma: validateAddressResponse
deactivate Amdocs
alt InValid Address, Submit the change, Confirm from Customer
    Sigma-->Web: suggestedAddress
    deactivate Sigma
    Web-->Customer: suggestedAddress
    deactivate Web
    Customer->Web: Confirm Address
    activate Web
    Web->Sigma : **addShipping(Address)**
    note left
        set addressApproved=TRUE, if user
        choses to keep the address they entered
    end note
else Valid Address, Submit the change
    activate Sigma
    Sigma->Commerce : **addShippingAddress(Address)**
    note left
        call Commerce if addressApproved=TRUE
        or address is valid
    end note
    activate Commerce
    Commerce-->Sigma : Acknowledgement
    deactivate Commerce
end

Sigma-->Web : Acknowledgement
deactivate Sigma
Web-->Customer : Acknowledgement
deactivate Web

== Edit Shipping address ==

Customer->Web : Edit Shipping Information
activate Web
Web->Sigma : **updateShipping(addressId, newAddress)**

activate Sigma
Sigma->Amdocs: validateAddress(newAddress)
activate Amdocs
Amdocs-->Sigma: validateAddressResponse
deactivate Amdocs
alt InValid Address, Submit the change, Confirm from Customer
    Sigma-->Web: suggestedAddress
    deactivate Sigma
    Web-->Customer: suggestedAddress
    deactivate Web
    Customer->Web: Confirm Address
    activate Web
    Web->Sigma : **updateShipping(addressId, newAddress)**
    note left
        set addressApproved=TRUE, if user
        choses to keep the address they entered
    end note
else Valid Address, Submit the change
    activate Sigma
    Sigma->Commerce : **updateShippingAddress(addressId, newAddress)**
    note left
        call Commerce if addressApproved=TRUE
        or address is valid
    end note
    activate Commerce
    Commerce-->Sigma : Acknowledgement
    deactivate Commerce
end

Sigma-->Web : Acknowledgement
deactivate Sigma
Web-->Customer : Acknowledgement
deactivate Web

== Delete Shipping Address ==

Customer->Web : Delete Shipping Information
activate Web
Web->Sigma : **deleteShipping(addressId)**
activate Sigma
Sigma->Commerce : **deleteShipping(addressId)**
activate Commerce
Commerce-->Sigma : Acknowledgement
deactivate Commerce
Sigma-->Web : Acknowledgement
deactivate Sigma
Web-->Customer : Acknowledgement
deactivate Web

@enduml
