@startuml
actor Customer 
participant Web
participant Sigma
participant SSO
participant metroSOA
 
== Login Flow==
 
Customer -> Web: signIn(MDN, Password)
Web->SSO : signIn(MDN, Password)
SSO->Web: sso-token
note left: sso-token is cached in session cookies\nand validated with every subsquent call to web
Web -> Sigma : getAccountAndSubscriberInfo(MDN)
Sigma-> metroSOA: getAccountAndSubscriber (MDN)
metroSOA-> Sigma: AccountAndSubscriberInfo
Sigma-> Web: AccountAndSubscriberInfo
Web->Customer: MyAccount Home

 
@enduml