{
	"swagger": "2.0",
	"info": {
		"description": "",
		"version": "1.0.0",
		"title": "IFM Msisdns",
		"contact": {
			"name": "Vijayakumar.Attivaram",
			"email": "vijayakumar.attivaram1@t-mobile.com"
		}
	},
	"host": "dit01-pd.api.t-mobile.com",
	"basePath": "/ifm/v1/msisdns",
	"x-servers": {
		"url": "dit01-pd.api.t-mobile.com",
		"description": "server path"
	},
	"schemes": [
		"https"
	],
	"paths": {
		"/": {
			"get": {
				"tags": [
					"IFM Msisdns Resource"
				],
				"summary": "This operation is used to get associated MSISDN based on device IPv6 address",
				"description": "This operation is used to get associated MSISDN based on device IPv6 address",
				"operationId": "getMsisdnFromIPv6",
				"security": [
					{
						"Oauth": [
							"read:getMsisdnFromIPv6"
						]
					}
				],
				"x-api-pattern": "QueryResource",
				"parameters": [
					{
						"name": "timestamp",
						"in": "header",
						"description": "API be called timestamp passed by API Caller, format : 2015-12-08T00:34:31.536Z",
						"required": true,
						"type": "string",
						"format": "date-time",
						"x-example": "2019-03-28T14:40:40.536Z"
					}, {
						"name": "deviceIP",
						"in": "header",
						"description": "IPv6 address of mobile device ",
						"required": true,
						"type": "string",
						"pattern": ".*$",
						"x-example": "2607:fb90:7ed5:d75a:f02e:8aec:6894:d17a"
					}, {
						"name": "interactionid",
						"in": "header",
						"description": "This Id is going to represent a interactionid which is sent by partener",
						"required": true,
						"type": "string",
						"pattern": ".*$",
						"x-example": "0328201972017144040080067"
					}, {
						"name": "merchant",
						"in": "header",
						"description": "Clients for IFM Partners",
						"required": true,
						"type": "string",
						"pattern": ".*$",
						"x-example": "Bank of America"
					}, {
						"name": "content-type",
						"in": "header",
						"description": "output response format(Json) application/json",
						"required": true,
						"type": "string",
						"enum": [
							"application/json"
						],
						"x-example": "application/json"
					}, {
						"name": "Authorization",
						"in": "header",
						"description": "Autorization code, for eg,Bearer 4V1Z0c8Z9h3s0i85T8ppQTOaaAKE",
						"required": true,
						"type": "string",
						"pattern": "[bB]earer .*$",
						"x-example": "Bearer <access token>"
					}
				],
				"responses": {
					"200": {
						"description": "Ok",
						"schema": {
							"$ref": "#/definitions/searchIdentityResponse"
						},
						"examples": {
							"application/json": {
								"searchIdentityResponse": {
									"subscriber": {
										"msisdn": "9723023462"
									}
								}
							}
						}
					},
					"400": {
						"description": "Bad Request",
						"schema": {
							"$ref": "#/definitions/errors"
						}
					},
					"503": {
						"description": "Service Unavailable",
						"schema": {
							"$ref": "#/definitions/errors"
						}
					},
					"500": {
						"description": "Associated MSISDN not found",
						"schema": {
							"$ref": "#/definitions/errors"
						}
					}
				}
			}
		}
	},
	"definitions": {
		"errorItem": {
			"type": "object",
			"properties": {
				"userMessage": {
					"description": "Use to pass human friendly information to the user",
					"$ref": "#/definitions/userMessage"
				},
				"systemMessage": {
					"description": "Used to pass system information.",
					"$ref": "#/definitions/systemMessage"
				},
				"code": {
					"description": "Used to pass error codes",
					"$ref": "#/definitions/errorCode"
				}
			}
		},
		"errorCode": {
			"type": "object"
		},
		"systemMessage": {
			"type": "object"
		},
		"userMessage": {
			"type": "object"
		},
		"errors": {
			"type": "object",
			"properties": {
				"errors": {
					"$ref": "#/definitions/errorType"
				}
			},
			"description": "Return error message body"
		},
		"errorType": {
			"type": "object",
			"properties": {
				"error": {
					"$ref": "#/definitions/errorArray"
				}
			},
			"description": "Return error message body"
		},
		"errorArray": {
			"type": "object",
			"description": "Return error message body"
		},
		"searchIdentityResponse": {
			"type": "object",
			"properties": {
				"subscriber": {
					"$ref": "#/definitions/Subscriber"
				}
			}
		},
		"Subscriber": {
			"type": "object",
			"properties": {
				"msisdn": {
					"type": "string",
					"description": "Mobile Subscriber Integrated Services Digital Network Number. A number uniquely identifying a subscription in a GSM or a UMTS mobile network. Simply put, it is the telephone number to the SIM card in a mobilecellular phone."
				}
			}
		}
	},
	"securityDefinitions": {
		"Oauth": {
			"type": "oauth2",
			"description": "When you sign up for an account, you are given your first API key.\nTo do so please follow this link: https://www.t-mobile.com/site/signup/\nAlso you can generate additional API keys, and delete API keys (as you may\nneed to rotate your keys in the future).\n",
			"tokenUrl": "https://dit01-pd.api.t-mobile.com/v1/oauth2/accesstoken?grant_type=client_credentials",
			"flow": "application",
			"scopes": {
				"read:getMsisdnFromIPv6": "Get Msisdn from device IPv6 address over https"
			}
		}
	}
}