@startuml
actor "Customer \n on \n Web or Mobile" as UI
participant "AEM\n Servlets" as AEM
participant "AEM\nDigital Asset\n Manager (DAM)" as DAM
'box "EOS" #LightBlue
  participant "EOS\n //JSON <-> SOAP// OR JSON <-> JSON" as EOS
'end box
participant PUBEOS
participant Tibco
participant "MPM" as MPM


== explore Plans ==
UI -> UI : Selects 'Change Plan'
activate UI
alt deep link to explore plan page
UI -> SAMAPI:[[https://developer.t-mobile.com/prod-reference#Billing-and-Charging_FinancialAccount-Aggregation/operation/recurringItemsByAccount]]
SAMAPI -> UI: Response from SAM API
end alt

UI -> AEM: 
AEM -> EOS: getplanSelectionEOSOperations
activate AEM

EOS -> Tibco: getPlanSelectionOperations : multiple calls for each lines
activate Tibco
activate EOS
EOS -> PUBEOS: [[:swagger link for discount API]]: for getting discount and autopay eligibility account level
activate PUBEOS
PUBEOS -> EOS: discount for lines
deactivate PUBEOS
Tibco -> EOS: response for eligible plans for line
deactivate Tibco
alt in case of pooled plan
EOS -> EOS: Intersection of all eligible plans for all the lines
end alt
EOS -> MPM:[[:link for MPM swagger]] get details for eligiblePlans and autopay discount price
activate MPM
MPM -> EOS: details of plans
deactivate MPM

EOS -> AEM: 
deactivate EOS
AEM -> UI:
deactivate AEM
deactivate UI

== Plans comparison ==

UI -> UI : fetch all info from LAST page
activate UI
deactivate UI

== Review ==
UI -> UI : info from SAM API and explore plan page
activate UI
UI -> AEM: [[: link to servlet]]

AEM -> EOS: [[: link to eos swagger]]
activate AEM

alt if migration and hybrid account
EOS -> EOS : getPlanSelectionOperation for getting plans list
activate EOS
end alt
alt if new rate plan conflicts with existing data service
EOS -> Tibco: getEligibleServices
activate Tibco
Tibco -> EOS: filter and default data service 
EOS -> MPM : for getting details for eligible Data service
activate MPM
MPM -> EOS
deactivate MPM 
end alt
EOS -> Tibco: getChangeServiceEffectiveDate
Tibco -> EOS
deactivate Tibco
deactivate EOS
EOS -> AEM: getChangeServiceEffectiveDate and default data
AEM -> UI
deactivate AEM
alt autoPay eligible and not registered
UI -> UI : Payment collection module, retuns cvv, cc, expirationDate
deactivate UI
end alt

== on click of submit ==
UI -> AEM: eos-plansunmit
activate UI
AEM -> EOS : eos-plansunmit
activate AEM
EOS -> PUBEOS : autopay registeration
activate PUBEOS
activate EOS
activate Tibco
EOS -> Tibco : validatePlansandservice
Tibco -> EOS : response of validatePlansandservice
EOS -> Tibco : changePLanandservices
Tibco -> EOS : response changePLanandservices
PUBEOS -> EOS: response for autopay registration
deactivate Tibco
deactivate PUBEOS
EOS -> AEM 
deactivate EOS
AEM -> UI
deactivate AEM
deactivate UI
@enduml
