@startuml
actor Customer
participant "Browser" as browser
participant "AEM" as CMS
participant EOS_PaymentManager
participant EOS_ServiceQuote
participant EOS_Payments
participant EOS_Wallet
participant EOS_PA
participant DPS
participant DBS
participant TIBCO

center header
<font size=32>MyTMO OTP V4 Flow</font>
endheader

Customer -> browser : Navigates to my.t-mobile.com/onetimepayment

browser -> CMS : /otpManager?action=getSubcriberData
CMS -> EOS_PaymentManager : [[GET]]  /paymentmanager/subscriberPaymentdetails
EOS_PaymentManager -> TIBCO: getSubscriberInfo
TIBCO -> EOS_PaymentManager: Subscriber Details {Account(accountNumber, type), BillBalance, LastPaymentDetail
alt If Sedona (feeIndicator=M && involuntarySuspendedIndicator=true)
  EOS_PaymentManager -> EOS_ServiceQuote : /v1/generatequote
  EOS_ServiceQuote -> DBS : /billing/v1/servicequotes
  DBS -> EOS_ServiceQuote : Quote Response
  EOS_ServiceQuote -> EOS_PaymentManager : Quote Response
end
EOS_PaymentManager -> CMS : subscriberpaymentdetails
CMS -> browser : subscriberPaymentDetails


browser -> CMS : PA Details /OTPServlet?action=getPAData
CMS -> EOS_PaymentManager : [[GET]]  /paymentmanager/paymentArrangementDetails
EOS_PaymentManager -> EOS_PA :  /v1/paymentArrangement/paDetails
EOS_PA -> DBS: /billing/v1/payment-profile/payment-arrangements/eligibility
DBS -> EOS_PA : PA eligibility
EOS_PA -> DBS: /billing/v1/payment-profile/payment-arrangements/search
DBS -> EOS_PA : Existing PA details
ALT IF PA Eligibility = FALSE
EOS_PA -> DBS : GET Aging History billing/v1/accounts-receivables/aging
DBS -> EOS_PA : Response Aging History
end

EOS_PA -> EOS_PaymentManager : isPAEligible, isPAAlreadySetup, PAData, PastDue > 30 days (Aging History)

EOS_PaymentManager -> CMS : paymentDate, paType,amount, paymentStatus,card/bank details, isSecurePA
CMS -> browser : RESPONSE PA details

browser -> CMS : /OTPServlet?action=getSPData
CMS -> EOS_PaymentManager : [[GET]] /paymentmanager/schedulePaymentDetails
EOS_PaymentManager -> TIBCO : /genericsp/soap/getSchedulePayment
TIBCO -> EOS_PaymentManager : accountNumber, indicators, pendingPaymentDetails
EOS_PaymentManager -> CMS : customerName, amount, status, sequenceNo
CMS -> browser : payment indicators, pendingPaymentDetails


Customer -> browser : Delete Sceduled Payment btton
browser -> CMS : /ScheduledActivityServlet?action=delete
CMS->EOS_Payments: [[DELETE]] /payments/v4/fdp
EOS_Payments->DPS: [[DELETE]] /payments/ecommerce/v4/mpi
DPS->EOS_Payments: deletion response
EOS_Payments->CMS:deletion response
CMS->browser: deletion response

Customer -> browser : Clicks on submit payment button
browser -> CMS : /PaymentInformation?action=makeOtpPayment

alt FutureDatedPayment
  CMS -> EOS_Payments: [[POST]] /payments/v4/fdp
  EOS_Payments -> DPS : /payments/ecommerce/v4/mpi

else ImmediatePayment

  alt if  Non-Sedona 
    CMS -> EOS_Payments : /v4/payments/otp
    EOS_Payments -> DPS : [[POST]] /payments/ecommerce/v3/processpayments
    DPS -> EOS_Payments : Response
  else if Sedona
    CMS -> EOS_Payments : /v3/payments/upfrontotp
    EOS_Payments -> DBS : [[POST]] /billing/v1/servicequotes \nAccept Quote
    DBS -> EOS_Payments : Response
    EOS_Payments -> EOS_Payments: /payments/v3/process
    EOS_Payments -> DPS : [[POST]] /payments/ecommerce/v3/processpayments
    DPS -> EOS_Payments : Response

    alt Async if payment successful
      EOS_Payments -> DBS : [[POST]] /web/v1/receipts \nGenerate Receipt 
      DBS -> EOS_Payments : Receipt Response
    end

  end
    
  group Async if save payment method = true
    EOS_Payments -> EOS_Wallet : [[DELETE]] /wallet/v4/spm \n(TMO_ID, PaymentMethodDetails)
    EOS_Wallet -> DPS : [[DELETE]] /payments/v4/mpi \n(memberIdType=INDL,memberId={TMO_ID}, PaymentMethodDetails)
    DPS -> EOS_Wallet : Save Response
    EOS_Wallet->EOS_Payments : Save Response
  end

EOS_Payments -> CMS : Payment  Response

end


CMS -> browser : Payment  Response 
@enduml
