'See http://plantuml.com/sequence-diagram for details on how to create Sequence Diagrams in PlantUML'

@startuml
actor Customer
participant "AEM\n Servlets" as CMS
participant Customer
participant "Browser" as browser
participant EOS_Payments
participant DPS
participant Tibco
center header
<font size=32>MyTMO AutoPay V4 Flow</font>
endheader


Customer -> browser : Navigates to my.t-mobile.com/autopay

browser -> CMS : /PaymentInformation?action=getSubscriberInfo
CMS -> Tibco: /getSuscbscriberInfo
Tibco --> CMS: SubscriberInfo 
CMS -> browser :  SubscriberInfo


browser -> CMS : /profile/easypay
CMS -> EOS_Payments: [[GET]] /payments/v3/autopay/{accountNumber}
EOS_Payments->DPS: [[POST]] /payments/v3/autopay/search
DPS->EOS_Payments: AutoPay Response
EOS_Payments --> CMS: AutoPay Response
CMS --> browser: AutoPay Response

browser -> CMS : /easypay?operationName=getPAData
CMS -> Tibco: /getPaymentArrangement
Tibco --> CMS: PaymentArrangement Response
CMS --> browser: PaymentArrangement Response


browser -> CMS: /discountsServlet?action=getEligibleDiscount
CMS -> Tibco: /GetEligibleDiscounts(BAN)
Tibco --> CMS: Eligible AutoPay DiscountInfo
CMS --> browser: autoPayCreditAmount


Customer -> browser : Clicks on submit autopay button
browser -> CMS : Submit AutoPay Request 

alt Signup
CMS -> EOS_Payments : [[POST]] /payments/v4/autopay \n(TMO_ID, SaveIndicator, PaymentMethod)
EOS_Payments -> DPS : [[POST]] /payments/v4/mpi \n(TMO_ID, SaveIndicator, PaymentMethod)
DPS -> EOS_Payments : signup response
else  update
CMS -> EOS_Payments : [[PUT]] /payments/v4/autopay \n(TMO_ID, SaveIndicator, PaymentMethod)
EOS_Payments -> DPS : [[POST]] /payments/v4/mpi \n(TMO_ID, SaveIndicator, PaymentMethod, replaceAutopayInstrument indicator)
DPS -> EOS_Payments : update response
else  Delete (cancel autopay)
CMS -> EOS_Payments : [[DELETE]] /payments/v4/autopay (TMO_ID)
EOS_Payments -> DPS : [[DELETE]] /payments/v4/mpi (TMO_ID)
DPS -> EOS_Payments : deletion response
end


EOS_Payments -> CMS : Response Autopay (signup/update/cancel)
CMS -> browser : Response
browser -> Customer : Response AutoPay
@enduml
