@startuml
actor "Customer \n on \n Web or Mobile" as UI
participant "AEM\n Servlets" as AEM
participant "EOS\n/Microservices" as EOS
participant Redis
participant "MW/\nTibco" as Tibco
participant "Web Catalog" as WCS

==Add Ons Page==
activate UI
UI -> AEM: [[https://bitbucket.corporate.t-mobile.com/projects/EPT/repos/eservice/browse/core/servlet/src/main/java/com/mytmobile/servlets/ODFServlet.java#194 ODFServlet]]
activate AEM
alt prefetched
AEM -> Redis: [[https://bitbucket.corporate.t-mobile.com/projects/EPT/repos/eservice/browse/core/tmowebutil/src/main/java/com/tmobile/web/platform/common/wsbroker/HTTPWSBroker.java#181 Get cached prefetch response from redis]]
activate Redis
Redis -> AEM: Return serviceAgreement, handsetInfo, and subscriberInfo
deactivate Redis
AEM -> EOS: [[https://bitbucket.corporate.t-mobile.com/projects/EOS/repos/eos-cps-lookup/browse/src/main/java/com/tmobile/eitss/eos/cpslookup/services/impl/OnDeviceFulfillmentServiceImpl.java getOdfResponse]]
activate EOS
EOS -> WCS: CustomerPlanService.getEligibleServices
activate WCS
WCS -> EOS: Eligible services
deactivate WCS
EOS -> Tibco: [[https://bitbucket.corporate.t-mobile.com/projects/EOS/repos/eos-cps-lookup/browse/src/main/java/com/tmobile/eitss/eos/cpslookup/services/impl/EligibleServicesServiceImpl.java#59 CustomerPlanService.getEligibleServices]]
activate Tibco
Tibco -> EOS: [[https://servicecatalog.internal.t-mobile.com/servicecat/tibmicro/production/sid/html/CustomerPlanService.html#getEligibleServices Eligible services]]
deactivate Tibco
EOS -> WCS: CustomerPlanService.getPassAgreement
activate WCS
WCS -> EOS: Data pass agreement information
deactivate WCS
EOS -> Tibco: [[https://bitbucket.corporate.t-mobile.com/projects/EOS/repos/eos-cps-lookup/browse/src/main/java/com/tmobile/eitss/eos/cpslookup/services/impl/CurrentPassServiceImpl.java#53 CustomerPlanService.getPassAgreement]]
activate Tibco
Tibco -> EOS: [[https://servicecatalog.internal.t-mobile.com/servicecat/tibmicro/production/sid/html/CustomerPlanService.html#getPassAgreement Data pass agreement information]]
deactivate Tibco

EOS -> WCS: CustomerPlanService.getEligiblePasses
activate WCS
WCS -> EOS: Eligible data passes
deactivate WCS

EOS -> Tibco: [[https://bitbucket.corporate.t-mobile.com/projects/EOS/repos/eos-cps-lookup/browse/src/main/java/com/tmobile/eitss/eos/cpslookup/services/impl/EligiblePassServiceImpl.java#58 CustomerPlanService.getEligiblePasses]]
activate Tibco
Tibco -> EOS: [[https://servicecatalog.internal.t-mobile.com/servicecat/tibmicro/production/sid/html/CustomerPlanService.html#getEligiblePasses Eligible data passes]]
deactivate Tibco
EOS -> AEM: ODF Response
deactivate EOS

end
alt not prefetched
AEM -> EOS: [[https://bitbucket.corporate.t-mobile.com/projects/EOS/repos/eos-cps-lookup/browse/src/main/java/com/tmobile/eitss/eos/cpslookup/services/impl/OnDeviceFulfillmentServiceImpl.java getOdfResponse]]
activate EOS
EOS -> WCS: CustomerPlanService.getServiceAgreement
activate WCS
WCS -> EOS: Service Agreement Info
deactivate WCS
EOS -> Tibco: [[https://bitbucket.corporate.t-mobile.com/projects/EOS/repos/eos-cps-lookup/browse/src/main/java/com/tmobile/eitss/eos/cpslookup/services/impl/GetServiceAgreementImpl.java#84 CustomerPlanService.getServiceAgreement]]
activate Tibco
Tibco -> EOS: [[https://servicecatalog.internal.t-mobile.com/servicecat/tibmicro/production/sid/html/CustomerPlanService.html#getServiceAgreement Service agreement information]]
deactivate Tibco
EOS -> Tibco: [[https://bitbucket.corporate.t-mobile.com/projects/EOS/repos/eos-cps-lookup/browse/src/main/java/com/tmobile/eitss/eos/cpslookup/services/impl/GetServiceAgreementImpl.java#85 CustomerService.getSubscriberInfo]]
activate Tibco
Tibco -> EOS: [[https://servicecatalog.internal.t-mobile.com/servicecat/tibmicro/production/sid/html/CustomerService.html#getSubscriberInfo Customer subscription information]]
deactivate Tibco
EOS -> Tibco: [[https://bitbucket.corporate.t-mobile.com/projects/EOS/repos/eos-cps-lookup/browse/src/main/java/com/tmobile/eitss/eos/cpslookup/services/impl/GetServiceAgreementImpl.java#87 CustomerDeviceService.getHandsetInfo]]
activate Tibco
Tibco -> EOS: [[https://servicecatalog.internal.t-mobile.com/servicecat/tibmicro/production/sid/html/CustomerDeviceService.html#getHandsetInfo  Customer device information]]
deactivate Tibco
EOS -> WCS: CustomerPlanService.getEligibleServices
activate WCS
WCS -> EOS: Eligible services
deactivate WCS
EOS -> Tibco: [[https://bitbucket.corporate.t-mobile.com/projects/EOS/repos/eos-cps-lookup/browse/src/main/java/com/tmobile/eitss/eos/cpslookup/services/impl/EligibleServicesServiceImpl.java#59 CustomerPlanService.getEligibleServices]]
activate Tibco
Tibco -> EOS: [[https://servicecatalog.internal.t-mobile.com/servicecat/tibmicro/production/sid/html/CustomerPlanService.html#getEligibleServices Eligible services]]
deactivate Tibco
EOS -> WCS: CustomerPlanService.getPassAgreement
activate WCS
WCS -> EOS: Data pass agreement information
deactivate WCS
EOS -> Tibco: [[https://bitbucket.corporate.t-mobile.com/projects/EOS/repos/eos-cps-lookup/browse/src/main/java/com/tmobile/eitss/eos/cpslookup/services/impl/CurrentPassServiceImpl.java#53 CustomerPlanService.getPassAgreement]]
activate Tibco
Tibco -> EOS: [[https://servicecatalog.internal.t-mobile.com/servicecat/tibmicro/production/sid/html/CustomerPlanService.html#getPassAgreement Data pass agreement information]]
deactivate Tibco

EOS -> WCS: CustomerPlanService.getEligiblePasses
activate WCS
WCS -> EOS: Eligible data passes
deactivate WCS

EOS -> Tibco: [[https://bitbucket.corporate.t-mobile.com/projects/EOS/repos/eos-cps-lookup/browse/src/main/java/com/tmobile/eitss/eos/cpslookup/services/impl/EligiblePassServiceImpl.java#58 CustomerPlanService.getEligiblePasses]]
activate Tibco
Tibco -> EOS: [[https://servicecatalog.internal.t-mobile.com/servicecat/tibmicro/production/sid/html/CustomerPlanService.html#getEligiblePasses Eligible data passes]]
deactivate Tibco
EOS -> AEM: ODF Response
deactivate EOS
end
AEM -> UI: ODF Response
deactivate AEM


== Review Page ==
alt logged-in user role is PAH OR FULL

alt customer made data change
UI -> AEM: [[https://bitbucket.corporate.t-mobile.com/projects/EPT/repos/eservice/browse/core/servlet/src/main/java/com/mytmobile/servlets/ODFServlet.java#82 ODFServlet]]
activate AEM
AEM -> EOS: [[https://bitbucket.corporate.t-mobile.com/projects/EOS/repos/eos-cps-lookup/browse/src/main/java/com/tmobile/eitss/eos/cpslookup/services/impl/GetSocParameterServiceImpl.java#55 getSOCParameterDetails]]
activate EOS
EOS -> Tibco: [[https://bitbucket.corporate.t-mobile.com/projects/EOS/repos/eos-cps-lookup/browse/src/main/java/com/tmobile/eitss/eos/cpslookup/repository/impl/GetSocParameterRepositoryImpl.java#40 SubscriberLookup.getSocParameter]]
activate Tibco
Tibco -> EOS: [[https://servicecatalog.internal.t-mobile.com/servicecat/tibmicro/production/sid/html/SubscriberLookup.html#GetSocParameter Consumer Soc Details]]
deactivate Tibco
EOS -> AEM: Consumer Soc Details
deactivate EOS
AEM -> UI: Consumer Soc Details
deactivate AEM
end

UI -> AEM: [[https://bitbucket.corporate.t-mobile.com/projects/EPT/repos/eservice/browse/core/servlet/src/main/java/com/mytmobile/servlets/EligibleServicesServlet.java#1026 EligibleServicesServlet: getChangeEffectiveDate]]
activate AEM
AEM -> EOS: [[https://bitbucket.corporate.t-mobile.com/projects/EOS/repos/eos-cps-lookup/browse/src/main/java/com/tmobile/eitss/eos/cpslookup/services/impl/ServiceChangeEffectiveDateServiceImpl.java#59 getServiceChangeEffectiveDates]]
activate EOS
EOS -> Tibco: [[https://bitbucket.corporate.t-mobile.com/projects/EOS/repos/eos-cps-lookup/browse/src/main/java/com/tmobile/eitss/eos/cpslookup/repository/impl/GetServiceChangeEffectiveDatesImpl.java#35 CustomerPlanService.getServiceChangeEffectiveDates]]
activate Tibco
Tibco -> EOS: [[https://servicecatalog.internal.t-mobile.com/servicecat/tibco/U2-NationalRelease/sid/html/CustomerPlanService.html#getServiceChangeEffectiveDates Change date response]]
deactivate Tibco
EOS -> AEM: Change date response
deactivate EOS
AEM -> UI: Information regarding whether customer can change effective dates
deactivate AEM
end

alt logged-in user role is RES OR STD
/'
link for all DICE swagger for sedona
https://tmobileusa.sharepoint.com/teams/digitaldevelopment/sda/SitePages/Middleware%20Swaggers%20and%20Client%20SDK%20Repositories.aspx
'/
UI -> AEM: 
activate AEM
AEM -> EOS:  EOS-servicequote: /v1/generatequote 
activate EOS
EOS -> DICE: [[http://projects.internal.t-mobile.com/sites/pp/conf/Sedona/PL/04-Design/ESG/API%20First/Payment%20Upfront(Quote_Order)/Quote%20Service/Swagger/1.18/ServiceQuotes.json]]serviceQuote API
activate DICE
DICE -> EOS: quoteId, totalFee, totaltax, totaldue
deactivate DICE
EOS -> AEM: 
deactivate EOS
AEM -> UI: 
deactivate AEM
end

== on click of submit on review page ==
alt logged-in user role is PAH OR FULL
UI -> AEM: [[https://bitbucket.corporate.t-mobile.com/projects/EPT/repos/eservice/browse/core/servlet/src/main/java/com/mytmobile/servlets/PlanAndServicesServlet.java#112 PlanAndServicesServlet:updatePlansAndServices]]
activate AEM
AEM -> EOS: [[https://bitbucket.corporate.t-mobile.com/projects/EOS/repos/eos-plans/browse/src/main/java/com/tmobile/eitss/eos/services/ChangePlansServiceImpl.java#72 cpsSubmission]]
activate EOS
EOS -> Tibco: CustomerPlanService.changePlanAndServices
activate Tibco
Tibco -> EOS: [[https://servicecatalog.internal.t-mobile.com/servicecat/tibmicro/production/sid/html/CustomerPlanService.html#changePlanAndServices changePlanAndServicesResponse]]
deactivate Tibco
EOS -> AEM: changePlanAndServicesResponse
deactivate EOS
AEM -> UI: changePlanAndServicesResponse
deactivate AEM
end 

alt logged-in user role is RES OR STD
UI -> UI : [[]]payment collection module for capturing payment details from PUB team and payment methods are already encrypted
UI -> AEM:[["https://bitbucket.corporate.t-mobile.com/projects/EPT/repos/eservice/browse/core/servlet/src/main/java/com/mytmobile/servlets/PlansServiceServlet.java"]]
activate AEM
AEM -> EOS: eos-plans: /v1/upfrontPassPurchase
activate EOS
EOS -> DPS:  /payments/ecommerce/v3/processpayments [[https://qwiki.internal.t-mobile.com/download/attachments/116635581/ProcessPayment_Swagger-v3.3.json?version=1&modificationDate=1547676935254&api=v2: DPS swagger]]
activate DPS
DPS -> EOS: success or error of trasactions
deactivate DPS
alt if processpayments is successful
EOS -> ExperienceReceipt: [[http://projects.internal.t-mobile.com/sites/pp/conf/Sedona/PL/04-Design/ESG/API%20First/Receipts/Swagger/1.4/Receipts.json : /web/v1/receipts, Input paymentId, customerProfile]]
activate EOS
end alt
EOS -> AEM
deactivate AEM
AEM -> UI
deactivate AEM
end
deactivate UI
@enduml