@startuml

UI -> UI : Customer lands on Rate Plan Page
UI -> EOS : [[https://bitbucket.service.edp.t-mobile.com/projects/EITCODEDOC/repos/flow-documentation/browse/swagger/ss.eos/v5/eos-quote-api.ymll POST]] v5/quote/cache(opCode=Refresh)
	EOS -> DCP : [[../../DCP/ce.dsg.dcp.getprofile.svg Get]] /profiles/ - [[https://bitbucket.service.edp.t-mobile.com/projects/EITCODEDOC/repos/flow-documentation/browse/swagger/ce.dsg.dcp/v3.2/Profile_Swagger.json swagger]]
	EOS -> DCP : [[../../DCP/ce.dsg.dcp.getaddresses.svg Get]]  /profiles/{profile-id}/addresses - [[https://bitbucket.service.edp.t-mobile.com/projects/EITCODEDOC/repos/flow-documentation/browse/swagger/ce.dsg.dcp/v3.2/Profile_Swagger.json swagger]]
	EOS -> DCP : [[../../DCP/ce.dsg.dcp.getaccounts.svg GET]] /profiles/{profile-id}/accounts  - [[https://bitbucket.service.edp.t-mobile.com/projects/EITCODEDOC/repos/flow-documentation/browse/swagger/ce.dsg.dcp/v3.2/Profile_Swagger.json swagger]] 

	UI -> EOS : [[https://bitbucket.service.edp.t-mobile.com/projects/EITCODEDOC/repos/flow-documentation/browse/swagger/ss.eos/v4/eos-productcatalog-api.yml API]] /POST / Products 
	note left: Rate Plan Page
	EOS -> DCP : [[../../DCP/ce.dsg.dcp.products.svg POST]] /v3/products [[https://bitbucket.service.edp.t-mobile.com/projects/EITCODEDOC/repos/flow-documentation/browse/swagger/ce.dsg.dcp/v3.2/Products_Swagger.json swagger]] (SIM Starter Kit) 
	DCP --> EOS : return sim starter kit
	EOS --> UI : return sim starter kit
	
	UI->EOS : [[https://bitbucket.service.edp.t-mobile.com/projects/EITCODEDOC/repos/flow-documentation/browse/swagger/ss.eos/v3/eos-shop-planandservices.yml API]] <size:18><font color=green><b>/POST /v1/plans </b></font></size>
	EOS->DCP : [[../../DCP/ce.dsg.dcp.posteligibleplans.svg GET]] /{cart-id}/lines/{lineId}/eligible-plans (incremental change in rate plan cost) [[https://bitbucket.service.edp.t-mobile.com/projects/EITCODEDOC/repos/flow-documentation/browse/swagger/ce.dsg.dcp/v3.2/Cart_Swagger.json swagger]]
	DCP -->EOS : Return eligible plan soc and deposit
	EOS -->UI : Return eligible plan soc and deposit

	UI -> EOS: [[https://bitbucket.service.edp.t-mobile.com/projects/EITCODEDOC/repos/flow-documentation/browse/swagger/ss.eos/v4/eos-cart-api.yml PUT]]/ addItemToCart(Rateplan, optional SimStarter Kit, Opcode=update)
	EOS -> DCP: [[../../DCP/dcp/ce.dsg.dcp.adddevice.svg POST]]/{cart-id}/lines/{line-id}/plans [[https://bitbucket.service.edp.t-mobile.com/projects/EITCODEDOC/repos/flow-documentation/browse/swagger/ce.dsg.dcp/v3.2/Cart_Swagger.json swagger]]
	DCP --> EOS:Return Cart Information
	EOS--> UI:Return Cart Information

	opt if customer came from new phone CTA
	UI -> UI : Customer lands on PLP
	alt if customer came from Use my own phone CTA
	UI -> UI : Customer lands on Cart page
	end 
	end
	

	opt if customer comes from TMNG through deeplink with device
	UI -> EOS : [[https://bitbucket.service.edp.t-mobile.com/projects/EITCODEDOC/repos/flow-documentation/browse/swagger/ss.eos/v4/eos-cart-api.yml POST]]/ createCart(add device, sim & rateplan to cart)
	EOS -> DCP : [[../../DCP/ce.dsg.dcp.getcart.svg Get]] /Cart - [[https://bitbucket.service.edp.t-mobile.com/projects/EITCODEDOC/repos/flow-documentation/browse/swagger/ce.dsg.dcp/v3.2/Cart_Swagger.json swagger]]
	DCP --> EOS : return GET /Cart Response
	EOS -> DCP : [[../../DCP/ce.dsg.dcp.createline.svg POST]] /carts/{cart-id}/lines  -[[https://bitbucket.service.edp.t-mobile.com/projects/EITCODEDOC/repos/flow-documentation/browse/swagger/ce.dsg.dcp/v3.2/Cart_Swagger.json swagger]]
 	DCP-->EOS : return resource URI for the new line
 	EOS --> UI : return line id
	UI -> UI : CTA continue and redirects customer to PHP
	alt if customer comes from TMNG through deeplink with BYOD
	UI -> EOS : [[https://bitbucket.service.edp.t-mobile.com/projects/EITCODEDOC/repos/flow-documentation/browse/swagger/ss.eos/v4/eos-cart-api.yml POST]]/ createCart(sim starter kit & rateplan to cart)
	EOS -> DCP : [[../../DCP/ce.dsg.dcp.getcart.svg Get]] /Cart - [[https://bitbucket.service.edp.t-mobile.com/projects/EITCODEDOC/repos/flow-documentation/browse/swagger/ce.dsg.dcp/v3.2/Cart_Swagger.json swagger]]
	DCP --> EOS : return GET /Cart Response
	EOS -> DCP : [[../../DCP/ce.dsg.dcp.createline.svg POST]] /carts/{cart-id}/lines  -[[https://bitbucket.service.edp.t-mobile.com/projects/EITCODEDOC/repos/flow-documentation/browse/swagger/ce.dsg.dcp/v3.2/Cart_Swagger.json swagger]]
 	DCP-->EOS : return resource URI for the new line
 	EOS --> UI : return line id
	 UI -> UI : CTA continue and redirects customer to cart page
	end
	end 


@enduml