
@startuml
skinparam sequence {
	ParticipantBorderColor MidnightBlue
    ParticipantBackgroundColor Linen
}
participant Samson
participant BriteBill
participant EBill
participant Deep_io
participant billist_MS
participant Fiserv_MS
participant FiservAck_MS
participant notification_EH
participant DSG_EH #FF99FF
database Cassandra
participant Fiserv
participant SFG
participant BNE
participant Broadridge
participant EER
participant Invoice_Preference_MS
participant PaperlessBill_API
 
note left of DSG_EH #aqua
	DSG_EH, Yet to be developed.
    Required for switching to Full Digital Mode. 
end note
Samson->BriteBill: M4 Bill Data Extract
Samson->EBill: M1\M3 Bill Data Extract
BriteBill->Samson: M4 Bill Confirmation
Samson[[]]->EBill: M1\M3 Bill Confirmation Event (AFP Mode M4 as M3) (Digital Mode terminate M4 as M3)
Samson->Deep_io: M4 Bill Confirmation
Deep_io<->billist_MS: M4 Bill Confirmation
billist_MS->Cassandra: M4 Bill Confirmation
Deep_io[[https://bitbucket.service.edp.t-mobile.com/projects/EITCODEDOC/repos/flow-documentation/browse/swagger/ce.dd.bd/BillReadyNotification/v1/BIllConfirmationInfoReturned_deepEvent.json]]<->Fiserv_MS: M4 Bill Confirmation 
Fiserv_MS->Cassandra: M4 Bill Confirmation 
Fiserv_MS->SFG [[qat-b2b.px.int.unix.gsm1900.org:10022/BBFiservinQ]]: Fiserv 2070 Files 
SFG->Fiserv: Fiserv 2070 Files  
SFG ->FiservAck_MS: Fiserv 2070 ACK Files 
FiservAck_MS->Cassandra: Fiserv 2070 ACK Error code and message update
alt For records with errors in Fiserv Ack file 
FiservAck_MS->Deep_io: Publish BillReadySMSNotification on failed Fiserv notifications
Deep_io[[https://bitbucket.service.edp.t-mobile.com/projects/EITCODEDOC/repos/flow-documentation/browse/swagger/ce.dd.bd/BillReadyNotification/v1/FiservNotificationFailed_deepEvent.json]]->Invoice_Preference_MS: Consume failed Fiserv notifications
Invoice_Preference_MS->PaperlessBill_API [[/billing/v1/billing-preferences/paperless-bill]]: Update customer preference to SMS on failed Fiserv notifications 
Deep_io->notification_EH: Consume failed Fiserv notifications
notification_EH->BNE: SMS notification files for failed Fiserv notifications 
end
Deep_io->DSG_EH: M4 Bill Confirmation
DSG_EH->EER: M4 Bill Info inserts
Deep_io->notification_EH: M4 Bill Confirmation
notification_EH->BNE: M4 Bill Ready SMS notification files
notification_EH->Broadridge: M4 Bill Ready E-Mail notification files
Broadridge->Samson: M1\M3\M4 Bill Ready E-Mail notification failures
Samson->Samson: Update customer preference to SMS on failed E-mail notifications
EBill->BNE: M1\M3 Bill Ready SMS Files (Filter M4)
EBill->Broadridge: M1\M3 Bill Ready Email Files (Filter M4)
EBill->EER: M1\M3\M4 Bill Info Insert
@enduml