@startuml
participant AggregationUI
participant Apigee
participant loanPromotionAwardProfile

AggregationUI -> Apigee: Aggregation Layer request for token from Apigee by sending Key and Code to Apigee
Apigee -> AggregationUI: Aggregation UI receives token from Apigee and uses it to get loan promotion details
AggregationUI -> Apigee: Aggregation UI makes a requests to Apigee to get loan promotion details and passes accessToken, ID Totken in the request
Apigee -> loanPromotionAwardProfile: Apigee validates the token and forwards the [[http://flows.corporate.t-mobile.com/swagger/ce.dd.bd.eip/eip_loan_promotion_award_event_swagger_0.6.json request]] to loan-promotion-award-profile MS
loanPromotionAwardProfile -> Apigee: Gets loan-promotion details and constructs ETag using response stream and sends back ETag in response.
activate loanPromotionAwardProfile
Apigee -> AggregationUI: Response data with ETag.
	alt accessToken validation fails
		AggregationUI -> Apigee: Invalid Access Token
        Apigee -> AggregationUI: Error Response
	end
	alt AggregationUI sends ETAG in request and it matches to response stream ETag
		activate AggregationUI
        AggregationUI -> Apigee:  Requests loan-promotion-awards with billing-account-number & ETag.
        Apigee -> loanPromotionAwardProfile: Apigee validates the token and forwards the [[http://flows.corporate.t-mobile.com/swagger/ce.dd.bd.eip/eip_loan_promotion_award_event_swagger_0.6.json request]] to loan-promotion-award-profile MS
        loanPromotionAwardProfile -> loanPromotionAwardProfile: Request ETag & Response stream ETag matches.
	loanPromotionAwardProfile -> Apigee: Response Code 304
        Apigee -> AggregationUI: Response Code 304
	end
	alt Request ETag doesn't match with response stream ETag
		AggregationUI -> Apigee: Request ETag & response stream ETag doesn't match.
                Apigee -> loanPromotionAwardProfile: Apigee validates the token and forwards the [[http://flows.corporate.t-mobile.com/swagger/ce.dd.bd.eip/eip_loan_promotion_award_event_swagger_0.6.json request]] to loan-promotion-award-profile MS
		loanPromotionAwardProfile ->  loanPromotionAwardProfile: Request ETag & Response stream ETag doesn't match.
		loanPromotionAwardProfile -> Apigee: Gets loan-promotion details and constructs new ETag using response stream and sends back new ETag in response.
		Apigee -> AggregationUI: Response data with new ETag.
	end
deactivate loanPromotionAwardProfile
@enduml