@startuml

participant "Client\n" as Client
participant "APIGEE\n " as APIG
participant "Billing\n " as Billing
participant "Loan\nFinance" as LF
participant "Device Loan\nProducts" as LP
participant "EIP\n " as EIP
participant "DEEP\n " as DEEP
participant "Tibco\n " as Tibco

title Create EIP Call - JUMP

Client -> APIG:[[http://flows.corporate.t-mobile.com/all-swaggers/swagger/cf.loan.origination/cfs-createloan.json/ post loan-bundles]]
activate APIG
APIG -> LF:
deactivate APIG
activate LF

LF -> LF: check if sourceTransactionId already processed
    alt sourceTransactionId is processing
        LF -[#blue]> APIG: the transaction is processing
    else sourceTransactionId already processed
        LF -[#blue]> APIG: Agreements returned as per initial processing
    end

LF -> EIP: handle returned devices

LF -> APIG: post /billing-experience/v1/installment-eligibility/query-attributes
activate APIG
APIG -> Billing:
deactivate APIG

activate Billing
    Billing -[#blue]> APIG
deactivate Billing
activate APIG
    APIG -> LF
      note right: BAN level attributes, Subscriber level rate plan code
deactivate APIG

LF -> LF: Determine account and line EIP eligibility

LF -> LP: get loan-products/{SKUs}
activate LP
    LP -[#blue]> LF
deactivate LP

LF -> LF: Determine plans

LF -> LF: Compute downpayment, MI, TFA, RFA, schedule
LF -> LF: Determine insufficient ECA

alt Reserve Plan ID, Client provided pland id values (agreementNumbers)
    LF -> LF: validate reserved values
    alt reserved values expired or not found
        LF -[#blue]> APIG: invalid reserved agreement numbers
    end
else Not a Reserve Scenario
    LF -> LF: allocate new plan ids
end

LF -> EIP: persist new loans

alt Credit decision based on Credit Class (descisionCriteria=CREDIT_CLASS_BASED)
    LF -> EIP: trigger Adverse Action letter
    activate EIP
      EIP --> Tibco: BAU flow via AALog table
    deactivate EIP
end

alt Confirmation Statement needed
  LF --> EIP: Trigger Confirmation Statement
  activate EIP
    EIP --> Tibco: BAU flow via PTI table
  deactivate EIP
end

LF -[#blue]> APIG
activate APIG
APIG -[#blue]> Client
deactivate APIG
  note right: equipments grouped in virtual plans based on Terms

deactivate LF

alt maxTerms changed
    EIP --> DEEP: publish maxTerms
    activate DEEP
      DEEP -[#blue]-> Billing: maxTerms
    deactivate DEEP
end


@enduml