@startuml
participant "EIP\n " as EIP
participant "Samson\n" as Samson
participant "SCMS\n " as SCMS
participant "DEEP\n " as DEEP

title EIP sends the last monthly charge to Samson

EIP -> EIP: SendChargeJob is initiated, EIP updates the loan/plan status and EIP_Charge table
EIP -> SCMS: EIP publishes EIP Event (Last-Monthly-Charge-Applied)
EIP -> DEEP: EIP publishes DEEP Event (LegacyLoanScheduledPayoff) [[http://flows.corporate.t-mobile.com/all-swaggers/swagger/ce.dd.bd.eip/LegacyUpdateLoanEvent_v1.2.json/ LegacyUpdateLoanEvent]]
EIP -> Samson:  Last monthly charge sent thru CIG
EIP -> Samson: EIP sends ownership certificate to be displayed on bill

@enduml
