@startuml
actor rep
participant "Manage Profile"
participant "APIGEE"
participant "billing-accounts-ms-v1"
participant "invoice-preferences-sa-v1"
participant "subscribers-sa-v1"
participant "Tuxedo"

database Samson
"Manage Profile" -> "APIGEE" : API: /billing/v1/financial-accounts/financial-account/get-financial-account (POST) \nProxy: billing-accounts-ms-v1_financial-account_ns1 \nInput: FAN
"APIGEE" -> "billing-accounts-ms-v1": /billing/v1/financial-accounts/financial-account/get-financial-account
"billing-accounts-ms-v1" -> "billing-accounts-ms-v1" : Access Token & ID Token\n Validation
"billing-accounts-ms-v1" -> "Tuxedo"
"Tuxedo" -> "Samson" : Tuxedo: evGtCustInfo
"Samson" -> "Samson" : query

"Manage Profile" -> "APIGEE" : API: /invoice/v1/preference/paperless-bill - query (POST) \nProxy: invoice-sa-v1-ns1 \nInput: FAN
"APIGEE" -> "invoice-preferences-sa-v1": /invoice/v1/preference/paperless-bill - query
note left: API supports pagination.
"invoice-preferences-sa-v1" -> "Tuxedo"
"invoice-preferences-sa-v1" -> "invoice-preferences-sa-v1" : Access Token & ID Token\nValidation
"Tuxedo" -> "Samson" : Tuxedo: csLsPBInfo
"Samson" -> "Samson" : query

"Manage Profile" -> "APIGEE" : API: /billing/v3/subscribers/subscriber-summary-query (POST) \nProxy: subscribers-sa-v1 \nInput: FAN, MSISDN/s or MSISDN status
"APIGEE" -> "subscribers-sa-v1": /billing/v3/subscribers/subscriber-summary-query
"subscribers-sa-v1" -> "subscribers-sa-v1" : Access Token & ID Token \nValidation
"subscribers-sa-v1" -> "Tuxedo"
"Tuxedo" -> "Samson" : Tuxedo: evGtSubSum
"Samson" -> "Samson" : query

"Manage Profile" -> "APIGEE" : API: /billing/v3/subscribers/subscriber-detail-query \nProxy: subscribers-sa-v1 \nInput: FAN, MSISDN/s
"APIGEE" -> "subscribers-sa-v1": /billing/v3/subscribers/subscriber-detail-query
note left: Supports upto 20 MSISDN
"subscribers-sa-v1" -> "subscribers-sa-v1" : Access Token & ID Token\n Validation
"subscribers-sa-v1" -> "Tuxedo"
"Tuxedo" -> "Samson" : Tuxedo: evLsSubInfo
"Samson" -> "Samson" : query

"Manage Profile" -> "APIGEE" : API: /billing/v1/financial-accounts/financial-account/name (PATCH) \nProxy: billing-accounts-ms-v1_financial-account_ns1 \nInput: FAN, Name Information, Memo Information,
"APIGEE" -> "billing-accounts-ms-v1": /billing/v1/financial-accounts/financial-account/name
"billing-accounts-ms-v1" -> "billing-accounts-ms-v1" : Access Token & ID Token\n Validation
"billing-accounts-ms-v1" -> "Tuxedo"
"Tuxedo" -> "Samson" : Tuxedo: evChgName

"Manage Profile" -> "APIGEE" : API: /billing/v3/subscribers/name (PATCH)\nProxy: subscribers-sa-v1 \nInput: FAN, MSISDN/s, Name Information, Memo Information.
"APIGEE" -> "subscribers-sa-v1": /billing/v3/subscribers/name
"subscribers-sa-v1" -> "subscribers-sa-v1" : Access Token & ID Token\n Validation
"subscribers-sa-v1" -> "Tuxedo"
"Tuxedo" -> "Samson" : Tuxedo: evChgName


"Manage Profile" -> "APIGEE" : API: /billing/v1/financial-accounts/financial-account/get-line-counts(POST)\nProxy: billing-accounts-ms-v1_financial-account_ns1 \nInput: FAN
"APIGEE" -> "billing-accounts-ms-v1": /billing/v1/financial-accounts/financial-account/get-line-counts
"billing-accounts-ms-v1" -> "billing-accounts-ms-v1" : Access Token & ID Token\n Validation
"billing-accounts-ms-v1" -> "Tuxedo"
"Tuxedo" -> "Samson" : Tuxedo: evGtSubsByBan
"Samson" -> "Samson" : query

"Manage Profile" -> "APIGEE" : API: /billing/v1/financial-accounts/pending-transactions (POST) \nProxy: billing-accounts-ms-v1_financial-account_ns1 \nInput: FAN, MSIDN (optional)
"APIGEE" -> "billing-accounts-ms-v1": /billing/v1/financial-accounts/pending-transactions
note left: API supports pagination.
"billing-accounts-ms-v1" -> "billing-accounts-ms-v1" : Access Token & ID Token\n Validation
"billing-accounts-ms-v1" -> "Tuxedo"
"Tuxedo" -> "Samson" : Tuxedo: gnLsFtrTrx
"Samson" -> "Samson" : query

"Manage Profile" -> "APIGEE" : API: /billing/v1/financial-accounts/addresses (PATCH) \nProxy: billing-accounts-ms-v1_financial-account_ns1 \nInput: FAN, Address Information, Memo Information
"APIGEE" -> "billing-accounts-ms-v1": /billing/v1/financial-accounts/addresses
"billing-accounts-ms-v1" -> "billing-accounts-ms-v1" : Access Token & ID Token\nValidation
"billing-accounts-ms-v1" -> "Tuxedo"
"Tuxedo" -> "Samson" : Tuxedo: evSvAdrData


"Manage Profile" -> "APIGEE" : API: /billing/v3/subscribers/address (PATCH)\nProxy: subscribers-sa-v1 \nInput: FAN, MSISDN/s, Address Information, Memo Information.
"APIGEE" -> "subscribers-sa-v1": /billing/v3/subscribers/address
"subscribers-sa-v1" -> "subscribers-sa-v1" : Access Token & ID Token\n Validation
"subscribers-sa-v1" -> "Tuxedo"
"Tuxedo" -> "Samson" : Tuxedo: evSvAdrData

"Manage Profile" -> "APIGEE" : API: /billing/v1/financial-accounts/financial-account/contact (PATCH) \nProxy: billing-accounts-ms-v1_financial-account_ns1 \nInput: FAN, updated contact information, Memo information.
"APIGEE" -> "billing-accounts-ms-v1": /billing/v1/financial-accounts/financial-account/contact
"billing-accounts-ms-v1" -> "billing-accounts-ms-v1" : Access Token & ID Token\nValidation
"billing-accounts-ms-v1" -> "Tuxedo"
"Tuxedo" -> "Samson" : Tuxedo: evSvBanCnct

==Continued on Next Page==
newpage
==Continued from Previous Page==

"Samson" -> "Tuxedo" : Positive Request Flow Backwards. \nIndividualized response per API
alt successful case
group Responses:
"Tuxedo" -[#green]> "APIGEE": 200 = OK
"Tuxedo" ->x "APIGEE": 400 = BAD REQUEST
"Tuxedo" ->x "APIGEE": 401 = Unauthorized
"Tuxedo" ->x "APIGEE": 404 = Resource Not Found
"Tuxedo" ->x "APIGEE": 405 = Method not found
"Tuxedo" ->x "APIGEE": 409 = Invalid Data
"Tuxedo" ->x "APIGEE": 415 = Unsupported Media Type
"Tuxedo" ->x "APIGEE": 500 = System Error
"Tuxedo" ->x "APIGEE": 503 = Service unavailable

note over APIGEE,"billing-accounts-ms-v1"
**Error code mapping**
| API| HTTP Status| Code| User Message | System Message|
| /billing/v1/financial-accounts/financial-account/get-financial-account | 404 | Traced exception | Not Found - This BAN does not exist.	Traced exception |
| /billing/v1/financial-accounts/financial-account/get-financial-account | 500 | INTERNAL_SERVER_ERROR | Data could not be retrieved from Database | System Error |
| /billing/v1/financial-accounts/financial-account/get-financial-account | 400 | Bad request | Bad request - Missing Mandatory Parameter [<parameter name>] | Bad request |
| /billing/v1/financial-accounts/financial-account/get-financial-account | 400 | Bad request | Bad request - Invalid Parameter [<parameter name>] | Bad request |
| /invoice/v1/preferences/paperless-bill/query | 400 | Bad request | Bad request - Missing Mandatory Parameter [<parameter name>] | Bad request |
| /invoice/v1/preferences/paperless-bill/query | 400 | Bad request | Bad request - Invalid Parameter [<parameter name>] | Bad request |
| /invoice/v1/preferences/paperless-bill/query | 404 | Traced exception	| Not Found - financialAccountNumber |
| /invoice/v1/preferences/paperless-bill/query | 400 | Bad request | Bad request - Request method 'GET' not supported |
| /invoice/v1/preferences/paperless-bill/query | 400 | Bad request | Bad request - Content type 'application/text;charset=UTF-8' not supported |
| /invoice/v1/preferences/paperless-bill/query | 500 | System error | Internal Server Error |
| /billing/v3/subscribers/subscriber-summary-query| 500 | System error | Internal Server Error	|
| /billing/v3/subscribers/subscriber-summary-query | 404 | Resource not found | Ban Does not exists|
| /billing/v3/subscribers/subscriber-summary-query | 400 | Bad Request | Invalid value for Parameter [%s]. %s	|
| /billing/v3/subscribers/subscriber-summary-query | 400 | Bad Request | The subscriber %s must be in active or suspended status.	|
| /billing/v3/subscribers/subscriber-summary-query | 400 | Bad Request | Input LAST_SUBSIDY_DATE date is greater than today's date	|
| /billing/v3/subscribers/subscriber-summary-query | 400 | Bad Request | Bad request - Missing Mandatory Parameter [<parameter name>] | Bad request |
| /billing/v3/subscribers/subscriber-summary-query | 400 | Bad Request | Bad request - Invalid value for Parameter [<parameter name>] | Bad request |
| /billing/v3/subscribers/subscriber-detail-query | 404	| Resource not found | Input Subscriber %s does not belong to BAN %s. |
| /billing/v3/subscribers/subscriber-detail-query | 404	| Resource not found | Subscriber's Equipment not found. |
| /billing/v3/subscribers/subscriber-detail-query | 400	| Bad Request | Bad request - Invalid Parameter [<parameter name>] || Bad request |
| /billing/v3/subscribers/subscriber-detail-query | 400	| Bad Request | Bad request - Missing Mandatory Parameter [<parameter name>] |
| /billing/v3/subscribers/subscriber-detail-query | 500	| System error | Internal Server Error |
| /billing/v1/financial-accounts/financial-account/name	| 400 | Bad Request	| %s is Expired. |
| /billing/v1/financial-accounts/financial-account/name	| 404 | Resource not found | Link Type does not exist for %. |
| /billing/v1/financial-accounts/financial-account/name	| 404 | Resource not found | Ban does not exist in Samson DB. |
| /billing/v1/financial-accounts/financial-account/name	| 400 | Bad Request | The Product Type % is not valid |
| /billing/v1/financial-accounts/financial-account/name	| 400 | Bad Request | The Name Format % is not valid |
| /billing/v1/financial-accounts/financial-account/name	| 400 | Bad Request	| Previous activity failed. Ban needs to be refreshed in order to continue. |
| /billing/v1/financial-accounts/financial-account/name	| 400 | Bad Request | LINK_TYPE is not valid. |
| /billing/v1/financial-accounts/financial-account/name	| 400 | Bad Request | NM_UP_TYPE is not valid |
| /billing/v1/financial-accounts/financial-account/name	| 400 | Bad Request | Dealer Code is not valid |
| /billing/v1/financial-accounts/financial-account/name	| 400 | Bad Request | Store Id is not Valid |
| /billing/v1/financial-accounts/financial-account/name	| 400 | Bad Request | Invalid Link Sequence No. provided for BAN %s |
| /billing/v1/financial-accounts/financial-account/name	| 400 | Bad Request | %s is locked by another process |
| /billing/v1/financial-accounts/financial-account/name	| 400 | Bad Request | Invalid Link Type for  Insert Activity |
| /billing/v1/financial-accounts/financial-account/name	| 400 | Bad Request | Please insert Link sequence number before you continue |
| /billing/v1/financial-accounts/financial-account/name	| 400 | Bad Request | Bad request - Missing Mandatory Parameter [<parameter name>] | Bad request |
| /billing/v1/financial-accounts/financial-account/name	| 400 | Bad Request | Bad request - Invalid Parameter [<parameter name>] | Bad Request |
| /billing/v3/subscribers/name | 400 | Bad Request | Previous activity failed. Ban needs to be refreshed in order to continue. | Bad Request  |
| /billing/v3/subscribers/name | 400 | Bad Request | Previous activity failed. Ban needs to be refreshed in order to continue. | Bad Request  |
| /billing/v3/subscribers/name | 400 | Bad Request | Ban does not exist in Samson DB. | Bad Request |
| /billing/v3/subscribers/name | 500 | System Error | Could not retrieve Name information. | System Error|
| /billing/v3/subscribers/name | 500 | System Error | Could not save Name information for BAN %ld, Subscriber %s, Name Type %c.	 | System Error |
| /billing/v3/subscribers/name | 400 | Bad Request | Could not create Memo for BAN %ld, Subscriber %s, Name Type %c. | Bad Request |
| /billing/v3/subscribers/name | 400 | Bad Request | Invalid Link Type for %. | Bad Request |
| /billing/v3/subscribers/name | 400 | Bad Request | Invalid Link Type for  %. | Bad Request |
| /billing/v3/subscribers/name | 400 | Bad Request | Invalid transaction parameters, row count cannot be % than %. | Bad Request |
| /billing/v3/subscribers/name | 400 | Bad Request | Invalid transaction parameters, row count cannot be less than 2. | Bad Request |
| /billing/v3/subscribers/name | 400 | Bad Request | The deployment for the subscribers can be done only for one BAN record	| Bad Request |
| /billing/v3/subscribers/name | 400 | Bad Request | Link Type does not exist for %. | Bad Request |
| /billing/v3/subscribers/name | 400 | Bad Request | Link Type does not exist for %. | Bad Request |
| /billing/v3/subscribers/name | 400 | Bad Request | The Name Mode % is not valid for change Name activity | Bad Request |
| /billing/v3/subscribers/name | 400 | Bad Request | The Product Type % is not valid | Bad Request |
| /billing/v3/subscribers/name | 400 | Bad Request | The Name Format % is not valid	| Bad Request |
| /billing/v3/subscribers/name | 400 | Bad Request | Bad request - Missing Mandatory Parameter [<parameter name>] | Bad Request |
| /billing/v3/subscribers/name | 400 | Bad Request | Bad request - Invalid Parameter [<parameter name>] | Bad Request |
| /billing/v1/financial-accounts/financial-account/get-line-counts | 500 | INTERNAL_SERVER_ERROR | TUXEDO_DB_ERROR_000 | Data could not be retrieved from Database |
| /billing/v1/financial-accounts/financial-account/get-line-counts | 404 | NOT_FOUND | NOT_FOUND_FAN_001 | FAN passed in the input does not exists in Database |
| /billing/v1/financial-accounts/financial-account/get-line-counts | 404 | NOT_FOUND | No Subscribers found. | NOT_FOUND_SUBSCRIBER_001 |
| /billing/v1/financial-accounts/financial-account/get-line-counts | 400 | Bad Request | Bad request - Missing Mandatory Parameter [<parameter name>] | Bad Request |
| /billing/v1/financial-accounts/financial-account/get-line-counts | 400 | Bad Request | Bad request - Invalid Parameter [<parameter name>] | Bad Request |
| /billing/v1/financial-accounts/financial-account/pending-transactions | 400 | Bad Request | Get Csm_Future_Request row by Ban: <BAN>, Ctn: <sub no> , Status:   and Page_No: <page no> has failed  | Bad Request |
| /billing/v1/financial-accounts/financial-account/pending-transactions | 500 | System error | Internal server error | Error from tuxedo |
| /billing/v1/financial-accounts/financial-account/pending-transactions | 400 | Bad Request | Bad request - Invalid Parameter [PageSize: size should be a factor of: 600, passed: %s ] | Bad Request |
| /billing/v1/financial-accounts/financial-account/pending-transactions | 400 | Bad Request | Bad request - Missing Mandatory Parameter [<parameter name>] | Bad Request |
| /billing/v1/financial-accounts/financial-account/pending-transactions | 400 | Bad Request | Bad request - Invalid Parameter [<parameter name>] | Bad Request |
| /billing/v3/subscribers/addresses | 400 | Bad Request | Ban does not exist in Samson DB. | Bad Request |
| /billing/v3/subscribers/addresses | 500 | System Error | Could not retrieve data from the Database. | error from Tux |
| /billing/v3/subscribers/addresses | 400 | Bad Request | Input Subscriber %s does not belong to BAN %s. | Bad Request |
| /billing/v3/subscribers/addresses | 400 | Bad Request | %s is not valid. | Bad Request |
| /billing/v3/subscribers/addresses | 500 | System Error | Saving of data failed. | From tux |
| /billing/v3/subscribers/addresses | 400 | Bad Request | Service input rowcount cannot be empty. | Bad Request |
| /billing/v3/subscribers/addresses | 400 | Bad Request | ADR_UP_TYPE is not valid | Bad Request |
| /billing/v3/subscribers/addresses | 400 | Bad Request | LINK_TYPE is not valid. | Bad Request |
| /billing/v3/subscribers/addresses | 400 | Bad Request | ADR_UP_TYPE is not valid | Bad Request |
| /billing/v3/subscribers/addresses | 400 | Bad Request | Invalid transaction parameters, row count cannot be less than 2. | Bad Request |
| /billing/v3/subscribers/addresses | 400 | Bad Request | NM_UP_TYPE is not Valid | Bad Request |
| /billing/v3/subscribers/addresses | 400 | Bad Request | %s field cannot be null. | Bad Request |
| /billing/v3/subscribers/addresses | 400 | Bad Request | Dealer Code is not valid | Bad Request |
| /billing/v3/subscribers/addresses | 400 | Bad Request | Store Id is not Valid | Bad Request |
| /billing/v3/subscribers/addresses | 400 | Bad Request | Input Transaction ID is not valid. | Bad Request |
| /billing/v3/subscribers/addresses | 400 | Bad Request | The Opt-out Reason Code must not be populated when E911 address is passed in the input. | Bad Request |
| /billing/v3/subscribers/addresses | 400 | Bad Request | Proceeding without an E-911 address will prohibit the use of Wi-Fi Calling Services | Bad Request |
| /billing/v3/subscribers/addresses | 400 | Bad Request | Bad request - Missing Mandatory Parameter [<parameter name>] | Bad Request |
| /billing/v1/financial-accounts/financial-account/contact | 500 | System Eror | Could NOT retrieve data FROM the DATABASE. | Tuxedo message |
| /billing/v1/financial-accounts/financial-account/contact | 400 | Bad Request | Account Type of BAN does not exist in ACCOUNT_TYPE. | Bad Request |
| /billing/v1/financial-accounts/financial-account/contact | 404 | Not Found | Ban does not exist in Samson DB. | Ban does not exist in Samson DB. |
| /billing/v1/financial-accounts/financial-account/contact | 400 | Bad Request | Bad request - Mandatory Parameter tel no  when action is UPDATE | Bad request |
| /billing/v1/financial-accounts/financial-account/contact | 400 | Bad Request | Bad request - Mandatory Parameter [tel no Field] when action [ActionField] = DELETE | Bad request |
| /billing/v1/financial-accounts/financial-account/contact | 400 | Bad Request | Field action is neither UPDATE nor DELETE | Bad request |
| /billing/v1/financial-accounts/financial-account/contact | 400 | Bad Request | Bad request - Invalid Parameter  [<parameter name>] | Bad Request |
| /billing/v1/financial-accounts/financial-account/contact | 400 | Bad Request | Bad request - Missing Mandatory Parameter [<parameter name>] | Bad Request |
end note
end
"APIGEE" -> "Manage Profile" : Positive Request Flow Backward. \nIndividualized response per API
@enduml
