@startuml

participant "Client\n " as Client
participant "APIGEE\n " as APIG
participant "Billing\n " as Billing
participant "Loan\nFinance" as LF
participant "Device Loan\nProducts" as LP
participant "EIP\n " as EIP
participant "Tibco\n " as Tibco

title Loan Estimate Call - Regular

Client -> APIG:[[http://flows.corporate.t-mobile.com/all-swaggers/swagger/cf.loan.origination/cfs-estimateloan.json/ post loan-bundle-quotes]]
activate APIG
APIG -> LF:
deactivate APIG

activate LF
alt NAT (Client provides IMEIs)
    LF -> LF: validate IMEI as mandatory and unique
end

alt Existing Account, Client provides BAN
    LF -> APIG: post /billing-experience/v1/installment-eligibility/query-attributes
    activate APIG
    APIG -> Billing:
    deactivate APIG
    
    activate Billing
        Billing -[#blue]> APIG
    deactivate Billing
    
    activate APIG
        APIG -[#blue]> LF
    deactivate APIG
        note right: (BAN level attributes, Subscriber level rate plan code)
    
    LF -> EIP: get credit balance (ECB)
    activate EIP
        EIP -[#blue]> LF
    deactivate EIP

else New Account, Client provides BAN level attributes and subscriber level rate plan code
end

LF -> LF: Determine account and line EIP eligibility

LF -> EIP: get credit limits (MPEC, LCA)
activate EIP
    EIP -[#blue]> LF
deactivate EIP

LF -> LF: Compute number of lines, ECL

alt trade-in in same transaction (Client provides amount)
LF -> LF: consider future credit amount in ECA calculation
end

LF -> LF: Compute ECA

LF -> LP: get loan-products/{SKUs}
activate LP
    LP -[#blue]> LF
deactivate LP

LF -> LF: Determine plans

alt Reserve Plan ID, Client provides sourceTransactionId
    LF -> LF: manage Reserve Plan ID\npool of values per sourceTransactionId
end

LF -> LF: Compute downpayment, MI, TFA, RFA, schedule

LF -> LF: Determine insufficient ECA

alt Credit decision based on Credit Class (descisionCriteria=CREDIT_CLASS_BASED)
    LF --> EIP: trigger Adverse Action letter
    activate EIP
      EIP -[#blue]-> Tibco: BAU flow via AALog table
    deactivate EIP
end

LF -[#blue]> APIG
activate APIG
APIG -[#blue]> Client
    note right: equipments grouped in virtual plans based on Terms
deactivate APIG

deactivate LF

@enduml