@startuml
actor rep
participant "Audit Drawer"
participant "APIGEE"
participant "ban-bills-cycles-sa"
participant "billing-financial-collection-sa-v1"
participant "subscribers-sa-v1"
participant "billing-accounts-ms-v1"
participant "line-of-service-sa-v1"
participant "payment-sa-v1"
participant "Tuxedo"

database Samson

"Audit Drawer" -> "APIGEE" : API: /billing/v1/bill-cycle/query (POST) \nProxy: ban-bills-cycles-sa \nInput: FAN
"APIGEE" -> "ban-bills-cycles-sa": /billing/v1/bill-cycle/query
"ban-bills-cycles-sa" -> "ban-bills-cycles-sa" : Access Token & ID Token \nValidation
"ban-bills-cycles-sa" -> "Tuxedo"
"Tuxedo" -> "Samson" : Tuxedo: blGtCycle
"Samson" -> "Samson" : query

"Audit Drawer" -> "APIGEE" : API: /billing-financial/v1/aging/buckets (POST)\nProxy: billing-financial-collection-sa-v1 \nInput: FAN
"APIGEE" -> "billing-financial-collection-sa-v1": /billing-financial/v1/aging/buckets
"billing-financial-collection-sa-v1" -> "billing-financial-collection-sa-v1": Access Token & ID Token\n Validation
"billing-financial-collection-sa-v1" -> "Tuxedo"
"Tuxedo" -> "Samson" : Tuxedo: evGtAgeBkt
"Samson" -> "Samson" : query

"Audit Drawer" -> "APIGEE" : API: /billing/v3/subscribers/subscriber-summary-query (POST) \nProxy: subscribers-sa-v1 \nInput: FAN, MSISDN/s or MSISDN status
"APIGEE" -> "subscribers-sa-v1": /billing/v3/subscribers/subscriber-summary-query
"subscribers-sa-v1" -> "subscribers-sa-v1" : Access Token & ID Token \nValidation
"subscribers-sa-v1" -> "Tuxedo"
"Tuxedo" -> "Samson" : Tuxedo: evGtSubSum
"Samson" -> "Samson" : query

"Audit Drawer" -> "APIGEE" : API: /billing/v1/financial-accounts/financial-account/get-financial-account (POST) \nProxy: billing-accounts-ms-v1_financial-account_ns1 \nInput: FAN
"APIGEE" -> "billing-accounts-ms-v1": /billing/v1/financial-accounts/financial-account/get-financial-account
"billing-accounts-ms-v1" -> "billing-accounts-ms-v1" : Access Token & ID Token \nValidation
"billing-accounts-ms-v1" -> "Tuxedo"
"Tuxedo" -> "Samson" : Tuxedo: evGtCustInfo
"Samson" -> "Samson" : query

"Audit Drawer" -> "APIGEE" : API: /billing/v3/lines-of-service/sim-resource-query (POST)\nProxy: line-of-service-sa-v1 \nInput: FAN, MSISDNs
"APIGEE" -> "line-of-service-sa-v1": /billing/v3/lines-of-service/sim-resource-query
note left: Supports upto 20 MSISDN in request
"line-of-service-sa-v1" -> "line-of-service-sa-v1" : Access Token & ID Token \nValidation
"line-of-service-sa-v1" -> "Tuxedo"
"Tuxedo" -> "Samson" : Tuxedo: evLsSubInfo
"Samson" -> "Samson" : query

"Audit Drawer" -> "APIGEE" : API: /bill/v1/bill-summary (POST) \nProxy: payments-sa-v1-external.json \nInput: FAN
"APIGEE" -> "payment-sa-v1": /bill/v1/bill-summary
"payment-sa-v1" -> "payment-sa-v1" : Access Token & ID Token \nValidation
"payment-sa-v1" -> "Tuxedo"
"Tuxedo" -> "Samson" : Tuxedo: evGtCustInfo
"Samson" -> "Samson" : query


"Samson" -> "Tuxedo" : Positive Request\nFlow Backwards. \nIndividualized \nresponse per API
alt successful case
group Responses:
"Tuxedo" -[#green]> "APIGEE": 200 = OK
"Tuxedo" ->x "APIGEE": 400 = BAD REQUEST
"Tuxedo" ->x "APIGEE": 401 = Unauthorized
"Tuxedo" ->x "APIGEE": 404 = Resource Not Found
"Tuxedo" ->x "APIGEE": 405 = Method not found
"Tuxedo" ->x "APIGEE": 409 = Invalid Data
"Tuxedo" ->x "APIGEE": 415 = Unsupported Media Type
"Tuxedo" ->x "APIGEE": 500 = System Error
"Tuxedo" ->x "APIGEE": 503 = Service unavailable
note over APIGEE, "billing-financial-collection-sa-v1"
Error code mapping
| API| HTTP Status| Code| User Message | System Message|
| /billing-financial/v1/aging/buckets/query| 500| INTERNAL_SERVER_ERROR| TUXEDO_DB_ERROR_000| Data could not be retrieved from Database|
| /billing-financial/v1/aging/buckets/query| 404| NOT_FOUND| NOT_FOUND_FAN_001| FAN passed in the input does not exists in Database|
| /billing-financial/v1/aging/buckets/query| 400| Bad Request| Bad request - Missing Mandatory Parameter [<parameter name>]| Bad Request|
| /billing-financial/v1/aging/buckets/query| 400| Bad Request| Bad request - Invalid Parameter [<parameter name>]| Bad Request|
| /billing/v3/subscribers/subscriber-summary-query| 500 | System error | Internal Server Error	|
| /billing/v3/subscribers/subscriber-summary-query | 404 | Resource not found | Ban Does not exists|
| /billing/v3/subscribers/subscriber-summary-query | 400 | Bad Request | Invalid value for Parameter [%s]. %s	|
| /billing/v3/subscribers/subscriber-summary-query | 400 | Bad Request | The subscriber %s must be in active or suspended status.	|
| /billing/v3/subscribers/subscriber-summary-query | 400 | Bad Request | Input LAST_SUBSIDY_DATE date is greater than today's date	|
| /billing/v3/subscribers/subscriber-summary-query | 400 | Bad Request | Bad request - Missing Mandatory Parameter [<parameter name>] | Bad request |
| /billing/v3/subscribers/subscriber-summary-query | 400 | Bad Request | Bad request - Invalid value for Parameter [<parameter name>] | Bad request |
| /billing/v3/lines-of-service/sim-resource-query | 400 | Bad Request | Subscriber %s does not belong to BAN %s.|
| /billing/v3/lines-of-service/sim-resource-query | 400 | Bad Request | Subscriber's Equipment not found.|
| /billing/v3/lines-of-service/sim-resource-query | 400 | Bad Request | This BAN does not exist|
| /billing/v3/lines-of-service/sim-resource-query | 400 | Bad request | Bad request - Invalid Parameter [<parameter name>] | Bad request|
| /billing/v1/financial-accounts/financial-account/get-financial-account | 404 | Traced exception | Not Found - This BAN does not exist. | Traced exception|
| /billing/v1/financial-accounts/financial-account/get-financial-account | 500 | INTERNAL_SERVER_ERROR | Data could not be retrieved from Database | System Error|
| /billing/v1/financial-accounts/financial-account/get-financial-account | 400 | Bad request | Bad request - Missing Mandatory Parameter [<parameter name>] | Bad request|
| /billing/v1/financial-accounts/financial-account/get-financial-account | 400 | Bad request | Bad request - Invalid Parameter [<parameter name>] | Bad request |

 end note
end
"APIGEE" -> "Audit Drawer" : Response Flow Backward. \nIndividualized response per API
@enduml
