@startuml
actor Frontend

Frontend-> Apigee: CSM / MyTMO / QV / QVXP / ATLAS / TFB
Apigee -> getBillListMS: Request [Params: accountnumber, count]
Apigee -> getBillListMS: Request [Params: accountnumber, count, legacyaccountNumber, legacysystemindicator]
alt With No legacyAccountNumber and No legacySystemIndicator in Query Params
getBillListMS-> DatagridBill: Fetches TMobile Bills only
getBillListMS<-- DatagridBill: Response with TMobile Bills
Apigee <-- getBillListMS: Response with TMobile Bills
else With legacyAccountNumber and Without legacySystemIndicator / legacySystemIndicator as "SPR" in Query Params
getBillListMS-> DatagridBill: Fetches TMobile Bills
getBillListMS<-- DatagridBill: Response with TMobile Bills
getBillListMS-> SprintAPI: Fetches Sprint Bills
DatagridBill<--SprintAPI: Response with Sprint Bills
Apigee <-- getBillListMS: Response with TMobile & Sprint Bills
else With legacyAccountNumber and legacySystemIndicator as "SPP" in Query Params
getBillListMS-> SprintAPI: Fetches Sprint Bills only
getBillListMS<-- SprintAPI: Response with SprintBills
Apigee <-- getBillListMS: Response with SprintBills
end
Frontend<-- Apigee: Response with Bills

@enduml
