@startuml
title Billing Dashboard APIs: Billing Domain Flow
actor Rep
participant RepDash
participant "Billing Dashboard"
participant "APIGEE Gateway"

box "PCF Microservices" #LightBlue

participant "adjustments-sa-v1"
participant "payments-sa-v1"
participant "bill-charges-sa"
participant "collection-info-sa"
participant "financial-summary-sa"

end box

participant Tuxedo
database "Samson DB"
==payments-sa==
Rep -> RepDash: RepDash Login
RepDash -> "Billing Dashboard": launchpad.com/billingDashboard
"Billing Dashboard" -> "APIGEE Gateway" : /billing-financial/v1/payments/summary[[http://flows.corporate.t-mobile.com/all-swaggers/swagger/billing.samson/adjustments-sa-v1-billing-financial-external.json/ Swagger]]\n/bill/v1/bill-summary.[[http://flows.corporate.t-mobile.com/all-swaggers/swagger/billing.samson/payments-sa-v1-external.json/ Swagger]]\n/billing-financial/v1/payments/details [[http://flows.corporate.t-mobile.com/all-swaggers/swagger/billing.samson/adjustments-sa-v1-billing-financial-external.json/ Swagger]]
"APIGEE Gateway" -> "payments-sa-v1" : /billing-financial/v1/payments/summary.\n/bill/v1/bill-summary.\n/billing-financial/v1/payments/details
"payments-sa-v1" -> Tuxedo: evGtBanHdr\nevGtCustInfo\nevGbBanPym
"Tuxedo"-> "Samson DB" : evGtBanHdr\nevGtCustInfo\nevGbBanPym
"Samson DB"->"Samson DB": DB query
"Samson DB"->Tuxedo: Query response evGtBanHdr\nevGtCustInfo\nevGbBanPym
Tuxedo->"payments-sa-v1": evGtBanHdr\nevGtCustInfo\nevGbBanPym
"payments-sa-v1"->"APIGEE Gateway":  Response\n /billing-financial/v1/payments/summary.\n/bill/v1/bill-summary.\n/billing-financial/v1/payments/details
"APIGEE Gateway"->"Billing Dashboard": Response\n /billing-financial/v1/payments/summary.\n/bill/v1/bill-summary.\n/billing-financial/v1/payments/details
==adjustments-sa-v1==
"Billing Dashboard" -> "APIGEE Gateway" : POST /billing-financial/v1/adjustments/query [[http://flows.corporate.t-mobile.com/all-swaggers/swagger/billing.samson/adjustments-sa-v1-billing-financial-external.json/ swagger]]\n POST /billing-financial/v1/adjustments/pending-adjustments [[http://flows.corporate.t-mobile.com/all-swaggers/swagger/billing.samson/adjustments-sa-v1-billing-financial-external.json/ Swagger]]
"APIGEE Gateway" -> "adjustments-sa-v1" : POST /billing-financial/v1/adjustments/query\nPOST /billing-financial/v1/adjustments/pending-adjustments
"adjustments-sa-v1" -> Tuxedo : arAdjHisLs \nevGbBlPndCrg
"Tuxedo"--> "Samson DB" : arAdjHisLs \nevGbBlPndCrg
"Samson DB"->"Samson DB": DB query
"Samson DB"->Tuxedo: Query response
Tuxedo->"adjustments-sa-v1": arAdjHisLs \nevGbBlPndCrg
"adjustments-sa-v1"->"APIGEE Gateway": Response \nPOST /billing-financial/v1/adjustments/query\nPOST /billing-financial/v1/adjustments/pending-adjustments
"APIGEE Gateway"->"Billing Dashboard": POST /billing-financial/v1/adjustments/query\nPOST /billing-financial/v1/adjustments/pending-adjustments
==bill-charges-sa==
"Billing Dashboard" -> "APIGEE Gateway" : /billing-financial/v1/bill-charges/bill-cycle-charges [[http://flows.corporate.t-mobile.com/all-swaggers/swagger/billing.samson/bill-charges-sa-v1-billing-financial-external.json/ swagger]] \n/billing-financial/v1/unbilled-charges/pending-charges [[http://flows.corporate.t-mobile.com/all-swaggers/swagger/ce.dd.bd/bill-charges/v1/bill-charges-sa-v1_one-time-charge.json/ swagger]]\n /billing-financial/v1/billed-charges/one-time-charges [[http://flows.corporate.t-mobile.com/all-swaggers/swagger/billing.samson/bill-charges-sa-v1-billing-financial-external.json/ swagger]] \n/billing-financial/v1/bill-charges/details [[http://flows.corporate.t-mobile.com/all-swaggers/swagger/billing.samson/bill-charges-sa-v1-billing-financial-external.json/ swagger]] \n/billing/v1/bill-charges/tax-types [[http://flows.corporate.t-mobile.com/all-swaggers/swagger/billing.samson/bill-charges-sa-v1-external.json/ swagger]]
"APIGEE Gateway" -> "bill-charges-sa" : /billing-financial/v1/bill-charges/bill-cycle-charges [[http://flows.corporate.t-mobile.com/all-swaggers/swagger/billing.samson/bill-charges-sa-v1-billing-financial-external.json/ swagger]] \n/billing-financial/v1/unbilled-charges/pending-charges [[http://flows.corporate.t-mobile.com/all-swaggers/swagger/ce.dd.bd/bill-charges/v1/bill-charges-sa-v1_one-time-charge.json/ swagger]]\n /billing-financial/v1/billed-charges/one-time-charges [[http://flows.corporate.t-mobile.com/all-swaggers/swagger/billing.samson/bill-charges-sa-v1-billing-financial-external.json/ swagger]] \n/billing-financial/v1/bill-charges/details [[http://flows.corporate.t-mobile.com/all-swaggers/swagger/billing.samson/bill-charges-sa-v1-billing-financial-external.json/ swagger]] \n/billing/v1/bill-charges/tax-types [[http://flows.corporate.t-mobile.com/all-swaggers/swagger/billing.samson/bill-charges-sa-v1-external.json/ swagger]]
"bill-charges-sa" -> Tuxedo : evGbBilCrg
"Tuxedo"--> "Samson DB" : evGbBilCrg
"Samson DB"->"Samson DB": DB query
"Samson DB"->"Tuxedo": Response
Tuxedo ->"bill-charges-sa": Response
"bill-charges-sa"->"APIGEE Gateway" : /billing-financial/v1/bill-charges/bill-cycle-charges \n/billing-financial/v1/unbilled-charges/pending-charges\n /billing-financial/v1/billed-charges/one-time-charges \n/billing-financial/v1/bill-charges/details \n/billing/v1/bill-charges/tax-types
"APIGEE Gateway"->"Billing Dashboard" : /billing-financial/v1/bill-charges/bill-cycle-charges \n/billing-financial/v1/unbilled-charges/pending-charges\n /billing-financial/v1/billed-charges/one-time-charges \n/billing-financial/v1/bill-charges/details \n/billing/v1/bill-charges/tax-types

==financial-summary-sa==
"Billing Dashboard" -> "APIGEE Gateway" : POST /billing/v1/bills/checkbook [[http://flows.corporate.t-mobile.com/all-swaggers/swagger/billing.samson/financial-summary-sa-v1-external.json/ swagger]]
"APIGEE Gateway" -> "financial-summary-sa" : POST /billing/v1/bills/checkbook
"financial-summary-sa" -> Tuxedo : evGbChBkDtl
"Tuxedo"--> "Samson DB" : evGbChBkDtl
"Samson DB"->"Samson DB": DB query
"Samson DB"->Tuxedo: Query response
Tuxedo->"financial-summary-sa":evGbChBkDtl
"financial-summary-sa"->"APIGEE Gateway":Response \nPOST /billing/v1/bills/checkbook
"APIGEE Gateway"->"Billing Dashboard":Response POST /billing/v1/bills/checkbook

==collection-info-sa==
"Billing Dashboard" -> "APIGEE Gateway" :POST /billing/v1/collection-info [[http://flows.corporate.t-mobile.com/all-swaggers/swagger/billing.samson/collection-info-sa-v1.json/ swagger]]
"APIGEE Gateway" -> "collection-info-sa" :POST /billing/v1/bills/checkbook
"collection-info-sa" -> Tuxedo :clGtCollInfo
"Tuxedo"--> "Samson DB" :clGtCollInfo
"Samson DB"->"Samson DB":DB query
"Samson DB"->Tuxedo:Query response
Tuxedo->"financial-summary-sa": clGtCollInfo
"collection-info-sa"->"APIGEE Gateway":billing/v1/collection-info"
"APIGEE Gateway"->"Billing Dashboard":billing/v1/collection-info"
@enduml