@startuml GetServicequotes

Frontend_channel -> APIGEE [[https://bitbucket.service.edp.t-mobile.com/projects/EITCODEDOC/repos/flow-documentation/browse/swagger/ce.dd.bd/Sedona-ServiceQuotes/v1/ServiceQuotes.json]] : GET request : {GetQuote}
APIGEE -> CapabilityServiceQuote : GET :/{quoteID}
CapabilityServiceQuote -> SamsonTuxedo : GET : /tuxedo/api/evGetQuote
alt evLsQuoteAddrEnabled equals true and evGetQuoteOutput.getQuoteSts() equals F or O or A
CapabilityServiceQuote -> SamsonTuxedo : GET : /tuxedo/api/evLsQuoteAddr
end
SamsonTuxedo -> SamsonService : AssociatedJoltConnectionRequest
SamsonService -> SAMSONDB : AssociatedDBRequest
SamsonService <-- SAMSONDB : AssociatedDBResponse
SamsonTuxedo <-- SamsonService : AssociatedJoltConnectionResponse
CapabilityServiceQuote <-- SamsonTuxedo : AssociatedServiceResponse
APIGEE <-- CapabilityServiceQuote : AssociatedServiceResponse
Frontend_channel <-- APIGEE : AssociatedServiceResponse
@enduml