@startuml

 Participant Samson
 Participant DPSUNIXFLODER
 Participant DPSscheduler
 Participant AutopayProcessor
 Participant DPS

Group Lockbox/EMAF File
Samson -> DPSUNIXFLODER:Upload EasyPay request file
DPSUNIXFLODER -> DPSscheduler:Stream Data from File
DPSscheduler -> AutopayProcessor:Process AutoPay

AutopayProcessor --> DPSUNIXFLODER:Upload AutoPay Response
DPSUNIXFLODER --> Samson:Drop AutoPay Response or Rejection file
end

@enduml

