
@startuml
skinparam sequence {
	ParticipantBorderColor MidnightBlue
    ParticipantBackgroundColor Linen
}
participant TMT
participant Samson
participant BI
participant SFG
participant TMOApp
participant CardEngine
participant myTMO
participant BriteBill_Angular
participant Apigee
participant BriteBill
participant Ops

TMT->BI : TMT Batch Job 
BI->SFG:  BI Daily Batch JOB file from TMT data & Manifest File
SFG->BriteBill: BI Daily Batch Job of TMT data & Manifest File
BriteBill-> BriteBill: TMT data ingestion & Benefits Storage - S3
alt If BI Data file corrupted
BriteBill-> Ops: Mail Alert to BI & BriteBill Ops for new daily extract
end
alt If TMT data for a BAN cannot be processed from the BI daily extract
BriteBill->SFG: Response File for re-extract
SFG->BI: Response File for re-extract
BI->SFG: BI Daily Extract with requested re-extract data
SFG->BriteBill: BI Daily Extract with requested re-extract data
end

Samson->BriteBill: Daily Bill Extracts
BriteBill->BriteBill: Simple Global Data Ingestion & Benefits Storage - S3
TMOApp-> CardEngine: Invoke Card Engine
CardEngine-> Apigee [[https://bitbucket.service.edp.t-mobile.com/projects/EITCODEDOC/repos/flow-documentation/browse/swagger/ce.dd.bd/Billing-BenefitStatements/v1/benefitStatements.json]] : GET /billing/v1/benefits?mode=full
Apigee-> BriteBill [[https://bitbucket.service.edp.t-mobile.com/projects/EITCODEDOC/repos/flow-documentation/browse/swagger/ce.dd.bd/Billing-BenefitStatements/v1/benefitStatements.json]] : GET /v21/tmo/benefits?type=full 
alt If the summary benefits cannot be generated  e.g non-M4 customer
BriteBill->Apigee: Error Response
Apigee->CardEngine:Error Response
CardEngine->CardEngine: No Benefits Card to present
end
TMOApp->myTMO: Call myTMO Detailed Benefits Page
myTMO->BriteBill_Angular: Call BriteBill Benefits Angular
BriteBill_Angular-> Apigee [[https://bitbucket.service.edp.t-mobile.com/projects/EITCODEDOC/repos/flow-documentation/browse/swagger/ce.dd.bd/Billing-BenefitStatements/v1/benefitStatements.json]] : GET /billing/v1/benefits?mode=full
Apigee-> BriteBill [[https://bitbucket.service.edp.t-mobile.com/projects/EITCODEDOC/repos/flow-documentation/browse/swagger/ce.dd.bd/Billing-BenefitStatements/v1/benefitStatements.json]] : GET /v21/tmo/benefits?type=full
BriteBill->BriteBill: BriteBill to fetch the detailed benefits data from the datastore
alt If the detailed benefits statement cannot be generated
BriteBill->Apigee: Error Response
Apigee->myTMO: Error Response
myTMO->TMOApp: No Benefits statement to present
end

@enduml
