@startuml
autonumber
title __OMNI_Payment_Validation_Wallet_Autopay_Setup__

    participant Omni
    participant Apigee
box "DPS" #FFFFFF
    participant KeyManager
    participant ManagePayment
    participant PaymentValidation
    participant CPRService
    participant StoredPaymentsMS
    participant AutoPayMS
   
  end box
alt  New Card Encryption
   
    Omni-> Apigee :/payments/v3/publickey
    Apigee -> KeyManager :/payments/v3/publickey
    KeyManager --> Apigee : return publickey
    Apigee --> Omni : return publickey
    Omni --> Omni : encryptCard(cardNumber,publicKey)
end

Omni -> Apigee :/managePayment
note right
    Request Accepts:
        Encrypted Card
         Or
        Tmotoken
         Or
        TsafeAlias
end note
Apigee -> ManagePayment :/payments/v3/mpi
ManagePayment -> PaymentValidation :/payments/v3/validation
PaymentValidation --> ManagePayment : ValidationResponse
alt Validation Successful perform fraud check
    ManagePayment -> CPRService :/payments/v3/fas
    CPRService --> ManagePayment : FAS Response
end
ManagePayment --> Apigee : ManagePayment Response
Apigee -->Omni : ManagePayment Response

alt Wallet and/or Autopay Set up
    Omni -> Apigee :/managePayment
    Apigee -> ManagePayment :/payments/v3/mpi
alt Wallet Terms Accpted
    ManagePayment -> StoredPaymentsMS : /storedPayments 
    StoredPaymentsMS --> ManagePayment : StorePaymentInstrument Response
end
alt AutoPay Terms Accpted
    ManagePayment -> AutoPayMS : /autoPay 
    AutoPayMS --> ManagePayment : Autopay Response
end
ManagePayment --> Apigee : ManagePayment Response
Apigee --> Omni : ManagePayment Response
end
@enduml