@startuml
Title  IDM Dealer Datagrid Design
 
Actor OID
participant OIM as oim 
participant DeepIO as deep 
participant PCF as pcf
participant Datagrid as gemfire

Group DataLoad to IDM Dealer Data Grid
OID->oim: Autopublish the DealerUpdates
Note Over OID
When ever there is a change in any dealer record in OID, 
OID to Create a task in OIM to Autopublish the updates 
to Deep IO using default DeepIO PCF service
end Note
oim->deep: Publish the dealer Update messages to Deep.IO 
Note Over deep
EventName - 'DealerUpdates' for dealerRecords
EventName - 'Dealer_Channel_Updates' for Channeldata
EventName - 'Dealer_Group_updates' for groupdata
and Producer ID - 'IdentityManagement'
end Note
deep->pcf: PCF services will subscribe the messages
Note Over pcf
PCF Services - 
storeDealerData subscribe the messages from Event - 'DealerUpdates'
storeChannelData subscibe on - 'Dealer_Channel_Updates'
storeGroupData subscibe on - 'Dealer_Group_updates'
and Producer ID - 'IdentityManagement'
end Note
pcf->gemfire: Store consumed messages on Gemfire
end Group
Group Datagrid Recon
Note Over pcf
A scheduler will run everyweek to syncronize the dealerdata between Datagrid and OID.
end Note
pcf->OID:When the scheduler starts, microservice will fetch all the records from OID
Note Over pcf
Attribues Retrived - DealerCode, EmployeeId, lastUpdatedDate 
end Note
OID->pcf: send the records to pcf
pcf->gemfire:microservice gets all the records from gemfire
gemfire->pcf: send the records to pcf
pcf->pcf:compare the lastUpdatedDate for each record
Note Over pcf
Only DealerCode, EmployeeId, lastUpdatedDate are required for Recon 
as DealerCode is Indexed,Employee Id is unique Identifier and 
LastUpdatedDate is the field to compare for each record.
end Note
pcf->oim:If a mismatch is found between the lastUpdatedDate in OID and Gemfire for any record, PCF Service to add a task in OIM to publish that record again
oim->oim:Refer Dataload process above
end Group
@enduml