@startuml
Title GET userInfo API
 
Actor User
participant Client as ui 
participant APIGEE as api 
participant PCF as pcf
participant RSP as rsp 
participant OID as oid


Group GET userInfo API
ui->api:send request using [[https://bitbucket.service.edp.t-mobile.com/projects/EITCODEDOC/repos/flow-documentation/browse/swagger/ce.dsg.idm/users.json userInfo]] Service
Note Over ui
Request sent to APIGEE -
Mandatory Headers - PartnerId, partnerTransactionId, partnerTimestamp,
dealerCode, Application, Content-Type, Authorization(APIGEE bearer token)
Request params - 
userId,returnAccountInfo,systemIdsToRetrieve
end Note
api->pcf:Pass the request to Microservice
pcf->rsp: call RSP service
Note Over rsp
getUserInfo RSP service is called to fetch the userInfo 
end Note
rsp->oid: retrieve the userInfo
oid->rsp: pass the userInfo back
rsp->pcf: pass the userInfo response
pcf->api: send the response to apigee
api->ui: pass the response acc to req
end Group
@enduml