@startuml
Title  Login Service
 
Actor User
participant Client as ui 
participant APIGEE as api 
participant PCF as pcf
participant RSP as rsp 
participant ESS as ess
participant OAM as oam
participant OID as oid
participant OES as oes 


Group Login Service for only authentication
User->ui: Submits the credentials to login
ui->api:construct the request using [[https://bitbucket.service.edp.t-mobile.com/projects/EITCODEDOC/repos/flow-documentation/browse/swagger/ce.dsg.idm/LoginService.json login]] Service
Note Over ui
Request sent to APIGEE -
Mandatory Headers - PartnerId, partnerTransactionId, partnerTimestamp,
dealerCode, Application, Content-Type, Authorization(APIGEE bearer token)
Request params - 
UserId,password, retrieveEntitlements,retrieveUserInfo,
systemIdsToRetrieve,applicationName
retriveEntitlements and retrieveUserInfo flags are passed as false
in this scenario as client need only authentication.
end Note
api->pcf:Pass the request to Microservice
Note Over pcf
Login service call have the below orchestrations in PCF layer
1. Authentication(UserLogin)
2. UserInfo
3. Entitlements
In this group, Login service is used only for Authentication.
end Note
pcf->ess: call ESS service
Note Over ess
queryAuthenticationandAuthorization ESS service is called
passing the retreiveEntitlement flag as false.
end Note
ess->oam: authenticate Credentials
oam->ess: pass cookie 
ess->pcf: construct and send the response
Note Over pcf
only Authentication response is passed back to APIGEE
end Note
pcf->api: pass the login response
api->ui: pass response to calling client
ui->User: display landingpage
end Group

Group Login Service for authentication and retrieving UserInfo
User->ui: Submits the credentials to login
ui->api:construct the request using [[https://bitbucket.service.edp.t-mobile.com/projects/EITCODEDOC/repos/flow-documentation/browse/swagger/ce.dsg.idm/LoginService.json login]] Service
Note Over ui
Request sent to APIGEE -
Refer to Login Service for only authentication
for request credentials
retriveEntitlements flag is passed as false
and retrieveUserInfo flags is passed as true
in this scenario as client need authentication 
and retrieving UserInfo
end Note
api->pcf:Pass the request to Microservice
pcf->ess: call ESS service
Note Over ess
queryAuthenticationandAuthorization ESS service is called
passing the retreiveEntitlement flag as false.
end Note
ess->oam: authenticate Credentials
oam->ess: pass cookie 
ess->pcf: construct and send response
pcf->rsp: call RSP service
Note Over RSS
Refer to GET userInfo API flow for backend call details
end Note
rsp->pcf: send the userInfo
pcf->pcf: orchestrate both calls
pcf->api: pass the response
api->ui: pass response back to calling client
ui->User: display landingpage
end Group

Group Login Service for authentication and retrieving Entitlements
User->ui: Submits the credentials to login
ui->api:construct the request using [[https://bitbucket.service.edp.t-mobile.com/projects/EITCODEDOC/repos/flow-documentation/browse/swagger/ce.dsg.idm/LoginService.json login]] Service
Note Over ui
Request sent to APIGEE -
Refer to Login Service for only authentication
for request credentials
retriveEntitlements flag is passed as true
and retrieveUserInfo flags is passed as false
in this scenario as client need authentication 
and retrieving entitlements
end Note
api->pcf:Pass the request to Microservice
pcf->ess: call ESS service
Note Over ess
queryAuthenticationandAuthorization ESS service is called
passing the retreiveEntitlement flag as false.
end Note
ess->oam: authenticate Credentials
oam->ess: pass cookie 
ess->pcf: construct and send the response
pcf->ess: call ESS service for entitlements
Note Over ESS
Refer to Get Entitlements API call for backend call details
end Note
ess->pcf: send the entitlements
pcf->pcf: orchestrate both calls
pcf->api: pass the response
api->ui: pass response back to calling client
ui->User: display landingpage
end Group

Group Login Service for authentication, retrieving Entitlements and UserInfo
User->ui: Submits the credentials to login
ui->api:construct the request
Note Over ui
Request sent to APIGEE -
Refer to Login Service for only authentication
for request credentials
retriveEntitlements flag is passed as true
and retrieveUserInfo flags is passed as true
in this scenario as client need authentication,
retrieving UserInfo and entitlements
end Note
api->pcf:Pass the request to Microservice
pcf->ess: call ESS service
Note Over ess
queryAuthenticationandAuthorization ESS service is called
passing the retreiveEntitlement flag as false.
end Note
ess->oam: authenticate Credentials
oam->ess: pass cookie 
ess->pcf: construct and send the response
pcf->ess: call ESS service for entitlements
ess->pcf: send the entitlements
pcf->rsp: call RSP service for userInfo
rsp->pcf: send the userInfo
pcf->pcf: orchestrate 3 calls
Note Over pcf
Refer to GET Entitlements API and GET UserInfo API calls
for details on fetching data from downstream systems
end Note
pcf->api: pass the response
api->ui: pass response back to calling client
ui->User: display landingpage
end Group
@enduml
