@startuml
title Rebellion login flow
participant user_Agent 
participant Rebellion 
participant Okta_SDK as Login_App
participant API_Gateway 
participant Okta 
participant MicroServcies as MS

user_Agent->Rebellion: User try access Rebellion
Rebellion->Rebellion: Verify if tokens are present
Rebellion->Login_App: Login request to Okta SDK
Login_App->Login_App: verify okta session
alt If Tokens are not present
Login_App->Okta: Login request using /Authorize url
Okta-->user_Agent: 302 redirect for login page
user_Agent->Okta: User Submits credenitials
Okta-->user_Agent: 302 redirect with tokens
user_Agent-->Login_App: 302 redirect with tokens
Login_App->Rebellion: token and session handover
    
else If token and user session already present
     Login_App->Rebellion: token and session handover
end
Rebellion->API_Gateway: Request underlying APIs using tokens
API_Gateway->API_Gateway:Validates token and retreive attribute
API_Gateway->MS: API request to render information
MS->API_Gateway: API response
API_Gateway->Rebellion: API response 
Rebellion->user_Agent: Display requested content
@enduml
