@startuml
participant Workday
participant  "<color:white>APIGEE_Layer</color>" as A #brown
box "MIR" #LightGreen
participant "<color:white>MIR_API (de-dup ; Create/Update opr)</color>" as M #green
participant "<color:white>OKTA_table</color>" as OT #green
end box 
participant OKTA_OIM_connector 

box "OIM" #LightBlue
participant OIM_Wbsvr #blue
participant OIM #blue
end box
participant AD
participant Other_Backends


hnote over Workday:Prerequisite : Register WD as client;\n get client id & client secret
==Synchronous Flow==
autonumber
Workday -[#blue]> A : WD request \n [client id & client secret]
A->A:APIGEE validates credentials
A -[#green]-> Workday : generates "Access Token"

Workday -[#blue]>A : "Access Token" + provisioning deatails

A -[#blue]>M : if req_type="single",\n call directed to MIR_API
hnote over M://Prerequisite : get public key//
M->M: MIR validates "Access token"

Alt if ACCESS TOKEN validated successfully

      group RUN De-DUP Check
            M -[#blue]> M: run De-Dup rules
            alt if DeDup successfull
                M-[#green]->>A:User validated successfully
                A-[#green]->> Workday:200 OK
                autonumber stop

            else De-Dup Failure
                M-[#red]>A:DeDup Failure
                A-[#red]>Workday:DeDup Failure
            end
            end


else ACCESS TOKEN validated failed
M-[#red]>A :Access Token Validation failed
A-[#red]>Workday:Access Token Validation failed
end
==ASynchronous Flow==
autonumber resume 
M -[#blue]>M : when action type is "re-hire",\n invoke "updateUser Opr"
M-[#blue]>OT :re-use old user GUID;\n update user in OKTA;\n update attributes;\n place user in "MIR OKTA" group

OT-[#blue]>OKTA_OIM_connector: users in MIR OKTA group \n pushed to connector
OKTA_OIM_connector-[#blue]>OIM_Wbsvr:Basic authentication \n user id password validation
OIM_Wbsvr->OKTA_OIM_connector : validated successfully
OKTA_OIM_connector-[#blue]>OIM_Wbsvr:Passes GUID \n + provisioning request
OIM_Wbsvr-[#blue]>OIM:Passes GUID + provisioning request
OIM-[#green]>OIM:OIM creates OR update user \n (if old profile found);\n ntid, email and status\n + BAU
OIM-[#green]->OKTA_OIM_connector: provides ntid,\n email and status from OIM
alt if In Case of any OIM failure
OIM-[#red]>OIM :send emails to Workday HR DLs \n AND/OR IDM ASM app support \n as applicable
end
OKTA_OIM_connector-[#green]->OT: updates user profile in OKTA table, \n as received from OIM 
OIM-[#blue]>AD : provides GUID to AD \n + BAU
OIM-[#blue]>Other_Backends : BAU [no GUID]
...every hour or as per scheduled time...
AD-[#green]->OT : AD delta sync ups with OkTA
@enduml