{
  "openapi": "3.0.0",
  "info": {
    "title": "BAS Micro-Service",
    "version": "3.0.0"
  },
  "servers": [
    {
      "url": "https://brass.account.t-mobile.com/bas/v3"
    },
    {
      "url": "https://{Environment}brass.account.t-mobile.com/bas/v3",
      "variables": {
        "Environment": {
          "enum": [
            "dev.",
            "qat.",
            "uat.",
            "plab.",
            "ppd."
          ],
          "default": "dev."
        }
      }
    },
    {
      "url": "https://localhost:{Port}/bas/v3",
      "variables": {
        "Port": {
          "enum": [
            "3502"
          ],
          "default": "3502"
        }
      }
    }
  ],
  "paths": {
    "/reg/init": {
      "post": {
        "operationId": "initializeRegistration",
        "tags": [
          "Registration"
        ],
        "summary": "Begin registration process via biometrics",
        "security": [
          {},
          {
            "DatToken": []
          },
          {
            "PopToken": []
          }
        ],
        "requestBody": {
          "description": "Request payload",
          "required": true,
          "content": {
            "application/json": {
              "schema": {
                "required": [
                  "sso_session_id",
                  "Message",
                  "trans_id"
                ],
                "type": "object",
                "properties": {
                  "sso_session_id": {
                    "type": "string"
                  },
                  "Message": {
                    "type": "string"
                  },
                  "lang": {
                    "type": "string"
                  },
                  "trans_id": {
                    "type": "string"
                  },
                  "iam": {
                    "$ref": "#/components/schemas/iam"
                  }
                }
              },
              "examples": {
                "required": {
                  "value": {
                    "sso_session_id": "modpwq984073q0jdejfq_",
                    "Message": "FIDO encrypted message",
                    "trans_id": "atransid1010101"
                  }
                },
                "full": {
                  "value": {
                    "sso_session_id": "modpwq984073q0jdejfq_",
                    "Message": "FIDO encrypted message",
                    "lang": "en is default. supports en|es",
                    "trans_i\"": "atransid1010101",
                    "iam": {
                      "client_id": "TMOAppNative",
                      "scope": "TMO_ID_profile associated_lines",
                      "redirect_uri": "https://localhost",
                      "access_type": "ONLINE",
                      "approval_prompt": "auto",
                      "response_type": "200"
                    },
                    "iam.client_id": "TMOAppNative string client id"
                  }
                }
              }
            }
          }
        },
        "responses": {
          "200": {
            "description": "OK. Operation completed",
            "content": {
              "application/json": {
                "schema": {
                  "type": "object",
                  "required": [
                    "id"
                  ],
                  "properties": {
                    "id": {
                      "type": "string"
                    },
                    "lifetimeMillis": {
                      "type": "number"
                    },
                    "Message": {
                      "type": "string"
                    },
                    "client_directive": {
                      "type": "string"
                    }
                  }
                },
                "examples": {
                  "required": {
                    "value": {
                      "id": "messageId"
                    }
                  },
                  "full": {
                    "value": {
                      "id": "messageID",
                      "lifetimeMillis": "Lifetime of the message in milliseconds.",
                      "Message": "Encoded FIDO specific message",
                      "client_directive": "Proceed to native login"
                    }
                  }
                }
              }
            }
          },
          "400": {
            "description": "Bad Request",
            "content": {
              "application/json": {
                "schema": {
                  "$ref": "#/components/schemas/errorResponse"
                },
                "examples": {
                  "PolicyException": {
                    "$ref": "#/components/examples/PolicyException"
                  },
                  "Payload_Exception": {
                    "$ref": "#/components/examples/Payload_Exception"
                  },
                  "Invalid_Request": {
                    "$ref": "#/components/examples/Invalid_Request"
                  },
                  "Unsupported_client_message": {
                    "$ref": "#/components/examples/Unsupported_client_message"
                  },
                  "Client_Message_error": {
                    "$ref": "#/components/examples/Client_Message_error"
                  },
                  "Missing_Trans_ID": {
                    "value": {
                      "error_code": "Missing_Trans_ID",
                      "error_message": "Missing required parameter trans_id"
                    }
                  },
                  "Missing_Message": {
                    "value": {
                      "error_code": "Missing_Message",
                      "error_message": "Missing required parameter message"
                    }
                  },
                  "Missing_Auth_Header": {
                    "value": {
                      "error_code": "Missing_Auth_Header",
                      "error_message": "Missing Authorization Header"
                    }
                  },
                  "Invalid_Access_Token": {
                    "value": {
                      "error_code": "Invalid_Access_Token",
                      "error_message": "Access Token is expired or invalid"
                    }
                  },
                  "Missing_Session_ID": {
                    "value": {
                      "error_code": "Missing_Session_ID",
                      "error_message": "Missing required parameter sso_session_id"
                    }
                  },
                  "invalid_request": {
                    "value": {
                      "error_code": "invalid_request",
                      "error_message": "Required parameter ‘xxx’ is missing | Parameter ‘xxx’ appears more than once | …"
                    }
                  },
                  "invalid_token": {
                    "value": {
                      "error_code": "invalid_token",
                      "error_message": "Access token is invalid"
                    }
                  },
                  "invalid_iam_session": {
                    "value": {
                      "error_code": "invalid_iam_session",
                      "error_message": "The IAM session is invalid or expired"
                    }
                  },
                  "user_not_match": {
                    "value": {
                      "error_code": "user_not_match",
                      "error_message": "The session or access token or userId in the request doesn’t match"
                    }
                  },
                  "iam_account_hard_locked": {
                    "value": {
                      "error_code": "iam_account_hard_locked",
                      "error_message": "The IAM account is hard locked, please try again in {X} hours” | “The IAM account is hard locked. Please contact Customer Care."
                    }
                  },
                  "iam_account_soft_locked": {
                    "value": {
                      "error_code": "iam_account_soft_locked",
                      "error_message": "The IAM account is soft locked, please try again in {X} hours"
                    }
                  }
                }
              }
            }
          },
          "401": {
            "description": "Unauthorized Client",
            "content": {
              "application/json": {
                "schema": {
                  "$ref": "#/components/schemas/errorResponse"
                },
                "examples": {
                  "invalid_token": {
                    "value": {
                      "error_code": "invalid_token",
                      "error_message": "Access token is expired"
                    }
                  },
                  "Unauthorized_client": {
                    "value": {
                      "error_code": "Unauthorized client",
                      "error_message": "Client is not valid"
                    }
                  }
                }
              }
            }
          },
          "403": {
            "description": "Authorization Error",
            "content": {
              "application/json": {
                "schema": {
                  "$ref": "#/components/schemas/errorResponse"
                },
                "examples": {
                  "invalid_scope": {
                    "value": {
                      "error_code": "invalid_scope",
                      "error_message": "The token doesn’t contain {} scope"
                    }
                  },
                  "Authorization_error": {
                    "value": {
                      "error_code": "Authorization_error",
                      "error_message": "Error in Authorization token header"
                    }
                  }
                }
              }
            }
          },
          "404": {
            "description": "Not Found",
            "content": {
              "application/json": {
                "schema": {
                  "$ref": "#/components/schemas/errorResponse"
                },
                "examples": {
                  "iam_account_not_found": {
                    "value": {
                      "error_code": "iam_account_not_found",
                      "error_message": "The IAM account is not found by user identifier XYZ."
                    }
                  }
                }
              }
            }
          },
          "500": {
            "description": "Internal Server Error",
            "content": {
              "application/json": {
                "schema": {
                  "$ref": "#/components/schemas/errorResponse"
                },
                "examples": {
                  "Internal_Server_Error": {
                    "$ref": "#/components/examples/Internal_Server_Error"
                  },
                  "server_error": {
                    "value": {
                      "error_code": "server_error",
                      "error_message": "Internal Server Error."
                    }
                  },
                  "server_unavailable": {
                    "value": {
                      "error_code": "server_unavailable",
                      "error_message": "Biometrics feature is not available."
                    }
                  }
                }
              }
            }
          },
          "503": {
            "description": "Service Unavailable",
            "content": {
              "application/json": {
                "schema": {
                  "$ref": "#/components/schemas/errorResponse"
                },
                "examples": {
                  "Service_Unavailable": {
                    "value": {
                      "error_code": "Service Unavailable",
                      "error_message": "Temporarily the service is unavailable"
                    }
                  }
                }
              }
            }
          }
        }
      }
    },
    "/reg/finish": {
      "post": {
        "operationId": "finishRegistration",
        "tags": [
          "Registration"
        ],
        "summary": "Finalize registration process via biometrics",
        "security": [
          {},
          {
            "DatToken": []
          },
          {
            "PopToken": []
          }
        ],
        "requestBody": {
          "description": "Request payload",
          "required": true,
          "content": {
            "application/json": {
              "schema": {
                "required": [
                  "message",
                  "trans_id",
                  "iam",
                  "sso_session_id",
                  "user_id",
                  "platform"
                ],
                "type": "object",
                "properties": {
                  "message": {
                    "type": "string"
                  },
                  "lang": {
                    "type": "string"
                  },
                  "trans_id": {
                    "type": "string"
                  },
                  "iam": {
                    "$ref": "#/components/schemas/iam"
                  },
                  "sso_session_id": {
                    "type": "string"
                  },
                  "user_id": {
                    "type": "string"
                  },
                  "platform": {
                    "type": "string"
                  }
                }
              },
              "examples": {
                "required": {
                  "value": {
                    "message": "The FIDO encrypted message",
                    "trans_id": "Transaction ID",
                    "iam": {
                      "client_id": "TMOAppNative",
                      "scope": "TMO_ID_profile associated_lines",
                      "redirect_uri": "https://localhost",
                      "access_type": "ONLINE",
                      "approval_prompt": "auto",
                      "response_type": "200"
                    },
                    "sso_session_id": "xyz",
                    "user_id": "This is the user id with which the user logged in. It could either email or msisd",
                    "platform": "Platform of device from which request originated. Example Android or IOS"
                  }
                },
                "full": {
                  "value": {
                    "message": "The FIDO encrypted message",
                    "lang": "Default value is ‘en’. Supported values ‘en’ and ‘es’. If any unsupported value sent default will be used.",
                    "trans_id": "Transaction ID",
                    "iam": {
                      "client_id": "TMOAppNative",
                      "scope": "TMO_ID_profile associated_lines",
                      "redirect_uri": "https://localhost",
                      "access_type": "ONLINE",
                      "approval_prompt": "auto",
                      "response_type": "200"
                    },
                    "sso_session_id": "xyz",
                    "user_id": "This is the user id with which the user logged in. It could either email or msisd.",
                    "platform": "Platform of device from which request originated. Example Android or IOS"
                  }
                }
              }
            }
          }
        },
        "responses": {
          "200": {
            "description": "OK. Operation completed",
            "content": {
              "application/json": {
                "schema": {
                  "type": "object",
                  "required": [
                    "id"
                  ],
                  "properties": {
                    "id": {
                      "type": "string"
                    },
                    "message": {
                      "type": "string"
                    },
                    "token": {
                      "$ref": "#/components/schemas/sessionToken"
                    },
                    "client_directive": {
                      "type": "string"
                    }
                  }
                },
                "examples": {
                  "full": {
                    "value": {
                      "id": 9092,
                      "message": "FIDO encrypted message",
                      "token": {
                        "access_token": "1.0kPSkLuvbK0kGwjb2G",
                        "access_token_type": "Bearer",
                        "access_token_ttl": 3600,
                        "code": "1.6gh410YuDYbbYtmZPz",
                        "sso_session_id": "ABSasak",
                        "sso_session_ttl": "Wed, 22 Mar 2017 21:10:33 GMT",
                        "scope": "TMO_ID_profile associated_lines",
                        "user_id": "U-547ffd77-3f51-48e6-b4aa-ffa5819bb70e",
                        "tmobileid": "fe75ff14c87267b31be33591fa44599ac5390407a102024577472caa49381cf0",
                        "startTime": "2017-03-22T20:40:32.885Z",
                        "endTime": "2017-03-22T20:40:33.293Z",
                        "user_token": "eyJhbGciOiJSUzI1NiIsInR5cCI6IkpXVCJ9.eyJpYXQiOjE1MDI4MTQxNzcsImV4cCI6MTUwMjgxNzc3NiwiYXVkIjoiVE1PQXBwTmF0aXZlIiwibm9uY2UiOm51bGwsImF1dGhfdGltZSI6MTUwMjgxNDEwNiwiQVQiOiIxLkc1ZzVxS2I0cTRQcklsTVpUNCIsInN1YiI6IlUtNDdhNzQ3NzItMjc4NC00NmUwLTgzNTctYmNlNGEzMGFhNzk4IiwiYWNyIjoibG9hMiIsImFtciI6InBhc3N3b3JkIn0.ZvfGNbS7NdcwFNTu0z3hCW37rnuWjDJVzIkcFGVnYqTV7oajeeiizPD3TgrBBO1a2M-1Cp43ibvUY_LP3EjwOGPAIpwf3bxkDwxWZGbziqzjuFMtt7sXSJWaKqZqRUGxAt2QFroWJhTdwQ7gUdvOlxFnTYH7XTc1OItBUHiPb2Aa4725wjvTKqnpAuraLHn7HXmnZPhPo8kzcCDw4nH0nh1QXxV9E2K4f_AhcDAakMLIbWuAdki_kf8H6X2uf1Tn_LQEHZBYy2ib13UEey8jpigGVtfdOCtVvNrbieu-PGvykFMmJxUXASLTZFLNL1KoBHECIoO9TDckDvdAe6G-zA"
                      },
                      "client_directive": "Proceed to web view login"
                    }
                  }
                }
              }
            }
          },
          "400": {
            "description": "Bad Request",
            "content": {
              "application/json": {
                "schema": {
                  "$ref": "#/components/schemas/errorResponse"
                },
                "examples": {
                  "PolicyException": {
                    "$ref": "#/components/examples/PolicyException"
                  },
                  "Payload_Exception": {
                    "$ref": "#/components/examples/Payload_Exception"
                  },
                  "Invalid_Request": {
                    "$ref": "#/components/examples/Invalid_Request"
                  },
                  "Unsupported_client_message": {
                    "$ref": "#/components/examples/Unsupported_client_message"
                  },
                  "Client_Message_error": {
                    "$ref": "#/components/examples/Client_Message_error"
                  },
                  "Missing_Header": {
                    "value": {
                      "error_code": "Missing_Header",
                      "error_message": "Missing Authorization Header"
                    }
                  },
                  "Invalid_Access_Token": {
                    "value": {
                      "error_code": "Invalid_Access_Token",
                      "error_message": "Access Token is expired or invalid"
                    }
                  },
                  "Missing_Trans_ID": {
                    "value": {
                      "error_code": "Missing_Trans_ID",
                      "bash error_message": "Missing required parameter trans_id"
                    }
                  },
                  "Missing_IAM_Details": {
                    "value": {
                      "error_code": "Missing_IAM_Details",
                      "error_message": "Missing required parameter iam"
                    }
                  },
                  "Missing_Client_ID": {
                    "value": {
                      "error_code": "Missing_Client_ID",
                      "error_message": "Missing required parameter client_id"
                    }
                  },
                  "invalid_request": {
                    "value": {
                      "error_code": "invalid_request",
                      "error_message": "Required parameter 'xxx' is missing | Parameter 'xxx' appears more than once | …"
                    }
                  },
                  "invalid_token": {
                    "value": {
                      "error_code": "invalid_token",
                      "error_message": "Access token is invalid"
                    }
                  },
                  "invalid_iam_session": {
                    "value": {
                      "error_code": "invalid_iam_session",
                      "error_message": "The IAM session is invalid or expired."
                    }
                  },
                  "user_not_match": {
                    "value": {
                      "error_code": "user_not_match",
                      "error_message": "The session or access token or userId in the request doesn’t match"
                    }
                  }
                }
              }
            }
          },
          "401": {
            "description": "Unauthorized Client",
            "content": {
              "application/json": {
                "schema": {
                  "$ref": "#/components/schemas/errorResponse"
                },
                "examples": {
                  "Unauthorized": {
                    "value": {
                      "error_code": "Unauthorized",
                      "error_message": "The provided access token is invalid or expired"
                    }
                  },
                  "Unauthorized_client": {
                    "value": {
                      "error_code": "Unauthorized client",
                      "error_message": "Client is not valid"
                    }
                  }
                }
              }
            }
          },
          "403": {
            "description": "Authorization Error",
            "content": {
              "application/json": {
                "schema": {
                  "$ref": "#/components/schemas/errorResponse"
                },
                "examples": {
                  "invalid_scope": {
                    "value": {
                      "error_code": "invalid_scope",
                      "error_message": "The token doesn't contain {} scope"
                    }
                  }
                }
              }
            }
          },
          "404": {
            "description": "Not Found",
            "content": {
              "application/json": {
                "schema": {
                  "$ref": "#/components/schemas/errorResponse"
                },
                "examples": {
                  "iam_account_not_found": {
                    "value": {
                      "error_code": "iam_account_not_found",
                      "error_message": "The IAM account is not found by user identifier XYZ."
                    }
                  }
                }
              }
            }
          },
          "500": {
            "description": "Internal Server Error",
            "content": {
              "application/json": {
                "schema": {
                  "$ref": "#/components/schemas/errorResponse"
                },
                "examples": {
                  "Internal_Server_Error": {
                    "$ref": "#/components/examples/Internal_Server_Error"
                  },
                  "server_error": {
                    "value": {
                      "error_code": "server_error",
                      "error_message": "Internal Server Error."
                    }
                  }
                }
              }
            }
          },
          "503": {
            "description": "Service Unavailable",
            "content": {
              "application/json": {
                "schema": {
                  "$ref": "#/components/schemas/errorResponse"
                },
                "examples": {
                  "server_unavailable": {
                    "value": {
                      "error_code": "server_unavailable",
                      "error_message": "Biometrics feature is not available."
                    }
                  }
                }
              }
            }
          }
        }
      }
    },
    "/reg/finish/code": {
      "post": {
        "operationId": "finishRegistrationCode",
        "tags": [
          "Registration"
        ],
        "summary": "Finalize registration process via biometrics",
        "security": [
          {},
          {
            "DatToken": []
          },
          {
            "PopToken": []
          }
        ],
        "requestBody": {
          "description": "Request payload",
          "required": true,
          "content": {
            "application/json": {
              "schema": {
                "required": [
                  "message",
                  "trans_id",
                  "iam",
                  "sso_session_id",
                  "user_id",
                  "platform"
                ],
                "type": "object",
                "properties": {
                  "message": {
                    "type": "string"
                  },
                  "lang": {
                    "type": "string"
                  },
                  "trans_id": {
                    "type": "string"
                  },
                  "iam": {
                    "$ref": "#/components/schemas/iam"
                  },
                  "sso_session_id": {
                    "type": "string"
                  },
                  "user_id": {
                    "type": "string"
                  },
                  "platform": {
                    "type": "string"
                  }
                }
              },
              "examples": {
                "required": {
                  "value": {
                    "message": "The FIDO encrypted message",
                    "trans_id": "Transaction ID",
                    "iam": {
                      "client_id": "TMOAppNative",
                      "scope": "TMO_ID_profile associated_lines",
                      "redirect_uri": "https://localhost",
                      "access_type": "ONLINE",
                      "approval_prompt": "auto",
                      "response_type": "200"
                    },
                    "sso_session_id": "xyz",
                    "user_id": "This is the user id with which the user logged in. It could either email or msisd",
                    "platform": "Platform of device from which request originated. Example Android or IOS"
                  }
                },
                "full": {
                  "value": {
                    "message": "The FIDO encrypted message",
                    "lang": "Default value is ‘en’. Supported values ‘en’ and ‘es’. If any unsupported value sent default will be used.",
                    "trans_id": "Transaction ID",
                    "iam": {
                      "client_id": "TMOAppNative",
                      "scope": "TMO_ID_profile associated_lines",
                      "redirect_uri": "https://localhost",
                      "access_type": "ONLINE",
                      "approval_prompt": "auto",
                      "response_type": "200"
                    },
                    "sso_session_id": "xyz",
                    "user_id": "This is the user id with which the user logged in. It could either email or msisd.",
                    "platform": "Platform of device from which request originated. Example Android or IOS"
                  }
                }
              }
            }
          }
        },
        "responses": {
          "200": {
            "description": "OK. Operation completed",
            "content": {
              "application/json": {
                "schema": {
                  "type": "object",
                  "required": [
                    "id",
                    "authorization_code_response"
                  ],
                  "properties": {
                    "id": {
                      "type": "string"
                    },
                    "authorization_code_response": {
                      "$ref": "#/components/schemas/authorization_code_response"
                    },
                    "message": {
                      "type": "string"
                    },
                    "token": {
                      "$ref": "#/components/schemas/sessionToken"
                    },
                    "client_directive": {
                      "type": "string"
                    }
                  }
                },
                "examples": {
                  "full": {
                    "value": {
                      "id": "messageID",
                      "message": "FIDO encrypted message",
                      "authorization_code_response": {
                        "code": "1.6gh410YuDYbbYtmZPz",
                        "sso_session_id": "ABSasak",
                        "sso_session_ttl": "Wed, 22 Mar 2017 21:10:33 GMT",
                        "user_id": "U-547ffd77-3f51-48e6-b4aa-ffa5819bb70e",
                        "startTime": "2017-03-22T20:40:32.885Z",
                        "endTime": "2017-03-22T20:40:33.293Z"
                      },
                      "client_directive": "Proceed to web view login"
                    }
                  }
                }
              }
            }
          },
          "400": {
            "description": "Bad Request",
            "content": {
              "application/json": {
                "schema": {
                  "$ref": "#/components/schemas/errorResponse"
                },
                "examples": {
                  "PolicyException": {
                    "$ref": "#/components/examples/PolicyException"
                  },
                  "Payload_Exception": {
                    "$ref": "#/components/examples/Payload_Exception"
                  },
                  "Invalid_Request": {
                    "$ref": "#/components/examples/Invalid_Request"
                  },
                  "Unsupported_client_message": {
                    "$ref": "#/components/examples/Unsupported_client_message"
                  },
                  "Client_Message_error": {
                    "$ref": "#/components/examples/Client_Message_error"
                  },
                  "Missing_Header": {
                    "value": {
                      "error_code": "Missing_Header",
                      "error_message": "Missing Authorization Header"
                    }
                  },
                  "Invalid_Access_Token": {
                    "value": {
                      "error_code": "Invalid_Access_Token",
                      "error_message": "Access Token is expired or invalid"
                    }
                  },
                  "Missing_Trans_ID": {
                    "value": {
                      "error_code": "Missing_Trans_ID",
                      "bash error_message": "Missing required parameter trans_id"
                    }
                  },
                  "Missing_IAM_Details": {
                    "value": {
                      "error_code": "Missing_IAM_Details",
                      "error_message": "Missing required parameter iam"
                    }
                  },
                  "Missing_Client_ID": {
                    "value": {
                      "error_code": "Missing_Client_ID",
                      "error_message": "Missing required parameter client_id"
                    }
                  },
                  "invalid_request": {
                    "value": {
                      "error_code": "invalid_request",
                      "error_message": "Required parameter 'xxx' is missing | Parameter 'xxx' appears more than once | …"
                    }
                  },
                  "invalid_token": {
                    "value": {
                      "error_code": "invalid_token",
                      "error_message": "Access token is invalid"
                    }
                  },
                  "invalid_iam_session": {
                    "value": {
                      "error_code": "invalid_iam_session",
                      "error_message": "The IAM session is invalid or expired."
                    }
                  },
                  "user_not_match": {
                    "value": {
                      "error_code": "user_not_match",
                      "error_message": "The session or access token or userId in the request doesn’t match"
                    }
                  }
                }
              }
            }
          },
          "401": {
            "description": "Unauthorized Client",
            "content": {
              "application/json": {
                "schema": {
                  "$ref": "#/components/schemas/errorResponse"
                },
                "examples": {
                  "Unauthorized": {
                    "value": {
                      "error_code": "Unauthorized",
                      "error_message": "The provided access token is invalid or expired"
                    }
                  },
                  "Unauthorized_client": {
                    "value": {
                      "error_code": "Unauthorized client",
                      "error_message": "Client is not valid"
                    }
                  }
                }
              }
            }
          },
          "403": {
            "description": "Authorization Error",
            "content": {
              "application/json": {
                "schema": {
                  "$ref": "#/components/schemas/errorResponse"
                },
                "examples": {
                  "invalid_scope": {
                    "value": {
                      "error_code": "invalid_scope",
                      "error_message": "The token doesn't contain {} scope"
                    }
                  }
                }
              }
            }
          },
          "404": {
            "description": "Not Found",
            "content": {
              "application/json": {
                "schema": {
                  "$ref": "#/components/schemas/errorResponse"
                },
                "examples": {
                  "iam_account_not_found": {
                    "value": {
                      "error_code": "iam_account_not_found",
                      "error_message": "The IAM account is not found by user identifier XYZ."
                    }
                  }
                }
              }
            }
          },
          "500": {
            "description": "Internal Server Error",
            "content": {
              "application/json": {
                "schema": {
                  "$ref": "#/components/schemas/errorResponse"
                },
                "examples": {
                  "Internal_Server_Error": {
                    "$ref": "#/components/examples/Internal_Server_Error"
                  },
                  "server_error": {
                    "value": {
                      "error_code": "server_error",
                      "error_message": "Internal Server Error."
                    }
                  }
                }
              }
            }
          },
          "503": {
            "description": "Service Unavailable",
            "content": {
              "application/json": {
                "schema": {
                  "$ref": "#/components/schemas/errorResponse"
                },
                "examples": {
                  "server_unavailable": {
                    "value": {
                      "error_code": "server_unavailable",
                      "error_message": "Biometrics feature is not available."
                    }
                  }
                }
              }
            }
          }
        }
      }
    },
    "/auth/init": {
      "post": {
        "operationId": "authorizationInitialization",
        "tags": [
          "Authorization"
        ],
        "summary": "Initialize authorization process",
        "security": [
          {},
          {
            "DatToken": []
          },
          {
            "PopToken": []
          }
        ],
        "requestBody": {
          "description": "Request payload",
          "required": true,
          "content": {
            "application/json": {
              "schema": {
                "required": [
                  "uuid",
                  "message",
                  "trans_id"
                ],
                "type": "object",
                "properties": {
                  "lang": {
                    "type": "string"
                  },
                  "uuid": {
                    "type": "string"
                  },
                  "message": {
                    "type": "string"
                  },
                  "trans_id": {
                    "type": "string"
                  },
                  "iam": {
                    "$ref": "#/components/schemas/iam"
                  }
                }
              },
              "examples": {
                "required": {
                  "value": {
                    "uuid": "TMO UID",
                    "message": "The FIDO encrypted message",
                    "trans_id": "Transaction ID"
                  }
                },
                "full": {
                  "value": {
                    "uuid": "TMO UID",
                    "message": "The FIDO encrypted message",
                    "lang": "Default value is ‘en’. Supported values ‘en’ and ‘es’. If any unsupported value sent default will be used.",
                    "trans_id": "Transaction ID",
                    "iam": {
                      "client_id": "TMOAppNative",
                      "scope": "TMO_ID_profile associated_lines",
                      "redirect_uri": "https://localhost",
                      "access_type": "ONLINE",
                      "approval_prompt": "auto",
                      "response_type": "200"
                    }
                  }
                }
              }
            }
          }
        },
        "responses": {
          "200": {
            "description": "OK. Operation completed",
            "content": {
              "application/json": {
                "schema": {
                  "type": "object",
                  "properties": {
                    "id": {
                      "type": "string"
                    },
                    "lifetimeMillis": {
                      "type": "number"
                    },
                    "Message": {
                      "type": "string"
                    },
                    "client_directive": {
                      "type": "string"
                    }
                  }
                }
              }
            }
          },
          "400": {
            "description": "Bad Request",
            "content": {
              "application/json": {
                "schema": {
                  "$ref": "#/components/schemas/errorResponse"
                },
                "examples": {
                  "PolicyException": {
                    "$ref": "#/components/examples/PolicyException"
                  },
                  "Payload_Exception": {
                    "$ref": "#/components/examples/Payload_Exception"
                  },
                  "Invalid_Request": {
                    "$ref": "#/components/examples/Invalid_Request"
                  },
                  "Unsupported_client_message": {
                    "$ref": "#/components/examples/Unsupported_client_message"
                  },
                  "Client_Message_error": {
                    "$ref": "#/components/examples/Client_Message_error"
                  },
                  "Missing_Message": {
                    "value": {
                      "error_code": "Missing_Message",
                      "error_message": "Missing required parameter message"
                    }
                  },
                  "Missing_Trans_ID": {
                    "value": {
                      "error_code": "Missing_Trans_ID",
                      "error_message": "Missing required parameter trans_id"
                    }
                  },
                  "Missing _user": {
                    "value": {
                      "error_code": "Missing _user",
                      "error_message": "Missing required parameter uuid"
                    }
                  },
                  "invalid_request": {
                    "value": {
                      "error_code": "invalid_request",
                      "error_message": "Required parameter ‘xxx’ is missing | Parameter ‘xxx’ appears more than once | …"
                    }
                  },
                  "invalid_scope": {
                    "value": {
                      "error_code": "invalid_scope",
                      "error_message": "The token doesn’t contain {} scope"
                    }
                  }
                }
              }
            }
          },
          "401": {
            "description": "Unauthorized Client",
            "content": {
              "application/json": {
                "schema": {
                  "$ref": "#/components/schemas/errorResponse"
                },
                "examples": {
                  "expired_token": {
                    "value": {
                      "error_code": "invalid_token",
                      "error_message": "Access token is expired"
                    }
                  },
                  "invalid_token": {
                    "value": {
                      "error_code": "invalid_token",
                      "error_message": "Access token invalid"
                    }
                  }
                }
              }
            }
          },
          "404": {
            "description": "Not Found",
            "content": {
              "application/json": {
                "schema": {
                  "$ref": "#/components/schemas/errorResponse"
                },
                "examples": {
                  "iam_account_not_found": {
                    "value": {
                      "error_code": "iam_account_not_found",
                      "error_message": "The IAM account is not found by user identifier <uuid>"
                    }
                  }
                }
              }
            }
          },
          "500": {
            "description": "Internal Server Error",
            "content": {
              "application/json": {
                "schema": {
                  "$ref": "#/components/schemas/errorResponse"
                },
                "examples": {
                  "Internal_Server_Error": {
                    "$ref": "#/components/examples/Internal_Server_Error"
                  }
                }
              }
            }
          }
        }
      }
    },
    "/auth/finish": {
      "post": {
        "operationId": "finishAuthorization",
        "tags": [
          "Authorization"
        ],
        "summary": "Finalize authorization process",
        "security": [
          {},
          {
            "DatToken": []
          },
          {
            "PopToken": []
          }
        ],
        "requestBody": {
          "description": "Request payload",
          "required": true,
          "content": {
            "application/json": {
              "schema": {
                "required": [
                  "uuid",
                  "message",
                  "iam",
                  "trans_id"
                ],
                "type": "object",
                "properties": {
                  "uuid": {
                    "type": "string"
                  },
                  "message": {
                    "type": "string"
                  },
                  "lang": {
                    "type": "string"
                  },
                  "iam": {
                    "$ref": "#/components/schemas/iam"
                  },
                  "trans_id": {
                    "type": "string"
                  }
                }
              },
              "examples": {
                "required": {
                  "value": {
                    "trans_id": "Transaction ID",
                    "iam": {
                      "client_id": "TMOAppNative",
                      "scope": "TMO_ID_profile associated_lines",
                      "redirect_uri": "https://localhost",
                      "access_type": "ONLINE",
                      "approval_prompt": "auto",
                      "response_type": "200"
                    }
                  }
                },
                "full": {
                  "value": {
                    "trans_id": "Transaction ID",
                    "iam": {
                      "client_id": "TMOAppNative",
                      "scope": "TMO_ID_profile associated_lines",
                      "redirect_uri": "https://localhost",
                      "access_type": "ONLINE",
                      "approval_prompt": "auto",
                      "response_type": "200"
                    },
                    "lang": "Default value is ‘en’. Supported values ‘en’ and ‘es’. If any unsupported value sent default will be used."
                  }
                }
              }
            }
          }
        },
        "responses": {
          "200": {
            "description": "OK. Operation completed",
            "content": {
              "application/json": {
                "schema": {
                  "type": "object",
                  "required": [
                    "id",
                    "user_id",
                    "token"
                  ],
                  "properties": {
                    "id": {
                      "type": "string"
                    },
                    "user_id": {
                      "type": "string"
                    },
                    "message": {
                      "type": "string"
                    },
                    "token": {
                      "$ref": "#/components/schemas/sessionToken"
                    },
                    "client_directive": {
                      "type": "string"
                    }
                  }
                },
                "examples": {
                  "full": {
                    "value": {
                      "id": 9092,
                      "message": "FIDO encrypted message",
                      "token": {
                        "access_token": "1.0kPSkLuvbK0kGwjb2G",
                        "access_token_type": "Bearer",
                        "access_token_ttl": 3600,
                        "code": "1.6gh410YuDYbbYtmZPz",
                        "sso_session_id": "ABSasak",
                        "sso_session_ttl": "Wed, 22 Mar 2017 21:10:33 GMT",
                        "scope": "TMO_ID_profile associated_lines",
                        "user_id": "U-547ffd77-3f51-48e6-b4aa-ffa5819bb70e",
                        "tmobileid": "fe75ff14c87267b31be33591fa44599ac5390407a102024577472caa49381cf0",
                        "startTime": "2017-03-22T20:40:32.885Z",
                        "endTime": "2017-03-22T20:40:33.293Z",
                        "user_token": "eyJhbGciOiJSUzI1NiIsInR5cCI6IkpXVCJ9.eyJpYXQiOjE1MDI4MTQxNzcsImV4cCI6MTUwMjgxNzc3NiwiYXVkIjoiVE1PQXBwTmF0aXZlIiwibm9uY2UiOm51bGwsImF1dGhfdGltZSI6MTUwMjgxNDEwNiwiQVQiOiIxLkc1ZzVxS2I0cTRQcklsTVpUNCIsInN1YiI6IlUtNDdhNzQ3NzItMjc4NC00NmUwLTgzNTctYmNlNGEzMGFhNzk4IiwiYWNyIjoibG9hMiIsImFtciI6InBhc3N3b3JkIn0.ZvfGNbS7NdcwFNTu0z3hCW37rnuWjDJVzIkcFGVnYqTV7oajeeiizPD3TgrBBO1a2M-1Cp43ibvUY_LP3EjwOGPAIpwf3bxkDwxWZGbziqzjuFMtt7sXSJWaKqZqRUGxAt2QFroWJhTdwQ7gUdvOlxFnTYH7XTc1OItBUHiPb2Aa4725wjvTKqnpAuraLHn7HXmnZPhPo8kzcCDw4nH0nh1QXxV9E2K4f_AhcDAakMLIbWuAdki_kf8H6X2uf1Tn_LQEHZBYy2ib13UEey8jpigGVtfdOCtVvNrbieu-PGvykFMmJxUXASLTZFLNL1KoBHECIoO9TDckDvdAe6G-zA"
                      },
                      "client_directive": "Proceed to web view login"
                    }
                  }
                }
              }
            }
          },
          "400": {
            "description": "Bad Request",
            "content": {
              "application/json": {
                "schema": {
                  "$ref": "#/components/schemas/errorResponse"
                },
                "examples": {
                  "Missing_user": {
                    "value": {
                      "error_code": "Missing_user",
                      "error_message": "Missing required parameter uuid"
                    }
                  },
                  "Missing_Message": {
                    "value": {
                      "error_code": "Missing_Message",
                      "error_message": "Missing required parameter message"
                    }
                  },
                  "Missing_IAM_PARAMS": {
                    "value": {
                      "error_code": "Missing_IAM_PARAMS",
                      "error_message": "Missing required parameter iam"
                    }
                  },
                  "Missing_Client_ID": {
                    "value": {
                      "error_code": "Missing_Client_ID",
                      "error_message": "Missing required parameter iam.client_id"
                    }
                  },
                  "PolicyException": {
                    "$ref": "#/components/examples/PolicyException"
                  },
                  "Payload_Exception": {
                    "$ref": "#/components/examples/Payload_Exception"
                  },
                  "Invalid_Request": {
                    "$ref": "#/components/examples/Invalid_Request"
                  },
                  "Unsupported_client_message": {
                    "$ref": "#/components/examples/Unsupported_client_message"
                  },
                  "Client_Message_error": {
                    "$ref": "#/components/examples/Client_Message_error"
                  },
                  "Missing_Trans_ID": {
                    "value": {
                      "error_code": "Missing_Trans_ID",
                      "error_message": "Missing required parameter trans_id"
                    }
                  },
                  "invalid_request": {
                    "value": {
                      "error_code": "invalid_request",
                      "error_message": "Required parameter ‘xxx’ is missing | Parameter ‘xxx’ appears more than once | …"
                    }
                  },
                  "iam_user_account_soft_locked": {
                    "value": {
                      "statusCode": "N/A",
                      "error_code": "iam_user_account_soft_locked",
                      "error_message": "To protect your security, we have temporarily locked your account. To access your account, wait 24 hours"
                    }
                  }
                }
              }
            }
          },
          "401": {
            "description": "Unauthorized Client",
            "content": {
              "application/json": {
                "schema": {
                  "$ref": "#/components/schemas/errorResponse"
                },
                "examples": {
                  "expired_token": {
                    "value": {
                      "error_code": "invalid_token",
                      "error_message": "Access token is expired"
                    }
                  },
                  "invalid_token": {
                    "value": {
                      "error_code": "invalid_token",
                      "error_message": "Access token invalid"
                    }
                  }
                }
              }
            }
          },
          "500": {
            "description": "Internal Server Error",
            "content": {
              "application/json": {
                "schema": {
                  "$ref": "#/components/schemas/errorResponse"
                },
                "examples": {
                  "Internal_Server_Error": {
                    "$ref": "#/components/examples/Internal_Server_Error"
                  }
                }
              }
            }
          }
        }
      }
    },
    "/auth/finish/code": {
      "post": {
        "operationId": "finishAuthorizationCode",
        "tags": [
          "Authorization"
        ],
        "summary": "Finalize authorization process",
        "security": [
          {},
          {
            "DatToken": []
          },
          {
            "PopToken": []
          }
        ],
        "requestBody": {
          "description": "Request payload",
          "required": true,
          "content": {
            "application/json": {
              "schema": {
                "required": [
                  "uuid",
                  "message",
                  "iam",
                  "trans_id"
                ],
                "type": "object",
                "properties": {
                  "uuid": {
                    "type": "string"
                  },
                  "message": {
                    "type": "string"
                  },
                  "lang": {
                    "type": "string"
                  },
                  "iam": {
                    "$ref": "#/components/schemas/iam"
                  },
                  "trans_id": {
                    "type": "string"
                  }
                }
              },
              "examples": {
                "required": {
                  "value": {
                    "trans_id": "Transaction ID",
                    "iam": {
                      "client_id": "TMOAppNative",
                      "scope": "TMO_ID_profile associated_lines",
                      "redirect_uri": "https://localhost",
                      "access_type": "ONLINE",
                      "approval_prompt": "auto",
                      "response_type": "200"
                    }
                  }
                },
                "full": {
                  "value": {
                    "trans_id": "Transaction ID",
                    "iam": {
                      "client_id": "TMOAppNative",
                      "scope": "TMO_ID_profile associated_lines",
                      "redirect_uri": "https://localhost",
                      "access_type": "ONLINE",
                      "approval_prompt": "auto",
                      "response_type": "200"
                    },
                    "lang": "Default value is ‘en’. Supported values ‘en’ and ‘es’. If any unsupported value sent default will be used."
                  }
                }
              }
            }
          }
        },
        "responses": {
          "200": {
            "description": "OK. Operation completed",
            "content": {
              "application/json": {
                "schema": {
                  "type": "object",
                  "required": [
                    "id",
                    "user_id",
                    "authorization_code_response"
                  ],
                  "properties": {
                    "id": {
                      "type": "string"
                    },
                    "user_id": {
                      "type": "string"
                    },
                    "message": {
                      "type": "string"
                    },
                    "authorization_code_response": {
                      "$ref": "#/components/schemas/authorization_code_response"
                    },
                    "client_directive": {
                      "type": "string"
                    }
                  }
                },
                "examples": {
                  "full": {
                    "value": {
                      "id": 9092,
                      "message": "FIDO encrypted message",
                      "token": {
                        "access_token": "1.0kPSkLuvbK0kGwjb2G",
                        "access_token_type": "Bearer",
                        "access_token_ttl": 3600,
                        "code": "1.6gh410YuDYbbYtmZPz",
                        "sso_session_id": "ABSasak",
                        "sso_session_ttl": "Wed, 22 Mar 2017 21:10:33 GMT",
                        "scope": "TMO_ID_profile associated_lines",
                        "user_id": "U-547ffd77-3f51-48e6-b4aa-ffa5819bb70e",
                        "tmobileid": "fe75ff14c87267b31be33591fa44599ac5390407a102024577472caa49381cf0",
                        "startTime": "2017-03-22T20:40:32.885Z",
                        "endTime": "2017-03-22T20:40:33.293Z",
                        "user_token": "eyJhbGciOiJSUzI1NiIsInR5cCI6IkpXVCJ9.eyJpYXQiOjE1MDI4MTQxNzcsImV4cCI6MTUwMjgxNzc3NiwiYXVkIjoiVE1PQXBwTmF0aXZlIiwibm9uY2UiOm51bGwsImF1dGhfdGltZSI6MTUwMjgxNDEwNiwiQVQiOiIxLkc1ZzVxS2I0cTRQcklsTVpUNCIsInN1YiI6IlUtNDdhNzQ3NzItMjc4NC00NmUwLTgzNTctYmNlNGEzMGFhNzk4IiwiYWNyIjoibG9hMiIsImFtciI6InBhc3N3b3JkIn0.ZvfGNbS7NdcwFNTu0z3hCW37rnuWjDJVzIkcFGVnYqTV7oajeeiizPD3TgrBBO1a2M-1Cp43ibvUY_LP3EjwOGPAIpwf3bxkDwxWZGbziqzjuFMtt7sXSJWaKqZqRUGxAt2QFroWJhTdwQ7gUdvOlxFnTYH7XTc1OItBUHiPb2Aa4725wjvTKqnpAuraLHn7HXmnZPhPo8kzcCDw4nH0nh1QXxV9E2K4f_AhcDAakMLIbWuAdki_kf8H6X2uf1Tn_LQEHZBYy2ib13UEey8jpigGVtfdOCtVvNrbieu-PGvykFMmJxUXASLTZFLNL1KoBHECIoO9TDckDvdAe6G-zA"
                      },
                      "client_directive": "Proceed to web view login"
                    }
                  }
                }
              }
            }
          },
          "400": {
            "description": "Bad Request",
            "content": {
              "application/json": {
                "schema": {
                  "$ref": "#/components/schemas/errorResponse"
                },
                "examples": {
                  "Missing_user": {
                    "value": {
                      "error_code": "Missing_user",
                      "error_message": "Missing required parameter uuid"
                    }
                  },
                  "Missing_Message": {
                    "value": {
                      "error_code": "Missing_Message",
                      "error_message": "Missing required parameter message"
                    }
                  },
                  "Missing_IAM_PARAMS": {
                    "value": {
                      "error_code": "Missing_IAM_PARAMS",
                      "error_message": "Missing required parameter iam"
                    }
                  },
                  "Missing_Client_ID": {
                    "value": {
                      "error_code": "Missing_Client_ID",
                      "error_message": "Missing required parameter iam.client_id"
                    }
                  },
                  "PolicyException": {
                    "$ref": "#/components/examples/PolicyException"
                  },
                  "Payload_Exception": {
                    "$ref": "#/components/examples/Payload_Exception"
                  },
                  "Invalid_Request": {
                    "$ref": "#/components/examples/Invalid_Request"
                  },
                  "Unsupported_client_message": {
                    "$ref": "#/components/examples/Unsupported_client_message"
                  },
                  "Client_Message_error": {
                    "$ref": "#/components/examples/Client_Message_error"
                  },
                  "Missing_Trans_ID": {
                    "value": {
                      "error_code": "Missing_Trans_ID",
                      "error_message": "Missing required parameter trans_id"
                    }
                  },
                  "invalid_request": {
                    "value": {
                      "error_code": "invalid_request",
                      "error_message": "Required parameter ‘xxx’ is missing | Parameter ‘xxx’ appears more than once | …"
                    }
                  },
                  "iam_user_account_soft_locked": {
                    "value": {
                      "statusCode": "N/A",
                      "error_code": "iam_user_account_soft_locked",
                      "error_message": "To protect your security, we have temporarily locked your account. To access your account, wait 24 hours"
                    }
                  }
                }
              }
            }
          },
          "401": {
            "description": "Unauthorized Client",
            "content": {
              "application/json": {
                "schema": {
                  "$ref": "#/components/schemas/errorResponse"
                },
                "examples": {
                  "expired_token": {
                    "value": {
                      "error_code": "invalid_token",
                      "error_message": "Access token is expired"
                    }
                  },
                  "invalid_token": {
                    "value": {
                      "error_code": "invalid_token",
                      "error_message": "Access token invalid"
                    }
                  }
                }
              }
            }
          },
          "500": {
            "description": "Internal Server Error",
            "content": {
              "application/json": {
                "schema": {
                  "$ref": "#/components/schemas/errorResponse"
                },
                "examples": {
                  "Internal_Server_Error": {
                    "$ref": "#/components/examples/Internal_Server_Error"
                  }
                }
              }
            }
          }
        }
      }
    },
    "/reg/delete": {
      "post": {
        "operationId": "deleteRegistration",
        "tags": [
          "Registration"
        ],
        "summary": "Finalize registration process via biometrics",
        "security": [
          {},
          {
            "DatToken": []
          },
          {
            "PopToken": []
          }
        ],
        "requestBody": {
          "description": "Request payload",
          "required": true,
          "content": {
            "application/json": {
              "schema": {
                "required": [
                  "uuid",
                  "trans_id",
                  "user_id",
                  "platform"
                ],
                "type": "object",
                "properties": {
                  "uuid": {
                    "type": "string"
                  },
                  "trans_id": {
                    "type": "string"
                  },
                  "deleteAll": {
                    "type": "integer"
                  },
                  "handle": {
                    "type": "string"
                  },
                  "iam": {
                    "$ref": "#/components/schemas/iam"
                  },
                  "user_id": {
                    "type": "string"
                  },
                  "platform": {
                    "type": "string"
                  }
                }
              },
              "examples": {
                "required": {
                  "value": {
                    "uuid": "The unsalted TMO UID",
                    "trans_id": "Transaction ID",
                    "user_id": "This is the user id with which the user logged in. It could either email or msisd.",
                    "platform": "Platform of device from which request originated. Example Android or IOS"
                  }
                },
                "full": {
                  "value": {
                    "uuid": "The unsalted TMO UID",
                    "deleteAll": "0 or 1",
                    "handle": "Needs to be present if deleteAll is 0",
                    "iam": {
                      "client_id": "TMOAppNative",
                      "scope": "TMO_ID_profile associated_lines",
                      "redirect_uri": "https://localhost",
                      "access_type": "ONLINE",
                      "approval_prompt": "auto",
                      "response_type": "200"
                    },
                    "trans_id": "Transaction ID",
                    "user_id": "This is the user id with which the user logged in. It could either email or msisd.",
                    "platform": "Platform of device from which request originated. Example Android or IOS"
                  }
                }
              }
            }
          }
        },
        "responses": {
          "200": {
            "description": "OK. Operation completed",
            "content": {
              "application/json": {
                "schema": {
                  "type": "object",
                  "required": [
                    "id"
                  ],
                  "properties": {
                    "id": {
                      "type": "string"
                    },
                    "message": {
                      "type": "string"
                    }
                  }
                },
                "examples": {
                  "full": {
                    "value": {
                      "id": 9092,
                      "message": "FIDO encrypted message"
                    }
                  }
                }
              }
            }
          },
          "400": {
            "description": "Bad Request",
            "content": {
              "application/json": {
                "schema": {
                  "$ref": "#/components/schemas/errorResponse"
                },
                "examples": {
                  "Payload_Exception": {
                    "$ref": "#/components/examples/Payload_Exception"
                  },
                  "Invalid_Request": {
                    "$ref": "#/components/examples/Invalid_Request"
                  },
                  "Unsupported_client_message": {
                    "$ref": "#/components/examples/Unsupported_client_message"
                  },
                  "Client_Message_error": {
                    "$ref": "#/components/examples/Client_Message_error"
                  },
                  "UserNotFound_Exception": {
                    "value": {
                      "error_code": "UserNotFound Exception",
                      "error_message": "Failed to locate the user in the Server."
                    }
                  },
                  "Missing_Trans_ID": {
                    "value": {
                      "error_code": "Missing_Trans_ID",
                      "error_message": "Missing required parameter trans_id"
                    }
                  },
                  "user_not_match": {
                    "value": {
                      "error_code": "user_not_match",
                      "error_message": "The session or access token or userId in the request doesn’t match"
                    }
                  },
                  "Missing_user": {
                    "value": {
                      "error_code": "Missing _user",
                      "error_message": "Missing required parameter uuid"
                    }
                  },
                  "invalid_request": {
                    "value": {
                      "error_code": "invalid_request",
                      "error_message": "Required parameter ‘xxx’ is missing | Parameter ‘xxx’ appears more than once | …"
                    }
                  },
                  "Invalid_Handle": {
                    "value": {
                      "error_code": "Invalid_Handle",
                      "error_message": "Handle present with deleteAll as true"
                    }
                  },
                  "invalid_scope": {
                    "value": {
                      "error_code": "invalid_scope",
                      "error_message": "The token doesn’t contain {} scope"
                    }
                  }
                }
              }
            }
          },
          "401": {
            "description": "Unauthorized Client",
            "content": {
              "application/json": {
                "schema": {
                  "$ref": "#/components/schemas/errorResponse"
                },
                "examples": {
                  "expired_token": {
                    "value": {
                      "error_code": "invalid_token",
                      "error_message": "Access token is expired"
                    }
                  },
                  "invalid_token": {
                    "value": {
                      "error_code": "invalid_token",
                      "error_message": "Access token invalid"
                    }
                  }
                }
              }
            }
          },
          "500": {
            "description": "Internal Server Error",
            "content": {
              "application/json": {
                "schema": {
                  "$ref": "#/components/schemas/errorResponse"
                },
                "examples": {
                  "Internal_Server_Error": {
                    "$ref": "#/components/examples/Internal_Server_Error"
                  }
                }
              }
            }
          }
        }
      }
    },
    "/reg/list": {
      "post": {
        "operationId": "listRegistrationMethods",
        "tags": [
          "Registration"
        ],
        "summary": "List the registration methods tied to a user",
        "security": [
          {},
          {
            "DatToken": []
          },
          {
            "PopToken": []
          }
        ],
        "requestBody": {
          "description": "Request payload",
          "required": true,
          "content": {
            "application/json": {
              "schema": {
                "required": [
                  "uuid",
                  "trans_id"
                ],
                "type": "object",
                "properties": {
                  "uuid": {
                    "type": "string"
                  },
                  "trans_id": {
                    "type": "string"
                  },
                  "iam": {
                    "$ref": "#/components/schemas/iam"
                  }
                }
              },
              "examples": {
                "required": {
                  "value": {
                    "uuid": "The unsalted TMO UID",
                    "trans_id": "Transaction ID"
                  }
                },
                "full": {
                  "value": {
                    "uuid": "The unsalted TMO UID",
                    "iam": {
                      "client_id": "TMOAppNative",
                      "scope": "TMO_ID_profile associated_lines",
                      "redirect_uri": "https://localhost",
                      "access_type": "ONLINE",
                      "approval_prompt": "auto",
                      "response_type": "200"
                    },
                    "trans_id": "Transaction ID"
                  }
                }
              }
            }
          }
        },
        "responses": {
          "200": {
            "description": "OK. Operation completed",
            "content": {
              "application/json": {
                "schema": {
                  "type": "object",
                  "required": [
                    "id"
                  ],
                  "properties": {
                    "id": {
                      "type": "string"
                    },
                    "registrations": {
                      "type": "array",
                      "items": {
                        "type": "object",
                        "properties": {
                          "device": {
                            "type": "object"
                          },
                          "authenticators": {
                            "type": "array",
                            "items": {
                              "type": "object",
                              "properties": {
                                "createdTimeStamp": {
                                  "type": "string"
                                },
                                "description": {
                                  "type": "string"
                                },
                                "handle": {
                                  "type": "string"
                                }
                              }
                            }
                          }
                        }
                      }
                    }
                  }
                },
                "examples": {
                  "full": {
                    "value": {
                      "id": "messageID",
                      "registrations": [
                        {
                          "device": {},
                          "authenticators": [
                            {
                              "createdTimeStamp": "string",
                              "description": "string",
                              "handle": "string"
                            }
                          ]
                        }
                      ]
                    }
                  }
                }
              }
            }
          },
          "400": {
            "description": "Bad Request",
            "content": {
              "application/json": {
                "schema": {
                  "$ref": "#/components/schemas/errorResponse"
                },
                "examples": {
                  "Payload_Exception": {
                    "$ref": "#/components/examples/Payload_Exception"
                  },
                  "Invalid_Request": {
                    "$ref": "#/components/examples/Invalid_Request"
                  },
                  "invalid_request": {
                    "value": {
                      "statusCode": "N/A",
                      "error_code": "invalid_request",
                      "error_message": "Required parameter 'xxx' is missing | Parameter 'xxx' appears more than once | …"
                    }
                  },
                  "UserNotFound_Exception": {
                    "value": {
                      "statusCode": 4430,
                      "error_code": "UserNotFound_Exception",
                      "error_message": "Failed to locate the user in the Server."
                    }
                  },
                  "Missing_User": {
                    "value": {
                      "error_code": "Missing_User",
                      "error_message": "Missing required parameter uuid"
                    }
                  },
                  "Missing_Trans_ID": {
                    "value": {
                      "error_code": "Missing_Trans_ID",
                      "error_message": "Missing required parameter trans_id"
                    }
                  },
                  "user_not_match": {
                    "value": {
                      "error_code": "user_not_match",
                      "error_message": "The session or access token or userId in the request doesn’t match"
                    }
                  }
                }
              }
            }
          },
          "401": {
            "description": "Unauthorized Client",
            "content": {
              "application/json": {
                "schema": {
                  "$ref": "#/components/schemas/errorResponse"
                },
                "examples": {
                  "expired_token": {
                    "value": {
                      "error_code": "invalid_token",
                      "error_message": "Access token is expired"
                    }
                  },
                  "invalid_token": {
                    "value": {
                      "error_code": "invalid_token",
                      "error_message": "Access token invalid"
                    }
                  }
                }
              }
            }
          },
          "403": {
            "description": "Authorization Error",
            "content": {
              "application/json": {
                "schema": {
                  "$ref": "#/components/schemas/errorResponse"
                },
                "examples": {
                  "invalid_scope": {
                    "value": {
                      "error_code": "invalid_scope",
                      "error_message": "The token doesn't contain {} scope"
                    }
                  }
                }
              }
            }
          },
          "404": {
            "description": "Not Found",
            "content": {
              "application/json": {
                "schema": {
                  "$ref": "#/components/schemas/errorResponse"
                },
                "examples": {
                  "iam_account_not_found": {
                    "value": {
                      "error_code": "iam_account_not_found",
                      "error_message": "IAM Account is not found for the given userId."
                    }
                  }
                }
              }
            }
          },
          "500": {
            "description": "Internal Server Error",
            "content": {
              "application/json": {
                "schema": {
                  "$ref": "#/components/schemas/errorResponse"
                },
                "examples": {
                  "Internal_Server_Error": {
                    "$ref": "#/components/examples/Internal_Server_Error"
                  },
                  "server_error": {
                    "value": {
                      "error_code": "server_error",
                      "error_message": "Internal Server Error."
                    }
                  }
                }
              }
            }
          },
          "503": {
            "description": "Service Unavailable",
            "content": {
              "application/json": {
                "schema": {
                  "$ref": "#/components/schemas/errorResponse"
                },
                "examples": {
                  "server_unavailable": {
                    "value": {
                      "error_code": "server_unavailable",
                      "error_message": "Biometrics feature is not available."
                    }
                  }
                }
              }
            }
          }
        }
      }
    }
  },
  "components": {
    "securitySchemes": {
      "DatToken": {
        "description": "Token for authorizing the client, checked by middleware for any not whitelisted connections",
        "type": "apiKey",
        "name": "authorization",
        "in": "header"
      },
      "PopToken": {
        "description": "Token used to validate the DatToken, checked by middleware for any not whitelisted connections",
        "type": "apiKey",
        "name": "x-authorization",
        "in": "header"
      }
    },
    "schemas": {
      "errorResponse": {
        "type": "object",
        "required": [
          "statusCode"
        ],
        "properties": {
          "status": {
            "type": "string"
          },
          "statusCode": {
            "type": "string"
          },
          "error_code": {
            "type": "string"
          },
          "error_message": {
            "type": "string"
          }
        }
      },
      "authorization_code_response": {
        "type": "object",
        "required": [
          "sso_session_id",
          "sso_session_ttl",
          "access_token",
          "access_token_ttl",
          "code"
        ],
        "properties": {
          "sso_session_id": {
            "type": "string"
          },
          "sso_session_ttl": {
            "type": "string"
          },
          "user_id": {
            "type": "string"
          },
          "code": {
            "type": "string"
          },
          "actions": {
            "type": "object"
          },
          "web_view_url": {
            "type": "string"
          },
          "web_view_cookie_properties": {
            "type": "object",
            "properties": {
              "sso_session_id_cookie_name": {
                "type": "string"
              },
              "sso_session_id": {
                "type": "string"
              },
              "sso_session_ttl": {
                "type": "string"
              },
              "trans_id_cookie_name": {
                "type": "string"
              },
              "trans_id": {
                "type": "string"
              },
              "trans_ttl": {
                "type": "string"
              },
              "domain": {
                "type": "string"
              },
              "httponly": {
                "type": "boolean"
              },
              "link_url": {
                "type": "string"
              },
              "link_txt": {
                "type": "string"
              },
              "user_token": {
                "type": "string"
              }
            }
          }
        }
      },
      "iam": {
        "type": "object",
        "required": [
          "client_id"
        ],
        "properties": {
          "client_id": {
            "type": "string"
          },
          "scope": {
            "type": "string"
          },
          "redirect_uri": {
            "type": "string"
          },
          "access_type": {
            "type": "string"
          },
          "approval_prompt": {
            "type": "string"
          },
          "response_type": {
            "type": "string"
          }
        }
      },
      "sessionToken": {
        "type": "object",
        "required": [
          "sso_session_id",
          "sso_session_ttl",
          "access_token",
          "access_token_ttl",
          "code"
        ],
        "properties": {
          "sso_session_id": {
            "type": "string"
          },
          "sso_session_ttl": {
            "type": "string"
          },
          "access_token": {
            "type": "string"
          },
          "access_token_ttl": {
            "type": "string"
          },
          "code": {
            "type": "string"
          },
          "actions": {
            "type": "object"
          },
          "web_view_url": {
            "type": "string"
          },
          "link_url": {
            "type": "string"
          },
          "link_txt": {
            "type": "string"
          },
          "user_token": {
            "type": "string"
          }
        }
      }
    },
    "examples": {
      "PolicyException": {
        "value": {
          "statusCode": 4403,
          "error_code": "PolicyException",
          "error_description": "Request format missing mandatory attributes or otherwise malformatted"
        }
      },
      "Payload_Exception": {
        "value": {
          "statusCode": 4406,
          "error_code": "Payload Exception",
          "error_message": "One or multiple parameters are not compliant"
        }
      },
      "Invalid_Request": {
        "value": {
          "statusCode": 4407,
          "error_code": "Invalid Request",
          "error_message": "The server did not understand the request"
        }
      },
      "Unsupported_client_message": {
        "value": {
          "statusCode": 4408,
          "error_code": "Unsupported client message",
          "error_message": "The message parameter cannot be handled"
        }
      },
      "Client_Message_error": {
        "value": {
          "statusCode": 4409,
          "error_code": "Client Message error",
          "error_message": "The message parameter is invalid"
        }
      },
      "Internal_Server_Error": {
        "value": {
          "errorCode": 4404,
          "error_code": "Internal Server Error",
          "error_message": "Internal Server error, database error, I/O error"
        }
      }
    }
  }
}