{
  "swagger": "2.0",
  "info": {
    "version": "1.0.0",
    "title": "HealthCheck",
    "description": "REM HealthCheck.",
    "contact": {
      "name": "SecureID - Development Team",
      "email": "EUIDevelopment@T-Mobile.com"
    }
  },
  "host": "brass.account.t-mobile.com",
  "x-servers": [
    {
      "url": "https://{Environment}brass.account.t-mobile.com",
      "variables": {
        "Environment": {
          "enum": [
            "dev.",
            "qat.",
            "uat.",
            "plab.",
            "ppd."
          ],
          "default": "uat."
        }
      }
    }
  ],
  "basePath": "/rem",
  "tags": [
    {
      "name": "REM",
      "description": "Report Engine Management System"
    }
  ],
  "schemes": [
    "https"
  ],
  "paths": {
    "/healthcheck": {
      "get": {
        "tags": [
          "REM"
        ],
        "x-api-pattern": "QueryCollection",
        "summary": "This API will test status of REM micro services",
        "description": "This API will test status of REM micro services",
        "operationId": "token",
        "consumes": [
          "application/json"
        ],
        "produces": [
          "application/json"
        ],
        "responses": {
          "200": {
            "description": "OK",
            "headers": {
              "Date": {
                "type": "string",
                "format": "date-time",
                "description": "Date of Transaction",
                "x-example": "2002-09-24+06:00"
              },
              "Content-Type": {
                "type": "string",
                "format": "application/json",
                "description": "Type of returned content",
                "x-example": "application/json"
              }
            },
            "schema": {
              "$ref": "#/definitions/serverState"
            },
            "examples": {
              "serverState": "REM is up and running"
            }
          },
          "503": {
            "description": "Service Unavailable",
            "headers": {
              "Date": {
                "type": "string",
                "format": "date-time",
                "description": "Date of Transaction",
                "x-example": "2002-09-24+06:00"
              },
              "Content-Type": {
                "type": "string",
                "format": "application/json",
                "description": "Type of returned content",
                "x-example": "application/json"
              }
            },
            "schema": {
              "$ref": "#/definitions/httpErrorResponse"
            },
            "examples": {
              "code": "503",
              "systemMessage": "Service Unavailable",
              "userMessage": "The server is currently unable to handle the request due to a temporary overload or scheduled maintenance"
            }
          }
        },
        "security": [
          {}
        ]
      }
    }
  },
  "definitions": {
    "serverState": {
      "type": "object",
      "description": "This API will test status of REM micro services",
      "properties": {
        "serverState": {
          "type": "string",
          "format": "string",
          "x-example": "REM is up and running",
          "description": "server state"
        }
      }
    },
    "httpErrorResponse": {
      "description": "Common Error response format",
      "type": "object",
      "required": [
        "code",
        "userMessage"
      ],
      "properties": {
        "code": {
          "type": "string",
          "format": "string",
          "description": "The error code.",
          "example": "503"
        },
        "systemMessage": {
          "type": "string",
          "format": "string",
          "description": "The error code description.",
          "example": "Service Unavailable"
        },
        "userMessage": {
          "type": "string",
          "format": "string",
          "description": "Human readable error message",
          "example": "The server failed unexpectedly."
        }
      }
    }
  }
}