{
  "swagger": "2.0",
  "info": {
    "version": "1.0.0",
    "title": "ACS Logout"
  },
  "host": "account.t-mobile.com",
  "basePath": "/acs/logout",
  "schemes": [
    "https"
  ],
  "consumes": [
    "application/json"
  ],
  "produces": [
    "application/json"
  ],
  "paths": {
    "/logout": {
      "post": {
        "description": "When user clicks on logout in account chooser",
        "parameters": [
          {
            "name": "Request Body",
            "in": "body",
            "description": "Request Body for updateUserName API",
            "schema": {
              "$ref": "#/definitions/logoutRequest"
            }
          },
          {
            "name": "Content-Type",
            "in": "header",
            "type": "string",
            "description": "application/json"
          },
          {
            "name": "Origin",
            "in": "header",
            "type": "string",
            "description": "https://account.t-mobile.com"
          },
          {
            "name": "Referrer",
            "in": "header",
            "type": "string",
            "description": "https://account.t-mobile.com"
          },
          {
            "name": "sec_session_token",
            "in": "header",
            "type": "string",
            "description": "U2FsdGVkX1+jzBNFScSCiZ2p7T6GlKSQu490NwvQTqaqD3v3g4d8sMMjccMnmwVs"
          },
          {
            "name": "XSRF-CUSTOM-TOKEN",
            "in": "header",
            "type": "string",
            "description": "zI4SShjc-1r5Y4hbVsUsu90tPAUJOOFlUJm8"
          },
          {
            "name": "cookie",
            "in": "header",
            "type": "string",
            "description": "AMCVS_1358406C534BC94D0A490D4D%40AdobeOrg=1; visid_incap_641830=+emWqlV3QR+FV6GOiLMwbjxpklsAAAAAQUIPAAAAAAAUVveVYi9hIfBZWUA0tggW; nlbi_641830=XHspV0xxKBYJjG5ioL3L9wAAAABD6/1IKUId32jm/kMiDyoy; incap_ses_543_641830=EK5PY/Rh0xSvneOlkSCJBwSLklsAAAAAI2CHKpYTS+coCdgwBwKwGw==; nlbi_385986=uGJHS5XaxVO99g+qQ4GmygAAAACf39Ne/2Cvkv4cvB9N2sNF; incap_ses_1001_385986=7Yn0EzYjkjR1nprCmETkDaq3lFsAAAAArk5XXliIosXK3wzq7Ak1KA==; nlbi_385986_1418641=9riOZcZKOgZZdL7WQ4GmygAAAAAjcoEaupRYLBdRoZCEcITQ; EORGN=WEST; nlbi_385986_1587592=YXyYKXx7l3PLErZqQ4GmygAAAABKOOwVX8DnkoxxeP2MC1ZP; aam_uuid=45613980912275472013807012753608798051; visid_incap_278742=7QRyDMs7Tb2z77DLeeVdc7LGlFsAAAAAQUIPAAAAAADdoLXXWqaz7H1kkOHhyrCo; nlbi_278742=y3ElL5de+FCOQjmfbJk25gAAAADYLZm8Op3Le0hXDMA/Rjdz; LPVID=RiNmNiMmVlNjRiYjE0NzY5; incap_ses_620_385986=mwpZfxIJxC98OuxTeK+aCKjllFsAAAAAL3i9DMGcYXlUFDpxUyhRDA==; provstatus=RgtRMLAGYRiWpjs/D/xlYA==; KKKK=VFphNasWTCmArT1rHed1d+NzvvsOnGsQZzkoyLQMBw==; defaultTMOID=U-445dbfd7-dc93-464f-8281-6f9d826d82e6; aam_sc=aamsc%3D7032455%7C8371830%7C7183306%7C7042149%7C4683143; sessionId=7417255988; EUI-TRANS-ID=1536473013612_fartd_7417255988; incap_ses_882_385986=acEySTBDLhPuUblzyn49DM7ylFsAAAAA3hTYMOXf7XqXCzfZpZYwoQ==; regSessionId=3yvpx89vxjluqcyx2; throttle=e6; incap_ses_619_385986=GLomPcvE424EyGP7CSKXCKILlVsAAAAAz87TZh9/4PEQtXsbV/S8BA==; incap_ses_1002_385986=iZ/kW7UdHEUAkJVkHtLnDaILlVsAAAAAGrjOjFlyM3VE1IyQkW1DhA==; LOGGEDID=BQDJ7Lqj2%2FfW%2BhUwtP38zJ5Dn5eo160JXHqxKAH17LW3VbosZoOliimg2OUEMW76zKkOem6px0TLZjioqhj5xyGkWa55pqXNOUayX2d2dN7l5l1aNeTUodVByuFWCuPiyRco7f0C0uKOrQLCzbEEmzLeupNPTIzrbjaBhjJE9d35%2Bl%2BWggdiJK99Jg0XHyIeEkT1T9vMKZWI1FbA1CKPlTM291I24JQVLk2dQiZhamf%2BGCfeU1ejm2zsZiq52S5t%2BhLrVa1TgiWuQRCQjMWLHmCKB0VbNLqoXOMYD3Up%2BtgWJe5x%2Fs8ThjQu5Pf%2BEpkQayHNxn%2FmH%2Fk3qBVF9ybnE6FYp%2Fvwge008IE6l3YfVZPLx4rVTMQtQFXtP4k5ox2Rvisrk%2FG03mnfM6rvYq8LIZRu5ZrNNvhmboXjCDUIUd3DM1FQ9pibA7pEmAQ6Wj%2BmIKGQA4C%2BLDLULkzZRGyCHtMCXJhaTMsnLaQum2K%2FRIO43hSLbV8h3kTh3mz3dctShynV7faVhPHkAIF74F7V8TZnTh%2FiHZodg6mTWN7GNwmOawTIYF%2F48cGILs7smxkzEJKbO2g40O%2By2tEnlbTBD2v03l54wzMHXQpputDWPqAZLObP3hoohtwhDe5sFvzokBtsFDU5z9CFRXfmZPWLsGdf5625menjQAFfjvUJQy3JFwukOID9KsqcmIX0qElQUF6iiZVLRRo5vw6ud5khpMQjaOhhVENbFmhisvkH0cDC9W1tv%2BTDVThTyfriQSzcLEyFBisnI4ukY8PY4DTlrB68pNw23hiBpQBkO5cZPMud4alfHwBZgKU4x5np4teekETuiQBjv8s%2F1fgA5qpGqlfUytOJIiadrJIp1A%2BikHxrdQYcwOckc86mOCH3YffKZRlYfh9QvCzxHsGZ8K8mnCIo7RzoULZ3MTswvl6pz%2Fg5VnfgfvSBYRifSuYok36Am8itSlAwV1IDf543eXcGlN7TmJuUzRQ4cl%2Fz1Q4XzmIJdFbu243DI%2B3WxQSf623tyKQ%3D; incap_ses_116_278742=6s3ffbkm1WJGMHo7WjmcAaMLlVsAAAAAwjmV4EH67LIN7QBIYY6J+w==; authParam=%7B%22redirect_uri%22%3A%22https%3A%2F%2Fmy.t-mobile.com%22%2C%22scope%22%3A%22TMO_ID_profile%20associated_lines%20billing_information%20associated_billing_accounts%20extended_lines%20token%20openid%22%2C%22client_id%22%3A%22A-3amGd14-iz0%22%2C%22access_type%22%3A%22ONLINE%22%2C%22response_type%22%3A%22code%22%2C%22approval_prompt%22%3A%22auto%22%2C%22state%22%3A%22false%22%7D; check=true; sessionFldLoad=1; tmocusttoken=f1eedea0a0fff5705ce83476f1c9f5c2a72572018f63669c22337d42d463f2c74103fc526dc84408424017df8621867242610a4ce514511e57ec7e87e9f137c374f744160ddc5e1e97be4bfd2b10e986c2e266caeb6ddb6f7d99c858a29ac459dbf3b7b461527d3e07bec6ede9f2ac6bc866449a98052efdb8b4e362fedf22dfba621d8b3e73ac96cee36073e4ae5097e1ae6536c31769499c426f3cfa2dd27227458e292f8f7ab5c24857e85405e7f701645bd4f90a04d5b44d8d849b9b43821bd6a9a3d4844922caf2995d6a90c98d68dc7876dec23249462701149cc3b0a2acb464ac3390e97c9e3adda26e49d08d315e6c58fa287ec9a6d99a052a2da617bc16457af4677f1b8a43ed4aaa2d29597c2b1dcba32530d3a95d4a0789a3b414da00e82871ab84d1be84682bf84e320389a5c93a38514180ae63683c5d58d67a1139117b48ee79fb77188ee703b621fe82b10511c45e7440c7d2eeaf156045ad6147077809629682350f797e96bc5e9d77b5ae27c3709e3e76792c0f38bd81dc093da5aeabdc7ff4c99230af225665cc9c449c0420197725; t_cst=eb588f056c399769fa3efc0707c7c509a0b7ca10||b767d13cd6547e5f56a9dae668d304f5a8f55ed7d3ded6585fae7272173064c1; MyTMobile=Msisdn=2067785159&FirstName=Pony&IsPrePaidSubscriber=False&IsNewRegistration=False&Ban=d8ba21d560297d7c99923401d2a459803bf4638b0766ec8318059f07a8e73195; es_web_an_new=%2Fzrk51tM4MlC1CZEt83B5Q%3D%3D||%2F5E%2FoVg14GlIBL5pr3TqbA%3D%3D; defaultMSISDN=2067785159; s_isvisst=1; s_visbtwpur=1; s_v121_persist=%2Fzrk51tM4MlC1CZEt83B5Q%3D%3D; s_v122_persist=%2F5E%2FoVg14GlIBL5pr3TqbA%3D%3D; s_cc=true; isCallMeSuspended=SRl+L7o=; MSISDNStr=YitbD5s9VjmX/nsyTbknPfR43O4Ot34LYzU4kKZqKk7K9QBn5kt6Sj85Iji+9d1JndI0HT0oxAgbGs0xpbPM48r7; AAMC_tmobile_0=REGION%7C9; sessionFldEng5sec=1; sessionFldEng15sec=1; LPSID-62258097=7NMMoCvfSS2tC729In63KA; s_sq=%5B%5BB%5D%5D; s_ca=%7B%22YXR5cA%3D%3D%22%3A%22SU5ESVZJRFVBTA%3D%3D%22%2C%22c3R5cA%3D%3D%22%3A%22SU5ESVZJRFVBTF9SRUdVTEFS%22%2C%22cG9vbA%3D%3D%22%3A%22VA%3D%3D%22%2C%22cm9sZQ%3D%3D%22%3A%22UEFI%22%2C%22c29j%22%3A%22VE0xVEky%22%2C%22cGxubg%3D%3D%22%3A%22VC1NT0JJTEUgT05F%22%2C%22cHR5cA%3D%3D%22%3A%22VA%3D%3D%22%2C%22ZGV2bg%3D%3D%22%3A%22R0FMQVhZIE5PVEU4IC0gTUlETklHSFQgQkxBQ0sgLSA2NEdC%22%2C%22cGQ%3D%22%3A%22Rg%3D%3D%22%2C%22c3M%3D%22%3A%22Rg%3D%3D%22%2C%22c3Q%3D%22%3A%22Rg%3D%3D%22%2C%22ZXo%3D%22%3A%22Rg%3D%3D%22%2C%22YWN0bg%3D%3D%22%3A%22%22%2C%22bGFuZw%3D%3D%22%3A%22TVk%3D%22%7D; s_visit=1; l_r=1; rxVisitor=1536295327401MMC7BJI97L0FJ237B03874UCEBM5S6BB; dtSa=-; dtLatC=4; gpv_v10=MyTMO | Profile : Home; tmenv=postpaid; mp_dev_mixpanel=%7B%22distinct_id%22%3A%20%22165be36e98bff9-0a6c3fbfcfed3d-9393265-100200-165be36e98c85c%22%7D; _4c_mc_=3813b14b5e4f8b88b4fe12a44aee36bc; __CT_Data=gpv=1&ckp=tld&dm=t-mobile.com&apv_8_www42=1&cpv_8_www42=1; WRIgnore=true; dtCookie=5$SHG7BJCETIDTFOEONI9GHBTV21M4VTOL|82a30f7c9e1e27d8|1; paymentExecuted=true; rxvt=1536497187974|1536494593164; dtPC=5$494593150_533h-vCEDSZJLCTRKLYQJZITUTTIKOWIXVBHRNUTOX; ctm={'pgv':5889186144370627|'vst':4138599244719429|'vstr':8579506974810291|'intr':1536495387980|'v':1|'lvst':160}; utag_main=v_id:0165be36a87000128252b46c640303073013d06b0086e$_sn:1$_ss:0$_st:1536497193072$ses_id:1536494577777%3Bexp-session$_pn:4%3Bexp-session$vapi_domain:t-mobile.com; AMCV_1358406C534BC94D0A490D4D%40AdobeOrg=-330454231%7CMCIDTS%7C17784%7CMCMID%7C45528523195308156113798387817353722201%7CMCAAMLH-1537100194%7C9%7CMCAAMB-1537100194%7CRKhpRz8krg2tLO6pguXWp5olkAcUniQYPHaMWWgdJ3xzPWQmdj0y%7CMCOPTOUT-1536497376s%7CNONE%7CMCCIDH%7C1563226414%7CvVersion%7C3.1.2; IIII=fA18cP9DPG22pjkiSb4hPeF41+NY+jRQIHAM4MI=; mbox=PC#261ab13b0253430bbaba49bd0c5107c1.28_46#1599563269|session#a0d634ca74b148e88b605722a133f92f#1536497257; visid_incap_385986=3pjbdUdWTEOAPgHpksqgt2kPlVsAAAAAQUIPAAAAAABUqhjQI1HZL1dvbqrr+1QV; nlbi_385986_1587583=xoDLBmwJiWxU2KJ8Q4GmygAAAAAz4J+uKmtPlnQ7PoDSI60F; incap_ses_539_385986=VHZvHDgZTj66/yl12wZ7B2kPlVsAAAAADJe2PHBcCC1ovWfXJ7k+nA==; KEEP_ME_LOGIN=%7B%22cookie_creation_time%22%3A%222018-09-09T12%3A17%3A47.691Z%22%2C%22longSessionFlag%22%3Afalse%7D; expiryDateInUtc=j%3A%222018-09-09T12%3A47%3A47.000Z%22; at_id=02.USR.gQA74rLIln9HRvRu5; IAM_SESSION_ID=eyJ0eXAiOiJKV0UiLCJhbGciOiJSU0ExXzUiLCJlbmMiOiJBMjU2Q0JDK0hTNTEyIn0.hCxUJiVYW28flHZTzOvOIP8_LfJ19heDSIynlbbmCDQZACCBZ9oorJkL0ZWI7Ag-7geJDsdRjo-Nn9pCNvTk4L_Ocli8V9P3Vl-AayoaPRTn_5pitZ9TuuGx3A5BXE2_0UTnPMYc4RQHo500WMJJniHWuEfMKAijjEASfaP4TF9wjxG3KeSEk0VdHPz4ld4FGXyM61LvXehi0cfksXpdT3nq3aMjqoL4HMlfB2rJxeQo9hPKlJcy6EjjNLIe8M3H0UmgVnhJjP63G9RrrNelNNX8AfIhkNga6yQelbEWZE4XvqObMBBX36ZdxNNugynN2VCRyf_VG3USB1Y1I5j_HQ.EWvjFL8q6pNFqPypejaj8A.gQ64WXzfRdiaqPFf85MTDfAap4SiBqs5cDiIrw7rPQK1SAxYqAZahOYnuBjMrFL8Mja8xzqkPJ5BacuMf-I2BA.cPuJ9_US4epWxUUn8TCgE9hlQUfBW8d6d7jkzsA9gTEnq3kCNy9tB7zAMoQTo_hc-HGieisDJIpauu2626J3Qw; EORGN=WEST; aam_sc=aamsc%3D8371830%7C7183306%7C7042149; aam_uuid=22274693348552382792201472149113014487; authParam=%7B%22redirect_uri%22%3A%22https%3A%2F%2Fmy.t-mobile.com%22%2C%22scope%22%3A%22TMO_ID_profile%20associated_lines%20billing_information%20associated_billing_accounts%20extended_lines%20token%20openid%22%2C%22client_id%22%3A%22A-3amGd14-iz0%22%2C%22access_type%22%3A%22ONLINE%22%2C%22response_type%22%3A%22code%22%2C%22approval_prompt%22%3A%22auto%22%2C%22device_type%22%3A%22desktop%22%2C%22requireAuthorization%22%3Atrue%7D; throttle=e6; LOGGEDID=BQDIW2QnKVEmNNsWzM2pdAAeWRYBSH4TSWD04jLzfhLqGShodlBC6P4LRGXNAckqR5AoEIct8VWofNQ%2BbtU5Erqlueve3FqOsnV5btba9gIrL%2FnAWj6EicXxAt5MbjTC5ydpKV%2Fkhfsu1PVauSL2lw2YeplejAtpRhsMmebe3qU26eUx4GjDebXXkLsTSyVoKtEwAmiZCfCwrxECOuecuEi%2FaPgMsoLtArroASbKQwpd0gddc4%2FQtZxARLe3G2TLmfS7nEXdLM1zQ2jd4PUuhxD1TZHdaqYuXuLsuLUX7tbdxcTzzmm%2Bz%2Bok6YEKFe1cM8oIGRe3GEYAX1OQw4zml4QYMMZpK5HL2iycFMbsZ9S9Qb18gqarfJNBlgFanzTgspBDJQ1mNwZaIFQpFwZ7rj94Vinb760diiW%2F7Tio4LyekC5fzmdbmbTAHFS9mk6lcozLEMCNsYrbP0BLw13nPXrKy05%2F68aCyDJs6rrkFMwo3x36n3rB2g43AUXZ1z9Y2hAf0g5TTz9h1iuLrNchDdM35H3SQmMOHaH7KTgGU1b9BC7TWZNCBm1yeAS5IdPVOv22UVylzEvPC5rk8%2Fo1gRiu4y0kWvX2jVeTHeuYbwy5MMW4cw3xP9L6RZeXb2ZBFJNvzhGbnAjAkehXNyWtGw0Yr8uhsLcgbbhJmsf4v8mgA088VA0gK%2FXR%2B6q6wsb9tZ3HCYdh%2BBmRZDZPy1Ag3h3PCXnRbeueAodQzDRV3hBCErwXZQIrogyFYMP7Ci4fMg%2F2oPEwtjisS6XIOOvGhdKAMCS%2Bj9eXrONvFA%2FCOMvS736KADhoVPnbxTuMkzAzWpVgUXbD23tjDVNji883uqmD2MQmTfE9OTurDGUZl8pJxYcM1yfVIn8p6H5JyRQuk4o4Nyq2fAbRAcCMDarwg%2FUNz7pGCSZfiLGcshNNlVgMWjBCgAF5JeffN%2FV7%2B%2FmoOmhgersvxd3kXAJQuamSWi%2BEgD%2FBD1MnK3TQ6frekjWqMRrKYic6bdu3ECK6XzYjF64%3D; provstatus=RgtRMLAGYRiWpjs/D/xlYA==; KKKK=VFphNasWTCmArT1rHed1d+NzvvsOnGsQZzkoyLQMBw==; check=true; s_isvisst=1; s_visbtwpur=1; s_v121_persist=%2Fzrk51tM4MlC1CZEt83B5Q%3D%3D; s_v122_persist=%2F5E%2FoVg14GlIBL5pr3TqbA%3D%3D; s_cc=true; defaultTMOID=U-445dbfd7-dc93-464f-8281-6f9d826d82e6; defaultMSISDN=2067785159; isCallMeSuspended=SRl+L7o=; AAMC_tmobile_0=REGION%7C9; MSISDNStr=YitbD5s9VjmX/nsyTbknPfR43O4Ot34LYzU4kKZqKk7K9QBn5kt6Sj85Iji+9d1JndI0HT0oxAgbGs0xpbPM48r7; sessionFldEng5sec=1; LPVID=IwN2EwNzY0OGY4N2Q1ZmNh; LPSID-62258097=BM0DCq3pSvCIWG4gYYxNHw; s_ca=%7B%22YXR5cA%3D%3D%22%3A%22SU5ESVZJRFVBTA%3D%3D%22%2C%22c3R5cA%3D%3D%22%3A%22SU5ESVZJRFVBTF9SRUdVTEFS%22%2C%22cG9vbA%3D%3D%22%3A%22VA%3D%3D%22%2C%22cm9sZQ%3D%3D%22%3A%22UEFI%22%2C%22c29j%22%3A%22VE0xVEky%22%2C%22cGxubg%3D%3D%22%3A%22VC1NT0JJTEUgT05F%22%2C%22cHR5cA%3D%3D%22%3A%22VA%3D%3D%22%2C%22ZGV2bg%3D%3D%22%3A%22R0FMQVhZIE5PVEU4IC0gTUlETklHSFQgQkxBQ0sgLSA2NEdC%22%2C%22cGQ%3D%22%3A%22Rg%3D%3D%22%2C%22c3M%3D%22%3A%22Rg%3D%3D%22%2C%22c3Q%3D%22%3A%22Rg%3D%3D%22%2C%22ZXo%3D%22%3A%22Rg%3D%3D%22%2C%22YWN0bg%3D%3D%22%3A%22%22%2C%22bGFuZw%3D%3D%22%3A%22TVk%3D%22%7D; s_sq=%5B%5BB%5D%5D; sessionFldEng15sec=1; utag_main=v_id:0165f6154aa8000e81213b39217a03073002106b0086e$_sn:1$_ss:0$_st:1537433734664$ses_id:1537431915177%3Bexp-session$_pn:2%3Bexp-session$vapi_domain:t-mobile.com; s_visit=1; l_r=1; mbox=PC#13244f1419544f27824aad0240233341.28_77#1600163049|session#8bc7384aa60a462a9033a15f4728ea1a#1537433796; gpv_v10=MyTMO | Profile : Home; IIII=exBncP9BNW22pjkiSb4hPeF53eNf+jRQKXAM4MI=; tmenv=postpaid; mp_dev_mixpanel=%7B%22distinct_id%22%3A%20%22165f6159f89ac3-00354c56afbdec-9393265-100200-165f6159f8aaab%22%7D; AMCV_1358406C534BC94D0A490D4D%40AdobeOrg=-330454231%7CMCIDTS%7C17795%7CMCMID%7C22006109309259337572228893915451088621%7CMCAAMLH-1538036736%7C9%7CMCAAMB-1538036736%7C6G1ynYcLPuiQxYZrsz_pkqfLG9yMXBpb2zX5dvJdYQJzPXImdj0y%7CMCOPTOUT-1537439075s%7CNONE%7CvVersion%7C3.1.2%7CMCCIDH%7C502967684; __CT_Data=gpv=1&ckp=tld&dm=t-mobile.com&apv_8_www42=1&cpv_8_www42=1; WRIgnore=true; rxVisitor=153743193678436IGEGSP3HJ2L21CD38QCHIS5V9V198I; dtCookie=5$M2HBKALO8NCSP063R01FI8CO6TQ7NOUH|82a30f7c9e1e27d8|1; rxvt=1537433790449|1537431936786; nlbi_385986_1587592=p5AdRAxlfBIrnnoKQ4GmygAAAADpF3n/fbJBOpREqAffZ60K; ctm={'pgv':1569663087454234|'vst':2844263307869776|'vstr':1257908081735818|'intr':1537432020754|'v':1}; visid_incap_385986=LL9CrfL8TLaoOoaksUigv85Zo1sAAAAAQUIPAAAAAABhAU22L63trlZdp1f6orDR; nlbi_385986_1418642=K3H+bCci0SKPRj2tQ4GmygAAAADOuDNf8u3RB+UDaeTnUfrG; ADRUM_BT=R:37|clientRequestGUID:ed9b227b-6c3c-4a41-ad27-169ca657bcbf96970|btId:26443|btERT:459; KEEP_ME_LOGIN=%7B%22cookie_creation_time%22%3A%222018-09-20T08%3A26%3A55.261Z%22%2C%22longSessionFlag%22%3Afalse%7D; IAM_SESSION_ID=eyJ0eXAiOiJKV0UiLCJhbGciOiJSU0ExXzUiLCJlbmMiOiJBMjU2Q0JDK0hTNTEyIn0.CQyZxTI_w0BMZPSbvpuoJTS6gvHwww-R2bubT_RQzeFMh0jHJfrVjj5dCshk11VJugDmYrdeNWNp4nC-qpqELzTFIxd_UHqjeJxMxWqjNwl7EPVVuk13ZG91rrIjYjUyf6HnkJQ5r1ItrH2YhEjVmhwd6WfRa8Q3ImAsGhqa2nixwODPdpfLlkJl9vmq06Pf3a-5iXe3OlVpUK0QYlt2JeMwdTpsbuXD28Owlle1An1u_l8TTogg-MzUROD6AyDwPKKdERQqyKX5jw1pbZruD6ku2JyI6KjvxWCT8xBKGivfrK3HAoCAFCkud1PKVWqMkef6RPhiKTnVeePnwrcqYQ.hq_UYcbIhp771gmblzugHQ.SY1r0WxcS7RgFID0Deuc3ykbUnYzN3IUIr-rEhHXwtOYiR89jiYvWv39jmLsa8IdOTkjdDDcoE1BUn9FrwkP8g.QBVdQ80PycGlEik_mQERG4tolLfj0EynNpOXLhk5bR9TAYVIabZlkwwCuEpKCrE_DkOtZWCaoQq4WCw_dT6jAA; expiryDateInUtc=j%3A%222018-09-20T08%3A56%3A55.000Z%22; at_id=01.USR.67VDg27tIUjAk5S83; nlbi_385986=Hladbsu/gD5Tz1f/Q4GmygAAAACDU0orvEbV2zFgKX80nKss; incap_ses_1002_385986=EvOwGEQD0hZMJdeFHtLnDc9Zo1sAAAAAYpXyowfIPAhK0wZluNREnA=="
          }
        ],
        "responses": {
          "200": {
            "description": "Will get success response with object.",
            "schema": {
              "$ref": "#/definitions/successResponse"
            }
          },
          "400": {
            "description": "JSON Response for Bad request",
            "schema": {
              "$ref": "#/definitions/badRequestResponse"
            }
          },
          "404": {
            "description": "JSON Response for not found",
            "schema": {
              "$ref": "#/definitions/notFoundResponse"
            }
          },
          "500": {
            "description": "JSON Response for Internal Server Error",
            "schema": {
              "$ref": "#/definitions/serverErrorResponse"
            }
          }
        }
      }
    }
  },
  "definitions": {
    "logoutRequest": {
      "type": "object",
      "properties": {
        "device_type": {
          "type": "string",
          "description": "desktop"
        },
        "client_id": {
          "type": "string",
          "description": "A-3amGd14-iz0"
        },
        "redirect_uri": {
          "type": "string",
          "description": "https://my.t-mobile.com"
        },
        "transId": {
          "type": "string",
          "description": "1537432047042_mllkf_1426816268"
        },
        "euiFlow": {
          "type": "string",
          "description": "Logout"
        }
      }
    },
    "successResponse": {
      "type": "object",
      "properties": {
        "isSignedOut": {
          "type": "string",
          "description": "true"
        }
      }
    },
    "notFoundResponse": {
      "type": "object",
      "properties": {
        "error": {
          "type": "string",
          "description": "user_not_found"
        },
        "error_desc": {
          "type": "string",
          "description": "The provided user_id is not found."
        }
      }
    },
    "badRequestResponse": {
      "type": "object",
      "properties": {
        "error": {
          "type": "string",
          "description": "user_not_match"
        },
        "error_desc": {
          "type": "string",
          "description": "The user id in the access token doesn’t match the user in the session or user_id parameter"
        }
      }
    },
    "serverErrorResponse": {
      "type": "object",
      "properties": {
        "error": {
          "type": "string",
          "description": "server_error"
        },
        "error_desc": {
          "type": "string",
          "description": "Internal server error."
        }
      }
    }
  }
}