{
  "swagger": "2.0",
  "info": {
    "description": "This is a collection of a several SecureID API endpoints.",
    "version": "1.0.0",
    "title": "SecureID API endpoints",
    "contact": {
      "name": "secure ID",
      "email": "apiteam@swagger.io"
    }
  },
  "host": "account.t-mobile.com",
  "x-servers": "account.t-mobile.com",
  "basePath": "/svr/registerWithAlternateInfo",
  "tags": [
    {
      "name": "registerWithAlternateInfo",
      "description": "registerWithAlternateInfo API is used to login the user."
    }
  ],
  "schemes": [
    "https"
  ],
  "paths": {
    "/registerWithAlternateInfo": {
      "post": {
        "tags": [
          "auhtorize"
        ],
        "summary": "registerWithAlternateInfo API is used to login the user.",
        "description": "registerWithAlternateInfo API is used to login the user.",
        "operationId": "registerWithAlternateInfo",
        "x-api-pattern": "CreateInCollection",
        "consumes": [
          "application/json"
        ],
        "produces": [
          "text/plain"
        ],
        "parameters": [
          {
            "in": "body",
            "name": "body",
            "description": "request object required for login the user",
            "required": true,
            "schema": {
              "$ref": "#/definitions/registerWithAlternateInfo"
            }
          },
          {
            "name": "Content-Type",
            "x-example": "string",
            "in": "header",
            "required": true,
            "format": "string",
            "type": "string",
            "description": "Application/Json"
          },
          {
            "name": "Authorization",
            "x-example": "string",
            "in": "header",
            "required": true,
            "format": "string",
            "type": "string",
            "description": "Bearer"
          },
          {
            "name": "Origin",
            "in": "header",
            "x-example": "string",
            "format": "string",
            "type": "string",
            "required": true,
            "description": "https://account.t-mobile.com"
          }
        ],
        "responses": {
          "200": {
            "description": "Will give the success response with any of the below models",
            "schema": {
              "allOf": [
                {
                  "$ref": "#/responses/authorizeResponse"
                },
                {
                  "$ref": "#/responses/sendActivationEmailResponse"
                },
                {
                  "$ref": "#/responses/emailAlreadyExistsResponse"
                }
              ]
            }
          },
          "400": {
            "$ref": "#/responses/BadRequest"
          },
          "403": {
            "$ref": "#/responses/Forbidden"
          }
        },
        "security": [
          {
            "xsrfCsutomToken": []
          },
          {
            "secSessionToken": []
          },
          {
            "authorization": []
          }
        ]
      }
    }
  },
  "securityDefinitions": {
    "xsrfCsutomToken": {
      "name": "xsrf-custom-token",
      "in": "header",
      "type": "apiKey",
      "description": "Cross-Site Request Forgery"
    },
    "secSessionToken": {
      "name": "sec_session_token",
      "in": "header",
      "type": "apiKey",
      "description": "checking for session validation"
    },
    "authorization": {
      "name": "Authorization",
      "in": "header",
      "type": "apiKey",
      "description": "Authorization Bearer token"
    }
  },
  "definitions": {
    "registerWithAlternateInfo": {
      "type": "object",
      "description": "request Object",
      "properties": {
        "welcomeEmail": {
          "type": "string",
          "description": "Describes user welcome Email",
          "example": "abc@gmail.com",
          "format": "^[a-zA-Z\\s\\.\\-\\']+$"
        },
        "emailId": {
          "type": "string",
          "description": "Describes user Email",
          "example": "abc@gmail.com",
          "format": "^[a-zA-Z\\s\\.\\-\\_\\']+$"
        },
        "password": {
          "type": "string",
          "format": "^[a-zA-Z\\s\\.\\-\\']+$",
          "example": "abc@123",
          "description": "password of the user"
        },
        "altreginfo": {
          "type": "string",
          "format": "^[a-zA-Z\\s\\.\\-\\']+$",
          "example": "bac==",
          "description": "encrypted string with data"
        }
      }
    },
    "authorizeResponseModel": {
      "type": "object",
      "properties": {
        "sessionNumber": {
          "type": "string",
          "description": "id for the session",
          "example": "dfff90a450d90116",
          "format": "^[a-zA-Z\\s\\.\\-\\']+$"
        },
        "tokenType": {
          "type": "string",
          "description": "type of the token received",
          "example": "Bearer",
          "format": "^[a-zA-Z\\s\\.\\-\\']+$"
        },
        "accessToken": {
          "type": "string",
          "description": "human readable text describes token",
          "example": "1.USR.2UTJWVlYDQg5VR9snS",
          "format": "^[a-zA-Z\\s\\.\\-\\']+$"
        },
        "uuid": {
          "type": "string",
          "description": "human readable text describes unique Id for user",
          "example": "U-ff20b0d0-479a-4311-8c8b-f67c32de0674",
          "format": "^[a-zA-Z\\s\\.\\-\\']+$"
        },
        "userId": {
          "type": "string",
          "description": "human readable text describes unique Id for user",
          "example": "uid:U-ff20b0d0-479a-4311-8c8b-f67c32de0674",
          "format": "^[a-zA-Z\\s\\.\\-\\']+$"
        }
      }
    },
    "authorizeActionResponseModel": {
      "type": "object",
      "properties": {
        "actions": {
          "type": "array",
          "description": "id for the session",
          "items": {},
          "example": [
            {
              "action": "validate_2nd_factor",
              "email": "4049931095abcde@yopmail.com",
              "msisdns": [
                {
                  "msisdn": "8572341630",
                  "subscriber_type": "POSTPAID"
                },
                {
                  "msisdn": "4049931095",
                  "subscriber_type": "POSTPAID"
                }
              ],
              "security_questions": [
                {
                  "sq_id": "10",
                  "sq_text": "In what city does your nearest sibling live?",
                  "language": "en_US",
                  "state": "active"
                }
              ],
              "is_captcha_required": "no"
            }
          ],
          "format": "^[a-zA-Z\\s\\.\\-\\']+$"
        },
        "userId": {
          "type": "string",
          "description": "human readable text describes unique Id for user",
          "example": "uid:U-ff20b0d0-479a-4311-8c8b-f67c32de0674",
          "format": "^[a-zA-Z\\s\\.\\-\\']+$"
        }
      }
    },
    "ForbiddenModel": {
      "type": "object",
      "properties": {
        "action": {
          "type": "string",
          "description": "human readable text",
          "example": "authenticate",
          "format": "^[a-zA-Z\\s\\-\\']$"
        }
      }
    },
    "BadRequestModel": {
      "type": "object",
      "properties": {
        "error": {
          "type": "string",
          "description": "human readable text that describes the nature of the error",
          "example": "invalid_request",
          "format": "^[a-zA-Z\\s\\-\\']$"
        },
        "errorDescription": {
          "type": "string",
          "description": "uman readable text that describes the nature of the error",
          "example": "Something went wrong. We weren't able to load this page. Please try again later",
          "format": "^[a-zA-Z\\s\\.\\-\\']+$"
        }
      }
    },
    "sendActivationEmailResponseModel": {
      "type": "object"
    },
    "emailAlreadyExistsResponseModel": {
      "type": "object",
      "properties": {
        "error": {
          "type": "string",
          "description": "human readable text that describes the nature of the error",
          "example": "invalid_request",
          "format": "^[a-zA-Z\\s\\-\\']$"
        },
        "errorDescription": {
          "type": "string",
          "description": "uman readable text that describes the nature of the error",
          "example": "Something went wrong. We weren't able to load this page. Please try again later",
          "format": "^[a-zA-Z\\s\\.\\-\\']+$"
        }
      }
    }
  },
  "responses": {
    "Forbidden": {
      "description": "JSON response in case of invalid request fails",
      "schema": {
        "$ref": "#/definitions/ForbiddenModel"
      },
      "examples": {
        "action": "authenticate"
      }
    },
    "BadRequest": {
      "description": "JSON response in case of missing required inbound parameters",
      "schema": {
        "$ref": "#/definitions/BadRequestModel"
      },
      "examples": {
        "error": "invalid_request",
        "errorDescription": "Invalid request body"
      }
    },
    "authorizeResponse": {
      "description": "JSON response for that describes the status of the request.",
      "schema": {
        "$ref": "#/definitions/authorizeResponseModel"
      },
      "examples": {
        "userId": "uid:U-ff20b0d0-479a-4311-8c8b-f67c32de0674",
        "accessToken": "1.USR.2UTJWVlYDQg5VR9snS",
        "tokenType": "Bearer",
        "sessionNumber": "dfff90a450d90116",
        "uuid": "U-ff20b0d0-479a-4311-8c8b-f67c32de0674"
      }
    },
    "sendActivationEmailResponse": {
      "description": "JSON response for that describes the status of the request.",
      "schema": {
        "$ref": "#/definitions/sendActivationEmailResponseModel"
      }
    },
    "emailAlreadyExistsResponse": {
      "description": "JSON response for that describes the status of the request.",
      "schema": {
        "$ref": "#/definitions/emailAlreadyExistsResponseModel"
      },
      "examples": {
        "error": "email_already_exists_signup",
        "errorDescription": "Email already exists please signup"
      }
    },
    "authorizeActionResponse": {
      "description": "JSON response for that describes the status of the request.",
      "schema": {
        "$ref": "#/definitions/authorizeActionResponseModel"
      },
      "examples": {
        "userId": "uid:U-24dcce65-9754-451a-b0d7-ca85d20025bf",
        "actions": [
          {
            "action": "validate_2nd_factor",
            "email": "4049931095abcde@yopmail.com",
            "msisdns": [
              {
                "msisdn": "8572341630",
                "subscriber_type": "POSTPAID"
              },
              {
                "msisdn": "4049931095",
                "subscriber_type": "POSTPAID"
              }
            ],
            "security_questions": [
              {
                "sq_id": "10",
                "sq_text": "In what city does your nearest sibling live?",
                "language": "en_US",
                "state": "active"
              }
            ],
            "is_captcha_required": "no"
          }
        ]
      }
    }
  }
}