{
  "swagger": "2.0",
  "info": {
    "description": "This is a collection of a several SecureID API endpoints.",
    "version": "1.0.0",
    "title": "SecureID API endpoints",
    "contact": {
      "name": "SecureID - Development Team",
      "email": "EUIDevelopment@T-Mobile.com"
    }
  },
  "host": "account.t-mobile.com",
  "x-servers": "account.t-mobile.com",
  "basePath": "/svr/skipAuthenticatorSetup",
  "tags": [
    {
      "name": "skipAuthenticatorSetup",
      "description": "skip authentication setup"
    }
  ],
  "schemes": [
    "https"
  ],
  "paths": {
    "/skipAuthenticatorSetup": {
      "post": {
        "tags": [
          "skipAuthenticatorSetup"
        ],
        "summary": "action while invoking login for redirection",
        "description": "to skip authentication",
        "operationId": "skipAuthenticatorSetup",
        "x-api-pattern": "CreateInCollection",
        "consumes": [
          "application/json"
        ],
        "produces": [
          "application/json"
        ],
        "parameters": [
          {
            "in": "body",
            "name": "body",
            "description": "request object required for resending the data",
            "required": true,
            "schema": {
              "$ref": "#/definitions/skipAuthenticatorSetup"
            }
          },
          {
            "name": "Content-Type",
            "x-example": "string",
            "in": "header",
            "required": true,
            "format": "string",
            "type": "string",
            "description": "application/json"
          },
          {
            "name": "lang_pref",
            "x-example": "string",
            "in": "header",
            "required": true,
            "format": "string",
            "type": "string",
            "description": "en"
          },
          {
            "name": "Device-Type",
            "x-example": "string",
            "in": "header",
            "required": true,
            "format": "string",
            "type": "string",
            "description": "desktop"
          },
          {
            "name": "Origin",
            "x-example": "string",
            "in": "header",
            "required": true,
            "format": "string",
            "type": "string",
            "description": "https://localhost:9000"
          },
          {
            "name": "Referrer",
            "x-example": "string",
            "in": "header",
            "required": true,
            "format": "string",
            "type": "string",
            "description": "https://localhost:9000/missingSecurityQuestions"
          },
          {
            "name": "Host",
            "x-example": "string",
            "in": "header",
            "required": true,
            "format": "string",
            "type": "string",
            "description": "localhost:3443"
          },
          {
            "name": "Cookie",
            "in": "header",
            "type": "string",
            "format": "iam_session_id=xxxxxxxxxxxxxxxxxxxx",
            "required": true,
            "description": "cookie",
            "x-example": "iam_session_id=eyJ0eXAiOiJKV0UiLCJhbGciOiJSU0ExXzUiLCJlbmMiOiJBMjU2Q0JDK0hTNTEyIn0.oz4IpBEjTMrkPn2jUZKNNWfWfRLVvLes9sLv0OdCBqctLulEs2m7aWJtOVwjGGmtwOdttH-LquY5pql5QtaSfvKT8yY042MhAc-gIWibjGZMZQGUjDUR7OMqTjTTnVXK4t8FwiW0dgdH_cIHGFbFVesMqfgzcVti8XrNIujsVLfFw5raabDSxhevHKV81RQQzgglWmMPseGvbmnAxPsjLzUd0-M67NQJ69ciOYXYnpovgGhw3v0boNenk_CdsPanatOY1AlxuG-sCUtktyuev1LNbEgC-sqTbQY4rKmHGu73Say9UWg35x17jkJjr88zJhGgJMeccOrCM4k77OA8Ug.w4TjNUTiIDqhjf4lB1XMLA.LgLDU5-pBEVvwoCwEVD5S9NpKgJQ1jp2ValY7lCZH98hZQcdJrSKOKtURBQG60G8l8T6Zopr7E_ZU0y9jgUq0Q.dbGw4lFE7DMVTkK4HuOGYN0VMuE94tr54zUAydLtM8_2_QUefL93XFf3A65OVbr4YJRvOs0zKZUfNMGc21iEHA,iam_session_id=eyJ0eXAiOiJKV0UiLCJhbGciOiJSU0ExXzUiLCJlbmMiOiJBMjU2Q0JDK0hTNTEyIn0.oz4IpBEjTMrkPn2jUZKNNWfWfRLVvLes9sLv0OdCBqctLulEs2m7aWJtOVwjGGmtwOdttH-LquY5pql5QtaSfvKT8yY042MhAc-gIWibjGZMZQGUjDUR7OMqTjTTnVXK4t8FwiW0dgdH_cIHGFbFVesMqfgzcVti8XrNIujsVLfFw5raabDSxhevHKV81RQQzgglWmMPseGvbmnAxPsjLzUd0-M67NQJ69ciOYXYnpovgGhw3v0boNenk_CdsPanatOY1AlxuG-sCUtktyuev1LNbEgC-sqTbQY4rKmHGu73Say9UWg35x17jkJjr88zJhGgJMeccOrCM4k77OA8Ug.w4TjNUTiIDqhjf4lB1XMLA.LgLDU5-pBEVvwoCwEVD5S9NpKgJQ1jp2ValY7lCZH98hZQcdJrSKOKtURBQG60G8l8T6Zopr7E_ZU0y9jgUq0Q.dbGw4lFE7DMVTkK4HuOGYN0VMuE94tr54zUAydLtM8_2_QUefL93XFf3A65OVbr4YJRvOs0zKZUfNMGc21iEHA; sessionId=9377659327; EUI-TRANS-ID=1574334247016_irwsm_9377659327; nlbi_385986_1418641=WGyEeGqSOHP3FKtoSHyymAAAAADfByTrDPJIA/dXXzgunBxh; nlbi_385986=vl8zRemZk2G1ejxFSHyymAAAAACKgI13LE6SUEpo1Cw2N4H5; userEnteredInput=U2FsdGVkX1%2Bx59OOvoa7hr0WqEx3XFjukRcT8olCwwLLAHZvN6EHqY8wxBWGcRap; nlbi_385986_1418642=pj2iXMNE8wtgEpEVSHyymAAAAAC6TI7fPFIPQe6iXA7ql+Ox; incap_ses_123_385986=LD1WNUHM3X/WrWDLqvy0ARt31l0AAAAAJh2iT/8Y6krz/NGWRACa4A==; visid_incap_385986=nkP7xHuVSDKRXRmdG3iBORV11l0AAAAAQUIPAAAAAACZVUmGe0OKZ0rohYYYJH+E; incap_ses_526_385986=Gn5fM7tb3kjk5KWbJ9lMB8d71l0AAAAAO5LiRaZdbz1Z6AeY0GFlPg==; ___utmvbRaucfzN=a; ___utmvmRaucfzN=a; incap_ses_235_385986=7ugvMz5vBg/oxwsBTARDA7/L110AAAAAmb2/qEiH7a2Xy/AY7WvMXQ==; ___utmvbvVucfzN=a; ___utmvmvVucfzN=a; HRERITRUL=RA1; FEDERATION=; SCT="
          }
        ],
        "responses": {
          "200": {
            "$ref": "#/responses/SuccessResponse"
          },
          "209": {
            "$ref": "#/responses/InvalidRequest"
          },
          "302": {
            "description": "Redirecting to https://localhost:3443?code=01.Ashbbqwehjncnu&state=fals&sesession_num=71gya87gg17g&uuid=uid:U-26b4f0ca-9fd8-46b7-8040-da8e723f35ee&user_id=tel:4252413945&flow=LOGIN \n for success response, see below",
            "schema": {
              "$ref": "#/definitions/SuccessModel"
            },
            "headers": {
              "Content-Type": {
                "type": "string",
                "x-example": "application/josn",
                "description": "content type of the response"
              }
            }
          },
          "400": {
            "$ref": "#/responses/BadRequest"
          },
          "401": {
            "$ref": "#/responses/Unauthenticated"
          },
          "403": {
            "$ref": "#/responses/Forbidden"
          },
          "404": {
            "$ref": "#/responses/NotFound"
          },
          "405": {
            "$ref": "#/responses/MethodNotAllowed"
          },
          "406": {
            "$ref": "#/responses/NotAcceptable"
          },
          "409": {
            "$ref": "#/responses/Conflict"
          },
          "415": {
            "$ref": "#/responses/UnsupportedMediaType"
          },
          "500": {
            "$ref": "#/responses/ServerError"
          },
          "503": {
            "$ref": "#/responses/ServiceUnavailable"
          }
        },
        "security": [
          {
            "xsrfCsutomToken": []
          },
          {
            "secSessionToken": []
          }
        ]
      }
    }
  },
  "securityDefinitions": {
    "xsrfCsutomToken": {
      "name": "xsrf-custom-token",
      "in": "header",
      "type": "apiKey",
      "description": "Cross-Site Request Forgery"
    },
    "secSessionToken": {
      "name": "sec_session_token",
      "in": "header",
      "type": "apiKey",
      "description": "checking for session validation"
    }
  },
  "definitions": {
    "skipAuthenticatorSetup": {
      "type": "object",
      "description": "request object",
      "properties": {
        "redirect_uri": {
          "type": "string",
          "minLength": 1,
          "format": "^[a-zA-Z\\s\\.\\-\\']+$",
          "x-example": "https://localhost",
          "description": "redirect URI"
        },
        "state": {
          "type": "boolean",
          "minLength": 1,
          "format": "xxxx",
          "x-example": false,
          "description": "encripted auth params"
        },
        "access_type": {
          "type": "string",
          "minLength": 1,
          "x-example": "ONLINE",
          "format": "^[a-zA-Z\\s\\.\\-\\']+$",
          "description": "online"
        },
        "skipSecondFactorAuth": {
          "type": "boolean",
          "minLength": 1,
          "x-example": true,
          "description": "true"
        },
        "euiFlow": {
          "type": "string",
          "minLength": 1,
          "format": "^[a-zA-Z\\s\\.\\-\\']+$",
          "x-example": "LOGIN",
          "description": "flow"
        },
        "approval_prompt": {
          "type": "string",
          "minLength": 1,
          "format": "^[a-zA-Z\\s\\.\\-\\']+$",
          "x-example": "auto",
          "description": "auto"
        },
        "display": {
          "type": "string",
          "minLength": 1,
          "format": "^[a-zA-Z\\s\\.\\-\\']+$",
          "x-example": "sdk",
          "description": "sdk N"
        },
        "scope": {
          "type": "string",
          "minLength": 1,
          "format": "^[a-zA-Z\\s\\.\\-\\']+$",
          "x-example": "extended_lines",
          "description": "extended lines"
        },
        "client_id": {
          "type": "string",
          "minLength": 1,
          "format": "^[a-zA-Z0-9\\s\\.\\-\\']+$",
          "x-example": "UCCAdmin2",
          "description": "ucc admin"
        },
        "isSecondFactorComplete": {
          "type": "boolean",
          "x-example": true,
          "description": "true"
        },
        "remTransID": {
          "type": "string",
          "minLength": 1,
          "format": "^[a-zA-Z0-9\\s\\.\\-\\']+$",
          "x-example": "xxx",
          "description": "rem transaction"
        }
      }
    },
    "ErrorModel": {
      "type": "object",
      "description": "Error model",
      "properties": {
        "code": {
          "type": "string",
          "description": "succinct, domain-specific, human-readable text string to identify the type of error for the given status code",
          "example": "Resource not found",
          "format": "^[a-zA-Z\\s\\-\\']$"
        },
        "userMessage": {
          "type": "string",
          "description": "human readable text that describes the nature of the error",
          "example": "We could not authenticate that user.",
          "format": "^[a-zA-Z\\s\\.\\-\\']+$"
        },
        "systemMessage": {
          "type": "string",
          "description": "text that provides a more detailed technical explanation of the error",
          "example": "Authentication failed"
        },
        "detailLink": {
          "type": "string",
          "description": "link to custom information providing greater detail on error or errors",
          "example": "audit.log.for.events.url"
        }
      }
    },
    "BadRequestErrorModel": {
      "type": "object",
      "description": "Error model",
      "properties": {
        "code": {
          "type": "string",
          "description": "succinct, domain-specific, human-readable text string to identify the type of error for the given status code",
          "example": "Bad request",
          "format": "^[a-zA-Z\\s\\-\\']$"
        },
        "userMessage": {
          "type": "string",
          "description": "human readable text that describes the nature of the error",
          "example": "request is missing params.",
          "format": "^[a-zA-Z\\s\\.\\-\\']+$"
        },
        "systemMessage": {
          "type": "string",
          "description": "text that provides a more detailed technical explanation of the error",
          "example": "Bad Request"
        },
        "detailLink": {
          "type": "string",
          "description": "link to custom information providing greater detail on error or errors",
          "example": "audit.log.for.events.url"
        }
      }
    },
    "ServerErrorModel": {
      "type": "object",
      "description": "Error model",
      "properties": {
        "code": {
          "type": "string",
          "description": "succinct, domain-specific, human-readable text string to identify the type of error for the given status code",
          "example": "Internal Server Error",
          "format": "^[a-zA-Z\\s\\-\\']$"
        },
        "userMessage": {
          "type": "string",
          "description": "human readable text that describes the nature of the error",
          "example": "Server Error.",
          "format": "^[a-zA-Z\\s\\.\\-\\']+$"
        },
        "systemMessage": {
          "type": "string",
          "description": "text that provides a more detailed technical explanation of the error",
          "example": "Server Error"
        },
        "detailLink": {
          "type": "string",
          "description": "link to custom information providing greater detail on error or errors",
          "example": "audit.log.for.events.url"
        }
      }
    },
    "ErrorResponseModel": {
      "type": "object",
      "description": "Error response model",
      "properties": {
        "statusCode": {
          "type": "number",
          "description": "succinct, domain-specific, human-readable text string to identify the type of error for the given status code",
          "example": 209,
          "format": "^[a-zA-Z\\s\\-\\']$"
        },
        "error": {
          "type": "string",
          "description": "human readable text that describes the nature of the error",
          "example": "invalid_request.",
          "format": "^[a-zA-Z\\s\\.\\-\\']+$"
        },
        "error_description": {
          "type": "string",
          "description": "human readable text that describes the nature of the error",
          "example": "Invalid request body.",
          "format": "^[a-zA-Z\\s\\.\\-\\']+$"
        }
      }
    },
    "SuccessModel": {
      "type": "object",
      "properties": {
        "statuscode": {
          "type": "number",
          "description": "succinct, domain-specific, human-readable text string to identify the type of error for the given status code",
          "example": 200,
          "format": "^[a-zA-Z\\s\\-\\']$"
        },
        "access_token": {
          "type": "string",
          "format": "xxxx",
          "description": "accesstoken",
          "example": "1.2UTJWVlYDQg5VR9snS"
        },
        "token_type": {
          "type": "string",
          "format": "xxxx",
          "description": "Bearer",
          "example": "Bearer"
        },
        "scope": {
          "type": "string",
          "format": "xxxx",
          "description": "TMO_ID_profile associated_lines",
          "example": "TMO_ID_profile associated_lines"
        },
        "expires_in": {
          "type": "number",
          "format": "xxxx",
          "description": "expiration time",
          "example": 86400
        }
      }
    }
  },
  "responses": {
    "SuccessResponse": {
      "description": "JSON response",
      "schema": {
        "$ref": "#/definitions/SuccessModel"
      },
      "examples": {
        "statusCode": 200,
        "access_token": "1.2UTJWVlYDQg5VR9snS",
        "token_type": "Bearer"
      }
    },
    "InvalidRequest": {
      "description": "JSON response in case of invalid request fails",
      "schema": {
        "$ref": "#/definitions/ErrorResponseModel"
      },
      "examples": {
        "statusCode": 209,
        "error": "invalid_request",
        "error_description": "One of the required params of redirect_uri, state or code was not available"
      }
    },
    "Forbidden": {
      "description": "JSON response in case of invalid request fails",
      "schema": {
        "$ref": "#/definitions/ErrorModel"
      },
      "examples": {
        "statuscode": 403,
        "error": "invalid_request",
        "error_description": "Invalid request body"
      }
    },
    "BadRequest": {
      "description": "JSON response in case of missing required inbound parameters",
      "schema": {
        "$ref": "#/definitions/BadRequestErrorModel"
      },
      "examples": {
        "code": "Bad Request",
        "userMessage": "ClientId not present in request"
      }
    },
    "Unauthenticated": {
      "description": "JSON response for invalid DAT and/or PoP tokens, untrusted sources trying to access API directly",
      "schema": {
        "$ref": "#/definitions/ErrorModel"
      },
      "examples": {
        "code": "Unauthenticated",
        "userMessage": "Invalid authentication"
      }
    },
    "NotFound": {
      "description": "JSON response in case requested data cannot be found",
      "schema": {
        "$ref": "#/definitions/ErrorModel"
      },
      "examples": {
        "code": "Not Found",
        "userMessage": "That ClientId was not found"
      }
    },
    "MethodNotAllowed": {
      "description": "JSON response in case REST method not permitted on resource",
      "headers": {
        "allow": {
          "type": "string",
          "format": "string",
          "description": "Allowed operation methods",
          "x-example": "get"
        }
      },
      "schema": {
        "$ref": "#/definitions/ErrorModel"
      },
      "examples": {
        "code": "Method Not Allowed",
        "userMessage": "The method received in the request-line is known by the origin server but not supported by the target resource."
      }
    },
    "NotAcceptable": {
      "description": "JSON response in case response content type will not be accepted by the consumer",
      "schema": {
        "$ref": "#/definitions/ErrorModel"
      },
      "examples": {
        "code": "Not Acceptable",
        "userMessage": "The target resource does not have a current representation that would be acceptable to the user agent, according to the proactive negotiation header fields received in the request, and the server is unwilling to supply a default representation."
      }
    },
    "Conflict": {
      "description": "JSON response that indicates the request could not be processed because of conflict in the request, such as an edit conflict.",
      "schema": {
        "$ref": "#/definitions/ErrorModel"
      },
      "examples": {
        "code": "Conflict",
        "userMessage": "The request could not be completed due to a conflict with the current state of the resource."
      }
    },
    "UnsupportedMediaType": {
      "description": "JSON response that indicates the request entity has a media type which the server or resource does not support.",
      "schema": {
        "$ref": "#/definitions/ErrorModel"
      },
      "examples": {
        "code": "Unsupported Media Type",
        "userMessage": "The server is refusing to service the request because the entity of the request is in a format not supported by the requested resource for the requested method."
      }
    },
    "ServerError": {
      "description": "JSON response in case of internal system error, in the event of downstream systems unavailability or uncaught exceptions",
      "schema": {
        "$ref": "#/definitions/ServerErrorModel"
      },
      "examples": {
        "code": "Server Error",
        "userMessage": "The server encountered an unexpected condition that prevented it from fulfilling the request."
      }
    },
    "ServiceUnavailable": {
      "description": "JSON response in case the requested service is unavailable",
      "schema": {
        "$ref": "#/definitions/ErrorModel"
      },
      "examples": {
        "code": "Service Unavailable",
        "userMessage": "The server is currently unable to handle the request due to a temporary overload or scheduled maintenance, which will likely be alleviated after some delay."
      }
    }
  }
}