{
  "swagger": "2.0",
  "info": {
    "version": "1.0.0",
    "title": "VALIDATE TEMPORARY PASSWORD"
  },
  "host": "eui9.account.t-mobile.com",
  "basePath": "/svr/validatetemppassword",
  "schemes": [
    "https"
  ],
  "consumes": [
    "application/json"
  ],
  "produces": [
    "application/json"
  ],
  "paths": {
    "/validatetemppassword": {
      "post": {
        "description": "validate temporary password.",
        "parameters": [
          {
            "name": "Request Body",
            "in": "body",
            "description": "Request Body for validate temp password API",
            "schema": {
              "$ref": "#/definitions/validatetemppasswordRequest"
            }
          },
          {
            "name": "Content-Type",
            "x-example": "string",
            "in": "header",
            "required": true,
            "format": "string",
            "type": "string",
            "description": "Application/Json"
          },
          {
            "name": "Origin",
            "x-example": "string",
            "in": "header",
            "required": true,
            "format": "string",
            "type": "string",
            "description": "https://eui9.account.t-mobile.com"
          },
          {
            "name": "sec_session_token",
            "x-example": "string",
            "required": true,
            "format": "string",
            "in": "header",
            "type": "string",
            "description": "zI4SShjc-1r5Y4hbVsUsu90tPAUJOOFlUJm8"
          },
          {
            "name": "XSRF-CUSTOM-TOKEN",
            "x-example": "string",
            "required": true,
            "format": "string",
            "in": "header",
            "type": "string",
            "description": "zI4SShjc-1r5Y4hbVsUsu90tPAUJOOFlUJm8"
          },
          {
            "name": "referer",
            "x-example": "string",
            "required": true,
            "format": "string",
            "in": "header",
            "type": "string",
            "description": "https://eui9.account.t-mobile.com/oauth2/v1/auth"
          },
          {
            "name": "pwd_sec_token",
            "x-example": "string",
            "required": true,
            "format": "string",
            "in": "header",
            "type": "string",
            "description": "https://eui9.account.t-mobile.com"
          }
        ],
        "responses": {
          "200": {
            "description": "It validates the OTP and cofirm",
            "schema": {
              "$ref": "#/definitions/validatetemppasswordResponse"
            }
          },
          "400": {
            "description": "JSON Response for bad request",
            "schema": {
              "$ref": "#/definitions/validatetemppasswordErrorResponse"
            }
          },
          "403": {
            "description": "Invalid Request, access denied",
            "schema": {
              "$ref": "#/definitions/ErrorForbidden"
            }
          },
          "500": {
            "description": "internal server error",
            "schema": {
              "$ref": "#/definitions/ServerError"
            }
          }
        }
      }
    }
  },
  "definitions": {
    "validatetemppasswordRequest": {
      "type": "object",
      "properties": {
        "user_id": {
          "type": "string"
        },
        "temp_password": {
          "type": "string"
        },
        "context": {
          "type": "string"
        },
        "client_id": {
          "type": "string"
        },
        "redirect_uri": {
          "type": "string"
        },
        "device_type": {
          "type": "string"
        },
        "euiFlow": {
          "type": "string"
        },
        "remTransID": {
          "type": "string"
        }
      },
      "example": "{\"user_id\":\"tel%3A4042004491\",\"temp_password\":\"234123\",\"context\":\"reset_password_via_sms\",\"client_id\":\"EUI\",\"redirect_uri\":\"https%3A%2F%2Feui9.account.t-mobile.com%2Fprofile\",\"device_type\":\"desktop\",\"remTransID\":\"1537442134115_vsxns_6912903135\",\"euiFlow\":\"PASSWORD_RESET\"}"
    },
    "validatetemppasswordResponse": {
      "type": "object",
      "example": "{}"
    },
    "validatetemppasswordErrorResponse": {
      "type": "object",
      "properties": {
        "error": {
          "type": "string",
          "description": "invalid_temp_password"
        },
        "error_description": {
          "type": "string",
          "description": "The password you entered doesn’t match the temporary password we sent."
        },
        "is_captcha_required": {
          "type": "string"
        },
        "number_of_failed_attempts": {
          "type": "string"
        }
      },
      "example": "{\"error\":\"invalid_temp_password\",\"error_description\":\"The password you entered doesn’t match the temporary password we sent. Confirm the password and give it another shot. Note: Passwords are case sensitive.\",\"is_captcha_required\":\"no\",\"number_of_failed_attempts\":\"1\"}"
    },
    "ErrorForbidden": {
      "type": "object",
      "properties": {
        "error": {
          "type": "string",
          "description": "Forbidden"
        },
        "error_description": {
          "type": "string",
          "description": "Invalid request, access denied.."
        }
      },
      "example": "{error:Forbidden. Invalid request, access denied.}"
    },
    "ServerError": {
      "type": "object",
      "properties": {
        "error": {
          "type": "string",
          "description": "server_error"
        },
        "error_description": {
          "type": "string",
          "description": "Internal server error."
        }
      },
      "example": "error: server_error error_description: Internal server error. "
    }
  }
}