{
  "swagger": "2.0",
  "info": {
    "version": "1.0.0",
    "title": "validate2ndfactorOTPPin"
  },
  "host": "eui6.account.t-mobile.com",
  "basePath": "/svr",
  "schemes": [
    "https"
  ],
  "consumes": [
    "application/json"
  ],
  "produces": [
    "application/json"
  ],
  "paths": {
    "/validate2ndfactorOTPPin": {
      "post": {
        "description": "This API is used to validate 2nd factor OTP pin in profile  when we opt Text message in 2FA Profile à TMOBILE-ID section",
        "parameters": [
          {
            "name": "sec_session_token",
            "in": "header",
            "type": "string"
          },
          {
            "name": "referrer",
            "in": "header",
            "type": "string"
          },
          {
            "name": "XSRF-CUSTOM-TOKEN",
            "in": "header",
            "type": "string"
          },
          {
            "name": "Content-Type",
            "in": "header",
            "type": "string"
          },
          {
            "name": "Cookie",
            "in": "header",
            "type": "string"
          },
          {
            "name": "Body",
            "in": "body",
            "description": "Request body",
            "schema": {
              "type": "object",
              "$ref": "#/definitions/validate2ndfactorOTPPinRequest"
            }
          }
        ],
        "responses": {
          "200": {
            "description": "Validates 2FA fro profile",
            "schema": {
              "$ref": "#/definitions/validate2ndfactorOTPPinResponse"
            }
          },
          "400": {
            "description": "Error response ",
            "schema": {
              "$ref": "#/definitions/ErrorResponse"
            }
          },
          "403": {
            "description": "Error response ",
            "schema": {
              "$ref": "#/definitions/ForbiddenResponse"
            }
          },
          "500": {
            "description": "Error response ",
            "schema": {
              "$ref": "#/definitions/ServerResponse"
            }
          }
        }
      }
    }
  },
  "definitions": {
    "validate2ndfactorOTPPinRequest": {
      "type": "object",
      "properties": {
        "params": {
          "type": "object",
          "properties": {
            "msisdn": {
              "type": "string"
            },
            "answer": {
              "type": "string"
            },
            "context": {
              "type": "string"
            },
            "answer_type": {
              "type": "string"
            },
            "userPreferred2FVMethods": {
              "type": "string"
            },
            "uuid": {
              "type": "string"
            },
            "flowComponent": {
              "type": "string"
            },
            "remTransID": {
              "type": "string"
            },
            "euiFlow": {
              "type": "string"
            }
          }
        }
      }
    },
    "validate2ndfactorOTPPinResponse": {
      "type": "object",
      "properties": {
        "iamResponse": {
          "type": "string"
        },
        "deviceInformation": {
          "type": "object",
          "properties": {
            "device_is_mobile": {
              "type": "string"
            }
          }
        }
      }
    },
    "ErrorResponse": {
      "type": "object",
      "properties": {
        "error": {
          "type": "string"
        },
        "error_description": {
          "type": "string"
        }
      }
    },
    "ForbiddenResponse": {
      "type": "string"
    },
    "ServerResponse": {
      "type": "string"
    }
  }
}