{
  "swagger": "2.0",
  "info": {
    "version": "1.0.0",
    "title": "sendTOSEmail"
  },
  "host": "eui9.account.t-mobile.com",
  "basePath": "/svr/sendTOSEmail",
  "schemes": [
    "https"
  ],
  "consumes": [
    "application/json"
  ],
  "produces": [
    "application/json"
  ],
  "paths": {
    "/sendTOSEmail": {
      "post": {
        "description": "To send the terms of service email.",
        "parameters": [
          {
            "name": "Request Body",
            "in": "body",
            "description": "Request Body for sendTOSEmail API",
            "schema": {
              "$ref": "#/definitions/sendTOSEmailRequest"
            }
          },
          {
            "name": "Content-Type",
            "in": "header",
            "type": "string",
            "description": "application/json"
          },
          {
            "name": "Origin",
            "in": "header",
            "type": "string",
            "description": "https://account.t-mobile.com"
          },
          {
            "name": "sec_session_token",
            "in": "header",
            "type": "string",
            "description": "U2FsdGVkX1+K4npdn37TQ/R0ZFqVWWKvHAXbiZEwUo6bytmsxRilAuzmd3NcQ8PN"
          },
          {
            "name": "xsrf-custom-token",
            "in": "header",
            "type": "string",
            "description": "sKxSNOPZ-UpG3LQUicAGLqyDsqqPGcx_FJxI"
          }
        ],
        "responses": {
          "200": {
            "description": "Will get success response with email and api Response",
            "schema": {
              "$ref": "#/definitions/sendTOSEmailResponse"
            }
          },
          "403": {
            "description": "JSON Response for bad request",
            "schema": {
              "$ref": "#/definitions/sendTOSEmailErrorResponse"
            }
          }
        }
      }
    }
  },
  "definitions": {
    "sendTOSEmailRequest": {
      "type": "object",
      "properties": {
        "email": {
          "type": "string",
          "description": "syresgpolaga@yopmail.com"
        },
        "state": {
          "type": "string",
          "description": "redirect_uri=https%3A%2F%2Feui6.account.t-mobile.com%2Fprofile&scope=TMO_ID_profile%20associated_lines%20billing_information%20extended_lines&access_type=ONLINE&response_type=code&approval_prompt=auto&client_id=EUI&display=undefined"
        },
        "euiFlow": {
          "type": "string",
          "description": "SIGNUP"
        },
        "remTransID": {
          "type": "string",
          "description": "1535444741314_wozik_5636705098"
        }
      }
    },
    "sendTOSEmailResponse": {
      "type": "object",
      "properties": {
        "apiResponse": {
          "type": "object",
          "properties": {
            "responseState": {
              "type": "number",
              "description": "200"
            }
          }
        }
      }
    },
    "sendTOSEmailErrorResponse": {
      "type": "object",
      "properties": {
        "apiResponse": {
          "type": "object",
          "properties": {
            "responseState": {
              "type": "string",
              "description": "server_error"
            }
          }
        }
      }
    }
  }
}