{
  "swagger" : "2.0",
  "info": {
    "version": "1.0.0",
    "title": "Check MSISDN and send pin",
    "description": "A micro service that gives pin after verifying the msisdn",
    "contact": {
        "name": "SecureID Support",
        "email": "EUIDevelopment@T-Mobile.com"
      }
  },
  "host": "brass.account.t-mobile.com",
  "x-servers": [
    {
      "url": "https://brass.account.t-mobile.com"
    },
    {
      "url": "https://{Environment}brass.account.t-mobile.com",
      "variables": {
        "Environment": {
          "enum": ["dev.", "qat.", "uat.", "plab.", "ppd."],
          "default": "uat."
        }
      }
    }
  ],
  "basePath": "/svr",
  "schemes":["https"],
  "consumes":["application/json"],
  "produces":["application/json"],
  "tags":[{
    "name": "CheckMSisdnAndSendPin",
    "description": "Check Msisdn and send pin"
}],
  "paths" : {
    "/checkmsisdnandsendpin" : {
      "post" : {
        "x-api-pattern": "ExecuteFunction",
        "summary": "Check Msisdn and send pin",
        "operationId": "check-msisdn-and-send-pin",
        "description":"Check Msisdn and send pin to customer",
        "tags":[
            "checkMsisdnAndSendPin"
        ],
        "security":[
            {
                "Basic":[]
            }
        ],
        "parameters" : [
          {
            "in": "header",
            "name": "Authorization",
            "type": "string",
            "description": "Authorization Token",
            "required": true,
            "format": "byte",
            "x-example": "Basic mF_9.B5f-4.1JqM"
          },
          {
            "in": "header",
            "name": "Content-Type",
            "type": "string",
            "description": "Request content type",
            "required": true,
            "format": "application/json",
            "x-example": "application/json"
          },
          {
            "in": "header",
            "name": "Origin",
            "type": "string",
            "description": "origin",
            "required": true,
            "format": "url",
            "x-example": "https://ppd2.account.t-mobile.com"
          },
          {
            "in": "header",
            "name": "Referer",
            "type": "string",
            "description": "referer",
            "required": true,
            "format": "url",
            "x-example": "https://ppd2.account.t-mobile.com/oauth2/v1/auth"
          },
          {
            "in": "header",
            "name": "sec_session_token",
            "type": "string",
            "description": "sec session token",
            "required": true,
            "format": "application/json",
            "x-example": "U2FsdGVkX19WIwtAt6f8S/utS0XR7P2h7qTDKiAozPAn9DboKYuuYHR7dkCUcroA"
          },
          {
            "in": "header",
            "name": "XSRF-CUSTOM-TOKEN",
            "type": "string",
            "description": "xsrf custom token",
            "required": true,
            "format": "application/json",
            "x-example": "zI4SShjc-1r5Y4hbVsUsu90tPAUJOOFlUJm8"
          },
          {
            "in": "header",
            "name": "COOKIE",
            "type": "string",
            "description": "IAM session Id",
            "required": true,
            "format": "application/json",
            "x-example": "IAM_SESSION_ID=eyJ0eXAiOiJKV0UiLCJhbGciOiJSU0ExXzUiLCJlbmMiOiJBMjU2Q0JDK0hTNTEyIn0.j2x987ZkGf8jx1q52Y8X17nw_R0eKfhqjNMrD69KARwX1ndW6SpkhkyLLgrPalhJKxsglsLjFdYsAAid_fQUQGdR51hhbtv7YuT521A73Z6dhsuycfQQduQi66TrxmVrBHEzSO9wCsTwnP2BFysJCROVKuHMYofFvly84egdOY7Hd1NInqWO1YIabZr40uFe6FwZ-CBMBKT86oQ9EGTvPFVKc63KEE8sRXZz0zCdlD14jKmXVqpVVaa9dshn7ow65JS3nQFEzVowDXV38C50dOvrM1dcpFb_jYrULifEWxNO382uciVHD7BKmhub9lctnEsO-vN7K76rRwFMuvsOlw.dGZoJiyThEMx5NMFscJ4CQ.o5M--39f45VJvpG7CXAUHzmyIs5DCqnm9Bf9zkoN3M73fzo8iU0sKZJhSN4UAeqEXDi84vGpChHl-UThC2KoCQ.ezbOYyUJU4plM4-CniZU-BJoWYSjOgbimh2eiJewUI_W6K-70tQqokzIojLhSq_GN7mW16QlXmCbroNFW6Wd1g"
          },
          {
            "in" : "body",
            "name" : "requestBody",
            "description": "Request payload",
            "required" : true,
            "schema" : {
                "$ref" : "#/definitions/CheckMsisdnAndSendPinRequest"
            },
            "x-examples" : {
              "application/json" : "{\n  \"userid\": \"U-6dedd8ce-fb99-4c63-8344-3a695cd7d46f\",\n  \"msisdn\": \"2067753653\",\n  \"device_type\": \"desktop\",\n  \"client_id\": \"MYTMO_STG\",\n  \"redirect_uri\": \"https://e5.my.t-mobile.com\",\n  \"remTransID\": \"1535408432813_vvbet_0820832352\",\n  \"euiFlow\": \"PROFILE_MANAGEMENT\"\n}"
            }
          }
        ],
        "responses" : {
          "200" : {
            "description" : "Successful response Msisdn as been checked and pin sent",
            "headers":{
              "Date": {
                "type": "string",
                "format": "date-time",
                "description": "Date of Transaction",
                "x-example": "2002-09-24+06:00"
             },
              "Content-Type": {
                "type": "string",
                "format": "application/json",
                "description": "Type of returned content",
                "x-example": "application/json"
              }
            },
            "schema" : {
              "$ref" : "#/definitions/CheckMsisdnAndSendPinResponse"
            },
            "examples": {
              "id_token": "eyJhbGciOiJSUzI1NiIsInR5cCI6IkpXVCJ9.eyJpYXQiOjE1NzAwOTY0NTYsImV4cCI6MTU3MDA5ODg1NiwiaXNzIjoiaHR0cHM6Ly90bW0uYnJhc3MuYWNjb3VudC50LW1vYmlsZS5jb20iLCJhdWQiOiJ0ZXN0Iiwic3ViIjoiVGVzdGluZ0F0bXMiLCJjbmYiOiJQb3BUb2tlbmUiLCJhY3IiOiJsb2EwIiwiYW1yIjpbImFub255bW91cyJdLCJ1c24iOiJvMWE5Y3I2a3JiaHd3aXFqIiwiZW50X3R5cGUiOiJhbm9ueW1vdXMifQ.eVaMFSbE_cblHAKgEpCb0bhEJ7ZahPJ0-PtzTKnjZ0YCN7RTemIcY8E8PKN0SJkelKAm5uFN7wmkY1YuskKItbSd5AxoHqM_zW2o7CpyZLvWynFl7I6iq_JTEDYwSOtjuAH8zstJJGu-GBx9qUQqADjb1ZeM6F1Exq5Ma2L7IG9MttkVmi6RSMWdySvbr2rt3vVZ_OBPkhC_qUCXJNmFNTYULNb5rv5cb38kUAirkUO14tX-l9vt0oGiic6OaKxu73lezWd7lUwFlJ0PK4na0vCjFtbsm1C1ytFXiBAjAjaJ520D8UPxUUCElBw_LTqj6Gk_t1ELKXLrz5QjKfh8fQ"
            }
          },
          "400": {
            "description": "Bad Request (ie missing required parameters).",
            "headers": {
              "Date": {
                "type": "string",
                "format": "date-time",
                "description": "Date of Transaction",
                "x-example": "2002-09-24+06:00"
              },
              "Content-Type": {
                "type": "string",
                "format": "application/json",
                "description": "Type of returned content",
                "x-example": "application/json"
              }
            },
            "schema": {
              "$ref" : "#/definitions/HttpErrorResponse"
            },
            "examples" : {
              "code" : "400",
              "systemMessage" : "Bad Request",
              "userMessage" : "The request is missing required parameters."
            }
          },
          "401": {
            "description": "Unauthorized Request (ie Authorization token could not be validated).",
            "headers": {
              "Date": {
                "type": "string",
                "format": "date-time",
                "description": "Date of Transaction",
                "x-example": "2002-09-24+06:00"
              },
              "Content-Type": {
                "type": "string",
                "format": "application/json",
                "description": "Type of returned content",
                "x-example": "application/json"
              }
            },
            "schema": {
              "$ref" : "#/definitions/HttpErrorResponse"
            },
            "examples" : {
              "code" : "401",
              "systemMessage" : "Unauthorized",
              "userMessage" : "You request could not be properly validated."
            }
          },
          "404": {
            "description": "The provided msisdn or BAN was not found",
            "headers": {
              "Date": {
                "type": "string",
                "format": "date-time",
                "description": "Date of Transaction",
                "x-example": "2002-09-24+06:00"
              },
              "Content-Type": {
                "type": "string",
                "format": "application/json",
                "description": "Type of returned content",
                "x-example": "application/json"
              }
            },
            "schema": {
              "$ref" : "#/definitions/HttpErrorResponse"
            },
            "examples" : {
              "code" : "404",
              "systemMessage" : "Not Found",
              "userMessage" : "The provided msisdn or BAN was not found"
            }
          },
          "405": {
            "description": "Method not Allowed",
            "headers": {
                "Date": {
                "type": "string",
                "format": "date-time",
                "description": "Date of Transaction",
                "x-example": "2002-09-24+06:00"
              },
                "Content-Type": {
                "type": "string",
                "format": "application/json",
                "description": "Type of returned content",
                "x-example": "application/json"
              },
                "Allow": {
                "type": "string",
                "format": "application/json",
                "description": "Acceptable MIME-type",
                "x-example": "POST"
              }
            },
            "schema": {
              "$ref" : "#/definitions/HttpErrorResponse"
            },
            "examples" : {
              "code" : "405",
              "systemMessage" : "Method not Allowed",
              "userMessage" : "Allow: POST"
            }
          },
          "409": {
            "description": "Conflict",
            "headers": {
              "Date": {
                "type": "string",
                "format": "date-time",
                "description": "Date of Transaction",
                "x-example": "2002-09-24+06:00"
              },
              "Content-Type": {
                "type": "string",
                "format": "application/json",
                "description": "Type of returned content",
                "x-example": "application/json"
              }
            },
            "schema": {
              "$ref" : "#/definitions/HttpErrorResponse"
            },
            "examples" : {
              "code" : "405",
              "systemMessage" : "Method not Allowed",
              "userMessage" : "Allow: POST"
            }
          },
          "415": {
            "description": "Unsupported Media Type",
            "headers": {
              "Date": {
                "type": "string",
                "format": "date-time",
                "description": "Date of Transaction",
                "x-example": "2002-09-24+06:00"
              },
              "Content-Type": {
                "type": "string",
                "format": "application/json",
                "description": "Type of returned content",
                "x-example": "application/json"
              }
            },
            "schema": {
              "$ref" : "#/definitions/HttpErrorResponse"
            },
            "examples" : {
              "code" : "415",
              "systemMessage" : "Unsupported Media type",
              "userMessage" : "The Content-type provided is incorrect."
            }
          },
          "500": {
            "description": "Internal Server Error",
            "headers": {
              "Date": {
                "type": "string",
                "format": "date-time",
                "description": "Date of Transaction",
                "x-example": "2002-09-24+06:00"
              },
              "Content-Type": {
                "type": "string",
                "format": "application/json",
                "description": "Type of returned content",
                "x-example": "application/json"
              }
            },
            "schema": {
              "$ref" : "#/definitions/HttpErrorResponse"
            },
            "examples" : {
              "code" : "500",
              "systemMessage" : "Internal Server Error",
              "userMessage" : "The server encountered an unexpected condition that prevented it from fulfilling the request"
            }
          },
          "503": {
            "description": "Service Unavailable",
            "headers": {
              "Date": {
                "type": "string",
                "format": "date-time",
                "description": "Date of Transaction",
                "x-example": "2002-09-24+06:00"
              },
              "Content-Type": {
                "type": "string",
                "format": "application/json",
                "description": "Type of returned content",
                "x-example": "application/json"
              }
            },
            "schema": {
              "$ref" : "#/definitions/HttpErrorResponse"
            },
            "examples" : {
              "code" : "503",
              "systemMessage" : "Service Unavailable",
              "userMessage" : "The server is currently unable to handle the request due to a temporary overload or scheduled maintenance"
            }
          }
        }
      }
    }
  },

  "securityDefinitions" : {
    "Basic": {
      "type": "basic",
      "description": "Standard basic authentication"
    }
  },
  "definitions" : {
    "CheckMsisdnAndSendPinRequest" : {
      "description": "The request format for checking msisdn",
      "type":"object",
      "required": [
        "userId",
        "msisdn",
        "deviceType",
        "clientId",
        "redirectUri",
        "remTransId",
        "euiFlow"
      ],
      "properties" : {
        "userId" : {
          "type" : "string",
          "format": "string",
          "description": "userid",
          "example": "U-6dedd8ce-fb99-4c63-8344-3a695cd7d46f"
        },
        "clientId" : {
          "type" : "string",
          "format": "string",
          "description": "client Id",
          "example": "MYTMO_STG"
        },
        "msisdn" : {
          "type" : "string",
          "format": "string",
          "description": "msisdn",
          "example": "2067753653"
        },
        "deviceType" : {
          "type" : "string",
          "format": "string",
          "description": "device type",
          "example": "desktop"
        },
        "redirectUri" : {
            "type" : "string",
            "format": "string",
            "description": "uri to reditect",
            "example": "https://e5.my.t-mobile.com"
          },
          "remTransId" : {
            "type" : "string",
            "format": "string",
            "description": "rem transaction id",
            "example": "1535408432813_vvbet_0820832352"
          },
          "euiFlow" : {
            "type" : "string",
            "format": "string",
            "description": "eui flow",
            "example": "PROFILE_MANAGEMENT"
          }
      }
    },
    "CheckMsisdnAndSendPinResponse" : {
      "description": "After successfully verifying the MSISDN and sending pin",
      "type": "object",
      "properties" : {
        "lineType" : {
          "type" : "string",
          "format": "string",
          "description": "line Type",
          "example": "Universe"
        },
        "sct" : {
            "type" : "string",
            "format": "string",
            "description": "sct",
            "example": "PPIN"
          },
          "lineAccount" : {
            "type" : "string",
            "format": "string",
            "description": "sct",
            "example": "7174668512"
          },
          "tmaccounttypesubtype" : {
            "type" : "string",
            "format": "string",
            "description": "sct",
            "example": "subtype"
          }

      }
    },
    "HttpErrorResponse" : {
      "description": "Common Error response format",
      "type" : "object",
      "required" : [
        "code",
        "userMessage"
      ],
      "properties" : {
        "code" : {
          "type" : "string",
          "format" : "string",
          "description" : "The error code.",
          "example" : "400"
        },
        "systemMessage" : {
          "type" : "string",
          "format" : "string",
          "description" : "The error code description.",
          "example" : "Unauthorized"
        },
        "userMessage" : {
          "type" : "string",
          "format" : "string",
          "description" : "Human readable error message",
          "example" : "The server failed unexpectedly."
        }
      }
    }
  }
}
