{
  "swagger": "2.0",
  "info": {
    "version": "1.0.0",
    "title": "genCode"
  },
  "host": "ppd.brass.account.t-mobile.com",
  "basePath": "/genCode",
  "schemes": [
    "https"
  ],
  "consumes": [
    "application/json"
  ],
  "produces": [
    "application/json"
  ],
  "paths": {
    "/genCode": {
      "post": {
        "x-api-pattern": "ExecuteFunction",
        "description": "genCode",
        "parameters": [
          {
            "name": "",
            "x-example": "string",
            "in": "body",
            "description": "Request body",
            "schema": {
              "$ref": "#/definitions/genCodeRequest"
            }
          },
          {
            "name": "Content-Type",
            "x-example": "string",
            "in": "header",
            "required": true,
            "format": "string",
            "type": "string",
            "description": "Application/Json"
          },
          {
            "name": "Authorization",
            "x-example": "string",
            "in": "header",
            "required": true,
            "format": "string",
            "type": "string",
            "description": "Bearer 01.SYS.K1kRYLMuH26daxGST"
          }
        ],
        "responses": {
          "200": {
            "description": "It contains the authorization_code",
            "schema": {
              "$ref": "#/definitions/genCodeResponse"
            }
          },
          "400": {
            "description": "Bad Request.",
            "schema": {
              "$ref": "#/definitions/ErrorResponse"
            }
          }
        }
      }
    }
  },
  "definitions": {
    "genCodeRequest": {
      "type": "object",
      "properties": {
        "response_type": {
          "type": "string",
          "description": "response_type code"
        },
        "user_id": {
          "type": "string",
          "description": "user id contains UID like uid:U-b4e0fc3d-c040-48f7-845a-ed464cd34ea7,"
        },
        "client_id": {
          "type": "string",
          "description": "cobalt"
        },
        "scope": {
          "type": "string",
          "description": "scope values should be in array which is supported by the client id"
        },
        "trans_id": {
          "type": "string",
          "description": "ramdom string"
        },
        "redirect_uri": {
          "type": "string",
          "description": "redirect url repective to the client id"
        },
        "access_type": {
          "type": "string",
          "description": "this will ONLINE"
        }
      }
    },
    "genCodeResponse": {
      "type": "object",
      "properties": {
        "authorization_code": {
          "type": "string",
          "example": "yes",
          "description": "some value"
        }
      },
      "example": {
        "authorization_code": "string"
      }
    },
    "ErrorResponse": {
      "type": "object",
      "properties": {
        "error": {
          "type": "string",
          "description": "Some error"
        },
        "error_description": {
          "type": "string",
          "description": "Some error"
        }
      }
    }
  }
}