{
  "swagger": "2.0",
  "info": {
    "version": "1.0.0",
    "title": "RAS logout",
    "description": "A micro service with Restful and extensible native extensions for use by the T-Mobile APP."
  },
  "x-servers": [
    {
      "url": "https://{Environment}.brass.account.t-mobile.com",
      "variables": {
        "Environment": {
          "enum": [
            "dev",
            "qat",
            "uat",
            "plab",
            "ppd"
          ],
          "default": "uat"
        }
      }
    }
  ],
  "basePath": "/ras/v2",
  "schemes": [
    "https"
  ],
  "consumes": [
    "application/json"
  ],
  "produces": [
    "application/json"
  ],
  "tags": [
    {
      "name": "Get access token",
      "description": "API that returns access token response and user token (JWT) and user info for given user_id, password and scope parameters."
    }
  ],
  "paths": {
    "/logout": {
      "post": {
        "x-api-pattern": "ExecuteFunction",
        "summary": "Retrieves the access token",
        "description": "This API is used to logout from the application",
        "tags": [
          "logout"
        ],
        "parameters": [
          {
            "name": "Content-Type",
            "in": "header",
            "type": "string",
            "required": true
          },
          {
            "name": "Authorization",
            "in": "header",
            "type": "string",
            "required": true,
            "description": "DAT token"
          },
          {
            "name": "x-Authorization",
            "in": "header",
            "type": "string",
            "required": true,
            "description": "POP token"
          },
          {
            "name": "trans_id",
            "in": "query",
            "type": "string",
            "required": true,
            "description": "in which flow this get call gets triggered"
          },
          {
            "name": "client_id",
            "in": "query",
            "type": "string",
            "required": false
          },
          {
            "name": "sso_session_id",
            "in": "query",
            "type": "string",
            "required": true,
            "description": "in which user session details"
          },
          {
            "name": "lang",
            "in": "query",
            "type": "string",
            "required": false,
            "description": "possible values would be en or es"
          }
        ],
        "responses": {
          "200": {
            "description": "Tells the client to look at (browse to) another url.  If there is any error, will prepare an error object and stringify that object and append this to the host. And below are the different types of redirect urls based on flow param and in case of error scenarios",
            "schema": {
              "$ref": "#/definitions/RedirectUrl"
            }
          },
          "400": {
            "description": "JSON response for bad input, instances like invalid access token",
            "schema": {
              "$ref": "#/definitions/ErrorResponse"
            },
            "examples": {
              "application/json": {
                "status": 400,
                "error": "Error while performing logout",
                "error_description": "Error while performing logout"
              }
            }
          }
        }
      }
    }
  },
  "definitions": {
    "RedirectUrl": {
      "description": "Redirect url to navigate",
      "type": "string",
      "example": "signup - https:account.t-mobile.com/signup/v2?flow=signup&state=false&lang=en-us&display=app&scope=TMO_ID_profile%20associated_lines&response_type=code&re_auth=auto&access_type=online&redirect_uri=https%3A%2F%2Feas3.msg.t-mobile.com%2Foauth2%2Fv1%2Ftoken&client_id=WSGconapp&approval_prompt=auto\n\nlogin - https:account.t-mobile.com/signup/v1?flow=login&state=false&lang=en-us&display=app&scope=TMO_ID_profile%20associated_lines&response_type=code&re_auth=auto&access_type=online&redirect_uri=https%3A%2F%2Feas3.msg.t-mobile.com%2Foauth2%2Fv1%2Ftoken&client_id=WSGconapp&approval_prompt=auto'\n\nmissing actions - https:account.t-mobile.com/oauth2/v1/auth?flow=actions&state=false&lang=en-us&display=app&scope=TMO_ID_profile%20associated_lines&response_type=code&re_auth=auto&access_type=online&redirect_uri=https%3A%2F%2Feas3.msg.t-mobile.com%2Foauth2%2Fv1%2Ftoken&client_id=WSGconapp&approval_prompt=auto\n\nmissing required query params - https:account.t-mobile.com/oauth2/v1/auth?error={\"statusCode\":403,\"error_code\":\"invalid_oauth_parameters\",\"error_description\":\"No required query parameters in the request\"}'\n\ndat or pop validation failed - 'https:account.t-mobile.com/oauth2/v1/auth?error={\"statusCode\":401,\"error_code\":\"Unauthorized\",\"error_description\":\"Unauthorized client\"}\n\nany other error - https:account.t-mobile.com/oauth2/v1/auth?error={\"statusCode\":500,\"error_code\":\"internal_server_error\",\"error_description\":\"Uh-oh, it looks like we have our wires crossed. Please try again later.\"}"
    },
    "ErrorResponse": {
      "type": "object",
      "properties": {
        "error": {
          "type": "string"
        },
        "error_description": {
          "type": "string"
        }
      }
    }
  }
}
