{
  "swagger": "2.0",
  "info": {
    "description": "This service updates the cart with payment and address details.",
    "version": "1.0.2",
    "title": "Payments Service",
    "contact": {
      "name": "shashi",
      "email": "shashi.bandi4@t-mobile.com"
    }
  },
  "host": "dit01.api.t-mobile.com",
  "basePath": "/reb2-payment/v1",
  "schemes": [
    "https"
  ],
  "consumes": [
    "application/json"
  ],
  "produces": [
    "application/json"
  ],
  "paths": {
    "/cart/{cartId}/payments/checkoutUpdate": {
      "post": {
        "summary": "This API is used to update cart.",
        "description": "",
        "parameters": [
          {
            "name": "cartId",
            "in": "path",
            "description": "Cart Id",
            "type": "string",
            "required": true,
            "pattern": ".+",
            "x-example": {}
          },
          {
            "name": "Content-Type",
            "in": "header",
            "type": "string",
            "required": true,
            "description": "Request message format as application/json or application/xml (default assumed application/json)",
            "pattern": ".+",
            "x-example": {}
          },
          {
            "name": "Accept",
            "in": "header",
            "type": "string",
            "required": false,
            "description": "Content-Types that are acceptable including application/json or application/xml (default assumed application/json)",
            "x-example": {}
          },
          {
            "name": "api-version",
            "in": "header",
            "type": "string",
            "required": false,
            "description": "API version.",
            "x-example": {}
          },
          {
            "name": "interactionId",
            "in": "header",
            "type": "string",
            "required": true,
            "description": "Alphanumeric value represent a common transaction id across all calls made from UI, while completing all business activity needs of a particular customer.",
            "pattern": ".+",
            "x-example": {}
          },
          {
            "name": "channelId",
            "in": "header",
            "type": "string",
            "enum": [
              "WEB",
              "RETAIL",
              "CARE",
              "NA"
            ],
            "required": true,
            "description": "Channel identifier. NA is treated as default.",
            "x-example": {}
          },
          {
            "name": "applicationId",
            "in": "header",
            "type": "string",
            "enum": [
              "TMO",
              "MYTMO",
              "NA"
            ],
            "required": true,
            "description": "Consuming Application identifier. NA is treated as default. More values will be added to swagger as clients are onboarded.",
            "x-example": {}
          },
          {
            "name": "storeId",
            "in": "header",
            "type": "string",
            "required": false,
            "description": "Unique identifier for the retail store location. Mandatory for FullService  (Tmobile RETAIL channel). Need to discuss with T-Mobile business liaison if there is a need for Partner to pass their retail Store Id).",
            "x-example": {}
          },
          {
            "name": "body",
            "in": "body",
            "required": true,
            "description": "Request details for the Payment Request.",
            "schema": {
              "$ref": "#/definitions/PaymentAddressRequest"
            },
            "x-example": {}
          },
          {
            "name": "If-Modified-Since",
            "in": "header",
            "description": "The If-Modified-Since header specifies date-related conditions to be placed on the execution of a request.  The request will only be executed if the requested resource has not been modified since the date-time specified.  Because the behavior is complex, the details for usage are provided at http://www.w3.org/Protocols/rfc2616/rfc2616-sec14.html",
            "x-example": "Wed, 18-Apr-2018 11:34:57 GMT",
            "required": false,
            "type": "string"
          },
          {
            "name": "If-None-Match",
            "in": "header",
            "description": "The If-None-Match header specifies an ETag-related condition to be placed on the execution of a request.  The request will NOT be executed if the ETag of the requested resource matches one of those specified in the If-None-Match header.  Because the behavior is complex, the details for usage are provided at http://www.w3.org/Protocols/rfc2616/rfc2616-sec14.html",
            "x-example": "*",
            "required": false,
            "type": "string"
          }
        ],
        "tags": [
          "Payments"
        ],
        "responses": {
          "201": {
            "description": "Payment details added successfully to the cart.",
            "headers": {
              "Cache-Control": {
                "description": "No cache indicators supported at this time. Samples: no-cache",
                "x-example": "no-cache",
                "type": "string"
              },
              "Content-Encoding": {
                "description": "The type of encoding used on the data",
                "x-example": "gzip,deflate",
                "type": "string"
              },
              "Content-Language": {
                "description": "The natural language or languages of the intended audience for the enclosed content",
                "x-example": "da",
                "type": "string"
              },
              "Content-Length": {
                "description": "The Content-Length header specifies the actual length of the returned payload.",
                "x-example": "1024",
                "type": "string"
              },
              "Content-Type": {
                "description": "The MIME type of this content",
                "x-example": "text/xml",
                "pattern": "^[\\S]*$",
                "type": "string"
              },
              "Date": {
                "description": "The date and time that the message was originated (in HTTP-date format as defined by RFC 7231 Date/Time Formats).",
                "x-example": "Wed, 18-Apr-2018 11:34:57 GMT",
                "type": "string",
                "format": "date-time"
              },
              "ETag": {
                "description": "The ETag header specifies the unique entity tag value for the returned resource.",
                "x-example": "*",
                "type": "string"
              },
              "Last-Modified": {
                "description": "The Last-Modified entity-header field indicates the date and time at which the origin server believes the variant was last modified.",
                "x-example": "Wed, 18-Apr-2018 11:34:57 GMT",
                "type": "string",
                "format": "date-time"
              },
              "Transfer-Encoding": {
                "description": "The form of encoding used to safely transfer the entity to the user. Currently defined methods are: chunked, compress, deflate, gzip, identity.",
                "x-example": "chunked",
                "type": "string"
              },
              "servicetransactionid": {
                "description": "Internal identifier for transaction tracking an individual transaction/API request within API platform. Don_t receive/don_t send to downstream",
                "x-example": "23409209723",
                "type": "string"
              },
              "If-Match": {
                "description": "the If-Match HTTP request header makes the request conditional. For GET and HEAD methods, the server will send back the requested resource only if it matches one of the listed ETags. For PUT and other non-safe methods, it will only upload the resource in this case.",
                "x-example": "*",
                "type": "string"
              },
              "If-None-Match": {
                "description": "the If-Match HTTP request header makes the request conditional. For GET and HEAD methods, the server will send back the requested resource only if it matches one of the listed ETags. For PUT and other non-safe methods, it will only upload the resource in this case.",
                "x-example": "*",
                "type": "string"
              }
            }
          },
          "304": {
            "description": "Not Modified",
            "headers": {
              "Cache-Control": {
                "description": "No cache indicators supported at this time. Samples: no-cache",
                "x-example": "no-cache",
                "type": "string"
              },
              "ETag": {
                "description": "The ETag header specifies the unique entity tag value for the returned resource.",
                "x-example": "*",
                "type": "string"
              }
            }
          },
          "400": {
            "description": "Bad Request",
            "schema": {
              "type": "array",
              "description": "An array of error objects.",
              "minItems": 1,
              "items": {
                "$ref": "#/definitions/Error"
              }
            },
            "examples": {
              "application/json": [
                {
                  "code": "400",
                  "userMessage": "Bad Request",
                  "systemMessage": "Bad Request"
                }
              ]
            },
            "headers": {}
          },
          "401": {
            "description": "Unauthorized",
            "schema": {
              "type": "array",
              "description": "An array of error objects.",
              "minItems": 1,
              "items": {
                "$ref": "#/definitions/Error"
              }
            },
            "examples": {
              "application/json": [
                {
                  "code": "401",
                  "userMessage": "Unauthorized",
                  "systemMessage": "Unauthorized"
                }
              ]
            },
            "headers": {}
          },
          "403": {
            "description": "Client access denied",
            "schema": {
              "type": "array",
              "description": "An array of error objects.",
              "minItems": 1,
              "items": {
                "$ref": "#/definitions/Error"
              }
            },
            "examples": {
              "application/json": [
                {
                  "code": "403",
                  "userMessage": "Client access denied",
                  "systemMessage": "Client access denied"
                }
              ]
            },
            "headers": {}
          },
          "404": {
            "description": "Resource not found",
            "schema": {
              "type": "array",
              "description": "An array of error objects.",
              "minItems": 1,
              "items": {
                "$ref": "#/definitions/Error"
              }
            },
            "examples": {
              "application/json": [
                {
                  "code": "404",
                  "userMessage": "Resource not found",
                  "systemMessage": "Resource not found"
                }
              ]
            },
            "headers": {}
          },
          "405": {
            "description": "Method Not Allowed",
            "schema": {
              "type": "array",
              "description": "An array of error objects.",
              "minItems": 1,
              "items": {
                "$ref": "#/definitions/Error"
              }
            },
            "examples": {
              "application/json": [
                {
                  "code": "405",
                  "userMessage": "Method Not Allowed",
                  "systemMessage": "Method Not Allowed"
                }
              ]
            },
            "headers": {}
          },
          "406": {
            "description": "Mismatching data format",
            "schema": {
              "type": "array",
              "description": "An array of error objects.",
              "minItems": 1,
              "items": {
                "$ref": "#/definitions/Error"
              }
            },
            "examples": {
              "application/json": [
                {
                  "code": "406",
                  "userMessage": "Mismatching data format",
                  "systemMessage": "Mismatching data format"
                }
              ]
            },
            "headers": {}
          },
          "500": {
            "description": "System Error",
            "schema": {
              "type": "array",
              "description": "An array of error objects.",
              "minItems": 1,
              "items": {
                "$ref": "#/definitions/Error"
              }
            },
            "examples": {
              "application/json": [
                {
                  "code": "500",
                  "userMessage": "System Error",
                  "systemMessage": "System Error"
                }
              ]
            },
            "headers": {}
          },
          "503": {
            "description": "Service unavailable",
            "schema": {
              "type": "array",
              "description": "An array of error objects.",
              "minItems": 1,
              "items": {
                "$ref": "#/definitions/Error"
              }
            },
            "examples": {
              "application/json": [
                {
                  "code": "503",
                  "userMessage": "Service unavailable",
                  "systemMessage": "Service unavailable"
                }
              ]
            },
            "headers": {}
          }
        },
        "operationId": "CheckoutUpdate",
        "security": [
          {
            "Oauth": []
          }
        ]
      }
    }
  },
  "definitions": {
    "PaymentAddressRequest": {
      "required": [
        "transactionType",
        "payment"
      ],
      "properties": {
        "transactionType": {
          "type": "string",
          "description": "TYPE OF TRANSACTION ",
          "x-example": "REFUND",
          "pattern": ".+"
        },
        "orderType": {
          "type": "string",
          "description": "TYPE OF Order ",
          "x-example": "RETURN",
          "pattern": ".+"
        },
        "reason": {
          "type": "string",
          "description": "TYPE OF reason",
          "x-example": "REMORSE,EXCHANGE",
          "pattern": ".+"
        },
        "originalOrderId": {
          "type": "string",
          "description": "Orginal purchase confirmation number",
          "x-example": "CTMYY0T5G53409",
          "pattern": ".+"
        },
        "payment": {
          "type": "array",
          "items": {
            "type": "object",
            "properties": {
              "newRefund": {
                "required": [
                  "paymentMethodCode",
                  "receivedPaymentId"
                ],
                "properties": {
                  "paymentMethodCode": {
                    "type": "string",
                    "description": "payment type",
                    "x-example": "credit,debit,cash",
                    "pattern": ".+"
                  },
                  "receivedPaymentId": {
                    "type": "string",
                    "description": "received PaymentId",
                    "x-example": "GSK783224",
                    "pattern": ".+"
                  }
                },
                "type": "object",
                "description": "payment Info",
                "x-example": "credit or debit,cash,giftCard"
              },
              "authorizationAmount": {
                "required": [
                  "currencyCode",
                  "text"
                ],
                "properties": {
                  "currencyCode": {
                    "type": "string",
                    "description": "type of currency",
                    "x-example": "USD or $",
                    "pattern": ".+"
                  },
                  "text": {
                    "type": "string",
                    "description": "amount",
                    "x-example": "20,100",
                    "pattern": ".+"
                  }
                },
                "type": "object",
                "description": "cash details",
                "x-example": "20,30"
              },
              "payeeParty": {
                "required": [
                  "personName"
                ],
                "properties": {
                  "personName": {
                    "required": [
                      "firstName",
                      "middleName",
                      "familyName"
                    ],
                    "properties": {
                      "firstName": {
                        "type": "string",
                        "description": "firstName",
                        "x-example": "shashi",
                        "pattern": ".+"
                      },
                      "middleName": {
                        "type": "string",
                        "description": "middle name",
                        "x-example": "/*ToDO*/ Some Example",
                        "pattern": ".+"
                      },
                      "familyName": {
                        "type": "string",
                        "description": "familyName",
                        "x-example": "string",
                        "pattern": ".+"
                      }
                    },
                    "type": "object",
                    "description": "customerInfo",
                    "x-example": "firstName,lastName"
                  }
                },
                "type": "object",
                "description": "Info",
                "x-example": "dfghgrtyuiuop"
              },
              "addressCommunication": {
                "required": [
                  "id",
                  "address",
                  "usageContext"
                ],
                "properties": {
                  "id": {
                    "type": "string",
                    "description": "id",
                    "x-example": "1",
                    "pattern": ".+"
                  },
                  "address": {
                    "required": [
                      "addressLine1",
                      "addressLine2",
                      "postalCode",
                      "cityName",
                      "stateCode"
                    ],
                    "properties": {
                      "addressLine1": {
                        "type": "string",
                        "description": "addressLine1",
                        "x-example": "sdnskjkl",
                        "pattern": ".+"
                      },
                      "addressLine2": {
                        "type": "string",
                        "description": "addressLine2",
                        "x-example": "acdfghjke",
                        "pattern": ".+"
                      },
                      "postalCode": {
                        "type": "string",
                        "description": "ZipCode of the customer",
                        "x-example": "98007",
                        "pattern": ".+"
                      },
                      "cityName": {
                        "type": "string",
                        "description": "name of city",
                        "x-example": "Bellevue",
                        "pattern": ".+"
                      },
                      "stateCode": {
                        "type": "string",
                        "description": "stateCode",
                        "x-example": "5868",
                        "pattern": ".+"
                      }
                    },
                    "type": "object",
                    "description": "addressInfo",
                    "x-example": "akjsakk"
                  },
                  "usageContext": {
                    "type": "array",
                    "items": {
                      "type": "string",
                      "description": "mailling Info",
                      "x-example": "Some Example",
                      "pattern": ".+"
                    },
                    "description": " Some description",
                    "x-example": " Some Example"
                  }
                },
                "type": "object",
                "description": "Some description",
                "x-example": " Some Example"
              }
            },
            "description": "Some description",
            "x-example": " Some Example"
          },
          "description": " Some description",
          "x-example": "Some Example"
        }
      },
      "type": "object",
      "description": " Some description",
      "x-example": " Some Example"
    },
    "Error": {
      "type": "object",
      "description": "As defined in https://tmobileusa.sharepoint.com/teams/EnterpriseServices/ESG%20Standards%20Documents/APIs/T-Mobile%20API%20Design%20Guidelines%20v1.0.docx",
      "properties": {
        "code": {
          "description": "A succinct, domain-specific, human-readable text string to identify the type of error for the given status code",
          "type": "string"
        },
        "userMessage": {
          "description": "A human-readable message describing the error.",
          "type": "string"
        },
        "systemMessage": {
          "description": "Text that provides a more detailed technical explanation of the error",
          "type": "string"
        },
        "errorDetailUrl": {
          "description": "link to custom information providing greater detail on error or errors",
          "type": "string"
        }
      }
    }
  },
  "x-servers": [],
  "tags": [],
  "securityDefinitions": {
    "Oauth": {
      "type": "oauth2",
      "description": "When you sign up for an account, you are given your first API key\n",
      "tokenUrl": "https://dlab03.core.op.api.t-mobile.com:443/v2/oauth2/accesstoken?grant_type=client_credentials",
      "flow": "application",
      "scopes": {}
    }
  }
}