@startuml
title __Card Type Validation__

participant Clients
participant Gateway
participant CardTypeValidation
database BinReferenceData
participant Processor

box "Apigee" #FFFFFF
    participant Gateway
end box

box "DPS" #FFFFFF
participant CardTypeValidation
entity BinReferenceData
end box

box "External partner" #FFFFFF
    participant Processor
end box

Processor -> BinReferenceData: Offline Process 

autonumber
scale 2/3

Clients -> Gateway : payments/v3/cardtypevalidations
Gateway -> CardTypeValidation: Bin look up (MicroService)
CardTypeValidation -> BinReferenceData : DB Call

@enduml