@startuml
skinparam SequenceMessageAlign center
Actor "MBC/DUS" as Source
participant "HAProxy" as Gateway
participant "TIBCOCE" as TIBCOCE
participant "SAMSON" as SAMSON
participant "BWESOA" as BWESOA
participant "NotificationService" as NotificationService

Source -> Gateway : [[../DICE/ce.dsg.dice.mpcs.noFileFound.svg Source]] triggers event by publishing XML over HTTP on <Color:green><B>'TMOBILE.%%TMO/Env/Env_Name%%.DUS.DPFINFO.UPDATE'</B></Color> RV Subject via HAProxy/GenericHTTPAdapter.
	Gateway -> TIBCOCE : Receives request and routes it to TIBCOCE handler <Color:green><B>"UpdateDPFInfo"</B></Color>	
		opt if CustomerType=2
			opt if string-length(CustomerID)!=10 and starts-with(CustomerID),'5')=false() in the request
				TIBCOCE -> SAMSON : If yes make Tuxedo call to SAMSON's [[../DICE/ce.dsg.dice.mpcs.noFileFound.svg evGtSubInfo]] API to get Customer Info
				SAMSON -> TIBCOCE : Return response
				opt if AccountType=('METRO') from evGtSubInfo API call
					TIBCOCE -> BWESOA : If yes send message to JMSQueue <Color:green><B>'TMOBILE.%%TMO/Env/Env_Name%%.ESOA.SUBSCRIBER.DPFINFO.UPDATE'</B></Color>
						opt if senderId='METRO' and CounterEvent in ("20|50|80") from request payload
							BWESOA -> NotificationService : If yes invoke [[../DICE/ce.dsg.dice.mpcs.notification.notifyDataUsage.svg NotificationService.notifyDataUsageActivity]] operation SOAP call
							NotificationService -> BWESOA : Return response								
						end
					BWESOA -> TIBCOCE : Return response						
				end					
			end
		end			
	TIBCOCE->Gateway : Return Response to Gateway
Gateway->Source : Return Response to Client
@enduml