{
  "swagger": "2.0",
  "info": {
    "description": "Tuxedo Rest APIs",
    "version": "1.0",
    "title": "Tuxedo API Swagger 2.0",
    "license": {
      "name": "TMUS"
    }
  },
  "host": "service-samson-qlab03.test.px-npe01.cf.t-mobile.com",
  "basePath": "/",
  "tags": [
    {
      "name": "Tuxedo-API",
      "description": "ev Gt Cust Info Controller"
    }
  ],
  "paths": {
    "/tuxedo/api/evGtCustInfo": {
      "post": {
        "tags": [
          "Tuxedo-API"
        ],
        "summary": "evGtCustInfo",
        "description": "Invokes evGtCustInfo Tuxedo Service.",
        "operationId": "invokeUsingPOST_12",
        "consumes": [
          "application/json"
        ],
        "produces": [
          "application/json",
          "*/*"
        ],
        "parameters": [
          {
            "in": "body",
            "name": "p_evGtCustInfoInput",
            "description": "p_evGtCustInfoInput",
            "required": true,
            "schema": {
              "$ref": "#/definitions/evGtCustInfoInput"
            }
          }
        ],
        "responses": {
          "200": {
            "description": "OK",
            "schema": {
              "$ref": "#/definitions/evGtCustInfoOutput"
            }
          },
          "201": {
            "description": "Created"
          },
          "401": {
            "description": "Unauthorized"
          },
          "403": {
            "description": "Forbidden"
          },
          "404": {
            "description": "Not Found"
          }
        }
      }
    }
  },
  "definitions": {
    "evGtCustInfoOutput": {
      "type": "object",
      "properties": {
        "accountSubType": {
          "type": "string"
        },
        "accountType": {
          "type": "string"
        },
        "additionalTitle": {
          "type": "array",
          "items": {
            "type": "string"
          }
        },
        "addressId": {
          "type": "array",
          "items": {
            "type": "number",
            "format": "double"
          }
        },
        "adrAptDesignator": {
          "type": "array",
          "items": {
            "type": "string"
          }
        },
        "adrAptNm": {
          "type": "array",
          "items": {
            "type": "string"
          }
        },
        "adrAttention": {
          "type": "array",
          "items": {
            "type": "string"
          }
        },
        "adrBarcodeSuffix": {
          "type": "array",
          "items": {
            "type": "string"
          }
        },
        "adrCarrierCode": {
          "type": "array",
          "items": {
            "type": "string"
          }
        },
        "adrCity": {
          "type": "array",
          "items": {
            "type": "string"
          }
        },
        "adrCountry": {
          "type": "array",
          "items": {
            "type": "string"
          }
        },
        "adrCounty": {
          "type": "array",
          "items": {
            "type": "string"
          }
        },
        "adrExpireDate": {
          "type": "array",
          "items": {
            "type": "string"
          }
        },
        "adrFieldedInd": {
          "type": "array",
          "items": {
            "type": "string"
          }
        },
        "adrHouseNo": {
          "type": "array",
          "items": {
            "type": "string"
          }
        },
        "adrIncorpInd": {
          "type": "array",
          "items": {
            "type": "string"
          }
        },
        "adrLatLong": {
          "type": "array",
          "items": {
            "type": "string"
          }
        },
        "adrMode": {
          "type": "array",
          "items": {
            "type": "string"
          }
        },
        "adrPob": {
          "type": "array",
          "items": {
            "type": "string"
          }
        },
        "adrPrimaryLn": {
          "type": "array",
          "items": {
            "type": "string"
          }
        },
        "adrRowId": {
          "type": "array",
          "items": {
            "type": "string"
          }
        },
        "adrRrHwBoxNm": {
          "type": "array",
          "items": {
            "type": "string"
          }
        },
        "adrRrHwCntrNm": {
          "type": "array",
          "items": {
            "type": "string"
          }
        },
        "adrSecondaryLn": {
          "type": "array",
          "items": {
            "type": "string"
          }
        },
        "adrStDirection": {
          "type": "array",
          "items": {
            "type": "string"
          }
        },
        "adrStateCode": {
          "type": "array",
          "items": {
            "type": "string"
          }
        },
        "adrStatus": {
          "type": "array",
          "items": {
            "type": "string"
          }
        },
        "adrStreetName": {
          "type": "array",
          "items": {
            "type": "string"
          }
        },
        "adrStreetSuffix": {
          "type": "array",
          "items": {
            "type": "string"
          }
        },
        "adrTaxAreaId": {
          "type": "array",
          "items": {
            "type": "string"
          }
        },
        "adrTaxCity": {
          "type": "array",
          "items": {
            "type": "string"
          }
        },
        "adrTrailingDir": {
          "type": "array",
          "items": {
            "type": "string"
          }
        },
        "adrType": {
          "type": "array",
          "items": {
            "type": "string"
          }
        },
        "adrUncertaintyInd": {
          "type": "array",
          "items": {
            "type": "string"
          }
        },
        "adrUpType": {
          "type": "array",
          "items": {
            "type": "string"
          }
        },
        "adrZip": {
          "type": "array",
          "items": {
            "type": "string"
          }
        },
        "adrZip4": {
          "type": "array",
          "items": {
            "type": "string"
          }
        },
        "adrZipGeoCode": {
          "type": "array",
          "items": {
            "type": "string"
          }
        },
        "allowStackPlan": {
          "type": "string"
        },
        "allowdLineType": {
          "type": "string"
        },
        "applicationId": {
          "type": "string"
        },
        "approvedLines": {
          "type": "integer",
          "format": "int32"
        },
        "ban": {
          "type": "integer",
          "format": "int32"
        },
        "banTenure": {
          "type": "integer",
          "format": "int32"
        },
        "banZeroMigElgInd": {
          "type": "string"
        },
        "behaviorScore": {
          "type": "integer",
          "format": "int32"
        },
        "billLocationInd": {
          "type": "string"
        },
        "billMethod": {
          "type": "string"
        },
        "billMethodEffDate": {
          "type": "string"
        },
        "blNextCycEffDate": {
          "type": "string"
        },
        "busiFamilyDisc": {
          "type": "string"
        },
        "channelId": {
          "type": "string"
        },
        "contactTelno": {
          "type": "string"
        },
        "contactTnExtno": {
          "type": "string"
        },
        "controlName": {
          "type": "array",
          "items": {
            "type": "string"
          }
        },
        "creditClass": {
          "type": "string"
        },
        "crossDataStack": {
          "type": "string"
        },
        "csnInd": {
          "type": "string"
        },
        "curBillSeqNo": {
          "type": "integer",
          "format": "int32"
        },
        "custLastSimDate": {
          "type": "string"
        },
        "customerId": {
          "type": "array",
          "items": {
            "type": "integer",
            "format": "int32"
          }
        },
        "customerSsn": {
          "type": "integer",
          "format": "int32"
        },
        "cycleCloseDate": {
          "type": "string"
        },
        "cycleCode": {
          "type": "integer",
          "format": "int32"
        },
        "dateOfBirth": {
          "type": "string"
        },
        "defaultSubMarket": {
          "type": "string"
        },
        "delinqStatus": {
          "type": "string"
        },
        "determinationInd": {
          "type": "array",
          "items": {
            "type": "string"
          }
        },
        "directive": {
          "type": "integer",
          "format": "int32"
        },
        "dsReference": {
          "type": "string"
        },
        "dueDate": {
          "type": "string"
        },
        "easyPayInd": {
          "type": "string"
        },
        "effectiveDate": {
          "type": "array",
          "items": {
            "type": "string"
          }
        },
        "email": {
          "type": "array",
          "items": {
            "type": "string"
          }
        },
        "envCode": {
          "type": "string"
        },
        "epsInd": {
          "type": "string"
        },
        "firstDirective": {
          "type": "integer",
          "format": "int32"
        },
        "firstName": {
          "type": "array",
          "items": {
            "type": "string"
          }
        },
        "flexPayPoolingKey": {
          "type": "string"
        },
        "foreignSeqNo": {
          "type": "array",
          "items": {
            "type": "integer",
            "format": "int32"
          }
        },
        "futureDatedActInd": {
          "type": "string"
        },
        "geminiDiscount": {
          "type": "string"
        },
        "generation": {
          "type": "integer",
          "format": "int32"
        },
        "groupTrxId": {
          "type": "integer",
          "format": "int32"
        },
        "gsmDataStack": {
          "type": "string"
        },
        "gsmVoiceStack": {
          "type": "string"
        },
        "hierarchyId": {
          "type": "number",
          "format": "double"
        },
        "homeTelno": {
          "type": "string"
        },
        "lastBusinessName": {
          "type": "array",
          "items": {
            "type": "string"
          }
        },
        "lastMonthTotal": {
          "type": "number",
          "format": "double"
        },
        "lastUpdateDate": {
          "type": "string"
        },
        "lastUpdateStamp": {
          "type": "integer",
          "format": "int32"
        },
        "lifelineInd": {
          "type": "string"
        },
        "linkRowId": {
          "type": "array",
          "items": {
            "type": "string"
          }
        },
        "linkSeqNo": {
          "type": "array",
          "items": {
            "type": "number",
            "format": "double"
          }
        },
        "linkType": {
          "type": "array",
          "items": {
            "type": "string"
          }
        },
        "lnkRecban": {
          "type": "array",
          "items": {
            "type": "integer",
            "format": "int32"
          }
        },
        "manualGeoCodeInd": {
          "type": "array",
          "items": {
            "type": "string"
          }
        },
        "marketCode": {
          "type": "string"
        },
        "mbbDataStack": {
          "type": "string"
        },
        "mcErrorCode": {
          "type": "integer",
          "format": "int32"
        },
        "mcErrorText": {
          "type": "string"
        },
        "mcWarningCnt": {
          "type": "integer",
          "format": "int32"
        },
        "mcWarningCode1": {
          "type": "integer",
          "format": "int32"
        },
        "mcWarningCode2": {
          "type": "integer",
          "format": "int32"
        },
        "mcWarningCode3": {
          "type": "integer",
          "format": "int32"
        },
        "mcWarningCode4": {
          "type": "integer",
          "format": "int32"
        },
        "mcWarningCode5": {
          "type": "integer",
          "format": "int32"
        },
        "mcWarningText1": {
          "type": "string"
        },
        "mcWarningText2": {
          "type": "string"
        },
        "mcWarningText3": {
          "type": "string"
        },
        "mcWarningText4": {
          "type": "string"
        },
        "mcWarningText5": {
          "type": "string"
        },
        "middleInitial": {
          "type": "array",
          "items": {
            "type": "string"
          }
        },
        "minGsmCntComb": {
          "type": "integer",
          "format": "int32"
        },
        "minGsmCntSingle": {
          "type": "integer",
          "format": "int32"
        },
        "modelName": {
          "type": "string"
        },
        "mydInd": {
          "type": "string"
        },
        "nameFormat": {
          "type": "array",
          "items": {
            "type": "string"
          }
        },
        "nameId": {
          "type": "array",
          "items": {
            "type": "integer",
            "format": "int32"
          }
        },
        "nameRowId": {
          "type": "array",
          "items": {
            "type": "string"
          }
        },
        "nameSuffix": {
          "type": "array",
          "items": {
            "type": "string"
          }
        },
        "nameTitle": {
          "type": "array",
          "items": {
            "type": "string"
          }
        },
        "neoclsInd": {
          "type": "string"
        },
        "newCreditScore": {
          "type": "integer",
          "format": "int32"
        },
        "nextCycleEndDate": {
          "type": "string"
        },
        "nmExpireDate": {
          "type": "array",
          "items": {
            "type": "string"
          }
        },
        "nmMode": {
          "type": "array",
          "items": {
            "type": "string"
          }
        },
        "nmUpType": {
          "type": "array",
          "items": {
            "type": "string"
          }
        },
        "npaliststatus": {
          "type": "string"
        },
        "onlineTrxNo": {
          "type": "integer",
          "format": "int32"
        },
        "operatorId": {
          "type": "integer",
          "format": "int32"
        },
        "otherExtno": {
          "type": "string"
        },
        "otherTelno": {
          "type": "string"
        },
        "otherTnType": {
          "type": "string"
        },
        "pastDueAmnt": {
          "type": "number",
          "format": "double"
        },
        "pbanTaxIndrowCount": {
          "type": "integer",
          "format": "int32"
        },
        "pendingShipInd": {
          "type": "string"
        },
        "phone2Ind": {
          "type": "string"
        },
        "pnameAdrBufrowCount": {
          "type": "integer",
          "format": "int32"
        },
        "preferVoipAreaCode": {
          "type": "string"
        },
        "productType": {
          "type": "array",
          "items": {
            "type": "string"
          }
        },
        "pvoipRecvoipInd": {
          "type": "string"
        },
        "ratLockInd": {
          "type": "string"
        },
        "realTimeAmntDue": {
          "type": "number",
          "format": "double"
        },
        "reasonCode": {
          "type": "string"
        },
        "rowcount": {
          "type": "integer",
          "format": "int32"
        },
        "rowid": {
          "type": "string"
        },
        "runDate": {
          "type": "string"
        },
        "scoreRange": {
          "type": "string"
        },
        "secondDirective": {
          "type": "integer",
          "format": "int32"
        },
        "servicePartnerId": {
          "type": "string"
        },
        "serviceStartDate": {
          "type": "string"
        },
        "sessionId": {
          "type": "integer",
          "format": "int32"
        },
        "smartFitEligInd": {
          "type": "string"
        },
        "specialInstMemoId": {
          "type": "integer",
          "format": "int32"
        },
        "ssnVeriDate": {
          "type": "string"
        },
        "status": {
          "type": "string"
        },
        "statusLastDate": {
          "type": "string"
        },
        "statusReasonCode": {
          "type": "string"
        },
        "subscriberNo": {
          "type": "array",
          "items": {
            "type": "string"
          }
        },
        "svcStatus": {
          "type": "string"
        },
        "taidDeterminInd": {
          "type": "array",
          "items": {
            "type": "string"
          }
        },
        "taidManOvrdInd": {
          "type": "array",
          "items": {
            "type": "string"
          }
        },
        "taxId": {
          "type": "integer",
          "format": "int32"
        },
        "taxInd": {
          "type": "array",
          "items": {
            "type": "string"
          }
        },
        "taxStatus": {
          "type": "array",
          "items": {
            "type": "string"
          }
        },
        "transactionMode": {
          "type": "string"
        },
        "upfrontFee": {
          "type": "string"
        },
        "upfrontMcc": {
          "type": "string"
        },
        "upfrontPass": {
          "type": "string"
        },
        "upfrontRestoreFee": {
          "type": "string"
        },
        "validFrom": {
          "type": "array",
          "items": {
            "type": "string"
          }
        },
        "voipAdminFirstName": {
          "type": "string"
        },
        "voipAdminLastName": {
          "type": "string"
        },
        "voipAllwdHwQty": {
          "type": "integer",
          "format": "int32"
        },
        "voipAmountLimit": {
          "type": "number",
          "format": "double"
        },
        "voipApprovedLines": {
          "type": "integer",
          "format": "int32"
        },
        "voipAreaCode": {
          "type": "array",
          "items": {
            "type": "string"
          }
        },
        "voipContactMsisdn": {
          "type": "string"
        },
        "voipEffDate": {
          "type": "string"
        },
        "voipEmailId": {
          "type": "string"
        },
        "voipExpDate": {
          "type": "string"
        },
        "voipInd": {
          "type": "string"
        },
        "voipRepCode": {
          "type": "string"
        },
        "voipSocCode": {
          "type": "string"
        },
        "workTelno": {
          "type": "string"
        },
        "workTnExtno": {
          "type": "string"
        }
      }
    },
    "evGtCustInfoInput": {
      "type": "object",
      "properties": {
        "applicationId": {
          "type": "string"
        },
        "ban": {
          "type": "integer",
          "format": "int32"
        },
        "channelId": {
          "type": "string"
        },
        "directive": {
          "type": "integer",
          "format": "int32"
        },
        "envCode": {
          "type": "string"
        },
        "firstDirective": {
          "type": "integer",
          "format": "int32"
        },
        "generation": {
          "type": "integer",
          "format": "int32"
        },
        "groupTrxId": {
          "type": "integer",
          "format": "int32"
        },
        "lastUpdateDate": {
          "type": "string"
        },
        "lastUpdateStamp": {
          "type": "integer",
          "format": "int32"
        },
        "marketCode": {
          "type": "string"
        },
        "mcErrorCode": {
          "type": "integer",
          "format": "int32"
        },
        "mcErrorText": {
          "type": "string"
        },
        "mcWarningCnt": {
          "type": "integer",
          "format": "int32"
        },
        "mcWarningCode1": {
          "type": "integer",
          "format": "int32"
        },
        "mcWarningCode2": {
          "type": "integer",
          "format": "int32"
        },
        "mcWarningCode3": {
          "type": "integer",
          "format": "int32"
        },
        "mcWarningCode4": {
          "type": "integer",
          "format": "int32"
        },
        "mcWarningCode5": {
          "type": "integer",
          "format": "int32"
        },
        "mcWarningText1": {
          "type": "string"
        },
        "mcWarningText2": {
          "type": "string"
        },
        "mcWarningText3": {
          "type": "string"
        },
        "mcWarningText4": {
          "type": "string"
        },
        "mcWarningText5": {
          "type": "string"
        },
        "onlineTrxNo": {
          "type": "integer",
          "format": "int32"
        },
        "operatorId": {
          "type": "integer",
          "format": "int32"
        },
        "runDate": {
          "type": "string"
        },
        "secondDirective": {
          "type": "integer",
          "format": "int32"
        },
        "servicePartnerId": {
          "type": "string"
        },
        "sessionId": {
          "type": "integer",
          "format": "int32"
        },
        "svcStatus": {
          "type": "string"
        },
        "transactionMode": {
          "type": "string"
        }
      }
    }
  }
}