{

  "swagger": "2.0",
  "info": {
    "description": "Tuxedo Rest APIs",
    "version": "1.0",
    "title": "Tuxedo API Swagger 2.0",
    "license": {
      "name": "TMUS"
    }
  },
  "host": "service-samson-qlab02.test.px-01.cf.t-mobile.com",
  "basePath": "/",
  "tags": [
    {
      "name": "Tuxedo-API",
      "description": "ev Gt Prim Sub Controller"
    }
  ],
  "paths": {
    "/tuxedo/api/evGtPrimSub": {
      "post": {
        "tags": [
          "Tuxedo-API"
        ],
        "summary": "evGtPrimSub",
        "description": "Invokes evGtPrimSub Tuxedo Service.",
        "operationId": "invokeUsingPOST_10",
        "consumes": [
          "application/json"
        ],
        "produces": [
          "application/json",
          "*/*"
        ],
        "parameters": [
          {
            "in": "body",
            "name": "p_evGtPrimSubInput",
            "description": "p_evGtPrimSubInput",
            "required": true,
            "schema": {
              "$ref": "#/definitions/evGtPrimSubInput"
            }
          }
        ],
        "responses": {
          "200": {
            "description": "OK",
            "schema": {
              "$ref": "#/definitions/evGtPrimSubOutput"
            }
          },
          "201": {
            "description": "Created"
          },
          "401": {
            "description": "Unauthorized"
          },
          "403": {
            "description": "Forbidden"
          },
          "404": {
            "description": "Not Found"
          }
        }
      }
    }
  },
  "definitions": {
    "evGtPrimSubOutput": {
      "type": "object",
      "properties": {
        "generation": {
          "type": "integer",
          "format": "int32"
        },
        "mcErrorCode": {
          "type": "integer",
          "format": "int32"
        },
        "mcErrorText": {
          "type": "string"
        },
        "mcWarningCnt": {
          "type": "integer",
          "format": "int32"
        },
        "mcWarningCode1": {
          "type": "integer",
          "format": "int32"
        },
        "mcWarningCode2": {
          "type": "integer",
          "format": "int32"
        },
        "mcWarningCode3": {
          "type": "integer",
          "format": "int32"
        },
        "mcWarningCode4": {
          "type": "integer",
          "format": "int32"
        },
        "mcWarningCode5": {
          "type": "integer",
          "format": "int32"
        },
        "mcWarningText1": {
          "type": "string"
        },
        "mcWarningText2": {
          "type": "string"
        },
        "mcWarningText3": {
          "type": "string"
        },
        "mcWarningText4": {
          "type": "string"
        },
        "mcWarningText5": {
          "type": "string"
        },
        "notificationSubNo": {
          "type": "string"
        },
        "primSubNo": {
          "type": "string"
        },
        "svcStatus": {
          "type": "string"
        }
      }
    },
    "evGtPrimSubInput": {
      "type": "object",
      "properties": {
        "applicationId": {
          "type": "string"
        },
        "ban": {
          "type": "integer",
          "format": "int32"
        },
        "channelId": {
          "type": "string"
        },
        "generation": {
          "type": "integer",
          "format": "int32"
        },
        "notifSubInd": {
          "type": "string"
        },
        "operatorId": {
          "type": "integer",
          "format": "int32"
        },
        "servicePartnerId": {
          "type": "string"
        }
      }
    }
  }

}