@startuml
participant EIP
participant DEEP.IO
participant PDE
participant SAMSON
participant BI
participant "Notification Gateway" as NGW
participant "Status change consumers" as SCC


EIP -> DEEP.IO: Device MSISDN updated
DEEP.IO -> PDE: Device MSISDN updated
activate PDE
	PDE -> PDE: retrieve Candidate, Enrolled, Expected, Eligible promotions
	alt Candidate promotions
		PDE -> SAMSON: Fetch billing details
		SAMSON -> PDE
		PDE->PDE: Re-evaluate promotion
		PDE -[#magenta]> DEEP.IO: Promotion MSISDN updated [[http://flows.corporate.t-mobile.com/all-swaggers/swagger/ce.dsg.deep.io/loanpromomovedtonewmsisdn.json/ event]]
		alt status change
			PDE -[#magenta]> DEEP.IO: Promotion status update event
		end
		deactivate PDE
		DEEP.IO -[#magenta]-> BI: Promotion MSISDN updated [[http://flows.corporate.t-mobile.com/all-swaggers/swagger/ce.dsg.deep.io/loanpromomovedtonewmsisdn.json/ event]]
		DEEP.IO -[#magenta]-> NGW: Promotion MSISDN updated [[http://flows.corporate.t-mobile.com/all-swaggers/swagger/ce.dsg.deep.io/loanpromomovedtonewmsisdn.json/ event]]
		DEEP.IO -[#magenta]-> SCC: Promotion status update event
	end
	alt other promotions
		activate PDE
		PDE -[#magenta]> DEEP.IO: Promotion MSISDN updated [[http://flows.corporate.t-mobile.com/all-swaggers/swagger/ce.dsg.deep.io/loanpromomovedtonewmsisdn.json/ event]]
		deactivate PDE
		DEEP.IO -[#magenta]-> BI: Promotion MSISDN updated [[http://flows.corporate.t-mobile.com/all-swaggers/swagger/ce.dsg.deep.io/loanpromomovedtonewmsisdn.json/ event]]
		DEEP.IO -[#magenta]-> NGW: Promotion MSISDN updated [[http://flows.corporate.t-mobile.com/all-swaggers/swagger/ce.dsg.deep.io/loanpromomovedtonewmsisdn.json/ event]]
	end

@enduml