@startuml
participant EIP
participant DEEP.IO
participant PDE
participant SAMSON
participant "Tibco MS"
participant BI
participant "Notification gateway"


EIP -> DEEP.IO: Device financed in EIP
DEEP.IO -> PDE: Device financed in EIP
activate PDE
	PDE -> SAMSON: Fetch billing details
	SAMSON -> PDE
	PDE -> PDE: Evaluate promotion eligibility
	alt all rules passed
		PDE -[#magenta]> DEEP.IO: Promotion identified as Eligible[[http://flows.corporate.t-mobile.com/all-swaggers/swagger/ce.dsg.deep.io/loanpromoenrollmenteligible.json/ event]]
		deactivate PDE
		DEEP.IO -[#magenta]-> "Tibco MS": Promotion identified as Eligible[[http://flows.corporate.t-mobile.com/all-swaggers/swagger/ce.dsg.deep.io/loanpromoenrollmenteligible.json/ event]]
		activate "Tibco MS"
			"Tibco MS" -> "Tibco MS" : Enroll in EIP
			"Tibco MS" --> DEEP.IO : Enrollment response
		deactivate "Tibco MS"
		DEEP.IO -> PDE : Enrollment response
		alt success response
			PDE -[#magenta]> DEEP.IO: Promotion Immediate Enrolled[[http://flows.corporate.t-mobile.com/all-swaggers/swagger/ce.dsg.deep.io/loanpromoimmediateenrolled.json/ event]]
			DEEP.IO -[#magenta]-> BI: Promotion Immediate Enrolled[[http://flows.corporate.t-mobile.com/all-swaggers/swagger/ce.dsg.deep.io/loanpromoimmediateenrolled.json/ event]]
			DEEP.IO -[#magenta]-> "Notification gateway": Promotion Immediate Enrolled[[http://flows.corporate.t-mobile.com/all-swaggers/swagger/ce.dsg.deep.io/loanpromoimmediateenrolled.json/ event]]
		end
		
end
@enduml