@startuml
participant EIP
participant DEEP.IO
participant PDE
participant BI
participant "Notification gateway"
participant "Alerts Engine"

alt Device finance close
	EIP -> DEEP.IO: Device finance closed
	DEEP.IO -> PDE: Device finance closed
	activate PDE
		PDE -> PDE: retrieve enrolled promotions and mark them unenrolled
		PDE -[#magenta]> DEEP.IO: Promotion un-enrolled [[http://flows.corporate.t-mobile.com/all-swaggers/swagger/ce.dsg.deep.io/loanpromocancelled.json/ event]]
	deactivate PDE
	DEEP.IO -[#magenta]-> BI: Promotion un-enrolled [[http://flows.corporate.t-mobile.com/all-swaggers/swagger/ce.dsg.deep.io/loanpromocancelled.json/ event]]
	DEEP.IO -[#magenta]-> "Notification gateway": Promotion un-enrolled [[http://flows.corporate.t-mobile.com/all-swaggers/swagger/ce.dsg.deep.io/loanpromocancelled.json/ event]]
	DEEP.IO -[#magenta]-> "Alerts Engine": Promotion un-enrolled [[http://flows.corporate.t-mobile.com/all-swaggers/swagger/ce.dsg.deep.io/loanpromocancelled.json/ event]]
end

@enduml