{
	"swagger": "2.0",
	"info": {
		"title": "service-agreement-v2-soc",
		"description": "New  capability API will be built in in Service Agreement MS to list of regular and device soc, validate and save service agreement.",
		"version": "1.0.0",
		"contact": {
			"name": "Amdocs Digital Billing",
			"url": "http://www.t-mobile.com",
			"email": "Ilya.Toiberman1@T-Mobile.com"
		},
		"license": {
			"name": "Proprietary software",
			"url": "https://en.wikipedia.org/wiki/Proprietary_software"
		},
		"termsOfService": "https://www.t-mobile.com/templates/popup.aspx?PAsset=Ftr_Ftr_TermsAndConditions",
		"x-createdBy": {
			"dateCreated": "Tue Jun 26 10:04:18 2018",
			"createdBy": "Nofar and Sali",
			"application": "Recite",
			"appVersion": "0.3.6.2170",
			"status": "Conceptual - Initial",
			"classification": "1.0 Customer Interaction Management",
			"profile": "Core Business Capability Service ",
			"serviceLayer": "Enterprise - Billing"
		}
	},
	"host": "dev01.api.t-mobile.com",
	"basePath": "/billing/v1/service-agreement",
	"schemes": [
		"https"
	],
	"paths": {
		"/socs-compatibility": {
			"post": {
				"tags": [
					"SOC"
				],
				"x-api-pattern": "ExecuteFunction",
				"summary": "A generic implementation to validates SOCs and features changes for BAN and/or a list of subscribers.",
				"description": "This API will validates SOCs and features changes for BAN and/or a list of subscribers based on the information provided in the request body. this rest service supporting validation of new SOCs to subscribers (not update / delete).",
				"operationId": "checkSocsCompatibility",
				"consumes": [
					"application/json"
				],
				"produces": [
					"application/json"
				],
				"parameters": [{
						"name": "checkSocsCompatibilityRequest",
						"in": "body",
						"required": true,
						"description": "check SOCs Compatibility request.",
						"schema": {
							"$ref": "#/definitions/checkSocsCompatibilityRequest"
						}
					},
					{
						"$ref": "#/parameters/header-X-Authorization"
					},
					{
						"$ref": "#/parameters/header-X-Auth-Originator"
					},
					{
						"$ref": "#/parameters/header-Accept"
					},
					{
						"$ref": "#/parameters/header-Accept-Charset"
					},
					{
						"$ref": "#/parameters/header-Accept-Encoding"
					},
					{
						"$ref": "#/parameters/header-Accept-Language"
					},
					{
						"$ref": "#/parameters/header-Authorization"
					},
					{
						"$ref": "#/parameters/header-Content-Type"
					},
					{
						"$ref": "#/parameters/header-Date"
					},
					{
						"$ref": "#/parameters/header-If-Modified-Since"
					},
					{
						"$ref": "#/parameters/header-If-None-Match"
					},
					{
						"$ref": "#/parameters/header-activityid"
					},
					{
						"$ref": "#/parameters/header-application-id"
					},
					{
						"$ref": "#/parameters/header-channel-id"
					},
					{
						"$ref": "#/parameters/header-dealer-code"
					},
					{
						"$ref": "#/parameters/header-interaction-id"
					},
					{
						"$ref": "#/parameters/header-service-transaction-id"
					},
					{
						"$ref": "#/parameters/header-session-id"
					},
					{
						"$ref": "#/parameters/header-store-id"
					},
					{
						"$ref": "#/parameters/header-timestamp"
					},
					{
						"$ref": "#/parameters/header-user-id"
					},
					{
						"$ref": "#/parameters/header-workflow-id"
					}
				],
				"responses": {
					"200": {
						"description": "validate service agreement passed successfully.",
						"schema": {
							"$ref": "#/definitions/checkSocsCompatibilityResponse"
						},
						"examples": {
							"application/json": {
								"compatibilityCheckOutputList": {
									"mobileNumber": "123456789.",
									"socName": "BDP2.",
									"message": "Effective Date of Soc is greater than expiration Date."
								}
							}
						},
						"headers": {
							"Content-Type": {
								"description": "The MIME type of this content.",
								"x-example": "text/xml",
								"type": "string",
								"minLength": 1,
								"maxLength": 256,
								"pattern": "^[ \\S]+$"
							},
							"Date": {
								"description": "The Date general HTTP header contains the date and time at which the message was originated.",
								"x-example": "Mon, 05 Mar 2018 16:38:08 GMT",
								"type": "string",
								"format": "date-time",
								"pattern": "^(Mon|Tue|Wed|Thu|Fri|Sat|Sun), [0-3]{1}[0-9]{1} (Jan|Feb|Mar|Apr|May|Jun|Jul|Aug|Sep|Oct|Nov|Dec) [1-3][0-9]{3} [0-2][0-9]:[0-6][0-9]:[0-6][0-9] GMT$"
							}
						}
					},
					"207": {
						"description": "Combination of success and failure response.",
						"schema": {
							"$ref": "#/definitions/checkSocsCompatibilityResponse"
						},
						"examples": {
							"application/json": {
								"compatibilityCheckOutputList": {
									"mobileNumber": "123456789.",
									"socName": "BDP2.",
									"message": "Effective Date of Soc is greater than expiration Date."
								}
							}
						},
						"headers": {
							"Content-Type": {
								"description": "The MIME type of this content.",
								"x-example": "text/xml",
								"type": "string",
								"minLength": 1,
								"maxLength": 256,
								"pattern": "^[ \\S]+$"
							},
							"Date": {
								"description": "The Date general HTTP header contains the date and time at which the message was originated.",
								"x-example": "Mon, 05 Mar 2018 16:38:08 GMT",
								"type": "string",
								"format": "date-time",
								"pattern": "^(Mon|Tue|Wed|Thu|Fri|Sat|Sun), [0-3]{1}[0-9]{1} (Jan|Feb|Mar|Apr|May|Jun|Jul|Aug|Sep|Oct|Nov|Dec) [1-3][0-9]{3} [0-2][0-9]:[0-6][0-9]:[0-6][0-9] GMT$"
							}
						}
					},
					"400": {
						"description": "Bad Request.",
						"schema": {
							"$ref": "#/definitions/Error"
						},
						"examples": {
							"application/json": {
								"code": "400",
								"userMessage": "Bad Request",
								"systemMessage": "Bad Request",
								"detailLink": "http://www.tmus.com"
							}
						},
						"headers": {}
					},
					"401": {
						"description": "Unauthorized.",
						"schema": {
							"$ref": "#/definitions/Error"
						},
						"examples": {
							"application/json": {
								"code": "401",
								"userMessage": "Unauthorized",
								"systemMessage": "Unauthorized",
								"detailLink": "http://www.tmus.com"
							}
						},
						"headers": {}
					},
					"404": {
						"description": "Resource not found.",
						"schema": {
							"$ref": "#/definitions/Error"
						},
						"examples": {
							"application/json": {
								"code": "404",
								"userMessage": "Resource not found",
								"systemMessage": "Resource not found",
								"detailLink": "http://www.tmus.com"
							}
						},
						"headers": {}
					},
					"405": {
						"description": "Method Not Allowed.",
						"schema": {
							"$ref": "#/definitions/Error"
						},
						"examples": {
							"application/json": {
								"code": "405",
								"userMessage": "Method Not Allowed",
								"systemMessage": "Method Not Allowed",
								"detailLink": "http://www.tmus.com"
							}
						},
						"headers": {
							"Allow": {
								"description": "list of supported methods for URI.",
								"x-example": "GET",
								"type": "string",
								"minLength": 1,
								"maxLength": 256,
								"pattern": "^[\\S]*$"
							}
						}
					},
					"409": {
						"description": "Invalid data.",
						"schema": {
							"$ref": "#/definitions/Error"
						},
						"examples": {
							"application/json": {
								"code": "409",
								"userMessage": "Invalid data",
								"systemMessage": "Invalid data",
								"detailLink": "http://www.tmus.com"
							}
						},
						"headers": {}
					},
					"415": {
						"description": "Unsupported Media Type.",
						"schema": {
							"$ref": "#/definitions/Error"
						},
						"examples": {
							"application/json": {
								"code": "415",
								"userMessage": "Unsupported Media Type",
								"systemMessage": "Unsupported Media Type",
								"detailLink": "http://www.tmus.com"
							}
						},
						"headers": {}
					},
					"500": {
						"description": "System Error.",
						"schema": {
							"$ref": "#/definitions/Error"
						},
						"examples": {
							"application/json": {
								"code": "500",
								"userMessage": "System Error",
								"systemMessage": "System Error",
								"detailLink": "http://www.tmus.com"
							}
						},
						"headers": {}
					},
					"503": {
						"description": "Service unavailable.",
						"schema": {
							"$ref": "#/definitions/Error"
						},
						"examples": {
							"application/json": {
								"code": "503",
								"userMessage": "Service unavailable",
								"systemMessage": "Service unavailable",
								"detailLink": "http://www.tmus.com"
							}
						},
						"headers": {}
					}
				},
				"security": [{
					"oauth2": []
				}]
			}
		},
		"/socs": {
			"post": {
				"tags": [
					"SOC"
				],
				"x-api-pattern": "ExecuteFunction",
				"summary": "Save updated service agreement",
				"description": "Save service agreement changes.",
				"operationId": "saveSOCs",
				"consumes": [
					"application/json"
				],
				"produces": [
					"application/json"
				],
				"parameters": [{
						"name": "SaveSocRequest",
						"in": "body",
						"description": "check SOCs Compatibility request.",
						"required": true,
						"schema": {
							"$ref": "#/definitions/checkSocsCompatibilityRequest"
						}
					},
					{
						"$ref": "#/parameters/header-X-Authorization"
					},
					{
						"$ref": "#/parameters/header-X-Auth-Originator"
					},
					{
						"$ref": "#/parameters/header-Accept"
					},
					{
						"$ref": "#/parameters/header-Accept-Charset"
					},
					{
						"$ref": "#/parameters/header-Accept-Encoding"
					},
					{
						"$ref": "#/parameters/header-Accept-Language"
					},
					{
						"$ref": "#/parameters/header-Authorization"
					},
					{
						"$ref": "#/parameters/header-Content-Type"
					},
					{
						"$ref": "#/parameters/header-Date"
					},
					{
						"$ref": "#/parameters/header-If-Modified-Since"
					},
					{
						"$ref": "#/parameters/header-If-None-Match"
					},
					{
						"$ref": "#/parameters/header-activityid"
					},
					{
						"$ref": "#/parameters/header-application-id"
					},
					{
						"$ref": "#/parameters/header-channel-id"
					},
					{
						"$ref": "#/parameters/header-dealer-code"
					},
					{
						"$ref": "#/parameters/header-interaction-id"
					},
					{
						"$ref": "#/parameters/header-service-transaction-id"
					},
					{
						"$ref": "#/parameters/header-session-id"
					},
					{
						"$ref": "#/parameters/header-store-id"
					},
					{
						"$ref": "#/parameters/header-timestamp"
					},
					{
						"$ref": "#/parameters/header-user-id"
					},
					{
						"$ref": "#/parameters/header-workflow-id"
					}
				],
				"responses": {
					"200": {
						"description": "Update service agreement passed successfully.",
						"headers": {
							"Cache-Control": {
								"description": "No cache indicators supported at this time. Samples: no-cache.",
								"type": "string",
								"x-example": "no-cache"
							},
							"Content-Encoding": {
								"description": "The type of encoding used on the data.",
								"x-example": "gzip,deflate",
								"type": "string",
								"minLength": 1,
								"maxLength": 15,
								"pattern": "^[\\S]*$"
							},
							"Content-Length": {
								"description": "Length of the response body in octets; not supported if Transfer-Endoding = chunked.",
								"x-example": "9112300000003",
								"type": "integer",
								"format": "int64",
								"minimum": 0,
								"pattern": "^[\\d]*$"
							},
							"Date": {
								"description": "The Date general HTTP header contains the date and time at which the message was originated.",
								"x-example": "Mon, 05 Mar 2018 16:38:08 GMT",
								"type": "string",
								"format": "date-time",
								"pattern": "^(Mon|Tue|Wed|Thu|Fri|Sat|Sun), [0-3]{1}[0-9]{1} (Jan|Feb|Mar|Apr|May|Jun|Jul|Aug|Sep|Oct|Nov|Dec) [1-3][0-9]{3} [0-2][0-9]:[0-6][0-9]:[0-6][0-9] GMT$"
							},
							"Transfer-Encoding": {
								"description": "The form of encoding used to safely transfer the entity to the user. Currently defined methods are: chunked, compress, deflate, gzip, identity.",
								"x-example": "chunked",
								"type": "string",
								"minLength": 1,
								"maxLength": 15,
								"pattern": "^[\\S]*$"
							},
							"service-transaction-id": {
								"description": "Request ID echoed back by server.",
								"x-example": "23409209723",
								"type": "string",
								"minLength": 1,
								"maxLength": 256,
								"pattern": "^[\\S]*$"
							}
						}
					},
					"400": {
						"description": "Bad Request.",
						"schema": {
							"$ref": "#/definitions/Error"
						},
						"examples": {
							"application/json": {
								"code": "400",
								"userMessage": "Bad Request",
								"systemMessage": "Bad Request",
								"detailLink": "http://www.tmus.com"
							}
						},
						"headers": {}
					},
					"401": {
						"description": "Unauthorized.",
						"schema": {
							"$ref": "#/definitions/Error"
						},
						"examples": {
							"application/json": {
								"code": "401",
								"userMessage": "Unauthorized",
								"systemMessage": "Unauthorized",
								"detailLink": "http://www.tmus.com"
							}
						},
						"headers": {}
					},
					"404": {
						"description": "Resource not found.",
						"schema": {
							"$ref": "#/definitions/Error"
						},
						"examples": {
							"application/json": {
								"code": "404",
								"userMessage": "Resource not found",
								"systemMessage": "Resource not found",
								"detailLink": "http://www.tmus.com"
							}
						},
						"headers": {}
					},
					"405": {
						"description": "Method Not Allowed.",
						"schema": {
							"$ref": "#/definitions/Error"
						},
						"examples": {
							"application/json": {
								"code": "405",
								"userMessage": "Method Not Allowed",
								"systemMessage": "Method Not Allowed",
								"detailLink": "http://www.tmus.com"
							}
						},
						"headers": {
							"Allow": {
								"description": "List of supported methods for URI.",
								"x-example": "GET",
								"type": "string",
								"minLength": 1,
								"maxLength": 256,
								"pattern": "^[\\S]*$"
							}
						}
					},
					"409": {
						"description": "Invalid data.",
						"schema": {
							"$ref": "#/definitions/Error"
						},
						"examples": {
							"application/json": {
								"code": "409",
								"userMessage": "Invalid data",
								"systemMessage": "Invalid data",
								"detailLink": "http://www.tmus.com"
							}
						},
						"headers": {}
					},
					"415": {
						"description": "Unsupported Media Type.",
						"schema": {
							"$ref": "#/definitions/Error"
						},
						"examples": {
							"application/json": {
								"code": "415",
								"userMessage": "Unsupported Media Type",
								"systemMessage": "Unsupported Media Type",
								"detailLink": "http://www.tmus.com"
							}
						},
						"headers": {}
					},
					"500": {
						"description": "System Error.",
						"schema": {
							"$ref": "#/definitions/Error"
						},
						"examples": {
							"application/json": {
								"code": "500",
								"userMessage": "System Error",
								"systemMessage": "System Error",
								"detailLink": "http://www.tmus.com"
							}
						},
						"headers": {}
					},
					"503": {
						"description": "Service unavailable.",
						"schema": {
							"$ref": "#/definitions/Error"
						},
						"examples": {
							"application/json": {
								"code": "503",
								"userMessage": "Service unavailable",
								"systemMessage": "Service unavailable",
								"detailLink": "http://www.tmus.com"
							}
						},
						"headers": {}
					}
				},
				"security": [{
					"oauth2": []
				}]
			}
		},
		"/batch-socs": {
			"post": {
				"tags": [
					"SOC"
				],
				"x-api-pattern": "ExecuteFunction",
				"summary": "Save updated service agreement in Batch process",
				"description": "Save service agreement changes in Batch process.",
				"operationId": "saveSOCsBatch",
				"consumes": [
					"application/json"
				],
				"produces": [
					"application/json"
				],
				"parameters": [{
						"name": "SaveSocRequest",
						"in": "body",
						"description": "check SOCs Compatibility request.",
						"required": true,
						"schema": {
							"$ref": "#/definitions/checkSocsCompatibilityRequest"
						}
					},
					{
						"$ref": "#/parameters/header-X-Authorization"
					},
					{
						"$ref": "#/parameters/header-X-Auth-Originator"
					},
					{
						"$ref": "#/parameters/header-Accept"
					},
					{
						"$ref": "#/parameters/header-Accept-Charset"
					},
					{
						"$ref": "#/parameters/header-Accept-Encoding"
					},
					{
						"$ref": "#/parameters/header-Accept-Language"
					},
					{
						"$ref": "#/parameters/header-Authorization"
					},
					{
						"$ref": "#/parameters/header-Content-Type"
					},
					{
						"$ref": "#/parameters/header-Date"
					},
					{
						"$ref": "#/parameters/header-If-Modified-Since"
					},
					{
						"$ref": "#/parameters/header-If-None-Match"
					},
					{
						"$ref": "#/parameters/header-activityid"
					},
					{
						"$ref": "#/parameters/header-application-id"
					},
					{
						"$ref": "#/parameters/header-channel-id"
					},
					{
						"$ref": "#/parameters/header-dealer-code"
					},
					{
						"$ref": "#/parameters/header-interaction-id"
					},
					{
						"$ref": "#/parameters/header-service-transaction-id"
					},
					{
						"$ref": "#/parameters/header-session-id"
					},
					{
						"$ref": "#/parameters/header-store-id"
					},
					{
						"$ref": "#/parameters/header-timestamp"
					},
					{
						"$ref": "#/parameters/header-user-id"
					},
					{
						"$ref": "#/parameters/header-workflow-id"
					}
				],
				"responses": {
					"202": {
						"description": "Save Soc Batch passed successfully.",
						"headers": {
							"Cache-Control": {
								"description": "No cache indicators supported at this time. Samples: no-cache.",
								"type": "string",
								"x-example": "no-cache"
							},
							"Content-Encoding": {
								"description": "The type of encoding used on the data.",
								"x-example": "gzip,deflate",
								"type": "string",
								"minLength": 1,
								"maxLength": 15,
								"pattern": "^[\\S]*$"
							},
							"Content-Length": {
								"description": "Length of the response body in octets; not supported if Transfer-Endoding = chunked.",
								"x-example": "9112300000003",
								"type": "integer",
								"format": "int64",
								"minimum": 0,
								"pattern": "^[\\d]*$"
							},
							"Date": {
								"description": "The Date general HTTP header contains the date and time at which the message was originated.",
								"x-example": "Mon, 05 Mar 2018 16:38:08 GMT",
								"type": "string",
								"format": "date-time",
								"pattern": "^(Mon|Tue|Wed|Thu|Fri|Sat|Sun), [0-3]{1}[0-9]{1} (Jan|Feb|Mar|Apr|May|Jun|Jul|Aug|Sep|Oct|Nov|Dec) [1-3][0-9]{3} [0-2][0-9]:[0-6][0-9]:[0-6][0-9] GMT$"
							},
							"Transfer-Encoding": {
								"description": "The form of encoding used to safely transfer the entity to the user. Currently defined methods are: chunked, compress, deflate, gzip, identity.",
								"x-example": "chunked",
								"type": "string",
								"minLength": 1,
								"maxLength": 15,
								"pattern": "^[\\S]*$"
							},
							"service-transaction-id": {
								"description": "Request ID echoed back by server.",
								"x-example": "23409209723",
								"type": "string",
								"minLength": 1,
								"maxLength": 256,
								"pattern": "^[\\S]*$"
							}
						}
					},
					"400": {
						"description": "Bad Request.",
						"schema": {
							"$ref": "#/definitions/Error"
						},
						"examples": {
							"application/json": {
								"code": "400",
								"userMessage": "Bad Request",
								"systemMessage": "Bad Request",
								"detailLink": "http://www.tmus.com"
							}
						},
						"headers": {}
					},
					"401": {
						"description": "Unauthorized.",
						"schema": {
							"$ref": "#/definitions/Error"
						},
						"examples": {
							"application/json": {
								"code": "401",
								"userMessage": "Unauthorized",
								"systemMessage": "Unauthorized",
								"detailLink": "http://www.tmus.com"
							}
						},
						"headers": {}
					},
					"404": {
						"description": "Resource not found.",
						"schema": {
							"$ref": "#/definitions/Error"
						},
						"examples": {
							"application/json": {
								"code": "404",
								"userMessage": "Resource not found",
								"systemMessage": "Resource not found",
								"detailLink": "http://www.tmus.com"
							}
						},
						"headers": {}
					},
					"405": {
						"description": "Method Not Allowed.",
						"schema": {
							"$ref": "#/definitions/Error"
						},
						"examples": {
							"application/json": {
								"code": "405",
								"userMessage": "Method Not Allowed",
								"systemMessage": "Method Not Allowed",
								"detailLink": "http://www.tmus.com"
							}
						},
						"headers": {
							"Allow": {
								"description": "List of supported methods for URI.",
								"x-example": "GET",
								"type": "string",
								"minLength": 1,
								"maxLength": 256,
								"pattern": "^[\\S]*$"
							}
						}
					},
					"409": {
						"description": "Invalid data.",
						"schema": {
							"$ref": "#/definitions/Error"
						},
						"examples": {
							"application/json": {
								"code": "409",
								"userMessage": "Invalid data",
								"systemMessage": "Invalid data",
								"detailLink": "http://www.tmus.com"
							}
						},
						"headers": {}
					},
					"415": {
						"description": "Unsupported Media Type.",
						"schema": {
							"$ref": "#/definitions/Error"
						},
						"examples": {
							"application/json": {
								"code": "415",
								"userMessage": "Unsupported Media Type",
								"systemMessage": "Unsupported Media Type",
								"detailLink": "http://www.tmus.com"
							}
						},
						"headers": {}
					},
					"500": {
						"description": "System Error.",
						"schema": {
							"$ref": "#/definitions/Error"
						},
						"examples": {
							"application/json": {
								"code": "500",
								"userMessage": "System Error",
								"systemMessage": "System Error",
								"detailLink": "http://www.tmus.com"
							}
						},
						"headers": {}
					},
					"503": {
						"description": "Service unavailable.",
						"schema": {
							"$ref": "#/definitions/Error"
						},
						"examples": {
							"application/json": {
								"code": "503",
								"userMessage": "Service unavailable",
								"systemMessage": "Service unavailable",
								"detailLink": "http://www.tmus.com"
							}
						},
						"headers": {}
					}
				},
				"security": [{
					"oauth2": []
				}]
			}
		},
		"/effective-ucc-services": {
			"post": {
				"tags": [
					"uccServices"
				],
				"x-api-pattern": "ExecuteFunction",
				"summary": "Retreives the list of existing UCC  services (SOCs) on the financial account (BAN).",
				"description": "Retreives the list of existing UCC  services (SOCs) on the financial account (BAN).",
				"operationId": "uccServices",
				"consumes": [
					"application/json"
				],
				"produces": [
					"application/json"
				],
				"parameters": [{
						"name": "servicesRequest",
						"in": "body",
						"description": "Request object for list of existing UCC services on financial account.",
						"required": true,
						"schema": {
							"$ref": "#/definitions/ServicesRequest"
						}
					},
					{
						"name": "Accept",
						"in": "header",
						"description": "Preferred content type _ default to application/json",
						"x-example": "application/json",
						"required": false,
						"type": "string",
						"minLength": 1,
						"maxLength": 256,
						"pattern": "^[ \\S]+$"
					},
					{
						"name": "Authorization",
						"in": "header",
						"description": "The HTTP Authorization request header contains the credentials to authenticate a user agent with a server.",
						"x-example": "Bearer mF_9.B5f-4.1JqM",
						"required": true,
						"type": "string",
						"minLength": 1,
						"maxLength": 256,
						"pattern": "^[\\S ]+$"
					},
					{
						"name": "Content-Type",
						"in": "header",
						"description": "The MIME type of this content",
						"x-example": "text/xml",
						"required": true,
						"type": "string",
						"minLength": 1,
						"maxLength": 256,
						"pattern": "^[ \\S]+$"
					},
					{
						"name": "Date",
						"in": "header",
						"description": "The Date general HTTP header contains the date and time at which the message was originated.",
						"x-example": "Mon, 05 Mar 2018 16:38:08 GMT",
						"required": false,
						"type": "string",
						"pattern": "^(Mon|Tue|Wed|Thu|Fri|Sat|Sun), [0-3]{1}[0-9]{1} (Jan|Feb|Mar|Apr|May|Jun|Jul|Aug|Sep|Oct|Nov|Dec) [1-3][0-9]{3} [0-2][0-9]:[0-6][0-9]:[0-6][0-9] GMT$",
						"format": "date-time"
					},
					{
						"name": "activity-id",
						"in": "header",
						"description": "Unique id alphanumeric value generated and sent by the partner to identify every the service request uniquely. Sample: XyzA:D1s5s1i-X6AFRvfiPBfs-1234  Pass as is to downstream calls.",
						"x-example": "c34e7acd-384b-4c22-8b02-ba3963682508",
						"required": true,
						"type": "string",
						"pattern": "^[\\S]*$",
						"minLength": 1,
						"maxLength": 256
					},
					{
						"name": "interaction-id",
						"in": "header",
						"description": "Alphanumeric value represent a common transaction id across all calls made from UI, while completing all business activity needs of a particular customer.",
						"x-example": "cc688d54-50d1-49d4-8c5d-95459d1172e8",
						"required": false,
						"type": "string",
						"minLength": 1,
						"maxLength": 256,
						"pattern": "^[\\S]*$"
					},
					{
						"name": "service-transaction-id",
						"in": "header",
						"description": "Request ID echoed back by server",
						"x-example": "23409209723",
						"required": false,
						"type": "string",
						"pattern": "^[\\S]*$",
						"minLength": 1,
						"maxLength": 256
					},
					{
						"name": "session-id",
						"in": "header",
						"description": "A value populated by the sender used to track the transactions that occur during a session, a long-lasting interaction that ismaintained by the sender.",
						"x-example": "350b91ec-4a64-4b10-a3f3-a78c8db3924a",
						"required": false,
						"type": "string",
						"minLength": 1,
						"maxLength": 256,
						"pattern": "^[\\S]*$"
					},
					{
						"name": "timestamp",
						"in": "header",
						"description": "ms since 1/1/70 adjusted to GMT",
						"x-example": "1524599536",
						"required": false,
						"type": "integer",
						"pattern": "^[\\d]*$",
						"format": "int64",
						"minimum": 0,
						"maximum": 999999999999
					},
					{
						"name": "workflow-id",
						"in": "header",
						"description": "Business Use Case",
						"x-example": "ACTIVATION",
						"required": false,
						"type": "string",
						"minLength": 1,
						"maxLength": 256,
						"pattern": "^[\\S]*$"
					},
					{
						"name": "x-auth-originator",
						"in": "header",
						"description": "API chain initiating callers access token",
						"x-example": "c34e7acd-384b-4c22-8b02-ba3963682508",
						"required": true,
						"type": "string",
						"minLength": 1,
						"maxLength": 256,
						"pattern": "^[\\S]*$"
					},
					{
						"name": "x-authorization",
						"in": "header",
						"description": "Contains Proof of Possession token generated by API caller",
						"x-example": "c34e7acd-384b-4c22-8b02-ba3963682508",
						"required": false,
						"type": "string",
						"minLength": 1,
						"maxLength": 256,
						"pattern": "^[\\S ]*$"
					}
				],
				"responses": {
					"200": {
						"description": "Success",
						"schema": {
							"$ref": "#/definitions/ServicesResponse"
						},
						"examples": {
							"application/json": {
								"services": [{
									"serviceOfferCode": "DOMCNMXTL",
									"serviceUnits": 30,
									"effectiveDate": "2018-10-23T07:09:30.762Z",
									"expirationDate": "2018-10-23T07:09:30.762Z",
									"lastActivityStatus": "PENDING"
								}]
							}
						},
						"headers": {
							"Content-Type": {
								"description": "The MIME type of this content",
								"x-example": "text/xml",
								"type": "string",
								"minLength": 1,
								"maxLength": 256,
								"pattern": "^[ \\S]+$"
							},
							"Date": {
								"description": "The Date general HTTP header contains the date and time at which the message was originated.",
								"x-example": "Mon, 05 Mar 2018 16:38:08 GMT",
								"type": "string",
								"format": "date-time",
								"pattern": "^(Mon|Tue|Wed|Thu|Fri|Sat|Sun), [0-3]{1}[0-9]{1} (Jan|Feb|Mar|Apr|May|Jun|Jul|Aug|Sep|Oct|Nov|Dec) [1-3][0-9]{3} [0-2][0-9]:[0-6][0-9]:[0-6][0-9] GMT$"
							},
							"ETag": {
								"description": "The ETag header specifies the unique entity tag value for the returned resource.",
								"x-example": "*",
								"type": "string",
								"minLength": 1,
								"maxLength": 256,
								"pattern": "^[\\S]*$"
							},
							"Location": {
								"description": "The Location header specifies the URI of a created resource, or redirects the API consumer to an alternate resource location.",
								"x-example": "http://api.t-mo.com/order-mgmt/v1/orders/123xyz-0/status",
								"type": "string",
								"minLength": 1,
								"maxLength": 65536,
								"pattern": "^[\\S]*$"
							},
							"Transfer-Encoding": {
								"description": "The form of encoding used to safely transfer the entity to the user. Currently defined methods are: chunked, compress, deflate, gzip, identity.",
								"x-example": "chunked",
								"type": "string",
								"minLength": 1,
								"maxLength": 15,
								"pattern": "^[\\S]*$"
							},
							"service-transaction-id": {
								"description": "Request ID echoed back by server",
								"x-example": "23409209723",
								"type": "string",
								"minLength": 1,
								"maxLength": 256,
								"pattern": "^[\\S]*$"
							}
						}
					},
					"400": {
						"description": "Bad Request",
						"schema": {
							"$ref": "#/definitions/Error"
						},
						"examples": {
							"application/json": {
								"code": "400",
								"userMessage": "Bad Request",
								"systemMessage": "Bad Request",
								"detailLink": "http://www.tmus.com"
							}
						},
						"headers": {}
					},
					"401": {
						"description": "Unauthorized",
						"schema": {
							"$ref": "#/definitions/Error"
						},
						"examples": {
							"application/json": {
								"code": "401",
								"userMessage": "Unauthorized",
								"systemMessage": "Unauthorized",
								"detailLink": "http://www.tmus.com"
							}
						},
						"headers": {}
					},
					"403": {
						"description": "Client access denied",
						"schema": {
							"$ref": "#/definitions/Error"
						},
						"examples": {
							"application/json": {
								"code": "403",
								"userMessage": "Client access denied",
								"systemMessage": "Client access denied",
								"detailLink": "http://www.tmus.com"
							}
						},
						"headers": {}
					},
					"404": {
						"description": "Resource not found",
						"schema": {
							"$ref": "#/definitions/Error"
						},
						"examples": {
							"application/json": {
								"code": "404",
								"userMessage": "Resource not found",
								"systemMessage": "Resource not found",
								"detailLink": "http://www.tmus.com"
							}
						},
						"headers": {}
					},
					"405": {
						"description": "Method Not Allowed",
						"schema": {
							"$ref": "#/definitions/Error"
						},
						"examples": {
							"application/json": {
								"code": "405",
								"userMessage": "Method Not Allowed",
								"systemMessage": "Method Not Allowed",
								"detailLink": "http://www.tmus.com"
							}
						},
						"headers": {
							"Allow": {
								"description": "list of supported methods for URI",
								"x-example": "GET",
								"type": "string",
								"minLength": 1,
								"maxLength": 256,
								"pattern": "^[\\S]*$"
							},
							"service-transaction-id": {
								"description": "Request ID echoed back by server",
								"x-example": "23409209723",
								"type": "string",
								"minLength": 1,
								"maxLength": 256,
								"pattern": "^[\\S]*$"
							}
						}
					},
					"406": {
						"description": "Mismatching data format",
						"schema": {
							"$ref": "#/definitions/Error"
						},
						"examples": {
							"application/json": {
								"code": "406",
								"userMessage": "Mismatching data format",
								"systemMessage": "Mismatching data format",
								"detailLink": "http://www.tmus.com"
							}
						},
						"headers": {}
					},
					"409": {
						"description": "Invalid data",
						"schema": {
							"$ref": "#/definitions/Error"
						},
						"examples": {
							"application/json": {
								"code": "409",
								"userMessage": "Invalid data",
								"systemMessage": "Invalid data",
								"detailLink": "http://www.tmus.com"
							}
						},
						"headers": {}
					},
					"415": {
						"description": "Unsupported Media Type",
						"schema": {
							"$ref": "#/definitions/Error"
						},
						"examples": {
							"application/json": {
								"code": "415",
								"userMessage": "Unsupported Media Type",
								"systemMessage": "Unsupported Media Type",
								"detailLink": "http://www.tmus.com"
							}
						},
						"headers": {}
					},
					"500": {
						"description": "System Error",
						"schema": {
							"$ref": "#/definitions/Error"
						},
						"examples": {
							"application/json": {
								"code": "500",
								"userMessage": "System Error",
								"systemMessage": "System Error",
								"detailLink": "http://www.tmus.com"
							}
						},
						"headers": {}
					},
					"503": {
						"description": "Service unavailable",
						"schema": {
							"$ref": "#/definitions/Error"
						},
						"examples": {
							"application/json": {
								"code": "503",
								"userMessage": "Service unavailable",
								"systemMessage": "Service unavailable",
								"detailLink": "http://www.tmus.com"
							}
						},
						"headers": {}
					}
				},
				"security": [{
					"oauth2": []
				}]
			}
		}
	},
	"definitions": {
		"Error": {
			"description": "Error object.",
			"type": "object",
			"properties": {
				"code": {
					"description": "A specific T-Mobile error code.",
					"type": "string"
				},
				"userMessage": {
					"description": "A human-readable message describing the error.",
					"type": "string"
				},
				"systemMessage": {
					"description": "Backend system error message.",
					"type": "string"
				},
				"requestUri": {
					"description": "Any.",
					"type": "string"
				},
				"traceId": {
					"description": "Any.",
					"type": "string"
				}
			}
		},
		"ServicesRequest": {
			"description": "Request object for the retreiving the list of services available for financial account.",
			"type": "object",
			"required": [
				"financialAccountNumber"
			],
			"properties": {
				"financialAccountNumber": {
					"description": "Financial account number.",
					"example": "123456789",
					"type": "string"
				}
			}
		},
		"ServicesResponse": {
			"type": "object",
			"description": "Describes response structure containing an array list of all required SOCs.",
			"properties": {
				"services": {
					"type": "array",
					"description": "List of SOCs",
					"items": {
						"$ref": "#/definitions/ExistingSocsList"
					}
				}
			}
		},
		"ExistingSocsList": {
			"type": "object",
			"properties": {
				"serviceOfferCode": {
					"type": "string",
					"description": "Describes code of a soc",
					"pattern": "^[\\S]*$",
					"example": "DOMCNMXTL"
				},
				"serviceUnits": {
					"type": "integer",
					"format": "int32",
					"description": "Describes total number of seats purchased which are currently effective. Must be configurable.",
					"example": 30
				},
				"effectiveDate": {
					"type": "string",
					"format": "date-time",
					"description": "The date when the soc service became active.",
					"example": "2018-10-23T07:09:30.762Z"
				},
				"expirationDate": {
					"type": "string",
					"format": "date-time",
					"description": "The date on which the soc expires.",
					"example": "2018-10-23T07:09:30.762Z"
				},
				"lastActivityStatus": {
					"type": "string",
					"description": "Describes the status of last activity perfomed on the SOC.",
					"pattern": "^[\\S]*$",
					"enum": [
						"PENDING",
						"COMPLETED"
					],
					"example": "PENDING"
				}
			}
		},
		"checkSocsCompatibilityRequest": {
			"type": "object",
			"required": [
				"financialAccountNumber",
				"subscribersAndSocsList"
			],
			"properties": {
				"financialAccountNumber": {
					"description": "Financial account number.",
					"example": "123456789",
					"type": "integer",
					"format": "int64"
				},
				"subscribersAndSocsList": {
					"type": "array",
					"description": "List of subscribers and SOCs.",
					"items": {
						"$ref": "#/definitions/subscribersAndSocsDetails"
					}
				}
			}
		},
		"subscribersAndSocsDetails": {
			"type": "object",
			"required": [
				"mobileNumber",
				"socName",
				"socEffectiveDate"
			],
			"properties": {
				"mobileNumber": {
					"description": "Subscriber mobile number where the selected services are applied.",
					"type": "string",
					"minLength": 1,
					"maxLength": 20,
					"pattern": "^[\\S]*$",
					"example": "1234567890"
				},
				"socName": {
					"description": "The service name.",
					"type": "string",
					"minLength": 1,
					"maxLength": 9,
					"pattern": "^[\\S]*$",
					"example": "BDP2"
				},
				"socEffectiveDate": {
					"description": "The date that the service was activated in the account , format - yyyymmdd.",
					"example": "19990201",
					"type": "string",
					"minLength": 8,
					"maxLength": 8,
					"pattern": "^[\\S]*$"
				},
				"socExpirationDate": {
					"description": "The date that the service expired in the account, format - yyyymmdd.",
					"example": "19990201",
					"type": "string",
					"minLength": 8,
					"maxLength": 8,
					"pattern": "^[\\S]*$"
				},
				"productType": {
					"description": "Subscriber Product type. G-GSM,B-MI.",
					"type": "string",
					"example": "G",
					"pattern": "^[\\S]*$"
				}
			}
		},
		"checkSocsCompatibilityResponse": {
			"type": "object",
			"properties": {
				"compatibilityCheckOutputList": {
					"type": "array",
					"description": "List of subscribers and services.",
					"items": {
						"$ref": "#/definitions/CompatibilityCheckOutput"
					}
				}
			}
		},
		"CompatibilityCheckOutput": {
			"type": "object",
			"properties": {
				"mobileNumber": {
					"description": "Subscriber mobile number where the selected services is applied.",
					"type": "string",
					"minLength": 1,
					"maxLength": 20,
					"pattern": "^[\\S]*$",
					"example": "1234567890"
				},
				"socName": {
					"description": "The Service name.",
					"type": "string",
					"minLength": 1,
					"maxLength": 9,
					"pattern": "^[\\S]*$",
					"example": "B2B10GBMI"
				},
				"message": {
					"description": "Error Description.",
					"type": "string",
					"minLength": 1,
					"maxLength": 9,
					"pattern": "^[\\S]*$",
					"example": "Effective Date of Soc is greater than expiration Date."
				}
			}
		}
	},
	"parameters": {
		"header-activityid": {
			"in": "header",
			"name": "activityid",
			"description": "activity id.",
			"required": true,
			"type": "string",
			"pattern": "^[\\S ]*$",
			"x-example": "fkljk44"
		},
		"header-X-Authorization": {
			"name": "X-Authorization",
			"in": "header",
			"description": "OAuth 2.0 access token with the authentication type set as Bearer.",
			"required": false,
			"type": "string"
		},
		"header-X-Auth-Originator": {
			"name": "X-Auth-Originator",
			"in": "header",
			"description": "OAuth 2.0 access token with the authentication type set as Bearer.",
			"required": false,
			"type": "string"
		},
		"header-Accept": {
			"name": "Accept",
			"in": "header",
			"description": "Preferred content type _ default to application/json.",
			"x-example": "application/json",
			"required": false,
			"type": "string",
			"minLength": 1,
			"maxLength": 256,
			"pattern": "^[ \\S]+$"
		},
		"header-Accept-Charset": {
			"name": "Accept-Charset",
			"in": "header",
			"description": "Character sets that are acceptable.",
			"x-example": "ISO-8859-1,utf-8;q=0.7,*;q=0.7",
			"required": false,
			"type": "string",
			"minLength": 1,
			"maxLength": 256,
			"pattern": "^[\\S ]*$"
		},
		"header-Accept-Encoding": {
			"name": "Accept-Encoding",
			"in": "header",
			"description": "List of acceptable encodings. See HTTP compression.",
			"x-example": "gzip,deflate",
			"required": false,
			"type": "string",
			"minLength": 1,
			"maxLength": 256,
			"pattern": "^[\\S ]*$"
		},
		"header-Accept-Language": {
			"name": "Accept-Language",
			"in": "header",
			"description": "List of acceptable human languages for response.",
			"x-example": "en-us,en;q=0.5",
			"required": false,
			"type": "string",
			"minLength": 1,
			"maxLength": 256,
			"pattern": "g'^[\\S ]*$'."
		},
		"header-Authorization": {
			"name": "Authorization",
			"in": "header",
			"description": "The HTTP Authorization request header contains the credentials to authenticate a user agent with a server.",
			"x-example": "Bearer mF_9.B5f-4.1JqM",
			"required": true,
			"type": "string",
			"minLength": 1,
			"maxLength": 256,
			"pattern": "^[\\S ]+$"
		},
		"header-Content-Type": {
			"name": "Content-Type",
			"in": "header",
			"description": "The MIME type of this content.",
			"x-example": "text/xml",
			"required": true,
			"type": "string",
			"minLength": 1,
			"maxLength": 256,
			"pattern": "^[ \\S]+$"
		},
		"header-Date": {
			"name": "Date",
			"in": "header",
			"description": "The Date general HTTP header contains the date and time at which the message was originated.",
			"x-example": "Mon, 05 Mar 2018 16:38:08 GMT",
			"required": false,
			"type": "string",
			"format": "date-time",
			"pattern": "^(Mon|Tue|Wed|Thu|Fri|Sat|Sun), [0-3]{1}[0-9]{1} (Jan|Feb|Mar|Apr|May|Jun|Jul|Aug|Sep|Oct|Nov|Dec) [1-3][0-9]{3} [0-2][0-9]:[0-6][0-9]:[0-6][0-9] GMT$"
		},
		"header-If-Modified-Since": {
			"name": "If-Modified-Since",
			"in": "header",
			"description": "The If-Modified-Since header specifies date-related conditions to be placed on the execution of a request.  The request will only be executed if the requested resource has not been modified since the date-time specified.  Because the behavior is complex, the details for usage are provided at http://www.w3.org/Protocols/rfc2616/rfc2616-sec14.html",
			"x-example": "Mon, 05 Mar 2018 16:38:08 GMT",
			"required": false,
			"type": "string",
			"format": "date-time",
			"pattern": "^(Mon|Tue|Wed|Thu|Fri|Sat|Sun), [0-3]{1}[0-9]{1} (Jan|Feb|Mar|Apr|May|Jun|Jul|Aug|Sep|Oct|Nov|Dec) [1-3][0-9]{3} [0-2][0-9]:[0-6][0-9]:[0-6][0-9] GMT$"
		},
		"header-If-None-Match": {
			"name": "If-None-Match",
			"in": "header",
			"description": "The If-None-Match header specifies an ETag-related condition to be placed on the execution of a request.  The request will NOT be executed if the ETag of the requested resource matches one of those specified in the If-None-Match header.  Because the behavior is complex, the details for usage are provided at http://www.w3.org/Protocols/rfc2616/rfc2616-sec14.html",
			"x-example": "*",
			"required": false,
			"type": "string",
			"minLength": 1,
			"maxLength": 256,
			"pattern": "^[\\S]*$"
		},
		"header-application-id": {
			"name": "application-id",
			"in": "header",
			"description": "Identifies the application, system, or tool that is being used to perform the transaction related to this request. Sample values:ACUI, ESERVICE, REBELLION, WARP",
			"x-example": "REBELLION",
			"required": false,
			"type": "string",
			"minLength": 1,
			"maxLength": 256,
			"pattern": "^[\\S]*$"
		},
		"header-channel-id": {
			"name": "channel-id",
			"in": "header",
			"description": "Categorization of access or business stream.",
			"x-example": "IVR",
			"required": false,
			"type": "string",
			"minLength": 1,
			"maxLength": 256,
			"pattern": "^[\\S]*$"
		},
		"header-dealer-code": {
			"name": "dealer-code",
			"in": "header",
			"description": "Unique code to identify the dealer/rep user.",
			"x-example": "34234322",
			"required": true,
			"type": "string"
		},
		"header-interaction-id": {
			"name": "interaction-id",
			"in": "header",
			"description": "Alphanumeric value represent a common transaction id across all calls made from UI, while completing all business activity needs of a particular customer.",
			"x-example": "cc688d54-50d1-49d4-8c5d-95459d1172e8",
			"required": false,
			"type": "string",
			"minLength": 1,
			"maxLength": 256,
			"pattern": "^[\\S]*$"
		},
		"header-service-transaction-id": {
			"name": "service-transaction-id",
			"in": "header",
			"description": "Request ID echoed back by server.",
			"x-example": "23409209723",
			"required": false,
			"type": "string",
			"minLength": 1,
			"maxLength": 256,
			"pattern": "^[\\S]*$"
		},
		"header-session-id": {
			"name": "session-id",
			"in": "header",
			"description": "A value populated by the sender used to track the transactions that occur during a session, a long-lasting interaction that ismaintained by the sender.",
			"x-example": "350b91ec-4a64-4b10-a3f3-a78c8db3924a",
			"required": false,
			"type": "string",
			"minLength": 1,
			"maxLength": 256,
			"pattern": "^[\\S]*$"
		},
		"header-store-id": {
			"name": "store-id",
			"in": "header",
			"description": "Unique identifier for the retail store location.",
			"x-example": "0279",
			"required": false,
			"type": "string",
			"minLength": 1,
			"maxLength": 256,
			"pattern": "^[\\S]*$"
		},
		"header-timestamp": {
			"name": "timestamp",
			"in": "header",
			"description": "ms since 1/1/70 adjusted to GMT",
			"x-example": "1524599536",
			"required": false,
			"type": "integer",
			"format": "int64",
			"minimum": 0,
			"maximum": 999999999999,
			"pattern": "^[\\d]*$"
		},
		"header-user-id": {
			"name": "user-id",
			"in": "header",
			"description": "NT id of the one who is managing the transaction from CARE/RETAIL channels.",
			"x-example": "Deprecated Header",
			"required": false,
			"type": "string",
			"minLength": 1,
			"maxLength": 256,
			"pattern": "^[\\S ]*$"
		},
		"header-workflow-id": {
			"name": "workflow-id",
			"in": "header",
			"description": "Business Use Case",
			"x-example": "ACTIVATION",
			"required": false,
			"type": "string",
			"minLength": 1,
			"maxLength": 256,
			"pattern": "^[\\S]*$"
		}
	},
	"securityDefinitions": {
		"oauth2": {
			"type": "oauth2",
			"description": "oauth2 Authentication.",
			"tokenUrl": "https://host:env/v1/oauth2/accesstoken?grant_type=client_credentials",
			"flow": "application",
			"scopes": {}
		}
	},
	"x-servers": [{
		"url": "http://127.0.0.1/",
		"description": "Test Server 1."
	}]
}
