@startuml
title Invoice status in SAP

actor "DPS" as dps
participant "apigee" as apigee
participant "sappi" as sappi
participant "sapecc" as sapecc



dps -> apigee : GET : /supplychain/v1/order-to-cash/invoice-item-details
apigee -> sappi : GET:invoice-item-details
sappi -> sapecc : GET:invoice-item-details



alt Invoice Process Success
sapecc -> sappi : Invoice order details
sappi -> apigee : Invoice order details
apigee -> dps : Invoice order details


else Invoice details error

              alt Invoice details not found
                     sapecc -> sappi : Details not found
                     sappi -> apigee : Details not found
                     apigee -> dps : Details not found
              else System error
                     sapecc -> sappi : System error
                     sappi -> apigee : System error
                     apigee -> dps : System error
              end



end



/'****************************************************'/


@enduml
