@startuml
autonumber
title "SOA Cloudstorage Transactions Log Service Flow - Sequence Diagram "


actor APKUDO
actor SOA

APKUDO->SOA: APKUDO will invoke GET API hosted at SOA side \n to get the list of Files names uploaded on AWS-S3 for Particular day 
note right of APKUDO #aqua
Call Transaction Logservice GET API  
end note

APKUDO->APIGEE_Gateway:Transaction Logservice GET API Call with APIGEE(Authenticate with OAuth code)
APIGEE_Gateway-->APIGEE_Gateway:Authentication Failed
APIGEE_Gateway->APKUDO:Authentication Failed Reported

APIGEE_Gateway-->APIGEE_Gateway:Authentication Success
APIGEE_Gateway->API_TransactionLogservice:Invoke transaction-logservice API(invokingSystem,transactionDate,startTime,endTime)
API_TransactionLogservice->SOA_TransactionLogController: Initiated SOA_TransactionLogserviceController


SOA_TransactionLogController->SOA_TransactionLogService:Validate the Mandatory Fields as specified in the swagger specification
SOA_TransactionLogService-->SOA_TransactionLogService: Validation Failed
SOA_TransactionLogService->SOA_TransactionLogController:Mandatory Fields Validation Failed 
SOA_TransactionLogController->APKUDO:Mandatory Fields Validation Failed Reported

SOA_TransactionLogService-->SOA_TransactionLogService:Validation Success
SOA_TransactionLogService->SOA_DB:Get the list of File names for the requested transactionDate with time range
SOA_DB-->SOA_DB:Data Retrieving Failed 
SOA_DB->SOA_TransactionLogService:Data Retrieving Failed  Reported
SOA_TransactionLogService-->SOA_TransactionLogService:Data Failed Logged in Logger
SOA_DB-->SOA_DB:Data Retrieving Success
SOA_DB-->SOA_TransactionLogService:Data Retrieving Success Reported 
SOA_TransactionLogService-->SOA_TransactionLogService:Data Retrieved response logged in Logger 
SOA_TransactionLogService->SOA_TransactionLogController:Data Retrieved response send back to controller
note right of APKUDO #aqua
{
        "invokingSystem": "AP",
        "fileCreatedList": [
          {
            "fileName": "Store2RC_transfer_4100545925",
            "fileCreatedTime": "2019-04-12T14:28:26.741Z"
          },
          {
            "fileName": "Store2RC_transfer_4100545926",
            "fileCreatedTime": "2019-04-12T15:28:26.741Z"
          }
        ]
      }
end note


SOA_TransactionLogController->APKUDO:Transaction Logservice GET API Call Response
@enduml
