@startuml
actor Mobile_Expert
Participant General_queue_screen
Participant View_screen
Participant Remove_modal
Participant Serve_now_screen
Participant APIGEE
Participant HEROKU


title Customer-Welcome General queue(Customers and Retail outbound messages that are waiting to be served)

Mobile_Expert -> General_queue_screen : clicks General queue in the queue dropdown
General_queue_screen -> APIGEE: get customers in general queue (/queue/get-customers)
General_queue_screen -> APIGEE: get store wait time(/queue/get-store-wait-time)
APIGEE -> HEROKU: get customers in general queue (/queue/get-customers)
APIGEE -> HEROKU: get store wait time(/queue/get-store-wait-time)


activate General_queue_screen
General_queue_screen <--HEROKU: get customers in general queue (/queue/get-customers) Response
General_queue_screen <--HEROKU: get store wait time(/queue/get-store-wait-time) Response
Mobile_Expert -> General_queue_screen: Selects the customer and drop down opens


Group Customer
|||
Group View
Mobile_Expert -> General_queue_screen: clicks the View button and View page opens
deactivate General_queue_screen
activate View_screen


group Back
Mobile_Expert -> View_screen : clicks Back button
View_screen -> APIGEE : get customers in general queue (/queue/get-customers)
View_screen -> APIGEE : get store wait time(/queue/get-store-wait-time)
deactivate View_screen
APIGEE -> HEROKU: get customers in general queue (/queue/get-customers)
APIGEE -> HEROKU: get store wait time(/queue/get-store-wait-time)
activate General_queue_screen
General_queue_screen <--HEROKU: get customers in general queue (/queue/get-customers) Response
General_queue_screen <--HEROKU: get store-wait-time(/queue/get-store-wait-time) Response
end
deactivate General_queue_screen
activate View_screen
|||

group Remove(Refer to Remove CTA below)

end
deactivate General_queue_screen

|||
Group Serve now (Refer to Serve now CTA below)

end
end
|||

group Dropdown - Remove
Mobile_Expert -> General_queue_screen : clicks Remove button and Remove modal opens
activate Remove_modal
Mobile_Expert -> Remove_modal: Selects the reason for removal(Enables the Remove button)
Mobile_Expert -> Remove_modal: clicks the Remove button
Remove_modal -> APIGEE: Remove customer in-line
Remove_modal -> APIGEE: get customers in general queue (/queue/get-customers)
Remove_modal -> APIGEE: get store wait time(/queue/get-store-wait-time)
deactivate Remove_modal
APIGEE -> HEROKU: Remove customer inline(/queue/in-line)
APIGEE -> HEROKU: get customers in general queue (/queue/get-customers)
APIGEE -> HEROKU: get store wait time(/queue/get-store-wait-time)
activate General_queue_screen

General_queue_screen <--HEROKU: Remove customer inline(/queue/in-line) Response
General_queue_screen <--HEROKU: get customers in general queue (/queue/get-customers) Response
General_queue_screen <--HEROKU: get store wait time(/queue/get-store-wait-time) Response
end
deactivate General_queue_screen
|||

Group Dropdown - Serve now
Mobile_Expert -> View_screen : clicks Serve now button
activate View_screen
View_screen -> APIGEE: get customers(logged in agent - being served)
View_screen -> APIGEE: Add customer inline(/queue/in-line)
View_screen -> APIGEE: get store wait time(/queue/get-store-wait-time)
deactivate View_screen
APIGEE -> HEROKU: get customers(logged in agent - being served)
APIGEE -> HEROKU: Add customer inline(/queue/in-line)
APIGEE -> HEROKU: get store wait time(/queue/get-store-wait-time)

activate Serve_now_screen
Serve_now_screen<--HEROKU: get customers(logged in agent - being served) Response
Serve_now_screen <--HEROKU: Add customer inline(/queue/in-line) Response
Serve_now_screen <--HEROKU: get store wait time(/queue/get-store-wait-time) Response
deactivate Serve_now_screen
end
end

|||
|||


Group Retail Outbound Message

group ROBM is assigned to logged in agent or unassigned
Group View screen
Mobile_Expert -> General_queue_screen : clicks View button and View screen is opened
activate View_screen
Mobile_Expert -> View_screen: clicks the Back button
View_screen -> APIGEE : get customers in general queue (/queue/get-customers)
View_screen -> APIGEE : get store wait time(/queue/get-store-wait-time)
APIGEE -> HEROKU: get customers in general queue (/queue/get-customers)
APIGEE -> HEROKU: get store wait time(/queue/get-store-wait-time)
deactivate View_screen

activate General_queue_screen
General_queue_screen <--HEROKU: get customers in general queue (/queue/get-customers) Response
General_queue_screen <--HEROKU: get store wait time(/queue/get-store-wait-time) Response
deactivate General_queue_screen
end
Group Serve now

Mobile_Expert -> General_queue_screen : clicks the Serve now button
activate General_queue_screen
General_queue_screen -> APIGEE : get customers(logged in agent - being served)
General_queue_screen -> APIGEE :update-engagment
General_queue_screen -> APIGEE : get store wait time(/queue/get-store-wait-time)
General_queue_screen -> APIGEE : get engagment

deactivate General_queue_screen

APIGEE -> HEROKU: get customers(logged in agent - being served)
APIGEE -> HEROKU: update engagment
APIGEE -> HEROKU: get store wait time(/queue/get-store-wait-time)
APIGEE -> HEROKU: get engagment
activate Serve_now_screen
Serve_now_screen <--HEROKU: get customers(logged in agent - being served) Response
Serve_now_screen  <--HEROKU: update engagment Response
Serve_now_screen  <--HEROKU: get store wait time(/queue/get-store-wait-time) Response
Serve_now_screen <--HEROKU: get engagment Response
deactivate Serve_now_screen
end
end
|||


Group ROBM is not assigned to logged in agent (Serve now button disable)
Mobile_Expert -> General_queue_screen : clicks View button and View screen is opened
activate View_screen
Group View screen
Mobile_Expert -> View_screen: clicks the Back button
View_screen -> APIGEE: get customers in general queue (/queue/get-customers)
View_screen -> APIGEE:: get store wait time(/queue/get-store-wait-time)
deactivate View_screen
APIGEE -> HEROKU: get customers in general queue (/queue/get-customers)
APIGEE -> HEROKU: get store wait time(/queue/get-store-wait-time)

activate General_queue_screen
General_queue_screen<--HEROKU: get customers in general queue (/queue/get-customers) Response
General_queue_screen <--HEROKU: get store wait time(/queue/get-store-wait-time) Response
end
end 
end
@enduml
