@startuml

!define MS_SERVICE Device-Management-V6
!define MS_OPERATION validate-device
!define LAST_UPDATE %date[yyyy.MM.dd 'at' HH:mm]%
!define module(x) component x <<module>> 
!define send(a,b,c) a->b : c
!define icchksts_response(a,b) a-->b : Equipment statuses
!define poVal_response(a,b) a-->b : Valid device info
!define device_detail_response(a,b) a-->b : Device detail response

!define device_validation_responce(a,b) a-->b : Byod compatibility information \n and Equipment statuses.

left header
<font color=blue>MS: MS_SERVICE/MS_OPERATION</font>
endheader

title
MS: MS_SERVICE/MS_OPERATION
Last update: LAST_UPDATE

end title


hide footbox



center footer


Copyright (c) 2019 Amdocs.

Information Security Level 1 - Confidential

CONTAINS RESTRICTED - PROPRIETARY INFORMATION

This document is strictly confidential and proprietary; to be used only by authorized persons
on a need to know basis, and must not be distributed without specific permission.

In the event of unauthorized use of this document or the confidential information it contains,
violators will be subject to sever disciplinary action, based on Amdocs regulations, as well as
any other sanctions applicable by law.

endfooter


participant Channel
participant "device-management-\nservices-v6\nMS" as DM
participant "TMUSWsClient" as TMO
participant "TUXEDO/CSM" as TUX

skinparam sequenceArrowThickness 2
skinparam ArrowColor  #blue 

Channel -> DM: validate-device (Device information)
Activate DM #lightgreen

alt trn exists

send(DM,TMO,icGtSIIByIMSI (trn))
Activate TMO #lightgreen

device_detail_response(TMO,DM)
Deactivate TMO

end

send(DM,TUX,icChkEsts (Serial number and type))
Activate TUX #lightgreen

icchksts_response(TUX,DM)
Deactivate TUX

send(DM,TUX,poValItemBySN (Device informantion))
Activate TUX #lightgreen

poVal_response(TUX,DM)
Deactivate TUX

device_validation_responce(DM,Channel)
Deactivate DM

@enduml