@startuml Get Subscriber Info

actor Wunderman
boundary "EDS MADS API" as api
database "Data Store" as db

Wunderman -> api: Request Token
note left: Credentials

alt Valid Credentials
    api -> Wunderman: Token
else Invalid Credentials
    api -> Wunderman: Error
end

Wunderman -> api: Request Subscriber Info
note left: Token, IMEI

alt Valid Token
    api -> db: Request Subscriber Info
    note left: IMEI
    db -> api: Return Subscriber Info
    api -> Wunderman: Return Subscriber Info
else Invalid Token
    api -> Wunderman: Error
end

@enduml