@startuml


title Auto Attendant - Fetching Tree Structure

participant UCCAdmin as Admin
Admin -> Browser: types into browser
participant UCCAdminPortal as UCC
Browser -> UCC: login into the portal
UCC -> UCC:Admin is on the profile page \nof AA and clicks on Edit AA


note left of UCC
User clicks on the
edit AA button and
lands on the tree view
page of AA
end note 


note left of UCC
Pull out the whole
information for AA
end note
participant APIGEELayer1 as APIGEE
participant UCCAdminPortalExpSvc as ExpLayer

UCC -> APIGEE:Call the API auto-attendant/{entryPolicyId}\nto fetch the AA information
APIGEE -> APIGEE: Authenticate the request
APIGEE -> ExpLayer: Call the API auto-attendant/{entryPolicyId}\nto fetch the AA information
participant APIGEELayer2 as APIGEE2

note left of ExpLayer
Fetch the IVR PolicyMap
from BIF
end note
ExpLayer -> APIGEE2 : Call the BIF API queryIVRPolicyMap
APIGEE2 -> APIGEE2 : Authenticate the request
participant BIF
APIGEE2 -> BIF: Call the BIF API queryIVRPolicyMap
BIF --> ExpLayer:Response from BIF

note left of ExpLayer
Fetch the Open hours
schedule from BIF
end note

ExpLayer -> APIGEE2 : Call the BIF API querySchedule
APIGEE2 -> APIGEE2 : Authenticate the request
APIGEE2 -> BIF: Call the BIF API querySchedule
BIF --> ExpLayer:Response from BIF

note left of ExpLayer
Fetch the Open hours
Tree from BIF
end note
ExpLayer -> APIGEE2 : Call the BIF API retrieveIVRTree
APIGEE2 -> APIGEE2 : Authenticate the request
APIGEE2 -> BIF: Call the BIF API retrieveIVRTree
BIF --> ExpLayer: Response from BIF

note left of ExpLayer
Fetch the Closed hours
schedule from BIF
end note
ExpLayer -> APIGEE2 : Call the BIF API querySchedule
APIGEE2 -> APIGEE2 : Authenticate the request
APIGEE2 -> BIF: Call the BIF API querySchedule
BIF --> ExpLayer:Response from BIF

note left of ExpLayer
Fetch the Closed hours
Tree from BIF
end note
ExpLayer -> APIGEE2 : Call the BIF API retrieveIVRTree
APIGEE2 -> APIGEE2 : Authenticate the request
APIGEE2 -> BIF: Call the BIF API retrieveIVRTree
BIF --> ExpLayer: Response from BIF

participant LocationDB as DB

alt If we are routing to a User

note left of ExpLayer
Fetch the user information
from UCC database by calling
the API /lines/{line} API (pass the 
number) and get userId. After this,
call /users/{user} to get the first
and last name of the user.
end note
ExpLayer -> DB : Call the API /lines/{line} and pass the line
DB --> ExpLayer : Response from DB with userId
ExpLayer -> DB : Call the API /users/{user} and pass the userId
DB --> ExpLayer : Response from DB with User information
end


alt If we are routing to a Shared Number

note left of ExpLayer
Fetch the Shared Numbers'
name from BIF by calling
the API queryEnterprise
end note
ExpLayer -> APIGEE2 : Call the API queryEnterprise
APIGEE2 -> APIGEE2 : Authenticate the request
APIGEE2 -> BIF: Call the BIF API queryEnterprise
BIF --> ExpLayer: Response from BIF
end

ExpLayer --> UCC : AA data is consolidated and\nshown on the screen



@enduml