@startuml
title Admin Log Download/Error States

UCCAdmin ->UCCAdminPortal: Logs into the UCC Admin portal\nand navigates to the Admin log page
note left of UCCAdminPortal
Admin clicks on 'Download' button \nafter selecting the date range
end note
UCCAdminPortal->APIGEELayer: Download the Admin log
participant APIGEELayer as A
A ->A: Authenticate the \nrequest call
A->TransactionDB: (Transaction API)\n to download the admin log csv
note left of TransactionDB
I/P: TenantID
end note
TransactionDB->A: Response with csv file containing \nrequested info for\ngiven date range
note left of TransactionDB
Error Status will be either success/failure
end note
A-> A: Authenticate the\n request call
A->UCCAdminPortal: Downloaded file is available \n in Admins local system
UCCAdminPortal->UCCAdmin : Admin views the downloaded file\n on his local system
@enduml