{
    "swagger": "2.0",
    "info": {
        "title": "Existing Lines Details",
        "description": "Existing customer details",
        "version": "1.0.0",
        "contact": {
            "name": "Postpaid",
            "email": "Postpaid@t-mobile.com"
        }
    },
    "host": "dit01.api.t-mobile.com",
    "schemes": [
        "https"
    ],
    "basePath":"/reb2-customer/v1",
    "produces": [
        "application/json"
    ],
    "paths": {
        "/existingLines": {
            "get": {
                "summary": "api_2038_getExistingLines",
                "description": "This API is used to submit the order as per the current cart state.",
                "parameters": [
                    {
                        "name": "Authorization",
                        "in": "header",
                        "required": true,
                        "type": "string",
                        "description": "Format \"Authorization Bearer <<OAuth Token>>\"",
                        "pattern": ".+",
                        "x-example": {}
                    },
                    {
                        "name": "Content-Type",
                        "in": "header",
                        "type": "string",
                        "required": true,
                        "description": "Request message format (default is application/json)",
                        "pattern": ".+",
                        "x-example": {}
                    },
                    {
                        "name": "Accept",
                        "in": "header",
                        "type": "string",
                        "required": false,
                        "description": "Content-Types that are acceptable. Currently only application/json is supported",
                        "x-example": {}
                    },
                    {
                        "name": "api-version",
                        "in": "header",
                        "type": "string",
                        "required": false,
                        "description": "API version.",
                        "x-example": {}
                    },
                    {
                        "name": "channelId",
                        "in": "header",
                        "type": "string",
                        "enum": [
                            "WEB",
                            "RETAIL",
                            "CARE",
                            "NA"
                        ],
                        "required": true,
                        "description": "Channel identifier. NA is treated as default.",
                        "x-example": {}
                    },
                    {
                        "name": "applicationId",
                        "in": "header",
                        "type": "string",
                        "enum": [
                            "TMO",
                            "MYTMO",
                            "NA"
                        ],
                        "required": true,
                        "description": "Consuming Application identifier. NA is treated as default. More values will be added to swagger as clients are onboarded.",
                        "x-example": {}
                    },
                    {
                        "name": "interactionId",
                        "in": "header",
                        "type": "string",
                        "required": true,
                        "description": "Alphanumeric value represent a common transaction id across all calls made from UI, while completing all business activity needs of a particular customer.",
                        "pattern": ".+",
                        "x-example": {}
                    },
                    {
                        "name": "storeId",
                        "in": "header",
                        "type": "string",
                        "required": false,
                        "description": "Unique identifier for the retail store location. Mandatory for FullService  (Tmobile RETAIL channel). Need to discuss with T-Mobile business liaison if there is a need for Partner to pass their retail Store Id).",
                        "x-example": {}
                    },
                    {
                        "name": "follow",
                        "in": "header",
                        "type": "boolean",
                        "required": false,
                        "description": "If true, return the resource detail after performing the action. Default value is false.",
                        "x-example": {}
                    },
                    {
                        "name": "If-Modified-Since",
                        "in": "header",
                        "description": "The If-Modified-Since header specifies date-related conditions to be placed on the execution of a request.  The request will only be executed if the requested resource has not been modified since the date-time specified.  Because the behavior is complex, the details for usage are provided at http://www.w3.org/Protocols/rfc2616/rfc2616-sec14.html",
                        "x-example": "Wed, 18-Apr-2018 11:34:57 GMT",
                        "required": false,
                        "type": "string"
                    },
                    {
                        "name": "If-None-Match",
                        "in": "header",
                        "description": "The If-None-Match header specifies an ETag-related condition to be placed on the execution of a request.  The request will NOT be executed if the ETag of the requested resource matches one of those specified in the If-None-Match header.  Because the behavior is complex, the details for usage are provided at http://www.w3.org/Protocols/rfc2616/rfc2616-sec14.html",
                        "x-example": "*",
                        "required": false,
                        "type": "string"
                    }
                ],
                "tags": [
                    "Existing Lines"
                ],
                "responses": {
                    "200": {
                        "description": "Existing lines details",
                        "schema": {
                            "$ref": "#/definitions/Customer"
                        },
                        "headers": {
                            "Cache-Control": {
                                "description": "No cache indicators supported at this time. Samples: no-cache",
                                "x-example": "no-cache",
                                "type": "string"
                            },
                            "Content-Encoding": {
                                "description": "The type of encoding used on the data",
                                "x-example": "gzip,deflate",
                                "type": "string"
                            },
                            "Content-Language": {
                                "description": "The natural language or languages of the intended audience for the enclosed content",
                                "x-example": "da",
                                "type": "string"
                            },
                            "Content-Length": {
                                "description": "The Content-Length header specifies the actual length of the returned payload.",
                                "x-example": "1024",
                                "type": "string"
                            },
                            "Content-Type": {
                                "description": "The MIME type of this content",
                                "x-example": "text/xml",
                                "pattern": "^[\\S]*$",
                                "type": "string"
                            },
                            "Date": {
                                "description": "The date and time that the message was originated (in HTTP-date format as defined by RFC 7231 Date/Time Formats).",
                                "x-example": "Wed, 18-Apr-2018 11:34:57 GMT",
                                "type": "string",
                                "format": "date-time"
                            },
                            "ETag": {
                                "description": "The ETag header specifies the unique entity tag value for the returned resource.",
                                "x-example": "*",
                                "type": "string"
                            },
                            "Last-Modified": {
                                "description": "The Last-Modified entity-header field indicates the date and time at which the origin server believes the variant was last modified.",
                                "x-example": "Wed, 18-Apr-2018 11:34:57 GMT",
                                "type": "string",
                                "format": "date-time"
                            },
                            "Transfer-Encoding": {
                                "description": "The form of encoding used to safely transfer the entity to the user. Currently defined methods are: chunked, compress, deflate, gzip, identity.",
                                "x-example": "chunked",
                                "type": "string"
                            },
                            "servicetransactionid": {
                                "description": "Internal identifier for transaction tracking an individual transaction/API request within API platform. Don_t receive/don_t send to downstream",
                                "x-example": "23409209723",
                                "type": "string"
                            },
                            "If-Match": {
                                "description": "the If-Match HTTP request header makes the request conditional. For GET and HEAD methods, the server will send back the requested resource only if it matches one of the listed ETags. For PUT and other non-safe methods, it will only upload the resource in this case.",
                                "x-example": "*",
                                "type": "string"
                            },
                            "If-None-Match": {
                                "description": "the If-Match HTTP request header makes the request conditional. For GET and HEAD methods, the server will send back the requested resource only if it matches one of the listed ETags. For PUT and other non-safe methods, it will only upload the resource in this case.",
                                "x-example": "*",
                                "type": "string"
                            }
                        }
                    },
                    "304": {
                        "description": "Not Modified",
                        "headers": {
                            "Cache-Control": {
                                "description": "No cache indicators supported at this time. Samples: no-cache",
                                "x-example": "no-cache",
                                "type": "string"
                            },
                            "ETag": {
                                "description": "The ETag header specifies the unique entity tag value for the returned resource.",
                                "x-example": "*",
                                "type": "string"
                            }
                        }
                    },
                    "400": {
                        "description": "Bad Request",
                        "schema": {
                            "type": "array",
                            "description": "An array of error objects.",
                            "minItems": 1,
                            "items": {
                                "$ref": "#/definitions/Error"
                            }
                        },
                        "examples": {
                            "application/json": [
                                {
                                    "code": "400",
                                    "userMessage": "Bad Request",
                                    "systemMessage": "Bad Request"
                                }
                            ]
                        },
                        "headers": {}
                    },
                    "401": {
                        "description": "Unauthorized",
                        "schema": {
                            "type": "array",
                            "description": "An array of error objects.",
                            "minItems": 1,
                            "items": {
                                "$ref": "#/definitions/Error"
                            }
                        },
                        "examples": {
                            "application/json": [
                                {
                                    "code": "401",
                                    "userMessage": "Unauthorized",
                                    "systemMessage": "Unauthorized"
                                }
                            ]
                        },
                        "headers": {}
                    },
                    "403": {
                        "description": "Client access denied",
                        "schema": {
                            "type": "array",
                            "description": "An array of error objects.",
                            "minItems": 1,
                            "items": {
                                "$ref": "#/definitions/Error"
                            }
                        },
                        "examples": {
                            "application/json": [
                                {
                                    "code": "403",
                                    "userMessage": "Client access denied",
                                    "systemMessage": "Client access denied"
                                }
                            ]
                        },
                        "headers": {}
                    },
                    "404": {
                        "description": "Resource not found",
                        "schema": {
                            "type": "array",
                            "description": "An array of error objects.",
                            "minItems": 1,
                            "items": {
                                "$ref": "#/definitions/Error"
                            }
                        },
                        "examples": {
                            "application/json": [
                                {
                                    "code": "404",
                                    "userMessage": "Resource not found",
                                    "systemMessage": "Resource not found"
                                }
                            ]
                        },
                        "headers": {}
                    },
                    "405": {
                        "description": "Method Not Allowed",
                        "schema": {
                            "type": "array",
                            "description": "An array of error objects.",
                            "minItems": 1,
                            "items": {
                                "$ref": "#/definitions/Error"
                            }
                        },
                        "examples": {
                            "application/json": [
                                {
                                    "code": "405",
                                    "userMessage": "Method Not Allowed",
                                    "systemMessage": "Method Not Allowed"
                                }
                            ]
                        },
                        "headers": {}
                    },
                    "406": {
                        "description": "Mismatching data format",
                        "schema": {
                            "type": "array",
                            "description": "An array of error objects.",
                            "minItems": 1,
                            "items": {
                                "$ref": "#/definitions/Error"
                            }
                        },
                        "examples": {
                            "application/json": [
                                {
                                    "code": "406",
                                    "userMessage": "Mismatching data format",
                                    "systemMessage": "Mismatching data format"
                                }
                            ]
                        },
                        "headers": {}
                    },
                    "500": {
                        "description": "System Error",
                        "schema": {
                            "type": "array",
                            "description": "An array of error objects.",
                            "minItems": 1,
                            "items": {
                                "$ref": "#/definitions/Error"
                            }
                        },
                        "examples": {
                            "application/json": [
                                {
                                    "code": "500",
                                    "userMessage": "System Error",
                                    "systemMessage": "System Error"
                                }
                            ]
                        },
                        "headers": {}
                    },
                    "503": {
                        "description": "Service unavailable",
                        "schema": {
                            "type": "array",
                            "description": "An array of error objects.",
                            "minItems": 1,
                            "items": {
                                "$ref": "#/definitions/Error"
                            }
                        },
                        "examples": {
                            "application/json": [
                                {
                                    "code": "503",
                                    "userMessage": "Service unavailable",
                                    "systemMessage": "Service unavailable"
                                }
                            ]
                        },
                        "headers": {}
                    }
                },
                "operationId": "/*ToDo*/SomeOpId",
                "security": [
                    {
                        "Oauth": []
                    }
                ]
            }
        }
    },
    "definitions": {
        "Accessory": {
            "$ref": "#/definitions/CartItem"
        },
        "Address": {
            "required": [
                "id",
                "addressCommunication",
                "usageContext"
            ],
            "properties": {
                "id": {
                    "type": "string",
                    "description": "/*ToDo*/ Some description",
                    "x-example": "/*ToDO*/ Some Example",
                    "pattern": ".+"
                },
                "addressCommunication": {
                    "required": [
                        "addressLine1",
                        "addressLine2",
                        "cityName",
                        "stateCode",
                        "timeZone",
                        "postalCode"
                    ],
                    "properties": {
                        "addressLine1": {
                            "type": "string",
                            "description": "/*ToDo*/ Some description",
                            "x-example": "/*ToDO*/ Some Example",
                            "pattern": ".+"
                        },
                        "addressLine2": {
                            "type": "string",
                            "description": "/*ToDo*/ Some description",
                            "x-example": "/*ToDO*/ Some Example",
                            "pattern": ".+"
                        },
                        "cityName": {
                            "type": "string",
                            "description": "/*ToDo*/ Some description",
                            "x-example": "/*ToDO*/ Some Example",
                            "pattern": ".+"
                        },
                        "stateCode": {
                            "type": "string",
                            "description": "/*ToDo*/ Some description",
                            "x-example": "/*ToDO*/ Some Example",
                            "pattern": ".+"
                        },
                        "timeZone": {
                            "type": "string",
                            "description": "/*ToDo*/ Some description",
                            "x-example": "/*ToDO*/ Some Example",
                            "pattern": ".+"
                        },
                        "postalCode": {
                            "type": "string",
                            "description": "/*ToDo*/ Some description",
                            "x-example": "/*ToDO*/ Some Example",
                            "pattern": ".+"
                        }
                    },
                    "type": "object",
                    "description": "/*ToDo*/ Some description",
                    "x-example": "/*ToDO*/ Some Example"
                },
                "usageContext": {
                    "type": "array",
                    "items": {
                        "type": "string",
                        "description": "/*ToDo*/ Some description",
                        "x-example": "/*ToDO*/ Some Example",
                        "pattern": ".+"
                    },
                    "description": "/*ToDo*/ Some description",
                    "x-example": "/*ToDO*/ Some Example"
                }
            },
            "type": "object",
            "description": "/*ToDo*/ Some description",
            "x-example": "/*ToDO*/ Some Example"
        },
        "FAN": {
            "type": "object",
            "properties": {
                "accessories": {
                    "type": "array",
                    "items": {
                        "$ref": "#/definitions/Accessory"
                    },
                    "description": "/*ToDo*/ Some description",
                    "x-example": "/*ToDO*/ Some Example"
                },
                "cartId":{
                    "type":"string",
                    "description":"cartId"
                },
                "linesOccupied":{
                    "type":"string",
                    "description":"linesOccupied"
                },
                "linesRemaining":{
                    "type":"string",
                    "description":"linesRemaining"
                },
                "linesTotal":{
                    "type":"string",
                    "description":"linesTotal"
                },
                "lines": {
                    "type": "array",
                    "description": "Line Details",
                    "items": {
                        "$ref": "#/definitions/Line"
                    },
                    "x-example": "/*ToDO*/ Some Example"
                },
                "devices": {
                    "type": "array",
                    "description": "list of standalone devices in cart outside of line context",
                    "items": {
                        "$ref": "#/definitions/Device"
                    },
                    "x-example": "/*ToDO*/ Some Example"
                },
                "services": {
                    "type": "array",
                    "items": {
                        "$ref": "#/definitions/Service"
                    },
                    "description": "/*ToDo*/ Some description",
                    "x-example": "/*ToDO*/ Some Example"
                },
                "pricing": {
                    "$ref": "#/definitions/CartPricing"
                }
            },
            "description": "/*ToDo*/ Some description",
            "x-example": "/*ToDO*/ Some Example"
        },
        "Customer": {
            "type": "object",
            "properties": {
                "status": {
                    "$ref": "#/definitions/Status"
                },
                "errors": {
                    "$ref": "#/definitions/Errors"
                },
                "financialAccount": {
                    "$ref": "#/definitions/FAN"
                }
            },
            "description": "/*ToDo*/ Some description",
            "x-example": "/*ToDO*/ Some Example"
        },
        "Device": {
            "$ref": "#/definitions/CartItem"
        },
        "Errors": {
            "type": "array",
            "items": {
                "properties": {
                    "code": {
                        "type": "string",
                        "description": "/*ToDo*/ Some description",
                        "x-example": "/*ToDO*/ Some Example",
                        "pattern": ".+"
                    },
                    "userMessage": {
                        "type": "string",
                        "description": "Friendly message contextual to the API operation.",
                        "x-example": "/*ToDO*/ Some Example",
                        "pattern": ".+"
                    },
                    "systemMessage": {
                        "type": "string",
                        "description": "/*ToDo*/ Some description",
                        "x-example": "/*ToDO*/ Some Example",
                        "pattern": ".+"
                    }
                },
                "type": "object",
                "description": "/*ToDo*/ Some description",
                "x-example": "/*ToDO*/ Some Example"
            },
            "description": "/*ToDo*/ Some description",
            "x-example": "/*ToDO*/ Some Example"
        },
        "Line": {
            "type": "object",
            "properties": {
                "id": {
                    "type": "string",
                    "description": "Line ID is the encoded system-generated id",
                    "x-example": "/*ToDO*/ Some Example",
                    "pattern": ".+"
                },
                "lineNumber": {
                    "type": "string",
                    "description": "Line No is the decimal numbering for line used to drive display sequencing.",
                    "x-example": "/*ToDO*/ Some Example",
                    "pattern": ".+"
                },
                "nickName": {
                    "type": "string",
                    "description": "nick name",
                    "x-example": "/*ToDO*/ Some Example",
                    "pattern": ".+"
                },
                "lineType": {
                    "type": "string",
                    "description": "Line type indicates if line is voice or data.",
                    "x-example": "/*ToDO*/ Some Example",
                    "pattern": ".+"
                },
                "lineName": {
                    "type": "string",
                    "description": "Friendly name assigned by the API consumer. ex. John's line",
                    "x-example": "/*ToDO*/ Some Example",
                    "pattern": ".+"
                },
                "phoneNumber": {
                    "type": "string",
                    "description": "Phone Number for the line.",
                    "x-example": "/*ToDO*/ Some Example",
                    "pattern": ".+"
                },
                "device": {
                    "$ref": "#/definitions/Device"
                },
                "plan": {
                    "type": "array",
                    "items": {
                        "$ref": "#/definitions/Plan"
                    },
                    "description": "/*ToDo*/ Some description",
                    "x-example": "/*ToDO*/ Some Example"
                },
                "services": {
                    "type": "array",
                    "items": {
                        "$ref": "#/definitions/Service"
                    },
                    "description": "/*ToDo*/ Some description",
                    "x-example": "/*ToDO*/ Some Example"
                },
                "price": {
                    "$ref": "#/definitions/CartPrice"
                }
            },
            "description": "/*ToDo*/ Some description",
            "x-example": "/*ToDO*/ Some Example"
        },
        "Plan": {
            "$ref": "#/definitions/CartItem"
        },
        "Price": {
            "type": "object",
            "properties": {
                "amount": {
                    "type": "number",
                    "format": "float",
                    "description": "Amount value",
                    "x-example": "/*ToDO*/ Some Example",
                    "minimum": 0,
                    "maximum": 999,
                    "pattern": ".+"
                },
                "currency": {
                    "type": "string",
                    "description": "Name of currency",
                    "x-example": "/*ToDO*/ Some Example",
                    "pattern": ".+"
                },
                "display": {
                    "type": "string",
                    "description": "Amount value",
                    "x-example": "/*ToDO*/ Some Example",
                    "pattern": ".+"
                },
                "contractTerm": {
                    "type": "string",
                    "description": "Contract term for the monthly payments. It is only for Monthly pricing.",
                    "x-example": "/*ToDO*/ Some Example",
                    "pattern": ".+"
                }
            },
            "description": "/*ToDo*/ Some description",
            "x-example": "/*ToDO*/ Some Example"
        },
        "PriceSummary": {
            "type": "object",
            "description": "Due today and Due monthly price amounts",
            "properties": {
                "monthlyPrice": {
                    "type": "object",
                    "properties": {
                        "listPrice": {
                            "$ref": "#/definitions/Price"
                        },
                        "salePrice": {
                            "$ref": "#/definitions/Price"
                        }
                    },
                    "description": "/*ToDo*/ Some description",
                    "x-example": "/*ToDO*/ Some Example"
                },
                "payNowPrice": {
                    "type": "object",
                    "properties": {
                        "listPrice": {
                            "$ref": "#/definitions/Price"
                        },
                        "salePrice": {
                            "$ref": "#/definitions/Price"
                        }
                    },
                    "description": "/*ToDo*/ Some description",
                    "x-example": "/*ToDO*/ Some Example"
                },
                "totalDeltaRecurringDueAmount": {
                    "type": "string",
                    "description": "total delta recurring due amount",
                    "x-example": "/*ToDO*/ Some Example",
                    "pattern": ".+"
                }
            },
            "x-example": "/*ToDO*/ Some Example"
        },
        "CartPricing": {
            "type": "object",
            "properties": {
                "subTotal": {
                    "$ref": "#/definitions/CartPrice"
                },
                "tax": {
                    "type": "object",
                    "properties": {
                        "totalTax": {
                            "$ref": "#/definitions/Price"
                        },
                        "countyTax": {
                            "$ref": "#/definitions/Price"
                        },
                        "federalTax": {
                            "$ref": "#/definitions/Price"
                        },
                        "stateTax": {
                            "$ref": "#/definitions/Price"
                        }
                    },
                    "description": "/*ToDo*/ Some description",
                    "x-example": "/*ToDO*/ Some Example"
                },
                "total": {
                    "$ref": "#/definitions/PriceSummary"
                }
            },
            "description": "/*ToDo*/ Some description",
            "x-example": "/*ToDO*/ Some Example"
        },
        "ConflictAndWarningDetails": {
            "type": "object",
            "properties": {
                "sourceOfferId": {
                    "type": "string",
                    "description": "Id of the offer",
                    "x-example": "/*ToDO*/ Some Example",
                    "pattern": ".+"
                },
                "type": {
                    "type": "string",
                    "description": "Type of incompatibility. Conflict or a warning.",
                    "enum": [
                        "CONFLICT",
                        "WARNING"
                    ],
                    "x-example": "/*ToDO*/ Some Example",
                    "pattern": ".+"
                }
            },
            "description": "/*ToDo*/ Some description",
            "x-example": "/*ToDO*/ Some Example"
        },
        "CartItem": {
            "type": "object",
            "description": "Represents item details in the cart",
            "properties": {
                "id": {
                    "type": "string",
                    "description": "Id of the item. It can be lineId/Device Id/Service Id/accessory Id/plan Id",
                    "x-example": "/*ToDO*/ Some Example",
                    "pattern": ".+"
                },
                "conflictsAndWarnings": {
                    "type": "array",
                    "items": {
                        "$ref": "#/definitions/ConflictAndWarningDetails"
                    },
                    "description": "/*ToDo*/ Some description",
                    "x-example": "/*ToDO*/ Some Example"
                },
                "familyId": {
                    "type": "string",
                    "description": "Family Id of the Product",
                    "x-example": "/*ToDO*/ Some Example",
                    "pattern": ".+"
                },
                "familyName": {
                    "type": "string",
                    "description": "Family name of the Product",
                    "x-example": "/*ToDO*/ Some Example",
                    "pattern": ".+"
                },
                "offerId": {
                    "type": "string",
                    "description": "Offer ID",
                    "x-example": "/*ToDO*/ Some Example",
                    "pattern": ".+"
                },
                "offerName": {
                    "type": "string",
                    "description": "Offer Name",
                    "x-example": "/*ToDO*/ Some Example",
                    "pattern": ".+"
                },
                "sku": {
                    "type": "string",
                    "description": "device sku",
                    "x-example": "/*ToDO*/ Some Example",
                    "pattern": ".+"
                },
                "skuImageUrl": {
                    "type": "string",
                    "description": "Image of the SKU",
                    "x-example": "/*ToDO*/ Some Example",
                    "pattern": ".+"
                },
                "productSubTypes": {
                    "type": "array",
                    "description": "sub types of products. If not specified defaults to ALL.",
                    "items": {
                        "$ref": "#/definitions/ProductSubType"
                    },
                    "x-example": "/*ToDO*/ Some Example"
                },
                "warningDescription": {
                    "type": "string",
                    "description": "warning or error descriptions coming from WSIL",
                    "x-example": "/*ToDO*/ Some Example",
                    "pattern": ".+"
                },
                "cartItemStatus": {
                    "type": "string",
                    "description": "either warning or Error",
                    "x-example": "/*ToDO*/ Some Example",
                    "pattern": ".+"
                },
                "statusCode": {
                    "type": "string",
                    "description": "flag to identify whether a plan is added/removed",
                    "enum": [
                        "ADDED",
                        "REMOVED",
                        "WARNING"
                    ],
                    "x-example": "/*ToDO*/ Some Example",
                    "pattern": ".+"
                },
                "itemRelation": {
                    "$ref": "#/definitions/ItemRelationDef"
                },
                "effectiveDate": {
                    "type": "string",
                    "description": "effective data selected for the plan",
                    "x-example": "/*ToDO*/ Some Example",
                    "pattern": ".+"
                },
                "isDownGrade": {
                    "type": "string",
                    "description": "to enable the today radio button on sef effective date page",
                    "x-example": "/*ToDO*/ Some Example",
                    "pattern": ".+"
                },
                "upc": {
                    "type": "string",
                    "description": "Manufacturer assigned UPC code",
                    "x-example": "/*ToDO*/ Some Example",
                    "pattern": ".+"
                },
                "description": {
                    "type": "string",
                    "description": "Description of the cart item",
                    "x-example": "/*ToDO*/ Some Example",
                    "pattern": ".+"
                },
                "mrcDecreased": {
                    "type": "string",
                    "description": "price decreased ",
                    "x-example": "/*ToDO*/ Some Example",
                    "pattern": ".+"
                },
                "enabled": {
                    "type": "boolean",
                    "description": "This boolean value indicates if the offer is available for selection (in context of services). In case if there is any conflict between the services then it will be false for the respective service.",
                    "x-example": "/*ToDO*/ Some Example",
                    "enum": [
                        true,
                        false
                    ]
                },
                "selected": {
                    "type": "boolean",
                    "description": "This flag indicates if the service is selected or not. It is also in the context of services.",
                    "x-example": "/*ToDO*/ Some Example",
                    "enum": [
                        true,
                        false
                    ]
                },
                "actionCode": {
                    "enum": [
                        "ADD",
                        "REMOVE",
                        "NA"
                    ],
                    "type": "string",
                    "description": "This code indicates the status for the cart item in the context of the transaction. e.g. REMOVE status indicates that the item was an existing service which is being removed as part of the current transaction.",
                    "x-example": "/*ToDO*/ Some Example",
                    "pattern": ".+"
                },
                "availability": {
                    "enum": [
                        "AVAILABLE",
                        "BACKORDER",
                        "PRE-ORDER"
                    ],
                    "type": "string",
                    "description": "Availablity of the product",
                    "x-example": "/*ToDO*/ Some Example",
                    "pattern": ".+"
                },
                "availableFromDate": {
                    "type": "string",
                    "description": "The availability start date for the product if it is currently not available.",
                    "x-example": "/*ToDO*/ Some Example",
                    "pattern": ".+"
                },
                "availableToDate": {
                    "type": "string",
                    "description": "The availability end date for the product if it is currently not available.",
                    "x-example": "/*ToDO*/ Some Example",
                    "pattern": ".+"
                },
                "category": {
                    "type": "string",
                    "description": "/*ToDo*/ Some description",
                    "x-example": "/*ToDO*/ Some Example",
                    "pattern": ".+"
                },
                "selectedPricingOption": {
                    "type": "string",
                    "description": "It is used to specify the price type selected for the devices or accessories.",
                    "enum": [
                        "FRP",
                        "EIP"
                    ],
                    "x-example": "/*ToDO*/ Some Example",
                    "pattern": ".+"
                },
                "color": {
                    "type": "string",
                    "description": "Selected Color of the offer variant",
                    "x-example": "/*ToDO*/ Some Example",
                    "pattern": ".+"
                },
                "colorSwatch": {
                    "type": "string",
                    "description": "Image of the color",
                    "x-example": "/*ToDO*/ Some Example",
                    "pattern": ".+"
                },
                "memory": {
                    "type": "string",
                    "description": "Selected Memory Capacity for the offer variant",
                    "x-example": "/*ToDO*/ Some Example",
                    "pattern": ".+"
                },
                "memoryUOM": {
                    "type": "string",
                    "description": "Unit of memory",
                    "x-example": "/*ToDO*/ Some Example",
                    "pattern": ".+"
                },
                "clubTier": {
                    "description": "The device tier for club  pricing",
                    "type": "string",
                    "x-example": "/*ToDO*/ Some Example",
                    "pattern": ".+"
                },
                "taxInclusive": {
                    "description": "Identifies if the tax is included in the pricing",
                    "type": "boolean",
                    "x-example": "/*ToDO*/ Some Example",
                    "enum": [
                        true,
                        false
                    ]
                },
                "imageURL": {
                    "type": "string",
                    "description": "Relative URL for the item Image",
                    "x-example": "/*ToDO*/ Some Example",
                    "pattern": ".+"
                },
                "offerSubType": {
                    "type": "string",
                    "description": "The product subtype such as Handset/Tablet/Simcard",
                    "x-example": "/*ToDO*/ Some Example",
                    "pattern": ".+"
                },
                "offerType": {
                    "type": "string",
                    "description": "Type of the product, It can be either Device/Accessory",
                    "x-example": "/*ToDO*/ Some Example",
                    "pattern": ".+"
                },
                "price": {
                    "$ref": "#/definitions/CartPrice"
                },
                "quantity": {
                    "type": "integer",
                    "description": "Number of items",
                    "x-example": "/*ToDO*/ Some Example",
                    "minimum": 0,
                    "maximum": 999,
                    "pattern": ".+"
                },
                "restockingFee": {
                    "type": "object",
                    "properties": {
                        "amount": {
                            "type": "number",
                            "format": "float",
                            "description": "Amount value",
                            "x-example": "/*ToDO*/ Some Example",
                            "minimum": 0,
                            "maximum": 999,
                            "pattern": ".+"
                        },
                        "currency": {
                            "type": "string",
                            "description": "Name of currency",
                            "x-example": "/*ToDO*/ Some Example",
                            "pattern": ".+"
                        }
                    },
                    "description": "/*ToDo*/ Some description",
                    "x-example": "/*ToDO*/ Some Example"
                },
                "SOCs": {
                    "type": "array",
                    "items": {
                        "type": "string",
                        "description": "/*ToDo*/ Some description",
                        "x-example": "/*ToDO*/ Some Example",
                        "pattern": ".+"
                    },
                    "description": "/*ToDo*/ Some description",
                    "x-example": "/*ToDO*/ Some Example"
                },
                "reportingAnswer": {
                    "type": "string",
                    "description": "reporting answer",
                    "enum": [
                        "BYPASS",
                        "PASS",
                        "FAIL"
                    ],
                    "x-example": "/*ToDO*/ Some Example",
                    "pattern": ".+"
                }
            },
            "x-example": "/*ToDO*/ Some Example"
        },
        "Promotion": {
            "type": "object",
            "properties": {
                "promoId": {
                    "type": "string",
                    "description": "System defined Promo ID",
                    "x-example": "/*ToDO*/ Some Example",
                    "pattern": ".+"
                },
                "shortDescription": {
                    "type": "string",
                    "description": "/*ToDo*/ Some description",
                    "x-example": "/*ToDO*/ Some Example",
                    "pattern": ".+"
                },
                "longDescription": {
                    "type": "string",
                    "description": "/*ToDo*/ Some description",
                    "x-example": "/*ToDO*/ Some Example",
                    "pattern": ".+"
                },
                "promoName": {
                    "type": "string",
                    "description": "Name of the promo applied",
                    "x-example": "/*ToDO*/ Some Example",
                    "pattern": ".+"
                },
                "promoType": {
                    "type": "string",
                    "description": "Type of Promo Applied",
                    "x-example": "/*ToDO*/ Some Example",
                    "pattern": ".+"
                },
                "promoCode": {
                    "type": "string",
                    "description": "Promo code to be applied",
                    "x-example": "/*ToDO*/ Some Example",
                    "pattern": ".+"
                },
                "discountValue": {
                    "$ref": "#/definitions/Price"
                }
            },
            "description": "/*ToDo*/ Some description",
            "x-example": "/*ToDO*/ Some Example"
        },
        "Service": {
            "$ref": "#/definitions/CartItem"
        },
        "CartPrice": {
            "type": "object",
            "properties": {
                "priceSummary": {
                    "$ref": "#/definitions/PriceSummary"
                },
                "promotions": {
                    "type": "array",
                    "items": {
                        "$ref": "#/definitions/Promotion"
                    },
                    "description": "/*ToDo*/ Some description",
                    "x-example": "/*ToDO*/ Some Example"
                },
                "deposit": {
                    "description": "Deposit amount if any",
                    "type": "string",
                    "x-example": "/*ToDO*/ Some Example",
                    "pattern": ".+"
                },
                "credits": {
                    "description": "credit price for the transaction",
                    "type": "string",
                    "x-example": "/*ToDO*/ Some Example",
                    "pattern": ".+"
                }
            },
            "description": "/*ToDo*/ Some description",
            "x-example": "/*ToDO*/ Some Example"
        },
        "Status": {
            "type": "object",
            "properties": {
                "code": {
                    "type": "string",
                    "description": "/*ToDo*/ Some description",
                    "x-example": "/*ToDO*/ Some Example",
                    "pattern": ".+"
                },
                "message": {
                    "type": "string",
                    "description": "/*ToDo*/ Some description",
                    "x-example": "/*ToDO*/ Some Example",
                    "pattern": ".+"
                }
            },
            "description": "/*ToDo*/ Some description",
            "x-example": "/*ToDO*/ Some Example"
        },
        "ItemRelationDef": {
            "type": "object",
            "properties": {
                "imeiFrom": {
                    "type": "string",
                    "description": "imei From",
                    "x-example": "/*ToDO*/ Some Example",
                    "pattern": ".+"
                },
                "relationshipType": {
                    "type": "string",
                    "description": "relationship type",
                    "x-example": "/*ToDO*/ Some Example",
                    "pattern": ".+"
                }
            },
            "description": "/*ToDo*/ Some description",
            "x-example": "/*ToDO*/ Some Example"
        },
        "ProductSubType": {
            "type": "string",
            "description": "sub type of products. If not specified defaults to ALL.",
            "enum": [
                "HANDSET",
                "SIMS"
            ],
            "x-example": "/*ToDO*/ Some Example",
            "pattern": ".+"
        },
        "Error": {
            "type": "object",
            "description": "As defined in https://tmobileusa.sharepoint.com/teams/EnterpriseServices/ESG%20Standards%20Documents/APIs/T-Mobile%20API%20Design%20Guidelines%20v1.0.docx",
            "properties": {
                "code": {
                    "description": "A succinct, domain-specific, human-readable text string to identify the type of error for the given status code",
                    "type": "string"
                },
                "userMessage": {
                    "description": "A human-readable message describing the error.",
                    "type": "string"
                },
                "systemMessage": {
                    "description": "Text that provides a more detailed technical explanation of the error",
                    "type": "string"
                },
                "errorDetailUrl": {
                    "description": "link to custom information providing greater detail on error or errors",
                    "type": "string"
                }
            }
        }
    },
    "x-servers": [],
    "tags": [],
    "securityDefinitions": {
        "Oauth": {
            "type": "oauth2",
            "description": "When you sign up for an account, you are given your first API key\n",
            "tokenUrl": "https://dlab03.core.op.api.t-mobile.com:443/v2/oauth2/accesstoken?grant_type=client_credentials",
            "flow": "application",
            "scopes": {}
        }
    }
}