@startuml
title HardGoodPayment_Authorization_Web
autonumber
actor "user"
box "__DigtialWeb__" #lightgrey
    participant "MyTMO.com"
    participant "PCM_Module"
    participant "Safari_Browser"
    participant "AppleWallet"
end box

box "__PaymentsDomain__" #lightpink 
    participant "MerchantValidation_API"
    participant "PaymentMethodEligibilitySaaS_API"
    participant "ManagePayment"
end box 
box "CommerceDomain" #FFE6CC
    participant "DCP/OMNI"
end box

box "__SupplyChain__" #E5CCFF
    participant "SAP"
end box


box "External" #lightgreen
    participant "Acquirer"
    participant "AppleServer"
end box

"MyTMO.com" -> PCM_Module : availablePaymentButtons(PaymentContext)
PCM_Module -> PaymentMethodEligibilitySaaS_API :/payments/v4/paymentMehtodEligibility
PaymentMethodEligibilitySaaS_API --> PCM_Module :return AvailablePaymentButtons
alt Apple Pay Eligible
    PCM_Module -> AppleWallet : canMakePayments()
    AppleWallet -> PCM_Module : ApplePay Available
end

PCM_Module -> "MyTMO.com" : return list of supported Digital Wallets
alt "supports apple_pay" case
    "MyTMO.com" -> "MyTMO.com" : display ApplePay Button
    user -> "MyTMO.com" : clicks on ApplePay button
    "MyTMO.com" -> PCM_Module : createPaymentSession(PaymentRequest)
    PCM_Module -> Safari_Browser : createAppleSession(ApplePayRequest)
    Safari_Browser  -> AppleWallet : createAppleSession
    AppleWallet  -> AppleWallet : Display Payment Sheet
    AppleWallet  -> Safari_Browser : ValidatetMerchant()
    Safari_Browser -> PCM_Module : ValidatetMerchant()
    PCM_Module -> MerchantValidation_API : payments/v3/apple/validateMerchant
    MerchantValidation_API -> AppleServer :/paymentSession
    AppleServer -> MerchantValidation_API : return MerchantSession
    MerchantValidation_API --> PCM_Module : completeMerchantValidation(MerchantSession)
    PCM_Module --> Safari_Browser : completeMerchantValidation(MerchantSession)
    Safari_Browser  -> AppleWallet : completeMerchantValidation
    AppleWallet  -> AppleWallet : Display TouchId
    user -> AppleWallet : User interacts with PaymentSheet and Authorizes Payment
    AppleWallet -> Safari_Browser : onAuthorizePayment(paymentBundle)
    Safari_Browser -> PCM_Module : onAuthorizePayment(paymentBundle)
    PCM_Module -> "MyTMO.com" : onAuthorizePayment(paymentBudle)
    "MyTMO.com" ->  ManagePayment : payments/v3/mpi(paymentBundle)
    note right
        $0 Auth /Payment Validation
    end note
    ManagePayment -> Acquirer : /authorizeCard
    Acquirer --> ManagePayment : Auth Response
    ManagePayment --> "MyTMO.com": MPI Response
    "MyTMO.com" -> PCM_Module :completePayment(paymentResponse)
    PCM_Module -> AppleWallet :completePayment (paymentResponse)
    "MyTMO.com" -> "DCP/OMNI" :  /{cart-id}/payments
    "DCP/OMNI" -> ManagePayment : payments/v4/mpi(paymentID) 
    note right
        Fraud Check
    end note
    ManagePayment --> "DCP/OMNI" : Manage Payment Response
    "DCP/OMNI" -> SAP : submitOrder(orderdetails + paymentID)
end
@enduml