@startuml
title Apple pay in TMO-app
actor User
participant AppClient
participant APPLE
participant DAB
participant APIGEE
participant DPS
AppClient->DAB: "Eligibility request"
DAB->APIGEE: "Eligibility request"
APIGEE->DPS: "/payments/v4/paymentMethodEligibility"
EPS->APIGEE: Response
APIGEE->DAB: Response
DAB->AppClient: Response
AppClient->APPLE: "canMakePayments() [Native iOS]"
APPLE->AppClient: "Response[YES/NO]"
AppClient->APPLE: canMakePaymentsUsingNetworks
APPLE->AppClient: Response[YES/NO]
User->AppClient : "Taps on apple pay'
AppClient-> APPLE: PKPaymentAuthorizationViewController
APPLE->AppClient: Payment sheet
User->AppClient: "User interacts with payment \n sheet and authorizes payment"
APPLE->AppClient: Payment Token
AppClient->DAB: "Process payment request"
DAB->APIGEE: "Process payment request"
APIGEE->DPS: "payments/v3/processPayment(Payment Token)"
EPS->APIGEE: Response
APIGEE->DAB: Response
DAB->AppClient: Response
@enduml