{
  "swagger": "2.0",
  "info": {
    "title": "IVRCustomerServices",
    "description": "This API returns customer and Subscriber services data from Edge Cache.",
    "version": "0.0.2",
    "x-createdBy": {
      "dateCreated": "3/13/18 21:55:36",
      "createdBy": "Manoj Sukumaran",
      "application": "Swagger tool",
      "appVersion": 2
    },
    "contact": {
      "name": "Manoj Sukumaran",
      "email": "Manoj.Sukumaran@t-mobile.com"
    }
  },
  "host": "dev.t-mobilapis.com",
  "basePath": "/cx-edge/v1/customer",
  "x-servers": [
    {
      "url": "https://tmobileb-sb06.apigee.net/tmoapp/v1/cards/home-page/search"
    },
    {
      "description": "Apigee Saas dev url."
    }
  ],
  "schemes": [
    "https"
  ],
  "paths": {
    "/customer-services": {
      "post": {
        "x-api-pattern": "ExecuteFunction",
        "tags": [
          "getCustomerServices"
        ],
        "operationId": "getCustomerService",
        "description": "This api returns the customer and subscriber information from Edge",
        "consumes": [
          "application/json"
        ],
        "produces": [
          "application/json"
        ],
        "parameters": [
          {
            "name": "CustomerServicesReq",
            "in": "body",
            "description": "Request input elements",
            "required": true,
            "schema": {
              "$ref": "#/definitions/CustomerServiceReq"
            }
          },
          {
            "$ref": "#/parameters/AuthorizationParam"
          },
          {
            "$ref": "#/parameters/xAuthorizationParam"
          },
          {
            "$ref": "#/parameters/sessionidParam"
          },
          {
            "$ref": "#/parameters/interactionidParam"
          },
          {
            "$ref": "#/parameters/activityidParam"
          },
          {
            "$ref": "#/parameters/workflowidParam"
          },
          {
            "$ref": "#/parameters/servicetransactionidParam"
          }
        ],
        "responses": {
          "200": {
            "description": "Ok",
            "schema": {
              "$ref": "#/definitions/CustomerServiceRes"
            },
            "headers": {
              "Access-Control-Allow-Headers": {
                "description": "acess control",
                "type": "string",
                "x-example": "false"
              },
              "Access-Control-Allow-Methods": {
                "description": "allow method",
                "type": "string",
                "x-example": "false"
              },
              "Access-Control-Allow-Origin": {
                "description": "allow orgin",
                "type": "string",
                "x-example": "false"
              },
              "Cache-Control": {
                "description": "cache control",
                "type": "string",
                "x-example": "false"
              },
              "Content-Length": {
                "description": "Content Length",
                "type": "string",
                "x-example": "187"
              },
              "Content-Type": {
                "type": "string",
                "x-example": "application/json"
              },
              "ETag": {
                "description": "ETag",
                "type": "string",
                "x-example": "22"
              },
              "Expires": {
                "description": "Expiration in microseconds",
                "type": "string",
                "x-example": "3599"
              },
              "Location": {
                "description": "Location",
                "type": "string",
                "x-example": "US-east"
              }
            }
          },
          "400": {
            "description": "Bad Request",
            "schema": {
              "$ref": "#/definitions/errors"
            },
            "examples": {
              "code": "1004",
              "userMessage": "Invalid Access Key",
              "systemMessage": "Account Type/Subtype not supported",
              "detailLink": "http://test"
            }
          },
          "401": {
            "description": "Client not authorized",
            "schema": {
              "$ref": "#/definitions/errors"
            },
            "examples": {
              "code": "1004",
              "userMessage": "Invalid Access Key",
              "systemMessage": "Account Type/Subtype not supported",
              "detailLink": "http://test"
            }
          },
          "403": {
            "description": "Client access denied",
            "schema": {
              "$ref": "#/definitions/errors"
            },
            "examples": {
              "code": "1004",
              "userMessage": "Invalid Access Key",
              "systemMessage": "Account Type/Subtype not supported",
              "detailLink": "http://test"
            }
          },
          "404": {
            "description": "Resource not found",
            "schema": {
              "$ref": "#/definitions/errors"
            },
            "examples": {
              "code": "1004",
              "userMessage": "Invalid Access Key",
              "systemMessage": "Account Type/Subtype not supported",
              "detailLink": "http://test"
            }
          },
          "409": {
            "description": "Invalid data",
            "schema": {
              "$ref": "#/definitions/errors"
            },
            "examples": {
              "code": "1004",
              "userMessage": "Invalid Access Key",
              "systemMessage": "Account Type/Subtype not supported",
              "detailLink": "http://test"
            }
          },
          "500": {
            "description": "System Error",
            "schema": {
              "$ref": "#/definitions/errors"
            },
            "examples": {
              "code": "1004",
              "userMessage": "Invalid Access Key",
              "systemMessage": "Account Type/Subtype not supported",
              "detailLink": "http://test"
            }
          },
          "502": {
            "description": "Backend system problem",
            "schema": {
              "$ref": "#/definitions/errors"
            },
            "examples": {
              "code": "1004",
              "userMessage": "Invalid Access Key",
              "systemMessage": "Account Type/Subtype not supported",
              "detailLink": "http://test"
            }
          },
          "503": {
            "description": "Service unavailable",
            "schema": {
              "$ref": "#/definitions/errors"
            },
            "examples": {
              "code": "1004",
              "userMessage": "Invalid Access Key",
              "systemMessage": "Account Type/Subtype not supported",
              "detailLink": "http://test"
            }
          }
        }
      }
    }
  },
  "definitions": {
    "CustomerServiceReq": {
      "type": "object",
      "description": "User define object to capture account data input",
      "properties": {
        "phoneNumber": {
          "$ref": "#/definitions/phoneNumber"
        },
        "includeUpfrontFee": {
          "description": "indicator set to true returns Upfront Fees,tax treatment and Upfront Restore Fee. Default is set to false.",
          "type": "boolean"
        }
      }
    },
    "CustomerServiceRes": {
      "type": "object",
      "properties": {
        "accountData": {
          "$ref": "#/definitions/accountData"
        },
        "billingData": {
          "$ref": "#/definitions/billingData"
        },
        "accountSubscription": {
          "$ref": "#/definitions/subscriptions"
        },
        "subscribersData": {
          "$ref": "#/definitions/subscriberData"
        }
      }
    },
    "subscriberData": {
      "description": "Subscriber Data",
      "type": "object",
      "properties": {
        "phoneNumber": {
          "$ref": "#/definitions/phoneNumber"
        },
        "firstName": {
          "description": "Subscriber first name",
          "type": "string",
          "example": "Test"
        },
        "familyName": {
          "description": "Subscriber last Name",
          "type": "string",
          "example": "Customer"
        },
        "status": {
          "description": "status of the subscriber",
          "type": "string",
          "example": "S"
        },
        "stausReasonCode": {
          "description": "status reason code",
          "type": "string",
          "example": "LADX"
        },
        "lineType": {
          "description": "Line Type  of the subscriber.Possible values Virtual, Duplicate , Voice, MBB'",
          "type": "string",
          "example": "Virtual"
        },
        "pairedAsPrimaryLine": {
          "description": "Boolean set to true if the line is paired as primary to duplicate line",
          "type": "boolean",
          "example": "true"
        },
        "contractStartDate": {
          "description": "contract Start date",
          "type": "string",
          "example": "2018-08-09"
        },
        "contractEndDate": {
          "description": "contract End date",
          "type": "string",
          "example": "2019-08-09"
        },
        "dataThrottleInd": {
          "description": "Data Throttle Indicator",
          "type": "boolean",
          "example": true
        },
        "primaryLineInd": {
          "description": "set to true if the input MSISDN is Primary line",
          "type": "boolean",
          "example": true
        },
        "subscriptions": {
          "$ref": "#/definitions/subscriptions"
        }
      }
    },
    "subscriptions": {
      "description": "returns the subscrptions(rateplan/Features) of the subscriber",
      "type": "object",
      "properties": {
        "ratePlans": {
          "description": "a collection of current and future dated rateplans",
          "type": "array",
          "items": {
            "$ref": "#/definitions/ratePlan"
          }
        },
        "features": {
          "description": "a collection of features",
          "type": "array",
          "items": {
            "$ref": "#/definitions/features"
          }
        }
      }
    },
    "ratePlan": {
      "description": "subscriptions (features) of BAN/MSISDN",
      "type": "object",
      "properties": {
        "ratePlanId": {
          "description": "rateplan ID",
          "type": "string",
          "example": "TM1TI"
        },
        "displayName": {
          "description": "Display or Marketing Name of Rateplan",
          "type": "string",
          "example": "T-Mobile ONE"
        },
        "price": {
          "description": "Rateplan cost",
          "type": "string",
          "example": 54.54
        },
        "isGrandFathered": {
          "description": "Indicates if the RatePlan is grandfathered",
          "type": "boolean",
          "example": true
        },
        "category": {
          "description": "Rateplan Indicator",
          "type": "string",
          "example": "OMW"
        },
        "productType": {
          "description": "product Type",
          "type": "string",
          "example": "G"
        },
        "serviceLevelCode": {
          "description": "Service Level Code",
          "type": "string",
          "example": "C"
        },
        "serviceType": {
          "description": "Service  Type",
          "type": "string",
          "example": "P"
        },
        "effectiveDate": {
          "description": "effective Date of Rateplan",
          "type": "string",
          "example": "2019-08-09"
        },
        "expirationDate": {
          "description": "Expiration Date of RatePlan",
          "type": "string",
          "example": "2019-08-09"
        },
        "longDistanceRate": {
          "description": "Long Distance Rate",
          "type": "string",
          "example": "2.05"
        },
        "overageRate": {
          "description": "Overage Rate of RatePlan",
          "type": "string",
          "example": "2.00"
        },
        "buckets": {
          "description": "bucket limits",
          "type": "array",
          "items": {
            "$ref": "#/definitions/buckets"
          }
        }
      }
    },
    "buckets": {
      "description": "SOC bucket limits",
      "type": "object",
      "properties": {
        "bucketType": {
          "description": "bucket Name",
          "type": "string",
          "example": "MTM"
        },
        "bucketLimit": {
          "description": "Display Limit",
          "type": "string",
          "example": 9999999
        }
      }
    },
    "features": {
      "description": "Add On SOC list",
      "type": "object",
      "properties": {
        "code": {
          "description": "feature code",
          "type": "string",
          "example": "FAMNFX9"
        },
        "displayName": {
          "description": "Feature Display Name",
          "type": "string",
          "example": "Netflix $13.99"
        },
        "price": {
          "description": "price of soc",
          "type": "string",
          "example": 13.99
        },
        "category": {
          "description": "SOC indicator",
          "type": "string",
          "example": "NEO"
        },
        "serviceLevelCode": {
          "description": "Service Level Code",
          "type": "string",
          "example": "C"
        },
        "serviceType": {
          "description": "Service  Type",
          "type": "string",
          "example": "R"
        },
        "effectiveDate": {
          "description": "Effective Date of Feature",
          "type": "string",
          "example": "2019-08-09"
        },
        "expirationDate": {
          "description": "Expiration Date of Feature",
          "type": "string",
          "example": "2019-08-09"
        }
      }
    },
    "billingData": {
      "description": "Account Information",
      "type": "object",
      "properties": {
        "billCycleCode": {
          "description": "Bill cycle code",
          "type": "integer",
          "example": 9
        },
        "dueDate": {
          "description": "bill Due Date",
          "type": "string",
          "example": "2019-09-07"
        },
        "pastDueAmount": {
          "description": "past Due Amount",
          "type": "string",
          "example": 149.99
        },
        "daysPastDue": {
          "description": "Number of Days past due",
          "type": "integer",
          "example": 1423
        },        
        "pastDueIndicator": {
          "description": "return past due indicator",
          "type": "integer",
          "example": 3
        }
      }
    },
    "accountData": {
      "description": "Account Information",
      "type": "object",
      "properties": {
        "accountNumber": {
          "description": "Billing Account Number",
          "type": "string",
          "format": "^\\d{9}$",
          "example": 928765432
        },
        "accountStatus": {
          "description": "Account status",
          "type": "string",
          "example": "S"
        },
        "statusReasonCode": {
          "description": "Account status reason code",
          "type": "string",
          "example": "LADX"
        },
        "accountType": {
          "description": "Account Type of the Customer",
          "type": "string",
          "example": "I"
        },
        "accountSubtype": {
          "description": "Account Sub Type of the customer",
          "type": "string",
          "example": "R"
        },
        "customerType": {
          "description": "Customer Type",
          "type": "string",
          "example": "N"
        },
        "creditClass": {
          "description": "Credit class of customer",
          "type": "string",
          "example": "A"
        },
        "accountStartDate": {
          "description": "Account Start Date",
          "type": "string",
          "example": "2019-01-01"
        },
        "customerTenure": {
          "description": "Credit Tenure with T-Mobile in days",
          "type": "string",
          "example": 1024
        },
        "upFrontFee": {
          "description": "Upfront Fee to be collected from Customer. Possible values is M for mandatory and N as not in scope",
          "type": "string",
          "example": "M"
        },
        "upFrontRestoreFee": {
          "description": "Upfront Restore Fee to be collected from Customer. Possible values is M for mandatory and N as not in scope",
          "type": "string",
          "example": "M"
        },
        "taxTreatment": {
          "description": "Tax treatment to indicate if the BAN is Tax Inclusive or Tax Exclusive",
          "type": "string",
          "example": "TI"
        },
        "customerSegment": {
          "description": "customer Segmentation",
          "type": "string",
          "example": "TBILL"
        },
        "specialAccountInd": {
          "description": "special Account Indicator , set for Account Type=S",
          "type": "boolean",
          "example": false
        },
        "submarketCode": {
          "description": "sub market code of BAN",
          "type": "string",
          "example": "SEW"
        },
        "autoPayInd": {
          "description": "Indicator set to true if AutoPay is set for BAN",
          "type": "boolean",
          "example": true
        },
        "autoPayExpirationDate": {
          "description": "If Auto Pay is set, the expiration Date of autoPay",
          "type": "string",
          "example": "2019-08-09"
        },
        "paperlessBillInd": {
          "description": "If paperless bill is set then the indicator is set tor true",
          "type": "boolean",
          "example": true
        },
        "teamId": {
          "description": "TEX Team ID",
          "type": "string",
          "example": "TEAM-1"
        },
        "teamName": {
          "description": "TEX Team Name",
          "type": "string",
          "example": "TEAM-1"
        },
        "skillGroup": {
          "description": "Agent Skill Group code",
          "type": "string",
          "example": "1-1"
        },
        "teamActiveFlag": {
          "description": "indicates if the team is active",
          "type": "boolean",
          "example": true
        },
        "teamHoursOfOperation": {
          "description": "hours of operation",
          "type": "string",
          "example": "9AM - 9PM CT"
        },
        "tmoMoneyInd": {
          "description": "T-Mobile Money Ind",
          "type": "boolean",
          "example": true
        },
        "collectionAgencyCode": {
          "description": "Collection Agency Code",
          "type": "string",
          "example": "FSF90"
        },
        "VIPClassType": {
          "description": "VIP Class Type",
          "type": "string",
          "example": "ORA_FORA_E"
        },
        "customerValue": {
          "description": "unique customer value based on Account Type/Subtype",
          "type": "string",
          "example": "A"
        },
        "customerAttribute": {
          "description": "Customer Attribute - Possible Values - FRAUD, SUSPEND-HIGHBALANCE, FUYT, POOLED,PREPAID,SUSPEND-PASTDUE,PASTDUE-PAYMENT_ARRANGEMENT, PAYMENT_ARRANGEMENT, PASTDUE ",
          "type": "string",
          "example": "PASTDUE"
        },
        "billingAddress": {
          "description": "Billing Address of the customer",
          "$ref": "#/definitions/address"
        }
      }
    },
    "phoneNumber": {
      "description": "Mobile number/ MSISDN",
      "type": "string",
      "format": "^\\d{10}$",
      "example": 4259293344
    },
    "address": {
      "description": "Billing Address of the customer",
      "type": "object",
      "properties": {
        "addressLine1": {
          "description": "Address Line1",
          "type": "string",
          "example": "13320 SE 30th ST"
        },
        "addressLine2": {
          "description": "Address Line2",
          "type": "string",
          "example": "SUITE 300"
        },
        "addressLine3": {
          "description": "Address Line3",
          "type": "string"
        },
        "addressLine4": {
          "description": "Address Line4",
          "type": "string"
        },
        "cityName": {
          "description": "city Name",
          "type": "string",
          "example": "Bothell"
        },
        "stateCode": {
          "description": "State Code",
          "type": "string",
          "example": "WA"
        },
        "postalCode": {
          "description": "Postal Code",
          "type": "string",
          "example": "98021"
        }
      }
    },
    "errors": {
      "description": "Used to pass error information in a response.",
      "type": "object",
      "properties": {
        "code": {
          "description": "Used to pass error codes",
          "type": "string",
          "example": 1004
        },
        "userMessage": {
          "description": "Use to pass human friendly information to the user.",
          "type": "string",
          "example": "Invalid Account Type"
        },
        "systemMessage": {
          "description": "Used to pass system information.",
          "type": "string",
          "example": "Account Type/Sub Type not supported"
        },
        "detailLink": {
          "description": "Detailed link for error.",
          "type": "string",
          "example": "http://test"
        }
      }
    }
  },
  "parameters": {
    "AuthorizationParam": {
      "name": "Authorization",
      "in": "header",
      "description": "Autorization param",
      "required": false,
      "type": "string",
      "x-example": "1Z3343422XR"
    },
    "xAuthorizationParam": {
      "name": "X-Authorization",
      "in": "header",
      "description": "X- Authorization param",
      "required": false,
      "type": "string",
      "x-example": "1Z3343422XR"
    },
    "sessionidParam": {
      "name": "sessionid",
      "description": "Unique session id for the session",
      "in": "header",
      "required": false,
      "type": "string",
      "x-example": "1Z3343422XR"
    },
    "interactionidParam": {
      "name": "interactionid",
      "description": "Interaction id for troubleshooting",
      "in": "header",
      "required": false,
      "type": "string",
      "x-example": "1Z3343422XR"
    },
    "activityidParam": {
      "name": "activityid",
      "description": "activity Id for front end activity",
      "in": "header",
      "required": true,
      "type": "string",
      "x-example": "1Z3343422XR"
    },
    "workflowidParam": {
      "name": "workflowid",
      "description": "workflow id for the workflow",
      "in": "header",
      "required": false,
      "type": "string",
      "x-example": "1Z3343422XR"
    },
    "servicetransactionidParam": {
      "name": "servicetransactionid",
      "description": "unique service transaction Id",
      "in": "header",
      "required": false,
      "type": "string",
      "x-example": "1Z3343422XR"
    }
  }
}