{
  "swagger": "2.0",
  "info": {
    "title": "PaymentArrangement",
    "description": "This API returns the Payment Arrangement and Future Dated Check Details. If Payment Arrangement exists, then the API returns the Payment Arrangement status like number of installment, installment amount, installment status. If Payment Arrangement doesnt exists then this API returns the Payment Arrangement eligiblity of the BAN",
    "version": "0.0.1",
    "x-createdBy": {
      "dateCreated": "4/2/18 21:55:36",
      "createdBy": "Manoj Sukumaran",
      "application": "Swagger tool",
      "appVersion": 2
    }
  },
  "host": "dev.t-mobilapis.com",
  "basePath": "/tmoapp/v1/cards",
  "schemes": [
    "https"
  ],
  "paths": {
    "/payment-arrangement": {
      "post": {
        "tags": [
          "getPaymentArrangement"
        ],
        "operationId": "getPaymentArrangement",
        "consumes": [
          "application/json"
        ],
        "produces": [
          "application/json"
        ],
        "summary": "POST API , accepts Billing Account Number and returns payment arrangement status , eligiblity and Future Dated Check Details from Backend Billing System.",
        "parameters": [
          {
            "name": "accountNumber",
            "in": "body",
            "description": "Billing Account Number or BAN",
            "required": true,
            "schema": {
              "$ref": "#/definitions/accountDataRequest"
            }
          },
          {
            "$ref": "#/parameters/AuthorizationParam"
          },
          {
            "$ref": "#/parameters/XAuthorizationParam"
          },
          {
            "$ref": "#/parameters/sessionidParam"
          },
          {
            "$ref": "#/parameters/interactionidParam"
          },
          {
            "$ref": "#/parameters/activityidParam"
          },
          {
            "$ref": "#/parameters/workflowidParam"
          },
          {
            "$ref": "#/parameters/servicetransactionidParam"
          }
        ],
        "responses": {
          "200": {
            "description": "Ok",
            "schema": {
              "$ref": "#/definitions/paymentArrangementDetails"
            },
            "headers": {
              "Access-Control-Allow-Headers": {
                "type": "string"
              },
              "Access-Control-Allow-Methods": {
                "type": "string"
              },
              "Access-Control-Allow-Origin": {
                "type": "string"
              },
              "Cache-Control": {
                "type": "string"
              },
              "Content-Length": {
                "type": "string"
              },
              "Content-Type": {
                "type": "string"
              },
              "ETag": {
                "type": "string"
              },
              "Expires": {
                "type": "string"
              },
              "Location": {
                "type": "string"
              },
              "servicetransactionid": {
                "type": "string"
              }
            }
          },
          "400": {
            "description": "Bad Request",
            "schema": {
              "$ref": "#/definitions/errors"
            }
          },
          "401": {
            "description": "Client not authorized",
            "schema": {
              "$ref": "#/definitions/errors"
            }
          },
          "403": {
            "description": "Client access denied",
            "schema": {
              "$ref": "#/definitions/errors"
            }
          },
          "404": {
            "description": "Resource not found",
            "schema": {
              "$ref": "#/definitions/errors"
            }
          },
          "409": {
            "description": "Invalid data",
            "schema": {
              "$ref": "#/definitions/errors"
            }
          },
          "500": {
            "description": "System Error",
            "schema": {
              "$ref": "#/definitions/errors"
            }
          },
          "502": {
            "description": "Backend system problem",
            "schema": {
              "$ref": "#/definitions/errors"
            }
          },
          "503": {
            "description": "Service unavailable",
            "schema": {
              "$ref": "#/definitions/errors"
            }
          }
        }
      }
    }
  },
  "definitions": {
    "accountDataRequest": {
      "type": "object",
      "description": "Input request for Account Data",
      "properties": {
        "accountNumber": {
          "description": "Billing Account number",
          "type": "string",
          "maxLength": 9,
          "example": 987654312
        }
      }
    },
    "paymentArrangementDetails": {
      "type": "object",
      "description": "Payment Arrangement Details from Backend Billing System",
      "properties": {
        "metadata": {
          "$ref": "#/definitions/metaData"
        },
        "subfacts": {
          "$ref": "#/definitions/paymentArrangementData"
        }
      }
    },
    "metaData": {
      "type": "object",
      "properties": {
        "lastUpdateDate": {
          "description": "last update date",
          "type": "string"
        },
        "sensitivity": {
          "description": "Sensitivity of the data",
          "type": "string"
        },
        "source": {
          "description": "source of data",
          "type": "string"
        },
        "expires": {
          "description": "Date time when the data is expected to expire",
          "type": "string"
        }
      }
    },
    "paymentArrangementData": {
      "type": "object",
      "properties": {
        "accountNumber": {
          "description": "Billing Account Number",
          "type": "string",
          "maxLength": 9,
          "example": 983345234
        },
        "hotLineSuspendInd": {
          "description": "set to true if the Account is suspended for hotline - Not payment reason",
          "type": "boolean",
          "example": true
        },
        "paymentArrangementEligiblity": {
          "type": "array",
          "items": {
            "$ref": "#/definitions/paymentEligiblity"
          }
        },
        "totalInstallments": {
          "type": "integer",
          "description": "If payment arrangment exists then the total number of installments will be returned, Else 0",
          "example": 2
        },
        "paymentArrangementDetails": {
          "type": "array",
          "items": {
            "$ref": "#/definitions/paymentArrangementinfo"
          }
        },
        "restorationFee": {
          "$ref": "#/definitions/restoreFeeDetails"
        }
      }
    },
    "errors": {
      "description": "a collection of errors",
      "type": "array",
      "items": {
        "$ref": "#/definitions/responseerror"
      }
    },
    "paymentEligiblity": {
      "type": "object",
      "properties": {
        "paymentArrangementType": {
          "description": "Payment Arrangement Type , possible Value - Regular,Recurring, Proof_Of_Payment, Late_Billed",
          "type": "string",
          "example": "Late_Billed"
        },
        "paymentArrangementStatus": {
          "description": "Payment Arrangement eligiblity Status. Status are below S= Success N = Failure – the customer may not enter a new payment arrangement D = Customer has not waited the minimum number of days since the last payment arrangement E = The customer has exceeded the maximum number of allowed payment arrangements F = Payment arrangement failed within the last XX (30) days L = Letter was not sent,P = Schedule Payment exists.",
          "type": "string",
          "example": "S"
        },
        "paymentArrangementCategory": {
          "description": "Payment Arrangement Category",
          "type": "string",
          "maxLength": 2,
          "example": 25
        },
        "daysBeforeFirstInstallment": {
          "description": "Max number of days before first installment",
          "type": "string",
          "maxLength": 2,
          "example": 2
        },
        "maximumInstallments": {
          "description": "maximum number of installments",
          "type": "string",
          "maxLength": 2,
          "example": 4
        },
        "installmentInterval": {
          "description": "maximun number of days between two installments",
          "type": "string",
          "maxLength": 2,
          "example": 30
        },
        "eligibleForFDP": {
          "description": "Indicates if the Payment arrangement type is eligible for Future dated payment",
          "type": "boolean",
          "example": true
        },
        "autoRestoreInd": {
          "description": "if True  indicates that once PA is set up the BAN that is voluntary suspended will be auto restored in backend.",
          "type": "boolean",
          "example": true
        }
      }
    },
    "paymentArrangementinfo": {
      "description": "current Payment Arrangement Details",
      "type": "object",
      "properties": {
        "statusCode": {
          "type": "string",
          "description": "current Payment Arrangement Status (Possible values -  Open,Closed,Deleted,Failed,Missed)",
          "example": "Failed"
        },
        "insatllmentSequenceNumber": {
          "type": "number",
          "description": "payment arrangement sequence number",
          "example": 4
        },
        "installmentAmount": {
          "type": "number",
          "description": "payment arrangement installment amount",
          "example": 50.9
        },
        "installmentDate": {
          "type": "string",
          "description": "Date when the installment amount is due",
          "example": "2017-02-14"
        },
        "installmentCreateDate": {
          "type": "string",
          "description": "Date when the installment schedule was created",
          "example": "2017-06-04"
        },
        "paymentMethodLastFour": {
          "type": "number",
          "description": "Last 4 of FutureDate Payment . this is optional and will be returned only when future payment has a payment method on file",
          "example": 2244
        },
        "hasActivePaymentMethod": {
          "type": "boolean",
          "description": "set to True when the payment method exists for this payment method iteration"
        }
      }
    },
    "restoreFeeDetails": {
      "description": "restoration fee details",
      "type": "object",
      "properties": {
        "suspendedSubscriberCount": {
          "type": "number",
          "description": "Total number of suspneded in invlountary suspend state",
          "example": 4
        },
        "totalRestorationFee": {
          "type": "number",
          "description": "total restoration Fee associated with  Payment Arrangement.",
          "example": 40.23
        }
      }
    },
    "responseerror": {
      "description": "Used to pass error information in a response.",
      "type": "object",
      "properties": {
        "code": {
          "description": "Used to pass error codes",
          "type": "string"
        },
        "usermessage": {
          "description": "Use to pass human friendly information to the user.",
          "type": "string"
        },
        "systemmessage": {
          "description": "Used to pass system information.",
          "type": "string"
        }
      }
    }
  },
  "parameters": {
    "AuthorizationParam": {
      "name": "Authorization",
      "in": "header",
      "required": false,
      "type": "string"
    },
    "XAuthorizationParam": {
      "name": "X-Authorization",
      "in": "header",
      "required": false,
      "type": "string"
    },
    "sessionidParam": {
      "name": "sessionid",
      "in": "header",
      "required": false,
      "type": "string"
    },
    "interactionidParam": {
      "name": "interactionid",
      "in": "header",
      "required": false,
      "type": "string"
    },
    "activityidParam": {
      "name": "activityid",
      "in": "header",
      "required": true,
      "type": "string"
    },
    "workflowidParam": {
      "name": "workflowid",
      "in": "header",
      "required": false,
      "type": "string"
    },
    "servicetransactionidParam": {
      "name": "servicetransactionid",
      "in": "header",
      "required": false,
      "type": "string"
    }
  }
}