@startuml Web & B2B Inline
title     \nU1 Web & B2B Inline for EIP, Lease & PG Agreements\n

participant "MyTmo /\n B2B"               as 01_MT      #ffffff
participant "RSP"               as 02_MW      #ffffff
participant "OT SS"                     as 03_OTSS    #9e9eff
participant "OT CS"                     as 04_OTCS    #9e9eff
participant "DocuSign"                  as 05_DS      #ffffff

activate 01_MT
01_MT->02_MW:\n  equipmentInstallmentProgram.createEipDisclosure

activate 02_MW
02_MW->03_OTSS:\n   submitJobsContent\n   (1 call for each doc type)
activate 03_OTSS
03_OTSS->02_MW:\n PDF Bytes
deactivate 03_OTSS

02_MW->05_DS:\n createEnvelopeFromTemplatesAndForms \n requestRecepientToken
activate 05_DS
05_DS->02_MW:\n  Envelope Link 
deactivate 05_DS

02_MW->01_MT:\n  Envelope Link
01_MT->02_MW:\n  Signature Capture \n  Binded by Docusign in the envelope\n  notifyDisclosureAcceptance
deactivate 01_MT

02_MW->04_OTCS:\n    EipDocumentUploadJob\n    runs every 30 mins \n    ~10k records per batch     (Ingest)
activate 04_OTCS

deactivate 02_MW
deactivate 04_OTCS

Note right of 01_MT #DFDFFF
1. Highlighted Entities/Systems belongs to xECM Team
2. [[https://servicecatalog.internal.t-mobile.com/servicecat/rsp/2018-03-24/wsdl_api/html/EquipmentInstallmentProgramService.html#createEIPDisclosure Link for WSDL]]
end note


@enduml