@startuml
title <size:18>__U2.0 Prepaid Upgrade + ML - Upgrade Device __</size>

participant "Rebellion UI" as UI
participant "API Gateway" as GW
participant "Experience Services" as ES
participant "Experience Services Cache" as ESCH
participant "Elastic Search" as Elastic
participant "WSIL" as WSIL

/'****************************************************'/

note over UI
Browse Device

end note

UI -> GW : API_2100_retrieveProducts
GW -> ES : API_2100_retrieveProducts
ES -> WSIL : ProductOfferingSummaryWSIL.getCatalogPriceData
ES -> WSIL : ProductOfferingSummaryWSIL.getCatalogStaticData
ES <-- WSIL : Response ProductOfferingSummaryWSIL.getCatalogStaticData
GW <-- ES : Response API_2100_retrieveProducts
UI <-- GW : Response API_2100_retrieveProducts

/'--------------------------------------------'/
note over UI
Device PDP

end note
UI -> GW : API_2101_retrieveProductDetails
GW -> ES : API_2101_retrieveProductDetails
ES -> WSIL : ProductOfferingSummaryWSIL.getCatalogPriceData
ES -> WSIL : ProductOfferingSummaryWSIL.getCatalogStaticData
ES <-- WSIL : Response ProductOfferingSummaryWSIL.getCatalogStaticData
GW <-- ES : Response API_2101_retrieveProductDetails
UI <-- GW : Response API_2101_retrieveProductDetails

/'--------------------------------------------'/
UI -> GW : API_2111_addDevicetoCart
GW -> ES : API_2111_addDevicetoCart
ES -> WSIL : CartWSIL.updateCart
ES <-- WSIL : Response CartWSIL.updateCart
ES -> ESCH : update cache with response parameters
ES <-- ESCH : Response from cache
GW <-- ES : Response API_2111_addDevicetoCart
UI <-- GW : Response API_2111_addDevicetoCart


/'****************************************************'/


UI -> GW : API_2102_retrieveServices
GW -> ES : API_2102_retrieveServices
ES -> WSIL : ProductOfferingSummaryWSIL.getCatalogPriceData
ES <-- WSIL : Response ProductOfferingSummaryWSIL.getCatalogPriceData
ES -> Elastic : ProductOfferingSummaryWSIL.getCatalogStaticData
Elastic <-- WSIL : Load ProductOfferingSummaryWSIL.getCatalogStaticData
ES-->ES: Render the services with category = "device-and-insurance"
GW <-- ES : Response API_2102_retrieveServices
UI <-- GW : Response API_2102_retrieveServices


UI -> GW : API_2113_selectServices
GW -> ES : API_2113_selectServices
ES -> ES : Calculate conflicts for the selected service
ES -> ES : enable, disable and preselect the services based on the calculations
GW <-- ES : Response API_2113_selectServices
UI <-- GW : Response API_2113_selectServices

UI -> GW : API_2112_updateServiceBundle
GW -> ES : API_2112_updateServiceBundle
ES -> WSIL : CartWSIL.updateCart
ES <-- WSIL : Response CartWSIL.updateCart
ES -> ESCH : update cache with response parameters
ES <-- ESCH : fetch from cache
GW <-- ES : Response API_2112_updateServiceBundle
UI <-- GW : Response API_2112_updateServiceBundle


/'****************************************************'/
alt Select a Device/Accessory as standalone good
	note over UI
	Standalone hardgood purchase
	end note


UI -> GW : API_2100_retrieveProducts
GW -> ES : API_2100_retrieveProducts
ES -> WSIL : ProductOfferingSummaryWSIL.getCatalogPriceData
ES -> WSIL : ProductOfferingSummaryWSIL.getCatalogStaticData
ES <-- WSIL : Response ProductOfferingSummaryWSIL.getCatalogStaticData \n ProductOfferingSummaryWSIL.getCatalogStaticData
GW <-- ES : Response API_2100_retrieveProducts
UI <-- GW : Response API_2100_retrieveProducts

/'--------------------------------------------'/
note over UI
Device PDP

end note
UI -> GW : API_2101_retrieveProductDetails
GW -> ES : API_2101_retrieveProductDetails
ES -> WSIL : ProductOfferingSummaryWSIL.getProductOfferingSummary
ES <-- WSIL : Response ProductOfferingSummaryWSIL.getProductOfferingSummary
GW <-- ES : Response API_2101_retrieveProductDetails
UI <-- GW : ResponseAPI_2101_retrieveProductDetails

/'--------------------------------------------'/
UI -> GW : API_2107_addDevicetoCart
GW -> ES : API_2107_addDevicetoCart
ES -> WSIL : CartWSIL.updateCart
ES <-- WSIL : Response CartWSIL.updateCart
ES -> ESCH : update cache with response parameters
ES <-- ESCH : Response from ESH
GW <-- ES : Response API_2107_addDevicetoCart
UI <-- GW : Response API_2107_addDevicetoCart
end
/'****************************************************'/

UI->UI: Shopping cart review

/'--------------------------------------------'/
UI -> GW : API_2120_reviewOrder
GW -> ES : API_2120_reviewOrder
ES -> ESCH : update cache with response parameters
ES <-- ESCH : Response from ESH
ES -> WSIL : CartWSIL.updateCart
ES <-- WSIL : Response
GW <-- ES : Response API_2120_reviewOrder
UI <-- GW : Response API_2120_reviewOrder

/'****************************************************'/


@enduml