@startuml
title RIS Remorse Return flow v1.0

participant Rep
participant UI as UI
participant GatewayAPI as GatewayAPI
participant Facade  as Facade
participant Core as Core
participant EricsonWSIL as WSIL
participant RIS as RIS
Participant REEF as REEF

note over UI: Upon SPA Initialization
UI->GatewayAPI: 225_getStoreDetails
GatewayAPI->Facade: 225_getStoreDetails
Facade-> Core: get store details
Core-->Facade: Return response
Facade->Facade: Cache the response
Facade-->GatewayAPI: Return response
GatewayAPI-->UI: Return response
note over UI: Cache the value isStoreRIS

UI->UI: if isStoreRIS=true
UI->GatewayAPI: 615_getSerializationInfo
GatewayAPI->RIS: configurableProperties(applicationId)
RIS-->GatewayAPI: Return Response
GatewayAPI->GatewayAPI: cache the response
GatewayAPI-->UI: Return response
UI->UI:Cache the serialization information

note over UI: Entry point - Order Summary(Return/Exchange)
alt  Return a device
Rep->UI: Select device to return
Rep->UI: Go through device assessment
note over UI: Validate device
Rep->UI: last 4 digits of imei is entered
Rep->UI: Click Continue CTA
'Call API to check if item returned is already in RIS Inventory
UI->UI: if isStoreRIS=true
UI->GatewayAPI: Call 618_getReturnSNValidation(serialNumber(imei), sku)
GatewayAPI->RIS: Call inventoryReturn(serialNumber, sku)
alt  Happy path- SR305
RIS-->GatewayAPI: Return SR305 in response
GatewayAPI-->UI: Return SR305 in response
UI->UI: Proceeds on next screen
end
alt  API is success but RIS validation failed- Hardstop
RIS-->GatewayAPI: Return code except SR305 in response
GatewayAPI-->UI: Return code except SR305 in response
UI->UI: Render error message configured in AEM
end
end
alt  Return accessory and SIM
UI->UI: Proceed as BAU(No return RIS validation required)
end

note over UI: Select reason page
Rep->UI: Select reason(BAU Returning reason)
alt  for Device(isStoreRIS=true)
alt  Select sellable checkbox as "No"
Rep->UI: Select sellable checkbox as "No"
UI->GatewayAPI: 326_getReasons(type=unsellable)
GatewayAPI->Facade: 326_getReasons(type=unsellable)
Facade->Core: getReasons(reasonContext=Unsellable)
Core-->Facade: Return reasons(reasonContext=Unsellable)
Facade-->GatewayAPI: Return response
GatewayAPI-->UI: Return response
UI->UI: Not sellable reasons dropdown populated with reasons
Rep->UI: Select 'not sellable' reason
Rep->UI: Hit CTA
end
alt  Select sellable checkbox as "Yes"
UI->UI: Proceed as BAU
end
end
alt  for SIM
UI->UI: Proceed as BAU
end
alt  for Accessory(isStoreRIS=true)
alt  LP serialization is On
Rep->UI: Select sellable checkbox as "No"
UI->GatewayAPI: 326_getReasons(type=unsellable)
GatewayAPI->Facade: 326_getReasons(type=unsellable)
Facade->Core: getReasons(reasonContext=Unsellable)
Core-->Facade: Return reasons
Facade-->GatewayAPI: Return reasons
GatewayAPI-->UI: Return reasons
UI->UI: Not sellable reasons dropdown populated with reasons
Rep->UI: Select not sellable reason
Rep->UI: Enter license plate number
UI->GatewayAPI: 618_getReturnSNValidation
GatewayAPI->RIS: inventoryReturn
RIS-->GatewayAPI: Return response
GatewayAPI-->UI: Return response
alt  Happy path- SR305
RIS-->GatewayAPI: Return SR305 in response
GatewayAPI-->UI: Return SR305 in response
UI->UI: Proceeds on next screen
end
alt  API is success but validation failed
RIS-->GatewayAPI: Return code except SR305 in response
GatewayAPI-->UI: Return code except SR305 in response
UI->UI: Render error message configured in AEM
end
Rep->UI: Hit primary CTA
end
alt  LP Serialization is OFF
UI->UI: Proceed as BAU
end
Rep->UI: Continue CTA
UI->UI:Cart Review screen
Rep->UI: Click checkout CTA
note over UI: Pass RIS specific fields in cart
UI->GatewayAPI: 477_cart
GatewayAPI->Facade: 477_cart
Facade-> Core: 477_cart
Core->WSIL: 477_cart
WSIL-->Core: Return cart response
Core-->Facade: Return cart response
Facade-->GatewayAPI: Return cart response
GatewayAPI-->UI: Return cart response
note over UI: Order Summary(atleast one returned non sellable accessory)
UI->GatewayAPI: 232_getOrderDetails(updated to retrieve license number)
GatewayAPI->Facade: 232_getOrderDetails
Facade->Core: getOrderDetails
Core-->Facade: Return response
Facade-->GatewayAPI: Return response
GatewayAPI-->UI: Return response
UI->UI: Render sku and license plate for accessory
@enduml