@startuml
title TradeIn API for Web\n\n
 participant "Order" as o
 participant "APIGEE" as a
 participant "Microservice" as m
 participant "OTSS" as os
 participant "Preserve MS" as pm
 participant "OTCS" as oc
 o ->a
 activate o
 activate a
 Note right of o #DFDFFF
    order submission
 end note
 Note right of a #DFDFFF
 [[http://flows.corporate.t-mobile.com/all-swaggers/swagger/ce.cfs.documents/tradein.swagger.json/ API for generating DRP agreement]]
end note
 o <-a : ingest documentId
 deactivate o
 a -> m
 activate m
 a <- m : ingest documentId
 deactivate a
 m -> os
 activate os
 Note right of os #DFDFFF
    generate DRP agreement
    with timestamp
    [DRP agreement schema]
 end note
 m <- os
 deactivate os
 m -> pm
 activate pm
 Note right of pm #DFDFFF
    if saveDocument is true,
    preserve MS will be called
 end note
 Note right of pm #DFDFFF
   for document ingestion
   i/p is PDF Bytes
 end note
 pm -> oc
 activate oc
 pm <-oc
 deactivate oc
 m <- pm
 deactivate pm
 deactivate m
@enduml
