@startuml
title Recovery Process through Service\n\n
participant "MicroApp" as app
participant "MS" as ms
participant "ExceptionQueue" as expQ
participant "ExceptionHandler" as expHandle
participant "ExceptionDataGrid" as datagrid
participant "CloudNativeService" as cns

activate app
app -> ms : Exception Recovery Manual
activate ms
ms -> expQ : Rabbit MQ
activate expQ
deactivate app
expQ -> expHandle : Rabbit MQ
activate expHandle
deactivate expQ
expHandle -> datagrid
activate datagrid
deactivate expHandle
datagrid -> cns : Recovery Process
deactivate datagrid
activate cns
cns -> cns: Auto Recovery
cns -> ms : replay
deactivate cns
deactivate ms
@enduml