@startuml

title  ICS Agreement Generation and Ingestion \n\n\n

participant "User / Client" as b
participant "ICS Agreement API" as c
participant "DocId Generator API" as h
participant "OTSS" as e
participant "xECM DB" as i
participant "Preserve API" as f
participant "OTCS" as g

activate b

b -> c : User calls ICS Agreement
activate c

Note Right of c #DFDFFF
[[http://flows.corporate.t-mobile.com/all-swaggers/swagger/ce.cfs.documents/ API for ICS Agreement]]
end note

c -> h : Call for Doc ID
activate h

h -> c : Gives Doc ID
deactivate h

c -> e : Request for ICS Agreement submitJobContent.submitContent ()
activate e

e -> c : Return PDF Byte Array
deactivate e

note right of c #aqua
This API will support Generation and Ingestion of ICS
end note

c -> i : Insert into ICS_AGREEMENT table with Transaction_status = AGREEMENT_GENERATED and saveRequired = TRUE
activate i

i -> c
deactivate i

c -> b : Success Response (DocId + BinaryContent)
deactivate b

Note Right of c #DFDFFF
(ICS Processor)
end note

c -> f : ICS processor calls Preserve Document
activate f

f -> g : store
activate g

g -> f
deactivate g

f -> c : Return ingestDocumentId
deactivate f

c -> i : Update ICS_AGREEMENT table with Transaction_status = INGESTION_COMPLETE
activate i

i -> c
deactivate i

deactivate c

@endum