@startuml businessAdvisement
participant "Client"        as 01_UI   #ffffff
participant "businessAdvisement API"           as 02_businessAdvisementAPI  #9e9eff
participant "OT SS"              as 03_OTSS     #9e9eff
participant "preserveAPI"         as 04_preserveAPI  #9e9eff
participant "DB"                 as 05_Db       #9e9eff
participant "OT CS"              as 06_OTCS     #9e9eff


==Business Advisements with Accept BindID with Time Stamp== 

01_UI -> 02_businessAdvisementAPI    : [[http://flows.corporate.t-mobile.com/all-swaggers/swagger/ce.cfs.documents/businessadvisement.swagger.json/ POST]] Request Generation for ServiceAgreement
activate 01_UI 


Note right of 02_businessAdvisementAPI #9e9eff
[[http://flows.corporate.t-mobile.com/all-swaggers/swagger/ce.cfs.documents/businessadvisement.swagger.json/ API for BusinessAdvisement]]
end note

activate 02_businessAdvisementAPI
02_businessAdvisementAPI -> 02_businessAdvisementAPI : Validating Input JSON
02_businessAdvisementAPI -> 01_UI : Return with Error Code

02_businessAdvisementAPI -> 03_OTSS     : Generation for html document

activate 03_OTSS
03_OTSS -> 02_businessAdvisementAPI     : Return html document
deactivate 03_OTSS

02_businessAdvisementAPI -> 05_Db : Fetch Data into DB 
activate 05_Db

05_Db -> 02_businessAdvisementAPI :Response with unique ID
deactivate 05_Db

02_businessAdvisementAPI ->  01_UI   : Return html document with unique Id

01_UI -> 02_businessAdvisementAPI  : Requests acceptanceID and signatureID via [[http://flows.corporate.t-mobile.com/all-swaggers/swagger/ce.cfs.documents/businessadvisement.swagger.json/ PUT]]

02_businessAdvisementAPI -> 02_businessAdvisementAPI :Validate the request using acceptanceID and SignatureID
02_businessAdvisementAPI -> 01_UI :Return with Error Code

02_businessAdvisementAPI -> 03_OTSS  :appends with timestamp and requestType = pdf
03_OTSS -> 02_businessAdvisementAPI  :Return PDF along with timestamp
02_businessAdvisementAPI -> 04_preserveAPI : Ingest Advisement PDF
04_preserveAPI -> 06_OTCS  : call for Ingest PDF
06_OTCS -> 04_preserveAPI  : return DocID
04_preserveAPI -> 02_businessAdvisementAPI : retrun Doc ID
02_businessAdvisementAPI -> 05_Db : \nUpdate DB with INGESTION_SUCCESS
02_businessAdvisementAPI -> 01_UI :Return DOC ID
deactivate 01_UI
deactivate 02_businessAdvisementAPI

@enduml
