@startuml
WORKDAY -> TIBCO: manageEmploeeProfileRequest
note left: Hire/Re-Hire/On leave/Termed/Update Employee Feed
TIBCO --> WORKDAY: manageEmploeeProfileResponse
TIBCO -> XECM: EmployeeProfileRequest
XECM --> TIBCO: EmployeeProfileResponse
XECM -> DOCUSIGN: Workflow/Object API Request
XECM -> XECM_DB: Log the transaction details
note left: Insert the transactions details to EMPTRANSACTIONDATA
DOCUSIGN --> XECM: Workflow/Object API Response
DOCUSIGN -> DOCUSIGN: Create Employee specific folder based on the Employee Id and effective date
CAPTIVA -> XECM: File Transfer through shared drive
note left: Employee documents through Bulk/Manual upload
XECM -> DOCUSIGN: Content API
note left: File Watcher service to poll the shared folder continuously for files
note right: Document with contentType as multipart/form-data
XECM -> XECM_DB: Log the transaction details
note left: Insert the transactions details to EMPDOCUPLOAD
DOCUSIGN -> DOCUSIGN: Document storage
note right: Documents will be placed in the specific Employee folder
DOCUSIGN --> XECM: Content API Response with a Unique URL to the document
@enduml