@startuml
skinparam sequence {
ArrowColor #E20074
LifeLineBorderColor #E20074
LifeLineBackgroundColor #E20074
ParticipantBorderColor DeepSkyBlue
ParticipantBackgroundColor #E20074
ParticipantFontName Bold
ParticipantFontSize 17
ParticipantFontColor #FFFFFF
}

autonumber "<b>[0]"
== OAuth2 Create Token Flow ==

"Lumm Service" as lum -> "Apigee" as api: Create token
api -> api: Create token
api -> lum: Token returned

autonumber "<b>[0]"
== Get Parking Availability Flow ==

lum -> api: Get parking availability (passes token)
api -> "Microservice" as mic: Get parking availability (passes token)
mic -> "Indect API" as iapi: Get parking availability (IP whitelisted)
mic <-- iapi:Parking availability returned
api <-- mic:Parking availability returned
lum <-- api:Parking availability returned
@enduml