
@startuml
collections Deep
collections Listener
database Cassandra
collections MS
collections Apigee
collections BIF
Deep->Listener: UnifiedCommunicationAccountParticipantUpdated Event
Listener-> Cassandra: insert transcation
Listener -> Deep : Error
MS -> Cassandra : read transcation
MS -> Cassandra: get CCID
alt CCID does not exists 
    MS->Apigee: GetToken
    MS-> Apigee : get ccid
    Apigee -> CHUB : get ccid
    CHUB -> Apigee : return ccid
    Apigee ->  MS : return ccid
    MS -> Cassandra: update ccid 
else error1
    MS -> Cassandra: Update error
    MS -> Deep : publish error event
end
MS->Apigee: GetToken
MS -> Apigee: query enterprise
Apigee -> BIF: Query Enterprise
BIF ->Apigee : return
Apigee-> MS: return
alt customer exists 
    alt Seat Flow and Customer exists in BIF
        alt Soc features exist in MPM
        MS -> Apigee:getToken
        MS -> MPM : get SOC Features for \nSOC Id in the Seat Event
        MS -> Apigee:getToken
        MS -> Apigee: AddBANproxy
        Apigee-> BIF: AddBAN API
        BIF -> Apigee
        Apigee-> MS: return
        MS -> Cassandra : Transaction Complete complete
        else Soc feature does not exist in MPM
        MS -> Cassandra: Update Transactin as failed
        end
else Customer does not exists
    MS -> Apigee:getToken
    MS -> Apigee :createAPIproxy
    Apigee-> BIF:create API
    BIF -> Apigee
    Apigee-> MS: return
    MS -> Apigee :DialPlanAPIproxy
    Apigee-> BIF:DialPlan API
    BIF -> Apigee
    Apigee-> MS: return
    MS -> Cassandra : Transaction Complete complete
else system error
    MS-> MS: close circuit
    MS -> Deep: publish error event
else other error
    MS-> Cassandra: update error 
    MS -> Deep : publish error event
end
@enduml



