{
    "swagger": "2.0",
    "info": {
        "title": "billing-financials-collection-sa-v1",
        "description": "This service support the use of the financialAccount resource. A formal business arrangement providing for regular dealings or services, and involving the establishment and maintenance of a record of debit and credit entries to cover transactions involving a particular Customer. An invoice is prepared relative to a single financial account for a given bill cycle.",
        "version": "1.0.0",
        "contact": {
            "name": "Ramesh Yadav",
            "url": "http://www.t-mobile.com",
            "email": "ramesh.yadav23@t-mobile.com"
        },
        "license": {
            "name": "Proprietary software",
            "url": "https://en.wikipedia.org/wiki/Proprietary_software"
        },
        "termsOfService": "https://www.t-mobile.com/templates/popup.aspx?PAsset=Ftr_Ftr_TermsAndConditions",
        "x-createdBy": {
            "dateCreated": "Tue Jul  9 00:44:54 2019",
            "createdBy": "ryadav23",
            "application": "Recite",
            "appVersion": "1.1.0.3012",
            "documentId": "0773c2b6-111c-40e9-bf2d-3d3aaa7726cd",
            "status": "Conceptual - Initial",
            "businessCapabilityModel": "5.0",
            "classification": "7.0 Billing & Charging Management",
            "profile": "Core Business Capability Service",
            "serviceLayer": "Enterprise - Billing"
        }
    },
    "x-servers": [
        {
            "url": "http://127.0.0.1/",
            "description": "Test Server 1"
        }
    ],
    "tags": [
        {
            "name": "buckets-query",
            "description": "Executes a Function."
        }
    ],
    "host": "dev01.api.t-mobile.com",
    "basePath": "/billing-financials/v1/aging",
    "schemes": [
        "https"
    ],
    "paths": {
        "/buckets/query": {
            "post": {
                "tags": [
                    "buckets-query"
                ],
                "x-api-pattern": "ExecuteFunction",
                "summary": "A post for the financialAccountCollection resource using Digital Archecture's ExecuteFunction pattern.",
                "description": "Executes a Function.",
                "operationId": "buckets-query",
                "consumes": [],
                "produces": [],
                "parameters": [
                    {
                        "name": "bucketsQueryRequest",
                        "in": "body",
                        "description": "Request Object to get aging history",
                        "required": true,
                        "schema": {
                            "$ref": "#/definitions/BucketsQueryRequest"
                        }
                    },
                    {
                        "name": "Accept",
                        "in": "header",
                        "description": "Preferred content type _ default to application/json",
                        "x-example": "application/json",
                        "required": false,
                        "type": "string",
                        "minLength": 1,
                        "maxLength": 256,
                        "pattern": "^[ \\S]+$"
                    },
                    {
                        "name": "Accept-Encoding",
                        "in": "header",
                        "description": "List of acceptable encodings. See HTTP compression.",
                        "x-example": "gzip,deflate",
                        "required": false,
                        "type": "string",
                        "minLength": 1,
                        "maxLength": 256,
                        "pattern": "^[\\S ]*$"
                    },
                    {
                        "name": "Accept-Language",
                        "in": "header",
                        "description": "List of acceptable human languages for response",
                        "x-example": "en-us,en;q=0.5",
                        "required": false,
                        "type": "string",
                        "minLength": 1,
                        "maxLength": 256,
                        "pattern": "^[\\S ]*$"
                    },
                    {
                        "name": "Authorization",
                        "in": "header",
                        "description": "The HTTP Authorization request header contains the credentials to authenticate a user agent with a server.",
                        "x-example": "Bearer mF_9.B5f-4.1JqM",
                        "required": true,
                        "type": "string",
                        "minLength": 1,
                        "maxLength": 256,
                        "pattern": "^[\\S ]+$"
                    },
                    {
                        "name": "Content-Type",
                        "in": "header",
                        "description": "The MIME type of this content",
                        "x-example": "text/xml",
                        "required": true,
                        "type": "string",
                        "minLength": 1,
                        "maxLength": 256,
                        "pattern": "^[ \\S]+$"
                    },
                    {
                        "name": "Date",
                        "in": "header",
                        "description": "The Date general HTTP header contains the date and time at which the message was originated.",
                        "x-example": "Mon, 05 Mar 2018 16:38:08 GMT",
                        "required": false,
                        "type": "string",
                        "format": "date-time",
                        "pattern": "^(Mon|Tue|Wed|Thu|Fri|Sat|Sun), [0-3]{1}[0-9]{1} (Jan|Feb|Mar|Apr|May|Jun|Jul|Aug|Sep|Oct|Nov|Dec) [1-3][0-9]{3} [0-2][0-9]:[0-6][0-9]:[0-6][0-9] GMT$"
                    },
                    {
                        "name": "activity-id",
                        "in": "header",
                        "description": "Unique id alphanumeric value generated and sent by the partner to identify every the service request uniquely. Sample: XyzA:D1s5s1i-X6AFRvfiPBfs-1234  Pass as is to downstream calls.",
                        "x-example": "c34e7acd-384b-4c22-8b02-ba3963682508",
                        "required": false,
                        "type": "string",
                        "minLength": 1,
                        "maxLength": 256,
                        "pattern": "^[\\S]*$"
                    },
                    {
                        "name": "interaction-id",
                        "in": "header",
                        "description": "Alphanumeric value represent a common transaction id across all calls made from UI, while completing all business activity needs of a particular customer.",
                        "x-example": "cc688d54-50d1-49d4-8c5d-95459d1172e8",
                        "required": false,
                        "type": "string",
                        "minLength": 1,
                        "maxLength": 256,
                        "pattern": "^[\\S]*$"
                    },
                    {
                        "name": "service-transaction-id",
                        "in": "header",
                        "description": "Request ID echoed back by server",
                        "x-example": "23409209723",
                        "required": false,
                        "type": "string",
                        "minLength": 1,
                        "maxLength": 256,
                        "pattern": "^[\\S]*$"
                    },
                    {
                        "name": "session-id",
                        "in": "header",
                        "description": "A value populated by the sender used to track the transactions that occur during a session, a long-lasting interaction that ismaintained by the sender.",
                        "x-example": "350b91ec-4a64-4b10-a3f3-a78c8db3924a",
                        "required": false,
                        "type": "string",
                        "minLength": 1,
                        "maxLength": 256,
                        "pattern": "^[\\S]*$"
                    },
                    {
                        "name": "timestamp",
                        "in": "header",
                        "description": "ms since 1/1/70 adjusted to GMT",
                        "x-example": "1524599536",
                        "required": false,
                        "type": "integer",
                        "format": "int64",
                        "minimum": 0,
                        "maximum": 999999999999,
                        "pattern": "^[\\d]*$"
                    },
                    {
                        "name": "workflow-id",
                        "in": "header",
                        "description": "Business Use Case",
                        "x-example": "ACTIVATION",
                        "required": false,
                        "type": "string",
                        "minLength": 1,
                        "maxLength": 256,
                        "pattern": "^[\\S]*$"
                    },
                    {
                        "name": "x-auth-originator",
                        "in": "header",
                        "description": "API chain initiating callers access token",
                        "x-example": "c34e7acd-384b-4c22-8b02-ba3963682508",
                        "required": false,
                        "type": "string",
                        "minLength": 1,
                        "maxLength": 256,
                        "pattern": "^[\\S]*$"
                    },
                    {
                        "name": "x-authorization",
                        "in": "header",
                        "description": "Contains Proof of Possession token generated by API caller",
                        "x-example": "c34e7acd-384b-4c22-8b02-ba3963682508",
                        "required": false,
                        "type": "string",
                        "minLength": 1,
                        "maxLength": 256,
                        "pattern": "^[\\S ]*$"
                    }
                ],
                "responses": {
                    "200": {
                        "description": "OK",
                        "schema": {
                            "$ref": "#/definitions/BucketsQueryResponse"
                        },
                        "examples": {
                            "application/json": {
                                "financialAccountNumber": "123456789",
                                "agingHistory": {
                                    "aging": [
                                        {
                                            "agingPeriod": "31-60",
                                            "balanceAmount": 10
                                        }
                                    ],
                                    "currentBalanceAmount": 10,
                                    "pastDueAmount": 10
                                }
                            }
                        },
                        "headers": {
                            "Content-Encoding": {
                                "type": "string",
                                "minLength": 1,
                                "maxLength": 15,
                                "pattern": "^[\\S]*$",
                                "description": "The type of encoding used on the data",
                                "x-example": "gzip,deflate"
                            },
                            "Content-Length": {
                                "type": "integer",
                                "format": "int64",
                                "minimum": 0,
                                "pattern": "^[\\d]*$",
                                "description": "Length of the response body in octets; not supported if Transfer-Endoding = chunked",
                                "x-example": 9112300000003
                            },
                            "Content-Type": {
                                "type": "string",
                                "minLength": 1,
                                "maxLength": 256,
                                "pattern": "^[ \\S]+$",
                                "description": "The MIME type of this content",
                                "x-example": "text/xml"
                            },
                            "Date": {
                                "type": "string",
                                "format": "date-time",
                                "pattern": "^(Mon|Tue|Wed|Thu|Fri|Sat|Sun), [0-3]{1}[0-9]{1} (Jan|Feb|Mar|Apr|May|Jun|Jul|Aug|Sep|Oct|Nov|Dec) [1-3][0-9]{3} [0-2][0-9]:[0-6][0-9]:[0-6][0-9] GMT$",
                                "description": "The Date general HTTP header contains the date and time at which the message was originated.",
                                "x-example": "Mon, 05 Mar 2018 16:38:08 GMT"
                            },
                            "Transfer-Encoding": {
                                "type": "string",
                                "minLength": 1,
                                "maxLength": 15,
                                "pattern": "^[\\S]*$",
                                "description": "The form of encoding used to safely transfer the entity to the user. Currently defined methods are: chunked, compress, deflate, gzip, identity.",
                                "x-example": "chunked"
                            },
                            "service-transaction-id": {
                                "type": "string",
                                "minLength": 1,
                                "maxLength": 256,
                                "pattern": "^[\\S]*$",
                                "description": "Request ID echoed back by server",
                                "x-example": "23409209723"
                            }
                        }
                    },
                    "400": {
                        "description": "Bad Request",
                        "schema": {
                            "$ref": "#/definitions/Error"
                        },
                        "examples": {
                            "application/json": {
                                "code": "400",
                                "userMessage": "Bad Request",
                                "systemMessage": "Bad Request",
                                "detailLink": "http://www.tmus.com"
                            }
                        },
                        "headers": {}
                    },
                    "401": {
                        "description": "Unauthorized",
                        "schema": {
                            "$ref": "#/definitions/Error"
                        },
                        "examples": {
                            "application/json": {
                                "code": "401",
                                "userMessage": "Unauthorized",
                                "systemMessage": "Unauthorized",
                                "detailLink": "http://www.tmus.com"
                            }
                        },
                        "headers": {}
                    },
                    "404": {
                        "description": "Resource not found",
                        "schema": {
                            "$ref": "#/definitions/Error"
                        },
                        "examples": {
                            "application/json": {
                                "code": "404",
                                "userMessage": "Resource not found",
                                "systemMessage": "Resource not found",
                                "detailLink": "http://www.tmus.com"
                            }
                        },
                        "headers": {}
                    },
                    "405": {
                        "description": "Method Not Allowed",
                        "schema": {
                            "$ref": "#/definitions/Error"
                        },
                        "examples": {
                            "application/json": {
                                "code": "405",
                                "userMessage": "Method Not Allowed",
                                "systemMessage": "Method Not Allowed",
                                "detailLink": "http://www.tmus.com"
                            }
                        },
                        "headers": {
                            "Allow": {
                                "type": "string",
                                "minLength": 1,
                                "maxLength": 256,
                                "pattern": "^[\\S]*$",
                                "description": "list of supported methods for URI",
                                "x-example": "GET"
                            },
                            "service-transaction-id": {
                                "type": "string",
                                "minLength": 1,
                                "maxLength": 256,
                                "pattern": "^[\\S]*$",
                                "description": "Request ID echoed back by server",
                                "x-example": "23409209723"
                            }
                        }
                    },
                    "409": {
                        "description": "Invalid data",
                        "schema": {
                            "$ref": "#/definitions/Error"
                        },
                        "examples": {
                            "application/json": {
                                "code": "409",
                                "userMessage": "Invalid data",
                                "systemMessage": "Invalid data",
                                "detailLink": "http://www.tmus.com"
                            }
                        },
                        "headers": {}
                    },
                    "415": {
                        "description": "Unsupported Media Type",
                        "schema": {
                            "$ref": "#/definitions/Error"
                        },
                        "examples": {
                            "application/json": {
                                "code": "415",
                                "userMessage": "Unsupported Media Type",
                                "systemMessage": "Unsupported Media Type",
                                "detailLink": "http://www.tmus.com"
                            }
                        },
                        "headers": {}
                    },
                    "500": {
                        "description": "System Error",
                        "schema": {
                            "$ref": "#/definitions/Error"
                        },
                        "examples": {
                            "application/json": {
                                "code": "500",
                                "userMessage": "System Error",
                                "systemMessage": "System Error",
                                "detailLink": "http://www.tmus.com"
                            }
                        },
                        "headers": {}
                    },
                    "503": {
                        "description": "Service unavailable",
                        "schema": {
                            "$ref": "#/definitions/Error"
                        },
                        "examples": {
                            "application/json": {
                                "code": "503",
                                "userMessage": "Service unavailable",
                                "systemMessage": "Service unavailable",
                                "detailLink": "http://www.tmus.com"
                            }
                        },
                        "headers": {}
                    }
                },
                "security": [
                    {
                        "JWT": []
                    }
                ]
            }
        }
    },
    "definitions": {
        "Aging": {
            "description": "Amount due from customer over different aging period. When no data is present for a period, then a zero amount can be assumed.  BalanceAging (info) represents the balance of the customer account for a period of time. It provides insight into the customers account behavior to make decisions, such as to forgive on a late payment fee, etc.,",
            "type": "object",
            "properties": {
                "agingPeriod": {
                    "type": "string",
                    "description": "Period of days over which aging is calculated. Information is reflected as a string in the format of xx-yy, +yy, etc (31-60, +60, etc).",
                    "example": "31-60"
                },
                "balanceAmount": {
                    "type": "number",
                    "format": "double",
                    "description": "The amount due by the customer for the aging period indicated.",
                    "example": 10.0
                }
            }
        },
        "AgingHistory": {
            "description": "Details of aging history information  Aging history provides an historical measure of the customers account balance to make decisions on the account.",
            "type": "object",
            "properties": {
                "aging": {
                    "type": "array",
                    "description": "Amount due from customer over different aging period. When no data is present for a period, then a zero amount can be assumed.  BalanceAging (info) represents the balance of the customer account for a period of time. It provides insight into the customers account behavior to make decisions, such as to forgive on a late payment fee, etc.,",
                    "items": {
                        "$ref": "#/definitions/Aging"
                    }
                },
                "currentBalanceAmount": {
                    "type": "number",
                    "format": "double",
                    "description": "Current bill amount due for the customer. Absence of this information would mean that the customer does not have a balance currently, and a zero can be assumed.",
                    "example": 10.0
                },
                "pastDueAmount": {
                    "type": "number",
                    "format": "double",
                    "description": "Amount due from the customer that is past due date. Absence of this element would mean that the customer is current on their balance and a zero value can be assumed.",
                    "example": 10.0
                }
            }
        },
        "BucketsQueryRequest": {
            "description": "Request Object to get aging history",
            "type": "object",
            "properties": {
                "financialAccountNumber": {
                    "type": "string",
                    "maxLength": 9,
                    "pattern": "^(\\d{9})$",
                    "description": "Customer Billing Account Number",
                    "example": "123456789"
                }
            }
        },
        "BucketsQueryResponse": {
            "description": "Response of the aging history for a BAN",
            "type": "object",
            "properties": {
                "financialAccountNumber": {
                    "type": "string",
                    "maxLength": 9,
                    "pattern": "^(\\d{9})$",
                    "description": "Customer Billing Account Number",
                    "example": "123456789"
                },
                "agingHistory": {
                    "$ref": "#/definitions/AgingHistory"
                }
            }
        },
        "Error": {
            "description": "As defined in http://api-standards.apps.px-npe01.cf.t-mobile.com/http/status-codes/error-response-format/",
            "type": "object",
            "required": [
                "code",
                "userMessage"
            ],
            "properties": {
                "code": {
                    "type": "string",
                    "pattern": "^[\\S ]+$",
                    "description": "A succinct, domain-specific, human-readable text string to identify the type of error for the given status code",
                    "example": "ProductNotFound"
                },
                "userMessage": {
                    "type": "string",
                    "pattern": "^[\\S ]+$",
                    "description": "A human-readable message describing the error.",
                    "example": "Failed to find product."
                },
                "systemMessage": {
                    "type": "string",
                    "description": "Text that provides a more detailed technical explanation of the error",
                    "example": "PRODUCT_NOT_FOUND"
                },
                "detailLink": {
                    "type": "string",
                    "description": "link to custom information providing greater detail on error or errors",
                    "example": "http://aaa.bbb.ccc/"
                }
            }
        }
    },
    "securityDefinitions": {
        "JWT": {
            "type": "apiKey",
            "description": "JWT is a means of representing claims to be transferred between two parties. The claims in a JWT are encoded as a JSON object that is digitally signed using JSON Web Signature (JWS) and/or encrypted using JSON Web Encryption (JWE).",
            "name": "Authorization",
            "in": "header"
        }
    },
    "security": [
        {
            "JWT": []
        }
    ]
}