{
  "swagger": "2.0",
  "info": {
    "title": "Contacts APIs",
    "description": "This document lists version 1.0 for the APIs that support contact.",
    "version": "1.0.0",
    "contact": {
      "name": "Amdocs Digital Billing",
      "url": "http://www.t-mobile.com",
      "email": "Ilya.Toiberman1@T-Mobile.com"
    },
    "license": {
      "name": "Proprietary software",
      "url": "https://en.wikipedia.org/wiki/Proprietary_software"
    },
    "termsOfService": "https://www.t-mobile.com/templates/popup.aspx?PAsset=Ftr_Ftr_TermsAndConditions",
    "x-createdBy": {
      "dateCreated": "Tue Jun 26 10:04:18 2018",
      "createdBy": "Nofar",
      "application": "Recite",
      "appVersion": "0.3.6.2170",
      "status": "Conceptual - Initial",
      "classification": "1.0 Customer Interaction Management",
      "profile": "Core Business Capability Service ",
      "serviceLayer": "Enterprise - Billing"
    }
  },
  "host": "dev01.api.t-mobile.com",
  "basePath": "/billing/v2/financial-accounts/users",
  "schemes": [
    "https"
  ],
  "x-servers": [
    {
      "url": "http://127.0.0.1/",
      "description": "Test Server 1."
    }
  ],
  "tags": [
    {
      "name": "contacts",
      "description": "A Contact details for a billing acount or subscriber."
    }
  ],
  "paths": {
    "/authorized": {
      "get": {
        "tags": [
          "authorized-users-rest"
        ],
        "x-api-pattern": "QueryResource",
        "summary": "Get contact information by financialAccountNumber",
        "description": "Retrieve authorized contact details by financialAccountNumber.",
        "operationId": "getAuthorizedUsers",
        "consumes": [
          "application/json"
        ],
        "produces": [
          "application/json"
        ],
        "parameters": [
          {
            "name": "financial-account-number",
            "description": "Financial account number.",
            "required": true,
            "in": "query",
			"x-example": "123456789",
            "type": "string",
            "pattern": "^[\\S]*$"
          },
		  {
            "$ref": "#/parameters/header-activityid"
          },
          {
            "$ref": "#/parameters/header-X-Authorization"
          },
          {
            "$ref": "#/parameters/header-X-Auth-Originator"
          },
          {
            "$ref": "#/parameters/header-Accept"
          },
          {
            "$ref": "#/parameters/header-Accept-Charset"
          },
          {
            "$ref": "#/parameters/header-Accept-Encoding"
          },
          {
            "$ref": "#/parameters/header-Accept-Language"
          },
          {
            "$ref": "#/parameters/header-Authorization"
          },
          {
            "$ref": "#/parameters/header-Content-Type"
          },
          {
            "$ref": "#/parameters/header-Date"
          },
          {
            "$ref": "#/parameters/header-If-Modified-Since"
          },
          {
            "$ref": "#/parameters/header-If-None-Match"
          },
          {
            "$ref": "#/parameters/header-interaction-id"
          },
          {
            "$ref": "#/parameters/header-service-transaction-id"
          },
          {
            "$ref": "#/parameters/header-session-id"
          },
          {
            "$ref": "#/parameters/header-timestamp"
          },
          {
            "$ref": "#/parameters/header-workflow-id"
          }
        ],
        "responses": {
          "200": {
            "description": "Retrieve contact information by financialAccountNumber.",
            "schema": {
              "$ref": "#/definitions/authorizedUsersResponse"
            },
            "examples": {
              "application/json": {
                "authorizedUserDetailsList": {
                  "firstName": "Nofar",
                  "lastName": "Hamami",
                  "middleInitial": "H",
                  "suffix": "PhD",
                  "title": "Mrs",
                  "effectiveDate": "19990201",
                  "contactRole": "Authorized"
                }
              }
            },
            "headers": {
              "Cache-Control": {
                "description": "Cache policy supported for the resource by the server.",
                "x-example": "no-cache",
                "type": "string",
                "minLength": 1,
                "maxLength": 256,
                "pattern": "^[\\S]*$"
              },
              "Content-Type": {
                "description": "The MIME type of this content.",
                "x-example": "text/xml",
                "type": "string",
                "minLength": 1,
                "maxLength": 256,
                "pattern": "^[ \\S]+$"
              },
              "Date": {
                "description": "The Date general HTTP header contains the date and time at which the message was originated.",
                "x-example": "Mon, 05 Mar 2018 16:38:08 GMT",
                "type": "string",
                "format": "date-time",
                "pattern": "^(Mon|Tue|Wed|Thu|Fri|Sat|Sun), [0-3]{1}[0-9]{1} (Jan|Feb|Mar|Apr|May|Jun|Jul|Aug|Sep|Oct|Nov|Dec) [1-3][0-9]{3} [0-2][0-9]:[0-6][0-9]:[0-6][0-9] GMT$"
              }
            }
          },
          "400": {
            "description": "Bad Request.",
            "schema": {
              "$ref": "#/definitions/Error"
            },
            "examples": {
              "application/json": {
                "code": "400",
                "userMessage": "Bad Request",
                "systemMessage": "Bad Request",
                "detailLink": "http://www.tmus.com"
              }
            },
            "headers": {}
          },
          "401": {
            "description": "Unauthorized.",
            "schema": {
              "$ref": "#/definitions/Error"
            },
            "examples": {
              "application/json": {
                "code": "401",
                "userMessage": "Unauthorized",
                "systemMessage": "Unauthorized",
                "detailLink": "http://www.tmus.com"
              }
            },
            "headers": {}
          },
          "404": {
            "description": "Resource not found.",
            "schema": {
              "$ref": "#/definitions/Error"
            },
            "examples": {
              "application/json": {
                "code": "404",
                "userMessage": "Resource not found",
                "systemMessage": "Resource not found",
                "detailLink": "http://www.tmus.com"
              }
            },
            "headers": {}
          },
          "405": {
            "description": "Method Not Allowed.",
            "schema": {
              "$ref": "#/definitions/Error"
            },
            "examples": {
              "application/json": {
                "code": "405",
                "userMessage": "Method Not Allowed",
                "systemMessage": "Method Not Allowed",
                "detailLink": "http://www.tmus.com"
              }
            },
            "headers": {
              "Allow": {
                "description": "list of supported methods for URI.",
                "x-example": "GET",
                "type": "string",
                "minLength": 1,
                "maxLength": 256,
                "pattern": "^[\\S]*$"
              },
              "service-transaction-id": {
                "description": "Request ID echoed back by server",
                "x-example": "23409209723",
                "type": "string",
                "minLength": 1,
                "maxLength": 256,
                "pattern": "^[\\S]*$"
              }
            }
          },
          "406": {
            "description": "Not Acceptable.",
            "schema": {
              "$ref": "#/definitions/Error"
            },
            "examples": {
              "application/json": {
                "code": "406",
                "userMessage": "Not Acceptable.",
                "systemMessage": "Not Acceptable.",
                "detailLink": "http://www.tmus.com"
              }
            },
            "headers": {}
          },
          "500": {
            "description": "System Error.",
            "schema": {
              "$ref": "#/definitions/Error"
            },
            "examples": {
              "application/json": {
                "code": "500",
                "userMessage": "System Error.",
                "systemMessage": "System Error.",
                "detailLink": "http://www.tmus.com"
              }
            },
            "headers": {}
          },
          "503": {
            "description": "Service unavailable.",
            "schema": {
              "$ref": "#/definitions/Error"
            },
            "examples": {
              "application/json": {
                "code": "503",
                "userMessage": "Service unavailable.",
                "systemMessage": "Service unavailable.",
                "detailLink": "http://www.tmus.com"
              }
            },
            "headers": {}
          }
        },
        "security": [
          {
            "oauth2": []
          }
        ]
      }
    }
  },
  "definitions": {
    "Error": {
      "description": "Error object.",
      "type": "object",
      "properties": {
        "code": {
          "description": "A specific T-Mobile error code.",
          "type": "string"
        },
        "userMessage": {
          "description": "A human-readable message describing the error.",
          "type": "string"
        },
        "systemMessage": {
          "description": "Backend system error message.",
          "type": "string"
        },
        "requestUri": {
          "description": "Any.",
          "type": "string"
        },
        "traceId": {
          "description": "Any.",
          "type": "string"
        }
      }
    },
    "authorizedUsersResponse": {
      "type": "object",
      "description": "Authorized users response.",
      "properties": {
        "authorizedUsersOutputList": {
          "type": "array",
          "description": "List of authorized users.",
          "items": {
            "$ref": "#/definitions/authorizedUserDetails"
          }
        }
      }
    },
    "authorizedUserDetails": {
      "type": "object",
      "description": "Authorized users output.",
      "properties": {
        "firstName": {
          "description": "First name.",
          "example": "Nofar",
          "type": "string"
        },
        "lastName": {
          "description": "Last name.",
          "example": "Hamami",
          "type": "string"
        },
        "middleInitial": {
          "description": "Middle initial.",
          "example": "H",
          "type": "string"
        },
        "suffix": {
          "description": "Suffix.",
          "example": "PhD",
          "type": "string"
        },
        "title": {
          "description": "Title.",
          "example": "Mrs",
          "type": "string"
        },
        "effectiveDate": {
          "description": "The start date for autorization period, format - yyyymmdd.",
          "example": "19990201",
          "type": "string",
          "minLength": 8,
          "maxLength": 8,
          "pattern": "^[\\S]*$"
        },
        "contactRole": {
          "description": "Indicates if its primary authorized or secondary authorized.",
          "type": "string",
          "example": "A",
          "minLength": 1,
          "maxLength": 1,
          "enum": [
            "Authorized",
            "Secondary"
          ]
        }
      }
    }
  },
  "parameters": {
    "header-activityid": {
      "in": "header",
      "name": "activityid",
      "description": "activity id.",
      "required": true,
      "type": "string",
      "pattern": "^[\\S ]*$",
      "x-example": "fkljk44"
    },
    "header-X-Authorization": {
      "name": "X-Authorization",
      "in": "header",
      "description": "OAuth 2.0 access token with the authentication type set as Bearer.",
      "required": false,
      "x-example": "abc",
      "type": "string"
    },
    "header-X-Auth-Originator": {
      "name": "X-Auth-Originator",
      "in": "header",
      "description": "OAuth 2.0 access token with the authentication type set as Bearer.",
      "required": false,
      "x-example": "abc",
      "type": "string"
    },
    "header-Accept": {
      "name": "Accept",
      "in": "header",
      "description": "Preferred content type _ default to application/json.",
      "x-example": "application/json",
      "required": false,
      "type": "string",
      "minLength": 1,
      "maxLength": 256,
      "pattern": "^[ \\S]+$"
    },
    "header-Accept-Charset": {
      "name": "Accept-Charset",
      "in": "header",
      "description": "Character sets that are acceptable.",
      "x-example": "ISO-8859-1,utf-8;q=0.7,*;q=0.7",
      "required": false,
      "type": "string",
      "minLength": 1,
      "maxLength": 256,
      "pattern": "^[\\S ]*$"
    },
    "header-Accept-Encoding": {
      "name": "Accept-Encoding",
      "in": "header",
      "description": "List of acceptable encodings. See HTTP compression.",
      "x-example": "gzip,deflate",
      "required": false,
      "type": "string",
      "minLength": 1,
      "maxLength": 256,
      "pattern": "^[\\S ]*$"
    },
    "header-Accept-Language": {
      "name": "Accept-Language",
      "in": "header",
      "description": "List of acceptable human languages for response.",
      "x-example": "en-us,en;q=0.5",
      "required": false,
      "type": "string",
      "minLength": 1,
      "maxLength": 256,
      "pattern": "^[\\S ]*$"
    },
    "header-Authorization": {
      "name": "Authorization",
      "in": "header",
      "description": "The HTTP Authorization request header contains the credentials to authenticate a user agent with a server.",
      "x-example": "Bearer mF_9.B5f-4.1JqM",
      "required": true,
      "type": "string",
      "minLength": 1,
      "maxLength": 256,
      "pattern": "^[\\S ]+$"
    },
    "header-Content-Type": {
      "name": "Content-Type",
      "in": "header",
      "description": "The MIME type of this content.",
      "x-example": "text/xml",
      "required": true,
      "type": "string",
      "minLength": 1,
      "maxLength": 256,
      "pattern": "^[ \\S]+$"
    },
    "header-Date": {
      "name": "Date",
      "in": "header",
      "description": "The Date general HTTP header contains the date and time at which the message was originated.",
      "x-example": "Mon, 05 Mar 2018 16:38:08 GMT",
      "required": false,
      "type": "string",
      "format": "date-time",
      "pattern": "^(Mon|Tue|Wed|Thu|Fri|Sat|Sun), [0-3]{1}[0-9]{1} (Jan|Feb|Mar|Apr|May|Jun|Jul|Aug|Sep|Oct|Nov|Dec) [1-3][0-9]{3} [0-2][0-9]:[0-6][0-9]:[0-6][0-9] GMT$"
    },
    "header-If-Modified-Since": {
      "name": "If-Modified-Since",
      "in": "header",
      "description": "The If-Modified-Since header specifies date-related conditions to be placed on the execution of a request.  The request will only be executed if the requested resource has not been modified since the date-time specified.  Because the behavior is complex, the details for usage are provided at http://www.w3.org/Protocols/rfc2616/rfc2616-sec14.html",
      "x-example": "Mon, 05 Mar 2018 16:38:08 GMT",
      "required": false,
      "type": "string",
      "format": "date-time",
      "pattern": "^(Mon|Tue|Wed|Thu|Fri|Sat|Sun), [0-3]{1}[0-9]{1} (Jan|Feb|Mar|Apr|May|Jun|Jul|Aug|Sep|Oct|Nov|Dec) [1-3][0-9]{3} [0-2][0-9]:[0-6][0-9]:[0-6][0-9] GMT$"
    },
    "header-If-None-Match": {
      "name": "If-None-Match",
      "in": "header",
      "description": "The If-None-Match header specifies an ETag-related condition to be placed on the execution of a request.  The request will NOT be executed if the ETag of the requested resource matches one of those specified in the If-None-Match header.  Because the behavior is complex, the details for usage are provided at http://www.w3.org/Protocols/rfc2616/rfc2616-sec14.html",
      "x-example": "*",
      "required": false,
      "type": "string",
      "minLength": 1,
      "maxLength": 256,
      "pattern": "^[\\S]*$"
    },
    "header-interaction-id": {
      "name": "interaction-id",
      "in": "header",
      "description": "Alphanumeric value represent a common transaction id across all calls made from UI, while completing all business activity needs of a particular customer.",
      "x-example": "cc688d54-50d1-49d4-8c5d-95459d1172e8",
      "required": false,
      "type": "string",
      "minLength": 1,
      "maxLength": 256,
      "pattern": "^[\\S]*$"
    },
    "header-service-transaction-id": {
      "name": "service-transaction-id",
      "in": "header",
      "description": "Request ID echoed back by server.",
      "x-example": "23409209723",
      "required": false,
      "type": "string",
      "minLength": 1,
      "maxLength": 256,
      "pattern": "^[\\S]*$"
    },
    "header-session-id": {
      "name": "session-id",
      "in": "header",
      "description": "A value populated by the sender used to track the transactions that occur during a session, a long-lasting interaction that ismaintained by the sender.",
      "x-example": "350b91ec-4a64-4b10-a3f3-a78c8db3924a",
      "required": false,
      "type": "string",
      "minLength": 1,
      "maxLength": 256,
      "pattern": "^[\\S]*$"
    },
    "header-timestamp": {
      "name": "timestamp",
      "in": "header",
      "description": "ms since 1/1/70 adjusted to GMT.",
      "x-example": "1524599536",
      "required": false,
      "type": "integer",
      "format": "int64",
      "minimum": 0,
      "maximum": 999999999999,
      "pattern": "^[\\d]*$"
    },
    "header-workflow-id": {
      "name": "workflow-id",
      "in": "header",
      "description": "Business Use Case.",
      "x-example": "ACTIVATION",
      "required": false,
      "type": "string",
      "minLength": 1,
      "maxLength": 256,
      "pattern": "^[\\S]*$"
    }
  },
  "securityDefinitions": {
    "oauth2": {
      "type": "oauth2",
      "description": "oauth2 Authentication.",
      "tokenUrl": "https://host:env/v1/oauth2/accesstoken?grant_type=client_credentials",
      "flow": "application",
      "scopes": {}
    }
  }
}