{
  "swagger": "2.0",
  "info": {
    "title": "Get Deposit lines credit details",
    "description": "return deposit and approved-subscribers for both product types for each Credit Class",
    "version": "1.0.0",
    "contact": {
      "name": "Amdocs Digital Billing Team",
      "url": "http://www.t-mobile.com",
      "email": "regev.osher2@t-mobile.com"
    },
    "license": {
      "name": "Proprietary software",
      "url": "https://en.wikipedia.org/wiki/Proprietary_software"
    },
    "termsOfService": "https://www.t-mobile.com/templates/popup.aspx?PAsset=Ftr_Ftr_TermsAndConditions",
    "x-createdBy": {
      "dateCreated": "Wed May  1 22:23:35 2019",
      "createdBy": "rosher2",
      "application": "Recite",
      "appVersion": "1.0.0.2891",
      "documentId": "03f3a3ed-0a59-402e-aaf2-4ff852c35302",
      "status": "Conceptual - Initial",
      "classification": "5.2.3 Customer Credit Profile Data Mgmt",
      "profile": "Core Business Capability Service",
      "serviceLayer": "Enterprise - Billing"
    }
  },
  "x-servers": [
    {
      "url": "http://127.0.0.1/",
      "description": "Test Server 1."
    }
  ],
  "tags": [
    {
      "name": "get credit details by credit class",
      "description": ""
    }
  ],
  "host": "dev01.api.t-mobile.com",
  "basePath": "/billing/v1/financial-accounts",
  "schemes": [
    "https"
  ],
  "paths": {
    "/credit-policy": {
      "get": {
        "tags": [
          "get credit details by credit class"
        ],
        "x-api-pattern": "QueryResource",
        "summary": "get credit details by credit class",
        "description": "get credit details by credit class",
        "operationId": "getDepositLinesCreditDetails",
        "consumes": [

        ],
        "produces": [

        ],
        "parameters": [
          {
            "name": "account-type",
            "in": "query",
            "description": "Defines financial account type, samplevalues B ,E ,G ,I ,N ,R ,S.",
            "required": false,
            "type": "string",
            "x-example": "D"
          },
          {
            "name": "account-sub-type",
            "in": "query",
            "description": "Defines financial account type, samplevalues L, E, D, C, F, T, J, R, S, W,  Q, ...",
            "required": false,
            "type": "string",
            "x-example": "R"
          },
          {
            "name": "credit-class-name",
            "in": "query",
            "description": "Defines financial account credit class, sample values : 2 ,3 ,4 ,5 ,6 ,A ,B ,C ,D ,E ...",
            "required": false,
            "type": "string",
            "x-example": "I"
          },
          {
            "name": "Accept",
            "in": "header",
            "description": "Preferred content type _ default to application/json",
            "x-example": "application/json",
            "required": false,
            "type": "string",
            "minLength": 1,
            "maxLength": 256,
            "pattern": "^[ \\S]+$"
          },
          {
            "name": "Accept-Encoding",
            "in": "header",
            "description": "List of acceptable encodings. See HTTP compression.",
            "x-example": "gzip,deflate",
            "required": false,
            "type": "string",
            "minLength": 1,
            "maxLength": 256,
            "pattern": "^[\\S ]*$"
          },
          {
            "name": "Accept-Language",
            "in": "header",
            "description": "List of acceptable human languages for response",
            "x-example": "en-us,en;q=0.5",
            "required": false,
            "type": "string",
            "minLength": 1,
            "maxLength": 256,
            "pattern": "^[\\S ]*$"
          },
          {
            "name": "Authorization",
            "in": "header",
            "description": "The HTTP Authorization request header contains the credentials to authenticate a user agent with a server.",
            "x-example": "Bearer mF_9.B5f-4.1JqM",
            "required": true,
            "type": "string",
            "minLength": 1,
            "maxLength": 256,
            "pattern": "^[\\S ]+$"
          },
          {
            "name": "Date",
            "in": "header",
            "description": "The Date general HTTP header contains the date and time at which the message was originated.",
            "x-example": "Mon, 05 Mar 2018 16:38:08 GMT",
            "required": false,
            "type": "string",
            "format": "date-time",
            "pattern": "^(Mon|Tue|Wed|Thu|Fri|Sat|Sun), [0-3]{1}[0-9]{1} (Jan|Feb|Mar|Apr|May|Jun|Jul|Aug|Sep|Oct|Nov|Dec) [1-3][0-9]{3} [0-2][0-9]:[0-6][0-9]:[0-6][0-9] GMT$"
          },
          {
            "name": "If-Modified-Since",
            "in": "header",
            "description": "The If-Modified-Since header specifies date-related conditions to be placed on the execution of a request.  The request will only be executed if the requested resource has not been modified since the date-time specified.  Because the behavior is complex, the details for usage are provided at http://www.w3.org/Protocols/rfc2616/rfc2616-sec14.html",
            "x-example": "Mon, 05 Mar 2018 16:38:08 GMT",
            "required": false,
            "type": "string",
            "format": "date-time",
            "pattern": "^(Mon|Tue|Wed|Thu|Fri|Sat|Sun), [0-3]{1}[0-9]{1} (Jan|Feb|Mar|Apr|May|Jun|Jul|Aug|Sep|Oct|Nov|Dec) [1-3][0-9]{3} [0-2][0-9]:[0-6][0-9]:[0-6][0-9] GMT$"
          },
          {
            "name": "If-None-Match",
            "in": "header",
            "description": "The If-None-Match header specifies an ETag-related condition to be placed on the execution of a request.  The request will NOT be executed if the ETag of the requested resource matches one of those specified in the If-None-Match header.  Because the behavior is complex, the details for usage are provided at http://www.w3.org/Protocols/rfc2616/rfc2616-sec14.html",
            "x-example": "*",
            "required": false,
            "type": "string",
            "minLength": 1,
            "maxLength": 256,
            "pattern": "^[\\S]*$"
          },
          {
            "name": "activity-id",
            "in": "header",
            "description": "Unique id alphanumeric value generated and sent by the partner to identify every the service request uniquely. Sample: XyzA:D1s5s1i-X6AFRvfiPBfs-1234  Pass as is to downstream calls.",
            "x-example": "c34e7acd-384b-4c22-8b02-ba3963682508",
            "required": true,
            "type": "string",
            "minLength": 1,
            "maxLength": 256,
            "pattern": "^[\\S]*$"
          },
          {
            "name": "interaction-id",
            "in": "header",
            "description": "Alphanumeric value represent a common transaction id across all calls made from UI, while completing all business activity needs of a particular customer.",
            "x-example": "cc688d54-50d1-49d4-8c5d-95459d1172e8",
            "required": false,
            "type": "string",
            "minLength": 1,
            "maxLength": 256,
            "pattern": "^[\\S]*$"
          },
          {
            "name": "service-transaction-id",
            "in": "header",
            "description": "Request ID echoed back by server",
            "x-example": "23409209723",
            "required": false,
            "type": "string",
            "minLength": 1,
            "maxLength": 256,
            "pattern": "^[\\S]*$"
          },
          {
            "name": "session-id",
            "in": "header",
            "description": "A value populated by the sender used to track the transactions that occur during a session, a long-lasting interaction that ismaintained by the sender.",
            "x-example": "350b91ec-4a64-4b10-a3f3-a78c8db3924a",
            "required": false,
            "type": "string",
            "minLength": 1,
            "maxLength": 256,
            "pattern": "^[\\S]*$"
          },
          {
            "name": "timestamp",
            "in": "header",
            "description": "ms since 1/1/70 adjusted to GMT",
            "x-example": "1524599536",
            "required": false,
            "type": "integer",
            "format": "int64",
            "minimum": 0,
            "maximum": 999999999999,
            "pattern": "^[\\d]*$"
          },
          {
            "name": "workflow-id",
            "in": "header",
            "description": "Business Use Case",
            "x-example": "ACTIVATION",
            "required": false,
            "type": "string",
            "minLength": 1,
            "maxLength": 256,
            "pattern": "^[\\S]*$"
          },
          {
            "name": "x-auth-originator",
            "in": "header",
            "description": "API chain initiating callers access token",
            "x-example": "c34e7acd-384b-4c22-8b02-ba3963682508",
            "required": true,
            "type": "string",
            "minLength": 1,
            "maxLength": 256,
            "pattern": "^[\\S]*$"
          },
          {
            "name": "x-authorization",
            "in": "header",
            "description": "Contains Proof of Possession token generated by API caller",
            "x-example": "c34e7acd-384b-4c22-8b02-ba3963682508",
            "required": false,
            "type": "string",
            "minLength": 1,
            "maxLength": 256,
            "pattern": "^[\\S ]*$"
          }
        ],
        "responses": {
          "200": {
            "description": "OK",
            "schema": {
              "$ref": "#/definitions/CreditDetailsResponse"
            },
            "examples": {
              "application/json": {
                "miCreditPolicy": {
                  "approvedSubscribers": "5",
                  "regularDeposit": "25.00",
                  "ratePlanOnlyDeposit": "25.00"
                },
                "gsmCreditPolicy": {
                  "approvedSubscribers": "10",
                  "regularDeposit": "50.00",
                  "ratePlanOnlyDeposit": "100.00"
                }
              }
            },
            "headers": {
              "Cache-Control": {
                "description": "Cache policy supported for the resource by the server",
                "x-example": "no-cache",
                "type": "string",
                "minLength": 1,
                "maxLength": 256,
                "pattern": "^[\\S]*$"
              },
              "Content-Type": {
                "description": "The MIME type of this content",
                "x-example": "text/xml",
                "type": "string",
                "minLength": 1,
                "maxLength": 256,
                "pattern": "^[ \\S]+$"
              },
              "Date": {
                "description": "The Date general HTTP header contains the date and time at which the message was originated.",
                "x-example": "Mon, 05 Mar 2018 16:38:08 GMT",
                "type": "string",
                "format": "date-time",
                "pattern": "^(Mon|Tue|Wed|Thu|Fri|Sat|Sun), [0-3]{1}[0-9]{1} (Jan|Feb|Mar|Apr|May|Jun|Jul|Aug|Sep|Oct|Nov|Dec) [1-3][0-9]{3} [0-2][0-9]:[0-6][0-9]:[0-6][0-9] GMT$"
              },
              "ETag": {
                "description": "The ETag header specifies the unique entity tag value for the returned resource.",
                "x-example": "*",
                "type": "string",
                "minLength": 1,
                "maxLength": 256,
                "pattern": "^[\\S]*$"
              },
              "Location": {
                "description": "The Location header specifies the URI of a created resource, or redirects the API consumer to an alternate resource location.",
                "x-example": "http://api.t-mo.com/order-mgmt/v1/orders/123xyz-0/status",
                "type": "string",
                "minLength": 1,
                "maxLength": 65536,
                "pattern": "^[\\S]*$"
              },
              "Transfer-Encoding": {
                "description": "The form of encoding used to safely transfer the entity to the user. Currently defined methods are: chunked, compress, deflate, gzip, identity.",
                "x-example": "chunked",
                "type": "string",
                "minLength": 1,
                "maxLength": 15,
                "pattern": "^[\\S]*$"
              },
              "service-transaction-id": {
                "description": "Request ID echoed back by server",
                "x-example": "23409209723",
                "type": "string",
                "minLength": 1,
                "maxLength": 256,
                "pattern": "^[\\S]*$"
              }
            }
          },
          "400": {
            "description": "Bad Request.",
            "schema": {
              "$ref": "#/definitions/Error"
            },
            "examples": {
              "application/json": {
                "code": "400",
                "userMessage": "Bad Request.",
                "systemMessage": "Bad Request.",
                "detailLink": "http://www.tmus.com"
              }
            },
            "headers": {
            }
          },
          "401": {
            "description": "Unauthorized.",
            "schema": {
              "$ref": "#/definitions/Error"
            },
            "examples": {
              "application/json": {
                "code": "401",
                "userMessage": "Unauthorized.",
                "systemMessage": "Unauthorized.",
                "detailLink": "http://www.tmus.com"
              }
            },
            "headers": {
            }
          },
          "404": {
            "description": "Resource not found.",
            "schema": {
              "$ref": "#/definitions/Error"
            },
            "examples": {
              "application/json": {
                "code": "404",
                "userMessage": "Resource not found.",
                "systemMessage": "Resource not found.",
                "detailLink": "http://www.tmus.com"
              }
            },
            "headers": {
            }
          },
          "405": {
            "description": "Method Not Allowed.",
            "schema": {
              "$ref": "#/definitions/Error"
            },
            "examples": {
              "application/json": {
                "code": "405",
                "userMessage": "Method Not Allowed.",
                "systemMessage": "Method Not Allowed.",
                "detailLink": "http://www.tmus.com"
              }
            },
            "headers": {
              "Allow": {
                "description": "list of supported methods for URI",
                "x-example": "GET",
                "type": "string",
                "minLength": 1,
                "maxLength": 256,
                "pattern": "^[\\S]*$"
              },
              "service-transaction-id": {
                "description": "Request ID echoed back by server",
                "x-example": "23409209723",
                "type": "string",
                "minLength": 1,
                "maxLength": 256,
                "pattern": "^[\\S]*$"
              }
            }
          },
          "406": {
            "description": "Mismatching data format",
            "schema": {
              "$ref": "#/definitions/Error"
            },
            "examples": {
              "application/json": {
                "code": "406",
                "userMessage": "Mismatching data format",
                "systemMessage": "Mismatching data format",
                "detailLink": "http://www.tmus.com"
              }
            },
            "headers": {
            }
          },
          "500": {
            "description": "System Error.",
            "schema": {
              "$ref": "#/definitions/Error"
            },
            "examples": {
              "application/json": {
                "code": "500",
                "userMessage": "System Error.",
                "systemMessage": "System Error.",
                "detailLink": "http://www.tmus.com"
              }
            },
            "headers": {
            }
          },
          "503": {
            "description": "Service unavailable.",
            "schema": {
              "$ref": "#/definitions/Error"
            },
            "examples": {
              "application/json": {
                "code": "503",
                "userMessage": "Service unavailable.",
                "systemMessage": "Service unavailable.",
                "detailLink": "http://www.tmus.com"
              }
            },
            "headers": {
            }
          }
        },
        "security": [
          {
            "oauth2": [

            ]
          }
        ]
      }
    }
  },
  "definitions": {
    "CreditDetailsResponse": {
      "description": "Credit Class return Object",
      "type": "object",
      "properties": {
        "creditClassName": {
          "description": "Credit Class Name",
          "example": "I",
          "type": "string"
        },
        "miCreditPolicy": {
          "$ref": "#/definitions/miCreditPolicy"
        },
        "gsmCreditPolicy": {
          "$ref": "#/definitions/gsmCreditPolicy"
        }
      }
    },
    "Error": {
      "description": "As defined in http://api-standards.apps.px-npe01.cf.t-mobile.com/http/status-codes/error-response-format/",
      "type": "object",
      "required": [
        "code",
        "userMessage"
      ],
      "properties": {
        "code": {
          "description": "A succinct, domain-specific, human-readable text string to identify the type of error for the given status code",
          "example": "ProductNotFound",
          "type": "string",
          "pattern": "^[\\S ]+$"
        },
        "userMessage": {
          "description": "A human-readable message describing the error.",
          "example": "Failed to find product.",
          "type": "string",
          "pattern": "^[\\S ]+$"
        },
        "systemMessage": {
          "description": "Text that provides a more detailed technical explanation of the error",
          "example": "PRODUCT_NOT_FOUND",
          "type": "string"
        },
        "detailLink": {
          "description": "link to custom information providing greater detail on error or errors",
          "example": "http://aaa.bbb.ccc/",
          "type": "string"
        }
      }
    },
    "gsmCreditPolicy": {
      "description": "Global System for Mobile communications Product Type",
      "type": "object",
      "properties": {
        "approvedSubscribers": {
          "description": "number of subscriber approved",
          "example": "10",
          "type": "integer"
        },
        "regularDeposit": {
          "description": "Deposit per subscriber for full price devices ",
          "example": "50.00",
          "type": "number"
        },
        "ratePlanOnlyDeposit": {
          "description": "Deposit per subscriber for subsidized devices",
          "example": "100.00",
          "type": "number"
        }
      }
    },
    "miCreditPolicy": {
      "description": "Mobile internet Product Type",
      "type": "object",
      "properties": {
        "approvedSubscribers": {
          "description": "Approved_Subscribers",
          "example": "5",
          "type": "integer"
        },
        "regularDeposit": {
          "description": "The Regular Deposit need to be paid per subscriber",
          "example": "25.00",
          "type": "number"
        },
        "ratePlanOnlyDeposit": {
          "description": "the Rate Plan Only Deposit need to be paid per subscriber",
          "example": "25.00",
          "type": "number"
        }
      }
    }
  },
  "securityDefinitions": {
    "oauth2": {
      "type": "oauth2",
      "description": "oauth2 Authentication.",
      "tokenUrl": "https://host:env/v1/oauth2/accesstoken?grant_type=client_credentials",
      "flow": "application",
      "scopes": {
      }
    }
  }
}
