{
  "swagger": "2.0",
  "info": {
    "description": "This document lists version 1.0 for the APIs that support ban-bills-cycles.",
    "version": "1.0",
    "title": "Customer Information V1"
  },
  "basePath": "/",
  "tags": [
    {
      "name": "customer-details",
      "description": "Customer details"
    }
  ],
  "paths": {
    "/billing/v1/customer-information": {
      "get": {
        "tags": [
          "customer-information"
        ],
        "summary": "Customer details",
        "operationId": "fetchCustomerDetails",
        "consumes": [
          "application/json"
        ],
        "produces": [
          "application/json"
        ],
        "parameters": [
          {
            "name": "billingAccountId",
            "in": "query",
            "description": "billingAccountId",
            "required": true,
            "type": "string"
          },
          {
            "name": "activityid",
            "in": "header",
            "description": "activityid",
            "required": true,
            "type": "string"
          },
          {
            "name": "applicationuserid",
            "in": "header",
            "description": "applicationuserid",
            "required": false,
            "type": "string"
          }
        ],
        "responses": {
          "200": {
            "description": "OK",
            "schema": {
              "$ref": "#/definitions/CustomerDetailsResponse"
            }
          },
          "400": {
            "description": "Bad request error",
            "schema": {
              "$ref": "#/definitions/ErrorResponse"
            }
          },
          "404": {
            "description": "Record not found",
            "schema": {
              "$ref": "#/definitions/ErrorResponse"
            }
          },
          "500": {
            "description": "The server encountered an unexpected condition which prevented it from fulfilling the request",
            "schema": {
              "$ref": "#/definitions/ErrorResponse"
            }
          }
        }
      }
    },
    "/billing/v1/customer-information/financial-accounts/{ban}/collection-esp-indicator": {
      "get": {
        "tags": [
          "customer-information"
        ],
        "summary": "Customer details",
        "operationId": "fetchCsGtSplIndVal",
        "consumes": [
          "application/json"
        ],
        "produces": [
          "application/json"
        ],
        "parameters": [
          {
            "name": "ban",
            "in": "path",
            "description": "ban",
            "required": true,
            "type": "string"
          },
          {
            "name": "activityid",
            "in": "header",
            "description": "activityid",
            "required": true,
            "type": "string"
          },
          {
            "name": "applicationuserid",
            "in": "header",
            "description": "applicationuserid",
            "required": false,
            "type": "string"
          }
        ],
        "responses": {
          "200": {
            "description": "OK",
            "schema": {
              "$ref": "#/definitions/GtSplIndValResponse"
            }
          },
          "400": {
            "description": "Bad request error",
            "schema": {
              "$ref": "#/definitions/ErrorResponse"
            }
          },
          "404": {
            "description": "Record not found",
            "schema": {
              "$ref": "#/definitions/ErrorResponse"
            }
          },
          "500": {
            "description": "The server encountered an unexpected condition which prevented it from fulfilling the request",
            "schema": {
              "$ref": "#/definitions/ErrorResponse"
            }
          }
        }
      }
    }
  },
  "definitions": {
    "GtSplIndValResponse": {
      "type": "object",
      "properties": {
        "paramVal": {
          "type": "string"
        }
      }
    },
    "GetCsGtSplIndValInputRequest": {
      "type": "object",
      "properties": {
        "runDate": {
          "type": "string"
        },
        "ban": {
          "type": "integer"
        },
        "subscriberNo": {
          "type": "string"
        },
        "Rowcount": {
          "type": "integer"
        },
        "csGtSplIndValInputRecords": {
          "type": "array",
          "items": {
            "$ref": "#/definitions/GetCsGtSplIndValInputRecord"
          }
        }
      }
    },
    "AccountCodeDescriptionPair": {
      "type": "object",
      "properties": {
        "code": {
          "type": "string"
        },
        "description": {
          "type": "string"
        }
      }
    },
    "GetCsGtSplIndValOutputRecordResponse": {
      "type": "object",
      "properties": {
        "paramval": {
          "type": "string"
        }
      }
    },
    "GetCsGtSplIndValInputRecord": {
      "type": "object",
      "properties": {
        "Paramnmbuf": {
          "type": "string"
        }
      }
    },
    "CustomerDetailsResponse": {
      "type": "object",
      "properties": {
        "NameSuffix": {
          "type": "string"
        },
        "accountId": {
          "type": "integer"
        },
        "accountStatus": {
          "$ref": "#/definitions/AccountCodeDescriptionPair"
        },
        "accountSubType": {
          "$ref": "#/definitions/AccountCodeDescriptionPair"
        },
        "accountType": {
          "$ref": "#/definitions/AccountCodeDescriptionPair"
        },
        "billMethod": {
          "type": "string"
        },
        "colDelinqStatus": {
          "type": "string"
        },
        "creditClass": {
          "type": "string"
        },
        "eipnoofmonths": {
          "type": "number"
        },
        "firstName": {
          "type": "string"
        },
        "fullName": {
          "type": "string"
        },
        "lastBusinessName": {
          "type": "string"
        },
        "middleIntial": {
          "type": "string"
        },
        "serviceStartDate": {
          "type": "string"
        },
        "taxInd": {
          "type": "string"
        },
        "tenure": {
          "type": "integer"
        }
      }
    },
    "ErrorResponse": {
      "type": "object",
      "properties": {
        "errorCode": {
          "type": "string"
        },
        "errorMessage": {
          "type": "string"
        },
        "requestURI": {
          "type": "string"
        }
      }
    }
  }
}