{
  "swagger": "2.0",
  "info": {
    "title": "Pass-Order",
    "description": "pass-order-ms will call SAMSON Tuxedo API 'evChkPassElig' to check the eligibility for validate API and to ADD/UPDATE/DELETE it calls evSvPassAgr SAMSON Tuxedo API ",
    "version": "1.0.0",
    "contact": {
      "name": "Amdocs Digital Billing",
      "url": "http://www.t-mobile.com",
      "email": "sagar.aagre@amdocs.com"
    },
    "license": {
      "name": "Proprietary software",
      "url": "https://en.wikipedia.org/wiki/Proprietary_software"
    },
    "termsOfService": "https://www.t-mobile.com/templates/popup.aspx?PAsset=Ftr_Ftr_TermsAndConditions",
    "x-createdBy": {
      "dateCreated": "Fri July 5 13:08:21 2019",
      "createdBy": "sagar aagre",
      "application": "Recite",
      "appVersion": "0.3.6.2170",
      "documentId": "bf1badac-33bc-4cfb-baf4-363194f3e53d",
      "status": "Conceptual - Initial",
      "classification": "7.3.4 Billing Inquiries & Support Mgmt.",
      "profile": "Core Business Capability Service",
      "serviceLayer": "Resource - Billing"
    }
  },
  "x-servers": [
    {
      "url": "http://127.0.0.1/",
      "description": "Test Server 1"
    }
  ],
  "tags": [
    {
      "name": "validatePassOrderService",
      "description": "Validating Pass Service's add , delete and upgrade request."
    },
    {
      "name": "syncSubmitService",
      "description": "Submit Data-Pass services to validate and update synchronously."
    }
  ],
  "host": "dev01.api.t-mobile.com",
  "basePath": "/billing/v1/add-on-features/order",
  "schemes": [
    "https"
  ],
  "paths": {
    "/validate": {
      "post": {
        "tags": [
          "validatePassOrderService"
        ],
        "x-api-pattern": "ExecuteFunction",
        "summary": "Validate pass information service synchronously.",
        "description": "Validate pass information service synchronously. In Validation API if you don't get the transaction-id then validation is unsuccessful and you need to perform validation again.",
        "operationId": "validatePassOrderService",
        "consumes": [
          "application/json"
        ],
        "produces": [
          "application/json"
        ],
        "parameters": [
          {
            "name": "servicesRequest",
            "in": "body",
            "description": "List of Subscribers & Passes",
            "required": true,
            "schema": {
              "$ref": "#/definitions/ServicesRequest"
            }
          },
          {
            "name": "Accept",
            "in": "header",
            "description": "Preferred content type _ default to application/json",
            "x-example": "application/json",
            "required": false,
            "type": "string",
            "minLength": 1,
            "maxLength": 256,
            "pattern": "^[ \\S]+$"
          },
          {
            "name": "Accept-Charset",
            "in": "header",
            "description": "Character sets that are acceptable.",
            "x-example": "ISO-8859-1,utf-8;q=0.7,*;q=0.7",
            "required": false,
            "type": "string",
            "minLength": 1,
            "maxLength": 256,
            "pattern": "^[\\S ]*$"
          },
          {
            "name": "Authorization",
            "in": "header",
            "description": "The HTTP Authorization request header contains the credentials to authenticate a user agent with a server.",
            "x-example": "Bearer mF_9.B5f-4.1JqM",
            "required": true,
            "type": "string",
            "minLength": 1,
            "maxLength": 256,
            "pattern": "^[\\S ]+$"
          },
          {
            "name": "Content-Type",
            "in": "header",
            "description": "The MIME type of this content",
            "x-example": "text/xml",
            "required": true,
            "type": "string",
            "minLength": 1,
            "maxLength": 256,
            "pattern": "^[ \\S]+$"
          },
          {
            "name": "Date",
            "in": "header",
            "description": "The Date general HTTP header contains the date and time at which the message was originated.",
            "x-example": "Mon, 05 Mar 2018 16:38:08 GMT",
            "required": false,
            "type": "string",
            "format": "date-time",
            "pattern": "^(Mon|Tue|Wed|Thu|Fri|Sat|Sun), [0-3]{1}[0-9]{1} (Jan|Feb|Mar|Apr|May|Jun|Jul|Aug|Sep|Oct|Nov|Dec) [1-3][0-9]{3} [0-2][0-9]:[0-6][0-9]:[0-6][0-9] GMT$"
          },
          {
            "name": "If-Match",
            "in": "header",
            "description": "The If-Match header specifies an ETag-related condition to be placed on the execution of a request.  The request will only be executed if the ETag of the requested resource matches one of those specified in the If-Match header.  Because the behavior is complex, the details for usage are provided at http://www.w3.org/Protocols/rfc2616/rfc2616-sec14.html .",
            "x-example": "*",
            "required": false,
            "type": "string",
            "minLength": 1,
            "maxLength": 256,
            "pattern": "^[\\S]*$"
          },
          {
            "name": "If-Unmodified-Since",
            "in": "header",
            "description": "The If-Unmodified-Since request-header field is used with a method to make it conditional. If the requested resource has not been modified since the time specified in this field, the server SHOULD perform the requested operation as if the If-Unmodified-Since header were not present.If the requested variant has been modified since the specified time, the server MUST NOT perform the requested operation, and MUST return a 412 (Precondition Failed).",
            "x-example": "Mon, 05 Mar 2018 16:38:08 GMT",
            "required": false,
            "type": "string",
            "format": "date-time",
            "pattern": "^(Mon|Tue|Wed|Thu|Fri|Sat|Sun), [0-3]{1}[0-9]{1} (Jan|Feb|Mar|Apr|May|Jun|Jul|Aug|Sep|Oct|Nov|Dec) [1-3][0-9]{3} [0-2][0-9]:[0-6][0-9]:[0-6][0-9] GMT$"
          },
          {
            "name": "Prefer",
            "in": "header",
            "description": "The Prefer request-header field is used to indicate that particular server behaviors are preferred by the client, but not required for successful completion of the request. Prefer is similar in nature to the Expect header field defined by Section 9.3 of [I-D.ietf-httpbis-p2-semantics] with the exception that servers are allowed to ignore stated preferences.",
            "x-example": "token",
            "required": false,
            "type": "string",
            "minLength": 1,
            "maxLength": 256,
            "pattern": "^[\\S ]*$"
          },
          {
            "name": "activity-id",
            "in": "header",
            "description": "Unique id alphanumeric value generated and sent by the partner to identify every the service request uniquely. Sample: XyzA:D1s5s1i-X6AFRvfiPBfs-1234  Pass as is to downstream calls.",
            "x-example": "c34e7acd-384b-4c22-8b02-ba3963682508",
            "required": true,
            "type": "string",
            "minLength": 1,
            "maxLength": 256,
            "pattern": "^[\\S]*$"
          },
          {
            "name": "interaction-id",
            "in": "header",
            "description": "Alphanumeric value represent a common transaction id across all calls made from UI, while completing all business activity needs of a particular customer.",
            "x-example": "cc688d54-50d1-49d4-8c5d-95459d1172e8",
            "required": false,
            "type": "string",
            "minLength": 1,
            "maxLength": 256,
            "pattern": "^[\\S]*$"
          },
          {
            "name": "service-transaction-id",
            "in": "header",
            "description": "Request ID echoed back by server",
            "x-example": "23409209723",
            "required": false,
            "type": "string",
            "minLength": 1,
            "maxLength": 256,
            "pattern": "^[\\S]*$"
          },
          {
            "name": "session-id",
            "in": "header",
            "description": "A value populated by the sender used to track the transactions that occur during a session, a long-lasting interaction that ismaintained by the sender.",
            "x-example": "350b91ec-4a64-4b10-a3f3-a78c8db3924a",
            "required": false,
            "type": "string",
            "minLength": 1,
            "maxLength": 256,
            "pattern": "^[\\S]*$"
          },
          {
            "name": "timestamp",
            "in": "header",
            "description": "ms since 1/1/70 adjusted to GMT",
            "x-example": "1524599536",
            "required": false,
            "type": "integer",
            "format": "int64",
            "minimum": 0,
            "maximum": 999999999999,
            "pattern": "^[\\d]*$"
          },
          {
            "name": "workflow-id",
            "in": "header",
            "description": "Business Use Case",
            "x-example": "ACTIVATION",
            "required": false,
            "type": "string",
            "minLength": 1,
            "maxLength": 256,
            "pattern": "^[\\S]*$"
          },
          {
            "name": "x-auth-originator",
            "in": "header",
            "description": "API chain initiating callers access token",
            "x-example": "c34e7acd-384b-4c22-8b02-ba3963682508",
            "required": true,
            "type": "string",
            "minLength": 1,
            "maxLength": 256,
            "pattern": "^[\\S]*$"
          },
          {
            "name": "x-authorization",
            "in": "header",
            "description": "Contains Proof of Possession token generated by API caller",
            "x-example": "c34e7acd-384b-4c22-8b02-ba3963682508",
            "required": false,
            "type": "string",
            "minLength": 1,
            "maxLength": 256,
            "pattern": "^[\\S ]*$"
          }
        ],
        "responses": {
          "200": {
            "description": "It's an Invalid response for Validation API, but it's necessary for Swagger Codgen Constraints. Please ignore",
            "schema": {
              "$ref": "#/definitions/ValidateServicesResponse"
            },
            "examples": {
              "application/json": {}
            },
            "headers": {
              "Content-Type": {
                "description": "The MIME type of this content",
                "x-example": "text/xml",
                "type": "string",
                "minLength": 1,
                "maxLength": 256,
                "pattern": "^[ \\S]+$"
              },
              "Date": {
                "description": "The Date general HTTP header contains the  date and time at which the message was originated.",
                "x-example": "Mon, 05 Mar 2018 16:38:08 GMT",
                "type": "string",
                "format": "date-time",
                "pattern": "^(Mon|Tue|Wed|Thu|Fri|Sat|Sun), [0-3]{1}[0-9]{1} (Jan|Feb|Mar|Apr|May|Jun|Jul|Aug|Sep|Oct|Nov|Dec) [1-3][0-9]{3} [0-2][0-9]:[0-6][0-9]:[0-6][0-9] GMT$"
              },
              "service-transaction-id": {
                "description": "Request ID echoed back by server",
                "x-example": "23409209723",
                "type": "string",
                "minLength": 1,
                "maxLength": 256,
                "pattern": "^[\\S]*$"
              }
            }
          },
          "204": {
            "description": "No Content. This is a successful validation response.",
            "headers": {
              "Date": {
                "description": "The Date general HTTP header contains the date and time at which the message was originated.",
                "x-example": "Mon, 05 Mar 2018 16:38:08 GMT",
                "type": "string",
                "format": "date-time",
                "pattern": "^(Mon|Tue|Wed|Thu|Fri|Sat|Sun), [0-3]{1}[0-9]{1} (Jan|Feb|Mar|Apr|May|Jun|Jul|Aug|Sep|Oct|Nov|Dec) [1-3][0-9]{3} [0-2][0-9]:[0-6][0-9]:[0-6][0-9] GMT$"
              },
              "service-transaction-id": {
                "description": "Request ID echoed back by server",
                "x-example": "23409209723",
                "type": "string",
                "minLength": 1,
                "maxLength": 256,
                "pattern": "^[\\S]*$"
              }
            }
          },
          "207": {
            "description": "Multi-Status.If validation is un-successful and have some pass/serviceoffercode conflicts.",
            "schema": {
              "$ref": "#/definitions/ValidateServicesResponse"
            },
            "examples": {
              "application/json": {
                "conflictedPasses": [
                  {
                    "mobileNumber": "1234567890",
                    "offerCode": "DATASTASH",
                    "validationMessage": "There are conflicts between Pass and SOCs."
                  },
                  {
                    "mobileNumber": "1234567892",
                    "offerCode": "DATAALLOW",
                    "validationMessage": "Pass is not eligible for subscriber's product type."
                  }
                ]
              }
            },
            "headers": {
              "Content-Type": {
                "description": "The MIME type of this content",
                "x-example": "text/xml",
                "type": "string",
                "minLength": 1,
                "maxLength": 256,
                "pattern": "^[ \\S]+$"
              },
              "Date": {
                "description": "The Date general HTTP header contains the date and time at which the message was originated.",
                "x-example": "Mon, 05 Mar 2018 16:38:08 GMT",
                "type": "string",
                "format": "date-time",
                "pattern": "^(Mon|Tue|Wed|Thu|Fri|Sat|Sun), [0-3]{1}[0-9]{1} (Jan|Feb|Mar|Apr|May|Jun|Jul|Aug|Sep|Oct|Nov|Dec) [1-3][0-9]{3} [0-2][0-9]:[0-6][0-9]:[0-6][0-9] GMT$"
              }
            }
          },
          "400": {
            "description": "Bad Request",
            "schema": {
              "$ref": "#/definitions/Error"
            },
            "examples": {
              "application/json": {
                "code": "400",
                "userMessage": "Bad Request",
                "systemMessage": "Bad Request",
                "detailLink": "http://www.tmus.com"
              }
            },
            "headers": {}
          },
          "401": {
            "description": "Unauthorized",
            "schema": {
              "$ref": "#/definitions/Error"
            },
            "examples": {
              "application/json": {
                "code": "401",
                "userMessage": "Unauthorized",
                "systemMessage": "Unauthorized",
                "detailLink": "http://www.tmus.com"
              }
            },
            "headers": {}
          },
          "404": {
            "description": "Resource not found",
            "schema": {
              "$ref": "#/definitions/Error"
            },
            "examples": {
              "application/json": {
                "code": "404",
                "userMessage": "Resource not found",
                "systemMessage": "Resource not found",
                "detailLink": "http://www.tmus.com"
              }
            },
            "headers": {}
          },
          "405": {
            "description": "Method Not Allowed",
            "schema": {
              "$ref": "#/definitions/Error"
            },
            "examples": {
              "application/json": {
                "code": "405",
                "userMessage": "Method Not Allowed",
                "systemMessage": "Method Not Allowed",
                "detailLink": "http://www.tmus.com"
              }
            },
            "headers": {
              "Allow": {
                "description": "list of supported methods for URI",
                "x-example": "GET",
                "type": "string",
                "minLength": 1,
                "maxLength": 256,
                "pattern": "^[\\S]*$"
              },
              "service-transaction-id": {
                "description": "Request ID echoed back by server",
                "x-example": "23409209723",
                "type": "string",
                "minLength": 1,
                "maxLength": 256,
                "pattern": "^[\\S]*$"
              }
            }
          },
          "409": {
            "description": "Invalid data",
            "schema": {
              "$ref": "#/definitions/Error"
            },
            "examples": {
              "application/json": {
                "code": "409",
                "userMessage": "Invalid data",
                "systemMessage": "Invalid data",
                "detailLink": "http://www.tmus.com"
              }
            },
            "headers": {}
          },
          "415": {
            "description": "Unsupported Media Type",
            "schema": {
              "$ref": "#/definitions/Error"
            },
            "examples": {
              "application/json": {
                "code": "415",
                "userMessage": "Unsupported Media Type",
                "systemMessage": "Unsupported Media Type",
                "detailLink": "http://www.tmus.com"
              }
            },
            "headers": {}
          },
          "500": {
            "description": "System Error",
            "schema": {
              "$ref": "#/definitions/Error"
            },
            "examples": {
              "application/json": {
                "code": "500",
                "userMessage": "System Error",
                "systemMessage": "System Error",
                "detailLink": "http://www.tmus.com"
              }
            },
            "headers": {}
          },
          "503": {
            "description": "Service unavailable",
            "schema": {
              "$ref": "#/definitions/Error"
            },
            "examples": {
              "application/json": {
                "code": "503",
                "userMessage": "Service unavailable",
                "systemMessage": "Service unavailable",
                "detailLink": "http://www.tmus.com"
              }
            },
            "headers": {}
          }
        },
        "security": [
          {
            "oauth2": [
              ""
            ]
          }
        ]
      }
    },
    "/sync-submit": {
      "post": {
        "tags": [
          "syncSubmitService"
        ],
        "x-api-pattern": "ExecuteFunction",
        "summary": "Submit services to validate and update synchronously",
        "description": "Submit services to validate and update synchronously. Submit API validates the request and on successful validation submit the transaction. If entity state changed after successful validation then this will return error.",
        "operationId": "syncSubmitService",
        "consumes": [
          "application/json"
        ],
        "produces": [
          "application/json"
        ],
        "parameters": [
          {
            "name": "servicesRequest",
            "in": "body",
            "description": "List of Subscribers & Passes",
            "required": true,
            "schema": {
              "$ref": "#/definitions/ServicesRequest"
            }
          },
          {
            "name": "Accept",
            "in": "header",
            "description": "Preferred content type _ default to application/json",
            "x-example": "application/json",
            "required": false,
            "type": "string",
            "minLength": 1,
            "maxLength": 256,
            "pattern": "^[ \\S]+$"
          },
          {
            "name": "Accept-Charset",
            "in": "header",
            "description": "Character sets that are acceptable.",
            "x-example": "ISO-8859-1,utf-8;q=0.7,*;q=0.7",
            "required": false,
            "type": "string",
            "minLength": 1,
            "maxLength": 256,
            "pattern": "^[\\S ]*$"
          },
          {
            "name": "Authorization",
            "in": "header",
            "description": "The HTTP Authorization request header contains the credentials to authenticate a user agent with a server.",
            "x-example": "Bearer mF_9.B5f-4.1JqM",
            "required": true,
            "type": "string",
            "minLength": 1,
            "maxLength": 256,
            "pattern": "^[\\S ]+$"
          },
          {
            "name": "Content-Type",
            "in": "header",
            "description": "The MIME type of this content",
            "x-example": "text/xml",
            "required": true,
            "type": "string",
            "minLength": 1,
            "maxLength": 256,
            "pattern": "^[ \\S]+$"
          },
          {
            "name": "Date",
            "in": "header",
            "description": "The Date general HTTP header contains the date and time at which the message was originated.",
            "x-example": "Mon, 05 Mar 2018 16:38:08 GMT",
            "required": false,
            "type": "string",
            "format": "date-time",
            "pattern": "^(Mon|Tue|Wed|Thu|Fri|Sat|Sun), [0-3]{1}[0-9]{1} (Jan|Feb|Mar|Apr|May|Jun|Jul|Aug|Sep|Oct|Nov|Dec) [1-3][0-9]{3} [0-2][0-9]:[0-6][0-9]:[0-6][0-9] GMT$"
          },
          {
            "name": "If-Match",
            "in": "header",
            "description": "The If-Match header specifies an ETag-related condition to be placed on the execution of a request.  The request will only be executed if the ETag of the requested resource matches one of those specified in the If-Match header.  Because the behavior is complex, the details for usage are provided at http://www.w3.org/Protocols/rfc2616/rfc2616-sec14.html .",
            "x-example": "*",
            "required": false,
            "type": "string",
            "minLength": 1,
            "maxLength": 256,
            "pattern": "^[\\S]*$"
          },
          {
            "name": "If-Unmodified-Since",
            "in": "header",
            "description": "The If-Unmodified-Since request-header field is used with a method to make it conditional. If the requested resource has not been modified since the time specified in this field, the server SHOULD perform the requested operation as if the If-Unmodified-Since header were not present.If the requested variant has been modified since the specified time, the server MUST NOT perform the requested operation, and MUST return a 412 (Precondition Failed).",
            "x-example": "Mon, 05 Mar 2018 16:38:08 GMT",
            "required": false,
            "type": "string",
            "format": "date-time",
            "pattern": "^(Mon|Tue|Wed|Thu|Fri|Sat|Sun), [0-3]{1}[0-9]{1} (Jan|Feb|Mar|Apr|May|Jun|Jul|Aug|Sep|Oct|Nov|Dec) [1-3][0-9]{3} [0-2][0-9]:[0-6][0-9]:[0-6][0-9] GMT$"
          },
          {
            "name": "Prefer",
            "in": "header",
            "description": "The Prefer request-header field is used to indicate that particular server behaviors are preferred by the client, but not required for successful completion of the request. Prefer is similar in nature to the Expect header field defined by Section 9.3 of [I-D.ietf-httpbis-p2-semantics] with the exception that servers are allowed to ignore stated preferences.",
            "x-example": "token",
            "required": false,
            "type": "string",
            "minLength": 1,
            "maxLength": 256,
            "pattern": "^[\\S ]*$"
          },
          {
            "name": "activity-id",
            "in": "header",
            "description": "Unique id alphanumeric value generated and sent by the partner to identify every the service request uniquely. Sample: XyzA:D1s5s1i-X6AFRvfiPBfs-1234  Pass as is to downstream calls.",
            "x-example": "c34e7acd-384b-4c22-8b02-ba3963682508",
            "required": true,
            "type": "string",
            "minLength": 1,
            "maxLength": 256,
            "pattern": "^[\\S]*$"
          },
          {
            "name": "interaction-id",
            "in": "header",
            "description": "Alphanumeric value represent a common transaction id across all calls made from UI, while completing all business activity needs of a particular customer.",
            "x-example": "cc688d54-50d1-49d4-8c5d-95459d1172e8",
            "required": false,
            "type": "string",
            "minLength": 1,
            "maxLength": 256,
            "pattern": "^[\\S]*$"
          },
          {
            "name": "service-transaction-id",
            "in": "header",
            "description": "Request ID echoed back by server",
            "x-example": "23409209723",
            "required": false,
            "type": "string",
            "minLength": 1,
            "maxLength": 256,
            "pattern": "^[\\S]*$"
          },
          {
            "name": "session-id",
            "in": "header",
            "description": "A value populated by the sender used  to track the transactions that occur during a session, a long-lasting interaction that ismaintained by the sender.",
            "x-example": "350b91ec-4a64-4b10-a3f3-a78c8db3924a",
            "required": false,
            "type": "string",
            "minLength": 1,
            "maxLength": 256,
            "pattern": "^[\\S]*$"
          },
          {
            "name": "timestamp",
            "in": "header",
            "description": "ms since 1/1/70 adjusted to GMT",
            "x-example": "1524599536",
            "required": false,
            "type": "integer",
            "format": "int64",
            "minimum": 0,
            "maximum": 999999999999,
            "pattern": "^[\\d]*$"
          },
          {
            "name": "workflow-id",
            "in": "header",
            "description": "Business Use Case",
            "x-example": "ACTIVATION",
            "required": false,
            "type": "string",
            "minLength": 1,
            "maxLength": 256,
            "pattern": "^[\\S]*$"
          },
          {
            "name": "x-auth-originator",
            "in": "header",
            "description": "API chain initiating callers access token",
            "x-example": "c34e7acd-384b-4c22-8b02-ba3963682508",
            "required": true,
            "type": "string",
            "minLength": 1,
            "maxLength": 256,
            "pattern": "^[\\S]*$"
          },
          {
            "name": "x-authorization",
            "in": "header",
            "description": "Contains Proof of Possession token generated by API caller",
            "x-example": "c34e7acd-384b-4c22-8b02-ba3963682508",
            "required": false,
            "type": "string",
            "minLength": 1,
            "maxLength": 256,
            "pattern": "^[\\S ]*$"
          }
        ],
        "responses": {
          "200": {
            "description": "It's an Invalid response for Sync Submit API, but it's necessary for Swagger Codgen Constraints.Please ignore",
            "schema": {
              "$ref": "#/definitions/ValidateServicesResponse"
            },
            "examples": {
              "application/json": {}
            },
            "headers": {
              "Content-Type": {
                "description": "The MIME type of this content",
                "x-example": "text/xml",
                "type": "string",
                "minLength": 1,
                "maxLength": 256,
                "pattern": "^[ \\S]+$"
              },
              "Date": {
                "description": "The Date general HTTP header contains the  date and time at which the message was originated.",
                "x-example": "Mon, 05 Mar 2018 16:38:08 GMT",
                "type": "string",
                "format": "date-time",
                "pattern": "^(Mon|Tue|Wed|Thu|Fri|Sat|Sun), [0-3]{1}[0-9]{1} (Jan|Feb|Mar|Apr|May|Jun|Jul|Aug|Sep|Oct|Nov|Dec) [1-3][0-9]{3} [0-2][0-9]:[0-6][0-9]:[0-6][0-9] GMT$"
              },
              "service-transaction-id": {
                "description": "Request ID echoed back by server",
                "x-example": "23409209723",
                "type": "string",
                "minLength": 1,
                "maxLength": 256,
                "pattern": "^[\\S]*$"
              }
            }
          },
          "204": {
            "description": "No Content. This is successful submit response.",
            "headers": {
              "Date": {
                "description": "The Date general HTTP header contains the date and time at which the message was originated.",
                "x-example": "Mon, 05 Mar 2018 16:38:08 GMT",
                "type": "string",
                "format": "date-time",
                "pattern": "^(Mon|Tue|Wed|Thu|Fri|Sat|Sun), [0-3]{1}[0-9]{1} (Jan|Feb|Mar|Apr|May|Jun|Jul|Aug|Sep|Oct|Nov|Dec) [1-3][0-9]{3} [0-2][0-9]:[0-6][0-9]:[0-6][0-9] GMT$"
              },
              "service-transaction-id": {
                "description": "Request ID echoed back by server",
                "x-example": "23409209723",
                "type": "string",
                "minLength": 1,
                "maxLength": 256,
                "pattern": "^[\\S]*$"
              }
            }
          },
          "207": {
            "description": "Multi-Status. If validation is un-successful and have some pass/serviceoffercode conflicts.",
            "schema": {
              "$ref": "#/definitions/SyncSubmitMultiStatusResponse"
            },
            "examples": {
              "application/json": {
                "subscribers": null,
                "conflictedPasses": [
                  {
                    "mobileNumber": "1234567890",
                    "offerCode": "DATASTASH",
                    "validationMessage": "There are conflicts between Pass and SOCs."
                  }
                ]
              }
            },
            "headers": {
              "Content-Type": {
                "description": "The MIME type of this content",
                "x-example": "text/xml",
                "type": "string",
                "minLength": 1,
                "maxLength": 256,
                "pattern": "^[ \\S]+$"
              },
              "Date": {
                "description": "The Date general HTTP header contains the date and time at which the message was originated.",
                "x-example": "Mon, 05 Mar 2018 16:38:08 GMT",
                "type": "string",
                "format": "date-time",
                "pattern": "^(Mon|Tue|Wed|Thu|Fri|Sat|Sun), [0-3]{1}[0-9]{1} (Jan|Feb|Mar|Apr|May|Jun|Jul|Aug|Sep|Oct|Nov|Dec) [1-3][0-9]{3} [0-2][0-9]:[0-6][0-9]:[0-6][0-9] GMT$"
              }
            }
          },
          "400": {
            "description": "Bad Request",
            "schema": {
              "$ref": "#/definitions/Error"
            },
            "examples": {
              "application/json": {
                "code": "400",
                "userMessage": "Bad Request",
                "systemMessage": "Bad Request",
                "detailLink": "http://www.tmus.com"
              }
            },
            "headers": {}
          },
          "401": {
            "description": "Unauthorized",
            "schema": {
              "$ref": "#/definitions/Error"
            },
            "examples": {
              "application/json": {
                "code": "401",
                "userMessage": "Unauthorized",
                "systemMessage": "Unauthorized",
                "detailLink": "http://www.tmus.com"
              }
            },
            "headers": {}
          },
          "404": {
            "description": "Resource not found",
            "schema": {
              "$ref": "#/definitions/Error"
            },
            "examples": {
              "application/json": {
                "code": "404",
                "userMessage": "Resource not found",
                "systemMessage": "Resource not found",
                "detailLink": "http://www.tmus.com"
              }
            },
            "headers": {}
          },
          "405": {
            "description": "Method Not Allowed",
            "schema": {
              "$ref": "#/definitions/Error"
            },
            "examples": {
              "application/json": {
                "code": "405",
                "userMessage": "Method Not Allowed",
                "systemMessage": "Method Not Allowed",
                "detailLink": "http://www.tmus.com"
              }
            },
            "headers": {
              "Allow": {
                "description": "list of supported methods for URI",
                "x-example": "GET",
                "type": "string",
                "minLength": 1,
                "maxLength": 256,
                "pattern": "^[\\S]*$"
              },
              "service-transaction-id": {
                "description": "Request ID echoed back by server",
                "x-example": "23409209723",
                "type": "string",
                "minLength": 1,
                "maxLength": 256,
                "pattern": "^[\\S]*$"
              }
            }
          },
          "409": {
            "description": "Invalid data",
            "schema": {
              "$ref": "#/definitions/Error"
            },
            "examples": {
              "application/json": {
                "code": "409",
                "userMessage": "Invalid data",
                "systemMessage": "Invalid data",
                "detailLink": "http://www.tmus.com"
              }
            },
            "headers": {}
          },
          "415": {
            "description": "Unsupported Media Type",
            "schema": {
              "$ref": "#/definitions/Error"
            },
            "examples": {
              "application/json": {
                "code": "415",
                "userMessage": "Unsupported Media Type",
                "systemMessage": "Unsupported Media Type",
                "detailLink": "http://www.tmus.com"
              }
            },
            "headers": {}
          },
          "500": {
            "description": "System Error",
            "schema": {
              "$ref": "#/definitions/Error"
            },
            "examples": {
              "application/json": {
                "code": "500",
                "userMessage": "System Error",
                "systemMessage": "System Error",
                "detailLink": "http://www.tmus.com"
              }
            },
            "headers": {}
          },
          "503": {
            "description": "Service unavailable",
            "schema": {
              "$ref": "#/definitions/Error"
            },
            "examples": {
              "application/json": {
                "code": "503",
                "userMessage": "Service unavailable",
                "systemMessage": "Service unavailable",
                "detailLink": "http://www.tmus.com"
              }
            },
            "headers": {}
          }
        },
        "security": [
          {
            "oauth2": [
              ""
            ]
          }
        ]
      }
    }
  },
  "definitions": {
    "Error": {
      "type": "object",
      "description": "As defined in http://api-standards.apps.px-npe01.cf.t-mobile.com/http/status-codes/error-response-format/",
      "required": [
        "code",
        "userMessage"
      ],
      "properties": {
        "code": {
          "description": "A succinct, domain-specific, human-readable text string to identify the type of error for the given status code",
          "example": "ProductNotFound",
          "type": "string",
          "pattern": "^[\\S ]+$"
        },
        "userMessage": {
          "description": "A human-readable message describing the error.",
          "example": "Failed to find product.",
          "type": "string",
          "pattern": "^[\\S ]+$"
        },
        "systemMessage": {
          "description": "Text that provides a more detailed technical explanation of the error",
          "example": "PRODUCT_NOT_FOUND",
          "type": "string"
        },
        "detailLink": {
          "description": "link to custom information providing greater detail on error or errors",
          "example": "http://aaa.bbb.ccc/",
          "type": "string"
        }
      }
    },
    "Passes": {
      "type": "object",
      "description": "An array of services objects for Subscriber level.",
      "required": [
        "serviceMode",
        "offerCode"
      ],
      "properties": {
        "offerCode": {
          "description": "The pass offer code / pass identifier.",
          "example": "DATASTASH",
          "type": "string",
          "minLength": 1,
          "maxLength": 9,
          "pattern": "^[\\S]*$"
        },
        "number": {
          "description": "The pass sequence number. Mandatory for Passes in Update or Delete mode. Ignored for mode Insert",
          "example": "134651830",
          "type": "string",
          "maxLength": 9,
          "minLength": 1,
          "pattern": "^[\\d]*$"
        },
        "effectiveDate": {
          "description": "When not provided for Passes in 'Insert' and 'Update' modes, system date/time will be assumed. Ignored for Delete mode",
          "example": "2018-10-23T07:09:30.762Z",
          "format": "date-time",
          "type": "string",
          "pattern": "^[\\S]*$"
        },
        "expirationDate": {
          "description": "The date that the service expired in the account. Must be less than equal to system date/time for 'delete' mode. Ignored in all other modes",
          "example": "2018-10-23T07:09:30.762Z",
          "format": "date-time",
          "type": "string",
          "pattern": "^[\\S]*$"
        },
        "serviceMode": {
          "description": "Pass Change Mode - Add/Update/Delete.",
          "example": "DELETE",
          "type": "string",
          "enum": [
            "ADD",
            "UPDATE",
            "DELETE"
          ]
        },
        "promoServiceMode": {
          "description": "If Promotional Pass present in Pass provided in validate input and the serviceMode is Delete then promoServiceMode can be DELETE_ALL, FUTURE_DELETE, DELETE_CURRENT, POSTPONED. In case of serviceMode DELETE and promoServiceMode not provided then it consider as DELETE_ALL, otherwise(incase of serviceMode UPDATE, ADD) it should not be provided",
          "example": "DELETE_ALL",
          "type": "string",
          "pattern": "^[\\S]*$"
        }
      }
    },
    "ServicesRequest": {
      "type": "object",
      "description": "List of Subscribers & Passes",
      "required": [
        "financialAccountNumber",
        "subscribers"
      ],
      "properties": {
        "financialAccountNumber": {
          "description": "Financial account number.",
          "example": "123456789",
          "type": "string",
          "maxLength": 9,
          "minLength": 9,
          "pattern": "^(\\d{9})$"
        },
        "subscribers": {
          "description": "An array of subscribers objects.",
          "type": "array",
          "items": {
            "$ref": "#/definitions/Subscribers"
          },
          "example": [
            {
              "mobileNumber": 1234567890,
              "passes": [
                {
                  "offerCode": "DATASTASH",
                  "number": 134651830,
                  "effectiveDate": "2018-10-23T07:09:30.762Z",
                  "expirationDate": "2018-10-23T07:09:30.762Z",
                  "serviceMode": "DELETE",
                  "promoServiceMode": "DELETE_ALL"
                }
              ]
            }
          ]
        },
        "additionalDetails": {
          "description": "An array of keys objects.",
          "type": "array",
          "items": {
            "$ref": "#/definitions/DomainKey"
          }
        }
      }
    },
    "Subscribers": {
      "type": "object",
      "description": "An array of subscribers objects.",
      "required": [
        "mobileNumber",
        "passes"
      ],
      "properties": {
        "mobileNumber": {
          "description": "Subscriber mobile number where the selected services are applied. For account level services mobile number should be sent as 0000000000 (Dummy).",
          "example": "1234567890",
          "type": "string",
          "maxLength": 10,
          "minLength": 10,
          "pattern": "^(\\d{10})$"
        },
        "passes": {
          "description": "An array of data pass objects.",
          "type": "array",
          "items": {
            "$ref": "#/definitions/Passes"
          },
          "example": [
            {
              "offerCode": "DATASTASH",
              "number": 134651830,
              "effectiveDate": "2018-10-23T07:09:30.762Z",
              "expirationDate": "2018-10-23T07:09:30.762Z",
              "serviceMode": "DELETE",
              "promoServiceMode": "DELETE_ALL"
            }
          ]
        }
      }
    },
    "ValidatedPasses": {
      "type": "object",
      "description": "This will be populated when eligibility validation got failed and transaction-id not generated.",
      "properties": {
        "mobileNumber": {
          "description": "Subscriber mobile number where the selected services are applied.",
          "example": "1234567890",
          "type": "string",
          "maxLength": 10,
          "minLength": 10,
          "pattern": "^(\\d{10})$"
        },
        "offerCode": {
          "description": "The pass offer code / pass identifier.",
          "example": "DATASTASH",
          "type": "string",
          "minLength": 1,
          "maxLength": 9,
          "pattern": "^[\\S]*$"
        },
        "validationMessage": {
          "description": "validation success / error message",
          "type": "string",
          "example": "These are conflicts between Pass and SOCs.",
          "pattern": "^[\\S]*$"
        }
      }
    },
    "ValidateServicesResponse": {
      "type": "object",
      "description": "Validate Services response",
      "properties": {
        "conflictedPasses": {
          "description": "An array of conflicted passes.",
          "type": "array",
          "items": {
            "$ref": "#/definitions/ValidatedPasses"
          }
        }
      }
    },
    "SyncSubmitMultiStatusResponse": {
      "type": "object",
      "description": "Sync Submit Multistatus Response",
      "properties": {
        "conflictedPasses": {
          "description": "An array of conflicted passes.",
          "type": "array",
          "items": {
            "$ref": "#/definitions/ValidatedPasses"
          }
        }
      }
    },
    "DomainKey": {
      "type": "object",
      "description": "The Domain Key structure is used to uniquely identifiy an object in a system (or domain) other than the system of record.",
      "properties": {
        "keyName": {
          "description": "The name of the key identifier, within the specified  domain. For example, if an object can be identified by a field called code, then keyName = code. Current applicable keys sample - overrideIndicator",
          "type": "string",
          "example": "overrideIndicator"
        },
        "keyValue": {
          "description": "The value of the key identifier.  For example, if an object can be identified by a field called code, then keyName = code.  The keyValue would be set to the value of the field called code.",
          "type": "string",
          "example": "true"
        }
      }
    }
  },
  "securityDefinitions": {
    "oauth2": {
      "type": "oauth2",
      "description": "oauth2 Authentication",
      "tokenUrl": "https://host:env/v1/oauth2/accesstoken?grant_type=client_credentials",
      "flow": "application",
      "scopes": {
        "": ""
      }
    }
  }
}
