{
  "swagger": "2.0",
  "info": {
    "title": "Payment External",
    "description": "This api retrieves change information and Billing information",
    "version": "1.0.0",
    "contact": {
      "name": "Amdocs Digital Billing",
      "url": "http://www.t-mobile.com",
      "email": "vera.pupko1@t-mobile.com"
    },
    "license": {
      "name": "Proprietary software",
      "url": "https://en.wikipedia.org/wiki/Proprietary_software"
    },
    "termsOfService": "https://www.t-mobile.com/templates/popup.aspx?PAsset=Ftr_Ftr_TermsAndConditions",
    "x-createdBy": {
      "dateCreated": "Tue Nov 15 10:55:30 2018",
      "createdBy": "Matan Ben Hemo",
      "profile": "Micro Services",
      "serviceLayer": "Payments"
    }
  },
  "x-servers": [
    {
      "url": "http://127.0.0.1/",
      "description": "Test Server 1"
    }
  ],
  "tags": [
    {
      "name": "Payments and header information",
      "description": "This api retrieves changes and Billing information"
    }
  ],
  "host": "dev01.api.t-mobile.com",
  "basePath": "/",
  "schemes": [
    "https"
  ],
  "paths": {
    "/bill/v1/bill-summary": {
      "post": {
        "x-api-pattern": "CreateInCollection",
        "tags": [
          "Billing Information"
        ],
        "summary": "retrieves Billing Information.",
        "description": "For the given input BAN the API will fetch Billing information.",
        "operationId": "retrievesBillingInformation",
        "produces": [
          "application/json"
        ],
        "parameters": [
          {
            "name": "customerInfoInputRequest",
            "in": "body",
            "description": "Input to get Billing information by financial account number.",
            "required": true,
            "schema": {
              "$ref": "#/definitions/InputRequest"
            }
          },
          {
            "$ref": "#/parameters/header-activityid"
          },
          {
            "$ref": "#/parameters/header-Content-Type"
          },
          {
            "$ref": "#/parameters/header-X-Authorization"
          },
          {
            "$ref": "#/parameters/header-X-Auth-Originator"
          },
          {
            "$ref": "#/parameters/header-Accept"
          },
          {
            "$ref": "#/parameters/header-Accept-Charset"
          },
          {
            "$ref": "#/parameters/header-Accept-Encoding"
          },
          {
            "$ref": "#/parameters/header-Accept-Language"
          },
          {
            "$ref": "#/parameters/header-Authorization"
          },
          {
            "$ref": "#/parameters/header-Date"
          },
          {
            "$ref": "#/parameters/header-If-Modified-Since"
          },
          {
            "$ref": "#/parameters/header-If-None-Match"
          },
          {
            "$ref": "#/parameters/header-application-id"
          },
          {
            "$ref": "#/parameters/header-auth-customer-id"
          },
          {
            "$ref": "#/parameters/header-auth-financial-account-id"
          },
          {
            "$ref": "#/parameters/header-auth-line-of-service-id"
          },
          {
            "$ref": "#/parameters/header-authorization-idp"
          },
          {
            "$ref": "#/parameters/header-channel-id"
          },
          {
            "$ref": "#/parameters/header-dealer-code"
          },
          {
            "$ref": "#/parameters/header-interaction-id"
          },
          {
            "$ref": "#/parameters/header-master-dealer-code"
          },
          {
            "$ref": "#/parameters/header-origin-sender-id"
          },
          {
            "$ref": "#/parameters/header-segmentation-id"
          },
          {
            "$ref": "#/parameters/header-sender-id"
          },
          {
            "$ref": "#/parameters/header-service-transaction-id"
          },
          {
            "$ref": "#/parameters/header-session-id"
          },
          {
            "$ref": "#/parameters/header-store-id"
          },
          {
            "$ref": "#/parameters/header-terminal-id"
          },
          {
            "$ref": "#/parameters/header-till-id"
          },
          {
            "$ref": "#/parameters/header-timestamp"
          },
          {
            "$ref": "#/parameters/header-tmo-authorization"
          },
          {
            "$ref": "#/parameters/header-user-id"
          },
          {
            "$ref": "#/parameters/header-workflow-id"
          }
        ],
        "responses": {
          "200": {
            "description": "OK",
            "schema": {
              "$ref": "#/definitions/CustomerInfoOutputResponse"
            }
          },
          "400": {
            "description": "Bad Request",
            "schema": {
              "$ref": "#/definitions/Error"
            },
            "examples": {
              "application/json": {
                "code": "400",
                "userMessage": "Bad Request",
                "systemMessage": "Bad Request",
                "detailLink": "http://www.tmus.com"
              }
            },
            "headers": {}
          },
          "401": {
            "description": "Unauthorized",
            "schema": {
              "$ref": "#/definitions/Error"
            },
            "examples": {
              "application/json": {
                "code": "401",
                "userMessage": "Unauthorized",
                "systemMessage": "Unauthorized",
                "detailLink": "http://www.tmus.com"
              }
            },
            "headers": {}
          },
          "403": {
            "description": "Forbidden",
            "schema": {
              "$ref": "#/definitions/Error"
            },
            "examples": {
              "application/json": {
                "code": "403",
                "userMessage": "Forbidden",
                "systemMessage": "Forbidden",
                "detailLink": "http://www.tmus.com"
              }
            },
            "headers": {}
          },
          "404": {
            "description": "Resource not found",
            "schema": {
              "$ref": "#/definitions/Error"
            },
            "examples": {
              "application/json": {
                "code": "404",
                "userMessage": "Resource not found",
                "systemMessage": "Resource not found",
                "detailLink": "http://www.tmus.com"
              }
            },
            "headers": {}
          },
          "405": {
            "description": "Method Not Allowed",
            "schema": {
              "$ref": "#/definitions/Error"
            },
            "examples": {
              "application/json": {
                "code": "405",
                "userMessage": "Method Not Allowed",
                "systemMessage": "Method Not Allowed",
                "detailLink": "http://www.tmus.com"
              }
            },
            "headers": {
              "Allow": {
                "description": "list of supported methods for URI",
                "x-example": "GET",
                "type": "string",
                "minLength": 1,
                "maxLength": 256,
                "pattern": "^[\\S]*$"
              }
            }
          },
          "406": {
            "description": "Not Acceptable",
            "schema": {
              "$ref": "#/definitions/Error"
            },
            "examples": {
              "application/json": {
                "code": "406",
                "userMessage": "Not Acceptable",
                "systemMessage": "The target resource does not have a representation that would be acceptable to the client based on the specified request headers",
                "detailLink": "http://www.tmus.com"
              }
            },
            "headers": {}
          },
          "409": {
            "description": "Conflict",
            "schema": {
              "$ref": "#/definitions/Error"
            },
            "examples": {
              "application/json": {
                "code": "409",
                "userMessage": "Conflict",
                "systemMessage": "Conflict",
                "detailLink": "http://www.tmus.com"
              }
            },
            "headers": {}
          },
          "415": {
            "description": "Unsupported Media Type",
            "schema": {
              "$ref": "#/definitions/Error"
            },
            "examples": {
              "application/json": {
                "code": "415",
                "userMessage": "Unsupported Media Type",
                "systemMessage": "Unsupported Media Type",
                "detailLink": "http://www.tmus.com"
              }
            },
            "headers": {}
          },
          "500": {
            "description": "System Error",
            "schema": {
              "$ref": "#/definitions/Error"
            },
            "examples": {
              "application/json": {
                "code": "500",
                "userMessage": "System Error",
                "systemMessage": "System Error",
                "detailLink": "http://www.tmus.com"
              }
            },
            "headers": {}
          },
          "503": {
            "description": "Service unavailable",
            "schema": {
              "$ref": "#/definitions/Error"
            },
            "examples": {
              "application/json": {
                "code": "503",
                "userMessage": "Service unavailable",
                "systemMessage": "Service unavailable",
                "detailLink": "http://www.tmus.com"
              }
            },
            "headers": {}
          }
        },
        "security": [
          {
            "oauth2": []
          }
        ]
      }
    }
  },
  "definitions": {
    "Error": {
      "type": "object",
      "description": "As defined in http://api-standards.apps.px-npe01.cf.t-mobile.com/http/status-codes/error-response-format/",
      "required": [
        "code",
        "userMessage"
      ],
      "properties": {
        "code": {
          "description": "A succinct, domain-specific, human-readable text string to identify the type of error for the given status code",
          "example": "ProductNotFound",
          "type": "string",
          "pattern": "^[\\S ]+$"
        },
        "userMessage": {
          "description": "A human-readable message describing the error.",
          "example": "Failed to find product.",
          "type": "string",
          "pattern": "^[\\S ]+$"
        },
        "systemMessage": {
          "description": "Text that provides a more detailed technical explanation of the error",
          "example": "PRODUCT_NOT_FOUND",
          "type": "string"
        },
        "detailLink": {
          "description": "link to custom information providing greater detail on error or errors",
          "example": "http://aaa.bbb.ccc/",
          "type": "string"
        }
      }
    },
    "InputRequest": {
      "type": "object",
      "description": "Input to get Billing information by financial account number",
      "required": [
        "financialAccountNumber"
      ],
      "properties": {
        "financialAccountNumber": {
          "description": "The billing Account number ",
          "type": "string",
          "example": "962483836"
        }
      }
    },
    "CustomerInfoOutputResponse": {
      "type": "object",
      "description": "Billing information.",
      "properties": {
        "isBillCurrent": {
          "description": "A Ban is a BILL_CURRENT if Billing Method is BC ('Y' - Yes 'N' - No)",
          "example": "Y",
          "type": "string"
        },
        "isDelinquent": {
          "description": "Delinquent status. ('Y' - if delinquent status is 'D' else 'N' )",
          "example": "Y",
          "type": "string"
        },
        "totalBalanceDate": {
          "description": "Bill Due Date. format:YYYYMMDD",
          "example": "19990201",
          "type": "string"
        },
        "hasExtendedScheduledPayment": {
          "description": "ESP indicator for the BAN specified in the input . Y if there is an effective EPS on BAN else N",
          "example": "Y",
          "type": "string"
        },
        "pastDueAmount": {
          "description": "Past due amount.",
          "example": "45.14",
          "type": "number"
        },
        "totalBalanceAmount": {
          "description": "Real time amount due.",
          "example": "123.4",
          "type": "number"
        },
        "financialAccountStatus": {
          "description": "Current status of the BAN.  N - CANCELED, C - CLOSED,O - OPENED,S - SUSPENDED,T - TENTATIVE",
          "example": "S",
          "type": "string"
        },
        "sedonaCustomer": {
          "description": "This field indicates if the customer is Sedona or not (‘Y’ – Sedona, ‘N’ – not Sedona).",
          "example": "Y",
          "type": "string"
        }
      }
    }
  },
  "securityDefinitions": {
    "oauth2": {
      "type": "oauth2",
      "description": "oauth2 Authentication",
      "tokenUrl": "https://host:env/v1/oauth2/accesstoken?grant_type=client_credentials",
      "flow": "application",
      "scopes": {}
    }
  },
  "parameters": {
    "header-activityid": {
      "in": "header",
      "name": "activityid",
      "description": "activity id",
      "required": true,
      "type": "string",
      "x-example": 1
    },
    "header-X-Authorization": {
      "name": "X-Authorization",
      "in": "header",
      "description": "OAuth 2.0 access token with the authentication type set as Bearer.",
      "required": false,
      "type": "string"
    },
    "header-X-Auth-Originator": {
      "name": "X-Auth-Originator",
      "in": "header",
      "description": "OAuth 2.0 access token with the authentication type set as Bearer.",
      "required": false,
      "type": "string"
    },
    "header-Accept": {
      "name": "Accept",
      "in": "header",
      "description": "Preferred content type _ default to application/json",
      "x-example": "application/json",
      "required": false,
      "type": "string",
      "minLength": 1,
      "maxLength": 256,
      "pattern": "^[ \\S]+$"
    },
    "header-Accept-Charset": {
      "name": "Accept-Charset",
      "in": "header",
      "description": "Character sets that are acceptable.",
      "x-example": "ISO-8859-1,utf-8;q=0.7,*;q=0.7",
      "required": false,
      "type": "string",
      "minLength": 1,
      "maxLength": 256,
      "pattern": "^[\\S ]*$"
    },
    "header-Accept-Encoding": {
      "name": "Accept-Encoding",
      "in": "header",
      "description": "List of acceptable encodings. See HTTP compression.",
      "x-example": "gzip,deflate",
      "required": false,
      "type": "string",
      "minLength": 1,
      "maxLength": 256,
      "pattern": "^[\\S ]*$"
    },
    "header-Accept-Language": {
      "name": "Accept-Language",
      "in": "header",
      "description": "List of acceptable human languages for response",
      "x-example": "en-us,en;q=0.5",
      "required": false,
      "type": "string",
      "minLength": 1,
      "maxLength": 256,
      "pattern": "g'^[\\S ]*$'."
    },
    "header-Authorization": {
      "name": "Authorization",
      "in": "header",
      "description": "The HTTP Authorization request header contains the credentials to authenticate a user agent with a server.",
      "x-example": "Bearer mF_9.B5f-4.1JqM",
      "required": false,
      "type": "string",
      "minLength": 1,
      "maxLength": 256,
      "pattern": "^[\\S ]+$"
    },
    "header-Content-Type": {
      "name": "Content-Type",
      "in": "header",
      "description": "The MIME type of this content",
      "x-example": "text/xml",
      "required": true,
      "type": "string",
      "minLength": 1,
      "maxLength": 256,
      "pattern": "^[ \\S]+$"
    },
    "header-Date": {
      "name": "Date",
      "in": "header",
      "description": "The Date general HTTP header contains the date and time at which the message was originated.",
      "x-example": "Mon, 05 Mar 2018 16:38:08 GMT",
      "required": false,
      "type": "string",
      "format": "date-time",
      "pattern": "^(Mon|Tue|Wed|Thu|Fri|Sat|Sun), [0-3]{1}[0-9]{1} (Jan|Feb|Mar|Apr|May|Jun|Jul|Aug|Sep|Oct|Nov|Dec) [1-3][0-9]{3} [0-2][0-9]:[0-6][0-9]:[0-6][0-9] GMT$"
    },
    "header-If-Modified-Since": {
      "name": "If-Modified-Since",
      "in": "header",
      "description": "The If-Modified-Since header specifies date-related conditions to be placed on the execution of a request.  The request will only be executed if the requested resource has not been modified since the date-time specified.  Because the behavior is complex, the details for usage are provided at http://www.w3.org/Protocols/rfc2616/rfc2616-sec14.html",
      "x-example": "Mon, 05 Mar 2018 16:38:08 GMT",
      "required": false,
      "type": "string",
      "format": "date-time",
      "pattern": "^(Mon|Tue|Wed|Thu|Fri|Sat|Sun), [0-3]{1}[0-9]{1} (Jan|Feb|Mar|Apr|May|Jun|Jul|Aug|Sep|Oct|Nov|Dec) [1-3][0-9]{3} [0-2][0-9]:[0-6][0-9]:[0-6][0-9] GMT$"
    },
    "header-If-None-Match": {
      "name": "If-None-Match",
      "in": "header",
      "description": "The If-None-Match header specifies an ETag-related condition to be placed on the execution of a request.  The request will NOT be executed if the ETag of the requested resource matches one of those specified in the If-None-Match header.  Because the behavior is complex, the details for usage are provided at http://www.w3.org/Protocols/rfc2616/rfc2616-sec14.html",
      "x-example": "*",
      "required": false,
      "type": "string",
      "minLength": 1,
      "maxLength": 256,
      "pattern": "^[\\S]*$"
    },
    "header-application-id": {
      "name": "application-id",
      "in": "header",
      "description": "Identifies the application, system, or tool that is being used to perform the transaction related to this request. Sample values:ACUI, ESERVICE, REBELLION, WARP",
      "x-example": "REBELLION",
      "required": false,
      "type": "string",
      "minLength": 1,
      "maxLength": 256,
      "pattern": "^[\\S]*$"
    },
    "header-auth-customer-id": {
      "name": "auth-customer-id",
      "in": "header",
      "description": "Customer id _ of the person that is interacting with the system.",
      "x-example": "Deprecated Header",
      "required": false,
      "type": "string",
      "minLength": 1,
      "maxLength": 256,
      "pattern": "^[\\S ]*$"
    },
    "header-auth-financial-account-id": {
      "name": "auth-financial-account-id",
      "in": "header",
      "description": "Financial account that the customer intends to operate on, while interacting with the system.",
      "x-example": "Deprecated Header",
      "required": false,
      "type": "string",
      "minLength": 1,
      "maxLength": 256,
      "pattern": "^[\\S ]*$"
    },
    "header-auth-line-of-service-id": {
      "name": "auth-line-of-service-id",
      "in": "header",
      "description": "Service Line that the customer intends to operate on, while interacting with the system.",
      "x-example": "Deprecated Header",
      "required": false,
      "type": "string",
      "minLength": 1,
      "maxLength": 256,
      "pattern": "^[\\S ]*$"
    },
    "header-authorization-idp": {
      "name": "authorization-idp",
      "in": "header",
      "description": "API chain initiating caller_s IDP token",
      "x-example": "c34e7acd-384b-4c22-8b02-ba3963682508",
      "required": false,
      "type": "string",
      "minLength": 1,
      "maxLength": 256,
      "pattern": "^[\\S]*$"
    },
    "header-channel-id": {
      "name": "channel-id",
      "in": "header",
      "description": "Categorization of access or business stream",
      "x-example": "IVR",
      "required": false,
      "type": "string",
      "minLength": 1,
      "maxLength": 256,
      "pattern": "^[\\S]*$"
    },
    "header-dealer-code": {
      "name": "dealer-code",
      "in": "header",
      "description": "Unique code to identify the dealer/rep user.",
      "x-example": "34234322",
      "required": false,
      "type": "string"
    },
    "header-interaction-id": {
      "name": "interaction-id",
      "in": "header",
      "description": "Alphanumeric value represent a common transaction id across all calls made from UI, while completing all business activity needs of a particular customer.",
      "x-example": "cc688d54-50d1-49d4-8c5d-95459d1172e8",
      "required": false,
      "type": "string",
      "minLength": 1,
      "maxLength": 256,
      "pattern": "^[\\S]*$"
    },
    "header-master-dealer-code": {
      "name": "master-dealer-code",
      "in": "header",
      "description": "Unique code to identify the master dealer for a large retail partner. Will not be applicable for TMO channels.",
      "x-example": "3571232",
      "required": false,
      "type": "string",
      "minLength": 1,
      "maxLength": 256,
      "pattern": "^[\\S]*$"
    },
    "header-origin-sender-id": {
      "name": "origin-sender-id",
      "in": "header",
      "description": "replaced by _aud_ in authorization",
      "x-example": "Deprecated Header",
      "required": false,
      "type": "string",
      "minLength": 1,
      "maxLength": 256,
      "pattern": "^[\\S ]*$"
    },
    "header-segmentation-id": {
      "name": "segmentation-id",
      "in": "header",
      "description": "Identifier of customers primary data center.Sample: Polaris,Titan",
      "x-example": "Polaris",
      "required": false,
      "type": "string",
      "minLength": 1,
      "maxLength": 256,
      "pattern": "^[\\S]*$"
    },
    "header-sender-id": {
      "name": "sender-id",
      "in": "header",
      "description": "The related business partner or T-Mobile organization",
      "x-example": "QVXP",
      "required": false,
      "type": "string",
      "minLength": 1,
      "maxLength": 256,
      "pattern": "^[\\S]*$"
    },
    "header-service-transaction-id": {
      "name": "service-transaction-id",
      "in": "header",
      "description": "Request ID echoed back by server",
      "x-example": "23409209723",
      "required": false,
      "type": "string",
      "minLength": 1,
      "maxLength": 256,
      "pattern": "^[\\S]*$"
    },
    "header-session-id": {
      "name": "session-id",
      "in": "header",
      "description": "A value populated by the sender used to track the transactions that occur during a session, a long-lasting interaction that ismaintained by the sender.",
      "x-example": "350b91ec-4a64-4b10-a3f3-a78c8db3924a",
      "required": false,
      "type": "string",
      "minLength": 1,
      "maxLength": 256,
      "pattern": "^[\\S]*$"
    },
    "header-store-id": {
      "name": "store-id",
      "in": "header",
      "description": "Unique identifier for the retail store location.",
      "x-example": "0279",
      "required": false,
      "type": "string",
      "minLength": 1,
      "maxLength": 256,
      "pattern": "^[\\S]*$"
    },
    "header-terminal-id": {
      "name": "terminal-id",
      "in": "header",
      "description": "Unique identifier for the retail store terminal. Needed for FullService  (Tmobile RETAIL channel). Need to discuss with T-Mobile business liaison if there is a need for Partner to pass their retail Store Id).",
      "x-example": "Deprecated Header",
      "required": false,
      "type": "string",
      "minLength": 1,
      "maxLength": 256,
      "pattern": "^[\\S ]*$"
    },
    "header-till-id": {
      "name": "till-id",
      "in": "header",
      "description": "Unique identifier for the retail register. Needed for FullService  (Tmobile RETAIL channel). Need to discuss with T-Mobile business liaison if there is a need for Partner to pass their retail Store Id).",
      "x-example": "Deprecated Header",
      "required": false,
      "type": "string",
      "minLength": 1,
      "maxLength": 256,
      "pattern": "^[\\S ]*$"
    },
    "header-timestamp": {
      "name": "timestamp",
      "in": "header",
      "description": "ms since 1/1/70 adjusted to GMT",
      "x-example": "1524599536",
      "required": false,
      "type": "integer",
      "format": "int64",
      "minimum": 0,
      "maximum": 999999999999,
      "pattern": "^[\\d]*$"
    },
    "header-tmo-authorization": {
      "name": "tmo-authorization",
      "in": "header",
      "description": "Contains Proof of Possession token generated by API caller",
      "x-example": "c34e7acd-384b-4c22-8b02-ba3963682508",
      "required": false,
      "type": "string",
      "minLength": 1,
      "maxLength": 256,
      "pattern": "^[\\S ]*$"
    },
    "header-user-id": {
      "name": "user-id",
      "in": "header",
      "description": "NT id of the one who is managing the transaction from CARE/RETAIL channels.",
      "x-example": "Deprecated Header",
      "required": false,
      "type": "string",
      "minLength": 1,
      "maxLength": 256,
      "pattern": "^[\\S ]*$"
    },
    "header-workflow-id": {
      "name": "workflow-id",
      "in": "header",
      "description": "Business Use Case",
      "x-example": "ACTIVATION",
      "required": false,
      "type": "string",
      "minLength": 1,
      "maxLength": 256,
      "pattern": "^[\\S]*$"
    }
  }
}
