@startuml

!define MS_SERVICE security-management-v2
!define MS_OPERATION save-srp-on-existing-account
!define LAST_UPDATE %date[yyyy.MM.dd 'at' HH:mm]%
!define module(x) component x <<module>> 
!define send(a,b,c) a->b : c
!define response(a,b) a-->b : Response

title
 MS: MS_SERVICE/MS_OPERATION
 Last update: LAST_UPDATE
 
end title

hide footbox

center footer
 
 
Copyright (c) 2019 Amdocs.
 
Information Security Level 1 - Confidential
 
CONTAINS RESTRICTED - PROPRIETARY INFORMATION
 
This document is strictly confidential and proprietary; to be used only by authorized persons
on a need to know basis, and must not be distributed without specific permission.
 
In the event of unauthorized use of this document or the confidential information it contains,
violators will be subject to sever disciplinary action, based on Amdocs regulations, as well as
any other sanctions applicable by law.
 
endfooter

participant Edge
participant "security-\nmanagement-v2\nMS" as AS
participant "TUXEDO/\nCSM" as CSM


Edge -> AS: save-srp-on-existing-account \n
activate AS

AS -> CSM: csUpSrpDtls
activate CSM
CSM -->AS: Response
deactivate CSM



AS -->Edge: Response
deactivate AS

@enduml