{
  "swagger": "2.0",
  "info": {
    "description": "This service is the nest-svc service.",
    "title": "NEST Service API",
    "contact": {
      "name": "Technology Workforce Solutions"
    }
  },
  "host": "localhost:8080",
  "basePath": "/v1",
  "tags": [
    {
      "name": "cache-controller",
      "description": "Cache Controller"
    },
    {
      "name": "o-auth-controller",
      "description": "O Auth Controller"
    },
    {
      "name": "nest-controller",
      "description": "This service is the nest-svc service"
    }
  ],
  "paths": {
    "/cache/clear": {
      "post": {
        "x-api-pattern": "ExecuteFunction",
        "tags": [
          "cache-controller"
        ],
        "summary": "clearCache",
        "operationId": "clearCacheUsingPOST",
        "consumes": [
          "application/json"
        ],
        "produces": [
          "application/json"
        ],
        "responses": {
          "200": {
            "description": "OK"
          },
          "201": {
            "description": "Created"
          },
          "401": {
            "description": "Unauthorized"
          },
          "403": {
            "description": "Forbidden"
          },
          "404": {
            "description": "Not Found"
          }
        }
      }
    },
    "/cache/prime": {
      "post": {
        "x-api-pattern": "ExecuteFunction",
        "tags": [
          "cache-controller"
        ],
        "summary": "primeCache",
        "operationId": "primeCacheUsingPOST",
        "consumes": [
          "application/json"
        ],
        "produces": [
          "application/json"
        ],
        "responses": {
          "200": {
            "description": "OK"
          },
          "201": {
            "description": "Created"
          },
          "401": {
            "description": "Unauthorized"
          },
          "403": {
            "description": "Forbidden"
          },
          "404": {
            "description": "Not Found"
          }
        }
      }
    },
    "/cache/reprime": {
      "post": {
        "x-api-pattern": "ExecuteFunction",
        "tags": [
          "cache-controller"
        ],
        "summary": "reprimeCache",
        "operationId": "reprimeCacheUsingPOST",
        "consumes": [
          "application/json"
        ],
        "produces": [
          "application/json"
        ],
        "responses": {
          "200": {
            "description": "OK"
          },
          "201": {
            "description": "Created"
          },
          "401": {
            "description": "Unauthorized"
          },
          "403": {
            "description": "Forbidden"
          },
          "404": {
            "description": "Not Found"
          }
        }
      }
    },
    "/currentStates/{fromDate}/{toDate}": {
      "get": {
        "x-api-pattern": "QueryResource",
        "tags": [
          "nest-controller"
        ],
        "summary": "Config Item's state in date ranges",
        "operationId": "getStatesByDateRangeUsingGET",
        "consumes": [
          "application/json"
        ],
        "produces": [
          "application/json;charset=UTF-8",
          "application/atom+xml"
        ],
        "parameters": [
          {
            "name": "fromDate",
            "in": "path",
            "description": "fromDate",
            "required": true,
            "type": "string",
            "pattern": "^([A-Z][a-z][0-9]\\/)$"
          },
          {
            "name": "toDate",
            "in": "path",
            "description": "toDate",
            "required": true,
            "type": "string",
            "pattern": "^([A-Z][a-z][0-9]\\/)$"
          }
        ],
        "responses": {
          "200": {
            "description": "OK",
            "schema": {
              "$ref": "#/definitions/ResponseEntity"
            }
          },
          "401": {
            "description": "Unauthorized"
          },
          "403": {
            "description": "Forbidden"
          },
          "404": {
            "description": "Not Found"
          }
        }
      }
    },
    "/getCurrentStateByConfigItems": {
      "post": {
        "x-api-pattern": "ExecuteFunction",
        "tags": [
          "nest-controller"
        ],
        "summary": "Config Item's state",
        "operationId": "getCurrentStateByConfigItemsUsingPOST",
        "consumes": [
          "application/json"
        ],
        "produces": [
          "application/json;charset=UTF-8",
          "application/atom+xml"
        ],
        "parameters": [
          {
            "in": "body",
            "name": "request",
            "description": "request",
            "required": true,
            "schema": {
              "$ref": "#/definitions/StatesRequest"
            }
          }
        ],
        "responses": {
          "200": {
            "description": "OK",
            "schema": {
              "$ref": "#/definitions/ResponseEntity"
            }
          },
          "201": {
            "description": "Created"
          },
          "401": {
            "description": "Unauthorized"
          },
          "403": {
            "description": "Forbidden"
          },
          "404": {
            "description": "Not Found"
          }
        }
      }
    },
    "/getNestHistory/{ci}": {
      "get": {
        "x-api-pattern": "QueryResource",
        "tags": [
          "nest-controller"
        ],
        "summary": "api to get nest history based on CI",
        "operationId": "getNestHistoryUsingGET",
        "consumes": [
          "application/json"
        ],
        "produces": [
          "application/json;charset=UTF-8",
          "application/atom+xml"
        ],
        "parameters": [
          {
            "name": "ci",
            "in": "path",
            "description": "ci",
            "required": true,
            "type": "string",
            "pattern": "^([A-Z][a-z][0-9]\\/)$"
          }
        ],
        "responses": {
          "200": {
            "description": "OK",
            "schema": {
              "$ref": "#/definitions/ResponseEntity"
            }
          },
          "401": {
            "description": "Unauthorized"
          },
          "403": {
            "description": "Forbidden"
          },
          "404": {
            "description": "Not Found"
          }
        }
      }
    },
    "/nest": {
      "post": {
        "x-api-pattern": "ExecuteFunction",
        "tags": [
          "nest-controller"
        ],
        "summary": "Config Items State Change",
        "operationId": "changeCIStatesUsingPOST",
        "consumes": [
          "application/json"
        ],
        "produces": [
          "*/*"
        ],
        "parameters": [
          {
            "in": "body",
            "name": "nestChangeRequest",
            "description": "nestChangeRequest",
            "required": true,
            "schema": {
              "$ref": "#/definitions/NESTChangeRequest"
            }
          }
        ],
        "responses": {
          "200": {
            "description": "OK",
            "schema": {
              "type": "string"
            }
          },
          "201": {
            "description": "Created"
          },
          "401": {
            "description": "Unauthorized"
          },
          "403": {
            "description": "Forbidden"
          },
          "404": {
            "description": "Not Found"
          }
        }
      }
    },
    "/nest/multipleCi": {
      "post": {
        "x-api-pattern": "ExecuteFunction",
        "tags": [
          "nest-controller"
        ],
        "summary": "Multiple Config Items State Change",
        "operationId": "changeMultipleCIStatesUsingPOST",
        "consumes": [
          "application/json"
        ],
        "produces": [
          "*/*"
        ],
        "parameters": [
          {
            "in": "body",
            "name": "nestChangeRequest",
            "description": "nestChangeRequest",
            "required": true,
            "schema": {
              "$ref": "#/definitions/NESTChangeRequest"
            }
          }
        ],
        "responses": {
          "200": {
            "description": "OK",
            "schema": {
              "type": "string"
            }
          },
          "201": {
            "description": "Created"
          },
          "401": {
            "description": "Unauthorized"
          },
          "403": {
            "description": "Forbidden"
          },
          "404": {
            "description": "Not Found"
          }
        }
      }
    },
    "/oauth/consumers": {
      "get": {
        "x-api-pattern": "QueryResource",
        "tags": [
          "o-auth-controller"
        ],
        "summary": "getConsumers",
        "operationId": "getConsumersUsingGET",
        "consumes": [
          "application/json"
        ],
        "produces": [
          "application/json;charset=UTF-8"
        ],
        "responses": {
          "200": {
            "description": "OK",
            "schema": {
              "type": "object"
            }
          },
          "401": {
            "description": "Unauthorized"
          },
          "403": {
            "description": "Forbidden"
          },
          "404": {
            "description": "Not Found"
          }
        }
      }
    },
    "/oauth/signature": {
      "post": {
        "x-api-pattern": "ExecuteFunction",
        "tags": [
          "o-auth-controller"
        ],
        "summary": "signature",
        "operationId": "signatureUsingPOST",
        "consumes": [
          "application/json"
        ],
        "produces": [
          "application/json;charset=UTF-8"
        ],
        "parameters": [
          {
            "in": "body",
            "name": "bodyMap",
            "description": "bodyMap",
            "required": true,
            "schema": {
              "type": "object",
              "additionalProperties": {
                "type": "string"
              }
            }
          }
        ],
        "responses": {
          "200": {
            "description": "OK",
            "schema": {
              "type": "object"
            }
          },
          "201": {
            "description": "Created"
          },
          "401": {
            "description": "Unauthorized"
          },
          "403": {
            "description": "Forbidden"
          },
          "404": {
            "description": "Not Found"
          }
        }
      }
    },
    "/oauth/verify": {
      "post": {
        "x-api-pattern": "ExecuteFunction",
        "tags": [
          "o-auth-controller"
        ],
        "summary": "verify",
        "operationId": "verifyUsingPOST",
        "consumes": [
          "application/json"
        ],
        "produces": [
          "application/json;charset=UTF-8"
        ],
        "parameters": [
          {
            "in": "body",
            "name": "bodyMap",
            "description": "bodyMap",
            "required": true,
            "schema": {
              "type": "object",
              "additionalProperties": {
                "type": "string"
              }
            }
          }
        ],
        "responses": {
          "200": {
            "description": "OK",
            "schema": {
              "type": "object"
            }
          },
          "201": {
            "description": "Created"
          },
          "401": {
            "description": "Unauthorized"
          },
          "403": {
            "description": "Forbidden"
          },
          "404": {
            "description": "Not Found"
          }
        }
      }
    },
    "/publish": {
      "post": {
        "x-api-pattern": "ExecuteFunction",
        "tags": [
          "nest-controller"
        ],
        "summary": "Publish CIs",
        "operationId": "bulkPublishUsingPOST",
        "consumes": [
          "application/json"
        ],
        "produces": [
          "*/*"
        ],
        "parameters": [
          {
            "in": "body",
            "name": "data",
            "description": "data",
            "required": true,
            "schema": {
              "type": "array",
              "items": {
                "$ref": "#/definitions/QueueRequest"
              }
            }
          }
        ],
        "responses": {
          "200": {
            "description": "OK",
            "schema": {
              "type": "string"
            }
          },
          "201": {
            "description": "Created"
          },
          "401": {
            "description": "Unauthorized"
          },
          "403": {
            "description": "Forbidden"
          },
          "404": {
            "description": "Not Found"
          }
        }
      }
    },
    "/state/virtualCI/{ci}": {
      "get": {
        "x-api-pattern": "QueryResource",
        "tags": [
          "nest-controller"
        ],
        "summary": "Config Item's and virual Config Item's state",
        "operationId": "getStateForVirtualCIByCIUsingGET",
        "consumes": [
          "application/json"
        ],
        "produces": [
          "application/json;charset=UTF-8",
          "application/atom+xml"
        ],
        "parameters": [
          {
            "name": "ci",
            "in": "path",
            "description": "ci",
            "required": true,
            "type": "string",
            "pattern": "^([A-Z][a-z][0-9]\\/)$"
          }
        ],
        "responses": {
          "200": {
            "description": "OK",
            "schema": {
              "$ref": "#/definitions/ResponseEntity"
            }
          },
          "401": {
            "description": "Unauthorized"
          },
          "403": {
            "description": "Forbidden"
          },
          "404": {
            "description": "Not Found"
          }
        }
      }
    },
    "/state/{ci}": {
      "get": {
        "x-api-pattern": "QueryResource",
        "tags": [
          "nest-controller"
        ],
        "summary": "Config Item's state",
        "operationId": "getStateByCIUsingGET",
        "consumes": [
          "application/json"
        ],
        "produces": [
          "application/json;charset=UTF-8",
          "application/atom+xml"
        ],
        "parameters": [
          {
            "name": "ci",
            "in": "path",
            "description": "ci",
            "required": true,
            "type": "string",
            "pattern": "^([A-Z][a-z][0-9]\\/)$"
          }
        ],
        "responses": {
          "200": {
            "description": "OK",
            "schema": {
              "$ref": "#/definitions/ResponseEntity"
            }
          },
          "401": {
            "description": "Unauthorized"
          },
          "403": {
            "description": "Forbidden"
          },
          "404": {
            "description": "Not Found"
          }
        }
      }
    },
    "/states": {
      "get": {
        "x-api-pattern": "QueryResource",
        "tags": [
          "nest-controller"
        ],
        "summary": "States reference data",
        "operationId": "getStatesUsingGET",
        "consumes": [
          "application/json"
        ],
        "produces": [
          "application/json;charset=UTF-8",
          "application/atom+xml"
        ],
        "responses": {
          "200": {
            "description": "OK",
            "schema": {
              "$ref": "#/definitions/ResponseEntity"
            }
          },
          "401": {
            "description": "Unauthorized"
          },
          "403": {
            "description": "Forbidden"
          },
          "404": {
            "description": "Not Found"
          }
        }
      }
    },
    "/technologies": {
      "get": {
        "x-api-pattern": "QueryResource",
        "tags": [
          "nest-controller"
        ],
        "summary": "Technologies reference data",
        "operationId": "getTechnologiesUsingGET",
        "consumes": [
          "application/json"
        ],
        "produces": [
          "application/json;charset=UTF-8",
          "application/atom+xml"
        ],
        "responses": {
          "200": {
            "description": "OK",
            "schema": {
              "$ref": "#/definitions/ResponseEntity"
            }
          },
          "401": {
            "description": "Unauthorized"
          },
          "403": {
            "description": "Forbidden"
          },
          "404": {
            "description": "Not Found"
          }
        }
      }
    }
  },
  "definitions": {
    "ResponseEntity": {
      "type": "object",
      "properties": {
        "body": {
          "type": "object"
        },
        "statusCode": {
          "type": "string",
          "enum": [
            "100",
            "101",
            "102",
            "103",
            "200",
            "201",
            "202",
            "203",
            "204",
            "205",
            "206",
            "207",
            "208",
            "226",
            "300",
            "301",
            "302",
            "303",
            "304",
            "305",
            "307",
            "308",
            "400",
            "401",
            "402",
            "403",
            "404",
            "405",
            "406",
            "407",
            "408",
            "409",
            "410",
            "411",
            "412",
            "413",
            "414",
            "415",
            "416",
            "417",
            "418",
            "419",
            "420",
            "421",
            "422",
            "423",
            "424",
            "426",
            "428",
            "429",
            "431",
            "451",
            "500",
            "501",
            "502",
            "503",
            "504",
            "505",
            "506",
            "507",
            "508",
            "509",
            "510",
            "511"
          ]
        },
        "statusCodeValue": {
          "type": "integer",
          "format": "int32"
        }
      }
    },
    "Technology": {
      "type": "object",
      "required": [
        "new_state",
        "old_state",
        "technology_id"
      ],
      "properties": {
        "technology_id": {
          "type": "string",
          "pattern": "^([A-Z][a-z][0-9]\\/)$",
          "example": "example"
        },
        "old_state": {
          "type": "string",
          "pattern": "^([A-Z][a-z][0-9]\\/)$",
          "example": "example"
        },
        "new_state": {
          "type": "string",
          "pattern": "^([A-Z][a-z][0-9]\\/)$",
          "example": "example"
        }
      }
    },
    "NestResponse": {
      "type": "object",
      "properties": {
        "decommissioned": {
          "type": "array",
          "items": {
            "type": "string"
          }
        },
        "maintenanceSi": {
          "type": "array",
          "items": {
            "type": "string"
          }
        },
        "nonMaintenanceSi": {
          "type": "array",
          "items": {
            "type": "string"
          }
        },
        "others": {
          "type": "array",
          "items": {
            "$ref": "#/definitions/Map«string,object»"
          }
        }
      }
    },
    "QueueRequest": {
      "type": "object",
      "properties": {
        "ConfigItem": {
          "type": "string"
        },
        "CurrentStateDescription": {
          "type": "string"
        },
        "CurrentState_Id": {
          "type": "string"
        },
        "Duration": {
          "type": "string"
        },
        "Notes": {
          "type": "string"
        },
        "RequestedBy": {
          "type": "string"
        },
        "RequestedDate": {
          "type": "string"
        },
        "TechnologyDescription": {
          "type": "string"
        },
        "Technology_Id": {
          "type": "string"
        },
        "ToStateDescription": {
          "type": "string"
        },
        "ToState_Id": {
          "type": "string"
        }
      }
    },
    "Map«string,object»": {
      "type": "object",
      "additionalProperties": {
        "type": "object"
      }
    },
    "NESTChangeRequest": {
      "type": "object",
      "required": [
        "change",
        "duration",
        "notes"
      ],
      "properties": {
        "change": {
          "type": "array",
          "items": {
            "$ref": "#/definitions/Change"
          },
          "example": "example"
        },
        "notes": {
          "type": "string",
          "pattern": "^([A-Z][a-z][0-9]\\/)$",
          "example": "example"
        },
        "duration": {
          "type": "integer",
          "format": "int32",
          "pattern": "^[0-9]*$",
          "example": "example"
        }
      }
    },
    "StatesRequest": {
      "type": "object",
      "properties": {
        "configItems": {
          "type": "string"
        },
        "technologyIds": {
          "type": "array",
          "items": {
            "type": "integer",
            "format": "int32"
          }
        }
      }
    },
    "Change": {
      "type": "object",
      "required": [
        "ci",
        "technologies"
      ],
      "properties": {
        "ci": {
          "type": "string",
          "pattern": "^([A-Z][a-z][0-9]\\/)$",
          "example": "example"
        },
        "technologies": {
          "type": "array",
          "example": "example",
          "items": {
            "$ref": "#/definitions/Technology"
          }
        }
      }
    }
  }
}