@startuml

!define MS_SERVICE Activate-Subscriber-V5
!define MS_OPERATION get-offer-for-new-subscriber-on-existing-account
!define LAST_UPDATE %date[yyyy.MM.dd 'at' HH:mm]%

left header
<font color=blue>MS: MS_SERVICE/MS_OPERATION</font>
endheader

title
 MS: MS_SERVICE/MS_OPERATION
 Last update: LAST_UPDATE
 
end title

/' 
 ' This is our suppression for the footbox (aka. our diagrams box a the bottom of each flow
 ' tower - comment out the next line and regenerate the diagram, to see what I mean)
 '/
hide footbox


/'
 ' The spacing in the following text is important. 
 ' 
 ' Trust me.
 '/ 
center footer
 
 
Copyright (c) 2019 Amdocs.
 
Information Security Level 1 - Confidential
 
CONTAINS RESTRICTED - PROPRIETARY INFORMATION
 
This document is strictly confidential and proprietary; to be used only by authorized persons
on a need to know basis, and must not be distributed without specific permission.
 
In the event of unauthorized use of this document or the confidential information it contains,
violators will be subject to sever disciplinary action, based on Amdocs regulations, as well as
any other sanctions applicable by law.
 
endfooter

participant Channel
participant "Activate-Subscriber-V5\nMS" as AS
participant "Subscriber-Management-V1\nMS" as SM
participant "DB" as DB
participant "Device-Management-V4\nMS" as DVM4
participant "Device-Management-V5\nMS" as DVM5
participant "Plan-Management-V4\n-MS" as PM


Channel -> AS: get-offer-for-new-subscriber-on-existing-account
activate AS
AS -> SM: searchSubscriber
activate SM
ref over SM
searchSubscriber
end
SM -->AS: Response
deactivate SM

AS -> AS : JWT authentication

AS -> DB: MarketDao.retrieveMarket
activate DB
DB --> AS: Response
deactivate DB

AS -> DB: jdbcDealerProfileDao.retrieveDealerNameByDealerCode
activate DB
DB --> AS: Response
deactivate DB

AS -> DVM4: validateDeviceInfo
activate DVM4
ref over DVM4
validateDeviceInfo
end
DVM4 -->AS: Response
deactivate DVM4

AS -> DVM5: validateDeviceInfo
activate DVM5
ref over DVM5
validateDeviceInfo
end
DVM5 -->AS: Response
deactivate DVM5

AS -> PM: getPricePlansAndServicesForNewSubscriber
activate PM
ref over PM
getPricePlansAndServicesForNewSubscriber
end
PM -->AS: Response
deactivate PM

@enduml