@startuml
title VW Connected Car - Enable Profile Request
participant CUBIC
participant Apigee
participant ESIP
participant EMP
CUBIC -> Apigee : /provisioning/virtual-sim (action=ENABLE)
Apigee -> ESIP : /provisioning/virtial-sim (action=ENABLE)
group Request Acknowledgement (Happy Path Scenario)
ESIP -> EMP : /v1/{eid}/profiles/{iccid}/enable
EMP -> ESIP : HTTPResponse(status=200)
end
ESIP -> Apigee : HTTPResponse(status=200)
Apigee -> CUBIC : HTTPResponse(status=200)
group Asynchronous Completion of Request
EMP -> ESIP :  /billing/v1/e-sim-provisioning/profile-callback
ESIP -> CUBIC : /subscriber/v{version}/notifications/{eId}/profiles
CUBIC -> ESIP : HTTPResponse(status=200)
ESIP -> EMP : HTTPResponse(status=200)
end
@enduml