@startuml
title VW Connected Car - Garage Process (New Device Swap - B2B)
participant CUBIC
box "T-Mobile" #E20074
participant "Digital\nBilling" as ESIP
participant "Engineering" as EMP
participant "Samson SIM\nManagement" as SIM #99FF99
participant "Netcracker\nWholesale" as WHOLESALE
end box

CUBIC -> ESIP : /provisioning/virtual-sim/device-swap\n(usedDeviceSwap=false,\ndeviceOut={eid-out, iccid-out, msisdn},\ndeviceIn={eid-in, null, null})
ESIP -> CUBIC : HTTPResponse(status=202)

group Allocate New SIM in ENG
ESIP -> EMP : /esimplatform/vwm2m/v1/device/\n{eid-in}/account/allocate
EMP -> ESIP : HTTPResponse (status=200, new-iccid)
end

group Determine SIM Type
ESIP -> SIM : /sim-management/v1/sims/sim-details/{iccid-out}
SIM -> ESIP : SimDetailsResponse(...)
end

alt Wholesale SIM (SimDetailsResponse.classificationType=WHOLESALE)
group Swap SIM on MSISDN
ESIP -> WHOLESALE : Subscriber::ChangeSIM\n(iccid-out, new-iccid, msisdn)\n/wholesale/v1/subscriber/sim-change
WHOLESALE -> ESIP : HTTPResponse(status=200)
end

group Async From Wholesale Change SIM
WHOLESALE -> ESIP : /billing/v1/notify-partner/virtual-sims/wholesale/SIM-SWAP
group Activate New Wholesale Line
ESIP-> WHOLESALE : Subscriber::ActivateSubscriber(iccid-out)\n/wholesale/v1/subscriber/activation
WHOLESALE -> ESIP : HTTPResponse(status=200, new-msisdn)
end
end
group Async From Wholesale Activate Subscriber
WHOLESALE -> ESIP : /billing/v1/notify-partner/virtual-sims/wholesale/SIM-SWAP-ACTIVATE-SUB
ESIP -> CUBIC : /Integration.TMobile/CallbackApi/api/v1/subscriptionManagement/deviceSwap(status=200,\ndeviceOut={eid-out, iccid-out, imsi-out, new-msisdn},\ndeviceIn={eid-in, new-iccid, imsi-new, msisdn})
end
end
@enduml