@startuml 
title Lookup Customer ID by BAN

participant "API Consumer" as CR
participant APIGEE
participant "CD LookupByFinancialAccountNumber API" as CI
participant "CHUB DB" as DB
participant "CHUB DQ" as DQ
participant "Samson" as SAMSON

CR->APIGEE: Authenticate
APIGEE-->CR: Access token

CR->APIGEE: lookupByFinancialAccountNumber
    note over CR #aqua
       request includes:
       * BAN
       Path is /customer-identity/v1/customers
            /customerId/financial-accounts/
            financial-account-number POST
    end note
APIGEE->CI:lookupByFinancialAccountNumber

CI->CI:  API request validation
alt request validation failed
    CI-->APIGEE: Error 400 BAD Request
    APIGEE-->CR:  Error 400 BAD Request
end

CI->DB: search for ccid by postpaid BAN 
alt BAN not found in CHUB
    CI->SAMSON: lookup account by BAN
    SAMSON-->CI:  lookup response
    alt BAN not found in Samson
        CI-->APIGEE: error - account not found
        APIGEE-->CR: error - account not found
    end
    CI->DQ:  find existing ccid by PII
    alt existing ccid not found
        CI->CI:  create new ccid
    end
end

CI-->APIGEE: 200 - ccid found Response 
APIGEE-->CR: 200 - ccid found Response
    note over CR #aqua
        response includes:
          *ccid
          *org name (bus customer only)
    end note

@enduml