@startuml
title Customer Details Search End to End Flow
participant Rebellion
participant "SAP Care"
participant WSIL
participant APIGEE
participant "CustomerDetailsSearch PCF API" as CD
participant "CHUB Replica Tables"
participant "SAMSON Tuxedo evGtAuthSub"
participant "IAM validatePIN API"
participant "CHUB CustomerDetailsLookupService"
participant "CFAM Customer Credit Profile Service API"
participant "IAM Query By IAM Profile API" as IAM
participant "ESP EventEnterprise Service" as REEF
 
Rebellion->Rebellion : Get Customer Details
"SAP Care"->"SAP Care" : Get Customer Details
Rebellion->APIGEE : /customer/v1/customers/customerDetails/search
"SAP Care"-> WSIL : CustomerDetailsWSIL.getCustomerDetails
WSIL->APIGEE : /customer/v1/customers/customerDetails/search
APIGEE->"CD" : /customer/v1/customers/customerDetails/search
group Customer PIN Validation is not required
alt securitryPIN is null ->Customer PIN validation not Required
 "CD"->"CHUB CustomerDetailsLookupService": lookupCustomerDetails
    "CHUB CustomerDetailsLookupService"-->"CD" : CustomerDetails Response
    "CD"-> "CD": get CCID and Credit Class from lookupCustomerDetails Response
    "CD"-> APIGEE: POST /customer-credit/v1/credit-profiles/personal
     APIGEE->"CFAM Customer Credit Profile Service API": POST /customer-credit/v1/credit-profiles/personal for Equipment Credit Limits (MPEC,LCA,CECL,ECA and ECB) based on CCID and Credit Class
    "CFAM Customer Credit Profile Service API"--> APIGEE: Provide Equipment Credit Limits
     APIGEE->"CD" : Provide Equipment Credit Limits
     note left 
              Ignore if 
              CFAM Customer Credit Profile Service API
              call fails
    end note
"CD"-->IAM:/iam_provisioning/v1/iam_profile?UID=customerNumber:<BSCS Customer ID value>&scopes= TMO_ID_profile GET  
    IAM->"CD":get Profile Response
    "CD"->"CD": Extract UUID from Query By IAM Profile Response and add it in Customer Details Search Response
"CD"-->APIGEE:send Customer Details Response
note left 
call REEF service when verificationMethod is sent in request
end note
CD->REEF:EventEnterprise.createCustomerInteractionEventRequest
REEF-->CD:EventEnterprise.createCustomerInteractionEventResponse
else 
end
end
group Customer PIN Validation in U2.0
	alt securityPIN is not null & BSCSCustomerID is not null
	"CD"->"IAM validatePIN API": validatePIN
    "IAM validatePIN API"-->"CD": Provide validatePIN response
	alt PIN validation failure
	"CD"-->APIGEE: Send error Response that PIN validation failed
	else 
    alt PIN validation is sucessful
    "CD"->"CHUB CustomerDetailsLookupService": lookupCustomerDetails
    "CHUB CustomerDetailsLookupService"-->"CD" : CustomerDetails Response
    "CD"-> "CD": get CCID and Credit Class from lookupCustomerDetails Response
    "CD"-> APIGEE: POST /customer-credit/v1/credit-profiles/personal
     APIGEE->"CFAM Customer Credit Profile Service API": POST /customer-credit/v1/credit-profiles/personal for Equipment Credit Limits (MPEC,LCA,CECL,ECA and ECB) based on CCID and Credit Class
    "CFAM Customer Credit Profile Service API"--> APIGEE: Provide Equipment Credit Limits
     APIGEE->"CD" : Provide Equipment Credit Limits
     note left 
              Ignore if 
              CFAM Customer Credit Profile Service API
              call fails
    end note
    "CD"-> "CD": Enhance reponse with Equipment Credit Limits
    "CD"-->IAM:/iam_provisioning/v1/iam_profile?UID=customerNumber:<BSCS Customer ID value>&scopes= TMO_ID_profile GET 
    IAM->"CD":get Profile Response
    "CD"->"CD": Extract UUID from Query By IAM Profile Response and add it in Customer Details Search Response
    "CD"-->APIGEE: Send Customer Details Response
    note left 
call REEF service when verificationMethod is sent in request
end note
CD->REEF:EventEnterprise.createCustomerInteractionEventRequest
REEF-->CD:EventEnterprise.createCustomerInteractionEventResponse
    end

else
end
end
end

APIGEE-->Rebellion : Route Customer Details Response
APIGEE-->WSIL : Route Customer Details Response
WSIL-->"SAP Care" : Provide Customer Details Response
@enduml