@startuml 
title "Customer DEEP Event Generic Flow Overview"
participant "DEEP" as DEEP
participant "CD Event Consumer" as CDCONS
participant "CHUB" as CHUB


DEEP->CDCONS: event{eventName}
CDCONS->CHUB:  write event to CX_EVENT_LOG

alt CHUB connection error 
    CDCONS-->DEEP:  DEEP Retry Exception
    alt retries == max retries configured
        DEEP->DEEP: DEEP Exception
    end
    DEEP->CDCONS: retry event{eventName}
end 

CDCONS->CDCONS:  validate DEEP payload
alt event playload not valid 
    CDCONS-->DEEP: DEEP Exception
end

CDCONS->CDCONS:  perform business logic
CDCONS->CHUB: upsert info to customer master
note over CDCONS
    Consumption of all DEEP events in CD
    follows this pattern.  Business Logic 
    performed varies based on the eventName.
end note

CDCONS-->DEEP: success

@enduml