@startuml 
title Individual Customer Service - update credit profile
    participant "Credit Domain" as CR
    participant "APIGEE" as APIGEE
    participant "CD updateIndividualCustomerCreditProfile API" as CD
    participant "CHUB UpdateProfile Web Service" as CHUB
    participant "CHUB DB" as DB

CR->APIGEE: Authenticate
    note over CR #aqua
        jwT access token
    end note
APIGEE-->CR: Access token

note over CR #Yellow
  no data encryption required
  for this api
end note

CR->APIGEE:/customer-profile/v1/individual-customers/customer/credit-profile PUT
    note left #aqua
    1.  request header
        *applicationId (mandatory)
        *activityId (mandatory)
    2.  in request:
        *ccid (mandatory)
        *credit class
        *credit ref id
        *credit ref source (FICO)
        *credit consent indicator
        *credit consent date
    end note
    
APIGEE->CD:/customer-profile/v1/individual-customers/customer/credit-profile PUT
CD->APIGEE: validate jwT access token
APIGEE-->CD: validation response

alt Access Token not valid
    CD-->APIGEE: Error 401 unauthorized
    APIGEE-->CR: Error 401 unauthorized
end

CD->CD: decrypt request payload

CD->CD: request validations (mandatory elements, etc.)
alt request validation failed
    CD-->APIGEE: Error 400 BAD Request
    APIGEE-->CR:  Error 400 BAD Request
end
    
CD->CHUB: update CHUB credit info
CHUB->DB: update customer's credit details

CHUB-->CD: update CHUB response
CD->CD: encrypt response payload

CD-->APIGEE: updateIndividualCustomerCreditProfileResponse
APIGEE-->CR:updateIndividualCustomerCreditProfileResponse

@enduml