{
    "swagger": "2.0",
    "info": {
        "title": "Cim",
        "description": "This service support the use of the Cim Inbound resources. an user defined resource",
        "version": "1.0.0",
        "contact": {
            "name": "shilpa",
            "url": "http://www.t-mobile.com",
            "email": "shilpa.beerelli1@t-mobile.com"
        },
        "license": {
            "name": "Proprietary software",
            "url": "https://en.wikipedia.org/wiki/Proprietary_software"
        },
        "termsOfService": "https://www.t-mobile.com/templates/popup.aspx?PAsset=Ftr_Ftr_TermsAndConditions",
        "x-createdBy": {
            "dateCreated": "Mon Mar 25 07:22:18 2019",
            "createdBy": "sgunase1",
            "application": "Recite",
            "appVersion": "1.0.0.2891",
            "documentId": "e5810c05-9a90-426b-809d-209e1cdb3cc3",
            "status": "Conceptual - Initial",
            "classification": "7.1 Manage Billable Events",
            "profile": "Core Business Capability Service",
            "serviceLayer": "Enterprise - Billing"
        }
    },
    "x-servers": [
        {
            "url": "https://api.t-mobile.com",
            "description": "Prod"
        }
    ],
    "tags": [
        {
            "name": "cimNotification",
            "description": "Create a cimNotificationRequest resource and add it to the collection."
        },
        {
            "name": "queryCIM",
            "description": "Create a queryCimRequest resource and add it to the collection."
        }
    ],
    "host": "api.t-mobile.com",
    "basePath": "/wholesale/v1/cim",
    "schemes": [
        "https"
    ],
    "paths": {
        "/": {
            "post": {
                "tags": [
                    "queryCIM"
                ],
                "x-api-pattern": "CreateInCollection",
                "summary": "A post for the queryCimRequest resource using Digital Archecture's CreateInCollection pattern.",
                "description": "Create a queryCimRequest resource and add it to the collection.",
                "operationId": "queryCIM",
                "consumes": [
                    "application/json",
                    "application/xml"
                ],
                "produces": [
                    "application/json",
                    "application/xml"
                ],
                "parameters": [
                    {
                        "name": "queryCimRequest",
                        "in": "body",
                        "description": "queryCimRequest",
                        "required": true,
                        "schema": {
                            "$ref": "#/definitions/QueryCimRequest"
                        }
                    },
                    {
                        "name": "Accept",
                        "in": "header",
                        "description": "Preferred content type _ default to application/json",
                        "x-example": "application/json",
                        "required": false,
                        "type": "string",
                        "minLength": 1,
                        "maxLength": 256,
                        "pattern": "^[ \\S]+$"
                    },
                    {
                        "name": "Authorization",
                        "in": "header",
                        "description": "The HTTP Authorization request header contains the credentials to authenticate a user agent with a server.",
                        "x-example": "Bearer mF_9.B5f-4.1JqM",
                        "required": true,
                        "type": "string",
                        "minLength": 1,
                        "maxLength": 256,
                        "pattern": "^[\\S ]+$"
                    },
                    {
                        "name": "Content-Type",
                        "in": "header",
                        "description": "The MIME type of this content",
                        "x-example": "text/xml",
                        "required": true,
                        "type": "string",
                        "minLength": 1,
                        "maxLength": 256,
                        "pattern": "^[ \\S]+$"
                    },
                    {
                        "name": "Date",
                        "in": "header",
                        "description": "The Date general HTTP header contains the date and time at which the message was originated.",
                        "x-example": "Mon, 05 Mar 2018 16:38:08 GMT",
                        "required": false,
                        "type": "string",
                        "format": "date-time",
                        "pattern": "^(Mon|Tue|Wed|Thu|Fri|Sat|Sun), [0-3]{1}[0-9]{1} (Jan|Feb|Mar|Apr|May|Jun|Jul|Aug|Sep|Oct|Nov|Dec) [1-3][0-9]{3} [0-2][0-9]:[0-6][0-9]:[0-6][0-9] GMT$"
                    },
                    {
                        "name": "activity-id",
                        "in": "header",
                        "description": "Unique id alphanumeric value generated and sent by the partner to identify every the service request uniquely. Sample: XyzA:D1s5s1i-X6AFRvfiPBfs-1234  Pass as is to downstream calls.",
                        "x-example": "c34e7acd-384b-4c22-8b02-ba3963682508",
                        "required": false,
                        "type": "string",
                        "minLength": 1,
                        "maxLength": 256,
                        "pattern": "^[\\S]*$"
                    },
                    {
                        "name": "authorization-idp",
                        "in": "header",
                        "description": "API chain initiating callers access token",
                        "x-example": "c34e7acd-384b-4c22-8b02-ba3963682508",
                        "required": false,
                        "type": "string",
                        "minLength": 1,
                        "maxLength": 256,
                        "pattern": "^[\\S]*$"
                    },
                    {
                        "name": "call-back-location",
                        "in": "header",
                        "description": "The partner system endpoint URL for sending the asynchronous response back. Required if partner needs the asynchronous response backNeeds to be a pre-configured URL for a partner",
                        "x-example": "http://api.t-mo.com/order-mgmt/v1/orders/123xyz-0/status",
                        "required": false,
                        "type": "string"
                    },
                    {
                        "name": "channel-id",
                        "in": "header",
                        "description": "Categorization of access or business stream",
                        "x-example": "IVR",
                        "required": true,
                        "type": "string",
                        "minLength": 1,
                        "maxLength": 256,
                        "pattern": "^[\\S]*$"
                    },
                    {
                        "name": "interaction-id",
                        "in": "header",
                        "description": "Alphanumeric value represent a common transaction id across all calls made from UI, while completing all business activity needs of a particular customer.",
                        "x-example": "cc688d54-50d1-49d4-8c5d-95459d1172e8",
                        "required": false,
                        "type": "string",
                        "minLength": 1,
                        "maxLength": 256,
                        "pattern": "^[\\S]*$"
                    },
                    {
                        "name": "partner-id",
                        "in": "header",
                        "description": "The related business partner or T-Mobile organization",
                        "x-example": "QVXP",
                        "required": false,
                        "type": "string",
                        "minLength": 1,
                        "maxLength": 256,
                        "pattern": "^[\\S]*$"
                    },
                    {
                        "name": "partner-transaction-id",
                        "in": "header",
                        "description": "Request ID echoed back by server",
                        "x-example": "23409209723",
                        "required": false,
                        "type": "string",
                        "minLength": 1,
                        "maxLength": 256,
                        "pattern": "^[\\S]*$"
                    },
                    {
                        "name": "sender-id",
                        "in": "header",
                        "description": "The related business partner or T-Mobile organization",
                        "x-example": "QVXP",
                        "required": false,
                        "type": "string",
                        "minLength": 1,
                        "maxLength": 256,
                        "pattern": "^[\\S]*$"
                    },
                    {
                        "name": "service-transaction-id",
                        "in": "header",
                        "description": "Request ID echoed back by server",
                        "x-example": "23409209723",
                        "required": false,
                        "type": "string",
                        "minLength": 1,
                        "maxLength": 256,
                        "pattern": "^[\\S]*$"
                    },
                    {
                        "name": "session-id",
                        "in": "header",
                        "description": "A value populated by the sender used to track the transactions that occur during a session, a long-lasting interaction that ismaintained by the sender.",
                        "x-example": "350b91ec-4a64-4b10-a3f3-a78c8db3924a",
                        "required": false,
                        "type": "string",
                        "minLength": 1,
                        "maxLength": 256,
                        "pattern": "^[\\S]*$"
                    },
                    {
                        "name": "timestamp",
                        "in": "header",
                        "description": "ms since 1/1/70 adjusted to GMT",
                        "x-example": "1524599536",
                        "required": false,
                        "type": "integer",
                        "format": "int64",
                        "minimum": 0,
                        "maximum": 999999999999,
                        "pattern": "^[\\d]*$"
                    },
                    {
                        "name": "tmo-authorization",
                        "in": "header",
                        "description": "Contains Proof of Possession token generated by API caller",
                        "x-example": "c34e7acd-384b-4c22-8b02-ba3963682508",
                        "required": false,
                        "type": "string",
                        "minLength": 1,
                        "maxLength": 256,
                        "pattern": "^[\\S ]*$"
                    },
                    {
                        "name": "user-id",
                        "in": "header",
                        "description": "NT id of the one who is managing the transaction from CARE/RETAIL channels.",
                        "x-example": "Deprecated Header",
                        "required": false,
                        "type": "string",
                        "minLength": 1,
                        "maxLength": 256,
                        "pattern": "^[\\S ]*$"
                    },
                    {
                        "name": "workflow-id",
                        "in": "header",
                        "description": "Business Use Case",
                        "x-example": "ACTIVATION",
                        "required": false,
                        "type": "string",
                        "minLength": 1,
                        "maxLength": 256,
                        "pattern": "^[\\S]*$"
                    }
                ],
                "responses": {
                    "200": {
                        "description": "Success",
                        "schema": {
                            "$ref": "#/definitions/QueryCimResponse"
                        },
                        "headers": {
                            "Cache-Control": {
                                "description": "Cache policy supported for the resource by the server",
                                "x-example": "no-cache",
                                "type": "string",
                                "minLength": 1,
                                "maxLength": 256,
                                "pattern": "^[\\S]*$"
                            },
                            "Content-Length": {
                                "description": "Length of the response body in octets; not supported if Transfer-Endoding = chunked",
                                "x-example": "9112300000003",
                                "type": "integer",
                                "format": "int64",
                                "minimum": 0,
                                "pattern": "^[\\d]*$"
                            },
                            "Content-Type": {
                                "description": "The MIME type of this content",
                                "x-example": "text/xml",
                                "type": "string",
                                "minLength": 1,
                                "maxLength": 256,
                                "pattern": "^[ \\S]+$"
                            },
                            "Date": {
                                "description": "The Date general HTTP header contains the date and time at which the message was originated.",
                                "x-example": "Mon, 05 Mar 2018 16:38:08 GMT",
                                "type": "string",
                                "format": "date-time",
                                "pattern": "^(Mon|Tue|Wed|Thu|Fri|Sat|Sun), [0-3]{1}[0-9]{1} (Jan|Feb|Mar|Apr|May|Jun|Jul|Aug|Sep|Oct|Nov|Dec) [1-3][0-9]{3} [0-2][0-9]:[0-6][0-9]:[0-6][0-9] GMT$"
                            },
                            "ETag": {
                                "description": "The ETag header specifies the unique entity tag value for the returned resource.",
                                "x-example": "*",
                                "type": "string",
                                "minLength": 1,
                                "maxLength": 256,
                                "pattern": "^[\\S]*$"
                            },
                            "Location": {
                                "description": "The Location header specifies the URI of a created resource, or redirects the API consumer to an alternate resource location.",
                                "x-example": "http://api.t-mo.com/order-mgmt/v1/orders/123xyz-0/status",
                                "type": "string",
                                "minLength": 1,
                                "maxLength": 65536,
                                "pattern": "^[\\S]*$"
                            },
                            "Transfer-Encoding": {
                                "description": "The form of encoding used to safely transfer the entity to the user. Currently defined methods are: chunked, compress, deflate, gzip, identity.",
                                "x-example": "chunked",
                                "type": "string",
                                "minLength": 1,
                                "maxLength": 15,
                                "pattern": "^[\\S]*$"
                            },
                            "partner-transaction-id": {
                                "description": "Request ID echoed back by server",
                                "x-example": "23409209723",
                                "type": "string",
                                "minLength": 1,
                                "maxLength": 256,
                                "pattern": "^[\\S]*$"
                            },
                            "service-transaction-id": {
                                "description": "Request ID echoed back by server",
                                "x-example": "23409209723",
                                "type": "string",
                                "minLength": 1,
                                "maxLength": 256,
                                "pattern": "^[\\S]*$"
                            },
                            "work-flow-id": {
                                "description": "Business Use Case",
                                "x-example": "ACTIVATION",
                                "type": "string",
                                "minLength": 1,
                                "maxLength": 256,
                                "pattern": "^[\\S]*$"
                            }
                        }
                    },
                    "400": {
                        "description": "Bad Request",
                        "schema": {
                            "type": "array",
                            "description": "An array of error objects.",
                            "minItems": 1,
                            "items": {
                                "$ref": "#/definitions/Error"
                            }
                        },
                        "examples": {
                            "application/json": {
                                "code": "400",
                                "userMessage": "Bad Request",
                                "systemMessage": "Bad Request",
                                "detailLink": "http://www.tmus.com"
                            }
                        },
                        "headers": {
                            "service-transaction-id": {
                                "description": "Request ID echoed back by server",
                                "x-example": "23409209723",
                                "type": "string",
                                "minLength": 1,
                                "maxLength": 256,
                                "pattern": "^[\\S]*$"
                            },
                            "work-flow-id": {
                                "description": "Business Use Case",
                                "x-example": "ACTIVATION",
                                "type": "string",
                                "minLength": 1,
                                "maxLength": 256,
                                "pattern": "^[\\S]*$"
                            }
                        }
                    },
                    "401": {
                        "description": "Unauthorized",
                        "schema": {
                            "type": "array",
                            "description": "An array of error objects.",
                            "minItems": 1,
                            "items": {
                                "$ref": "#/definitions/Error"
                            }
                        },
                        "examples": {
                            "application/json": {
                                "code": "401",
                                "userMessage": "Unauthorized",
                                "systemMessage": "Unauthorized",
                                "detailLink": "http://www.tmus.com"
                            }
                        },
                        "headers": {
                            "service-transaction-id": {
                                "description": "Request ID echoed back by server",
                                "x-example": "23409209723",
                                "type": "string",
                                "minLength": 1,
                                "maxLength": 256,
                                "pattern": "^[\\S]*$"
                            },
                            "work-flow-id": {
                                "description": "Business Use Case",
                                "x-example": "ACTIVATION",
                                "type": "string",
                                "minLength": 1,
                                "maxLength": 256,
                                "pattern": "^[\\S]*$"
                            }
                        }
                    },
                    "403": {
                        "description": "Client access denied",
                        "schema": {
                            "type": "array",
                            "description": "An array of error objects.",
                            "minItems": 1,
                            "items": {
                                "$ref": "#/definitions/Error"
                            }
                        },
                        "examples": {
                            "application/json": {
                                "code": "403",
                                "userMessage": "Client access denied",
                                "systemMessage": "Client access denied",
                                "detailLink": "http://www.tmus.com"
                            }
                        },
                        "headers": {
                            "service-transaction-id": {
                                "description": "Request ID echoed back by server",
                                "x-example": "23409209723",
                                "type": "string",
                                "minLength": 1,
                                "maxLength": 256,
                                "pattern": "^[\\S]*$"
                            },
                            "work-flow-id": {
                                "description": "Business Use Case",
                                "x-example": "ACTIVATION",
                                "type": "string",
                                "minLength": 1,
                                "maxLength": 256,
                                "pattern": "^[\\S]*$"
                            }
                        }
                    },
                    "404": {
                        "description": "Resource not found",
                        "schema": {
                            "type": "array",
                            "description": "An array of error objects.",
                            "minItems": 1,
                            "items": {
                                "$ref": "#/definitions/Error"
                            }
                        },
                        "examples": {
                            "application/json": {
                                "code": "404",
                                "userMessage": "Resource not found",
                                "systemMessage": "Resource not found",
                                "detailLink": "http://www.tmus.com"
                            }
                        },
                        "headers": {
                            "service-transaction-id": {
                                "description": "Request ID echoed back by server",
                                "x-example": "23409209723",
                                "type": "string",
                                "minLength": 1,
                                "maxLength": 256,
                                "pattern": "^[\\S]*$"
                            },
                            "work-flow-id": {
                                "description": "Business Use Case",
                                "x-example": "ACTIVATION",
                                "type": "string",
                                "minLength": 1,
                                "maxLength": 256,
                                "pattern": "^[\\S]*$"
                            }
                        }
                    },
                    "405": {
                        "description": "Method Not Allowed",
                        "schema": {
                            "type": "array",
                            "description": "An array of error objects.",
                            "minItems": 1,
                            "items": {
                                "$ref": "#/definitions/Error"
                            }
                        },
                        "examples": {
                            "application/json": {
                                "code": "405",
                                "userMessage": "Method Not Allowed",
                                "systemMessage": "Method Not Allowed",
                                "detailLink": "http://www.tmus.com"
                            }
                        },
                        "headers": {
                            "Allow": {
                                "description": "list of supported methods for URI",
                                "x-example": "GET",
                                "type": "string",
                                "minLength": 1,
                                "maxLength": 256,
                                "pattern": "^[\\S]*$"
                            },
                            "service-transaction-id": {
                                "description": "Request ID echoed back by server",
                                "x-example": "23409209723",
                                "type": "string",
                                "minLength": 1,
                                "maxLength": 256,
                                "pattern": "^[\\S]*$"
                            },
                            "work-flow-id": {
                                "description": "Business Use Case",
                                "x-example": "ACTIVATION",
                                "type": "string",
                                "minLength": 1,
                                "maxLength": 256,
                                "pattern": "^[\\S]*$"
                            }
                        }
                    },
                    "406": {
                        "description": "Mismatching data format",
                        "schema": {
                            "type": "array",
                            "description": "An array of error objects.",
                            "minItems": 1,
                            "items": {
                                "$ref": "#/definitions/Error"
                            }
                        },
                        "examples": {
                            "application/json": {
                                "code": "406",
                                "userMessage": "Mismatching data format",
                                "systemMessage": "Mismatching data format",
                                "detailLink": "http://www.tmus.com"
                            }
                        },
                        "headers": {
                            "service-transaction-id": {
                                "description": "Request ID echoed back by server",
                                "x-example": "23409209723",
                                "type": "string",
                                "minLength": 1,
                                "maxLength": 256,
                                "pattern": "^[\\S]*$"
                            },
                            "work-flow-id": {
                                "description": "Business Use Case",
                                "x-example": "ACTIVATION",
                                "type": "string",
                                "minLength": 1,
                                "maxLength": 256,
                                "pattern": "^[\\S]*$"
                            }
                        }
                    },
                    "409": {
                        "description": "Invalid data",
                        "schema": {
                            "type": "array",
                            "description": "An array of error objects.",
                            "minItems": 1,
                            "items": {
                                "$ref": "#/definitions/Error"
                            }
                        },
                        "examples": {
                            "application/json": {
                                "code": "409",
                                "userMessage": "Invalid data",
                                "systemMessage": "Invalid data",
                                "detailLink": "http://www.tmus.com"
                            }
                        },
                        "headers": {
                            "service-transaction-id": {
                                "description": "Request ID echoed back by server",
                                "x-example": "23409209723",
                                "type": "string",
                                "minLength": 1,
                                "maxLength": 256,
                                "pattern": "^[\\S]*$"
                            },
                            "work-flow-id": {
                                "description": "Business Use Case",
                                "x-example": "ACTIVATION",
                                "type": "string",
                                "minLength": 1,
                                "maxLength": 256,
                                "pattern": "^[\\S]*$"
                            }
                        }
                    },
                    "415": {
                        "description": "Unsupported Media Type",
                        "schema": {
                            "type": "array",
                            "description": "An array of error objects.",
                            "minItems": 1,
                            "items": {
                                "$ref": "#/definitions/Error"
                            }
                        },
                        "examples": {
                            "application/json": {
                                "code": "415",
                                "userMessage": "Unsupported Media Type",
                                "systemMessage": "Unsupported Media Type",
                                "detailLink": "http://www.tmus.com"
                            }
                        },
                        "headers": {
                            "service-transaction-id": {
                                "description": "Request ID echoed back by server",
                                "x-example": "23409209723",
                                "type": "string",
                                "minLength": 1,
                                "maxLength": 256,
                                "pattern": "^[\\S]*$"
                            },
                            "work-flow-id": {
                                "description": "Business Use Case",
                                "x-example": "ACTIVATION",
                                "type": "string",
                                "minLength": 1,
                                "maxLength": 256,
                                "pattern": "^[\\S]*$"
                            }
                        }
                    },
                    "500": {
                        "description": "System Error",
                        "schema": {
                            "type": "array",
                            "description": "An array of error objects.",
                            "minItems": 1,
                            "items": {
                                "$ref": "#/definitions/Error"
                            }
                        },
                        "examples": {
                            "application/json": {
                                "code": "500",
                                "userMessage": "System Error",
                                "systemMessage": "System Error",
                                "detailLink": "http://www.tmus.com"
                            }
                        },
                        "headers": {
                            "service-transaction-id": {
                                "description": "Request ID echoed back by server",
                                "x-example": "23409209723",
                                "type": "string",
                                "minLength": 1,
                                "maxLength": 256,
                                "pattern": "^[\\S]*$"
                            },
                            "work-flow-id": {
                                "description": "Business Use Case",
                                "x-example": "ACTIVATION",
                                "type": "string",
                                "minLength": 1,
                                "maxLength": 256,
                                "pattern": "^[\\S]*$"
                            }
                        }
                    },
                    "503": {
                        "description": "Service unavailable",
                        "schema": {
                            "type": "array",
                            "description": "An array of error objects.",
                            "minItems": 1,
                            "items": {
                                "$ref": "#/definitions/Error"
                            }
                        },
                        "examples": {
                            "application/json": {
                                "code": "503",
                                "userMessage": "Service unavailable",
                                "systemMessage": "Service unavailable",
                                "detailLink": "http://www.tmus.com"
                            }
                        },
                        "headers": {
                            "service-transaction-id": {
                                "description": "Request ID echoed back by server",
                                "x-example": "23409209723",
                                "type": "string",
                                "minLength": 1,
                                "maxLength": 256,
                                "pattern": "^[\\S]*$"
                            },
                            "work-flow-id": {
                                "description": "Business Use Case",
                                "x-example": "ACTIVATION",
                                "type": "string",
                                "minLength": 1,
                                "maxLength": 256,
                                "pattern": "^[\\S]*$"
                            }
                        }
                    }
                },
                "security": [
                    {
                        "oauth": [
                            "scope"
                        ]
                    }
                ]
            }
        },
        "/notification": {
            "post": {
                "tags": [
                    "cimNotification"
                ],
                "x-api-pattern": "CreateInCollection",
                "summary": "A post for the cimNotificationRequest resource using Digital Archecture's CreateInCollection pattern.",
                "description": "Create a cimNotificationRequest resource and add it to the collection.",
                "operationId": "cimNotification",
                "consumes": [
                    "application/json",
                    "application/xml"
                ],
                "produces": [
                    "application/json",
                    "application/xml"
                ],
                "parameters": [
                    {
                        "name": "cimNotificationRequest",
                        "in": "body",
                        "description": "cimNotificationRequest",
                        "required": true,
                        "schema": {
                            "$ref": "#/definitions/CimNotificationRequest"
                        }
                    },
                    {
                        "name": "Accept",
                        "in": "header",
                        "description": "Preferred content type _ default to application/json",
                        "x-example": "application/json",
                        "required": true,
                        "type": "string",
                        "minLength": 1,
                        "maxLength": 256,
                        "pattern": "^[ \\S]+$"
                    },
                    {
                        "name": "Authorization",
                        "in": "header",
                        "description": "The HTTP Authorization request header contains the credentials to authenticate a user agent with a server.",
                        "x-example": "Bearer mF_9.B5f-4.1JqM",
                        "required": false,
                        "type": "string",
                        "minLength": 1,
                        "maxLength": 256,
                        "pattern": "^[\\S ]+$"
                    },
                    {
                        "name": "Content-Type",
                        "in": "header",
                        "description": "The MIME type of this content",
                        "x-example": "text/xml",
                        "required": true,
                        "type": "string",
                        "minLength": 1,
                        "maxLength": 256,
                        "pattern": "^[ \\S]+$"
                    },
                    {
                        "name": "Date",
                        "in": "header",
                        "description": "The Date general HTTP header contains the date and time at which the message was originated.",
                        "x-example": "Mon, 05 Mar 2018 16:38:08 GMT",
                        "required": false,
                        "type": "string",
                        "format": "date-time",
                        "pattern": "^(Mon|Tue|Wed|Thu|Fri|Sat|Sun), [0-3]{1}[0-9]{1} (Jan|Feb|Mar|Apr|May|Jun|Jul|Aug|Sep|Oct|Nov|Dec) [1-3][0-9]{3} [0-2][0-9]:[0-6][0-9]:[0-6][0-9] GMT$"
                    },
                    {
                        "name": "activity-id",
                        "in": "header",
                        "description": "Unique id alphanumeric value generated and sent by the partner to identify every the service request uniquely. Sample: XyzA:D1s5s1i-X6AFRvfiPBfs-1234  Pass as is to downstream calls.",
                        "x-example": "c34e7acd-384b-4c22-8b02-ba3963682508",
                        "required": false,
                        "type": "string",
                        "minLength": 1,
                        "maxLength": 256,
                        "pattern": "^[\\S]*$"
                    },
                    {
                        "name": "authorization-idp",
                        "in": "header",
                        "description": "API chain initiating callers access token",
                        "x-example": "c34e7acd-384b-4c22-8b02-ba3963682508",
                        "required": false,
                        "type": "string",
                        "minLength": 1,
                        "maxLength": 256,
                        "pattern": "^[\\S]*$"
                    },
                    {
                        "name": "call-back-location",
                        "in": "header",
                        "description": "The partner system endpoint URL for sending the asynchronous response back. Required if partner needs the asynchronous response backNeeds to be a pre-configured URL for a partner",
                        "x-example": "http://api.t-mo.com/order-mgmt/v1/orders/123xyz-0/status",
                        "required": false,
                        "type": "string"
                    },
                    {
                        "name": "interaction-id",
                        "in": "header",
                        "description": "Alphanumeric value represent a common transaction id across all calls made from UI, while completing all business activity needs of a particular customer.",
                        "x-example": "cc688d54-50d1-49d4-8c5d-95459d1172e8",
                        "required": false,
                        "type": "string",
                        "minLength": 1,
                        "maxLength": 256,
                        "pattern": "^[\\S]*$"
                    },
                    {
                        "name": "partner-transaction-id",
                        "in": "header",
                        "description": "Request ID echoed back by server",
                        "x-example": "23409209723",
                        "required": false,
                        "type": "string",
                        "minLength": 1,
                        "maxLength": 256,
                        "pattern": "^[\\S]*$"
                    },
                    {
                        "name": "service-transaction-id",
                        "in": "header",
                        "description": "Request ID echoed back by server",
                        "x-example": "23409209723",
                        "required": false,
                        "type": "string",
                        "minLength": 1,
                        "maxLength": 256,
                        "pattern": "^[\\S]*$"
                    },
                    {
                        "name": "session-id",
                        "in": "header",
                        "description": "A value populated by the sender used to track the transactions that occur during a session, a long-lasting interaction that ismaintained by the sender.",
                        "x-example": "350b91ec-4a64-4b10-a3f3-a78c8db3924a",
                        "required": false,
                        "type": "string",
                        "minLength": 1,
                        "maxLength": 256,
                        "pattern": "^[\\S]*$"
                    },
                    {
                        "name": "timestamp",
                        "in": "header",
                        "description": "ms since 1/1/70 adjusted to GMT",
                        "x-example": "1524599536",
                        "required": false,
                        "type": "integer",
                        "format": "int64",
                        "minimum": 0,
                        "maximum": 999999999999,
                        "pattern": "^[\\d]*$"
                    },
                    {
                        "name": "tmo-authorization",
                        "in": "header",
                        "description": "Contains Proof of Possession token generated by API caller",
                        "x-example": "c34e7acd-384b-4c22-8b02-ba3963682508",
                        "required": false,
                        "type": "string",
                        "minLength": 1,
                        "maxLength": 256,
                        "pattern": "^[\\S ]*$"
                    },
                    {
                        "name": "user-id",
                        "in": "header",
                        "description": "NT id of the one who is managing the transaction from CARE/RETAIL channels.",
                        "x-example": "Deprecated Header",
                        "required": true,
                        "type": "string",
                        "minLength": 1,
                        "maxLength": 256,
                        "pattern": "^[\\S ]*$"
                    },
                    {
                        "name": "workflow-id",
                        "in": "header",
                        "description": "Business Use Case",
                        "x-example": "ACTIVATION",
                        "required": false,
                        "type": "string",
                        "minLength": 1,
                        "maxLength": 256,
                        "pattern": "^[\\S]*$"
                    }
                ],
                "responses": {
                    "200": {
                        "description": "Success",
                        "schema": {
                            "$ref": "#/definitions/CimNotificationResponse"
                        },
                        "headers": {
                            "Cache-Control": {
                                "description": "Cache policy supported for the resource by the server",
                                "x-example": "no-cache",
                                "type": "string",
                                "minLength": 1,
                                "maxLength": 256,
                                "pattern": "^[\\S]*$"
                            },
                            "Content-Length": {
                                "description": "Length of the response body in octets; not supported if Transfer-Endoding = chunked",
                                "x-example": "9112300000003",
                                "type": "integer",
                                "format": "int64",
                                "minimum": 0,
                                "pattern": "^[\\d]*$"
                            },
                            "Content-Type": {
                                "description": "The MIME type of this content",
                                "x-example": "text/xml",
                                "type": "string",
                                "minLength": 1,
                                "maxLength": 256,
                                "pattern": "^[ \\S]+$"
                            },
                            "Date": {
                                "description": "The Date general HTTP header contains the date and time at which the message was originated.",
                                "x-example": "Mon, 05 Mar 2018 16:38:08 GMT",
                                "type": "string",
                                "format": "date-time",
                                "pattern": "^(Mon|Tue|Wed|Thu|Fri|Sat|Sun), [0-3]{1}[0-9]{1} (Jan|Feb|Mar|Apr|May|Jun|Jul|Aug|Sep|Oct|Nov|Dec) [1-3][0-9]{3} [0-2][0-9]:[0-6][0-9]:[0-6][0-9] GMT$"
                            },
                            "ETag": {
                                "description": "The ETag header specifies the unique entity tag value for the returned resource.",
                                "x-example": "*",
                                "type": "string",
                                "minLength": 1,
                                "maxLength": 256,
                                "pattern": "^[\\S]*$"
                            },
                            "Location": {
                                "description": "The Location header specifies the URI of a created resource, or redirects the API consumer to an alternate resource location.",
                                "x-example": "http://api.t-mo.com/order-mgmt/v1/orders/123xyz-0/status",
                                "type": "string",
                                "minLength": 1,
                                "maxLength": 65536,
                                "pattern": "^[\\S]*$"
                            },
                            "Transfer-Encoding": {
                                "description": "The form of encoding used to safely transfer the entity to the user. Currently defined methods are: chunked, compress, deflate, gzip, identity.",
                                "x-example": "chunked",
                                "type": "string",
                                "minLength": 1,
                                "maxLength": 15,
                                "pattern": "^[\\S]*$"
                            },
                            "partner-transaction-id": {
                                "description": "Request ID echoed back by server",
                                "x-example": "23409209723",
                                "type": "string",
                                "minLength": 1,
                                "maxLength": 256,
                                "pattern": "^[\\S]*$"
                            },
                            "service-transaction-id": {
                                "description": "Request ID echoed back by server",
                                "x-example": "23409209723",
                                "type": "string",
                                "minLength": 1,
                                "maxLength": 256,
                                "pattern": "^[\\S]*$"
                            },
                            "work-flow-id": {
                                "description": "Business Use Case",
                                "x-example": "ACTIVATION",
                                "type": "string",
                                "minLength": 1,
                                "maxLength": 256,
                                "pattern": "^[\\S]*$"
                            }
                        }
                    },
                    "400": {
                        "description": "Bad Request",
                        "schema": {
                            "$ref": "#/definitions/Error"
                        },
                        "examples": {
                            "application/json": {
                                "code": "400",
                                "userMessage": "Bad Request",
                                "systemMessage": "Bad Request",
                                "detailLink": "http://www.tmus.com"
                            }
                        },
                        "headers": {}
                    },
                    "401": {
                        "description": "Unauthorized",
                        "schema": {
                            "$ref": "#/definitions/Error"
                        },
                        "examples": {
                            "application/json": {
                                "code": "401",
                                "userMessage": "Unauthorized",
                                "systemMessage": "Unauthorized",
                                "detailLink": "http://www.tmus.com"
                            }
                        },
                        "headers": {}
                    },
                    "403": {
                        "description": "Client access denied",
                        "schema": {
                            "$ref": "#/definitions/Error"
                        },
                        "examples": {
                            "application/json": {
                                "code": "403",
                                "userMessage": "Client access denied",
                                "systemMessage": "Client access denied",
                                "detailLink": "http://www.tmus.com"
                            }
                        },
                        "headers": {}
                    },
                    "404": {
                        "description": "Resource not found",
                        "schema": {
                            "$ref": "#/definitions/Error"
                        },
                        "examples": {
                            "application/json": {
                                "code": "404",
                                "userMessage": "Resource not found",
                                "systemMessage": "Resource not found",
                                "detailLink": "http://www.tmus.com"
                            }
                        },
                        "headers": {}
                    },
                    "405": {
                        "description": "Method Not Allowed",
                        "schema": {
                            "$ref": "#/definitions/Error"
                        },
                        "examples": {
                            "application/json": {
                                "code": "405",
                                "userMessage": "Method Not Allowed",
                                "systemMessage": "Method Not Allowed",
                                "detailLink": "http://www.tmus.com"
                            }
                        },
                        "headers": {
                            "Allow": {
                                "description": "list of supported methods for URI",
                                "x-example": "GET",
                                "type": "string",
                                "minLength": 1,
                                "maxLength": 256,
                                "pattern": "^[\\S]*$"
                            },
                            "service-transaction-id": {
                                "description": "Request ID echoed back by server",
                                "x-example": "23409209723",
                                "type": "string",
                                "minLength": 1,
                                "maxLength": 256,
                                "pattern": "^[\\S]*$"
                            }
                        }
                    },
                    "406": {
                        "description": "Mismatching data format",
                        "schema": {
                            "$ref": "#/definitions/Error"
                        },
                        "examples": {
                            "application/json": {
                                "code": "406",
                                "userMessage": "Mismatching data format",
                                "systemMessage": "Mismatching data format",
                                "detailLink": "http://www.tmus.com"
                            }
                        },
                        "headers": {}
                    },
                    "409": {
                        "description": "Invalid data",
                        "schema": {
                            "$ref": "#/definitions/Error"
                        },
                        "examples": {
                            "application/json": {
                                "code": "409",
                                "userMessage": "Invalid data",
                                "systemMessage": "Invalid data",
                                "detailLink": "http://www.tmus.com"
                            }
                        },
                        "headers": {}
                    },
                    "415": {
                        "description": "Unsupported Media Type",
                        "schema": {
                            "$ref": "#/definitions/Error"
                        },
                        "examples": {
                            "application/json": {
                                "code": "415",
                                "userMessage": "Unsupported Media Type",
                                "systemMessage": "Unsupported Media Type",
                                "detailLink": "http://www.tmus.com"
                            }
                        },
                        "headers": {}
                    },
                    "500": {
                        "description": "System Error",
                        "schema": {
                            "$ref": "#/definitions/Error"
                        },
                        "examples": {
                            "application/json": {
                                "code": "500",
                                "userMessage": "System Error",
                                "systemMessage": "System Error",
                                "detailLink": "http://www.tmus.com"
                            }
                        },
                        "headers": {}
                    },
                    "503": {
                        "description": "Service unavailable",
                        "schema": {
                            "$ref": "#/definitions/Error"
                        },
                        "examples": {
                            "application/json": {
                                "code": "503",
                                "userMessage": "Service unavailable",
                                "systemMessage": "Service unavailable",
                                "detailLink": "http://www.tmus.com"
                            }
                        },
                        "headers": {}
                    }
                },
                "security": [
                    {
                        "oauth": [
                            "scope"
                        ]
                    }
                ]
            }
        }
    },
    "definitions": {
        "CimNotificationRequest": {
            "description": "cimNotificationRequest",
            "type": "object",
            "properties": {
                "cimNotifications": {
                    "description": "An array of cimNotifications objects.",
                    "type": "array",
                    "items": {
                        "$ref": "#/definitions/CimNotificationRequestCimNotifications"
                    }
                }
            }
        },
        "CimNotificationRequestCimNotifications": {
            "description": "cimNotifications",
            "type": "object",
            "required": [
                "cimId",
                "execWarning",
                "plannedOutage",
                "region"
            ],
            "properties": {
                "pierTicketNumber": {
                    "description": "Unique Ticket reference in reliance Portal.",
                    "type": "integer",
                    "format": "int32",
                    "minimum": -2147483648,
                    "maximum": 2147483647,
                    "pattern": "^[\\-+]?[0-9]+$"
                },
                "marketsAffected": {
                    "description": "An array of marketsAffected objects.",
                    "type": "array",
                    "items": {
                        "type": "string",
                        "description": "A single instance of the marketsAffected object."
                    }
                },
                "servicesAffected": {
                    "description": "An array of servicesAffected objects.",
                    "type": "array",
                    "items": {
                        "type": "string",
                        "description": "A single instance of the servicesAffected object."
                    }
                },
                "locale": {
                    "description": "locale affected due to outage",
                    "type": "string"
                },
                "cimId": {
                    "description": "cimId",
                    "type": "integer",
                    "format": "int32",
                    "pattern": "^[\\-+]?[0-9]+$"
                },
                "summary": {
                    "description": "Brief Summary of the Outage incident",
                    "type": "string"
                },
                "execWarning": {
                    "description": "execWarning",
                    "type": "boolean"
                },
                "description": {
                    "description": "Detailed Description of the Outage incident",
                    "type": "string"
                },
                "plannedOutage": {
                    "description": "plannedOutage",
                    "type": "boolean"
                },
                "startTime": {
                    "description": "Start DateTime of the Time Period",
                    "type": "string",
                    "format": "date-time"
                },
                "region": {
                    "description": "region",
                    "type": "string"
                },
                "endTime": {
                    "description": "End Date Time of the Time Period",
                    "type": "string",
                    "format": "date-time"
                },
                "storesAffected": {
                    "description": "storesAffected",
                    "type": "string"
                },
                "estimatedTimeToResolve": {
                    "description": "Estimated time to resolve the Outage",
                    "type": "string"
                },
                "psapNotified": {
                    "description": "psapNotified",
                    "type": "string"
                },
                "configItem": {
                    "description": "Impacted Site id of Outage",
                    "type": "string"
                },
                "fccReportId": {
                    "description": "fccReportId",
                    "type": "integer",
                    "format": "int32",
                    "pattern": "^[\\-+]?[0-9]+$"
                },
                "teamsEngaged": {
                    "description": "Other teams engaged in resolving the Outage",
                    "type": "string"
                },
                "outageScale": {
                    "description": "outageScale",
                    "type": "string"
                },
                "pierStatus": {
                    "description": "Current status of the Outage.",
                    "type": "string"
                },
                "siteQty3g": {
                    "description": "siteQty3g",
                    "type": "string"
                },
                "siteQty2g": {
                    "description": "siteQty2g",
                    "type": "string"
                },
                "siteQtyLte": {
                    "description": "siteQtyLte",
                    "type": "string"
                },
                "lastUpdatedBy": {
                    "description": "lastUpdatedBy",
                    "type": "string"
                },
                "lastUpdated": {
                    "description": "lastUpdated",
                    "type": "string",
                    "format": "date-time"
                },
                "bigC": {
                    "description": "bigC",
                    "type": "string"
                },
                "littleC": {
                    "description": "littleC",
                    "type": "string"
                },
                "bridgeNumber": {
                    "description": "bridgeNumber",
                    "type": "string"
                },
                "applicationAffected": {
                    "description": "applicationAffected",
                    "type": "string"
                },
                "owner": {
                    "description": "owner",
                    "type": "string"
                }
            }
        },
        "CimNotificationResponse": {
            "description": "cimNotificationResponse",
            "type": "object",
            "properties": {
                "result": {
                    "description": "An array of result objects.",
                    "type": "array",
                    "minItems": 1,
                    "items": {
                        "$ref": "#/definitions/ResultType"
                    }
                }
            }
        },
        "CimNotifications": {
            "description": "cimNotifications",
            "type": "object",
            "properties": {
                "pierTicketNumber": {
                    "description": "Unique Ticket reference in reliance Portal.",
                    "type": "integer",
                    "format": "int32",
                    "minimum": -2147483648,
                    "maximum": 2147483647,
                    "pattern": "^[\\-+]?[0-9]+$"
                },
                "marketsAffected": {
                    "description": "An array of marketsAffected objects.",
                    "type": "array",
                    "items": {
                        "type": "string",
                        "description": "A single instance of the marketsAffected object."
                    }
                },
                "servicesAffected": {
                    "description": "An array of servicesAffected objects.",
                    "type": "array",
                    "items": {
                        "type": "string",
                        "description": "A single instance of the servicesAffected object."
                    }
                },
                "locale": {
                    "description": "locale affected due to outage",
                    "type": "string"
                },
                "summary": {
                    "description": "Brief Summary of the Outage incident",
                    "type": "string"
                },
                "description": {
                    "description": "Detailed Description of the Outage incident",
                    "type": "string"
                },
                "startTime": {
                    "description": "Start DateTime of the Time Period",
                    "type": "string",
                    "format": "date-time"
                },
                "endTime": {
                    "description": "End Date Time of the Time Period",
                    "type": "string",
                    "format": "date-time"
                },
                "estimatedTimeToResolve": {
                    "description": "Estimated time to resolve the Outage",
                    "type": "string"
                },
                "configItem": {
                    "description": "Impacted Site id of Outage",
                    "type": "string"
                },
                "teamsEngaged": {
                    "description": "Other teams engaged in resolving the Outage",
                    "type": "string"
                },
                "pierStatus": {
                    "description": "Current status of the Outage.",
                    "type": "string"
                }
            }
        },
        "Error": {
            "description": "As defined in http://api-standards.apps.px-npe01.cf.t-mobile.com/http/status-codes/error-response-format/",
            "type": "object",
            "required": [
                "code",
                "userMessage"
            ],
            "properties": {
                "code": {
                    "description": "A succinct, domain-specific, human-readable text string to identify the type of error for the given status code",
                    "example": "ProductNotFound",
                    "type": "string"
                },
                "userMessage": {
                    "description": "A human-readable message describing the error.",
                    "example": "Failed to find product.",
                    "type": "string"
                },
                "systemMessage": {
                    "description": "Text that provides a more detailed technical explanation of the error",
                    "example": "PRODUCT_NOT_FOUND",
                    "type": "string"
                },
                "detailLink": {
                    "description": "link to custom information providing greater detail on error or errors",
                    "example": "http://aaa.bbb.ccc/",
                    "type": "string"
                }
            }
        },
        "QueryCimRequest": {
            "description": "queryCimRequest",
            "type": "object",
            "properties": {
                "pierTicketNumber": {
                    "description": "Unique Ticket reference in reliance Portal.",
                    "type": "integer",
                    "format": "int32",
                    "minimum": -2147483648,
                    "maximum": 2147483647,
                    "pattern": "^[\\-+]?[0-9]+$"
                },
                "marketsAffected": {
                    "description": "List of Markets Affected due to outage.",
                    "type": "string"
                },
                "pierStatus": {
                    "description": "Current status of the Outage.",
                    "type": "string"
                },
                "startTime": {
                    "description": "Start DateTime of the Time Period",
                    "type": "string",
                    "format": "date-time"
                },
                "endTime": {
                    "description": "End Date Time of the Time Period",
                    "type": "string",
                    "format": "date-time"
                }
            }
        },
        "QueryCimResponse": {
            "description": "queryCimResponse",
            "type": "object",
            "properties": {
                "cimNotifications": {
                    "description": "An array of cimNotifications objects.",
                    "type": "array",
                    "items": {
                        "$ref": "#/definitions/CimNotifications"
                    }
                },
                "result": {
                    "description": "An array of result objects.",
                    "type": "array",
                    "minItems": 1,
                    "items": {
                        "$ref": "#/definitions/ResultType"
                    }
                }
            }
        },
        "ResultType": {
            "type": "object",
            "description": "ResultType is a predefined object from an igniteXml model - cabinet 1038833257 build 1040635104 key 1040662542",
            "required": [
                "result",
                "status"
            ],
            "properties": {
                "refId": {
                    "description": "ID of an entity for which error has occurred.",
                    "type": "string"
                },
                "refIdType": {
                    "description": "ID of an entity for which error has occurred.",
                    "type": "string"
                },
                "result": {
                    "description": "Indicates Result code of the error, warning, info or 100 for success",
                    "type": "string"
                },
                "resultMsg": {
                    "description": "represents description of the error code",
                    "type": "string"
                },
                "status": {
                    "description": "Overall response status.",
                    "type": "string"
                }
            }
        }
    },
    "securityDefinitions": {
        "oauth": {
            "type": "oauth2",
            "description": "oauth2",
            "tokenUrl": "https://api.t-mobile.com/v1/oauth2/accesstoken?grant_type=client_credentials",
            "flow": "application",
            "scopes": {
                "scope": ""
            }
        }
    },
    "security": [
        {
            "oauth": [
                "scope"
            ]
        }
    ]
}