@startuml
skinparam BoxPadding 30
title NB IoT Data Provisioning Flows: API Interactions: Remove Subscriber from IN
box "Billing" #Lavender
participant Samson
collections Kafka
collections Digital_Billing_API
end box 
box "Engineering/IN" #LightGreen
collections DeleteSubcriber
collections GeneralGet
end box

/' High level flows 
 '/
== Ban/Subscriber Cancellation==
Samson->Kafka: line/Ban cancellation Events
Kafka-> Digital_Billing_API:Digital_Billing_API consume events
group Validate Service Class and Offer details against IN/Samson
Digital_Billing_API->GeneralGet: General Get query Request
GeneralGet-->Digital_Billing_API: General Get query Response
end
group Delete Subscriber from IN
Digital_Billing_API-> DeleteSubcriber: Remove Subscriber from IN on old offfer ID.
DeleteSubcriber-->Digital_Billing_API: Remove Subscriber on old offer Id completed 
end 
Digital_Billing_API-->Kafka: Cancellation completed on IN
Kafka-->Samson: Cancellation completed on IN
==Change Rate plan to NB-IoT non-compatible price plan==
Samson->Kafka: Rate plan change events
Kafka-> Digital_Billing_API:Digital_Billing_API consume events
group Validate Service Class and Offer details against IN/Samson
Digital_Billing_API->GeneralGet: General Get query Request
GeneralGet-->Digital_Billing_API: General Get query Response
end
group Delete Subscriber from IN
Digital_Billing_API-> DeleteSubcriber: Remove Subscriberfrom IN on old offfer ID.
DeleteSubcriber-->Digital_Billing_API: Remove Subscriber on old offer Id completed 
end 
Digital_Billing_API-->Kafka: Remove Subscriber from IN on old offfer ID completed 
Kafka-->Samson: Remove Subscriber from IN on old offfer ID completed
==Change Subscriber along with change Rate plan to NB-IoT non-compatible price plan==
Samson->Kafka: MSISDN change/ Rate plan change events
Kafka-> Digital_Billing_API:Digital_Billing_API consume events
group Validate Service Class and Offer details against IN/Samson
Digital_Billing_API->GeneralGet: General Get query Request
GeneralGet-->Digital_Billing_API: General Get query Response
end
group Delete Subscriber from IN
Digital_Billing_API-> DeleteSubcriber: Remove Subscriber from IN request 
DeleteSubcriber-->Digital_Billing_API: Remove Subscriber from IN response
end 
Digital_Billing_API-->Kafka: Remove Subscriber from in completed 
Kafka-->Samson: Remove Subscriber from in completed 
@enduml