@startuml
skinparam BoxPadding 30
title NB IoT Data Provisioning Flows: API Interactions: Suspension
box "Billing" #Lavender
participant Samson
collections Kafka
collections Digital_Billing_API
end box 
box "Engineering/IN" #LightGreen
collections UpdateOffer
end box

Group Ban/Subscriber Suspension
==Samson Provision Suspension base offer (offer ID 2411110) on IN==
Samson->Kafka: Ban/Subscriber Suspension events 
Kafka-> Digital_Billing_API: Consume Ban/Subsriber Suspension events 
Digital_Billing_API->UpdateOffer:UpdateOffer request
UpdateOffer-->Digital_Billing_API:UpdateOffer response
Digital_Billing_API-->Kafka: Suspension Completed on IN
Kafka-->Samson: Suspension Completed on IN
end 
@enduml
