@startuml
skinparam SequenceMessageAlign left
Actor "METRO" as Source
participant "HAProxy" as Gateway
participant "TIBCOCE" as TIBCOCE
participant "EDA" as EDA

Source -> Gateway : "Client" makes a SOAP call by invoking \n Usage.getRealTimeUsage operation [[https://bitbucket.service.edp.t-mobile.com/projects/EITCODEDOC/repos/flow-documentation/browse/swagger/ce.dsg.dice.metro/UsageService.wsdl WSDL]]
note right: NB sequence diagram not available in Clearwater for this API
	Gateway -> TIBCOCE : Receives request and routes it to TIBCOCE handler \n<Color:green><B>"UsageService.getRealTimeUsage"</B></Color>
		alt if $InvokeEDAOnHTTPS=true()
		group GetRealTimeUsageEDAHTTPS
			TIBCOCE -> EDA : Invoke <color:green><B>"EDA REST API - HTTPSQueryResponse"</B></color> call
			note right: SB sequence diagram not available in Clearwater for this API
			EDA -> TIBCOCE : Return Response to TIBCOCE
		end
		else otherwise
		group GetRealTimeUsageEDAHTTP
			TIBCOCE -> EDA : Invoke <color:green><B>"EDA REST API - QueryUsageRestReference"</B></color> call
			note right: SB sequence diagram not available in Clearwater for this API
			EDA -> TIBCOCE : Return Response to TIBCOCE
		end
end
	TIBCOCE->Gateway : Return Response to Gateway
Gateway->Source : Return Response to Client
@enduml