{
    "swagger": "2.0",
    "info": {
        "title": "Order-Eligibility APIs",
        "description": "Order-Eligibilities API's are used to get eligibility details for order-id",
        "version": "1.0.0",
        "contact": {
            "name": "OM API",
            "email": "P&TOrderManagementAPI@T-Mobile.com"
        },
        "x-createdBy": {
            "dateCreated": "Mon May  6 19:17:10 2019",
            "createdBy": "RavinderReddy",
            "application": "Recite",
            "appVersion": "1.0.0.2891",
            "documentId": "8fa5aa9a-b1de-415b-8046-d43db4aa6f61",
            "igniteContractId": 23214327,
            "status": "Conceptual - Initial",
            "classification": "4.2 Order Creation",
            "profile": "Core Business Capability Service",
            "serviceLayer": "Enterprise - OrderManagement"
        }
    },
    "x-servers": [
        {
            "url": "http://127.0.0.1/",
            "description": "Test Server 1"
        }
    ],
    "tags": [
        {
            "name": "get-orders-eligibility",
            "description": "This API is being used to get the eligibility of the given order by id."
        }
    ],
    "host": "dev01.api.t-mobile.com",
    "basePath": "/ordermanagement/v2/orders-eligibility",
    "schemes": [
        "https"
    ],
    "paths": {
        "/{order-id}/eligibility": {
            "get": {
                "tags": [
                    "get-orders-eligibility"
                ],
                "x-api-pattern": "QueryCollection",
                "summary": "Get Order Eligibility",
                "description": "This API is being used to get the eligibility of the given order by id.",
                "operationId": "get-orders-eligibility",
                "consumes": [
                    "application/json",
                    "application/xml"
                ],
                "produces": [
                    "application/json",
                    "application/xml"
                ],
                "parameters": [
                    {
                        "name": "type",
                        "in": "query",
                        "description": "type",
                        "required": false,
                        "type": "string",
                        "pattern": "^[\\\\S ]+$",
                        "x-example": "eligibility type possible values remorse, cancel, instore-pickup etc"
                    },
                    {
                        "name": "order-id",
                        "in": "path",
                        "description": "orderId",
                        "required": true,
                        "type": "string",
                        "pattern": ".[a-zA-Z0-9_].",
                        "x-example": "order-id should be always alpha numeric string and lenght should be 14"
                    },
                    {
                        "name": "Accept",
                        "in": "header",
                        "description": "Preferred content type _ default to application/json",
                        "x-example": "application/json",
                        "required": false,
                        "type": "string",
                        "minLength": 1,
                        "maxLength": 256,
                        "pattern": "^[ \\S]+$"
                    },
                    {
                        "name": "Accept-Charset",
                        "in": "header",
                        "description": "Character sets that are acceptable.",
                        "x-example": "ISO-8859-1,utf-8;q=0.7,*;q=0.7",
                        "required": false,
                        "type": "string",
                        "minLength": 1,
                        "maxLength": 256,
                        "pattern": "^[\\S ]*$"
                    },
                    {
                        "name": "Accept-Encoding",
                        "in": "header",
                        "description": "List of acceptable encodings. See HTTP compression.",
                        "x-example": "gzip,deflate",
                        "required": false,
                        "type": "string",
                        "minLength": 1,
                        "maxLength": 256,
                        "pattern": "^[\\S ]*$"
                    },
                    {
                        "name": "Accept-Language",
                        "in": "header",
                        "description": "List of acceptable human languages for response",
                        "x-example": "en-us,en;q=0.5",
                        "required": false,
                        "type": "string",
                        "minLength": 1,
                        "maxLength": 256,
                        "pattern": "^[\\S ]*$"
                    },
                    {
                        "name": "Authorization",
                        "in": "header",
                        "description": "The HTTP Authorization request header contains the credentials to authenticate a user agent with a server.",
                        "x-example": "Bearer mF_9.B5f-4.1JqM",
                        "required": true,
                        "type": "string",
                        "minLength": 1,
                        "maxLength": 256,
                        "pattern": "^[\\S ]+$"
                    },
                    {
                        "name": "Cache-Control",
                        "in": "header",
                        "description": "Cache policy supported for the resource by the server",
                        "x-example": "no-cache",
                        "required": false,
                        "type": "string",
                        "minLength": 1,
                        "maxLength": 256,
                        "pattern": "^[\\S]*$"
                    },
                    {
                        "name": "Date",
                        "in": "header",
                        "description": "The Date general HTTP header contains the date and time at which the message was originated.",
                        "x-example": "Mon, 05 Mar 2018 16:38:08 GMT",
                        "required": false,
                        "type": "string",
                        "format": "date-time",
                        "pattern": "^(Mon|Tue|Wed|Thu|Fri|Sat|Sun), [0-3]{1}[0-9]{1} (Jan|Feb|Mar|Apr|May|Jun|Jul|Aug|Sep|Oct|Nov|Dec) [1-3][0-9]{3} [0-2][0-9]:[0-6][0-9]:[0-6][0-9] GMT$"
                    },
                    {
                        "name": "If-Match",
                        "in": "header",
                        "description": "The If-Match header specifies an ETag-related condition to be placed on the execution of a request.  The request will only be executed if the ETag of the requested resource matches one of those specified in the If-Match header.  Because the behavior is complex, the details for usage are provided at http://www.w3.org/Protocols/rfc2616/rfc2616-sec14.html .",
                        "x-example": "*",
                        "required": false,
                        "type": "string",
                        "minLength": 1,
                        "maxLength": 256,
                        "pattern": "^[\\S]*$"
                    },
                    {
                        "name": "If-Modified-Since",
                        "in": "header",
                        "description": "The If-Modified-Since header specifies date-related conditions to be placed on the execution of a request.  The request will only be executed if the requested resource has not been modified since the date-time specified.  Because the behavior is complex, the details for usage are provided at http://www.w3.org/Protocols/rfc2616/rfc2616-sec14.html",
                        "x-example": "Mon, 05 Mar 2018 16:38:08 GMT",
                        "required": false,
                        "type": "string",
                        "format": "date-time",
                        "pattern": "^(Mon|Tue|Wed|Thu|Fri|Sat|Sun), [0-3]{1}[0-9]{1} (Jan|Feb|Mar|Apr|May|Jun|Jul|Aug|Sep|Oct|Nov|Dec) [1-3][0-9]{3} [0-2][0-9]:[0-6][0-9]:[0-6][0-9] GMT$"
                    },
                    {
                        "name": "If-None-Match",
                        "in": "header",
                        "description": "The If-None-Match header specifies an ETag-related condition to be placed on the execution of a request.  The request will NOT be executed if the ETag of the requested resource matches one of those specified in the If-None-Match header.  Because the behavior is complex, the details for usage are provided at http://www.w3.org/Protocols/rfc2616/rfc2616-sec14.html",
                        "x-example": "*",
                        "required": false,
                        "type": "string",
                        "minLength": 1,
                        "maxLength": 256,
                        "pattern": "^[\\S]*$"
                    },
                    {
                        "name": "If-Unmodified-Since",
                        "in": "header",
                        "description": "The If-Unmodified-Since request-header field is used with a method to make it conditional. If the requested resource has not been modified since the time specified in this field, the server SHOULD perform the requested operation as if the If-Unmodified-Since header were not present.If the requested variant has been modified since the specified time, the server MUST NOT perform the requested operation, and MUST return a 412 (Precondition Failed).",
                        "x-example": "Mon, 05 Mar 2018 16:38:08 GMT",
                        "required": false,
                        "type": "string",
                        "format": "date-time",
                        "pattern": "^(Mon|Tue|Wed|Thu|Fri|Sat|Sun), [0-3]{1}[0-9]{1} (Jan|Feb|Mar|Apr|May|Jun|Jul|Aug|Sep|Oct|Nov|Dec) [1-3][0-9]{3} [0-2][0-9]:[0-6][0-9]:[0-6][0-9] GMT$"
                    },
                    {
                        "name": "activity-id",
                        "in": "header",
                        "description": "Unique id alphanumeric value generated and sent by the partner to identify every the service request uniquely. Sample: XyzA:D1s5s1i-X6AFRvfiPBfs-1234  Pass as is to downstream calls.",
                        "x-example": "c34e7acd-384b-4c22-8b02-ba3963682508",
                        "required": false,
                        "type": "string",
                        "minLength": 1,
                        "maxLength": 256,
                        "pattern": "^[\\S]*$"
                    },
                    {
                        "name": "authorization-idp",
                        "in": "header",
                        "description": "API chain initiating callers access token",
                        "x-example": "c34e7acd-384b-4c22-8b02-ba3963682508",
                        "required": false,
                        "type": "string",
                        "minLength": 1,
                        "maxLength": 256,
                        "pattern": "^[\\S]*$"
                    },
                    {
                        "name": "interaction-id",
                        "in": "header",
                        "description": "Alphanumeric value represent a common transaction id across all calls made from UI, while completing all business activity needs of a particular customer.",
                        "x-example": "cc688d54-50d1-49d4-8c5d-95459d1172e8",
                        "required": false,
                        "type": "string",
                        "minLength": 1,
                        "maxLength": 256,
                        "pattern": "^[\\S]*$"
                    },
                    {
                        "name": "service-transaction-id",
                        "in": "header",
                        "description": "Request ID echoed back by server",
                        "x-example": "23409209723",
                        "required": false,
                        "type": "string",
                        "minLength": 1,
                        "maxLength": 256,
                        "pattern": "^[\\S]*$"
                    },
                    {
                        "name": "session-id",
                        "in": "header",
                        "description": "A value populated by the sender used to track the transactions that occur during a session, a long-lasting interaction that ismaintained by the sender.",
                        "x-example": "350b91ec-4a64-4b10-a3f3-a78c8db3924a",
                        "required": false,
                        "type": "string",
                        "minLength": 1,
                        "maxLength": 256,
                        "pattern": "^[\\S]*$"
                    },
                    {
                        "name": "timestamp",
                        "in": "header",
                        "description": "ms since 1/1/70 adjusted to GMT",
                        "x-example": "1524599536",
                        "required": false,
                        "type": "integer",
                        "format": "int64",
                        "minimum": 0,
                        "maximum": 999999999999,
                        "pattern": "^[\\d]*$"
                    },
                    {
                        "name": "tmo-authorization",
                        "in": "header",
                        "description": "Contains Proof of Possession token generated by API caller",
                        "x-example": "c34e7acd-384b-4c22-8b02-ba3963682508",
                        "required": false,
                        "type": "string",
                        "minLength": 1,
                        "maxLength": 256,
                        "pattern": "^[\\S ]*$"
                    },
                    {
                        "name": "workflow-id",
                        "in": "header",
                        "description": "Business Use Case",
                        "x-example": "ACTIVATION",
                        "required": false,
                        "type": "string",
                        "minLength": 1,
                        "maxLength": 256,
                        "pattern": "^[\\S]*$"
                    }
                ],
                "responses": {
                    "200": {
                        "description": "Ok",
                        "schema": {
                            "$ref": "#/definitions/OrderEligibilityResponse"
                        },
                        "examples": {
                            "application/json": {
                                "orderId": "RESEND0011",
                                "orderLineEligibilities": [
                                    {
                                        "orderLineId": "1",
                                        "eligibilities": [
                                            {
                                                "eligibilityIndicator": false,
                                                "eligibilityType": "BlindReturn"
                                            },
                                            {
                                                "eligibilityIndicator": false,
                                                "eligibilityType": "Return"
                                            }
                                        ]
                                    }
                                ]
                            }
                        },
                        "headers": {
                            "Cache-Control": {
                                "description": "Cache policy supported for the resource by the server",
                                "x-example": "no-cache",
                                "type": "string",
                                "minLength": 1,
                                "maxLength": 256,
                                "pattern": "^[\\S]*$"
                            },
                            "Content-Encoding": {
                                "description": "The type of encoding used on the data",
                                "x-example": "gzip,deflate",
                                "type": "string",
                                "minLength": 1,
                                "maxLength": 15,
                                "pattern": "^[\\S]*$"
                            },
                            "Content-Length": {
                                "description": "Length of the response body in octets; not supported if Transfer-Endoding = chunked",
                                "x-example": "9112300000003",
                                "type": "integer",
                                "format": "int64",
                                "minimum": 0,
                                "pattern": "^[\\d]*$"
                            },
                            "Content-Type": {
                                "description": "The MIME type of this content",
                                "x-example": "text/xml",
                                "type": "string",
                                "minLength": 1,
                                "maxLength": 256,
                                "pattern": "^[ \\S]+$"
                            },
                            "Date": {
                                "description": "The Date general HTTP header contains the date and time at which the message was originated.",
                                "x-example": "Mon, 05 Mar 2018 16:38:08 GMT",
                                "type": "string",
                                "format": "date-time",
                                "pattern": "^(Mon|Tue|Wed|Thu|Fri|Sat|Sun), [0-3]{1}[0-9]{1} (Jan|Feb|Mar|Apr|May|Jun|Jul|Aug|Sep|Oct|Nov|Dec) [1-3][0-9]{3} [0-2][0-9]:[0-6][0-9]:[0-6][0-9] GMT$"
                            },
                            "ETag": {
                                "description": "The ETag header specifies the unique entity tag value for the returned resource.",
                                "x-example": "*",
                                "type": "string",
                                "minLength": 1,
                                "maxLength": 256,
                                "pattern": "^[\\S]*$"
                            },
                            "Expires": {
                                "description": "The Expires header gives the date-time after which the response is considered stale.",
                                "x-example": "Mon, 05 Mar 2018 16:38:08 GMT",
                                "type": "string",
                                "format": "date-time",
                                "pattern": "^(Mon|Tue|Wed|Thu|Fri|Sat|Sun), [0-3]{1}[0-9]{1} (Jan|Feb|Mar|Apr|May|Jun|Jul|Aug|Sep|Oct|Nov|Dec) [1-3][0-9]{3} [0-2][0-9]:[0-6][0-9]:[0-6][0-9] GMT$"
                            },
                            "Last-Modified": {
                                "description": "The Last-Modified entity-header field indicates the date and time at which the origin server believes the variant was last modified.",
                                "x-example": "Mon, 05 Mar 2018 16:38:08 GMT",
                                "type": "string",
                                "format": "date-time",
                                "pattern": "^(Mon|Tue|Wed|Thu|Fri|Sat|Sun), [0-3]{1}[0-9]{1} (Jan|Feb|Mar|Apr|May|Jun|Jul|Aug|Sep|Oct|Nov|Dec) [1-3][0-9]{3} [0-2][0-9]:[0-6][0-9]:[0-6][0-9] GMT$"
                            },
                            "Transfer-Encoding": {
                                "description": "The form of encoding used to safely transfer the entity to the user. Currently defined methods are: chunked, compress, deflate, gzip, identity.",
                                "x-example": "chunked",
                                "type": "string",
                                "minLength": 1,
                                "maxLength": 15,
                                "pattern": "^[\\S]*$"
                            },
                            "service-transaction-id": {
                                "description": "Request ID echoed back by server",
                                "x-example": "23409209723",
                                "type": "string",
                                "minLength": 1,
                                "maxLength": 256,
                                "pattern": "^[\\S]*$"
                            }
                        }
                    },
                    "400": {
                        "description": "Bad Request",
                        "schema": {
                            "$ref": "#/definitions/Error"
                        },
                        "examples": {
                            "application/json": {
                                "code": "400",
                                "userMessage": "Bad Request",
                                "systemMessage": "Bad Request",
                                "detailLink": "http://www.tmus.com"
                            }
                        },
                        "headers": {}
                    },
                    "401": {
                        "description": "Unauthorized",
                        "schema": {
                            "$ref": "#/definitions/Error"
                        },
                        "examples": {
                            "application/json": {
                                "code": "401",
                                "userMessage": "Unauthorized",
                                "systemMessage": "Unauthorized",
                                "detailLink": "http://www.tmus.com"
                            }
                        },
                        "headers": {}
                    },
                    "404": {
                        "description": "Resource not found",
                        "schema": {
                            "$ref": "#/definitions/Error"
                        },
                        "examples": {
                            "application/json": {
                                "code": "404",
                                "userMessage": "Resource not found",
                                "systemMessage": "Resource not found",
                                "detailLink": "http://www.tmus.com"
                            }
                        },
                        "headers": {}
                    },
                    "405": {
                        "description": "Method Not Allowed",
                        "schema": {
                            "$ref": "#/definitions/Error"
                        },
                        "examples": {
                            "application/json": {
                                "code": "405",
                                "userMessage": "Method Not Allowed",
                                "systemMessage": "Method Not Allowed",
                                "detailLink": "http://www.tmus.com"
                            }
                        },
                        "headers": {
                            "Allow": {
                                "description": "list of supported methods for URI",
                                "x-example": "GET",
                                "type": "string",
                                "minLength": 1,
                                "maxLength": 256,
                                "pattern": "^[\\S]*$"
                            },
                            "service-transaction-id": {
                                "description": "Request ID echoed back by server",
                                "x-example": "23409209723",
                                "type": "string",
                                "minLength": 1,
                                "maxLength": 256,
                                "pattern": "^[\\S]*$"
                            }
                        }
                    },
                    "406": {
                        "description": "Mismatching data format",
                        "schema": {
                            "$ref": "#/definitions/Error"
                        },
                        "examples": {
                            "application/json": {
                                "code": "406",
                                "userMessage": "Mismatching data format",
                                "systemMessage": "Mismatching data format",
                                "detailLink": "http://www.tmus.com"
                            }
                        },
                        "headers": {}
                    },
                    "500": {
                        "description": "System Error",
                        "schema": {
                            "$ref": "#/definitions/Error"
                        },
                        "examples": {
                            "application/json": {
                                "code": "500",
                                "userMessage": "System Error",
                                "systemMessage": "System Error",
                                "detailLink": "http://www.tmus.com"
                            }
                        },
                        "headers": {}
                    },
                    "503": {
                        "description": "Service unavailable",
                        "schema": {
                            "$ref": "#/definitions/Error"
                        },
                        "examples": {
                            "application/json": {
                                "code": "503",
                                "userMessage": "Service unavailable",
                                "systemMessage": "Service unavailable",
                                "detailLink": "http://www.tmus.com"
                            }
                        },
                        "headers": {}
                    }
                },
                "security": [
                    {
                        "Oauth": [
                            "read:OrderDetails:"
                        ]
                    }
                ]
            }
        }
    },
    "definitions": {
        "EligibleReasons": {
            "description": "The reason for eligibility.",
            "type": "object",
            "properties": {
                "reasonCode": {
                    "description": "Reason Code",
                    "type": "string"
                },
                "description": {
                    "description": "Description",
                    "type": "string"
                }
            }
        },
        "Error": {
            "description": "As defined in http://api-standards.apps.px-npe01.cf.t-mobile.com/http/status-codes/error-response-format/",
            "type": "object",
            "required": [
                "code",
                "userMessage"
            ],
            "properties": {
                "code": {
                    "description": "A succinct, domain-specific, human-readable text string to identify the type of error for the given status code",
                    "example": "ProductNotFound",
                    "type": "string",
                    "pattern": "^[\\S ]+$"
                },
                "userMessage": {
                    "description": "A human-readable message describing the error.",
                    "example": "Failed to find product.",
                    "type": "string",
                    "pattern": "^[\\S ]+$"
                },
                "systemMessage": {
                    "description": "Text that provides a more detailed technical explanation of the error",
                    "example": "PRODUCT_NOT_FOUND",
                    "type": "string"
                },
                "detailLink": {
                    "description": "link to custom information providing greater detail on error or errors",
                    "example": "http://aaa.bbb.ccc/",
                    "type": "string"
                }
            }
        },
        "IneligibleReasons": {
            "description": "The reason for ineligibility.",
            "type": "object",
            "properties": {
                "reasonCode": {
                    "description": "Reason Code",
                    "type": "string"
                },
                "description": {
                    "description": "Description",
                    "type": "string"
                }
            }
        },
        "OrderEligibilityResponse": {
            "description": "order eligibility Response",
            "type": "object",
            "properties": {
                "orderId": {
                    "description": "orderId",
                    "type": "string"
                },
                "orderLineEligibilities": {
                    "description": "An array of orderLineEligibilities objects.",
                    "type": "array",
                    "items": {
                        "$ref": "#/definitions/OrderLineEligibilities"
                    }
                },
                "isEligibleForPostVoid": {
                    "description": "DEPRECATED--Use orderEligibilities. To indicate if order is eligible for post void, that is, customer can return items in the store on the day of purchase.",
                    "type": "boolean"
                },
                "isEligibleForCancellation": {
                    "description": "DEPRECATED--Use orderEligibilities. To indicate if order is eligible for cancellation.",
                    "type": "boolean"
                }
            }
        },
        "OrderLineEligibilities": {
            "description": "Order line eligibility",
            "type": "object",
            "properties": {
                "orderLineId": {
                    "description": "Identifier of order line",
                    "type": "string"
                },
                "eligibilities": {
                    "description": "An array of eligibilities objects.",
                    "type": "array",
                    "items": {
                        "$ref": "#/definitions/OrderLineEligibilitiesEligibilities"
                    }
                },
                "remorseEndDate": {
                    "description": "Remorse effective end date",
                    "type": "string",
                    "format": "date"
                },
                "oneTimeCharges": {
                    "$ref": "#/definitions/OrderLineEligibilitiesOneTimeCharges"
                }
            }
        },
        "OrderLineEligibilitiesEligibilities": {
            "description": "Eligibility evaluations, such as return, exchange, postvoid",
            "type": "object",
            "properties": {
                "eligibilityIndicator": {
                    "description": "Flag indicating whether the determination is eligible or ineligible.",
                    "type": "boolean"
                },
                "eligibilityType": {
                    "description": "The type of eligibility being established.",
                    "type": "string"
                },
                "ineligibleReasons": {
                    "description": "An array of ineligibleReasons objects.",
                    "type": "array",
                    "items": {
                        "$ref": "#/definitions/IneligibleReasons"
                    }
                },
                "eligibleReasons": {
                    "description": "An array of eligibleReasons objects.",
                    "type": "array",
                    "items": {
                        "$ref": "#/definitions/EligibleReasons"
                    }
                }
            }
        },
        "OrderLineEligibilitiesOneTimeCharges": {
            "description": "One-time charges/discounts for the price point are listed here.  Examples: charges for an on-demand data pass or equipment purchase.",
            "type": "object",
            "properties": {
                "type": {
                    "description": "Charge or tax type",
                    "type": "string",
                    "minLength": 1,
                    "maxLength": 24
                },
                "code": {
                    "description": "Charge code",
                    "type": "string",
                    "minLength": 1,
                    "maxLength": 24
                },
                "refundableIndicator": {
                    "description": "To indicate if the charge is refundable.",
                    "type": "boolean"
                },
                "sku": {
                    "description": "SKU is the identifier of the charge in SAP.",
                    "type": "string",
                    "minLength": 1,
                    "maxLength": 50
                },
                "skuGroup": {
                    "description": "sku group associated with device.",
                    "type": "string",
                    "maxLength": 30
                },
                "reason": {
                    "$ref": "#/definitions/Reason"
                }
            }
        },
        "Reason": {
            "description": "Reason for waiverIndicator, refundableIndicator etc.",
            "type": "object",
            "properties": {
                "reasonCode": {
                    "description": "Reason Code",
                    "type": "string"
                },
                "description": {
                    "description": "Description",
                    "type": "string"
                }
            }
        }
    },
    "securityDefinitions": {
        "Oauth": {
            "type": "oauth2",
            "description": "When you sign up for an account, you are given your first API key.\nTo do so please follow this link: https://www.t-mobile.com/site/signup/\nAlso you can generate additional API keys, and delete API keys (as you may\nneed to rotate your keys in the future).\n",
            "authorizationUrl": "https://tmobileb-sb01.apigee.net/v1/oauth2/accesstoken?grant_type=client_credentials",
            "flow": "implicit",
            "scopes": {
                "read:OrderDetails:": "Get order details from GemFire for the given orderId."
            }
        }
    },
    "security": [
        {
            "Oauth": [
                "read:OrderDetails:"
            ]
        }
    ]
}
