{
    "swagger": "2.0",
    "info": {
        "title": "Order_V1 Management APIs",
        "description": "This service support the use of the questionResponseSet resource.",
        "version": "1.0.0",
        "contact": {
            "name": "OM API",
            "url": "http://www.t-mobile.com",
            "email": "DTDOrderManagementAPI@T-Mobile.com"
        },
        "x-createdBy": {
            "dateCreated": "Wed Nov 21 04:09:31 2018",
            "createdBy": "SMahali4",
            "application": "Recite",
            "appVersion": "0.3.16.2415",
            "documentId": "edfdfff3-7a64-4905-8229-012f890031b6",
            "status": "Conceptual - Initial",
            "classification": "4.0 Order Mgmt.",
            "profile": "Core Business Capability Service",
            "serviceLayer": "Enterprise - OrderManagement"
        }
    },
    "tags": [
        {
            "name": "get-device-assessment-questions",
            "description": "Retrieves a single instance of the questionResponseSet resource."
        }
    ],
    "host": "dev01.api.t-mobile.com",
    "basePath": "/ordermanagement/v1",
    "schemes": [
        "https"
    ],
    "paths": {
        "/device-assessment-questions": {
            "get": {
                "tags": [
                    "get-device-assessment-questions"
                ],
                "x-api-pattern": "QueryResource",
                "summary": "A get for the questionResponseSet resource using Digital Archecture's QueryResource pattern.",
                "description": "Retrieves a single instance of the questionResponseSet resource. Validations are added for Query Params i.e,  transaction-type must be not null and either EXCHANGE or RETURN & return-type must be not null and either  REMORSE or WARRANTY",
                "operationId": "get-device-assessment-questions",
                "consumes": [
                    "application/json",
                    "application/xml"
                ],
                "produces": [
                    "application/json",
                    "application/xml"
                ],
                "parameters": [
                    {
                        "name": "transaction-type",
                        "in": "query",
                        "description": "transaction-type. transaction-type must be not null and either EXCHANGE or RETURN ",
                        "required": false,
                        "type": "string",
                        "enum": [
                            "RETURN",
                            "EXCHANGE"
                        ]
                    },
                    {
                        "name": "return-type",
                        "in": "query",
                        "description": "return-type. Return-type must be not null and either  REMORSE or WARRANTY",
                        "required": false,
                        "type": "string",
                        "enum": [
                            "REMORSE",
                            "WARRANTY"
                        ]
                    },
                    {
                        "name": "Accept",
                        "in": "header",
                        "description": "Content-Types that are acceptable including application/json or application/xml (default assumed application/json)",
                        "x-example": "application/json,text/html,application/xhtml+xml,application/xml;q=0.9,*/*;q=0.8",
                        "required": false,
                        "type": "string"
                    },
                    {
                        "name": "Accept-Charset",
                        "in": "header",
                        "description": "Character sets that are acceptable.",
                        "x-example": "ISO-8859-1,utf-8;q=0.7,*;q=0.7",
                        "required": false,
                        "type": "string"
                    },
                    {
                        "name": "Accept-Encoding",
                        "in": "header",
                        "description": "List of acceptable encodings. See HTTP compression.",
                        "x-example": "gzip,deflate",
                        "required": false,
                        "type": "string"
                    },
                    {
                        "name": "Accept-Language",
                        "in": "header",
                        "description": "List of acceptable human languages for response",
                        "x-example": "en-us,en;q=0.5",
                        "required": false,
                        "type": "string"
                    },
                    {
                        "name": "Authorization",
                        "in": "header",
                        "description": "OAuth 2.0 access token with the authentication type set as Bearer.",
                        "x-example": "Basic YUFSbFZHQ1p5dE5KMzV6RVAzOVFneXFUS0tRM1VONHM6QmtYN0c5RmQxTnNEaHRsWg==",
                        "required": false,
                        "type": "string",
                        "pattern": "^[\\S]*$"
                    },
                    {
                        "name": "Content-Type",
                        "in": "header",
                        "description": "The MIME type of this content",
                        "x-example": "text/xml",
                        "required": false,
                        "type": "string",
                        "pattern": "^[\\S]*$"
                    },
                    {
                        "name": "Date",
                        "in": "header",
                        "description": "The date and time that the message was originated (in HTTP-date format as defined by RFC 7231 Date/Time Formats).",
                        "x-example": "Wed, 18-Apr-2018 11:34:57 GMT",
                        "required": false,
                        "type": "string",
                        "format": "date-time"
                    },
                    {
                        "name": "If-Modified-Since",
                        "in": "header",
                        "description": "The If-Modified-Since header specifies date-related conditions to be placed on the execution of a request.  The request will only be executed if the requested resource has not been modified since the date-time specified.  Because the behavior is complex, the details for usage are provided at http://www.w3.org/Protocols/rfc2616/rfc2616-sec14.html",
                        "x-example": "Wed, 18-Apr-2018 11:34:57 GMT",
                        "required": false,
                        "type": "string"
                    },
                    {
                        "name": "If-None-Match",
                        "in": "header",
                        "description": "The If-None-Match header specifies an ETag-related condition to be placed on the execution of a request.  The request will NOT be executed if the ETag of the requested resource matches one of those specified in the If-None-Match header.  Because the behavior is complex, the details for usage are provided at http://www.w3.org/Protocols/rfc2616/rfc2616-sec14.html",
                        "x-example": "*",
                        "required": false,
                        "type": "string"
                    },
                    {
                        "name": "activityid",
                        "in": "header",
                        "description": "Unique id alphanumeric value generated and sent by the partner to identify every the service request uniquely. Sample: XyzA:D1s5s1i-X6AFRvfiPBfs-1234  Pass as is to downstream calls.",
                        "x-example": "c34e7acd-384b-4c22-8b02-ba3963682508",
                        "required": true,
                        "type": "string",
                        "pattern": "^[\\S]*$"
                    },
                    {
                        "name": "applicationid",
                        "in": "header",
                        "description": "Identifies the application, system, or tool that is being used to perform the transaction related to this request. Below are the sample values.ACUI, ESERVICE, REBELLION, WARP",
                        "x-example": "TBD",
                        "required": false,
                        "type": "string"
                    },
                    {
                        "name": "applicationuserid",
                        "in": "header",
                        "description": "NT id of the one who is managing the transaction from CARE/RETAIL channels.",
                        "x-example": "TBD",
                        "required": false,
                        "type": "string"
                    },
                    {
                        "name": "authcustomerid",
                        "in": "header",
                        "description": "Customer id _ of the person that is interacting with the system.",
                        "x-example": "TBD",
                        "required": false,
                        "type": "string"
                    },
                    {
                        "name": "authfinancialaccountid",
                        "in": "header",
                        "description": "Financial account that the customer intends to operate on, while interacting with the system.",
                        "x-example": "TBD",
                        "required": false,
                        "type": "string"
                    },
                    {
                        "name": "authlineofserviceid",
                        "in": "header",
                        "description": "Service Line that the customer intends to operate on, while interacting with the system.",
                        "x-example": "TBD",
                        "required": false,
                        "type": "string"
                    },
                    {
                        "name": "channelid",
                        "in": "header",
                        "description": "Identifies the business unit or sales channel for the Request.Below are the sample values:            Care            TeleSales            FullService            BusinessDirect            FinancePartners            NonFinancePartners            SelfServiceAuthenticated            SelfServiceAnonymous            InteractiveVoiceResponse",
                        "x-example": "TBD",
                        "required": false,
                        "type": "string"
                    },
                    {
                        "name": "dealercode",
                        "in": "header",
                        "description": "Unique code to identify the dealer/rep user.",
                        "x-example": "TBD",
                        "required": false,
                        "type": "integer",
                        "format": "int32",
                        "minimum": -2147483648,
                        "maximum": 2147483647
                    },
                    {
                        "name": "interactionid",
                        "in": "header",
                        "description": "Alphanumeric value represent a common transaction id across all calls made from UI, while completing all business activity needs of a particular customer.",
                        "x-example": "cc688d54-50d1-49d4-8c5d-95459d1172e8",
                        "required": false,
                        "type": "string"
                    },
                    {
                        "name": "segmentationid",
                        "in": "header",
                        "description": "Identifier of customers primary data center.Sample: Polaris,Titan",
                        "x-example": "TBD",
                        "required": false,
                        "type": "string"
                    },
                    {
                        "name": "senderid",
                        "in": "header",
                        "description": "Uniquely identifies an Operation consumer. Below are the sample values.ACUI, MYTMO, QVXP, REBELLION, WALMARTRETAIL, SAMSCLUBRETAIL.",
                        "x-example": "TBD",
                        "required": false,
                        "type": "string"
                    },
                    {
                        "name": "sessionid",
                        "in": "header",
                        "description": "A value populated by the sender used to track the transactions that occur during a session, a long-lasting interaction that ismaintained by the sender.",
                        "x-example": "350b91ec-4a64-4b10-a3f3-a78c8db3924a",
                        "required": false,
                        "type": "string"
                    },
                    {
                        "name": "storeid",
                        "in": "header",
                        "description": "Unique identifier for the retail store location.",
                        "x-example": "TBD",
                        "required": false,
                        "type": "string"
                    },
                    {
                        "name": "terminalid",
                        "in": "header",
                        "description": "Unique identifier for the retail store terminal. Needed for FullService  (Tmobile RETAIL channel). Need to discuss with T-Mobile business liaison if there is a need for Partner to pass their retail Store Id).",
                        "x-example": "TBD",
                        "required": false,
                        "type": "string"
                    },
                    {
                        "name": "tillid",
                        "in": "header",
                        "description": "Unique identifier for the retail register. Needed for FullService  (Tmobile RETAIL channel). Need to discuss with T-Mobile business liaison if there is a need for Partner to pass their retail Store Id).",
                        "x-example": "TBD",
                        "required": false,
                        "type": "string"
                    },
                    {
                        "name": "timestamp",
                        "in": "header",
                        "description": "A timestamp provided by sender to track their workflow. If it is empty APIGEE can send current system timestamp.",
                        "x-example": "TBD",
                        "required": false,
                        "type": "string",
                        "format": "date-time"
                    },
                    {
                        "name": "workflowid",
                        "in": "header",
                        "description": "Workflow name (NEW/ADD/EXCHANGE/RETURN)/OrderTypes _ ACTIVATION ADDALINE CHANGEDEVICE_JUMP CHANGEDEVICE",
                        "x-example": "ACTIVATION",
                        "required": false,
                        "type": "string"
                    }
                ],
                "responses": {
                    "200": {
                        "description": "OK",
                        "schema": {
                            "$ref": "#/definitions/QuestionResponseSetsCollection"
                        },
                        "headers": {
                            "Cache-Control": {
                                "description": "No cache indicators supported at this time. Samples: no-cache",
                                "x-example": "no-cache",
                                "type": "string"
                            },
                            "Content-Encoding": {
                                "description": "The type of encoding used on the data",
                                "x-example": "gzip,deflate",
                                "type": "string"
                            },
                            "Content-Language": {
                                "description": "The natural language or languages of the intended audience for the enclosed content",
                                "x-example": "da",
                                "type": "string"
                            },
                            "Content-Length": {
                                "description": "The Content-Length header specifies the actual length of the returned payload.",
                                "x-example": "1024",
                                "type": "string"
                            },
                            "Content-Type": {
                                "description": "The MIME type of this content",
                                "x-example": "text/xml",
                                "type": "string",
                                "pattern": "^[\\S]*$"
                            },
                            "Date": {
                                "description": "The date and time that the message was originated (in HTTP-date format as defined by RFC 7231 Date/Time Formats).",
                                "x-example": "Wed, 18-Apr-2018 11:34:57 GMT",
                                "type": "string",
                                "format": "date-time"
                            },
                            "ETag": {
                                "description": "The ETag header specifies the unique entity tag value for the returned resource.",
                                "x-example": "*",
                                "type": "string"
                            },
                            "Last-Modified": {
                                "description": "The Last-Modified entity-header field indicates the date and time at which the origin server believes the variant was last modified.",
                                "x-example": "Wed, 18-Apr-2018 11:34:57 GMT",
                                "type": "string",
                                "format": "date-time"
                            },
                            "Transfer-Encoding": {
                                "description": "The form of encoding used to safely transfer the entity to the user. Currently defined methods are: chunked, compress, deflate, gzip, identity.",
                                "x-example": "chunked",
                                "type": "string"
                            },
                            "servicetransactionid": {
                                "description": "Internal identifier for transaction tracking an individual transaction/API request within API platform. Don_t receive/don_t send to downstream",
                                "x-example": "23409209723",
                                "type": "string"
                            }
                        }
                    },
                    "304": {
                        "description": "Not Modified",
                        "headers": {
                            "Cache-Control": {
                                "description": "No cache indicators supported at this time. Samples: no-cache",
                                "x-example": "no-cache",
                                "type": "string"
                            },
                            "ETag": {
                                "description": "The ETag header specifies the unique entity tag value for the returned resource.",
                                "x-example": "*",
                                "type": "string"
                            }
                        }
                    },
                    "400": {
                        "description": "Bad Request",
                        "schema": {
                            "type": "array",
                            "description": "An array of error objects.",
                            "minItems": 1,
                            "items": {
                                "$ref": "#/definitions/Error"
                            }
                        },
                        "examples": {
                            "application/json": [
                                {
                                    "code": "400",
                                    "userMessage": "Bad Request",
                                    "systemMessage": "Bad Request"
                                }
                            ]
                        },
                        "headers": {}
                    },
                    "401": {
                        "description": "Unauthorized",
                        "schema": {
                            "type": "array",
                            "description": "An array of error objects.",
                            "minItems": 1,
                            "items": {
                                "$ref": "#/definitions/Error"
                            }
                        },
                        "examples": {
                            "application/json": [
                                {
                                    "code": "401",
                                    "userMessage": "Unauthorized",
                                    "systemMessage": "Unauthorized"
                                }
                            ]
                        },
                        "headers": {}
                    },
                    "403": {
                        "description": "Client access denied",
                        "schema": {
                            "type": "array",
                            "description": "An array of error objects.",
                            "minItems": 1,
                            "items": {
                                "$ref": "#/definitions/Error"
                            }
                        },
                        "examples": {
                            "application/json": [
                                {
                                    "code": "403",
                                    "userMessage": "Client access denied",
                                    "systemMessage": "Client access denied"
                                }
                            ]
                        },
                        "headers": {}
                    },
                    "404": {
                        "description": "Resource not found",
                        "schema": {
                            "type": "array",
                            "description": "An array of error objects.",
                            "minItems": 1,
                            "items": {
                                "$ref": "#/definitions/Error"
                            }
                        },
                        "examples": {
                            "application/json": [
                                {
                                    "code": "404",
                                    "userMessage": "Resource not found",
                                    "systemMessage": "Resource not found"
                                }
                            ]
                        },
                        "headers": {}
                    },
                    "405": {
                        "description": "Method Not Allowed",
                        "schema": {
                            "type": "array",
                            "description": "An array of error objects.",
                            "minItems": 1,
                            "items": {
                                "$ref": "#/definitions/Error"
                            }
                        },
                        "examples": {
                            "application/json": [
                                {
                                    "code": "405",
                                    "userMessage": "Method Not Allowed",
                                    "systemMessage": "Method Not Allowed"
                                }
                            ]
                        },
                        "headers": {}
                    },
                    "406": {
                        "description": "Mismatching data format",
                        "schema": {
                            "type": "array",
                            "description": "An array of error objects.",
                            "minItems": 1,
                            "items": {
                                "$ref": "#/definitions/Error"
                            }
                        },
                        "examples": {
                            "application/json": [
                                {
                                    "code": "406",
                                    "userMessage": "Mismatching data format",
                                    "systemMessage": "Mismatching data format"
                                }
                            ]
                        },
                        "headers": {}
                    },
                    "500": {
                        "description": "System Error",
                        "schema": {
                            "type": "array",
                            "description": "An array of error objects.",
                            "minItems": 1,
                            "items": {
                                "$ref": "#/definitions/Error"
                            }
                        },
                        "examples": {
                            "application/json": [
                                {
                                    "code": "500",
                                    "userMessage": "System Error",
                                    "systemMessage": "System Error"
                                }
                            ]
                        },
                        "headers": {}
                    },
                    "503": {
                        "description": "Service unavailable",
                        "schema": {
                            "type": "array",
                            "description": "An array of error objects.",
                            "minItems": 1,
                            "items": {
                                "$ref": "#/definitions/Error"
                            }
                        },
                        "examples": {
                            "application/json": [
                                {
                                    "code": "503",
                                    "userMessage": "Service unavailable",
                                    "systemMessage": "Service unavailable"
                                }
                            ]
                        },
                        "headers": {}
                    }
                },
                "security": []
            }
        }
    },
    "definitions": {
        "Answers": {
            "type": "object",
            "description": "List of answer",
            "properties": {
                "answerScript": {
                    "description": "Answer to the question",
                    "type": "string"
                },
                "answerId": {
                    "description": "Identifier of answer.",
                    "type": "string"
                }
            }
        },
        "Error": {
            "type": "object",
            "description": "As defined in https://tmobileusa.sharepoint.com/teams/EnterpriseServices/ESG%20Standards%20Documents/APIs/T-Mobile%20API%20Design%20Guidelines%20v1.0.docx",
            "properties": {
                "code": {
                    "description": "A succinct, domain-specific, human-readable text string to identify the type of error for the given status code",
                    "type": "string"
                },
                "userMessage": {
                    "description": "A human-readable message describing the error.",
                    "type": "string"
                },
                "systemMessage": {
                    "description": "Text that provides a more detailed technical explanation of the error",
                    "type": "string"
                },
                "errorDetailUrl": {
                    "description": "link to custom information providing greater detail on error or errors",
                    "type": "string"
                }
            }
        },
        "QuestionResponseSets": {
            "type": "object",
            "description": "List of question response set",
            "properties": {
                "questionId": {
                    "description": "Identification of the question",
                    "type": "string"
                },
                "questionScript": {
                    "description": "Question script",
                    "type": "string"
                },
                "answers": {
                    "description": "An array of answers objects.",
                    "type": "array",
                    "items": {
                        "$ref": "#/definitions/Answers"
                    }
                }
            }
        },
        "QuestionResponseSetsCollection": {
            "type": "object",
            "description": "Collection of question response set.",
            "properties": {
                "questionResponseSets": {
                    "description": "An array of questionResponseSets objects.",
                    "type": "array",
                    "items": {
                        "$ref": "#/definitions/QuestionResponseSets"
                    }
                }
            }
        }
    },
    "securityDefinitions": {
        "Oauth": {
            "type": "oauth2",
            "description": "When you sign up for an account, you are given your first API key.\nTo do so please follow this link: https://www.t-mobile.com/site/signup/\nAlso you can generate additional API keys, and delete API keys (as you may\nneed to rotate your keys in the future).\n",
            "authorizationUrl": "https://tmobileb-sb01.apigee.net/v1/oauth2/accesstoken?grant_type=client_credentials",
            "flow": "implicit",
            "scopes": {
                "read:DeviceAssessmentDetails:": "Get device assessment details from GemFire for the given transactionType and/or return-type"
            }
        }
    },
    "security": [
        {
            "Oauth": [
                "read:DeviceAssessmentDetails:"
            ]
        }
    ]
}
