{
  "swagger": "2.0",
  "info": {
    "description": "The purpose of the API is to retrieve Care Rep Details from ES hosted internal db",
    "version": "1.1.0",
    "title": "API_2231_retrieveCareRepDetails",
    "contact": {
      "name": "Bala Cherlopalli",
      "email": "bala.cherlopalli1@T-Mobile.com"
    }
  },
  "schemes": [
    "https"
  ],
  "host": "qlab22.op.api.t-mobile.com",
  "x-servers": [
    {
      "url": "qlab22.op.api.t-mobile.com"
    },
    {
      "descritpion": "qlab environment"
    }
  ],
  "basePath": "/reb2-assisted-rep-data/v1",
  "tags": [
    {
      "name": "API_2231_retrieveCareRepDetails"
    }
  ],
  "paths": {
    "/retrieve-care-rep-details": {
      "post": {
        "x-api-pattern": "ExecuteFunction",
        "summary": "API_2231_retrieveCareRepDetails",
        "description": "The purpose of the API is to retrieve Care Rep Details from ES hosted internal db",
        "tags": [
          "API_2231_retrieveCareRepDetails"
        ],
        "operationId": "/retrieveCareRepDetails",
        "security": [
          {
            "JWT": []
          }
        ],
        "consumes": [
          "application/json",
          "application/xml"
        ],
        "produces": [
          "application/json"
        ],
        "parameters": [
          {
            "name": "content-type",
            "in": "header",
            "description": "content type",
            "required": true,
            "type": "string",
            "minLength": 2,
            "maxLength": 20,
            "pattern": "^[\\S]*$",
            "x-example": "application/json"
          },
          {
            "name": "cache-control",
            "in": "header",
            "description": "cache control param",
            "required": false,
            "type": "string",
            "minLength": 2,
            "maxLength": 20,
            "pattern": "^[\\S]*$",
            "x-example": "no-cache"
          },
          {
            "name": "senderId",
            "in": "header",
            "description": "senderid",
            "required": false,
            "type": "string",
            "minLength": 2,
            "maxLength": 20,
            "pattern": "^[\\S]*$",
            "x-example": "TMO"
          },
          {
            "name": "channelId",
            "in": "header",
            "description": "channel from which the request was originated",
            "required": false,
            "type": "string",
            "minLength": 2,
            "maxLength": 20,
            "pattern": "^[\\S]*$",
            "x-example": "CARE"
          },
          {
            "name": "applicationId",
            "in": "header",
            "description": "Application from which the request was originated",
            "required": true,
            "type": "string",
            "minLength": 2,
            "maxLength": 20,
            "pattern": "^[\\S]*$",
            "x-example": "REBELLION"
          },
          {
            "name": "applicationUserId",
            "in": "header",
            "description": "NT ID of the rep accessing the application",
            "required": true,
            "type": "string",
            "minLength": 6,
            "maxLength": 20,
            "pattern": "^[\\S]*$",
            "x-example": "managercare"
          },
          {
            "name": "activityId",
            "in": "header",
            "description": "Unique id alphanumeric value generated and sent by the partner to identify every the service request uniquely. Sample: XyzA:D1s5s1i-X6AFRvfiPBfs-1234  Pass as is to downstream calls.",
            "x-example": "c34e7acd-384b-4c22-8b02-ba3963682508",
            "required": false,
            "type": "string",
            "minLength": 1,
            "maxLength": 256,
            "pattern": "^[\\S]*$"
          },
          {
            "name": "interactionId",
            "in": "header",
            "description": "Alphanumeric value represent a common transaction id across all calls made from UI, while completing all business activity needs of a particular customer.",
            "x-example": "cc688d54-50d1-49d4-8c5d-95459d1172e8",
            "required": false,
            "type": "string",
            "minLength": 1,
            "maxLength": 256,
            "pattern": "^[\\S]*$"
          },
          {
            "name": "sessionId",
            "in": "header",
            "description": "A value populated by the sender used to track the transactions that occur during a session, a long-lasting interaction that ismaintained by the sender.",
            "x-example": "350b91ec-4a64-4b10-a3f3-a78c8db3924a",
            "required": false,
            "type": "string",
            "minLength": 1,
            "maxLength": 256,
            "pattern": "^[\\S]*$"
          },
          {
            "name": "dealercode",
            "in": "header",
            "description": "dealercode",
            "required": true,
            "type": "string",
            "minLength": 7,
            "maxLength": 10,
            "pattern": "^[\\d]*$",
            "x-example": "3334253"
          },
          {
            "name": "workflowId",
            "in": "header",
            "description": "workflowid",
            "required": false,
            "type": "string",
            "minLength": 1,
            "maxLength": 30,
            "pattern": "^[\\S ]+$",
            "x-example": "WF-SC-00.00"
          },
          {
            "name": "storeId",
            "in": "header",
            "description": "storeid",
            "required": false,
            "type": "string",
            "minLength": 4,
            "maxLength": 10,
            "pattern": "^[\\d]*$",
            "x-example": "2011"
          },
          {
            "name": "timestamp",
            "in": "header",
            "description": "ms since 1/1/70 adjusted to GMT",
            "x-example": "1524599536",
            "required": false,
            "type": "integer",
            "format": "int64",
            "minimum": 0,
            "maximum": 25,
            "pattern": "^[\\d]*$"
          },
          {
            "name": "Authorization",
            "in": "header",
            "description": "The HTTP Authorization request header contains the credentials to authenticate a user agent with a server.",
            "x-example": "Bearer mF_9.B5f-4.1JqM",
            "required": true,
            "type": "string",
            "minLength": 1,
            "maxLength": 256,
            "pattern": "^[\\S ]+$"
          },
          {
            "name": "retrieveCareRepDetailsRequest",
            "in": "body",
            "description": "RetrieveCareRepDetailsRequest",
            "required": true,
            "schema": {
              "$ref": "#/definitions/RetrieveCareRepDetailsRequest"
            }
          }
        ],
        "responses": {
          "200": {
            "description": "OK",
            "schema": {
              "$ref": "#/definitions/RetrieveCareRepDetailsResponse"
            },
            "examples": {
              "application/json": {
                "enterpriseToken": "vIFZlUShmq1zS3oOXUnG",
                "expirationTime": "2019-05-15T05:01:59"
              }
            },
            "headers": {
              "Cache-Control": {
                "description": "Cache policy supported for the resource by the server",
                "x-example": "no-cache",
                "type": "string",
                "minLength": 1,
                "maxLength": 256,
                "pattern": "^[\\S]*$"
              },
              "Content-Encoding": {
                "description": "The type of encoding used on the data",
                "x-example": "gzip,deflate",
                "type": "string",
                "minLength": 1,
                "maxLength": 15,
                "pattern": "^[\\S]*$"
              },
              "Content-Length": {
                "description": "Length of the response body in octets; not supported if Transfer-Endoding = chunked",
                "x-example": "9112300000003",
                "type": "integer",
                "format": "int64",
                "minimum": 0,
                "pattern": "^[\\d]*$"
              },
              "Content-Type": {
                "description": "The MIME type of this content",
                "x-example": "text/xml",
                "type": "string",
                "minLength": 1,
                "maxLength": 256,
                "pattern": "^[ \\S]+$"
              },
              "Date": {
                "description": "The Date general HTTP header contains the date and time at which the message was originated.",
                "x-example": "Mon, 05 Mar 2018 16:38:08 GMT",
                "type": "string",
                "format": "date-time",
                "minLength": 10,
                "maxLength": 30,
                "pattern": "^(Mon|Tue|Wed|Thu|Fri|Sat|Sun), [0-3]{1}[0-9]{1} (Jan|Feb|Mar|Apr|May|Jun|Jul|Aug|Sep|Oct|Nov|Dec) [1-3][0-9]{3} [0-2][0-9]:[0-6][0-9]:[0-6][0-9] GMT$"
              }
            }
          },
          "400": {
            "description": "Bad Request",
            "schema": {
              "$ref": "#/definitions/Error"
            },
            "examples": {
              "application/json": {
                "code": "400",
                "userMessage": "Bad Request",
                "systemMessage": "Bad Request"
              }
            },
            "headers": {}
          },
          "401": {
            "description": "Unauthorized",
            "schema": {
              "$ref": "#/definitions/Error"
            },
            "examples": {
              "application/json": {
                "code": "401",
                "userMessage": "Unauthorized",
                "systemMessage": "Unauthorized"
              }
            },
            "headers": {}
          },
          "404": {
            "description": "Resource not found",
            "schema": {
              "$ref": "#/definitions/Error"
            },
            "examples": {
              "application/json": {
                "code": "404",
                "userMessage": "Resource not found",
                "systemMessage": "Resource not found"
              }
            },
            "headers": {}
          },
          "500": {
            "description": "System Error",
            "schema": {
              "$ref": "#/definitions/Error"
            },
            "examples": {
              "application/json": {
                "code": "500",
                "userMessage": "System Error",
                "systemMessage": "System Error"
              }
            },
            "headers": {}
          },
          "503": {
            "description": "Service unavailable",
            "schema": {
              "$ref": "#/definitions/Error"
            },
            "examples": {
              "application/json": {
                "code": "503",
                "userMessage": "Service unavailable",
                "systemMessage": "Service unavailable"
              }
            },
            "headers": {}
          }
        }
      }
    }
  },
  "definitions": {
    "Error": {
      "description": "As defined in http://api-standards.apps.px-npe01.cf.t-mobile.com/http/status-codes/error-response-format/",
      "type": "object",
      "required": [
        "code",
        "userMessage"
      ],
      "properties": {
        "code": {
          "description": "A succinct, domain-specific, human-readable text string to identify the type of error for the given status code",
          "example": "ProductNotFound",
          "type": "string",
          "minLength": 4,
          "maxLength": 10,
          "pattern": "^[\\d ]+$"
        },
        "userMessage": {
          "description": "A human-readable message describing the error.",
          "example": "Failed to find product.",
          "type": "string",
          "minLength": 10,
          "maxLength": 9999,
          "pattern": "^[\\S ]+$"
        },
        "systemMessage": {
          "description": "Text that provides a more detailed technical explanation of the error",
          "example": "PRODUCT_NOT_FOUND",
          "type": "string",
          "minLength": 10,
          "maxLength": 50,
          "pattern": "^[\\S ]+$"
        }
      }
    },
    "RetrieveCareRepDetailsRequest": {
      "type": "object",
      "description": "Generate Pin Request",
      "properties": {
        "managerNtid": {
          "description": "Manager NT Ids for which all reps will be retrieved",
          "type": "array",
          "items": {
            "type": "string",
            "pattern": "^[\\S]+$",
            "x-example": "managercare",
            "minLength": 5,
            "maxLength": 20
          }
        },
        "repNtid": {
          "description": "Rep NT Ids for which the details will be retrieved",
          "type": "array",
          "items": {
            "type": "string",
            "pattern": "^[\\S]+$",
            "x-example": "repcare",
            "minLength": 5,
            "maxLength": 20
          }
        }
      }
    },
    "RetrieveCareRepDetailsResponse": {
      "type": "object",
      "description": "Generate Temp PIN Response",
      "properties": {
        "reps": {
          "type": "array",
          "description": "Array collection of rep",
          "items": {
            "$ref": "#/definitions/Rep"
          }
        }
      }
    },
    "Rep": {
      "type": "object",
      "description": "rep details / information",
      "properties": {
        "ntid": {
          "type": "string",
          "description": "Rep NT Id",
          "minLength": 5,
          "maxLength": 20,
          "pattern": "^[\\S]+$",
          "x-example": "repcare"
        },
        "employeeId": {
          "type": "string",
          "description": "Rep Employee Id (C Id or P Id)",
          "minLength": 9,
          "maxLength": 20,
          "pattern": "^[\\S]+$",
          "x-example": "P11111111"
        },
        "fullName": {
          "type": "string",
          "description": "Rep Full name",
          "minLength": 0,
          "maxLength": 256,
          "pattern": "^[\\S]+$",
          "x-example": "FirstName LastName"
        },
        "emailId": {
          "type": "string",
          "description": "Rep Email Id",
          "minLength": 0,
          "maxLength": 256,
          "pattern": "^[\\S]+$",
          "x-example": "repcare@testdomain.com"
        },
        "managerNtid": {
          "type": "string",
          "description": "Manager NT Id",
          "minLength": 0,
          "maxLength": 20,
          "pattern": "^[\\S]+$",
          "x-example": "managercare"
        },
        "managerName": {
          "type": "string",
          "description": "Manager Full Name",
          "minLength": 0,
          "maxLength": 256,
          "pattern": "^[\\S]+$",
          "x-example": "Firstname LastName"
        },
        "managerEmailId": {
          "type": "string",
          "description": "Manager Email Id",
          "minLength": 0,
          "maxLength": 256,
          "pattern": "^[\\S]+$",
          "x-example": "managercare@testdomain.com"
        },
        "locationId": {
          "type": "string",
          "description": "Location Id",
          "minLength": 0,
          "maxLength": 40,
          "pattern": "^[\\S]+$",
          "x-example": "23"
        },
        "role": {
          "type": "string",
          "description": "Business role of the Rep as per the legacy hierarchy",
          "minLength": 0,
          "maxLength": 40,
          "pattern": "^[\\S]+$",
          "x-example": "manager"
        },
        "department": {
          "type": "string",
          "description": "Rep Department",
          "minLength": 0,
          "maxLength": 256,
          "pattern": "^[\\S]+$",
          "x-example": "Back Office"
        },
        "departmentCode": {
          "type": "string",
          "description": "Department Code",
          "minLength": 0,
          "maxLength": 256,
          "pattern": "^[\\S]+$",
          "x-example": "654654564565"
        },
        "lineOfBusiness": {
          "type": "string",
          "description": "Line of Business",
          "minLength": 0,
          "maxLength": 256,
          "pattern": "^[\\S]+$",
          "x-example": "Customer Care"
        },
        "community": {
          "type": "string",
          "description": "Community",
          "minLength": 0,
          "maxLength": 256,
          "pattern": "^[\\S]+$",
          "x-example": "Bellingham_1"
        },
        "marketName": {
          "type": "string",
          "description": "Market Name",
          "minLength": 0,
          "maxLength": 256,
          "pattern": "^[\\S]+$",
          "x-example": "Seattle"
        },
        "site": {
          "type": "string",
          "description": "Site / Call center",
          "minLength": 5,
          "maxLength": 40,
          "pattern": "^[\\S]+$",
          "x-example": "StarTek-Kingston"
        },
        "siteId": {
          "type": "string",
          "description": "Rep NT Id",
          "minLength": 5,
          "maxLength": 40,
          "pattern": "^[\\S]+$",
          "x-example": "6545645616549845"
        },
        "recordStartDate": {
          "type": "string",
          "description": "record is valid from",
          "minLength": 0,
          "maxLength": 40,
          "pattern": "^[\\S]+$",
          "x-example": "2019-05-15T05:01:59"
        },
        "recordEndDate": {
          "type": "string",
          "description": "Record Valid till",
          "minLength": 0,
          "maxLength": 40,
          "pattern": "^[\\S]+$",
          "x-example": "2019-05-15T05:01:59"
        }
      }
    }
  },
  "securityDefinitions": {
    "JWT": {
      "type": "apiKey",
      "description": "JWT is a means of representing claims to be transferred between two parties. The claims in a JWT are encoded as a JSON object that is digitally signed using JSON Web Signature (JWS) and/or encrypted using JSON Web Encryption (JWE).",
      "name": "Authorization",
      "in": "header"
    }
  }
}