{
  "swagger": "2.0",
  "info": {
    "description": "The purpose of the API is to update the enterprise token",
    "version": "1.1.0",
    "title": "API_2229_updateEnterpriseToken",
    "contact": {
      "name": "cherlopalli, Bala",
      "email": "Bala.Cherlopalli1@T-Mobile.com"
    }
  },
  "schemes": [
    "https"
  ],
  "host": "qlab22.op.api.t-mobile.com",
  "x-servers": [
    {
      "url": "qlab22.op.api.t-mobile.com"
    },
    {
      "descritpion": "qlab environment"
    }
  ],
  "basePath": "/reb2-assisted-auth-tetris/v1",
  "tags": [
    {
      "name": "API_2229_updateEnterpriseToken"
    }
  ],
  "paths": {
    "/updateEnterpriseToken": {
      "post": {
        "x-api-pattern": "ExecuteFunction",
        "summary": "API_2229_updateEnterpriseToken",
        "description": "This API is to update the enterprise token with MSISDN or update the token expiration Period or maximum number of times the token can be validated",
        "tags": [
          "API_2229_updateEnterpriseToken"
        ],
        "operationId": "updateEnterpriseToken",
        "security": [
          {
            "Oauth": []
          }
        ],
        "consumes": [
          "application/json",
          "application/xml"
        ],
        "produces": [
          "application/json"
        ],
        "parameters": [
          {
            "name": "content-type",
            "in": "header",
            "description": "content type",
            "required": true,
            "type": "string",
            "minLength": 2,
            "maxLength": 20,
            "pattern": "^[\\S]*$",
            "x-example": "application/json"
          },
          {
            "name": "cache-control",
            "in": "header",
            "description": "cache control param",
            "required": false,
            "type": "string",
            "minLength": 2,
            "maxLength": 20,
            "pattern": "^[\\S]*$",
            "x-example": "no-cache"
          },
          {
            "name": "senderId",
            "in": "header",
            "description": "senderid",
            "required": false,
            "type": "string",
            "minLength": 2,
            "maxLength": 20,
            "pattern": "^[\\S]*$",
            "x-example": "TMO"
          },
          {
            "name": "channelId",
            "in": "header",
            "description": "channel from which the request was originated",
            "required": false,
            "type": "string",
            "minLength": 2,
            "maxLength": 20,
            "pattern": "^[\\S]*$",
            "x-example": "CARE"
          },
          {
            "name": "applicationId",
            "in": "header",
            "description": "Application from which the request was originated",
            "required": true,
            "type": "string",
            "minLength": 2,
            "maxLength": 20,
            "pattern": "^[\\S]*$",
            "x-example": "REBELLION"
          },
          {
            "name": "applicationUserId",
            "in": "header",
            "description": "NT of the user accessing the application",
            "required": true,
            "type": "string",
            "minLength": 6,
            "maxLength": 20,
            "pattern": "^[\\S]*$",
            "x-example": "managercare"
          },
          {
            "name": "activityId",
            "in": "header",
            "description": "Unique id alphanumeric value generated and sent by the partner to identify every the service request uniquely. Sample: XyzA:D1s5s1i-X6AFRvfiPBfs-1234  Pass as is to downstream calls.",
            "x-example": "c34e7acd-384b-4c22-8b02-ba3963682508",
            "required": false,
            "type": "string",
            "minLength": 1,
            "maxLength": 256,
            "pattern": "^[\\S]*$"
          },
          {
            "name": "interactionId",
            "in": "header",
            "description": "Alphanumeric value represent a common transaction id across all calls made from UI, while completing all business activity needs of a particular customer.",
            "x-example": "cc688d54-50d1-49d4-8c5d-95459d1172e8",
            "required": false,
            "type": "string",
            "minLength": 1,
            "maxLength": 256,
            "pattern": "^[\\S]*$"
          },
          {
            "name": "sessionId",
            "in": "header",
            "description": "A value populated by the sender used to track the transactions that occur during a session, a long-lasting interaction that ismaintained by the sender.",
            "x-example": "350b91ec-4a64-4b10-a3f3-a78c8db3924a",
            "required": false,
            "type": "string",
            "minLength": 1,
            "maxLength": 256,
            "pattern": "^[\\S]*$"
          },
          {
            "name": "dealercode",
            "in": "header",
            "description": "dealercode",
            "required": true,
            "type": "string",
            "minLength": 7,
            "maxLength": 10,
            "pattern": "^[\\d]*$",
            "x-example": "3334253"
          },
          {
            "name": "workflowId",
            "in": "header",
            "description": "workflowid",
            "required": false,
            "type": "string",
            "minLength": 1,
            "maxLength": 30,
            "pattern": "^[\\S ]+$",
            "x-example": "WF-SC-00.00"
          },
          {
            "name": "storeId",
            "in": "header",
            "description": "storeid",
            "required": false,
            "type": "string",
            "minLength": 4,
            "maxLength": 10,
            "pattern": "^[\\d]*$",
            "x-example": "2011"
          },
          {
            "name": "timestamp",
            "in": "header",
            "description": "ms since 1/1/70 adjusted to GMT",
            "x-example": "1524599536",
            "required": false,
            "type": "integer",
            "format": "int64",
            "minimum": 0,
            "maximum": 25,
            "pattern": "^[\\d]*$"
          },
          {
            "name": "Authorization",
            "in": "header",
            "description": "The HTTP Authorization request header contains the credentials to authenticate a user agent with a server.",
            "x-example": "Bearer mF_9.B5f-4.1JqM",
            "required": true,
            "type": "string",
            "minLength": 1,
            "maxLength": 256,
            "pattern": "^[\\S ]+$"
          },
          {
            "name": "token",
            "in": "query",
            "required": true,
            "type": "string",
            "description": "Verification / Enterprise Token to be updated",
            "minLength": 1,
            "maxLength": 30,
            "pattern": "^[\\S ]+$",
            "x-example": "vIFZlUShmq1zS3oOXUnG"
          },
          {
            "name": "updateEnterpriseTokenRequest",
            "in": "body",
            "description": "UpdateEnterpriseTokenRequest",
            "required": true,
            "schema": {
              "$ref": "#/definitions/UpdateEnterpriseTokenRequest"
            }
          }
        ],
        "responses": {
          "200": {
            "description": "OK",
            "schema": {
              "$ref": "#/definitions/UpdateEnterpriseTokenResponse"
            },
            "examples": {
              "application/json": {
                "enterpriseToken": "abcDefShmq1zS3oOXUnG",
                "expirationTime": "2019-05-15T05:01:59"
              }
            },
            "headers": {
              "Cache-Control": {
                "description": "Cache policy supported for the resource by the server",
                "x-example": "no-cache",
                "type": "string",
                "minLength": 1,
                "maxLength": 256,
                "pattern": "^[\\S]*$"
              },
              "Content-Encoding": {
                "description": "The type of encoding used on the data",
                "x-example": "gzip,deflate",
                "type": "string",
                "minLength": 1,
                "maxLength": 15,
                "pattern": "^[\\S]*$"
              },
              "Content-Length": {
                "description": "Length of the response body in octets; not supported if Transfer-Endoding = chunked",
                "x-example": "9112300000003",
                "type": "integer",
                "format": "int64",
                "minimum": 0,
                "pattern": "^[\\d]*$"
              },
              "Content-Type": {
                "description": "The MIME type of this content",
                "x-example": "text/xml",
                "type": "string",
                "minLength": 1,
                "maxLength": 256,
                "pattern": "^[ \\S]+$"
              },
              "Date": {
                "description": "The Date general HTTP header contains the date and time at which the message was originated.",
                "x-example": "Mon, 05 Mar 2018 16:38:08 GMT",
                "type": "string",
                "format": "date-time",
                "minLength": 10,
                "maxLength": 30,
                "pattern": "^(Mon|Tue|Wed|Thu|Fri|Sat|Sun), [0-3]{1}[0-9]{1} (Jan|Feb|Mar|Apr|May|Jun|Jul|Aug|Sep|Oct|Nov|Dec) [1-3][0-9]{3} [0-2][0-9]:[0-6][0-9]:[0-6][0-9] GMT$"
              }
            }
          },
          "400": {
            "description": "Bad Request",
            "schema": {
              "$ref": "#/definitions/Error"
            },
            "examples": {
              "application/json": {
                "code": "400",
                "userMessage": "Bad Request",
                "systemMessage": "Bad Request"
              }
            },
            "headers": {}
          },
          "401": {
            "description": "Unauthorized",
            "schema": {
              "$ref": "#/definitions/Error"
            },
            "examples": {
              "application/json": {
                "code": "401",
                "userMessage": "Unauthorized",
                "systemMessage": "Unauthorized"
              }
            },
            "headers": {}
          },
          "403": {
            "description": "Accessing the resource you were trying to reach is forbidden",
            "schema": {
              "$ref": "#/definitions/Error"
            },
            "examples": {
              "application/json": [
                {
                  "code": "403",
                  "userMessage": "Access Denied",
                  "systemMessage": "Forbidden"
                }
              ]
            }
          },
          "404": {
            "description": "Resource not found",
            "schema": {
              "$ref": "#/definitions/Error"
            },
            "examples": {
              "application/json": {
                "code": "404",
                "userMessage": "Resource not found",
                "systemMessage": "Resource not found"
              }
            },
            "headers": {}
          },
          "500": {
            "description": "System Error",
            "schema": {
              "$ref": "#/definitions/Error"
            },
            "examples": {
              "application/json": {
                "code": "500",
                "userMessage": "System Error",
                "systemMessage": "System Error"
              }
            },
            "headers": {}
          },
          "503": {
            "description": "Service unavailable",
            "schema": {
              "$ref": "#/definitions/Error"
            },
            "examples": {
              "application/json": {
                "code": "503",
                "userMessage": "Service unavailable",
                "systemMessage": "Service unavailable"
              }
            },
            "headers": {}
          }
        }
      }
    }
  },
  "definitions": {
    "Error": {
      "description": "As defined in http://api-standards.apps.px-npe01.cf.t-mobile.com/http/status-codes/error-response-format/",
      "type": "object",
      "required": [
        "code",
        "userMessage"
      ],
      "properties": {
        "code": {
          "description": "A succinct, domain-specific, human-readable text string to identify the type of error for the given status code",
          "example": "ProductNotFound",
          "type": "string",
          "minLength": 4,
          "maxLength": 10,
          "pattern": "^[\\d ]+$"
        },
        "userMessage": {
          "description": "A human-readable message describing the error.",
          "example": "Failed to find product.",
          "type": "string",
          "minLength": 10,
          "maxLength": 9999,
          "pattern": "^[\\S ]+$"
        },
        "systemMessage": {
          "description": "Text that provides a more detailed technical explanation of the error",
          "example": "PRODUCT_NOT_FOUND",
          "type": "string",
          "minLength": 10,
          "maxLength": 50,
          "pattern": "^[\\S ]+$"
        }
      }
    },
    "UpdateEnterpriseTokenRequest": {
      "type": "object",
      "description": "UpdateEnterpriseTokenRequest",
      "properties": {
        "msisdn": {
          "description": "MSISDN to be updated in the token",
          "type": "string",
          "minLength": 0,
          "maxLength": 10,
          "pattern": "^[\\d{10}]",
          "x-example": "123456890"
        },
        "expirationPeriod": {
          "description": "Expiration Period of the token, UI will send this value in seconds",
          "type": "string",
          "minLength": 2,
          "maxLength": 9999,
          "pattern": "^[\\d]",
          "x-example": "1800"
        },
        "maximumValidations": {
          "description": "maximum number of times this token can be validated",
          "type": "string",
          "minLength": 1,
          "maxLength": 9999,
          "pattern": "^[\\d]",
          "x-example": "5"
        }
      }
    },
    "UpdateEnterpriseTokenResponse": {
      "type": "object",
      "description": "Updated Enterprise Token Response",
      "properties": {
        "enterpriseToken": {
          "type": "string",
          "description": "updated enterprise token",
          "minLength": 2,
          "maxLength": 20,
          "pattern": "^[\\S ]+$",
          "x-example": "vIFZlUShmq1zS3oOXUnG"
        },
        "expirationTime": {
          "type": "string",
          "description": "Token Expiration time",
          "minLength": 2,
          "maxLength": 20,
          "pattern": "^[\\S ]+$",
          "x-example": "2019-05-14T18:42:06"
        }
      }
    }
  },
  "securityDefinitions": {
    "Oauth": {
      "type": "oauth2",
      "tokenUrl": "https://qlab01.facade.op.api.t-mobile.com/v1/oauth2-facade/access-token?grant_type=client_credentials",
      "description": "When you sign up for an account, you are given your first API key\n",
      "flow": "application"
    }
  }
}