@startuml
title Unification API 2150 Submit Order
participant "Rebellion UI" as UI
participant "API Gateway" as GW
participant "Experience Services" as ES
participant "Experience Services Cache" as ESCH
participant "WSIL" as WSIL

/'****************************************************'/

note over UI
Load payment page 

end note


UI -> GW : API_513_getAccountFundingOptions
GW -> ES : API_513_getAccountFundingOptions
ES -> WSIL : getPaymentOptions
ES <-- WSIL
GW <-- ES
UI <-- GW

alt use existing balance as funding option
	UI -> GW : API_2607_updateExistingBalance
	GW -> ES : API_2607_updateExistingBalance
	ES -> WSIL : updateCart
	ES <-- WSIL
	ES -> ESCH : update cache with response parameters
	GW <-- ES
	UI <-- GW

end
alt use ePin or Voucher as funding options
	UI->UI: rep enters voucher details
	UI -> GW : api_237_validateRefill
	GW -> ES : api_237_validateRefill
	ES -> WSIL : getVoucherDetails
	ES <-- WSIL
	ES -> WSIL : checkVoucherElibility
	ES <-- WSIL
	UI -> UI : enable "apply" button on success response
	alt rep clicks on "apply" or removes voucher
		UI -> GW : API_2608_updateRefillCard
		GW -> ES : API_2608_updateRefillCard
		ES -> WSIL : updateCart
		ES <-- WSIL
		ES -> ESCH : update cache with response parameters
		GW <-- ES
		UI <-- GW
		UI -> UI : UI displays added voucher with a remove button
	end

end

alt pay extra amount
	UI -> GW : API_2609_updatePayExtraAmount
	GW -> ES : API_2609_updatePayExtraAmount
	ES -> ESCH : get D2A sku and offeringId
	ES -> WSIL : updateCart
	ES <-- WSIL
	ES -> ESCH : update cache with response parameters
	GW <-- ES
	UI <-- GW

end

par Get Stored Payment Method is for only Autenticated User
	UI -> GW : API_144_getPaymentsMethods
	GW -> ES : API_144_getPaymentsMethods
	ES -> WSIL : getStoredPaymentMethods
	ES <-- WSIL
	GW <-- ES
	UI <-- GW

end

UI -> GW : API_419_getEligiblePaymentMethods
GW -> ES : API_419_getEligiblePaymentMethods
ES -> WSIL : getPaymentOptions
ES <-- WSIL
GW <-- ES
UI <-- GW



alt Customer use one credit card to pay remaining amount
	note over UI
	By entering first 6 digits of the card, verify the card Type
	
	end note
	
	UI -> GW : API_528_getCardLogo
	GW -> ES : API_528_getCardLogo
	ES -> WSIL : cardTypeValidation
	ES <-- WSIL
	GW <-- ES
	UI <-- GW
	
	
	
	
	UI -> UI : Customer provide the card details and complete Address, customer can use billing or shipping addresses 
	UI -> UI : Encrypt card number
	
	UI -> GW : API_2150_createCheckout with confirm flag = true
	GW -> ES : API_2150_createCheckout with confirm flag = true
	ES -> WSIL : CartWSIL.createCheckout with confirm flag = true
	ES <-- WSIL
	GW <-- ES
	UI <-- GW
end
alt Customer use multiple credit cards to pay remaining amount
	note over UI
	By entering first 6 digits of first card, verify the card Type
	
	end note
	
	UI -> GW : API_528_getCardLogo
	GW -> ES : API_528_getCardLogo
	ES -> WSIL : cardTypeValidation
	ES <-- WSIL
	GW <-- ES
	UI <-- GW
	
	
	
	
	UI -> UI : Customer provide the card details and complete Address, customer can use billing or shipping addresses 
	UI -> UI : Encrypt card number
	
	UI -> GW : API_2150_createCheckout with confirm flag = false
	GW -> ES : API_2150_createCheckout with confirm flag = false
	ES -> WSIL : CartWSIL.createCheckout with confirm flag = false
	ES <-- WSIL
	GW <-- ES
	UI <-- GW
	loop next card
		note over UI
		By entering first 6 digits of the card, verify the card Type
		
		end note
		
		UI -> GW : API_528_getCardLogo
		GW -> ES : API_528_getCardLogo
		ES -> WSIL : cardTypeValidation
		ES <-- WSIL
		GW <-- ES
		UI <-- GW
		
		
		
		
		alt remaining amount > 0 and more payment(s) required
			UI -> UI : Customer provide the card details and complete Address, customer can use billing or shipping addresses 
			UI -> UI : Encrypt card number
			
			UI -> GW : API_2150_createCheckout with confirm flag = false
			GW -> ES : API_2150_createCheckout with confirm flag = false
			ES -> WSIL : CartWSIL.updateCheckout with confirm flag = false
			ES <-- WSIL
			GW <-- ES
			UI <-- GW
		end
		alt remaining amount = $0, last payment 
			UI -> UI : Customer provide the card details and complete Address, customer can use billing or shipping addresses 
			UI -> UI : Encrypt card number
			
			UI -> GW : API_2150_createCheckout with confirm flag = true
			GW -> ES : API_2150_createCheckout with confirm flag = true
			ES -> WSIL : CartWSIL.updateCheckout with confirm flag = true
			ES <-- WSIL
			GW <-- ES
			UI <-- GW
		end
		alt reverse a payment
			note over UI
			Customer can reverse a payment before confirming an order		
			end note
			UI -> UI : Customer selects related payment transaction to reverse 
			
			UI -> GW : API_2150_createCheckout with payment ID, confirm flag = false 
			GW -> ES : API_2150_createCheckout with payment ID, confirm flag = false
			ES -> WSIL : CartWSIL.updateCheckout with action=REMOVE, payment ID, confirm flag = false
			ES <-- WSIL
			GW <-- ES
			UI <-- GW
		end
	end
end


/'****************************************************'/
note over UI
Order confirmation

end note


UI -> GW : API_2814_getOrderDetails
GW -> ES : API_2814_getOrderDetails
ES -> WSIL : OrderWSIL.getOrderDetails
ES <-- WSIL
GW <-- ES
UI <-- GW


UI -> UI : Show order confirmation page 

/'****************************************************'/


/'****************************************************'/
@enduml