@startuml
title PMLU Add a Line - Multi Line
participant "Rebellion UI" as UI
participant "API Gateway" as GW
participant "Experience Services" as ES
participant "Experience Services Cache" as ESCH
participant "Elastic Search" as ESES
participant "Bazaar Voice" as BAV
participant "WSIL" as WSIL
participant "IAM" as IAM
participant "OMS" as OMS

/'****************************************************'/
note over UI: Rebellion Application is initialized
UI->UI: Rep login()

note over UI
Navigate from Account Landing
end note
loop More lines are allowed?
	alt Add a Line BYOD
		UI->UI: Initiate BYOD by clicking on Shop - Bring your own device
		
		note over UI
		BYOD landing
		
		end note
		
		UI -> GW : API_273_getCarrierMakeModels
		GW -> ES : API_273_getCarrierMakeModels
		ES -> WSIL : DeviceWSIL.getCarrierMakeModel
		ES <-- WSIL
		GW <-- ES
		UI <-- GW
		
		/'--------------------------------------------'/
		UI -> GW : API_277_getCompatibilityCheck
		GW -> ES : API_277_getCompatibilityCheck
		ES -> WSIL : DeviceWSIL.checkDeviceCompatibility
		ES <-- WSIL
		GW <-- ES
		UI <-- GW
		
		/'--------------------------------------------'/
		UI -> GW : API_2127_getProductItems
		GW -> ES : API_2127_getProductItems
		ES -> WSIL : ProductOfferingSummaryWSIL.getCatalogPriceData
		ES <-- WSIL
		ES -> ESES : get product static data
		ES <-- ESES :
		GW <-- ES
		UI <-- GW
		
		/'--------------------------------------------'/
		UI -> GW : API_2116_audit-record
		GW -> ES : API_2116_audit-record
		ES -> ESCH : update cache
		ES <-- ESCH
		GW <-- ES
		UI <-- GW
		
		alt Select SimKit
			
			UI -> GW : API_2104_createLineAddDevice
			GW -> ES : API_2104_createLineAddDevice
			ES -> WSIL : CartWSIL.updateCart
			ES <-- WSIL
			ES -> ESCH : update cache with response parameters
			ES <-- ESCH :
			GW <-- ES
			UI <-- GW
		end
		
		/'****************************************************'/
		
		note over UI
		Product selector (Plan)
		
		end note
		
		UI -> GW : API_2038_getLineDetails
		GW -> ES : API_2038_getLineDetails
		ES -> ESCH : get line details
		ES <-- ESCH :
		GW <-- ES
		UI <-- GW
		
		UI -> GW : API_2117_retrievePlansforMultiLines
		GW -> ES : API_2117_retrievePlansforMultiLines
		ES -> WSIL : ProductOfferingSummaryWSIL.getCatalogPriceData billingType, Account Info
		ES <-- WSIL
		ES -> ESES : get product static data
		ES <-- ESES :
		GW <-- ES
		UI <-- GW
		
		/'--------------------------------------------'/
		UI -> GW : API_2109_updatePlansToCart
		GW -> ES : API_2109_updatePlansToCart
		ES -> WSIL : CartWSIL.updateCart
		ES <-- WSIL
		ES -> ESCH : update cache with response parameters
		ES <-- ESCH :
		GW <-- ES
		UI <-- GW
		
		UI->UI: Get Compatible Services
		
		
		UI -> GW : API_2102_retrieveServices [nested=false]
		GW -> ES : API_2102_retrieveServices
		ES -> WSIL : ProductOfferingSummaryWSIL.getCatalogPriceData
		ES <-- WSIL
		ES -> ESES : get product static data
		ES <-- ESES :
		GW <-- ES
		UI <-- GW
		
		alt Select Services
			UI -> GW : API_2112_updateService
			GW -> ES : API_2112_updateService
			ES -> WSIL : CartWSIL.updateCart
			ES <-- WSIL
			ES -> ESCH : update cache with response parameters
			ES <-- ESCH :
			GW <-- ES
			UI <-- GW
			/'--------------------------------------------'/
			UI -> GW : API_2113_updateServiceBundle
			GW -> ES : API_2113_updateServiceBundle
			ES -> WSIL : CartWSIL.updateCart
			ES <-- WSIL
			ES -> ESCH : update cache with response parameters
			ES <-- ESCH :
			GW <-- ES
			UI <-- GW
		end
		
		alt See All Services
			UI->UI: Get Compatible Services
			
			
			UI -> GW : API_2102_retrieveServices [nested=true]
			GW -> ES : API_2102_retrieveServices
			ES -> WSIL : ProductOfferingSummaryWSIL.getCatalogPriceData
			ES <-- WSIL
			ES -> ESES : get product static data
			ES <-- ESES :
			GW <-- ES
			UI <-- GW
			alt Select Services
				UI -> GW : API_2112_updateService
				GW -> ES : API_2112_updateService
				ES -> WSIL : CartWSIL.updateCart
				ES <-- WSIL
				ES -> ESCH : update cache with response parameters
				ES <-- ESCH :
				GW <-- ES
				UI <-- GW
				/'--------------------------------------------'/
				UI -> GW : API_2113_updateServiceBundle
				GW -> ES : API_2113_updateServiceBundle
				ES -> WSIL : CartWSIL.updateCart
				ES <-- WSIL
				ES -> ESCH : update cache with response parameters
				ES <-- ESCH :
				GW <-- ES
				UI <-- GW
			end
		end
		alt Delete Line
			UI -> GW : API_2106_deleteLine
			GW -> ES : API_2106_deleteLine
			ES -> WSIL : CartWSIL.updateCart
			ES <-- WSIL
			ES -> ESCH : update cache with response parameters
			ES <-- ESCH :
			GW <-- ES
			UI <-- GW
		end
		alt Duplicate Line
			UI -> GW : API_2126_duplicateLine
			GW -> ES : API_2126_duplicateLine
			ES -> WSIL : CartWSIL.updateCart
			ES <-- WSIL
			ES -> ESCH : update cache with response parameters
			ES <-- ESCH :
			GW <-- ES
			UI <-- GW
		end
	end
	alt Add a Line w/ Device
		note over UI
		Browse Device 
		
		end note
		
		UI -> GW : API_2100_retrieveProducts
		GW -> ES : API_2100_retrieveProducts
		ES -> WSIL : ProductOfferingSummaryWSIL.getCatalogPriceData
		ES <-- WSIL
		ES -> ESES : get product static data
		ES <-- ESES :
		GW <-- ES
		UI <-- GW
		
		alt Compare Devices
			
			UI -> GW : API_2144_compareDevices
			GW -> ES : API_2144_compareDevices
			ES -> WSIL : ProductOfferingSummaryWSIL.getCatalogPriceData
			ES <-- WSIL
			ES -> ESES : get product details
			ES <-- ESES :
			GW <-- ES
			UI <-- GW
		end
		
		/'--------------------------------------------'/
		note over UI
		Device PDP
		
		end note
		UI -> GW : API_2101_retrieveProductDetails
		GW -> ES : API_2101_retrieveProductDetails
		ES -> WSIL : ProductOfferingSummaryWSIL.getCatalogPriceData
		ES <-- WSIL
		ES -> ESES : get product static data
		ES <-- ESES :
		GW <-- ES
		UI <-- GW
		
		/'--------------------------------------------'/
		UI -> GW : API_2145_deviceReviews
		GW -> ES : API_2145_deviceReviews
		ES -> BAV : Bazaar Voice get device review
		ES <-- BAV:
		GW <-- ES
		UI <-- GW
		/'--------------------------------------------'/
		UI -> GW : API_2146_deviceFeedback
		GW -> ES : API_2146_deviceFeedback
		ES -> BAV : Bazaar Voice get device feedback
		ES <-- BAV:
		GW <-- ES
		UI <-- GW
		/'--------------------------------------------'/
		UI -> GW : API_2107_addDevicetoCart
		GW -> ES : API_2107_addDevicetoCart
		ES -> WSIL : CartWSIL.updateCart
		ES <-- WSIL
		ES -> ESCH : update cache with response parameters
		ES <-- ESCH :
		GW <-- ES
		UI <-- GW
		
		/'****************************************************'/
		alt Select a Plan for Device
			note over UI
			Product selector (Plan)
			
			end note
			
			UI -> GW : API_2038_getLineDetails
			GW -> ES : API_2038_getLineDetails
			ES -> ESCH : get line details
			ES <-- ESCH :
			GW <-- ES
			UI <-- GW
			
			UI -> GW : API_2117_retrievePlansforMultiLines
			GW -> ES : API_2117_retrievePlansforMultiLines
			ES -> WSIL : ProductOfferingSummaryWSIL.getCatalogPriceData
			ES <-- WSIL
			ES -> ESES : get product static data
			ES <-- ESES :
			GW <-- ES
			UI <-- GW
			
			/'--------------------------------------------'/
			UI -> GW : API_2109_updatePlansToCart
			GW -> ES : API_2109_updatePlansToCart
			ES -> WSIL : CartWSIL.updateCart
			ES <-- WSIL
			ES -> ESCH : update cache with response parameters
			ES <-- ESCH :
			GW <-- ES
			UI <-- GW
			/'--------------------------------------------'/
			UI -> GW : API_2142_convertNonLinetoLine
			GW -> ES : API_2142_convertNonLinetoLine
			ES -> WSIL : CartWSIL.updateCart
			ES <-- WSIL
			ES -> ESCH : update cache with response parameters
			ES <-- ESCH :
			GW <-- ES
			UI <-- GW
			alt Deselect a Plan for Device
				/'--------------------------------------------'/
				UI -> GW : API_2143_convertLinetoNonLine
				GW -> ES : API_2143_convertLinetoNonLine
				ES -> WSIL : CartWSIL.updateCart
				ES <-- WSIL
				ES -> ESCH : update cache with response parameters
				ES <-- ESCH :
				GW <-- ES
				UI <-- GW
			end
			UI->UI: Get Compatible Services
			UI -> GW : API_2102_retrieveServices [nested=false]
			GW -> ES : API_2102_retrieveServices
			ES -> WSIL : ProductOfferingSummaryWSIL.getCatalogPriceData
			ES <-- WSIL
			ES -> ESES : get product static data
			ES <-- ESES :
			GW <-- ES
			UI <-- GW
			
			alt Select Services
				UI -> GW : API_2112_updateService
				GW -> ES : API_2112_updateService
				ES -> WSIL : CartWSIL.updateCart
				ES <-- WSIL
				ES -> ESCH : update cache with response parameters
				ES <-- ESCH :
				GW <-- ES
				UI <-- GW
				/'--------------------------------------------'/
				UI -> GW : API_2113_updateServiceBundle
				GW -> ES : API_2113_updateServiceBundle
				ES -> WSIL : CartWSIL.updateCart
				ES <-- WSIL
				ES -> ESCH : update cache with response parameters
				ES <-- ESCH :
				GW <-- ES
				UI <-- GW
			end
			
			
			alt See All Services
				UI->UI: Get Compatible Services
				
				
				UI -> GW : API_2102_retrieveServices [nested=true]
				GW -> ES : API_2102_retrieveServices
				ES -> WSIL : ProductOfferingSummaryWSIL.getCatalogPriceData
				ES <-- WSIL
				ES -> ESES : get product static data
				ES <-- ESES :
				GW <-- ES
				UI <-- GW
				alt Select Services
					UI -> GW : API_2112_updateService
					GW -> ES : API_2112_updateService
					ES -> WSIL : CartWSIL.updateCart
					ES <-- WSIL
					ES -> ESCH : update cache with response parameters
					ES <-- ESCH :
					GW <-- ES
					UI <-- GW
					/'--------------------------------------------'/
					UI -> GW : API_2113_updateServiceBundle
					GW -> ES : API_2113_updateServiceBundle
					ES -> WSIL : CartWSIL.updateCart
					ES <-- WSIL
					ES -> ESCH : update cache with response parameters
					ES <-- ESCH :
					GW <-- ES
					UI <-- GW
				end
			end
			
			
			
			
		end
		alt Delete Line
			UI -> GW : API_2106_deleteLine
			GW -> ES : API_2106_deleteLine
			ES -> WSIL : CartWSIL.updateCart
			ES <-- WSIL
			ES -> ESCH : update cache with response parameters
			ES <-- ESCH :
			GW <-- ES
			UI <-- GW
		end
		alt Duplicate Line
			UI -> GW : API_2126_duplicateLine
			GW -> ES : API_2126_duplicateLine
			ES -> WSIL : CartWSIL.updateCart
			ES <-- WSIL
			ES -> ESCH : update cache with response parameters
			ES <-- ESCH :
			GW <-- ES
			UI <-- GW
		end
		alt Delete Cart Level Device
			UI -> GW : API_2122_deleteCartLevelDevice
			GW -> ES : API_2122_deleteCartLevelDevice
			ES -> WSIL : CartWSIL.updateCart
			ES <-- WSIL
			ES -> ESCH : update cache with response parameters
			ES <-- ESCH :
			GW <-- ES
			UI <-- GW
		end
	end
end
/'****************************************************'/

UI->UI: Shopping cart review

/'****************************************************'/
/'****************************************************'/

UI -> UI : Find new number by Area or Zip code
note over UI
Line setup

end note

UI -> GW : API_2812_getNpaNxx
GW -> ES : API_2812_getNpaNxx
ES -> WSIL : NumberManagementWSIL.getNpaNxx
ES <-- WSIL
GW <-- ES
UI <-- GW

/'--------------------------------------------'/
UI -> GW : API_2807_getAvailableMsisdns
GW -> ES : API_2807_getAvailableMsisdns
ES -> WSIL : NumberManagementWSIL.getAvailableMsisdns
ES <-- WSIL
GW <-- ES
UI <-- GW

/'--------------------------------------------'/
UI -> GW : API_2808_reserveMsisdn
GW -> ES : API_2808_reserveMsisdn
ES -> WSIL : NumberManagementWSIL.reserveMsisdn
ES <-- WSIL
GW <-- ES
UI <-- GW

/'--------------------------------------------'/
UI -> GW : API_2809_releaseMsisdns
GW -> ES : API_2809_releaseMsisdns
ES -> WSIL : NumberManagementWSIL.releaseSimMsisdns
ES <-- WSIL
GW <-- ES
UI <-- GW

/'--------------------------------------------'/
UI -> GW : API_2004_addressValidation
GW -> ES : API_2004_addressValidation
ES -> WSIL : AddressWSIL.validateAddress
ES <-- WSIL
ES -> ESCH : update cache with response parameters
ES <-- ESCH :
GW <-- ES
UI <-- GW

/'--------------------------------------------'/
UI -> GW : API_2118_toUpdateLineName
GW -> ES : API_2118_toUpdateLineName
ES -> ESCH : update cache with response parameters
ES <-- ESCH :
ES -> WSIL : CartWSIL.updateCart
ES <-- WSIL
GW <-- ES
UI <-- GW


/'--------------------------------------------'/
UI -> GW : API_2120_cartCheckout 
GW -> ES : API_2120_cartCheckout
ES -> ESCH : update cache with response parameters
ES <-- ESCH :
ES -> WSIL : CartWSIL.updateCart
ES <-- WSIL
GW <-- ES
UI <-- GW

/'****************************************************'/



UI->UI: Order review



/'****************************************************'/

note over UI
Payments

end note

UI -> GW : API_513_getAccountFundingOptions
GW -> ES : API_513_getAccountFundingOptions
ES -> WSIL : getPaymentOptions
ES <-- WSIL
GW <-- ES
UI <-- GW

alt use existing balance as funding option
	UI -> GW : API_2607_updateExistingBalance
	GW -> ES : API_2607_updateExistingBalance
	ES -> WSIL : updateCart
	ES <-- WSIL
	ES -> ESCH : update cache with response parameters
	GW <-- ES
	UI <-- GW

end
alt use ePin or Voucher as funding options
	UI->UI: rep enters voucher details
	UI -> GW : api_237_validateRefill
	GW -> ES : api_237_validateRefill
	ES -> WSIL : getVoucherDetails
	ES <-- WSIL
	ES -> WSIL : checkVoucherElibility
	ES <-- WSIL
	UI -> UI : enable "apply" button on success response
	alt rep clicks on "apply" or removes voucher
		UI -> GW : API_2608_updateRefillCard
		GW -> ES : API_2608_updateRefillCard
		ES -> WSIL : updateCart
		ES <-- WSIL
		ES -> ESCH : update cache with response parameters
		GW <-- ES
		UI <-- GW
		UI -> UI : UI displays added voucher with a remove button
	end

end

alt pay extra amount
	UI -> GW : API_2609_updatePayExtraAmount
	GW -> ES : API_2609_updatePayExtraAmount
	ES -> ESCH : get D2A sku and offeringId
	ES -> WSIL : updateCart
	ES <-- WSIL
	ES -> ESCH : update cache with response parameters
	GW <-- ES
	UI <-- GW

end

par Get Stored Payment Method is for only Autenticated User
	UI -> GW : API_144_getPaymentsMethods
	GW -> ES : API_144_getPaymentsMethods
	ES -> WSIL : getStoredPaymentMethods
	ES <-- WSIL
	GW <-- ES
	UI <-- GW

end

UI -> GW : API_419_getEligiblePaymentMethods
GW -> ES : API_419_getEligiblePaymentMethods
ES -> WSIL : getPaymentOptions
ES <-- WSIL
GW <-- ES
UI <-- GW



alt Customer use one credit card to pay remaining amount
	note over UI
	By entering first 6 digits of the card, verify the card Type
	
	end note
	
	UI -> GW : API_528_getCardLogo
	GW -> ES : API_528_getCardLogo
	ES -> WSIL : cardTypeValidation
	ES <-- WSIL
	GW <-- ES
	UI <-- GW
	
	
	
	
	UI -> UI : Customer provide the card details and complete Address, customer can use billing or shipping addresses 
	UI -> UI : Encrypt card number
	
	UI -> GW : API_2150_createCheckout with confirm flag = true
	GW -> ES : API_2150_createCheckout with confirm flag = true
	ES -> OMS : API_372_OrderCheckoutEnterprise.createOrderCheckout
	ES <-- OMS
	ES -> OMS : API_340_OrderCheckoutEnterprise.confirmOrderCheckout
	ES <-- OMS
	GW <-- ES
	UI <-- GW
end
alt Customer use multiple credit cards to pay remaining amount
	note over UI
	By entering first 6 digits of first card, verify the card Type
	
	end note
	
	UI -> GW : API_528_getCardLogo
	GW -> ES : API_528_getCardLogo
	ES -> WSIL : cardTypeValidation
	ES <-- WSIL
	GW <-- ES
	UI <-- GW
	
	
	
	
	UI -> UI : Customer provide the card details and complete Address, customer can use billing or shipping addresses 
	UI -> UI : Encrypt card number
	
	UI -> GW : API_2150_createCheckout with confirm flag = false
	GW -> ES : API_2150_createCheckout with confirm flag = false
	ES -> OMS : API_372_OrderCheckoutEnterprise.createOrderCheckout
	ES <-- OMS
	GW <-- ES
	UI <-- GW
	loop next card
		note over UI
		By entering first 6 digits of the card, verify the card Type
		
		end note
		
		UI -> GW : API_528_getCardLogo
		GW -> ES : API_528_getCardLogo
		ES -> WSIL : cardTypeValidation
		ES <-- WSIL
		GW <-- ES
		UI <-- GW
		
		
		
		
		alt remaining amount > 0 and more payment(s) required
			UI -> UI : Customer provide the card details and complete Address, customer can use billing or shipping addresses 
			UI -> UI : Encrypt card number
			
			UI -> GW : API_2150_createCheckout with confirm flag = false
			GW -> ES : API_2150_createCheckout with confirm flag = false
			ES -> OMS : API_372_OrderCheckoutEnterprise.createOrderCheckout
			ES <-- OMS
			GW <-- ES
			UI <-- GW
		end
		alt remaining amount = $0, last payment 
			UI -> UI : Customer provide the card details and complete Address, customer can use billing or shipping addresses 
			UI -> UI : Encrypt card number
			
			UI -> GW : API_2150_createCheckout with confirm flag = true
			GW -> ES : API_2150_createCheckout with confirm flag = true
			ES -> OMS : API_372_OrderCheckoutEnterprise.createOrderCheckout
			ES <-- OMS
			ES -> OMS : API_340_OrderCheckoutEnterprise.confirmOrderCheckout
			ES <-- OMS
			GW <-- ES
			UI <-- GW
		end
		alt reverse a payment
			note over UI
			Customer can reverse a payment before confirming an order		
			end note
			UI -> UI : Customer selects related payment transaction to reverse 
			
			UI -> GW : API_2150_createCheckout with payment ID, confirm flag = false 
			GW -> ES : API_2150_createCheckout with payment ID, confirm flag = false
			ES -> OMS : API_372_OrderCheckoutEnterprise.createOrderCheckout
			ES <-- OMS

			GW <-- ES
			UI <-- GW
		end
	end
end
/'****************************************************'/
alt Review Order
	loop Review order is in progress?
		UI -> GW : API_2031_getCartDetails
		GW -> ES : API_2031_getCartDetails
		ES -> WSIL : CartWSIL.getCartDetails
		ES <-- WSIL
		GW <-- ES
		UI <-- GW
	end
	alt Order Accepted
			UI -> GW : API_2150_createCheckout  confirm flag = true 
			GW -> ES : API_2150_createCheckout  confirm flag = true 
			ES -> WSIL : OrderCheckoutEnterprise.createOrderCheckout with  confirm flag = true
			ES <-- WSIL
			GW <-- ES
			UI <-- GW
	end
end

/'****************************************************'/
note over UI
Order confirmation

end note


UI -> GW : API_2814_getOrderDetails
GW -> ES : API_2814_getOrderDetails
ES -> WSIL : OrderWSIL.getOrderDetails
ES <-- WSIL
GW <-- ES
UI <-- GW


UI -> UI : Show order confirmation page 

/'****************************************************'/


/'****************************************************'/
@enduml