@startuml
title Accessory purchase
participant "Rebellion UI" as UI
participant "API Gateway" as GW
participant "Experience Services" as ES
participant "ElasticSearch"
participant "Experience Services Cache" as ESCH
participant "WSIL" as WSIL
participant "SAP"

/'****************************************************'/
group Preload flow
AEM->ES: getPreLoad
ES-> WSIL:getProdudctDetailsWSIL.
ES->ES: Process Products
ES-> AEM: Products
AEM->ElasticSearch: UpdateProducts.

end

loop every30minutes
ES-> SAP: ProductsInventory
ES->ESCH: updateInventoryCache
end 



note over UI: Rebellion Application is initialized
UI->UI: Rep login()
UI->UI: Initiate Accessory Purchase by clicking on Shop
	
	
	
	/'--------------------------------------------'/
	UI -> GW : API_2004_addressValidation
	GW -> ES : API_2004_addressValidation
	ES -> WSIL : AddressWSIL.validateAddress
	ES <-- WSIL
	ES -> ESCH : update cache with response parameters
	ES <-- ESCH :
	GW <-- ES
	UI <-- GW
	/'-----------------------------------------------'/

note over UI
Browse Accessory

end note

UI -> GW : API_2100_retrieveProducts
GW -> ES : API_2100_retrieveProducts
ES -> WSIL : ProductOfferingSummaryWSIL.getProductOfferingSummary
ES -> ESCH : static data from Cache
ES <-- WSIL
GW <-- ES
UI <-- GW

/'--------------------------------------------'/
note over UI
Accessory PDP

end note
UI -> GW : API_2101_retrieveProductDetails
GW -> ES : API_2101_retrieveProductDetails
alt if no cache
ES -> ElasticSearch: getStaticProductDetails.
ES->ESCH: CreatStatisProductCache
end Cache
ES->ESCH : getProduct details from Cache


/'--------------------------------------------'/
UI -> GW : API_2107_addDevicetoCart
GW -> ES : API_2107_addDevicetoCart
ES -> WSIL : CartWSIL.updateCart
ES <-- WSIL
ES -> ESCH : update cache with response parameters
ES <-- ESCH :
GW <-- ES
UI <-- GW





UI->UI: Shopping cart review



/'--------------------------------------------'/
UI -> GW : API_2120_reviewOrder
GW -> ES : API_2120_reviewOrder
ES -> ESCH : update cache with response parameters
ES <-- ESCH :
ES -> WSIL : CartWSIL.updateCart
ES <-- WSIL
GW <-- ES
UI <-- GW

/'****************************************************'/



UI->UI: Order review



/'****************************************************'/

note over UI
Payments

end note

UI -> GW : API_419_getEligiblePaymentMethods
GW -> ES : API_419_getEligiblePaymentMethods
ES -> WSIL : getPaymentOptions
ES <-- WSIL
GW <-- ES
UI <-- GW




	note over UI
	By entering first 6 digits of the card, verify the card Type
	
	end note
	
	UI -> GW : API_528_getCardLogo
	GW -> ES : API_528_getCardLogo
	ES -> WSIL : cardTypeValidation
	ES <-- WSIL
	GW <-- ES
	UI <-- GW
	
	
	
	
	UI -> UI : Customer provide the card details and complete Address, customer can use billing or shipping addresses 
	UI -> UI : Encrypt card number
	
    note over UI
    for Retail, only Payment is done with swipe, createcheckout with confirm flag. Then checkout with confirm flag is called seperately.
    for care payment and order submit is done in same Call by checkout with confirm flag.
    end note
    
	UI -> GW : API_2150_createCheckout
	GW -> ES : API_2150_createCheckout
	ES -> WSIL : CartWSIL.createCheckout( confirm flag) 
	ES <-- WSIL
	GW <-- ES
	UI <-- GW
   
    

/'****************************************************'/
note over UI
Order confirmation

end note


UI -> GW : API_2814_getOrderDetails
GW -> ES : API_2814_getOrderDetails
ES -> WSIL : OrderWSIL.getOrderDetails
ES <-- WSIL
GW <-- ES
UI <-- GW


UI -> UI : Show order confirmation page 

/'****************************************************'/


/'****************************************************'/
@enduml