{
  "swagger" : "2.0",
  "info" : {
    "description" : "Twitter Sender Dm SMPD",
    "version" : "0.0.1",
    "title" : "msg-sender-twitter-dm",
    "contact" : {
      "name" : "SMPD",
      "email" : "arunkumar.sanga2@T-Mobile.com"
    }
  },
  "host" : "stg.message.t-mobile.com",
  "basePath" : "/sender/twitter/dm",
  "schemes" : [ "https" ],
  "paths" : {
    "/status" : {
      "get" : {
        "tags" : [ "API" ],
        "summary" : "Return application staus",
        "description" : "Returns application container status",
        "operationId" : "getStatus",
        "produces" : [ "application/json" ],
        "parameters" : [ ],
        "responses" : {
          "200" : {
            "description" : "Success",
            "schema" : {
              "$ref" : "#/definitions/Status"
            }
          }
        }
      }
    },
    "/manage/health" : {
      "get" : {
        "tags" : [ "API" ],
        "summary" : "Return application health check",
        "description" : "Returns application health check",
        "operationId" : "manage",
        "parameters" : [ ],
        "responses" : {
          "200" : {
            "description" : "Success"
          }
        }
      }
    }
  },
  "definitions" : {
    "Status" : {
      "type" : "object",
      "required" : [ "artifactId", "profile", "starTime", "version" ],
      "properties" : {
        "artifactId" : {
          "type" : "string",
          "description" : "Artifact Id"
        },
        "profile" : {
          "type" : "string",
          "description" : "Profile"
        },
        "starTime" : {
          "type" : "string",
          "description" : "Start time"
        },
        "version" : {
          "type" : "string",
          "description" : "Version"
        }
      },
      "description" : "Returns Status"
    }
  }
}