{
  "swagger": "2.0",
  "info": {
    "version": "1.0",
    "title": "msg-api-v1-retail-contact-info",
    "contact": {
      "name": "Cooper Stevens",
      "email": "cooper.stevens54@t-mobile.com",
      "url": "https://bitbucket.corporate.t-mobile.com/projects/SOC/repos/msg-api-v1-retail-contact-info/browse"
    },
    "license": {
      "name": "T-Mobile",
      "url": "https://t-mobile.com/api/license/"
    }
  },
  "basePath": "/api/v1/retail/contact/info",
  "host": "message.corporate.t-mobile.com",
  "schemes": [
    "https"
  ],
  "paths": {
    "/create": {
      "post": {
        "summary": "Create a new RetailContact",
        "operationId": "createRetailContact",
        "consumes": [
          "application/json"
        ],
        "parameters": [
          {
            "name": "RetailContactRequest",
            "in": "body",
            "description": "Retail Contact Request",
            "schema": {
              "$ref": "#/definitions/RetailContactRequest"
            }
          }
        ],
        "responses": {
          "200": {
            "description": "OK"
          },
          "500": {
            "description": "Failed to add RetailContact"
          }
        },
        "description": "Add RetailContact to DB",
        "tags": [
          "rest-controller"
        ]
      }
    },
    "/update": {
      "post": {
        "summary": "Update a new RetailContact",
        "operationId": "updateRetailContact",
        "consumes": [
          "application/json"
        ],
        "parameters": [
          {
            "name": "RetailContactRequest",
            "in": "body",
            "description": "Retail Contact Request",
            "schema": {
              "$ref": "#/definitions/RetailContactRequest"
            }
          }
        ],
        "responses": {
          "200": {
            "description": "OK"
          },
          "500": {
            "description": "Failed to update RetailContact"
          }
        },
        "description": "Update RetailContact to DB",
        "tags": [
          "rest-controller"
        ]
      }
    },
    "/delete": {
      "delete": {
        "summary": "Delete a new RetailContact",
        "operationId": "deleteRetailContact",
        "consumes": [
          "application/json"
        ],
        "parameters": [
          {
            "description": "customerId",
            "in": "query",
            "name": "customerId",
            "required": true,
            "type": "string",
            "x-example": "sms_123456_987654321"
          },
          {
            "description": "msisdn",
            "in": "query",
            "name": "msisdn",
            "required": true,
            "type": "string",
            "x-example": "987654321"
          }
        ],
        "responses": {
          "200": {
            "description": "OK"
          },
          "500": {
            "description": "Failed to delete RetailContact"
          }
        },
        "description": "Delete RetailContact to DB",
        "tags": [
          "rest-controller"
        ]
      }
    },
    "/get": {
      "get": {
        "summary": "Return All Retail Contacts in DB",
        "operationId": "getAllRetailContacts",
        "parameters": [
          {
            "description": "campaignId",
            "in": "query",
            "name": "campaignId",
            "required": false,
            "type": "string",
            "x-example": "123456_789012"
          },
          {
            "description": "customerId",
            "in": "query",
            "name": "customerId",
            "required": true,
            "type": "string",
            "x-example": "sms_123456_987654321"
          }
        ],
        "responses": {
          "200": {
            "description": "OK",
            "schema": {
              "$ref": "#/definitions/RetailContactResponse"
            }
          },
          "500": {
            "description": "Failed to delete RetailContact"
          }
        }
      }
    }
  },
  "tags": [
    {
      "description": "CRUD Operations for RetailContact",
      "name": "rest-controller"
    }
  ],
  "definitions": {
    "RetailContactRequest": {
      "type": "object",
      "description": "Retail Contact Request",
      "required": [
        "campaignId",
        "customerId",
        "msisdn"
      ],
      "properties": {
        "campaignId": {
          "type": "string",
          "example": "123456_987654",
          "description": "campaign id",
          "minLength": 1,
          "maxLength": 256,
          "pattern": "^[\\S]*$"
        },
        "customerId": {
          "type": "string",
          "example": "sms_123456_987654321",
          "description": "customer Id",
          "minLength": 1,
          "maxLength": 256,
          "pattern": "^[\\S]*$"
        },
        "msisdn": {
          "type": "string",
          "example": "123456789",
          "description": "msisdn",
          "minLength": 1,
          "maxLength": 256,
          "pattern": "^[\\S]*$"
        },
        "engagementId": {
          "type": "string",
          "example": "123456",
          "description": "engagement Id",
          "minLength": 1,
          "maxLength": 256,
          "pattern": "^[\\S]*$"
        },
        "leadId": {
          "type": "string",
          "example": "5951",
          "description": "lead Id",
          "minLength": 1,
          "maxLength": 256,
          "pattern": "^[\\S]*$"
        },
        "ntId": {
          "type": "string",
          "example": "xtest123",
          "description": "nt id",
          "minLength": 1,
          "maxLength": 256,
          "pattern": "^[\\S]*$"
        },
        "treatmentId": {
          "type": "string",
          "example": "12345",
          "description": "treatment id",
          "minLength": 1,
          "maxLength": 256,
          "pattern": "^[\\S]*$"
        },
        "campaignCycleId": {
          "type": "string",
          "example": "654",
          "description": "campaign Cycle Id",
          "minLength": 1,
          "maxLength": 256,
          "pattern": "^[\\S]*$"
        },
        "cId": {
          "type": "string",
          "example": "123",
          "description": "cId",
          "minLength": 1,
          "maxLength": 256,
          "pattern": "^[\\S]*$"
        },
        "ban": {
          "type": "string",
          "example": "9879513",
          "description": "ban",
          "minLength": 1,
          "maxLength": 256,
          "pattern": "^[\\S]*$"
        },
        "eventDate": {
          "type": "string",
          "example": "11/22/3333",
          "description": "campaign id",
          "minLength": 1,
          "maxLength": 256,
          "pattern": "^[\\S]*$"
        },
        "language": {
          "type": "string",
          "example": "english",
          "description": "language",
          "minLength": 1,
          "maxLength": 256,
          "pattern": "^[\\S]*$"
        },
        "storeId": {
          "type": "string",
          "example": "1234",
          "description": "storeId",
          "minLength": 1,
          "maxLength": 256,
          "pattern": "^[\\S]*$"
        },
        "storeType": {
          "type": "string",
          "example": "Retail",
          "description": "storeType",
          "minLength": 1,
          "maxLength": 256,
          "pattern": "^[\\S]*$"
        },
        "offerName": {
          "type": "string",
          "example": "iPhone offer",
          "description": "offerName",
          "minLength": 1,
          "maxLength": 256,
          "pattern": "^[\\S]*$"
        },
        "c2Url": {
          "type": "string",
          "example": "http://example.com",
          "description": "c2Url",
          "minLength": 1,
          "maxLength": 256,
          "pattern": "^[\\S]*$"
        },
        "offerStartDate": {
          "type": "string",
          "example": "11/22/3333",
          "description": "offer Start Date",
          "minLength": 1,
          "maxLength": 256,
          "pattern": "^[\\S]*$"
        },
        "skillName": {
          "type": "string",
          "example": "Retail (123)",
          "description": "skill Name",
          "minLength": 1,
          "maxLength": 256,
          "pattern": "^[\\S]*$"
        },
        "skillId": {
          "type": "number",
          "example": "123456987654",
          "description": "skill Id",
          "minLength": 1,
          "maxLength": 256
        },
        "promoMessage": {
          "type": "string",
          "example": "Hi this is the team from your Park Ave & Tustin Ranch Rd T-Mobile store https://t-mo.co/2zcPwFU. For a limited time, eligible customers can get two new lines for the price of one (after 24 monthly bill credits & Autopay). To learn more click here https://t-mo.co/2kwur0P or we can schedule an appointment for you!",
          "description": "promo Message",
          "minLength": 1,
          "maxLength": 2000,
          "pattern": "^[\\S]*$"
        },
        "expirationTime": {
          "type": "number",
          "example": "123456987654",
          "description": "expiration Time",
          "minLength": 1,
          "maxLength": 256
        }
      }
    },
    "RetailContactResponse": {
      "type": "object",
      "description": "Retail Contact Response",
      "required": [
        "campaignId",
        "customerId",
        "msisdn"
      ],
      "properties": {
        "campaignId": {
          "type": "string",
          "example": "123456_987654",
          "description": "campaign id",
          "minLength": 1,
          "maxLength": 256,
          "pattern": "^[\\S]*$"
        },
        "customerId": {
          "type": "string",
          "example": "sms_123456_987654321",
          "description": "customer Id",
          "minLength": 1,
          "maxLength": 256,
          "pattern": "^[\\S]*$"
        },
        "msisdn": {
          "type": "string",
          "example": "123456789",
          "description": "msisdn",
          "minLength": 1,
          "maxLength": 256,
          "pattern": "^[\\S]*$"
        },
        "engagementId": {
          "type": "string",
          "example": "123456",
          "description": "engagement Id",
          "minLength": 1,
          "maxLength": 256,
          "pattern": "^[\\S]*$"
        },
        "leadId": {
          "type": "string",
          "example": "5951",
          "description": "lead Id",
          "minLength": 1,
          "maxLength": 256,
          "pattern": "^[\\S]*$"
        },
        "ntId": {
          "type": "string",
          "example": "xtest123",
          "description": "nt id",
          "minLength": 1,
          "maxLength": 256,
          "pattern": "^[\\S]*$"
        },
        "treatmentId": {
          "type": "string",
          "example": "12345",
          "description": "treatment id",
          "minLength": 1,
          "maxLength": 256,
          "pattern": "^[\\S]*$"
        },
        "campaignCycleId": {
          "type": "string",
          "example": "654",
          "description": "campaign Cycle Id",
          "minLength": 1,
          "maxLength": 256,
          "pattern": "^[\\S]*$"
        },
        "cId": {
          "type": "string",
          "example": "123",
          "description": "cId",
          "minLength": 1,
          "maxLength": 256,
          "pattern": "^[\\S]*$"
        },
        "ban": {
          "type": "string",
          "example": "9879513",
          "description": "ban",
          "minLength": 1,
          "maxLength": 256,
          "pattern": "^[\\S]*$"
        },
        "eventDate": {
          "type": "string",
          "example": "11/22/3333",
          "description": "campaign id",
          "minLength": 1,
          "maxLength": 256,
          "pattern": "^[\\S]*$"
        },
        "language": {
          "type": "string",
          "example": "english",
          "description": "language",
          "minLength": 1,
          "maxLength": 256,
          "pattern": "^[\\S]*$"
        },
        "storeId": {
          "type": "string",
          "example": "1234",
          "description": "storeId",
          "minLength": 1,
          "maxLength": 256,
          "pattern": "^[\\S]*$"
        },
        "storeType": {
          "type": "string",
          "example": "Retail",
          "description": "storeType",
          "minLength": 1,
          "maxLength": 256,
          "pattern": "^[\\S]*$"
        },
        "offerName": {
          "type": "string",
          "example": "iPhone offer",
          "description": "offerName",
          "minLength": 1,
          "maxLength": 256,
          "pattern": "^[\\S]*$"
        },
        "c2Url": {
          "type": "string",
          "example": "http://example.com",
          "description": "c2Url",
          "minLength": 1,
          "maxLength": 256,
          "pattern": "^[\\S]*$"
        },
        "offerStartDate": {
          "type": "string",
          "example": "11/22/3333",
          "description": "offer Start Date",
          "minLength": 1,
          "maxLength": 256,
          "pattern": "^[\\S]*$"
        },
        "skillName": {
          "type": "string",
          "example": "Retail (123)",
          "description": "skill Name",
          "minLength": 1,
          "maxLength": 256,
          "pattern": "^[\\S]*$"
        },
        "skillId": {
          "type": "number",
          "example": "123456987654",
          "description": "skill Id",
          "minLength": 1,
          "maxLength": 256
        },
        "promoMessage": {
          "type": "string",
          "example": "Hi this is the team from your Park Ave & Tustin Ranch Rd T-Mobile store https://t-mo.co/2zcPwFU. For a limited time, eligible customers can get two new lines for the price of one (after 24 monthly bill credits & Autopay). To learn more click here https://t-mo.co/2kwur0P or we can schedule an appointment for you!",
          "description": "promo Message",
          "minLength": 1,
          "maxLength": 2000,
          "pattern": "^[\\S]*$"
        }
      }
    }
  }
}