
{
  "swagger": "2.0",
  "info": {
    "description": "Api Documentation",
    "version": "1.0",
    "title": "Api Documentation",
    "termsOfService": "urn:tos",
    "contact": {

    },
    "license": {
      "name": "Apache 2.0",
      "url": "http://www.apache.org/licenses/LICENSE-2.0"
    }
  },
  "host": "localhost",
  "basePath": "/v1/agent/state",
  "tags": [
    {
      "name": "agent-state-rest-controller",
      "description": "Agent State Rest Controller"
    }
  ],
  "paths": {
    "/getState/{agentId}": {
      "get": {
        "tags": [
          "agent-state-rest-controller"
        ],
        "summary": "getPreferredLanguage",
        "operationId": "getPreferredLanguageUsingGET",
        "consumes": [
          "application/json"
        ],
        "produces": [
          "*/*"
        ],
        "parameters": [
          {
            "name": "agentId",
            "in": "path",
            "description": "agentId",
            "required": true,
            "type": "string"
          }
        ],
        "responses": {
          "200": {
            "description": "OK",
            "schema": {
              "$ref": "#/definitions/AgentState"
            }
          },
          "401": {
            "description": "Unauthorized"
          },
          "403": {
            "description": "Forbidden"
          },
          "404": {
            "description": "Not Found"
          }
        }
      }
    },
    "/postState": {
      "post": {
        "tags": [
          "agent-state-rest-controller"
        ],
        "summary": "postAgentState",
        "operationId": "postAgentStateUsingPOST",
        "consumes": [
          "application/json"
        ],
        "produces": [
          "*/*"
        ],
        "parameters": [
          {
            "in": "body",
            "name": "agentState",
            "description": "agentState",
            "required": true,
            "schema": {
              "$ref": "#/definitions/AgentState"
            }
          }
        ],
        "responses": {
          "200": {
            "description": "OK",
            "schema": {
              "$ref": "#/definitions/AgentState"
            }
          },
          "201": {
            "description": "Created"
          },
          "401": {
            "description": "Unauthorized"
          },
          "403": {
            "description": "Forbidden"
          },
          "404": {
            "description": "Not Found"
          }
        }
      }
    }
  },
  "definitions": {
    "AgentState": {
      "type": "object",
      "properties": {
        "agentId": {
          "type": "string"
        },
        "preferredLanguage": {
          "type": "string"
        }
      }
    }
  }
}