{
  "swagger": "2.0",
  "info": {
    "description": "This document defines all of the requirements for the T-Mobile Store Hour API",
    "version": "1.0",
    "title": "msg-utility-promo",
    "termsOfService": "https://www.t-mobile.com/terms/",
    "contact":{
      "name":"Samantha Snider",
      "email":"Samantha.Snider@T-Mobile.com"
    },
    "license": {
      "name": "T-Mobile",
      "url": "https://t-mobile.com/api/license/"
    }
  },
  "host": "localhost",
  "basePath": "/v1/utility/promo",
  "tags": [
    {
      "name": "utility-promo-controller",
      "description": "Utility Promo Controller"
    }
  ],
  "schemes": [
    "https"
  ],
  "paths": {
    "/campaign-id/{campaign-id}": {
      "get": {
        "x-api-pattern": "QueryResource",
        "tags": [
          "utility-promo-controller"
        ],
        "summary": "get promo message",
        "operationId": "getPromoDataUsingGET",
        "consumes": [
          "application/json"
        ],
        "produces": [
          "application/json"
        ],
        "parameters": [
          {
            "name": "campaign-id",
            "in": "path",
            "description": "campaignId",
            "required": true,
            "type": "string"
          },
          {
            "name": "store-id",
            "in": "query",
            "description": "ID of store",
            "required": false,
            "type": "string"
          },
          {
            "name": "nt-id",
            "in": "query",
            "description": "ntId",
            "required": false,
            "type": "string"
          }
        ],
        "responses": {
          "200": {
            "description": "OK",
            "schema": {
              "$ref": "#/definitions/PromoMessageResponse"
            }
          },
          "404": {
            "description": "Not Found"
          }
        }
      }
    }
  },
  "definitions": {
    "PromoMessageResponse": {
      "type": "object",
      "properties": {
        "promoMessage": {
          "type": "string",
          "description": "promo message string"
        }
      }
    }
  }
}