{
  "swagger": "2.0",
  "info": {
    "description": "Routing API ",
    "version": "0.1.0",
    "title": "msg-utility-routing-api",
    "contact": {
      "name": "Meghana Ravi",
      "url": "https://tmobile.atlassian.net/secure/RapidBoard.jspa?rapidView=646&projectKey=COOK",
      "email": "MEGHANA.RAVI1@T-Mobile.com"
    }
  },
  "host": "example.com",
  "basePath": "/utility/routing",
  "schemes": [
    "https"
  ],
  "consumes": [
    "application/json"
  ],
  "produces": [
    "application/json"
  ],
  "paths": {
    "/{channel}/{channelId}": {
      "get": {
        "summary": "routeMessage",
        "parameters": [],
        "responses": {
          "200": {
            "description": "Status 200"
          }
        }
      },
      "parameters": [
        {
          "name": "channel",
          "in": "path",
          "required": true,
          "type": "string"
        },
        {
          "name": "channelId",
          "in": "path",
          "required": true,
          "type": "string"
        }
      ]
    },
    "telesales/{channel}/{subchannel}/{channelId}": {
      "get": {
        "summary": "routeMessage",
        "parameters": [],
        "responses": {
          "200": {
            "description": "Status 200"
          }
        }
      },
      "parameters": [
        {
          "name": "channel",
          "in": "path",
          "required": true,
          "type": "string"
        },
        {
          "name": "subchannel",
          "in": "path",
          "required": true,
          "type": "string"
        },
        {
          "name": "channelId",
          "in": "path",
          "required": true,
          "type": "string"
        }
      ]
    }
  },
  "definitions": {
    "Error": {
      "type": "object",
      "required": [
        "code"
      ],
      "properties": {
        "code": {
          "type": "integer",
          "description": "Status",
          "minimum": 400,
          "maximum": 599
        },
        "reason": {
          "type": "string",
          "description": "Reason Phrase"
        },
        "description": {
          "type": "string",
          "description": "Description of the error"
        }
      },
      "description": "Error"
    },
    "TextMetaData": {
      "type": "object",
      "required": [
        "skillId",
        "skillType",
        "textMessage"
      ],
      "properties": {
        "textMessage": {
          "type": "string",
          "description": "Get the text message from text-api"
        },
        "skillId": {
          "type": "string",
          "description": "We have to append the skillId and along with the message"
        },
        "skillType": {
          "type": "string",
          "description": "We have to append the skillType and along with the textMessage and skillType"
        }
      },
      "description": "After calling the text-api we will respond the bot with textMessage skillId and skillType"
    }
  }
}