{
  "swagger": "2.0",
  "info": {
    "description": "Msg Bot Google",
    "version": "1.3.5",
    "title": "msg-bot-google",
    "contact": {
      "name": "Chris Veal",
      "email": "Chris.Veal1@T-Mobile.com"
    }
  },
  "host": "secure.message.t-mobile.com",
  "basePath": "/v1/assistant",
  "schemes": [
    "https"
  ],
  "paths": {
    "/webhook": {
      "post": {
        "tags": [
          "API"
        ],
        "summary": "Send request",
        "description": "Sends request to Assist",
        "operationId": "webhook",
        "parameters": [
          {
            "name": "request",
            "in": "body",
            "required": true,
            "schema": {
              "$ref": "#/definitions/Request"
            }
          }
        ],
        "responses": {
          "200": {
            "description": "Success",
            "schema": {
              "$ref": "#/definitions/Request"
            }
          },
          "400": {
            "description": "Bad Request"
          },
          "500": {
            "description": "Internal Server Error"
          }
        }
      }
    }
  },
  "definitions": {
    "Request": {
      "type": "object",
      "description": "JSON request"
    }
  }
}