@startuml

title T-Mobile Tuesdays' Call Flow (Sequence) Diagram - Offer

actor "Client" as Device
participant "Application" as Application

box "Prize Logic WebApi" #AliceBlue
   participant "Controller" as Controller
   participant "Service" as Service
end box
   participant "Cache" as Cache
participant "Database" as DB

==/offer/{rewardKey}/claim==
Application->Controller: /offer/{rewardKey}/claim
Controller->Service: _offerService.ClaimOffer(rewardKey, _participantId)
Service->Cache: _participantCache.GetParticipantSummary(participantId)
Application<--Cache: Offer

==/offer/{rewardKey}/gift==
Application->Controller: /offer/{rewardKey}/gift
Controller->Service: _offerService.GiftOffer(rewardKey, _participantId)
Service->Cache: _promotionCache.GetRewardWithContent(rewardKey, platform, scale)
Service->Cache: _participantCache.GetWalletItem(participantId, rewardKey)
Service->DB: _repository.GiftListOffer(rewardDefinition.RewardId, participantId, now, _appInformationValueProvider.Value.Platform)
Service->DB: _repository.GiftOffer(rewardDefinition.RewardId, participantId, now, _appInformationValueProvider.Value.Platform)
Service->Cache: _participantCache.SetWalletItem(participantId, rewardDefinition.RewardKey, walletItem)
Application<--Cache: Offer

==/offer/{rewardKey}/details==
Application->Controller: /offer/{rewardKey}/details
Controller->Service: _offerService.OfferDetails(rewardKey, _participantId)
Service->Cache: _promotionCache.GetRewardWithContent(rewardKey, platform, scale)
Service->Cache: _participantCache.GetWalletItem(participantId, rewardKey)
Application<--Cache: Offer

==/offer/{rewardKey}/redeem==
Application->Controller: /offer/{rewardKey}/redeem
Controller->Service: _offerService.RedeemOffer(rewardKey, _participantId)
Service->Cache: _promotionCache.GetRewardWithContent(rewardKey, platform, scale)
Service->Cache: _participantCache.GetWalletItem(participantId, rewardKey)
Service->DB: _repository.GetOfferDetails(participantId, rewardDefinition.RewardId)
Service->Cache: _participantCache.SetWalletItem(participantId, rewardDefinition.RewardKey, walletItem)
Service->DB: _repository.RedeemOffer(participantId, rewardDefinition.RewardId, now)
Service->Cache: _participantCache.SetWalletItem(participantId, rewardDefinition.RewardKey, walletItem)
Application<--Cache: Offer

==/offer/{rewardKey}/gift/{giftCode}/redeem==
Application->Controller: /offer/{rewardKey}/gift/{giftCode}/redeem
Controller->Service: _offerService.RedeemGift(rewardKey, giftCode, giftRequest.EmailAddress, giftRequest.PhoneNumber, giftRequest.ZipCode, giftRequest.IsCustomer)
Service->Cache: _promotionCache.GetRewardWithContent(rewardKey, platform, scale)
Service->DB: _repository.RedeemGift(rewardDefinition.RewardId, giftCode, emailAddress, phoneNumber, zipCode, isCustomer, now)
Application<--DB: Gift

==/offer/gift/{giftRecipientTag}/optin==
Application->Controller: /offer/gift/{giftRecipientTag}/optin
Controller->Service: _offerService.OptinGift(giftRecipientTag)
Service->DB: _repository.SaveGiftOptin(giftRecipientTag, now)

@enduml