@startuml

title T-Mobile Tuesdays' Call Flow (Sequence) Diagram - Prize

actor "Client" as Device
participant "Application" as Application

box "Prize Logic WebApi" #AliceBlue
   participant "Controller" as Controller
   participant "Service" as Service
end box
   participant "Cache" as Cache
participant "Database" as DB

==/qa/participant/search/{number}==
Application->Controller: /qa/participant/search/{number}
Controller->Service: qaService.GetParticipants(number)
Service->DB: _qaRepo.GetParticipants(number)
Application<--DB: QaSearchItem

==/qa/participant/all/delete==
Application->Controller: /qa/participant/all/delete
Controller->Service: qaService.DeleteParticipants(request.User)
Service->DB: _qaRepo.DeleteParticipants(user)
Service->Cache: _qaCacheService.DeleteAllParticipants()

==/qa/participant/delete==
Application->Controller: /qa/participant/delete
Controller->Service: qaService.DeleteParticipants(request.User, request.Participants)
Service->DB: 
Service->Cache: 

==/qa/participant/all/resetplay==
Application->Controller: /qa/participant/all/resetplay
Controller->Service: qaService.ResetPlayStatus(request.User)
Service->DB: 
Service->Cache: 

==/qa/participant/resetplay==
Application->Controller: /qa/participant/resetplay
Controller->Service: qaService.ResetPlayStatus(request.User, request.Participants)
Service->DB: 
Service->Cache: 

==/qa/participant/all/resetoffer==
Application->Controller: /qa/participant/all/resetoffer
Controller->Service: qaService.ResetAllOffers(request.User)
Service->DB: 
Service->Cache: 

==/qa/participant/resetoffer==
Application->Controller: /qa/participant/resetoffer
Controller->Service: qaService.ResetAllOffers(request.User, request.Participants)
Service->DB: 
Service->Cache: 

==/qa/participant/all/resetprize==
Application->Controller: /qa/participant/all/resetprize
Controller->Service: qaService.ResetAllPrizes(request.User, request.Participants)
Service->DB: 
Service->Cache: 

==/qa/participant/all/resetarv==
Application->Controller: /qa/participant/all/resetarv
Controller->Service: qaService.ResetAffidavitAndArvStatus(request.User)
Service->DB: 
Service->Cache: 

==/qa/participant/resetarv==
Application->Controller: /qa/participant/resetarv
Controller->Service: qaService.ResetAffidavitAndArvStatus(request.User, request.Participants)
Service->DB: 
Service->Cache: 

@enduml