{
	"swagger": "2.0",
	"info": {
		"title": "StoreAppointmentService",
		"version": "1.0.0",
		"description": "This API provides operations to schedule, re-scheuldle, delete appointments of T-Mobile stores. It is also provides appointment details of available slots of stores, verify the appointment eligibility and get the reasons of schedule or cancel appointments. The API uses OAuth2 security, if authentication fails the service sends response back to vendor with status code 401 Unautherized. The API validates the JSON format and the required fields in the request. If the validation of the data fails then the service sends response back to vendor with status code 400 Bad request.If the authentication and validation of the required fields are successful, it considers it to be a valid request. Then the service sends response back to vendor with status code 201 or 200 Success after successfully processing the request",
		"contact": {
			"name": "TMNG Self Service - In Store Appointments",
			"email": "TMNGSelfServiceAPIs@T-Mobile.com"
		}
	},
	"host": "api.t-mobile.com",
	"basePath": "/customer-interaction/v1",
	"schemes": [
		"https"
	],
	"x-servers": [
		{
			"url": "https://tmobilec-sb08.apigee.net/{basepath}",
			"description": "Sandbox Server"
		},
		{
			"url": "https://api.t-mobile.com/{basepath}",
			"description": "Live Server"
		}
	],
	"tags": [
		{
			"name": "T-Mobile stores appointment APIs",
			"description": "API provides operations to schedule, re-scheuldle, delete appointments of T-Mobile stores"
		}
	],
	"consumes": [
		"application/json"
	],
	"produces": [
		"application/json"
	],
	"paths": {
		"/appointment/eligibilitylist": {
			"get": {
				"tags": [
					"Appointment"
				],
				"summary": "Get all the stores information those are offering appointments",
				"description": "return all the stores those are offering appointment to the users",
				"operationId": "getStoreAppointmentEligibility",
				"security": [
					{
						"Oauth": [
							"get:StoreAppointmentService"
						]
					}
				],
				"parameters": [
					{
						"name": "Authorization",
						"in": "header",
						"description": "OAuth 2.0 access token with the authentication type set as Bearer.",
						"required": false,
						"type": "string",
						"x-example": "Bearer YWMtHNa3Okb6EeemCisoFv6"
					},
					{
						"name": "If-Match",
						"in": "header",
						"description": "The If-Match header specifies an ETag-related condition to be placed on the execution of a request.  The request will only be executed if the ETag of the requested resource matches one of those specified in the If-Match header.  Because the behavior is complex, the details for usage are provided at http://www.w3.org/Protocols/rfc2616/rfc2616-sec14.html .",
						"required": false,
						"type": "string",
						"x-example": "xxyyzz"
					},
					{
						"name": "If-None-Match",
						"in": "header",
						"description": "The If-None-Match header specifies an ETag-related condition to be placed on the execution of a request.  The request will NOT be executed if the ETag of the requested resource matches one of those specified in the If-None-Match header.  Because the behavior is complex, the details for usage are provided at http://www.w3.org/Protocols/rfc2616/rfc2616-sec14.html",
						"required": false,
						"type": "string",
						"x-example": "xxyyzz"
					}
				],
				"responses": {
					"400": {
						"description": "Invalid request error",
						"schema": {
							"$ref": "#/definitions/Error"
						},
						"examples": {
							"application/json": {
								"errorDesc": "Invalid request error"
							}
						}
					},
					"401": {
						"description": "Client not authorized",
						"schema": {
							"$ref": "#/definitions/Error"
						},
						"examples": {
							"application/json": {
								"errorDesc": "Client not authorized"
							}
						}
					},
					"403": {
						"description": "Client access denied",
						"schema": {
							"$ref": "#/definitions/Error"
						},
						"examples": {
							"application/json": {
								"errorDesc": "Client access denied"
							}
						}
					},
					"500": {
						"description": "Internal server error",
						"schema": {
							"$ref": "#/definitions/Error"
						},
						"examples": {
							"application/json": {
								"errorDesc": "Internal server error"
							}
						}
					},
					"200": {
						"description": "All the stores information those are offering appointments",
						"schema": {
							"$ref": "#/definitions/Store"
						},
						"headers": {
							"Access-Control-Allow-Headers": {
								"description": "The Access-Control-Allow-Headers header indicates, as part of a pre-flight request which headers can be used on the actual request.",
								"type": "string",
								"x-example": "origin, x-requested-with, accept, content-type"
							},
							"Access-Control-Allow-Methods": {
								"description": "The Access-Control-Allow-Methods header indicates, as part of a pre-flight request which methods can be used on the actual request.",
								"type": "string",
								"x-example": "GET, PUT, POST, DELETE"
							},
							"Access-Control-Allow-Origin": {
								"description": "The Access-Control-Allow-Origin header indicates whether a resource can be shared by returning the value of the Origin request header in the response.",
								"type": "string",
								"x-example": "accept, no-cache, content-length"
							},
							"Cache-Control": {
								"description": "no-cache",
								"type": "string",
								"x-example": "max-age=3600, must-revalidate"
							},
							"Content-Length": {
								"description": "The Content-Length header specifies the actual length of the returned payload.",
								"type": "string",
								"x-example": "50"
							},
							"Content-Type": {
								"description": "The Content-Length header specifies the actual length of the returned payload.",
								"type": "string",
								"x-example": "application/json, text/html"
							},
							"ETag": {
								"description": "The ETag header specifies the unique entity tag value for the returned resource.",
								"type": "string",
								"x-example": "568e31d503391-gzip"
							},
							"Expires": {
								"description": "The Expires header gives the date-time after which the response is considered stale.",
								"type": "string",
								"x-example": "Mon, 02 Apr 2018 20:34:50 GMT"
							},
							"servicetransactionid": {
								"description": "Internal identifier for transaction tracking an individual transaction/API request within API platform. Do not receive/do not send to downstream",
								"type": "string",
								"x-example": "568e31d503391"
							}
						}
					}
				}
			}
		},
		"/appointment/reasonlist": {
			"get": {
				"tags": [
					"Appointment"
				],
				"summary": "Get all the reasons to book an appointments",
				"description": "return all the reasons to book an appointments",
				"operationId": "getAppointmentReasons",
				"security": [
					{
						"Oauth": [
							"get:StoreAppointmentService"
						]
					}
				],
				"parameters": [
					{
						"name": "Authorization",
						"in": "header",
						"description": "OAuth 2.0 access token with the authentication type set as Bearer.",
						"required": false,
						"type": "string",
						"x-example": "Bearer YWMtHNa3Okb6EeemCisoFv6"
					},
					{
						"name": "If-Match",
						"in": "header",
						"description": "The If-Match header specifies an ETag-related condition to be placed on the execution of a request.  The request will only be executed if the ETag of the requested resource matches one of those specified in the If-Match header.  Because the behavior is complex, the details for usage are provided at http://www.w3.org/Protocols/rfc2616/rfc2616-sec14.html .",
						"required": false,
						"type": "string",
						"x-example": "xxyyzz"
					},
					{
						"name": "If-None-Match",
						"in": "header",
						"description": "The If-None-Match header specifies an ETag-related condition to be placed on the execution of a request.  The request will NOT be executed if the ETag of the requested resource matches one of those specified in the If-None-Match header.  Because the behavior is complex, the details for usage are provided at http://www.w3.org/Protocols/rfc2616/rfc2616-sec14.html",
						"required": false,
						"type": "string",
						"x-example": "xxyyzz"
					},
					{
						"name": "reasonType",
						"in": "query",
						"required": true,
						"type": "string",
						"description": "type of reasons either schedule or cancel",
						"enum": [
							"schedule",
							"cancel"
						],
						"x-example": [
							"schedule",
							"cancel"
						]
					}
				],
				"responses": {
					"200": {
						"description": "All the reasons to book an appointments",
						"schema": {
							"$ref": "#/definitions/Reasons"
						},
						"headers": {
							"Access-Control-Allow-Headers": {
								"description": "The Access-Control-Allow-Headers header indicates, as part of a pre-flight request which headers can be used on the actual request.",
								"type": "string",
								"x-example": "origin, x-requested-with, accept, content-type"
							},
							"Access-Control-Allow-Methods": {
								"description": "The Access-Control-Allow-Methods header indicates, as part of a pre-flight request which methods can be used on the actual request.",
								"type": "string",
								"x-example": "GET, PUT, POST, DELETE"
							},
							"Access-Control-Allow-Origin": {
								"description": "The Access-Control-Allow-Origin header indicates whether a resource can be shared by returning the value of the Origin request header in the response.",
								"type": "string",
								"x-example": "accept, no-cache, content-length"
							},
							"Cache-Control": {
								"description": "no-cache",
								"type": "string",
								"x-example": "max-age=3600, must-revalidate"
							},
							"Content-Length": {
								"description": "The Content-Length header specifies the actual length of the returned payload.",
								"type": "string",
								"x-example": "50"
							},
							"Content-Type": {
								"description": "The Content-Length header specifies the actual length of the returned payload.",
								"type": "string",
								"x-example": "application/json, text/html"
							},
							"ETag": {
								"description": "The ETag header specifies the unique entity tag value for the returned resource.",
								"type": "string",
								"x-example": "568e31d503391-gzip"
							},
							"Expires": {
								"description": "The Expires header gives the date-time after which the response is considered stale.",
								"type": "string",
								"x-example": "Mon, 02 Apr 2018 20:34:50 GMT"
							},
							"servicetransactionid": {
								"description": "Internal identifier for transaction tracking an individual transaction/API request within API platform. Do not receive/do not send to downstream",
								"type": "string",
								"x-example": "568e31d503391"
							}
						}
					},
					"400": {
						"description": "Invalid request error",
						"schema": {
							"$ref": "#/definitions/Error"
						},
						"examples": {
							"application/json": {
								"errorDesc": "Invalid request error"
							}
						}
					},
					"401": {
						"description": "Client not authorized",
						"schema": {
							"$ref": "#/definitions/Error"
						},
						"examples": {
							"application/json": {
								"errorDesc": "Client not authorized"
							}
						}
					},
					"403": {
						"description": "Client access denied",
						"schema": {
							"$ref": "#/definitions/Error"
						},
						"examples": {
							"application/json": {
								"errorDesc": "Client access denied"
							}
						}
					},
					"500": {
						"description": "Internal server error",
						"schema": {
							"$ref": "#/definitions/Error"
						},
						"examples": {
							"application/json": {
								"errorDesc": "Internal server error"
							}
						}
					}
				}
			}
		},
		"/appointment/schedule": {
			"post": {
				"tags": [
					"Appointment"
				],
				"summary": "User can schedule an appointment for a specific store",
				"description": "post the storeId, leadId, appointmentDate (MM/DD/YYYY), appointmentTime (hh:mm), appointmentDeepLink to scheduled an appointment",
				"operationId": "scheduleAppointment",
				"security": [
					{
						"Oauth": [
							"schedule:StoreAppointmentService"
						]
					}
				],
				"consumes": [
					"application/json"
				],
				"produces": [
					"application/json"
				],
				"parameters": [
					{
						"name": "Authorization",
						"in": "header",
						"description": "OAuth 2.0 access token with the authentication type set as Bearer.",
						"required": false,
						"type": "string",
						"x-example": "Bearer YWMtHNa3Okb6EeemCisoFv6"
					},
					{
						"name": "If-Match",
						"in": "header",
						"description": "The If-Match header specifies an ETag-related condition to be placed on the execution of a request.  The request will only be executed if the ETag of the requested resource matches one of those specified in the If-Match header.  Because the behavior is complex, the details for usage are provided at http://www.w3.org/Protocols/rfc2616/rfc2616-sec14.html .",
						"required": false,
						"type": "string",
						"x-example": "xxyyzz"
					},
					{
						"name": "If-None-Match",
						"in": "header",
						"description": "The If-None-Match header specifies an ETag-related condition to be placed on the execution of a request.  The request will NOT be executed if the ETag of the requested resource matches one of those specified in the If-None-Match header.  Because the behavior is complex, the details for usage are provided at http://www.w3.org/Protocols/rfc2616/rfc2616-sec14.html",
						"required": false,
						"type": "string",
						"x-example": "xxyyzz"
					},
					{
						"in": "body",
						"name": "body",
						"description": "Appointment object that needs to be added to the salesforce datasource",
						"required": true,
						"schema": {
							"$ref": "#/definitions/Appointment"
						}
					}
				],
				"responses": {
					"200": {
						"description": "Confirmation details with leadId and appointment Id",
						"schema": {
							"$ref": "#/definitions/AppointmentResponse"
						},
						"headers": {
							"Access-Control-Allow-Headers": {
								"description": "The Access-Control-Allow-Headers header indicates, as part of a pre-flight request which headers can be used on the actual request.",
								"type": "string",
								"x-example": "origin, x-requested-with, accept, content-type"
							},
							"Access-Control-Allow-Methods": {
								"description": "The Access-Control-Allow-Methods header indicates, as part of a pre-flight request which methods can be used on the actual request.",
								"type": "string",
								"x-example": "GET, PUT, POST, DELETE"
							},
							"Access-Control-Allow-Origin": {
								"description": "The Access-Control-Allow-Origin header indicates whether a resource can be shared by returning the value of the Origin request header in the response.",
								"type": "string",
								"x-example": "accept, no-cache, content-length"
							},
							"Cache-Control": {
								"description": "no-cache",
								"type": "string",
								"x-example": "max-age=3600, must-revalidate"
							},
							"Content-Length": {
								"description": "The Content-Length header specifies the actual length of the returned payload.",
								"type": "string",
								"x-example": "50"
							},
							"Content-Type": {
								"description": "The Content-Length header specifies the actual length of the returned payload.",
								"type": "string",
								"x-example": "application/json, text/html"
							},
							"ETag": {
								"description": "The ETag header specifies the unique entity tag value for the returned resource.",
								"type": "string",
								"x-example": "568e31d503391-gzip"
							},
							"Expires": {
								"description": "The Expires header gives the date-time after which the response is considered stale.",
								"type": "string",
								"x-example": "Mon, 02 Apr 2018 20:34:50 GMT"
							},
							"Location": {
								"description": "The Location header specifies the URI of a created resource, or redirects the API consumer to an alternate resource location.",
								"type": "string",
								"x-example": "api.t-mobile.com"
							},
							"servicetransactionid": {
								"description": "Internal identifier for transaction tracking an individual transaction/API request within API platform. Do not receive/do not send to downstream",
								"type": "string",
								"x-example": "568e31d503391"
							}
						}
					},
					"400": {
						"description": "Invalid request error",
						"schema": {
							"$ref": "#/definitions/Error"
						},
						"examples": {
							"application/json": {
								"errorDesc": "Invalid request error"
							}
						}
					},
					"401": {
						"description": "Client not authorized",
						"schema": {
							"$ref": "#/definitions/Error"
						},
						"examples": {
							"application/json": {
								"errorDesc": "Client not authorized"
							}
						}
					},
					"403": {
						"description": "Client access denied",
						"schema": {
							"$ref": "#/definitions/Error"
						},
						"examples": {
							"application/json": {
								"errorDesc": "Client access denied"
							}
						}
					},
					"500": {
						"description": "Internal server error",
						"schema": {
							"$ref": "#/definitions/Error"
						},
						"examples": {
							"application/json": {
								"errorDesc": "Internal server error"
							}
						}
					}
				}
			}
		},
		"/appointment/reschedule": {
			"post": {
				"tags": [
					"Appointment"
				],
				"summary": "User can re-schedule an appointment for a specific store",
				"description": "post the storeId, leadId, appointmentId, appointmentDate (MM/DD/YYYY), appointmentTime (hh:mm), appointmentDeepLink to re-scheduled an appointment",
				"operationId": "rescheduleAppointment",
				"security": [
					{
						"Oauth": [
							"re-schedule:StoreAppointmentService"
						]
					}
				],
				"consumes": [
					"application/json"
				],
				"produces": [
					"application/json"
				],
				"parameters": [
					{
						"name": "Authorization",
						"in": "header",
						"description": "OAuth 2.0 access token with the authentication type set as Bearer.",
						"required": false,
						"type": "string",
						"x-example": "Bearer YWMtHNa3Okb6EeemCisoFv6"
					},
					{
						"name": "If-Match",
						"in": "header",
						"description": "The If-Match header specifies an ETag-related condition to be placed on the execution of a request.  The request will only be executed if the ETag of the requested resource matches one of those specified in the If-Match header.  Because the behavior is complex, the details for usage are provided at http://www.w3.org/Protocols/rfc2616/rfc2616-sec14.html .",
						"required": false,
						"type": "string",
						"x-example": "xxyyzz"
					},
					{
						"name": "If-None-Match",
						"in": "header",
						"description": "The If-None-Match header specifies an ETag-related condition to be placed on the execution of a request.  The request will NOT be executed if the ETag of the requested resource matches one of those specified in the If-None-Match header.  Because the behavior is complex, the details for usage are provided at http://www.w3.org/Protocols/rfc2616/rfc2616-sec14.html",
						"required": false,
						"type": "string",
						"x-example": "xxyyzz"
					},
					{
						"in": "body",
						"name": "body",
						"description": "Appointment object that needs to be added to the salesforce datasource",
						"required": true,
						"schema": {
							"$ref": "#/definitions/Appointment"
						}
					}
				],
				"responses": {
					"200": {
						"description": "Confirmation details with leadId and appointment Id",
						"schema": {
							"$ref": "#/definitions/AppointmentResponse"
						},
						"headers": {
							"Access-Control-Allow-Headers": {
								"description": "The Access-Control-Allow-Headers header indicates, as part of a pre-flight request which headers can be used on the actual request.",
								"type": "string",
								"x-example": "origin, x-requested-with, accept, content-type"
							},
							"Access-Control-Allow-Methods": {
								"description": "The Access-Control-Allow-Methods header indicates, as part of a pre-flight request which methods can be used on the actual request.",
								"type": "string",
								"x-example": "GET, PUT, POST, DELETE"
							},
							"Access-Control-Allow-Origin": {
								"description": "The Access-Control-Allow-Origin header indicates whether a resource can be shared by returning the value of the Origin request header in the response.",
								"type": "string",
								"x-example": "accept, no-cache, content-length"
							},
							"Cache-Control": {
								"description": "no-cache",
								"type": "string",
								"x-example": "max-age=3600, must-revalidate"
							},
							"Content-Length": {
								"description": "The Content-Length header specifies the actual length of the returned payload.",
								"type": "string",
								"x-example": "50"
							},
							"Content-Type": {
								"description": "The Content-Length header specifies the actual length of the returned payload.",
								"type": "string",
								"x-example": "application/json, text/html"
							},
							"ETag": {
								"description": "The ETag header specifies the unique entity tag value for the returned resource.",
								"type": "string",
								"x-example": "568e31d503391-gzip"
							},
							"Expires": {
								"description": "The Expires header gives the date-time after which the response is considered stale.",
								"type": "string",
								"x-example": "Mon, 02 Apr 2018 20:34:50 GMT"
							},
							"Location": {
								"description": "The Location header specifies the URI of a created resource, or redirects the API consumer to an alternate resource location.",
								"type": "string",
								"x-example": "api.t-mobile.com"
							},
							"servicetransactionid": {
								"description": "Internal identifier for transaction tracking an individual transaction/API request within API platform. Do not receive/do not send to downstream",
								"type": "string",
								"x-example": "568e31d503391"
							}
						}
					},
					"400": {
						"description": "Invalid request error",
						"schema": {
							"$ref": "#/definitions/Error"
						},
						"examples": {
							"application/json": {
								"errorDesc": "Invalid request error"
							}
						}
					},
					"401": {
						"description": "Client not authorized",
						"schema": {
							"$ref": "#/definitions/Error"
						},
						"examples": {
							"application/json": {
								"errorDesc": "Client not authorized"
							}
						}
					},
					"403": {
						"description": "Client access denied",
						"schema": {
							"$ref": "#/definitions/Error"
						},
						"examples": {
							"application/json": {
								"errorDesc": "Client access denied"
							}
						}
					},
					"500": {
						"description": "Internal server error",
						"schema": {
							"$ref": "#/definitions/Error"
						},
						"examples": {
							"application/json": {
								"errorDesc": "Internal server error"
							}
						}
					}
				}
			}
		},
		"/appointment/cancel": {
			"post": {
				"tags": [
					"Appointment"
				],
				"summary": "User can cancel an appointment for a specific store",
				"description": "post the leadId, appointmentId to cancel an appointment",
				"operationId": "cancelAppointment",
				"security": [
					{
						"Oauth": [
							"cancel:StoreAppointmentService"
						]
					}
				],
				"consumes": [
					"application/json"
				],
				"produces": [
					"application/json"
				],
				"parameters": [
					{
						"name": "Authorization",
						"in": "header",
						"description": "OAuth 2.0 access token with the authentication type set as Bearer.",
						"required": false,
						"type": "string",
						"x-example": "Bearer YWMtHNa3Okb6EeemCisoFv6"
					},
					{
						"name": "If-Match",
						"in": "header",
						"description": "The If-Match header specifies an ETag-related condition to be placed on the execution of a request.  The request will only be executed if the ETag of the requested resource matches one of those specified in the If-Match header.  Because the behavior is complex, the details for usage are provided at http://www.w3.org/Protocols/rfc2616/rfc2616-sec14.html .",
						"required": false,
						"type": "string",
						"x-example": "xxyyzz"
					},
					{
						"name": "If-None-Match",
						"in": "header",
						"description": "The If-None-Match header specifies an ETag-related condition to be placed on the execution of a request.  The request will NOT be executed if the ETag of the requested resource matches one of those specified in the If-None-Match header.  Because the behavior is complex, the details for usage are provided at http://www.w3.org/Protocols/rfc2616/rfc2616-sec14.html",
						"required": false,
						"type": "string",
						"x-example": "xxyyzz"
					},
					{
						"in": "body",
						"name": "body",
						"description": "Appointment object that needs to be added to the salesforce datasource",
						"required": true,
						"schema": {
							"$ref": "#/definitions/CancelAppointmentRequest"
						}
					}
				],
				"responses": {
					"200": {
						"description": "Confirmation details with leadId and appointment Id",
						"schema": {
							"$ref": "#/definitions/Result"
						},
						"headers": {
							"Access-Control-Allow-Headers": {
								"description": "The Access-Control-Allow-Headers header indicates, as part of a pre-flight request which headers can be used on the actual request.",
								"type": "string",
								"x-example": "origin, x-requested-with, accept, content-type"
							},
							"Access-Control-Allow-Methods": {
								"description": "The Access-Control-Allow-Methods header indicates, as part of a pre-flight request which methods can be used on the actual request.",
								"type": "string",
								"x-example": "GET, PUT, POST, DELETE"
							},
							"Access-Control-Allow-Origin": {
								"description": "The Access-Control-Allow-Origin header indicates whether a resource can be shared by returning the value of the Origin request header in the response.",
								"type": "string",
								"x-example": "accept, no-cache, content-length"
							},
							"Cache-Control": {
								"description": "no-cache",
								"type": "string",
								"x-example": "max-age=3600, must-revalidate"
							},
							"Content-Length": {
								"description": "The Content-Length header specifies the actual length of the returned payload.",
								"type": "string",
								"x-example": "50"
							},
							"Content-Type": {
								"description": "The Content-Length header specifies the actual length of the returned payload.",
								"type": "string",
								"x-example": "application/json, text/html"
							},
							"ETag": {
								"description": "The ETag header specifies the unique entity tag value for the returned resource.",
								"type": "string",
								"x-example": "568e31d503391-gzip"
							},
							"Expires": {
								"description": "The Expires header gives the date-time after which the response is considered stale.",
								"type": "string",
								"x-example": "Mon, 02 Apr 2018 20:34:50 GMT"
							},
							"Location": {
								"description": "The Location header specifies the URI of a created resource, or redirects the API consumer to an alternate resource location.",
								"type": "string",
								"x-example": "api.t-mobile.com"
							},
							"servicetransactionid": {
								"description": "Internal identifier for transaction tracking an individual transaction/API request within API platform. Do not receive/do not send to downstream",
								"type": "string",
								"x-example": "568e31d503391"
							}
						}
					},
					"400": {
						"description": "Invalid request error",
						"schema": {
							"$ref": "#/definitions/Error"
						},
						"examples": {
							"application/json": {
								"errorDesc": "Invalid request error"
							}
						}
					},
					"401": {
						"description": "Client not authorized",
						"schema": {
							"$ref": "#/definitions/Error"
						},
						"examples": {
							"application/json": {
								"errorDesc": "Client not authorized"
							}
						}
					},
					"403": {
						"description": "Client access denied",
						"schema": {
							"$ref": "#/definitions/Error"
						},
						"examples": {
							"application/json": {
								"errorDesc": "Client access denied"
							}
						}
					},
					"500": {
						"description": "Internal server error",
						"schema": {
							"$ref": "#/definitions/Error"
						},
						"examples": {
							"application/json": {
								"errorDesc": "Internal server error"
							}
						}
					}
				}
			}
		},
		"/create-lead": {
			"post": {
				"tags": [
					"Lead"
				],
				"summary": "Create a lead profile",
				"description": "post the data of lead information firstName, lastName, email, phoneNumber, locale, gender, notes, updateRecord (boolean) the leadId, appointmentId to cancel an appointment",
				"operationId": "createLead",
				"security": [
					{
						"Oauth": [
							"create:LeadInfo"
						]
					}
				],
				"consumes": [
					"application/json"
				],
				"produces": [
					"application/json"
				],
				"parameters": [
					{
						"name": "Authorization",
						"in": "header",
						"description": "OAuth 2.0 access token with the authentication type set as Bearer.",
						"required": false,
						"type": "string",
						"x-example": "Bearer YWMtHNa3Okb6EeemCisoFv6"
					},
					{
						"name": "If-Match",
						"in": "header",
						"description": "The If-Match header specifies an ETag-related condition to be placed on the execution of a request.  The request will only be executed if the ETag of the requested resource matches one of those specified in the If-Match header.  Because the behavior is complex, the details for usage are provided at http://www.w3.org/Protocols/rfc2616/rfc2616-sec14.html .",
						"required": false,
						"type": "string",
						"x-example": "xxyyzz"
					},
					{
						"name": "If-None-Match",
						"in": "header",
						"description": "The If-None-Match header specifies an ETag-related condition to be placed on the execution of a request.  The request will NOT be executed if the ETag of the requested resource matches one of those specified in the If-None-Match header.  Because the behavior is complex, the details for usage are provided at http://www.w3.org/Protocols/rfc2616/rfc2616-sec14.html",
						"required": false,
						"type": "string",
						"x-example": "xxyyzz"
					},
					{
						"in": "body",
						"name": "body",
						"description": "Appointment object that needs to be added to the salesforce datasource",
						"required": true,
						"schema": {
							"$ref": "#/definitions/Lead"
						}
					}
				],
				"responses": {
					"200": {
						"description": "Confirmation details with leadId Id and results",
						"schema": {
							"$ref": "#/definitions/CreateLeadResponse"
						},
						"headers": {
							"Access-Control-Allow-Headers": {
								"description": "The Access-Control-Allow-Headers header indicates, as part of a pre-flight request which headers can be used on the actual request.",
								"type": "string",
								"x-example": "origin, x-requested-with, accept, content-type"
							},
							"Access-Control-Allow-Methods": {
								"description": "The Access-Control-Allow-Methods header indicates, as part of a pre-flight request which methods can be used on the actual request.",
								"type": "string",
								"x-example": "GET, PUT, POST, DELETE"
							},
							"Access-Control-Allow-Origin": {
								"description": "The Access-Control-Allow-Origin header indicates whether a resource can be shared by returning the value of the Origin request header in the response.",
								"type": "string",
								"x-example": "accept, no-cache, content-length"
							},
							"Cache-Control": {
								"description": "no-cache",
								"type": "string",
								"x-example": "max-age=3600, must-revalidate"
							},
							"Content-Length": {
								"description": "The Content-Length header specifies the actual length of the returned payload.",
								"type": "string",
								"x-example": "50"
							},
							"Content-Type": {
								"description": "The Content-Length header specifies the actual length of the returned payload.",
								"type": "string",
								"x-example": "application/json, text/html"
							},
							"ETag": {
								"description": "The ETag header specifies the unique entity tag value for the returned resource.",
								"type": "string",
								"x-example": "568e31d503391-gzip"
							},
							"Expires": {
								"description": "The Expires header gives the date-time after which the response is considered stale.",
								"type": "string",
								"x-example": "Mon, 02 Apr 2018 20:34:50 GMT"
							},
							"Location": {
								"description": "The Location header specifies the URI of a created resource, or redirects the API consumer to an alternate resource location.",
								"type": "string",
								"x-example": "api.t-mobile.com"
							},
							"servicetransactionid": {
								"description": "Internal identifier for transaction tracking an individual transaction/API request within API platform. Do not receive/do not send to downstream",
								"type": "string",
								"x-example": "568e31d503391"
							}
						}
					},
					"400": {
						"description": "Invalid request error",
						"schema": {
							"$ref": "#/definitions/Error"
						},
						"examples": {
							"application/json": {
								"errorDesc": "Invalid request error"
							}
						}
					},
					"401": {
						"description": "Client not authorized",
						"schema": {
							"$ref": "#/definitions/Error"
						},
						"examples": {
							"application/json": {
								"errorDesc": "Client not authorized"
							}
						}
					},
					"403": {
						"description": "Client access denied",
						"schema": {
							"$ref": "#/definitions/Error"
						},
						"examples": {
							"application/json": {
								"errorDesc": "Client access denied"
							}
						}
					},
					"500": {
						"description": "Internal server error",
						"schema": {
							"$ref": "#/definitions/Error"
						},
						"examples": {
							"application/json": {
								"errorDesc": "Internal server error"
							}
						}
					}
				}
			}
		},
		"/appointment/available": {
			"get": {
				"tags": [
					"Appointment"
				],
				"summary": "Get all the available appointments timeslots for provided days",
				"description": "return all the available appointments timeslots for provided days",
				"operationId": "getAvailableStoreTimeSlots",
				"security": [
					{
						"Oauth": [
							"get:StoreAppointmentService"
						]
					}
				],
				"parameters": [
					{
						"name": "Authorization",
						"in": "header",
						"description": "OAuth 2.0 access token with the authentication type set as Bearer.",
						"required": false,
						"type": "string",
						"x-example": "Bearer YWMtHNa3Okb6EeemCisoFv6"
					},
					{
						"name": "If-Match",
						"in": "header",
						"description": "The If-Match header specifies an ETag-related condition to be placed on the execution of a request.  The request will only be executed if the ETag of the requested resource matches one of those specified in the If-Match header.  Because the behavior is complex, the details for usage are provided at http://www.w3.org/Protocols/rfc2616/rfc2616-sec14.html .",
						"required": false,
						"type": "string",
						"x-example": "xxyyzz"
					},
					{
						"name": "If-None-Match",
						"in": "header",
						"description": "The If-None-Match header specifies an ETag-related condition to be placed on the execution of a request.  The request will NOT be executed if the ETag of the requested resource matches one of those specified in the If-None-Match header.  Because the behavior is complex, the details for usage are provided at http://www.w3.org/Protocols/rfc2616/rfc2616-sec14.html",
						"required": false,
						"type": "string",
						"x-example": "xxyyzz"
					},
					{
						"name": "storeId",
						"in": "query",
						"type": "number",
						"description": "T-Mobile unique store id",
						"required": true,
						"pattern": "^[0-9]{4,5}$",
						"x-example": 98724
					},
					{
						"name": "number-days",
						"in": "query",
						"type": "number",
						"description": "number of days to get the appointment",
						"required": true,
						"pattern": "^[0-9]{1,2}$",
						"x-example": 14,
						"maximum": 14,
						"minimum": 1
					},
					{
						"name": "appointmentDate",
						"in": "query",
						"type": "string",
						"description": "date specified in mm/dd/yyyy format",
						"format": "date",
						"required": true,
						"pattern":"^(0[1-9]|1[012])[/.](0[1-9]|[12][0-9]|3[01])[/.](19|20)+$",
						"x-example": "04/23/2018"
						
					}
				],
				"responses": {
					"200": {
						"description": "All the available appointments timeslots for provides days",
						"schema": {
							"$ref": "#/definitions/StoreTimeSlots"
						},
						"headers": {
							"Access-Control-Allow-Headers": {
								"description": "The Access-Control-Allow-Headers header indicates, as part of a pre-flight request which headers can be used on the actual request.",
								"type": "string",
								"x-example": "origin, x-requested-with, accept, content-type"
							},
							"Access-Control-Allow-Methods": {
								"description": "The Access-Control-Allow-Methods header indicates, as part of a pre-flight request which methods can be used on the actual request.",
								"type": "string",
								"x-example": "GET, PUT, POST, DELETE"
							},
							"Access-Control-Allow-Origin": {
								"description": "The Access-Control-Allow-Origin header indicates whether a resource can be shared by returning the value of the Origin request header in the response.",
								"type": "string",
								"x-example": "accept, no-cache, content-length"
							},
							"Cache-Control": {
								"description": "no-cache",
								"type": "string",
								"x-example": "max-age=3600, must-revalidate"
							},
							"Content-Length": {
								"description": "The Content-Length header specifies the actual length of the returned payload.",
								"type": "string",
								"x-example": "50"
							},
							"Content-Type": {
								"description": "The Content-Length header specifies the actual length of the returned payload.",
								"type": "string",
								"x-example": "application/json, text/html"
							},
							"ETag": {
								"description": "The ETag header specifies the unique entity tag value for the returned resource.",
								"type": "string",
								"x-example": "568e31d503391-gzip"
							},
							"Expires": {
								"description": "The Expires header gives the date-time after which the response is considered stale.",
								"type": "string",
								"x-example": "Mon, 02 Apr 2018 20:34:50 GMT"
							},
							"servicetransactionid": {
								"description": "Internal identifier for transaction tracking an individual transaction/API request within API platform. Do not receive/do not send to downstream",
								"type": "string",
								"x-example": "568e31d503391"
							}
						}
					},
					"400": {
						"description": "Invalid request error",
						"schema": {
							"$ref": "#/definitions/Error"
						},
						"examples": {
							"application/json": {
								"errorDesc": "Invalid request error"
							}
						}
					},
					"401": {
						"description": "Client not authorized",
						"schema": {
							"$ref": "#/definitions/Error"
						},
						"examples": {
							"application/json": {
								"errorDesc": "Client not authorized"
							}
						}
					},
					"403": {
						"description": "Client access denied",
						"schema": {
							"$ref": "#/definitions/Error"
						},
						"examples": {
							"application/json": {
								"errorDesc": "Client access denied"
							}
						}
					},
					"500": {
						"description": "Internal server error",
						"schema": {
							"$ref": "#/definitions/Error"
						},
						"examples": {
							"application/json": {
								"errorDesc": "Internal server error"
							}
						}
					}
				}
			}
		},
		"/appointment/myappointments": {
			"get": {
				"tags": [
					"Appointment"
				],
				"summary": "Get the scheduled appointment information based on appointment ID",
				"description": "Get scheduled appointment information based on appointment ID. It will have all the information that will need to described in-store appointment information.",
				"operationId": "getScheduledAppointment",
				"security": [
					{
						"Oauth": [
							"get:StoreAppointmentService"
						]
					}
				],
				"parameters": [
					{
						"name": "Authorization",
						"in": "header",
						"description": "OAuth 2.0 access token with the authentication type set as Bearer.",
						"required": false,
						"type": "string",
						"x-example": "Bearer YWMtHNa3Okb6EeemCisoFv6"
					},
					{
						"name": "If-Match",
						"in": "header",
						"description": "The If-Match header specifies an ETag-related condition to be placed on the execution of a request.  The request will only be executed if the ETag of the requested resource matches one of those specified in the If-Match header.  Because the behavior is complex, the details for usage are provided at http://www.w3.org/Protocols/rfc2616/rfc2616-sec14.html .",
						"required": false,
						"type": "string",
						"x-example": "xxyyzz"
					},
					{
						"name": "If-None-Match",
						"in": "header",
						"description": "The If-None-Match header specifies an ETag-related condition to be placed on the execution of a request.  The request will NOT be executed if the ETag of the requested resource matches one of those specified in the If-None-Match header.  Because the behavior is complex, the details for usage are provided at http://www.w3.org/Protocols/rfc2616/rfc2616-sec14.html",
						"required": false,
						"type": "string",
						"x-example": "xxyyzz"
					},
					{
						"name": "leadId",
						"in": "query",
						"type": "string",
						"description": "unique lead Id of user",
						"required": true,
						"pattern": "^[a-zA-Z0-9]+$",
						"x-example": "00Qq0000005xGtPEAU"
					}
				],
				"responses": {
					"200": {
						"description": "Scheduled appointment information based on appointment ID",
						"schema": {
							"$ref": "#/definitions/AppointmentResponse"
						},
						"headers": {
							"Access-Control-Allow-Headers": {
								"description": "The Access-Control-Allow-Headers header indicates, as part of a pre-flight request which headers can be used on the actual request.",
								"type": "string",
								"x-example": "origin, x-requested-with, accept, content-type"
							},
							"Access-Control-Allow-Methods": {
								"description": "The Access-Control-Allow-Methods header indicates, as part of a pre-flight request which methods can be used on the actual request.",
								"type": "string",
								"x-example": "GET, PUT, POST, DELETE"
							},
							"Access-Control-Allow-Origin": {
								"description": "The Access-Control-Allow-Origin header indicates whether a resource can be shared by returning the value of the Origin request header in the response.",
								"type": "string",
								"x-example": "accept, no-cache, content-length"
							},
							"Cache-Control": {
								"description": "no-cache",
								"type": "string",
								"x-example": "max-age=3600, must-revalidate"
							},
							"Content-Length": {
								"description": "The Content-Length header specifies the actual length of the returned payload.",
								"type": "string",
								"x-example": "50"
							},
							"Content-Type": {
								"description": "The Content-Length header specifies the actual length of the returned payload.",
								"type": "string",
								"x-example": "application/json, text/html"
							},
							"ETag": {
								"description": "The ETag header specifies the unique entity tag value for the returned resource.",
								"type": "string",
								"x-example": "568e31d503391-gzip"
							},
							"Expires": {
								"description": "The Expires header gives the date-time after which the response is considered stale.",
								"type": "string",
								"x-example": "Mon, 02 Apr 2018 20:34:50 GMT"
							},
							"servicetransactionid": {
								"description": "Internal identifier for transaction tracking an individual transaction/API request within API platform. Do not receive/do not send to downstream",
								"type": "string",
								"x-example": "568e31d503391"
							}
						}
					},
					"400": {
						"description": "Invalid request error",
						"schema": {
							"$ref": "#/definitions/Error"
						},
						"examples": {
							"application/json": {
								"errorDesc": "Invalid request error"
							}
						}
					},
					"401": {
						"description": "Client not authorized",
						"schema": {
							"$ref": "#/definitions/Error"
						},
						"examples": {
							"application/json": {
								"errorDesc": "Client not authorized"
							}
						}
					},
					"403": {
						"description": "Client access denied",
						"schema": {
							"$ref": "#/definitions/Error"
						},
						"examples": {
							"application/json": {
								"errorDesc": "Client access denied"
							}
						}
					},
					"500": {
						"description": "Internal server error",
						"schema": {
							"$ref": "#/definitions/Error"
						},
						"examples": {
							"application/json": {
								"errorDesc": "Internal server error"
							}
						}
					}
				}
			}
		},
		"/get-lead": {
			"get": {
				"tags": [
					"Lead"
				],
				"summary": "Get the Lead information based on leadId",
				"description": "Get user's information based on unique leadId.",
				"operationId": "getLeadInformation",
				"security": [
					{
						"Oauth": [
							"get:StoreAppointmentService"
						]
					}
				],
				"parameters": [
					{
						"name": "Authorization",
						"in": "header",
						"description": "OAuth 2.0 access token with the authentication type set as Bearer.",
						"required": false,
						"type": "string",
						"x-example": "Bearer YWMtHNa3Okb6EeemCisoFv6"
					},
					{
						"name": "If-Match",
						"in": "header",
						"description": "The If-Match header specifies an ETag-related condition to be placed on the execution of a request.  The request will only be executed if the ETag of the requested resource matches one of those specified in the If-Match header.  Because the behavior is complex, the details for usage are provided at http://www.w3.org/Protocols/rfc2616/rfc2616-sec14.html .",
						"required": false,
						"type": "string",
						"x-example": "xxyyzz"
					},
					{
						"name": "If-None-Match",
						"in": "header",
						"description": "The If-None-Match header specifies an ETag-related condition to be placed on the execution of a request.  The request will NOT be executed if the ETag of the requested resource matches one of those specified in the If-None-Match header.  Because the behavior is complex, the details for usage are provided at http://www.w3.org/Protocols/rfc2616/rfc2616-sec14.html",
						"required": false,
						"type": "string",
						"x-example": "xxyyzz"
					},
					{
						"name": "leadId",
						"in": "query",
						"type": "string",
						"description": "unique lead Id of user",
						"required": true,
						"pattern": "^[a-zA-Z0-9]+$",
						"x-example": "00Qq0000005xGtPEAU"
					}
				],
				"responses": {
					"200": {
						"description": "Lead (user) information based on leadId",
						"schema": {
							"$ref": "#/definitions/Lead"
						},
						"headers": {
							"Access-Control-Allow-Headers": {
								"description": "The Access-Control-Allow-Headers header indicates, as part of a pre-flight request which headers can be used on the actual request.",
								"type": "string",
								"x-example": "origin, x-requested-with, accept, content-type"
							},
							"Access-Control-Allow-Methods": {
								"description": "The Access-Control-Allow-Methods header indicates, as part of a pre-flight request which methods can be used on the actual request.",
								"type": "string",
								"x-example": "GET, PUT, POST, DELETE"
							},
							"Access-Control-Allow-Origin": {
								"description": "The Access-Control-Allow-Origin header indicates whether a resource can be shared by returning the value of the Origin request header in the response.",
								"type": "string",
								"x-example": "accept, no-cache, content-length"
							},
							"Cache-Control": {
								"description": "no-cache",
								"type": "string",
								"x-example": "max-age=3600, must-revalidate"
							},
							"Content-Length": {
								"description": "The Content-Length header specifies the actual length of the returned payload.",
								"type": "string",
								"x-example": "50"
							},
							"Content-Type": {
								"description": "The Content-Length header specifies the actual length of the returned payload.",
								"type": "string",
								"x-example": "application/json, text/html"
							},
							"ETag": {
								"description": "The ETag header specifies the unique entity tag value for the returned resource.",
								"type": "string",
								"x-example": "568e31d503391-gzip"
							},
							"Expires": {
								"description": "The Expires header gives the date-time after which the response is considered stale.",
								"type": "string",
								"x-example": "Mon, 02 Apr 2018 20:34:50 GMT"
							},
							"servicetransactionid": {
								"description": "Internal identifier for transaction tracking an individual transaction/API request within API platform. Do not receive/do not send to downstream",
								"type": "string",
								"x-example": "568e31d503391"
							}
						}
					},
					"400": {
						"description": "Invalid request error",
						"schema": {
							"$ref": "#/definitions/Error"
						},
						"examples": {
							"application/json": {
								"errorDesc": "Invalid request error"
							}
						}
					},
					"401": {
						"description": "Client not authorized",
						"schema": {
							"$ref": "#/definitions/Error"
						},
						"examples": {
							"application/json": {
								"errorDesc": "Client not authorized"
							}
						}
					},
					"403": {
						"description": "Client access denied",
						"schema": {
							"$ref": "#/definitions/Error"
						},
						"examples": {
							"application/json": {
								"errorDesc": "Client access denied"
							}
						}
					},
					"500": {
						"description": "Internal server error",
						"schema": {
							"$ref": "#/definitions/Error"
						},
						"examples": {
							"application/json": {
								"errorDesc": "Internal server error"
							}
						}
					}
				}
			}
		},
		"/save-lead-cart": {
			"post": {
				"tags": [
					"Lead"
				],
				"summary": "Save a cart associated to a lead",
				"description": "Save a cart information associated to a lead",
				"operationId": "saveLeadCart",
				"security": [
					{
						"Oauth": [
							"save:LeadCart"
						]
					}
				],
				"parameters": [
					{
						"name": "Authorization",
						"in": "header",
						"description": "OAuth 2.0 access token with the authentication type set as Bearer.",
						"required": false,
						"type": "string",
						"x-example": "Bearer YWMtHNa3Okb6EeemCisoFv6"
					},
					{
						"name": "If-Match",
						"in": "header",
						"description": "The If-Match header specifies an ETag-related condition to be placed on the execution of a request.  The request will only be executed if the ETag of the requested resource matches one of those specified in the If-Match header.  Because the behavior is complex, the details for usage are provided at http://www.w3.org/Protocols/rfc2616/rfc2616-sec14.html .",
						"required": false,
						"type": "string",
						"x-example": "xxyyzz"
					},
					{
						"name": "If-None-Match",
						"in": "header",
						"description": "The If-None-Match header specifies an ETag-related condition to be placed on the execution of a request.  The request will NOT be executed if the ETag of the requested resource matches one of those specified in the If-None-Match header.  Because the behavior is complex, the details for usage are provided at http://www.w3.org/Protocols/rfc2616/rfc2616-sec14.html",
						"required": false,
						"type": "string",
						"x-example": "xxyyzz"
					},
					{
						"in": "body",
						"name": "body",
						"required": false,
						"description": "SaveLeadCart object that needs to be added to the salesforce datasource",
						"schema": {
							"$ref": "#/definitions/SaveLeadCart"
						},
						"x-examples": {
							"application/json": "{\r\n\t\"leadId\": \"00Q2F000002f5alUAA\",\r\n\t\"cartURL\": \"https://t-mobile.com/cartid\",\r\n\t\"cartType\": \"Send To Retail\"\r\n}\r\n"
						}
					}
				],
				"responses": {
					"200": {
						"description": "Lead (user) information based on leadId",
						"schema": {
							"$ref": "#/definitions/Result"
						},
						"headers": {
							"Access-Control-Allow-Headers": {
								"description": "The Access-Control-Allow-Headers header indicates, as part of a pre-flight request which headers can be used on the actual request.",
								"type": "string",
								"x-example": "origin, x-requested-with, accept, content-type"
							},
							"Access-Control-Allow-Methods": {
								"description": "The Access-Control-Allow-Methods header indicates, as part of a pre-flight request which methods can be used on the actual request.",
								"type": "string",
								"x-example": "GET, PUT, POST, DELETE"
							},
							"Access-Control-Allow-Origin": {
								"description": "The Access-Control-Allow-Origin header indicates whether a resource can be shared by returning the value of the Origin request header in the response.",
								"type": "string",
								"x-example": "accept, no-cache, content-length"
							},
							"Cache-Control": {
								"description": "no-cache",
								"type": "string",
								"x-example": "max-age=3600, must-revalidate"
							},
							"Content-Length": {
								"description": "The Content-Length header specifies the actual length of the returned payload.",
								"type": "string",
								"x-example": "50"
							},
							"Content-Type": {
								"description": "The Content-Length header specifies the actual length of the returned payload.",
								"type": "string",
								"x-example": "application/json, text/html"
							},
							"ETag": {
								"description": "The ETag header specifies the unique entity tag value for the returned resource.",
								"type": "string",
								"x-example": "568e31d503391-gzip"
							},
							"Expires": {
								"description": "The Expires header gives the date-time after which the response is considered stale.",
								"type": "string",
								"x-example": "Mon, 02 Apr 2018 20:34:50 GMT"
							},
							"servicetransactionid": {
								"description": "Internal identifier for transaction tracking an individual transaction/API request within API platform. Do not receive/do not send to downstream",
								"type": "string",
								"x-example": "568e31d503391"
							}
						}
					},
					"400": {
						"description": "Invalid request error",
						"schema": {
							"$ref": "#/definitions/Error"
						},
						"examples": {
							"application/json": {
								"errorDesc": "Invalid request error"
							}
						}
					},
					"401": {
						"description": "Client not authorized",
						"schema": {
							"$ref": "#/definitions/Error"
						},
						"examples": {
							"application/json": {
								"errorDesc": "Client not authorized"
							}
						}
					},
					"403": {
						"description": "Client access denied",
						"schema": {
							"$ref": "#/definitions/Error"
						},
						"examples": {
							"application/json": {
								"errorDesc": "Client access denied"
							}
						}
					},
					"500": {
						"description": "Internal server error",
						"schema": {
							"$ref": "#/definitions/Error"
						},
						"examples": {
							"application/json": {
								"errorDesc": "Internal server error"
							}
						}
					}
				}
			}
		}
	},
	"definitions": {
		"Store": {
			"type": "object",
			"description": "Store",
			"properties": {
				"results": {
					"$ref": "#/definitions/Result"
				},
				"id": {
					"type": "array",
					"example": [
						"98724",
						"98345",
						"24242",
						"27524"
					],
					"description": "This is a T-Mobile unique store id.",
					"items": {
						"type": "string",
						"description": "Array of String"
					}
				}
			}
		},
		"Reasons": {
			"type": "object",
			"description": "List of all avialable reasons for appointments",
			"properties": {
				"results": {
					"$ref": "#/definitions/Result"
				},
				"reasons": {
					"type": "array",
					"example": [
						"Get a new device",
						"Get a new line",
						"Activation",
						"Payment"
					],
					"description": "cancel or schedule appoinment reasons",
					"items": {
						"type": "string",
						"description": "Array of String"
					}
				}
			}
		},
		"StoreTimeSlots": {
			"type": "object",
			"description": "List of all days avialable time slots",
			"properties": {
				"storeId": {
					"type": "string",
					"example": "98724",
					"description": "This is a T-Mobile unique store id."
				},
				"availableTimeSlots": {
					"type": "array",
					"description": "available time slots",
					"items": {
						"$ref": "#/definitions/Slots"
					}
				}
			}
		},
		"Slots": {
			"type": "object",
			"description": "one day time slot",
			"properties": {
				"day": {
					"type": "string",
					"example": "Monday",
					"description": "name of the day of available time slots"
				},
				"date": {
					"type": "string",
					"example": "1/29/208",
					"description": "date of available time slots. It should follow the format MM-DD-YYYY."
				},
				"timeSlots": {
					"example": [
						"9:30am",
						"10:0am",
						"11:30am",
						"12:00pm",
						"12:30pm",
						"2:00pm",
						"2:30pm",
						"3:00pm"
					],
					"description": "Time of available slot. It should follow the format hh:mm",
					"type": "array",
					"items": {
						"type": "string",
						"description": "Array of String"
					}
				}
			}
		},
		"AppointmentResponse": {
			"type": "object",
			"description": "Appointment Response of schedule, reschedule and my appointments operations",
			"properties": {
				"results": {
					"$ref": "#/definitions/Result"
				},
				"timezone": {
					"type": "string",
					"description": "timezone of store in which the appointment has been booked.",
					"example": "CST or PST or EST"
				},
				"subject": {
					"type": "string",
					"description": "Any specific note for this appointment",
					"example": "buy I-phone device"
				},
				"storename": {
					"type": "string",
					"description": "name of the store",
					"example": "5116 - Northtown Mall 2"
				},
				"storeid": {
					"type": "string",
					"description": "Store Id",
					"example": "5116"
				},
				"startdate": {
					"type": "string",
					"description": "Appointment start date",
					"example": "04/07/2018"
				},
				"starttime": {
					"type": "string",
					"description": "Appointment start time",
					"example": "04:30 PM"
				},
				"reason": {
					"type": "string",
					"description": "Main objective to book an appointment",
					"example": ""
				},
				"leadId": {
					"type": "string",
					"description": "lead Id of existing user",
					"example": "00Qq0000005xGtPEAU"
				},
				"endtime": {
					"type": "string",
					"description": "Appointment end time",
					"example": "05:00 PM"
				},
				"enddate": {
					"type": "string",
					"description": "Appointment end date",
					"example": "04/07/2018"
				},
				"deepLink": {
					"type": "string",
					"example": "https://www.t-mobile.com/store-locator/wa/seattle/rainier-ave-s-s-andover-st",
					"description": "here is the deep link path of stare that can be use to send in confirmation email with appointment ID"
				},
				"appointmentId": {
					"type": "string",
					"description": "Use it if you want to modify the existing appointment",
					"example": "08pq00000000J07AAE"
				}
			}
		},
		"Appointment": {
			"type": "object",
			"description": "Store Appointment Information",
			"properties": {
				"storeid": {
					"type": "string",
					"description": "Store Id",
					"example": "5116"
				},
				"leadId": {
					"type": "string",
					"description": "lead Id of existing user",
					"example": "00Qq0000005xGtPEAU"
				},
				"appointmentId": {
					"type": "string",
					"description": "Use it if you want to modify the existing appointment",
					"example": "08pq00000000J07AAE"
				},
				"appointmentDate": {
					"type": "string",
					"description": "Date of the appointment, the date format should be MM/DD/YYYY",
					"example": "04/08/2018"
				},
				"appointmentTime": {
					"type": "string",
					"description": "Appointment Time",
					"example": "4:30 PM"
				},
				"autoReschedule": {
					"type": "string",
					"description": "specify true if you want to auto reschedule your appointment",
					"example": "false"
				},
				"appointmentDeepLink": {
					"type": "string",
					"example": "https://www.t-mobile.com/store-locator/wa/seattle/rainier-ave-s-s-andover-st",
					"description": "here is the deep link path of stare that can be use to send in confirmation email with appointment ID"
				}
			}
		},
		"Lead": {
			"type": "object",
			"description": "Lead Information",
			"properties": {
				"firstname": {
					"type": "string",
					"description": "First Name of User",
					"example": "Dean"
				},
				"lastName": {
					"type": "string",
					"description": "Last Name of User",
					"example": "James"
				},
				"email": {
					"type": "string",
					"description": "email id of User",
					"example": "JDean@none.com"
				},
				"phoneNumber": {
					"type": "string",
					"description": "Phone number of User",
					"example": "7065555016"
				},
				"reason": {
					"type": "string",
					"description": "Reason to schedule or cancel an appointment",
					"example": "Get a new device"
				},
				"numberoflines": {
					"type": "string",
					"description": "number of lines",
					"example": 2
				},
				"notes": {
					"type": "string",
					"description": "remarks given by user while booking an appointment",
					"example": "Interested to buy i-phone 8"
				},
				"isExistingCutomer": {
					"type": "boolean",
					"description": "true if customer already exist else false",
					"example": true
				},
				"locale": {
					"type": "string",
					"description": "use locale value like en_US for English or fr_FR for French",
					"example": "en_US"
				},
				"contactMethod": {
					"type": "string",
					"description": "Contact method either phone or/and e-mail",
					"example": "phone"
				},
				"consent": {
					"type": "string",
					"description": "User accepted consent value before requesting any information",
					"example": "I consent T-mobile to contract me in future"
				},
				"updateRecord": {
					"type": "string",
					"description": "specified true if users existing records need to be modified",
					"example": "true"
				}
			}
		},
		"CreateLeadResponse": {
			"type": "object",
			"description": "response of create lead operation",
			"properties": {
				"results": {
					"$ref": "#/definitions/Result"
				},
				"leadId": {
					"type": "string",
					"description": "lead Id of existing user",
					"example": "00Qq0000005xGtPEAU"
				}
			}
		},
		"CancelAppointmentRequest": {
			"type": "object",
			"description": "post leadId and appointmentId to cancel an appointment",
			"properties": {
				"leadId": {
					"type": "string",
					"description": "lead Id of existing user",
					"example": "00Qq0000005xGtPEAU"
				},
				"appointmentId": {
					"type": "string",
					"description": "Use it if you want to modify the existing appointment",
					"example": "08pq00000000J07AAE"
				}
			}
		},
		"Result": {
			"type": "object",
			"description": "define the status of request response",
			"properties": {
				"returnCode": {
					"type": "string",
					"pattern": "\\d{3}",
					"example": [
						"RESULT_NO_ERROR                  = 0",
						"RESULT_GENERAL_ERROR             = 50",
						"RESULT_NO_RESULTS_FOUND          = 100",
						"RESULT_ERROR_LEAD_NOT_FOUND      = 101",
						"RESULT_ERROR_ALREADY_RESERVED    = 102",
						"RESULT_ERROR_HAS_SCHEDULED_APT   = 103",
						"RESULT_ERROR_INPUT_DATA          = 105"
					],
					"description": "returnCode describe the errors in diferent cases like concurrent execution, No Appointment exists, No lead found etc"
				},
				"errorList": {
					"type": "array",
					"description": "list of errors",
					"items": {
						"type": "string",
						"description": "array of string"
					}
				}
			}
		},
		"SaveLeadCart": {
			"type": "object",
			"description": "define the payload to save the lead information in cart",
		  "properties": {
			 "leadId": {
				"type": "string",
				"description": "lead Id of existing user",
				"x-example": "00Q2F000002ewTzUAI"
			 },
			 "cartURL": {
				"type": "string",
				"maxLength": 255,
				"description": "URL to retrieve any cart web/saved to retail or dash cart",
				"x-example": "https://t-mobile.com/tokenid"
			 },
			 "cartType": {
				"type": "string",
				"description": "type of cart",
				"x-example": [
				   "Send To Retail",
				   "Saved Web Cart"
				]
			 }
		  },
		  "required": [
			 "leadId",
			 "cartURL",
			 "cartType"
		  ]
		},
		"Error": {
			"type": "array",
			"description": "error description",
			"items": {
				"description": "array of String",
				"properties": {
					"code": {
						"type": "string",
						"description": "error code"
					},
					"userMessage": {
						"type": "string",
						"description": "validation or data failure error message"
					},
					"systemMessage": {
						"type": "string",
						"description": "system error message description"
					}
				}
			}
		}
	},
	"securityDefinitions": {
		"Oauth": {
			"type": "oauth2",
			"description": "When you sign up for an account, you are given your first API key.\nTo do so please follow this link: https://www.t-mobile.com/site/signup/\nAlso you can generate additional API keys, and delete API keys (as you may\nneed to rotate your keys in the future).\nToken can change to a JwT and ID and PoP tokens.\n",
			"tokenUrl": "https://host:env/v1/oauth2/accesstoken?grant_type=client_credentials",
			"flow": "application",
			"scopes": {
				"schedule:StoreAppointmentService": "To Schedule An Store Appointment",
				"re-schedule:StoreAppointmentService": "To Re-schedule An Store Appointment",
				"cancel:StoreAppointmentService": "To Delete An Store Appointment",
				"create:LeadInfo": "To create a user profile",
				"save:LeadCart": "To save lead cart information at SF",
				"get:StoreAppointmentService": "To Get the Store Appointment Details"
			}
		}
	}
}
