@startuml
title Validate Captcha
autonumber "<color:red><b>00 "
skinparam backgroundColor #FFFFFF
skinparam sequence {
    TitleFontSize 20
    ActorFontSize 12
    ParticipantFontSize 12
    ParticipantPadding 40
    ArrowFontSize 12
}
 
actor       "        User       " as USR
box "<size:16>Secure ID" #Beige
participant "    EUI_APP   " as EUI_APP
participant "  EUI App Services " as SVR
end box
participant "       IAM      " as IAM
 
[-> USR:            After Login user redirects \n profile page
USR -> EUI_APP:         clicks on the unlink button, which ask \n for confirmation of unlink
EUI_APP-> SVR:         <b>GET</b> /generatecaptcha
note left of SVR:   { \n client_id: "f3d277a1777e4ed6797fff8a73051f787497", \n device_type: "desktop", \n euiFlow: "LOGIN", \n remTransID: "1542202190016_rksva_5388857233" \n }
SVR -> IAM: <b>GET</b> /generatecaptcha
note right of SVR:  { device_type: 'desktop', \n, remTransID: '1542268541734_jxocl_8709777771', \n euiFlow: 'LOGIN', \nclient_id: 'A-Ii10mpqSOr_' } \n }

alt <size:12>captcha generation success
    IAM -> SVR:        <b>200</b> 
    note right of SVR : iamresponse : \n  '{"id":"047a0498-675b-4bb5-8861-a49e73d7d950", \n  "image":"https://captcha14.iam.msg.lab.t-mobile.com/iamcaptcha/v1/onlineRetrieve?id\\u003d047a0498-675b-4 \n bb5-8861-a49e73d7d950\\u0026type\\u003dimage", \n "audio":"https://captcha14.iam.msg.lab.t-mobile. \n com/iamcaptcha/v1/onlineRetrieve?id\\u003d047a0498-675b-4bb5-8861-a49e73d7d950\\u0026type\\u003daudio"}' \n },
SVR -> EUI_APP:        <b>200</b> 
    note left of SVR : response : \n  '{"id":"047a0498-675b-4bb5-8861-a49e73d7d950", \n  "image":"https://captcha14.iam.msg.lab.t-mobile.com/iamcaptcha/v1/onlineRetrieve?id\\u003d047a0498-675b-4bb5 \n -8861-a49e73d7d950\\u0026type\\u003dimage", \n "audio":"https://captcha14.iam.msg.lab.t-mobile.com \n /iamcaptcha/v1/onlineRetrieve?id\\u003d047a0498-675b-4bb5-8861-a49e73d7d950\\u0026type\\u003daudio"}' \n }
EUI_APP -> USR : Show pop with captacha image in view
end

USR -> EUI_APP: Enter the text as per captcha displayed \n on pop up image and click validate button
EUI_APP-> SVR:  <b>POST</b> /validatecaptcha
note left of SVR:   { \n client_id: "EUI", \n euiFlow: "LOGIN", \n remTransID: "1575367582022_uxskw_0705152359" \n }
SVR -> IAM:     <b>POST</b> /validatecaptcha
note right of SVR:   { \n client_id: "EUI", \n euiFlow: "LOGIN", \n remTransID: "1575367582022_uxskw_0705152359" \n }

alt <size:12>Valdiate Captcha
    IAM -> SVR:         <b>200</b> 
    note right of SVR : iamresponse : \n  '{}'
    SVR -> EUI_APP:     <b>200</b> 
    note left of SVR : response : \n  '{}'
    EUI_APP -> USR : Again user can clicks on the unlink button, \n which ask for confirmation of unlink
    else <size:12>Validate captcha failed
    IAM -> SVR:         <b>400 Bad Request</b>
    note right of SVR: iamresponse : { \n  display_url: "", \n  error: "captcha_id_validation_failed", \n  error_description: "The captcha_id validation failed", \n  error_url: "" \n}
    SVR -> EUI_APP:     <b>400 Bad Request</b> 
    note left of SVR : response : { \n  display_url: "", \n  error: "captcha_id_validation_failed", \n  error_description: "The captcha_id validation failed", \n  error_url: "" \n}
end
@enduml