@startuml
title BAS Delete V1 Request
autonumber "<color:red><b>00 "
skinparam backgroundColor #FFFFFF
skinparam sequence {
    TitleFontSize 20
    ActorFontSize 12
    ParticipantFontSize 12
    ParticipantPadding 40
    ArrowFontSize 12
}

actor       "        User       " as USR
participant "   ASDK   " as ASDK
box "<size:16>Secure ID" #Beige
participant "   BAS   " as BAS
end box
participant "      IAM    " as IAM


USR -> ASDK: (When user wants to delete his biometric data)
ASDK -> BAS: <b>POST</b> /bas/v1/reg/delete
BAS -> BAS: Middleware checks whether request contains valid parameters or not.
alt Invalid request
      BAS -> ASDK:     <b> 400 Bad request</b>
      note right of ASDK: { \n "error": "invalid_request" \n  "error_description": "Something went wrong. We weren't able to load this page. Please try again later." \n}
      ASDK -> USR:         User will be navigated to failure screen.
else Valid request
      BAS -> IAM: <B> Send request (POST) /authn/v1/bio/reg/del
      note right of BAS: { \n "userId": "uuid: 56789076545" \n}
      alt Valid Scenario
        IAM -> BAS: 200 response
        note right of BAS: { \n "extension": { \n "id": "9092" \n "statusCode": 200 \n  "message": "FIDO encrypted message" \n  }\n}
        BAS -> ASDK: 200 response
        note right of ASDK: { \n "id": "9092" \n "message": "FIDO encrypted message" \n "status": 200 \n}
        ASDK -> USR: Deleted successfully
      else Invalid Scenario
        IAM -> BAS: 400 response
        note right of BAS: { \n "statusCode": "400" \n "error_code": "Payload Exception" \n "error_message": "One or multiple parameters are not compliant"}
        BAS -> ASDK: 400 response
        note right of ASDK: { \n "statusCode": "400" \n "error_code": "Payload Exception" \n "error_message": "One or multiple parameters are not compliant"}
        ASDK -> USR: Failed in deleting
        IAM -> BAS: 401 response
        note right of BAS: { \n "error_code": "invalid_token" \n "error_message": "Access token is expired"}
        BAS -> ASDK: 401 response
        note right of ASDK: { \n "error_code": "invalid_token" \n "error_message": "Access token is expired"}
        ASDK -> USR: Failed in deleting
        IAM -> BAS: 500 response
        note right of BAS: { \n "error_code": "Internal Server Error" \n "error_message": "Internal Server error, database error, I/O error"}
        BAS -> ASDK: 500 response
        note right of ASDK: { \n "error_code": "Internal Server Error" \n "error_message": "Internal Server error, database error, I/O error"}
        ASDK -> USR: Failed in deleting
      end
end
@enduml