@startuml
title Update Email Profile
autonumber "<color:red><b>00 "
skinparam backgroundColor #FFFFFF
skinparam sequence {
    TitleFontSize 20
    ActorFontSize 12
    ParticipantFontSize 12
    ParticipantPadding 40
    ArrowFontSize 12
}

actor       "        User       " as USR
box "<size:16>Secure ID" #Beige
participant "    EUI App   " as EUI_APP
participant "  EUI App Services " as SVR
end box
participant "       IAM      " as IAM

USR -> EUI_APP:         /Updates email in app
EUI_APP -> SVR:         <b>POST</b> /emailUpdateProfile
SVR -> IAM:        <b>POST</b> /oauth2/v1/updateprofile
            alt <size:12>Update Email failed
                IAM -> SVR:        <b>400 BAD REQUEST</b>
                note left of IAM : { \n	"error": "invalid_request",\n	"error_description": "Error while checking email." \n}
            else <size:12>Update Email success
                IAM -> SVR:        <b>200 OK </b>
            end

SVR -> IAM:        <b>POST</b> /profile_management/v1/user/profile

alt <size:12>fetch profile failed
                IAM -> SVR:        <b>400 BAD REQUEST</b>
                note left of IAM : { \n	"error": "Uh-oh, it looks like we have our wires crossed. Please try again later.",\n	"error_description": "Error while fetching IAM profile by msisdn or email." \n}
            else <size:12>fetch profile success
                IAM -> SVR:        <b>200 OK </b>
            end

SVR -> IAM:        <b>POST</b> /profile_management/v1/user/profile

alt <size:12>fetch profile failed
                IAM -> SVR:        <b>400 BAD REQUEST</b>
                note left of IAM : { \n	"error": "Uh-oh, it looks like we have our wires crossed. Please try again later.",\n	"error_description": "Error while fetching IAM profile by uuid." \n}
            else <size:12>fetch profile success
                IAM -> SVR:        <b>200 OK </b>
            end
SVR -> IAM:        <b>PUT</b> /profile_management/v1/user/profile

alt <size:12>update TMO profile failed
                IAM -> SVR:        <b>400 BAD REQUEST</b>
                note left of IAM : { \n	"error": "Uh-oh, it looks like we have our wires crossed. Please try again later.",\n	"error_description": "Error while updating email." \n}
            else <size:12>Update TMO profile success
                IAM -> EUI_APP:        <b>200 OK </b>
            end


@enduml
