@startuml
title Health Check API
autonumber "<color:red><b>00 "
skinparam backgroundColor #FFFFFF
skinparam sequence {
    TitleFontSize 20
    ActorFontSize 12
    ParticipantFontSize 12
    ParticipantPadding 40
    ArrowFontSize 12
}
actor       "        User       " as USR
USR -> BAS: <b>GET</b>      /v1/healthcheck
alt <size:12> If server is up and running
     BAS -> USR: <b> 200 OK</b>
else <size:12> If server not up and running
      BAS -> USR: <b> 503 service unavailable</b>
end
@enduml