@startuml
title Health Check API
autonumber "<color:red><b>00 "
skinparam backgroundColor #FFFFFF
skinparam sequence {
   TitleFontSize 20
   ActorFontSize 12
   ParticipantFontSize 12
   ParticipantPadding 40
   ArrowFontSize 12
}
actor       "        User       " as USR
USR -> SecureID: <b>GET</b>      /svr/nodehealthcheck
alt <size:12> If server is up and running
    SecureID -> USR: <b> 200 OK</b>
else <size:12> If server not up and running
     SecureID -> USR: <b> 503 service unavailable</b>
end
@enduml