@startuml
skinparam sequence {
ArrowColor Black
ActorBorderColor DeepPink
LifeLineBorderColor Black
LifeLineBackgroundColor #A9DCDF
ParticipantBorderColor DeepPink
ParticipantBackgroundColor DeepPink
ParticipantFontName Impact
ParticipantFontSize 17
ParticipantFontColor #FFF
ActorBackgroundColor Pink
ActorFontColor Black
ActorFontSize 17
ActorFontName Aapex
}
actor User
User -> EUIApp: user while loading oauth2/v1/approveScope url \n we are calling /retrieveIamProfileUsingUid 
EUIApp -> EUIAppServices: POST to /retrieveIamProfileUsingUid \n request
alt valid request
      EUIAppServices-> IAM: POST to /profile_management/v1/user/profile \n request
      IAM->EUIAppServices: getting 'getProfileResponse' as\n response
      EUIAppServices->EUIApp: sending 'profileResUsingUid' as \n response
      EUIApp -> User: displaying 'firstname' in \n oauth2/v1/approveScope page
   else Failure
      EUIAppServices -> EUIApp: 400 bad request
      EUIApp -> User: displaying error message
end
@enduml