@startuml
title DAT- /v2/saveNetWorkDetails
autonumber "<color:red><b>00 "
skinparam backgroundColor #FFFFFF
skinparam sequence {
    TitleFontSize 20
    ActorFontSize 12
    ParticipantFontSize 12
    ParticipantPadding 40
    ArrowFontSize 12
}

actor       "        ASDK " as ASDK
box "<size:16>Secure ID" #Beige
participant "    DAT" as DAT
participant "  REDIS" as REDIS

end box


[-> ASDK:            After ASDK retrieves the devicePK, \n call the <b>saveNetWorkDetails</b> api to store the network details in redis.
ASDK -> DAT:         <b>POST</b> /v2/saveNetWorkDetails
note left of DAT:    {	\n "headers":   { 	\n      "Accept":"application/json", \n      "msisdn":"4254356789", \n      "imsi":"123456789", \n      "sgsnip":"174.10.2.3", \n      "ggsnip":"174.10.2.3",\n      "tmo-imei":"9876543211234567",\n   },\n "body":{\n	"Device_PK":"AAABCD",\n         "trans_id":"123sdf123"\n    }\n}

DAT -> DAT: MiddleWare Validates whether request contains valid parameters or not.
alt if Invalid/Missing parameters in request headers
     DAT -> ASDK:     <b> 401 Bad request</b>
     note right of DAT: { \n "error": "invalid_request" \n  "error_description": "Request does not have mandatory param trans_id" \n }
else if Missing_Device_PK parameters in request body
    DAT -> ASDK:     <b> 401 Bad request</b>
    note right of DAT: { \n "error": "Missing_Device_PK" \n  "error_description": "Missing device public key" \n }
else if Missing_Network_Headers parameters in request headers
    DAT -> ASDK:     <b> 400 Bad request</b>
    note right of DAT: { \n "error": "Missing_Network_Headers" \n  "error_description": "Missing network headers" \n }
end

DAT -> REDIS: On successfull request validation call saveNetWorkDetails to save network details.
note right of DAT: { \n host: "<env>-<ms-env>-rds-mysql.xxxx.amazonaws.com", \n user: "xxxx", \n password: "xxxx", \n database: 'DAT' }
DAT -> REDIS:        Connecting to REDIS, to make the saveNetWorkDetails from request details
note left of REDIS: Request to REDIS \n {	\n "headers":   { 	\n      "Accept":"application/json", \n      "msisdn":"4254356789", \n      "imsi":"123456789", \n      "sgsnip":"174.10.2.3", \n      "ggsnip":"174.10.2.3",\n      "tmo-imei":"9876543211234567",\n   },\n "body":{\n	"Device_PK":"AAABCD",\n         "trans_id":"123sdf123"\n    }\n}
alt if Error occurs while updating network details in redis
    REDIS -> DAT: <b> 500 Error when updating network details in Redis</b>
    note right of DAT: {\n  { \n   "code": 'ERROR_001', \n    message: 'Key not found'\n    } \n}
else <size:12>Successfully saved NetWorkDetails
    REDIS -> DAT :  <b>200, OK</b>
    DAT -> ASDK : <b>200, OK</b>
end
@enduml
