@startuml
title TMS V1 USERTOKEN
autonumber "<color:red><b>00 "
skinparam backgroundColor #FFFFFF
skinparam sequence {
    TitleFontSize 20
    ActorFontSize 12
    ParticipantFontSize 12
    ParticipantPadding 40
    ArrowFontSize 12
}

actor       "        User       " as USR
participant "      TMS    " as TMS
participant "      IAM    " as IAM


USR -> TMS:         /tms/v1/usertoken  
TMS -> TMS: Middleware check for trafficValidation.
alt  Invalid IP address
      TMS -> USR:     <b> 401 Unauthorized</b>
note left of TMS: { \n "error": "Unauthorized" \n  "error_description": "Unauthorized client" \n}
end
TMS -> TMS: Middleware check for transId
alt Missing trans_id in request body
      TMS -> USR:     <b> 403 invalid_request</b>
note left of TMS: { \n "error": "invalid_request" \n  "error_description": "Invalid oauth parameters" \n}
end
TMS -> TMS: Middleware check for clientId
alt Missing client_id in request body
      TMS -> USR:     <b> 403 invalid_request</b>
note left of TMS: { \n "error": "invalid_request" \n  "error_description": "Invalid oauth parameters" \n}
else Missing or invalid clientSecret in request body
      TMS -> USR:     <b> 403 Forbidden</b>
note left of TMS: { \n "error": "Forbidden" \n  "error_description": "Unable to authenticate at this time" \n}
end
alt Missing required params or invalid params in request
TMS -> USR:     <b> 403 invalid_request</b>
note left of TMS: { \n "error": "invalid_request" \n  "error_description": "Invalid oauth parameters" \n}
else In case of internal system error
TMS -> USR: <b> 500 internal_server_error</b>
note left of TMS: { \n "error": "internal_server_error" \n  "error_description": "string" \n}
else Valid request
TMS ->IAM: /oauth2-api/p/v1
alt Valid response 
IAM ->TMS:  <b> 200 status code</b>
note left of IAM: {\n "access_token": "string"\n "access_token_type": "string"\n "access_token_ttl": "string"\n "refresh_token": "string"\n "scope": "string"\n "tmobileid": "string"}
TMS -> USR: <b> 200 status code</b>
note left of TMS: {\n "access_token": "string"\n "access_token_type": "string"\n "access_token_ttl": "string"\n "refresh_token": "string"\n "scope": "string"\n "tmobileid": "string"}
else Invalid response
IAM -> TMS: 
note left of IAM: { \n "error": "string" \n  "error_description": "string" \n}
TMS -> USR: 
note left of TMS: { \n "error": "string" \n  "error_description": "string" \n}
end
end
@enduml