@startuml
title validate PIN for PUSH Requests API
autonumber "<color:red><b>00 "
skinparam backgroundColor #FFFFFF
skinparam sequence {
    TitleFontSize 20
    ActorFontSize 12
    ParticipantFontSize 12
    ParticipantPadding 40
    ArrowFontSize 12
}

actor       "        User       " as USR
box "<size:16>Secure ID" #Beige
participant "   EUI App   " as EUI_APP
participant "  EUI App Services " as EUI_SERVICES
end box
participant "  PUSH MicroService " as PUSH_MicroService




USR -> EUI_APP: User launches the Pin Verification Page and onPage Load calls '/validatePushRequestID'.
EUI_APP -> EUI_SERVICES:          <b>GET</b> /validatePushRequestID
EUI_SERVICES -> EUI_SERVICES: requestValidator Middleware checks whether params having requestId or not.
alt Invalid/Missing parameters in request body
      EUI_SERVICES -> EUI_APP:     <b> 400 Bad request</b>
      note right of EUI_APP: { \n "error": "invalid_push_request_id", \n "error_description": "Something went wrong. We weren't able to load this page. Please try again later" \n}
      EUI_APP -> USR:        Invalid push request id. Missing requestId parameter in request.
end
EUI_SERVICES -> PUSH_MicroService: If requestId exist in body then searching the requestId in PUSH MicroService
alt if requestId is expired
      PUSH_MicroService -> EUI_SERVICES:     <b> 400 Bad request</b>
      note right of EUI_SERVICES: { \n "error": "push_expired_request" \n "error_description": "Something went wrong. We weren't able to load this page. Please try again later" \n}
      EUI_SERVICES -> EUI_APP:         <b> 400 Bad request</b> "push_expired_request".
      EUI_APP -> USR:         User will be display page level error message on screen.
EUI_SERVICES -> PUSH_MicroService: If requestId exist in body then searching the requestId in PUSH MicroService
else requestId is invalid
      PUSH_MicroService -> EUI_SERVICES:     <b> 400 Bad request</b>
      note right of EUI_SERVICES: { \n "error": "invalid_push_request_id" \n  "error_description": "Something went wrong. We weren't able to load this page. Please try again later" \n}
      EUI_SERVICES -> EUI_APP:         <b> 400 Bad request</b> "invalid_push_request_id".
      EUI_APP -> USR:         User will be display page level error message on screen.
EUI_SERVICES -> PUSH_MicroService: If requestId exist in body then searching the requestId in PUSH MicroService
end
alt if requestId is valid
        PUSH_MicroService -> EUI_SERVICES: <b>200 OK</b> and If the response is not_recieved then its a requestId is not recieved.
        note right of EUI_SERVICES: { \n "message": "notification and title response" \n}
        EUI_SERVICES -> EUI_APP:         <b> 200 Success Response</b>.
        note right of EUI_APP: { \n "message": "This request has been not recieved." \n}
        EUI_APP -> USR:         User will be displayed error icon on screen.
else Valid Response from EUI_SERVICES
      PUSH_MicroService -> EUI_SERVICES:     <b> 200 OK</b>
      EUI_SERVICES -> EUI_APP:     <b> 200 Success Response</b>
      note right of EUI_APP: { \n "message": "notification and title response" \n}
      EUI_APP -> USR:         <b> 200 OK User will displayed pin update page"</b>
end
@enduml
