@startuml
title BAS Auth V2 Init
autonumber "<color:red><b>00 "
skinparam backgroundColor #FFFFFF
skinparam sequence {
    TitleFontSize 20
    ActorFontSize 12
    ParticipantFontSize 12
    ParticipantPadding 40
    ArrowFontSize 12
}

actor       " User               " as USR
box         " <size:16>Secure ID " #Beige
participant " ASDK               " as ASDK
participant " BAS                " as BAS
end box
participant " IAM                " as IAM



USR -> ASDK: User is trying to register fingerprint/faceId
ASDK -> BAS: Invoking BAS Microservice v2/auth/init
BAS -> BAS: Middleware checks the traffic validation.
alt Invalid/Missing parameters in request body
     BAS -> ASDK:     <b> 400 Bad request</b>
     note right of ASDK: { \n  "error": "invalid_request" \n  "error_description": "missing mandatory parameters." \n}
else Valid Request
     BAS -> BAS: calls next method
     BAS -> IAM: Valid Request to "/authn/v1/bio/auth/init"
     alt <size:12> Error Response from IAM
             IAM -> BAS:     <b> 400 [or] 500</b>
             note right of BAS: { \n  "error": "biometrics_server_init_auth_error" \n  "error_description": "biometrics server encountered an error during init authentication" \n}
             BAS -> ASDK:         ASDK will get failure response.
     else <size:12> Valid Response from IAM
           IAM -> BAS:         <b> 200 OK</b>
           BAS -> ASDK:         ASDK will get Success response.
     end
end
@enduml