@startuml


title log cookies are disabled API
autonumber "<color:red><b>00 "
skinparam backgroundColor #FFFFFF
skinparam sequence {
    TitleFontSize 20
    ActorFontSize 12
    ParticipantFontSize 12
    ParticipantPadding 40
    ArrowFontSize 12
}

box "<size:16>Secure ID" #Beige
participant "   EUI App   " as EUI_APP
participant "  EUI App Services " as EUI_SERVICES
end box

EUI_APP -> EUI_SERVICES:  request for disabling the cookies
      note right of EUI_SERVICES: Note: used for disabling the browser cookies

EUI_SERVICES -> EUI_APP: <b>200</b> Ok
@enduml
