@startuml
autonumber "<color:red><b>00 "
skinparam sequence {
ArrowColor Black
ActorBorderColor DeepPink
LifeLineBorderColor Black
LifeLineBackgroundColor #A9DCDF
ParticipantBorderColor DeepPink
ParticipantBackgroundColor DeepPink
ParticipantFontName Impact
ParticipantFontSize 17
ParticipantFontColor #FFF
ActorBackgroundColor Pink
ActorFontColor Black
ActorFontSize 17
ActorFontName Aapex
}
actor       "  User " as User
participant "  euiapp   " as SPA
participant "  EUIAppServices " as SVR
participant "  IAM " as IAM

User -> SPA: while user clicks on logout
SPA -> SVR: POST to /logout \n with request
SVR -> IAM: POST to /oauth2/v1/logout \n with request

alt success response
 note right of SVR: { \n "body":{headers: {authorization: Bearer 01.SYS.Jq0a92UX4v5p4w9QX, \n content-type: application/json, \n cookie:iam_session_id=eyJhbGciOiJSUzI1NiIsInR5cCI6IkpXVCJ9.eyJpc...}} \n }
    IAM -> SVR:200 success receive unlinkMsisdn response
     SVR -> SPA:301 redirect the user to login
else
    alt failure response
        IAM -> SVR: send error response
    else
        SVR -> SPA: send error response
    end
end
@enduml
