@startuml
skinparam sequence {
ArrowColor Black
ActorBorderColor DeepPink
LifeLineBorderColor Black
LifeLineBackgroundColor #A9DCDF
ParticipantBorderColor DeepPink
ParticipantBackgroundColor DeepPink
ParticipantFontName Impact
ParticipantFontSize 17
ParticipantFontColor #FFF
ActorBackgroundColor Pink
ActorFontColor Black
ActorFontSize 17
ActorFontName Aapex
}
actor User
User -> EUIApp: Login 
EUIApp -> EUIAppProfile: /fetchProfile api call
EUIAppProfile-> EUIServices : /updateProfilePin 


EUIServices -> IAM: /updateProfilePin \nIAM call 
   alt <font color=blue>Make IAM call
      IAM -> EUIServices : 400 Call is rejected
      EUIServices -> EUIAppProfile: IAM Error
      EUIAppProfile -> User: Error Message as per BAU
     
   else 
      IAM -> EUIServices : 200 Success Response
      EUIServices -> EUIAppProfile: Success
      EUIAppProfile -> User: Successfully Updated
end
@enduml