@startuml
participant UI
participant verify_pin_API as API
participant verify_pin_service as service
box "out of US433607 scope" #WhiteSmoke
    participant verify_pin_client as client
    participant CreateProfile as profile
    database Redis
    participant encryptDecryptService as encrypt
    participant ErrorMapperEngine as errorMapper
end box

UI -> API: pin & session
API -> service: pin & session
service -> Redis: session
Redis -> service: redis_object
service -> service: email & msisdn isn't P
service -> service: pin is P
service -> encrypt: pin
encrypt -> service: encrypted_pin
service -> client: encrypted_pin & userID

alt #transparent Success
    client -> service: OK
    service -> profile: create profile request
    profile -> service: profile
    service -> API: userID & iam_session_id
    API -> UI: userID & iam_session_id
else Failure
    client -> service: Error
    service -> API: Error
    API -> errorMapper: Error
    errorMapper -> API: mapped_error
    API -> UI: mapped_error
end
@enduml