@startuml
title Reset Password Request
autonumber "<color:red><b>00 "
skinparam backgroundColor #FFFFFF
skinparam sequence {
    TitleFontSize 20
    ActorFontSize 12
    ParticipantFontSize 12
    ParticipantPadding 40
    ArrowFontSize 12
}
actor       "        User       " as USR
box "<size:16>Secure ID" #Beige
participant "   EUI App / EUI App Profile   " as EUI_APP
participant "  EUI App Services " as SVR
participant "      IAM    " as IAM
end box

USR -> EUI_APP:         User requested pin.
EUI_APP -> SVR:         checkMsisdnAndSendPin is called \n \n <b>POST</b> /checkMsisdnAndSendPin
SVR -> SVR: Middleware builds the root transaction.
alt Missing remTransId in the request
      SVR -> EUI_APP:     <b> 403 Forbidden</b>
      note right of EUI_APP: { \n "action": "authenticate" \n }
      EUI_APP -> USR:         User will be navigated to failure screen.
end
alt if Root transaction built successfully


SVR -> IAM:  POST Validate Auth session
alt Invalid session
    IAM -> SVR:  <b> 403 Forbidden</b>
    note right of SVR: { \n "action": "authenticate" \n }
     SVR -> EUI_APP:     <b> 403 Forbidden</b>
     note right of EUI_APP: { \n "action": "authenticate" \n }
     EUI_APP -> USR:         User will be navigated to failure screen.
end

alt valid session
    IAM -> SVR:     <b> 200 OK</b>
          note right of SVR: { \n "iam_session_id": "eyJ0eXA.." \n , "expiry_time": "1553772009689" \n}
          SVR -> EUI_APP: <b> 200 OK </b>
          EUI_APP -> USR:         User will be navigated to respective action page.

end
@enduml