@startuml
title EquipmentBatchBlockUnblock-SAPOER_siBlockingStatusUpdateOutboundSync - Sequence Diagram
actor Client
autonumber
Client->EODEquipmentBatchBlockUnblockProcessorImpl: Call process method
EODEquipmentBatchBlockUnblockProcessorImpl->ImeiStatusManagerImpl: Call blockUnblockImei- Pass BlockingStatusUpdateRequest
ImeiStatusManagerImpl->BlockingStatusUpdateDaoImpl: Call blockUnblockImei- Pass BlockingStatusUpdateRequest
BlockingStatusUpdateDaoImpl -> SAPOER : Call [[https://bitbucket.service.edp.t-mobile.com/projects/EITCODEDOC/repos/flow-documentation/browse/swagger/ce.dsg.dm/TMO_RSP_si_RSP_BlockingStatusUpdate_Sync.wsdl SAPOER_siBlockingStatusUpdateOutboundSync]]
SAPOER--> BlockingStatusUpdateDaoImpl: return DTBlockingStatusUpdateResponse
BlockingStatusUpdateDaoImpl-->ImeiStatusManagerImpl: return BlockingStatusUpdateResponse
ImeiStatusManagerImpl-->EODEquipmentBatchBlockUnblockProcessorImpl: Return BlockingStatusUpdateResponse
EODEquipmentBatchBlockUnblockProcessorImpl-->Client: Return BlockingStatusUpdateResponse
@enduml