@startuml
title ** <U>Device Scheduler Job</U> **\n

actor SCHEDULER
autonumber

group#Magenta <b><color:white> DeviceScheduler Job
SCHEDULER->RSP: Invoke DeviceScheduler Job
RSP->RSP: Create DeviceCatalogRequestDTO object
note right
Header values set in request:
Application: STL
Channel: CARE
DealerCode: 0000001
PartnerID: COP
StoreID: 9999
PartnerTransactionId: bb5985e6-6e57-446d-b0e8-f091e995e4d4
endnote
RSP->HSO: Call [[ce.dsg.dice.dm.rsp.jobs.devicescheduler.hso_getdevice.puml HSO_GetDevice]] to get deviceCatelogue
HSO-->RSP: Return DeviceCatalogResponseDTO

RSP->RSP: Save DeviceCatalogResponseDTO into cache-deviceListRegion (key:deviceCatalog)
note right
This deviceListRegion is consumed by RSP operation Device.getDeviceCatalog
Device.getDeviceCatalog is open to all authenticated RSP users
endnote
end
@enduml