@startuml
actor Client
Client->Tibco:[[https://bitbucket.service.edp.t-mobile.com/projects/EITCODEDOC/repos/flow-documentation/browse/swagger/ce.dsg.dm/CheckDevicePairingEligibilityService.wsdl CheckDevicePairingEligibilityService.CheckDeviceFirstUseForPrepaidActivation]]
note left: IMEI/IMSI found on the network and identified as First-Use event after an activation should be paired or blocked from network access
Tibco->Tibco:validates the request for IMEI Pairing Data (set the status  Active /Inactive)
Tibco-->Client:Returns validation error 
group When request not contains IMEIPairingData
Client->Tibco:IMEI Pairing Data not found 
Tibco->Tibco:Determine the status is Active
Tibco-->Client: return firstUseEventCheckResponse 
else Error case
Tibco-->Client:return  error details
end
group When request contains IMEIPairingData
Client->Tibco:IMEI Pairing Data found  & currentdata > PairingExpDt
Tibco->Tibco:Set the status is InActive
Tibco-->Client: return firstUseEventCheckResponse 
else Error case
Tibco-->Client:return  error details
end
@enduml