@startuml
actor Client
Client->RSP: Call [[https://bitbucket.service.edp.t-mobile.com/projects/EITCODEDOC/repos/flow-documentation/browse/swagger/ce.dsg.dm/EquipmentService.wsdl Equipment.verifyDeviceUnlockEligibility]] operation

RSP->RSP:- Validate verifyDeviceUnlockEligibilityRequest \n then set the statusReport for  ERROR and Status
RSP-->Client: Return statusReport response to the client

RSP->EIR: Invoke [[ce.dsg.dice.dm.rsp.equipmentBackEnd.verifyDeviceUnlockEligibility_EIR_deviceQuery.svg EEIR_DeviceQuery]]  operation to retrieve the MSISDN,\nIMSI associated with the IMEI
EIR-->RSP: Return EquipmentDetailsDTO
RSP->SAPOER: Invoke [[ce.dsg.dice.dm.rsp.equipmentBackEnd.verifyDeviceUnlockEligibility_SAPOER_siStatusQuerySyncOut.svg  SAPOER-siStatusQuerySyncOut]] to retrieve the most recent unlock/override events
SAPOER-->RSP: Return SiStatusQuerySyncOutResponse

RSP->RPC: Invoke [[ce.dsg.dice.dm.rsp.equipmentBackEnd.verifyDeviceUnlockEligibility_RPC_validateTAC.svg RPC_RetailProductCatalog.validateTacAgainstRestrictedDevices]] to get the list of Restricted devices
RPC-->RSP: Return valid tac
alt BrandID is 2IP or UVM
RSP->DMW: Invoke [[ce.dsg.dice.dm.rsp.equipmentBackEnd.verifyDeviceUnlockEligibility_DMW_getImeiStatusNonTmo.svg  DMW_getImeiStatusNonTmo]]
RPC-->RSP: Return ImeiStatus
else
RSP->DMW: Invoke [[ce.dsg.dice.dm.rsp.equipmentBackEnd.verifyDeviceUnlockEligibility_DMW_getImeiStatus.svg  DMW_getImeiStatus]]
RPC-->RSP: Return ImeiStatus
end

RSP->DMW: Invoke [[ce.dsg.dice.dm.rsp.equipmentBackEnd.verifyDeviceUnlockEligibility_DMW_getShipUsageDataForImei.svg DmwDB_getShipUsageDataForImei]]
DMW-->RSP: Return ImeiShipmentStatus

RSP->EIP: Invoke [[ce.dsg.dice.dm.rsp.equipmentBackEnd.verifyDeviceUnlockEligibility_EIP_searchImei.svg EIP_searchImei]]
EIP-->RSP: Return ImeiDetails

RSP->EIP: Invoke [[ce.dsg.dice.dm.rsp.equipmentBackEnd.verifyDeviceUnlockEligibility_EIP_queryActiveInstallmentPlans.svg Eip_queryActiveInstallmentPlans]]
EIP-->RSP: Return QueryActiveInstallmentPlansResponse

RSP->EIP: Invoke [[ce.dsg.dice.dm.rsp.equipmentBackEnd.verifyDeviceUnlockEligibility_EIP_getInstallmentHistory.svg EIP_getInstallmentHistory]]
EIP-->RSP: Return GetInstallmentHistoryResponse

RSP->SAMSON: Invoke [[ce.dsg.dice.dm.rsp.equipmentBackEnd.verifyDeviceUnlockEligibility_SAMSON_evCstSrch.svg Tuxedo_evCstSrch]]
SAMSON-->RSP: Return CustomerLookupSearchResponse

RSP->SAMSON: Invoke [[ce.dsg.dice.dm.rsp.equipmentBackEnd.verifyDeviceUnlockEligibility_SAMSON_arGtCstBan.svg Tuxedo_arGtCstBan]]
SAMSON-->RSP: Return Account details

RSP->SAMSON: Invoke [[ce.dsg.dice.dm.rsp.equipmentBackEnd.verifyDeviceUnlockEligibility_SAMSON_evGbEipInv.svg Tuxedo_evGbEipInv]]
SAMSON-->RSP: Return EipInvoiceForBan

RSP->SAMSON: Invoke [[ce.dsg.dice.dm.rsp.equipmentBackEnd.verifyDeviceUnlockEligibility_SAMSON_blLsPndCrg.svg Tuxedo_blLsPndCrg]]
SAMSON-->RSP: Return GetPendingChargesForBan



group When statusReport is good
RSP->RSPDB: Invoke [[ce.dsg.dice.dm.rsp.equipmentBackEnd.verifyDeviceUnlockEligibility_RPC_getPartnerParams.svg RPC_getPartnerParams]] to verify for partner configuration
RSPDB-->RSP: Return brandMap response
group If DeviceBrandId from SAP equals TMO or WFM or MPCS or 2IP or UVM
group If UnlockType is equals to TEMPORARY or PERMANENT
RSP->RSPDB: Invoke [[ce.dsg.dice.dm.rsp.equipmentBackEnd.verifyDeviceUnlockEligibility_RSPDB_loadRules.svg RSPDB_loadRules]] to load the rulesets from RSP Database
RSPDB-->RSP: Return ruleSetList
end
Alt 
RSP-->Client: Throw RspProcessException
end
end

group If includeWarrantyInfo equals to true
RSP->DMW: Invoke [[ce.dsg.dice.dm.rsp.equipmentBackEnd.verifyDeviceUnlockEligibility_DMW_getHandsetInfoWithWarranty.svg DmwDB_getHandsetInfoWithWarranty]] to retrieve handset details
DMW-->RSP: Return handsetInfoList response
end
Alt If includeWarrantyInfo equals to false
RSP->DMW: Invoke [[ce.dsg.dice.dm.rsp.equipmentBackEnd.verifyDeviceUnlockEligibility_DMW_getHandsetInfo.svg DmwDB_getHandsetInfo]] to retrieve handset details
DMW-->RSP: Return handsetInfoList response
end

RSP->SAMSON: Call to [[ce.dsg.dice.dm.rsp.equipmentBackEnd.verifyDeviceUnlockEligibility_SAMSON_evGtSubInfo.svg Samson Tuxedo_evGtSubInfo]] operation to find out the Account mode for Subscriber Number (If msisdn is not Empty)
SAMSON-->RSP: Return accountModeResponse response

group If brandName equals to TMO
group If accountMode equals to POSTPAID
RSP->SAMSON: Call to [[ce.dsg.dice.dm.rsp.equipmentBackEnd.verifyDeviceUnlockEligibility_SAMSON_evCstSrch.svg Samson Tuxedo_evCstSrch operation]] to retrieve Customer Search Information for a postpaid account
SAMSON-->RSP: Return customerLookupSearchResponse
group If accountNumber is not empty
RSP->SAMSON: Call to [[ce.dsg.dice.dm.rsp.equipmentBackEnd.verifyDeviceUnlockEligibility_SAMSON_arGtCstBan.svg Samson Tuxedo API arGtCstBan]] operation to retrieve Billing Account attributes for BAN
SAMSON-->RSP: Return account response

RSP->SAMSON: Call to [[ce.dsg.dice.dm.rsp.equipmentBackEnd.verifyDeviceUnlockEligibility_SAMSON_evGbEipInv.svg SAMSON Tuxedo_evGbEipInv]] operation to retrieve EIP invoices for BAN
SAMSON-->RSP: Return eipInvoiceForBan response

RSP->SAMSON: Call to [[ce.dsg.dice.dm.rsp.equipmentBackEnd.verifyDeviceUnlockEligibility_SAMSON_blLsPndCrg.svg SAMSON Tuxedo_blLsPndCrg]] operation to retrieve pending charges for BAN
SAMSON-->RSP: Return GetPendingChargesForBan

RSP->SAMSON: Call to [[ce.dsg.dice.dm.rsp.equipmentBackEnd.verifyDeviceUnlockEligibility_SAMSON_csGtBuyRmrsPr.svg SAMSON Tuxedo_csGtBuyRmrsPr]] operation to retrieve buyers remorse period for the subscriber for BAN
SAMSON-->RSP: Return getBuyersRemorsePeriodResponse

RSP->CHUB: Invoke [[ce.dsg.dice.dm.rsp.equipmentBackEnd.verifyDeviceUnlockEligibility_CHUB_dlsService.svg  CHUB_DLSService]] operation to retrieve Subscriber's Date of Last subsidy and ULID for BAN
CHUB-->RSP: Return lookupDLSResponse
group If hso.equipmentservice.enabled is true
RSP->HSO: Invoke [[ce.dsg.dice.dm.rsp.equipmentBackEnd.verifyDeviceUnlockEligibility_HSO.svg HSO_GetDateOfLastUpgradeByUniversalLineId]] to retrieve Subscriber's Date Of Last Upgrade by ULID for BAN
HSO-->RSP: Return dateofLastUpgradeByUniversalLineIdResponse
end
Alt If hso.equipmentservice.enabled is false
RSP->OMS: Call [[ce.dsg.dice.dm.rsp.equipmentBackEnd.verifyDeviceUnlockEligibility_OMS_tmoGetJUMPOrderlist.svg tmoGetJUMPOrderlist]] operation to retrieve Subscriber's Date Of Last Upgrade by ULID for BAN
OMS-->RSP: Return tmoGetJumpOrderListResponse
end

RSP->SAMSON: Call to [[ce.dsg.dice.dm.rsp.equipmentBackEnd.verifyDeviceUnlockEligibility_SAMSON_evGtAddPrm.svg SAMSON Tuxedo_evGtAddPrm]] operation to retrieve Contract Service End Date for BAN
SAMSON-->RSP: Return contractServiceEndDate
end
end
Alt If accountMode equals to PREPAID
RSP->RPX: Invoke [[ce.dsg.dice.dm.rsp.equipmentBackEnd.verifyDeviceUnlockEligibility_RPX_QueryAllSubscriberInfo.svg RPX_QueryAllSubscriberInfo]] to check whether prepaid account for Subscriber Number
RPX-->RSP: Return queryAllSubscriberInfoResponse

RSP->RPX: Invoke [[ce.dsg.dice.dm.rsp.equipmentBackEnd.verifyDeviceUnlockEligibility_RPX_refillHistory.svg RPX_refillHistory]] to retrieve Total Refill Amount for Subscriber Number
RPX-->RSP: Return refillHistoryResponse
end
Alt If accountMode equals to PREPAID or POSTPAID
group when calculate number of temparary unlocks
group If unlock.count.via.saphana.enabled is true 
RSP->SAPOER: Invoke [[ce.dsg.dice.dm.rsp.equipmentBackEnd.verifyDeviceUnlockEligibility_SAPOER_siStatusQuerySyncOut.svg  SAPOER_siStatusQuerySyncOut]]  to retrieve the temporary unlock events for IMEI
SAPOER-->RSP: Return statusQuerySyncOutResponse
end
Alt If unlock.count.via.saphana.enabled is false 
RSP->SAP_HANA: Invoke [[ce.dsg.dice.dm.rsp.equipmentBackEnd.verifyDeviceUnlockEligibility_SAPHANA_getUnlockCount.svg SAP_HANA_getUnlockCount]] operation to retrieve the temporary unlock count for IMEI
SAP_HANA-->RSP: Return deviceUnlockCount response
end
end
group when calculate number of permanent unlocks
group If unlock.count.via.saphana.enabled is true
RSP->SAPOER: Invoke [[ce.dsg.dice.dm.rsp.equipmentBackEnd.verifyDeviceUnlockEligibility_SAPOER_siStatusQuerySyncOut.svg SAPOER_siStatusQuerySyncOut]] to retrieve the permanent unlock events for IMEI
SAPOER-->RSP: Return statusQuerySyncOutResponse
end
ALt If unlock.count.via.saphana.enabled is false
RSP->SAP_HANA: Invoke [[ce.dsg.dice.dm.rsp.equipmentBackEnd.verifyDeviceUnlockEligibility_SAPHANA_getUnlockCount.svg SAP_HANA_getUnlockCount]] operation to retrieve the temporary unlock count for IMEI
SAP_HANA-->RSP: Return deviceUnlockCount response
end
end
end
end
Alt If brandName equals to WFM
group If Msisdn is not empty
RSP->SAMSON: Call to [[ce.dsg.dice.dm.rsp.equipmentBackEnd.verifyDeviceUnlockEligibility_SAMSON_evCstSrch.svg Samson Tuxedo_evCstSrch operation]] to retrieve Customer Search Information for a postpaid account
SAMSON-->RSP: Return customerLookupSearchResponse
group If accountNumber is not empty
RSP->SAMSON: Call to [[ce.dsg.dice.dm.rsp.equipmentBackEnd.verifyDeviceUnlockEligibility_SAMSON_arGtCstBan.svg Samson Tuxedo API arGtCstBan]] operation to retrieve Billing Account attributes for BAN
SAMSON-->RSP: Return account response

RSP->SAMSON: Call to [[ce.dsg.dice.dm.rsp.equipmentBackEnd.verifyDeviceUnlockEligibility_SAMSON_evGbEipInv.svg SAMSON Tuxedo_evGbEipInv]] operation to retrieve EIP invoices for BAN
SAMSON-->RSP: Return eipInvoiceForBan response

RSP->SAMSON: Call to [[ce.dsg.dice.dm.rsp.equipmentBackEnd.verifyDeviceUnlockEligibility_SAMSON_blLsPndCrg.svg SAMSON Tuxedo_blLsPndCrg]] operation to retrieve pending charges for BAN
SAMSON-->RSP: Return GetPendingChargesForBan

RSP->SAMSON: Call to [[ce.dsg.dice.dm.rsp.equipmentBackEnd.verifyDeviceUnlockEligibility_SAMSON_csGtBuyRmrsPr.svg SAMSON Tuxedo_csGtBuyRmrsPr]] operation to retrieve buyers remorse period for the subscriber for BAN
SAMSON-->RSP: Return getBuyersRemorsePeriodResponse

RSP->CHUB: [[ce.dsg.dice.dm.rsp.equipmentBackEnd.verifyDeviceUnlockEligibility_CHUB_dlsService.svg  DLSService]] Call to CHUB_DLSService operation to retrieve Subscriber's Date of Last subsidy and ULID for BAN
CHUB-->RSP: Return lookupDLSResponse
group If hso.equipmentservice.enabled is true
RSP->HSO: [[ce.dsg.dice.dm.rsp.equipmentBackEnd.verifyDeviceUnlockEligibility_HSO.svg GetDateOfLastUpgradeByUniversalLineId]] Invoke to HSO_GetDateOfLastUpgradeByUniversalLineId to retrieve Subscriber's Date Of Last Upgrade by ULID for BAN
HSO-->RSP: Return dateofLastUpgradeByUniversalLineIdResponse
end
Alt If hso.equipmentservice.enabled is false
RSP->OMS: Call [[ce.dsg.dice.dm.rsp.equipmentBackEnd.verifyDeviceUnlockEligibility_OMS_tmoGetJUMPOrderlist.svg tmoGetJUMPOrderlist]] operation to retrieve Subscriber's Date Of Last Upgrade by ULID for BAN
OMS-->RSP: Return tmoGetJumpOrderListResponse
end

RSP->SAMSON: Call to [[ce.dsg.dice.dm.rsp.equipmentBackEnd.verifyDeviceUnlockEligibility_SAMSON_evGtAddPrm.svg SAMSON Tuxedo_evGtAddPrm]] operation to retrieve Contract Service End Date for BAN
SAMSON-->RSP: Return contractServiceEndDate
end
end


group when calculate number of temparary unlocks
group If unlock.count.via.saphana.enabled is true 
RSP->SAPOER: Invoke [[ce.dsg.dice.dm.rsp.equipmentBackEnd.verifyDeviceUnlockEligibility_SAPOER_siStatusQuerySyncOut.svg  SAPOER_siStatusQuerySyncOut]]  to retrieve the temporary unlock events for IMEI
SAPOER-->RSP: Return statusQuerySyncOutResponse
end
Alt If unlock.count.via.saphana.enabled is false 
RSP->SAP_HANA: Invoke [[ce.dsg.dice.dm.rsp.equipmentBackEnd.verifyDeviceUnlockEligibility_SAPHANA_getUnlockCount.svg SAP_HANA_getUnlockCount]] operation to retrieve the temporary unlock count for IMEI
SAP_HANA-->RSP: Return deviceUnlockCount response
end
end
group when calculate number of permanent unlocks
group If unlock.count.via.saphana.enabled is true
RSP->SAPOER: Invoke [[ce.dsg.dice.dm.rsp.equipmentBackEnd.verifyDeviceUnlockEligibility_SAPOER_siStatusQuerySyncOut.svg SAPOER_siStatusQuerySyncOut]] to retrieve the permanent unlock events for IMEI
SAPOER-->RSP: Return statusQuerySyncOutResponse
end
ALt If unlock.count.via.saphana.enabled is false
RSP->SAP_HANA: Invoke [[ce.dsg.dice.dm.rsp.equipmentBackEnd.verifyDeviceUnlockEligibility_SAPHANA_getUnlockCount.svg SAP_HANA_getUnlockCount]] operation to retrieve the temporary unlock count for IMEI
SAP_HANA-->RSP: Return deviceUnlockCount response
end
end
end
Alt If brandName equals to MPCS
RSP->Tibco: Invoke [[ce.dsg.dice.dm.rsp.equipmentBackEnd.verifyDeviceUnlockEligibility_TIBCO_getUnlockEligibility.svg  TIBCO_GetUnlockEligibility]]  to retrieve the device unlock eligible for METROPCS
Tibco-->RSP: Return getUnlockEligibilityResponse

group when calculate number of permanent unlocks
alt If unlock.count.via.saphana.enabled is true
RSP->SAPOER: Invoke [[ce.dsg.dice.dm.rsp.equipmentBackEnd.verifyDeviceUnlockEligibility_SAPOER_siStatusQuerySyncOut.svg  SAPOER_siStatusQuerySyncOut]]  to retrieve the temporary unlock events for IMEI
SAPOER-->RSP: Return statusQuerySyncOutResponse
else
RSP->SAP_HANA: Invoke [[ce.dsg.dice.dm.rsp.equipmentBackEnd.verifyDeviceUnlockEligibility_SAPHANA_getUnlockCount.svg SAP_HANA_getUnlockCount]] operation to retrieve the temporary unlock count for IMEI
SAP_HANA-->RSP: Return deviceUnlockCount response
end
end
end
Alt If brandName equals to 2IP or UVM
RSP->Tibco: Invoke [[ce.dsg.dice.dm.rsp.equipmentBackEnd.verifyDeviceUnlockEligibility_TIBCO_getRefillHistory.svg TIBCO_getRefillHistory]] to retrieve the Subscriber Status, Refill Amount and NoOfRenewals of MSISDN
Tibco-->RSP: Return getRefillHistoryResponse
group when calculate number of permanent unlocks
group If unlock.count.via.saphana.enabled is true
RSP->SAPOER: Invoke [[ce.dsg.dice.dm.rsp.equipmentBackEnd.verifyDeviceUnlockEligibility_SAPOER_siStatusQuerySyncOut.svg SAPOER_siStatusQuerySyncOut]] to retrieve the permanent unlock events for IMEI
SAPOER-->RSP: Return statusQuerySyncOutResponse
end
ALt If unlock.count.via.saphana.enabled is false
RSP->SAP_HANA: Invoke [[ce.dsg.dice.dm.rsp.equipmentBackEnd.verifyDeviceUnlockEligibility_SAPHANA_getUnlockCount.svg SAP_HANA_getUnlockCount]] operation to retrieve the temporary unlock count for IMEI
SAP_HANA-->RSP: Return deviceUnlockCount response
end
end
group when calculate number of temparary unlocks
group If unlock.count.via.saphana.enabled is true 
RSP->SAPOER: Invoke [[ce.dsg.dice.dm.rsp.equipmentBackEnd.verifyDeviceUnlockEligibility_SAPOER_siStatusQuerySyncOut.svg  SAPOER_siStatusQuerySyncOut]]  to retrieve the temporary unlock events for IMEI
SAPOER-->RSP: Return statusQuerySyncOutResponse
end
Alt If unlock.count.via.saphana.enabled is false 
RSP->SAP_HANA: Invoke [[ce.dsg.dice.dm.rsp.equipmentBackEnd.verifyDeviceUnlockEligibility_SAPHANA_getUnlockCount.svg SAP_HANA_getUnlockCount]] operation to retrieve the temporary unlock count for IMEI
SAP_HANA-->RSP: Return deviceUnlockCount response
end
end
end
RSP->SAPOER: Invoke [[ce.dsg.dice.dm.rsp.equipmentBackEnd.verifyDeviceUnlockEligibility_SAPOER_SiStatusUpdateSyncOut.svg  SAPOER_SiStatusUpdateSyncOut]]  to retrieve the temporary unlock events for IMEI
SAPOER-->RSP: Return statusUpdateSyncOutResponse
end
RSP->SAMSON: Call to [[ce.dsg.dice.dm.rsp.equipmentBackEnd.verifyDeviceUnlockEligibility_SAMSON_evUpMwTrx.svg Tuxedo_evUpMwTrx API]] for Verify Device Unlock Eligibility response to CSM \n(If PartenId equals to SAMSONCSM or EUS and brandName equals to WFM)
SAMSON-->RSP: Return status

RSP-->Client: Return responseSdo to the client.
@enduml