@startuml
actor Client
participant TIBCO
Queue OMS

Client->TIBCO: Publish the mssage to Queue: TMOBILE.%%TMO/Env/Env_Name%%.SAPPI.SKUINVENTORY.SYNC [[https://bitbucket.service.edp.t-mobile.com/projects/EITCODEDOC/repos/flow-documentation/browse/swagger/ce.dsg.dm/SKUInventory.xsd inventoryInfo]]
TIBCO->TIBCO: Publish the message to Queue: TMOBILE.%%TMO/Env/Env_Name%%.OMS.SKUINVENTORY.SYNC [[https://bitbucket.service.edp.t-mobile.com/projects/EITCODEDOC/repos/flow-documentation/browse/swagger/ce.dsg.dm/SKUInventory.xsd inventoryInfo]]
TIBCO->Client: Confirm to Queue SyncSKUInventory -Queue-Receiver


alt Picks the message from Queue: TMOBILE.%%TMO/Env/Env_Name%%.OMS.SKUINVENTORY.SYNC
TIBCO->OMS: Publish the message to Queue: TMO.STERLING.SAP.INVENTORY.EXT [[https://bitbucket.service.edp.t-mobile.com/projects/EITCODEDOC/repos/flow-documentation/browse/swagger/ce.dsg.dm/OMSInventoryFeedSchema.xsd Items]]

alt Success
OMS-->TIBCO: Success
else Error
OMS-->TIBCO: Returns Error Details
end
TIBCO->TIBCO:Confirm the Message
end


@enduml