@startuml
title verifyDeviceUnlockEligibility-HSO_GetDateOfLastUpgradeByUniversalLineId Sequence Diagram
actor Client
autonumber
Client->EquipmentServiceImpl: call populateValuesForPostPaid method

EquipmentServiceImpl -> HandsetUpgradeManagerImpl : call getDateOfLastUpgradeByUniversalLineId\n(pass ulidList)
HandsetUpgradeManagerImpl -> HandsetUpgradeDaoImpl : call getDateOfLastUpgradeByUniversalLineId\n(pass ulidList)
HandsetUpgradeDaoImpl->HSO: call [[https://bitbucket.service.edp.t-mobile.com/projects/EITCODEDOC/repos/flow-documentation/browse/swagger/ce.dsg.dm/QueryOrderHistory.wsdl HSO_GetDateOfLastUpgradeByUniversalLineId]]
HSO--> HandsetUpgradeDaoImpl: return ArrayOfSubscriberDetailsByUniversalLineId
HandsetUpgradeDaoImpl->Mapper: Call dozerBeanMapper to map the response \nto GetDateofLastUpgradeByUniversalLineIdResponseDto
HandsetUpgradeDaoImpl-->HandsetUpgradeManagerImpl: return GetDateofLastUpgradeByUniversalLineIdResponseDto
HandsetUpgradeManagerImpl --> EquipmentServiceImpl: return GetDateofLastUpgradeByUniversalLineIdResponseDto

@enduml