@startuml
actor SAP
SAP->Tibco:[[https://bitbucket.service.edp.t-mobile.com/projects/EITCODEDOC/repos/flow-documentation/browse/swagger/ce.dsg.dm/CoverageDeviceManagement.wsdl  coverageDeviceManagement.ManageDeviceSvc]] manageDeviceRequest 
Tibco->Tibco:validates the request based on activityType
group When data is not valid
Tibco-->SAP:Returns validation error 
end
group When data is valid
Tibco->Samson:Invoke evHndlCvgDvc API
Samson-->Tibco:Return evHndlCvgDvc API response with manageDevice details
alt when activityType=ACTIVATE or CANCEL_FULFILLMENT  from SAP
Tibco->OMS:Invoke OMSOrderDetials.getOrderDetails
note right: DeviceActivation
OMS->Tibco:Returns getOrderDetailsResponse
Tibco->Samson:Invoke  evHndlCvgDvc API
Samson->Tibco:Return evHndlCvgDvc response 
else Error case 
Samson-->Tibco:return error details 
end

group when activityType=UPDATEADDRESS

alt when verifiedAddress is false and deviceType= SignalBooster/SB
Tibco->Samson:Invoke evHndlCvgDvc API
Samson-->Tibco:Return evHndlCvgDvc API response 
else Error case 
Samson->Tibco:return error details 
end

group sucess with no condition
Tibco->Samson:Invoke evValDvcAdr API
Samson-->Tibco:evValDvcAdr Response

alt when addressMatchFound  is true
Tibco->Tibco: send evValDvcAdr Response
end
alt addressMatchFound= false & deviceType= SignalBooster|SB|SC|SmallCell|SignalBooster&statusCode=100
Tibco->NCI:return verifyCoverage resposne

alt when awsSpectrumEnabled&pcsSpectrumEnabled is true deviceType= SignalBooster|SB|SC|SmallCell|SignalBooster
Tibco->Samson:Invoke evHndlCvgDvc API
Samson-->Tibco:Return evHndlCvgDvc API response 
else Error case 
Samson->Tibco:return error details 
end
end


end

Tibco-->SAP: manageDeviceResponse
else Error case
Samson-->Tibco:return  error details
Tibco-->SAP:return error details
end
@enduml