@startuml
actor Client
Client->RSP: [[https://bitbucket.service.edp.t-mobile.com/projects/EITCODEDOC/repos/flow-documentation/browse/swagger/ce.dsg.dm/DeviceLookupService.wsdl?at=RSP-Clearwater  getDeviceEIPEsignEligibilities]] DeviceLookup.getDeviceEIPEsignEligibilities

RSP->WURFL: Invoke WURFL_getDeviceInfoByGroup API to get information about device capabilities and features for a variety of mobile devices
WURFL-->RSP: Return DeviceInfoByGroupResponse

RSP->RSPDB: Invoke RSP_getSupportedDevice operation
RSPDB-->RSP: Return SupportedDeviceInfo response

RSP->Client: Return deviceEIPEsignEligibilitiesResponseSdo to the Client

@enduml
