@startuml
title EquipmentBatchBlockUnblock-Eip_searchImei - Sequence Diagram
actor Client
autonumber
Client->EODEquipmentBatchBlockUnblockProcessorImpl: Call process method
EODEquipmentBatchBlockUnblockProcessorImpl->EquipmentInstallmentProgramManagerImpl: Call getBan, Pass ImeiDetails
EquipmentInstallmentProgramManagerImpl->QueryAPIServiceDaoImpl: Call searchImei, Pass SearchImeiRequest
QueryAPIServiceDaoImpl -> EIP : Call [[https://bitbucket.service.edp.t-mobile.com/projects/EITCODEDOC/repos/flow-documentation/browse/swagger/ce.dsg.dm/SearchImei.wsdl Eip_searchImei]]
EIP--> QueryAPIServiceDaoImpl: return SearchImeiResponseDTO
QueryAPIServiceDaoImpl-->EquipmentInstallmentProgramManagerImpl: Return SearchImeiResponse
EquipmentInstallmentProgramManagerImpl-->EODEquipmentBatchBlockUnblockProcessorImpl: Return ImeiDetails
EODEquipmentBatchBlockUnblockProcessorImpl-->Client: Return ImeiDetails
@enduml