@startuml
title verifyDeviceUnlockEligibility-Tuxedo_evGtSubInfo Sequence Diagram
actor Client
autonumber
Client->EquipmentServiceImpl: call verifyDeviceUnlockEligibility
EquipmentServiceImpl->EquipmentServiceMapper: Call mapGetAccountModeRequest
EquipmentServiceMapper->EquipmentServiceImpl: Return GetAccountModeRequest
EquipmentServiceImpl -> AccountVerificationManagerImpl : call getAccountMode \n(pass GetAccountModeRequest)
AccountVerificationManagerImpl -> GetSubscriberModeDaoImpl : call getAccountMode \n(pass GetAccountModeRequest)
GetSubscriberModeDaoImpl->SAMSON: call [[http://devsam31.unix.gsm1900.org:7020/WebAppTuxApi/samsonTools/apiDoc/tuxApiDoc.jsp Tuxedo_evGtSubInfo]]
SAMSON--> GetSubscriberModeDaoImpl: return GetAccountModeResponse
GetSubscriberModeDaoImpl-->AccountVerificationManagerImpl: return GetAccountModeResponse
AccountVerificationManagerImpl --> EquipmentServiceImpl: return GetAccountModeResponse
@enduml