@startuml
title verifyDeviceUnlockEligibility-Samson-Tuxedo_blLsPndCrg-Sequence Diagram
actor Client
autonumber

participant EquipmentServiceImpl
participant CustomerManagerImpl
participant CustomerLookupDaoImpl
participant EquipmentServiceMapper
participant SAMSON

Client->EquipmentServiceImpl: call populateGlobalValues method, \npass verifyDeviceUnlockEligibilityRequest(IMEI)
EquipmentServiceImpl->EquipmentServiceMapper: Call mapGetPendingChargesForBanRequest-Pass account,msisdn
EquipmentServiceMapper-->EquipmentServiceImpl: Return GetPendingChargesForBan
EquipmentServiceImpl -> CustomerManagerImpl : call getPendingChargesForBan\n(pass GetPendingChargesForBan)
CustomerManagerImpl -> CustomerLookupDaoImpl : call getPendingChargesForBan\n(pass GetPendingChargesForBan)
CustomerLookupDaoImpl->CustomerLookupDaoMapper: Call mapGetPendingChargesForBanInput-pass GetPendingChargesForBan
CustomerLookupDaoMapper-->CustomerLookupDaoImpl: Return GetPendingChargesForBanInput
CustomerLookupDaoImpl->SAMSON: call [[http://devsam31.unix.gsm1900.org:7020/WebAppTuxApi/samsonTools/apiDoc/tuxApiDoc.jsp Tuxedo_blLsPndCrg]] -Pass GetPendingChargesForBanInput
SAMSON--> CustomerLookupDaoImpl: return GetPendingChargesForBanOutput
CustomerLookupDaoImpl->CustomerLookupDaoMapper: Call mapGetPendingChargesForBanOutput-pass GetPendingChargesForBanOutput
CustomerLookupDaoMapper-->CustomerLookupDaoImpl: Return GetPendingChargesForBan
CustomerLookupDaoImpl-->CustomerManagerImpl: return GetPendingChargesForBan
CustomerManagerImpl --> EquipmentServiceImpl: return GetPendingChargesForBan

@enduml