@startuml
actor Client
Client->TIBCO: [[https://bitbucket.service.edp.t-mobile.com/projects/EITCODEDOC/repos/flow-documentation/browse/swagger/ce.dsg.dm/DeviceProfileService.wsdl GetDeviceAttributes]] DeviceProfileService.GetDeviceAttributes

TIBCO->TIBCO:-Validate DeviceAttributesRequest has serialNumber or QuickCode 
group when data is Invalid 
TIBCO->Client:Returns validation error 
end

group when data is Valid

group When request has quickCode and not exists of serialNumberInfo

TIBCO->Union:Invoke Union REST API to retrieve the DeviceSpecification Details

alt success
Union-->TIBCO: Returns DeviceSpecification Details
else If success with condition ( includeDeviceAssessmentDetails='true' and (IMEI_Type='imei' or string-length(IMEI_Type)='0'))
Union-->EER: Invoke SQLManager "GetConfiguredQuestions" to retrieve the Questions
EER-->TIBCO: Returns deviceAssessmentDetails
else error
EER-->TIBCO: Returns error
Union-->TIBCO: Returns error
end

group When request has serialNumber and string-length(quickCode)=0

group When request does not have includeDeviceSpecifications or includeDeviceSpecifications
TIBCO->EEIR: [[https://bitbucket.service.edp.t-mobile.com/projects/EITCODEDOC/repos/flow-documentation/browse/swagger/ce.dsg.dm/eeir-2.0.0-00.01.wsdl deviceQuery]] Invoke EEIR - TmoUsEIRSoapService.deviceQuery
alt success
EEIR->SAPPI: [[https://bitbucket.service.edp.t-mobile.com/projects/EITCODEDOC/repos/flow-documentation/browse/swagger/ce.dsg.dm/StatusInquiryInterface.wsdl si_StatusQuerySync_Out]] Invoke SAPPI -XI_e10f8a88372830b99f374769d1b9caed_Service.si_StatusQuerySync_Out
SAPPI->TIBCO: Returns Status Info
else If success with condition (includeDeviceSpecifications='false' or not exists(includeDeviceSpecifications))

alt success (Device_ValidateIMEI='true')
EEIR->SAPPI:[[https://bitbucket.service.edp.t-mobile.com/projects/EITCODEDOC/repos/flow-documentation/browse/swagger/ce.dsg.dm/BLOCK_SERVICE.wsdl ZT_BLOCKING_STATUS_CHECK]] Invoke SAPPI - ZT_BLOCKING_STATUS_CHECK.ZT_BLOCKING_STATUS_CHECK
else Device_ValidateIMEI='false'
EEIR->SAPPI: [[https://bitbucket.service.edp.t-mobile.com/projects/EITCODEDOC/repos/flow-documentation/browse/swagger/ce.dsg.dm/TMO_RSP_SI_Blocking_Status_Check_Outbound_Sync.wsdl SI_Blocking_Status_Check_Outbound_Sync]] Invoke SAPPI - XI_3e75a11ff3ef326198285a46795b2d75_Service.SI_Blocking_Status_Check_Outbound_Sync
SAPPI->TIBCO: Returns Blocking Status
else error
SAPPI-->TIBCO: Returns error
end

EEIR-->TIBCO: Returns error
end
end

group When request has includeDeviceSpecifications='true' and string-length(serialNumber)>0
TIBCO->Union: Invoke Union REST API to retrieve the DeviceSpecification Details
alt success 
Union-->TIBCO: Returns DeviceSpecification Details
else If success with condition (If includeDeviceAssessmentDetails='true')
Union-->EER: Invoke SQLManager "GetConfiguredQuestions" to retrieve the Questions
EER-->TIBCO: Returns deviceAssessmentDetails
else error
EER-->TIBCO: Returns error
Union-->TIBCO: Returns error
end
end

group when request has includeSkuDetails='true'
TIBCO->SAPPI: [[https://bitbucket.service.edp.t-mobile.com/projects/EITCODEDOC/repos/flow-documentation/browse/swagger/ce.dsg.dm/si_SKULookup_Sync_OutService1.0.wsdl si_SKULookup_Sync_Out]] Invoke SAPPI - si_SKULookup_Sync_OutService.si_SKULookup_Sync_Out
alt success
SAPPI-->TIBCO: Returns SKU details
else error
SAPPI-->TIBCO: Returns error
end
end

end

end
end
alt success 
TIBCO->Client:Returns DeviceAttributes response
else Error
TIBCO->Client: Returns error details
end
@enduml