
@startuml
title verifyDeviceUnlockEligibility-Samson-Tuxedo_csGtBuyRmrsPr - Sequence Diagram
actor Client
autonumber

participant EquipmentServiceImpl
participant SubscriberManagerImpl
participant GetBuyersRemorsePeriodDaoImpl
participant GetBuyersRemorsePeriodDaoMapper
participant SAMSON

Client->EquipmentServiceImpl: call populateValuesForPostPaid method, \npass verifyDeviceUnlockEligibilityRequest
EquipmentServiceImpl->EquipmentServiceImpl: Create GetBuyersRemorsePeriodRequest
EquipmentServiceImpl -> SubscriberManagerImpl : call getBuyersRemorsePeriod\n(pass GetBuyersRemorsePeriodRequest)
SubscriberManagerImpl -> GetBuyersRemorsePeriodDaoImpl : call getBuyersRemorsePeriod\n(pass GetBuyersRemorsePeriodRequest)
GetBuyersRemorsePeriodDaoImpl->GetBuyersRemorsePeriodDaoMapper: Call mapGetBuyersRemorsePeriodInput\n-Pass GetBuyersRemorsePeriodRequest
GetBuyersRemorsePeriodDaoMapper-->GetBuyersRemorsePeriodDaoImpl: Return GetBuyersRemorsePeriodInput
GetBuyersRemorsePeriodDaoImpl->SAMSON: call [[http://devsam31.unix.gsm1900.org:7020/WebAppTuxApi/samsonTools/apiDoc/tuxApiDoc.jsp Tuxedo_csGtBuyRmrsPr]] -Pass GetBuyersRemorsePeriodInput
SAMSON--> GetBuyersRemorsePeriodDaoImpl: return GetBuyersRemorsePeriodOutput
GetBuyersRemorsePeriodDaoImpl->GetBuyersRemorsePeriodDaoMapper: Call mapGetBuyersRemorsePeriodOuput\n-Pass GetBuyersRemorsePeriodOutput
GetBuyersRemorsePeriodDaoMapper-->GetBuyersRemorsePeriodDaoImpl: Return GetBuyersRemorsePeriodResponse
GetBuyersRemorsePeriodDaoImpl-->SubscriberManagerImpl: return GetBuyersRemorsePeriodResponse
SubscriberManagerImpl --> EquipmentServiceImpl: return GetBuyersRemorsePeriodResponse

@enduml