@startuml
actor iHAPS
iHAPS->Tibco:[[https://bitbucket.service.edp.t-mobile.com/projects/EITCODEDOC/repos/flow-documentation/browse/wsdl/ce.dsg.dm/Claim.wsdl?at=refs%2Fheads%2FRSP-Clearwater GetClaimInfoSvc]] claim.GetClaimInfoSvc
Tibco->Tibco:validates the request for Valid BAN, MSISDN and Device info
group When data is Invalid
Tibco->iHAPS:Returns Validation error 
end

group When data is valid
Tibco->Assurant:[[https://bitbucket.service.edp.t-mobile.com/projects/EITCODEDOC/repos/flow-documentation/browse/wsdl/ce.dsg.dm/AssurantRecoveryService.wsdl?at=refs%2Fheads%2FRSP-Clearwater  get_cliaMInformation]]getClaimInfoRequest to fetch the claim details of the device


alt Success Case
Assurant->Tibco:Return ClaimInfoResponse with claim details
Tibco->iHAPS: Returns getClaimInfoResponse to the iHAPS 
else Error Case
Assurant->Tibco: Returns Error 
Tibco->iHAPS:Return errordetails
end

end
@enduml