@startuml
actor iHAPS
iHAPS->Tibco:[[https://bitbucket.service.edp.t-mobile.com/projects/EITCODEDOC/repos/flow-documentation/browse/wsdl/ce.dsg.dm/Claim.wsdl?at=refs%2Fheads%2FRSP-Clearwater createClaimsvc]] claim.createClaimsvc
Tibco->Tibco:validates the request for Billing Address, device info and Claim Info
group When data is Invalid
Tibco->iHAPS:Returns validation error 
end

group When data is valid
Tibco->Assurant:[[https://bitbucket.service.edp.t-mobile.com/projects/EITCODEDOC/repos/flow-documentation/browse/wsdl/ce.dsg.dm/AssurantRecoveryService.wsdl?at=refs%2Fheads%2FRSP-Clearwater  set_submitCliam]] createClaimRequest for lost/stolen/Damaged Device
alt success case
Assurant->Tibco:Return response with claim details 
group when status is PENDING mode
Tibco->Samson: Invoke Tuxedo API mmInMem adapter to create the memoRequest
Samson->Tibco:createMemoResponce

end
Tibco->iHAPS: Return create claim Response
else Error case
Assurant->Tibco:Returns  error details
Tibco->iHAPS:Returns error details
end
end
@enduml