@startuml
title ** __DSPA Selfcare PCF: sendCurrentPasswordwithMsisdnForSMS__ **\n

actor Client #Magenta

participant SelfCareServiceWSController
participant SelfCareService
participant SelfCareUtil
participant IAMManager
participant IAMDao
participant LDAPService
participant TibcoSMSClient
participant IAM_LDAP #DarkSeaGreen
participant TIBCO_EMS
participant Provisioning as "<b><color:white>Provisioning" #Magenta

skinparam sequenceGroupBorderColor blue 
group#Magenta <b><color:white> sendCurrentPasswordwithMsisdnForSMS

Client -> SelfCareServiceWSController: <font color=blue><b>sendCurrentPasswordwithMsisdnForSMS [[https://servicecatalog.internal.t-mobile.com/servicecat/dspa/2016-10-14/wsdl_api/wsdl/SelfCareService.wsdl WSDL]]\n (JAX-RPC XML Request over Http)

note left
URI: /webservice/SelfCareService
Client : RSP
endnote

SelfCareServiceWSController->SelfCareService: sendCurrentPasswordwithMsisdnForSMS(msisdn, customerType)
SelfCareService-> SelfCareUtil : validateRequest(msisdn, customerType)
alt msisdn doesnot match msisdnPattern or customerType validation failed
	SelfCareUtil->SelfCareService: throws InvalidRequestException
	SelfCareService -> SelfCareServiceWSController : throws InvalidRequestException
	SelfCareServiceWSController -> Client : throws InvalidRequestException
end
alt customerType is not PREPAID
	SelfCareService-> IAMManager : getMsisdnBan(msisdn)
	IAMManager-> IAMDao : getMsisdnBan(msisdn)
	IAMDao-> LDAPService : ldapSearch(searchCriteria, filterAttributes, searchControls)
	note left : with msisdn in searchCriteria
	LDAPService -> IAM_LDAP : search(rootSuffix, searchCriteria, searchControls, handler)
	IAM_LDAP -> LDAPService : SearchResult List
	LDAPService-> IAMDao : SearchResult List
	alt Search Result is empty or doesnot return any attributes
		IAMDao-> IAMManager : throws CustomerNotFoundException, NoSuchMsisdnException
		IAMManager-> SelfCareService : throws CustomerNotFoundException, NoSuchMsisdnException
		SelfCareService -> SelfCareServiceWSController : throws NoSuchMsisdnException
		SelfCareServiceWSController -> Client : throws NoSuchMsisdnException
	end
	IAMDao->IAMManager : ban
	IAMManager -> SelfCareService : ban
	SelfCareService-> IAMManager : getBanMsisdnsWithStatus(ban)
	IAMManager-> IAMDao : getBanMsisdnsWithStatus(ban)
	IAMDao-> LDAPService : ldapSearch(searchCriteria, filterAttributes, searchControls)
	note left : with ban in searchCriteria
	LDAPService -> IAM_LDAP : search(rootSuffix, searchCriteria, searchControls, handler)
	IAM_LDAP -> LDAPService : SearchResult List
	LDAPService-> IAMDao : SearchResult List
	alt Search Result is empty or doesnot return any attributes
		IAMDao-> IAMManager : throws CustomerNotFoundException, NoSuchBanException
		IAMManager-> SelfCareService : throws CustomerNotFoundException, NoSuchBanException
		SelfCareService -> SelfCareServiceWSController : throws NoSuchBanException
		SelfCareServiceWSController -> Client : throws NoSuchBanException
	end
	IAMDao->IAMManager : CustomerStatus
	IAMManager -> SelfCareService : CustomerStatus
	alt Account type and subtype is not GMP
		alt Multiline customerType is null
		note left : Repeat this for all the indexes in CustomerStatus array
			SelfCareService-> IAMManager : getProfile(msisdn)
			IAMManager->IAMDao : getProfile(msisdn)
			IAMDao-> LDAPService : ldapSearch(searchCriteria, filterAttributes, searchControls)
			note left : with msisdn in searchCriteria
			LDAPService -> IAM_LDAP : search(rootSuffix, searchCriteria, searchControls, handler)
			IAM_LDAP -> LDAPService : SearchResult List
			LDAPService-> IAMDao : SearchResult
			IAMDao-> IAMManager : CustomerProfile
			IAMManager-> SelfCareService : CustomerProfile
			alt Search Result is empty or doesnot return any attributes
				IAMDao-> IAMManager : throws CustomerNotFoundException, NoSuchMsisdnException
				IAMManager-> SelfCareService : throws CustomerNotFoundException, NoSuchMsisdnException
				SelfCareService -> SelfCareServiceWSController : throws NoSuchMsisdnException
				SelfCareServiceWSController-> Client : throws NoSuchMsisdnException, SelfCareSystemException
			end
		end
		alt multilineCustomerType is NULL for Customer
			SelfCareService -> SelfCareUtil: getMLCustomerTypeForBlank(profile)
                        group#DarkSeaGreen <b>Topic: TMOBILE.<env>.DSPA.TOPIC.PUBLISH, event: 'setMLType' and MsgType: 'Publish' 
			  SelfCareService-> TIBCO_EMS : [[../../provisioningems/ce.dsg.dice.prov.ems.pcf.publishtopic.setmltype.svg Provisioning_AsncFlow_setMLType]]
                        end
		end
	end
	alt customer account status is ACTIVE or SUSPEND
		alt	customer registration status is registered oor partially registered
			SelfCareService-> IAMManager : getProfile(msisdn)
			IAMManager-> IAMDao : getProfile(msisdn)
			IAMDao-> LDAPService : ldapSearch(searchCriteria, filterAttributes, searchControls)
			note left : with msisdn in searchCriteria
			LDAPService -> IAM_LDAP : search(rootSuffix, searchCriteria, searchControls, handler)
			IAM_LDAP -> LDAPService : SearchResult List
			LDAPService-> IAMDao : SearchResult
			alt Search Result is empty or doesnot return any attributes
				IAMDao-> IAMManager : throws CustomerNotFoundException, NoSuchMsisdnException
				IAMManager-> SelfCareService : throws CustomerNotFoundException, NoSuchMsisdnException
				SelfCareService -> SelfCareServiceWSController : throws NoSuchMsisdnException
				SelfCareServiceWSController -> Client : throws NoSuchMsisdnException
			end
			IAMDao-> IAMManager : CustomerProfile
			IAMManager-> SelfCareService : CustomerProfile
			SelfCareService-> IAMManager : getPassword(msisdn)
			IAMManager-> IAMDao : getPassword(msisdn)
			IAMDao-> LDAPService : ldapSearch(searchCriteria, filterAttributes, searchControls)
			note left : with msisdn in searchCriteria
			LDAPService -> IAM_LDAP : search(rootSuffix, searchCriteria, searchControls, handler)
			IAM_LDAP -> LDAPService : CustomerPassword
			LDAPService-> IAMDao : CustomerPassword
			alt Search Result is empty or doesnot return any attributes
				IAMDao-> IAMManager : throws CustomerNotFoundException, NoSuchMsisdnException
				IAMManager-> SelfCareService : throws CustomerNotFoundException, NoSuchMsisdnException
				SelfCareService -> SelfCareServiceWSController : throws NoSuchMsisdnException
				SelfCareServiceWSController -> Client : throws NoSuchMsisdnException
			end
			IAMDao-> IAMManager : CustomerPassword
			IAMManager-> SelfCareService : CustomerPassword
			alt CustomerPassword is not null
			note left : log error in case of failure
				SelfCareService -> SelfCareUtil : (msisdn, custPassword, language, contentId)
				note left : Inputs varies depending on validation of ServicePartnerId and msisdn and msisdnToSendSMS values
				SelfCareUtil -> TibcoSMSClient : SendSMS (contentId, msisdn, password)
				TibcoSMSClient [#blue]--> Provisioning : SendSMS (contentId, msisdn, password)\n[[../../provisioning/ce.dsg.dice.prov.provisioning.pcf.soap.sendsms.svg Provisioning_SendSMS]]
				Provisioning -> TibcoSMSClient : returns response
				note left : returns boolean tru or false based on success/failure 
				TibcoSMSClient -> SelfCareUtil :  returns response
				note left : returns boolean tru or false based on success/failure 
				SelfCareUtil -> SelfCareService : returns response
				note left : returns boolean tru or false based on success/failure 
			end		
		else 
			SelfCareService -> SelfCareServiceWSController : throws InvalidCustomerStatusException
			SelfCareServiceWSController -> Client : throws InvalidCustomerStatusException
		end
	else 
		SelfCareService -> SelfCareServiceWSController : throws InvalidCustomerStatusException
		SelfCareServiceWSController -> Client : throws InvalidCustomerStatusException
	end
	SelfCareService-> SelfCareServiceWSController : return void
	SelfCareServiceWSController-[#green]> Client : return void
else
	SelfCareService -> SelfCareServiceWSController : throws InvalidRequestException
	SelfCareServiceWSController -> Client : throws InvalidRequestException
end	
end
@enduml
