@startuml
title  __DSPA Selfcare PCF: SetPAHPrivilege_v2 flow__ n

actor Client #Magenta

participant SelfCareServiceWSController
participant SelfCareService
participant SelfCareUtil
participant IAMManager
participant IAMDao
participant LdapService
participant IAM_LDAP #DarkSeaGreen 
queue PUBLISH_TOPIC #Magenta
queue CPNI_QUEUE #Magenta

skinparam sequenceGroupBorderColor blue 
group#Magenta <b><color:white> setPAHPrivileges_v2

Client -> SelfCareServiceWSController: <font color=blue>  setPAHPrivilege_v2 [[https://servicecatalog.internal.t-mobile.com/servicecat/dspa/2016-10-14/wsdl_api/wsdl/SelfCareService.wsdl WSDL]]\n (JAX-RPC XML Request over Http)

note left
Clients: RSP and Streamline
URI: /webservice/SelfCareService
endnote

alt try
SelfCareServiceWSController->SelfCareService: setPAHPrivilege(msisdn,setPAHPrevilegeFlag,ntId,servicePartnerId) 
SelfCareService-> SelfCareUtil : validateMsisdn(msisdn)
alt msisdn doesn't match msisdnPattern
SelfCareUtil-> SelfCareService : throw InvalidRequestException
SelfCareService->SelfCareServiceWSController: throw InvalidRequestException
end

SelfCareService-> SelfCareUtil : validateServicePartnerIdValue(servicePartnerId)
alt servicePartnerId is not TMO or MKB
SelfCareUtil-> SelfCareService : throw InvalidRequestException
SelfCareService->SelfCareServiceWSController: throw InvalidRequestException
end

SelfCareService->IAMManager: getProfile(msisdn)
IAMManager-> IAMDao: getProfile(msisdn)
IAMDao-> LdapService : ldapSearch(searchCriteria, filterAttributes, searchControls)
note left: with msisdn in searchCriteria
LdapService -> IAM_LDAP : search(rootSuffix, searchCriteria, searchControls, handler)
IAM_LDAP -> LdapService : SearchResult List
LdapService-> IAMDao : SearchResult List

alt searchResult is Empty
IAMDao->IAMManager: throws CustomerNotFoundException
IAMManager->SelfCareService: throws CustomerNotFoundException
SelfCareService->SelfCareServiceWSController: throws NoSuchMsisdnException
else byPassNoAttributesException disabled, filterAttributes length greater than 0 and serachResult size is 0
IAMDao->SelfCareServiceWSController : throws IAMException 
end

alt searchResultList size greater than 1 for a msisdn
IAMDao->IAMDao : Log Error
note left : More than one object found for search criteria
end

IAMDao-> IAMManager : return customerProfile
IAMManager-> SelfCareService : return customerProfile

alt customerProfile.getCustomerType() is PREPAID
SelfCareService->SelfCareServiceWSController : throw InvalidRequestException
end

alt servicePartnerId is not valid
SelfCareService->SelfCareServiceWSController : throw NoSuchMsisdnException
end

alt setPAHPrevilegeFlag is true
SelfCareService->SelfCareUtil: validateMLAccountTypes(customerProfile.getAccountType(), customerProfile.getAccountSubType())
alt acType + acSubType is not available in allowedMLAcTypes
SelfCareUtil->SelfCareService: throw InvalidRequestException
end

SelfCareService->IAMManager: getCustomerLogins(msisdn, false)
IAMManager-> IAMDao: getCustomerLogins(msisdn, isBan)
IAMDao-> LdapService : ldapSearch(searchCriteria, filterAttributes, searchControls)
note left: with msisdn,isBan in searchCriteria
LdapService -> IAM_LDAP : search(rootSuffix, searchCriteria, searchControls, handler)
IAM_LDAP -> LdapService : SearchResult List
LdapService-> IAMDao : SearchResult List

alt searchResult is Empty
IAMDao->IAMManager: throws CustomerNotFoundException
IAMManager->SelfCareService: throws CustomerNotFoundException
SelfCareService->SelfCareServiceWSController: throws NoSuchMsisdnException
else byPassNoAttributesException disabled, filterAttributes length greater than 0 and serachResult size is 0
IAMDao->SelfCareServiceWSController : throws IAMException 
end

alt searchResultList size greater than 1 for a msisdn
IAMDao->IAMDao : Log Error
note left : More than one object found for search criteria
end

IAMDao-> IAMManager : return custLoginArr
IAMManager-> SelfCareService : return custLoginArr

SelfCareService->SelfCareUtil: isMsisdnValidForPah(custLoginArr[0])
alt custLogin.getControlledPlanType() is available in controlledPlanTypesNotAllowedAsPah
SelfCareUtil->SelfCareService: return isMsisdnValidForPah as false
else 
SelfCareUtil->SelfCareService: return isMsisdnValidForPah as true
end

alt isMsisdnValidForPah is false
SelfCareService->SelfCareServiceWSController: throw InSufficientPrivilegeException
end

alt servicePartnerId is TMO and custLoginArr[0].getRegistrationStatus() is not F
SelfCareService->SelfCareServiceWSController: throw InvalidCustomerStatusException
else custLoginArr[0].getAccountStatus() is C
SelfCareService->SelfCareServiceWSController: throw InvalidCustomerStatusException
end

SelfCareService->IAMManager: getPAHMsisdnStatus(custLoginArr[0].getBan())
IAMManager-> IAMDao: getPAHMsisdnStatus(ban)
IAMDao-> LdapService : ldapSearch(searchCriteria, filterAttributes, searchControls)
note left: with ban in searchCriteria
LdapService -> IAM_LDAP : search(rootSuffix, searchCriteria, searchControls, handler)
IAM_LDAP -> LdapService : SearchResult List
LdapService-> IAMDao : SearchResult List

alt searchResult is Empty
IAMDao->IAMManager: throws CustomerNotFoundException
IAMManager->SelfCareService: throws CustomerNotFoundException
SelfCareService->SelfCareServiceWSController: throws NoSuchMsisdnException
else byPassNoAttributesException disabled, filterAttributes length greater than 0 and serachResult size is 0
IAMDao->SelfCareServiceWSController : throws IAMException 
end

alt searchResultList size greater than 1 for a msisdn
IAMDao->IAMDao : Log Error
note left : More than one object found for search criteria
end

IAMDao-> IAMManager : return pahCustStatus
IAMManager-> SelfCareService : return pahCustStatus

alt pahCustStatus is not null
alt pahCustStatus.getAccountStatus() is C
SelfCareService->SelfCareServiceWSController: throw PAHAlreadyExistsException
else
SelfCareService->SelfCareServiceWSController: throw transferPAHPrivilegeCommon
end
else
note left
Set customerProfile.multilineCustomerType asPAH
endnote

group#DarkSeaGreen <b>Topic: TMOBILE.<env>.DSPA.TOPIC.PUBLISH, event: 'updateMLType' and MsgType: 'Publish' 
SelfCareService[#blue]-->  PUBLISH_TOPIC : [[../../provisioningems/ce.dsg.dice.prov.ems.pcf.publishtopic.updatemltype.svg Provisioning_AsncFlow_updateMLType]]
end

alt error during posting event
SelfCareService -> SelfCareServiceWSController : throws Exception
end

SelfCareService->IAMManager: setPAH(msisdn, true)
IAMManager-> IAMDao: setPAH(msisdn, isPAHCustomer)
IAMDao-> LdapService : ldapSearch(searchCriteria, filterAttributes, searchControls)
note left: with msisdn in searchCriteria
LdapService -> IAM_LDAP : search(rootSuffix, searchCriteria, searchControls, handler)
IAM_LDAP -> LdapService : SearchResult List
LdapService-> IAMDao : SearchResult List

alt searchResult is Empty
IAMDao->IAMManager: throws CustomerNotFoundException
IAMManager->SelfCareService: throws CustomerNotFoundException
SelfCareService->SelfCareServiceWSController: throws NoSuchMsisdnException
else byPassNoAttributesException disabled, filterAttributes length greater than 0 and serachResult size is 0
IAMDao->SelfCareServiceWSController : throws IAMException 
end

alt searchResultList size greater than 1 for a msisdn
IAMDao->IAMDao : Log Error
note left : More than one object found for search criteria
end
IAMDao-> LdapService:ldapUpdate(dn,modificationItems) updating **tmmlispah & tmmlcusttype**
LdapService->IAM_LDAP: modifyAttributes(dn,modificationItems)
IAM_LDAP-> LdapService: return void
LdapService-->IAMDao: return void
IAMDao-->IAMManager: return void
IAMManager-->SelfCareService: return void


note left
Create CPNINotification with customerProfile, accType as POSTPAID, eventType as MASTERACCTCHANGE,ntId and GuId
endnote

group#DarkSeaGreen <b>Topic: TMOBILE.<env>.DSPA.QUEUE.CPNINOTIFCATION and event: 'PAHCHANGE' 
SelfCareService [#blue]--> CPNI_QUEUE : [[../../provisioning/ce.dsg.dice.prov.provisioning.pcf.cpni.processor.svg Provisiong_AsyncFlow_CPNI]]
end

end

SelfCareService->IAMManager: getMsisdnsToSetNPAH(custLoginArr[0].getBan())
IAMManager-> IAMDao: getMsisdnsToSetNPAH(ban)
IAMDao-> LdapService : ldapSearch(searchCriteria, filterAttributes, searchControls)
note left: with ban in searchCriteria
LdapService -> IAM_LDAP : search(rootSuffix, searchCriteria, searchControls, handler)
IAM_LDAP --> LdapService : SearchResult List
LdapService-> IAMDao : SearchResult List

alt searchResult is Empty
IAMDao->IAMManager: throws CustomerNotFoundException
IAMManager->SelfCareService: throws CustomerNotFoundException
SelfCareService->SelfCareServiceWSController: throws NoSuchMsisdnException
else byPassNoAttributesException disabled, filterAttributes length greater than 0 and serachResult size is 0
IAMDao->SelfCareServiceWSController : throws IAMException 
end

alt searchResultList size greater than 1 for a msisdn
IAMDao->IAMDao : Log Error
note left : More than one object found for search criteria
end

IAMDao-> IAMManager : return msisdnsListToSetNAPH
IAMManager-> SelfCareService : return msisdnsListToSetNAPH

alt msisdnsListToSetNAPH is not empty
Loop for each msisdn in msisdnsListToSetNAPH 
alt msisdn not equals to msisdnsListToSetNAPH.get(i)
SelfCareService->IAMManager: getProfile(msisdnsListToSetNAPH.get(i))
IAMManager-> IAMDao: getProfile(msisdn)
IAMDao-> LdapService : ldapSearch(searchCriteria, filterAttributes, searchControls)
note left: with msisdn in searchCriteria
LdapService -> IAM_LDAP : search(rootSuffix, searchCriteria, searchControls, handler)

IAM_LDAP -> LdapService : SearchResult List
LdapService-> IAMDao : SearchResult List

alt searchResult is Empty
IAMDao->IAMManager: throws CustomerNotFoundException
IAMManager->SelfCareService: throws CustomerNotFoundException
SelfCareService->SelfCareServiceWSController: throws NoSuchMsisdnException
else byPassNoAttributesException disabled, filterAttributes length greater than 0 and serachResult size is 0
IAMDao->SelfCareServiceWSController : throws IAMException 
end

alt searchResultList size greater than 1 for a msisdn
IAMDao->IAMDao : Log Error
note left : More than one object found for search criteria
end

IAMDao-> IAMManager : return profileToSetNAPH
IAMManager-> SelfCareService : return profileToSetNAPH
note left: Set profileToSetNAPH.multilineCustomerType as NPAH_NP

group#DarkSeaGreen <b>Topic: TMOBILE.<env>.DSPA.TOPIC.PUBLISH, event: 'updateMLType' and MsgType: 'Publish' 
SelfCareService[#blue]--> PUBLISH_TOPIC : [[../../provisioningems/ce.dsg.dice.prov.ems.pcf.publishtopic.updatemltype.svg Provisioning_AsncFlow_updateMLType]]
end

alt error during posting event
SelfCareService -> SelfCareServiceWSController : throws Exception
end

SelfCareService->IAMManager: setPAH(msisdnToSetNAPH, true)
IAMManager-> IAMDao: setPAH(msisdnToSetNAPH, isPAHCustomer)
IAMDao-> LdapService : ldapSearch(searchCriteria, filterAttributes, searchControls)
note left: with msisdn in searchCriteria
LdapService -> IAM_LDAP : search(rootSuffix, searchCriteria, searchControls, handler)
IAM_LDAP -> LdapService : SearchResult List
LdapService-> IAMDao : SearchResult List

alt searchResult is Empty
IAMDao->IAMManager: throws CustomerNotFoundException
IAMManager->SelfCareService: throws CustomerNotFoundException
SelfCareService->SelfCareServiceWSController: throws NoSuchMsisdnException
else byPassNoAttributesException disabled, filterAttributes length greater than 0 and serachResult size is 0
IAMDao->SelfCareServiceWSController : throws IAMException 
end

alt searchResultList size greater than 1 for a msisdn
IAMDao->IAMDao : Log Error
note left : More than one object found for search criteria
end
IAMDao-> LdapService:ldapUpdate(dn,modificationItems) updating **tmmlcusttype & tmmlispah**
LdapService->IAM_LDAP: modifyAttributes(dn,modificationItems)
IAM_LDAP -> LdapService: return void
LdapService-->IAMDao: return void
IAMDao-->IAMManager: return void
IAMManager-->SelfCareService: return void


end
end 
end
else
SelfCareService->IAMManager: getProfile(msisdn)
IAMManager-> IAMDao: getProfile(msisdn)
IAMDao-> LdapService : ldapSearch(searchCriteria, filterAttributes, searchControls)
note left: with msisdn in searchCriteria
LdapService -> IAM_LDAP : search(rootSuffix, searchCriteria, searchControls, handler)
IAM_LDAP -> LdapService : SearchResult List
LdapService-> IAMDao : SearchResult List

alt searchResult is Empty
IAMDao->IAMManager: throws CustomerNotFoundException
IAMManager->SelfCareService: throws CustomerNotFoundException
SelfCareService->SelfCareServiceWSController: throws NoSuchMsisdnException
else byPassNoAttributesException disabled, filterAttributes length greater than 0 and serachResult size is 0
IAMDao->SelfCareServiceWSController : throws IAMException 
end

alt searchResultList size greater than 1 for a msisdn
IAMDao->IAMDao : Log Error
note left : More than one object found for search criteria
end

IAMDao-> IAMManager : return customerProfile
IAMManager-> SelfCareService : return customerProfile

note left: Set customerProfile.multilineCustomerType as NPAH_NP

group#DarkSeaGreen <b>Topic: TMOBILE.<env>.DSPA.TOPIC.PUBLISH, event: 'unsetPAH' and MsgType: 'Publish' 
SelfCareService[#blue]-->  PUBLISH_TOPIC : [[../../provisioningems/ce.dsg.dice.prov.ems.pcf.publishtopic.unsetpah.svg Provisioning_AsncFlow_unsetPAH]]
end

alt error during posting event
SelfCareService -> SelfCareServiceWSController : throws Exception
end

SelfCareService->IAMManager: setPAH(msisdnToSetNAPH, true)
IAMManager-> IAMDao: setPAH(msisdnToSetNAPH, isPAHCustomer)
IAMDao-> LdapService : ldapSearch(searchCriteria, filterAttributes, searchControls)
note left: with msisdn in searchCriteria
LdapService -> IAM_LDAP : search(rootSuffix, searchCriteria, searchControls, handler)
IAM_LDAP -> LdapService : SearchResult List
LdapService-> IAMDao : SearchResult List

alt searchResult is Empty
IAMDao->IAMManager: throws CustomerNotFoundException
IAMManager->SelfCareService: throws CustomerNotFoundException
SelfCareService->SelfCareServiceWSController: throws NoSuchMsisdnException
else byPassNoAttributesException disabled, filterAttributes length greater than 0 and serachResult size is 0
IAMDao->SelfCareServiceWSController : throws IAMException 
end

alt searchResultList size greater than 1 for a msisdn
IAMDao->IAMDao : Log Error
note left : More than one object found for search criteria
end
IAMDao-> LdapService:ldapUpdate(dn,modificationItems) updating **tmmlispah & tmmlcusttype**
LdapService->IAM_LDAP: modifyAttributes(dn,modificationItems)
IAM_LDAP -> LdapService: return void
LdapService-->IAMDao: return void
IAMDao-->IAMManager: return void
IAMManager-->SelfCareService: return void

end 


SelfCareService --[#green]> SelfCareServiceWSController: return void
SelfCareServiceWSController--[#green]> Client : return void

else 
SelfCareServiceWSController-> Client : throws InvalidRequestException
else
SelfCareServiceWSController-> Client : throws InvalidCustomerStatusException
else
SelfCareServiceWSController-> Client : throws InSufficientPrivilegeException
else
SelfCareServiceWSController-> Client : throws PAHAlreadyExistsException
else
SelfCareServiceWSController-> Client : throws NoSuchMsisdnException
else
SelfCareServiceWSController-> Client : throws SelfCareSystemException
end
end
@enduml