@startuml
title ** __DSPA Selfcare PCF: LookupCustomerType__ **\n

actor Client #Magenta

participant SelfCareServiceWSController
participant SelfCareService
participant SelfCareUtil
participant IAMManager
participant IAMDao
participant LdapService
participant IAM_LDAP #DarkSeaGreen 
participant TIBCO_EMS

skinparam sequenceGroupBorderColor blue 
group#Magenta <b><color:white> lookupCustomerType 

Client -> SelfCareServiceWSController : <font color=blue> lookupCustomerType [[https://servicecatalog.internal.t-mobile.com/servicecat/dspa/2016-10-14/wsdl_api/wsdl/SelfCareService.wsdl WSDL]]\n (JAX-RPC XML Request over Http)

note left
Clients: Streamline and MyTmo
URI: /webservice/SelfCareService
endnote

alt try
SelfCareServiceWSController->SelfCareService: lookupCustomerType(msisdn, null) 
SelfCareService-> SelfCareUtil: validateMsisdn(msisdn)
alt msisdn doesn't match msisdnPattern
SelfCareUtil-> SelfCareService : throw InvalidRequestException
SelfCareService->SelfCareServiceWSController : throw InvalidRequestException
end

SelfCareService-> SelfCareUtil: validateServicePartnerIdValue(servicePartnerId)
alt servicePartnerId is not MKB or TMO
SelfCareUtil-> SelfCareService : throw InvalidRequestException
SelfCareService->SelfCareServiceWSController : throw InvalidRequestException
end
SelfCareService-> SelfCareService : getProfileCommon(msisdn, servicePartnerId, null)
SelfCareService-> IAMManager: getProfile(msisdn)
IAMManager-> IAMDao: getProfile(msisdn)
IAMDao-> LdapService : ldapSearch(searchCriteria, filterAttributes, searchControls)
LdapService -> IAM_LDAP : search(rootSuffix, searchCriteria, searchControls, handler)
IAM_LDAP -> LdapService : SearchResult List
note left: with msisdn in searchCriteria
LdapService-> IAMDao : SearchResult List

alt searchResult is Empty
IAMDao->IAMManager: throws CustomerNotFoundException
IAMManager->SelfCareService: throws CustomerNotFoundException
SelfCareService->SelfCareServiceWSController : throws NoSuchMsisdnException
else byPassNoAttributesException disabled, filterAttributes length greater than 0 and serachResult size is 0
IAMDao->SelfCareServiceWSController : throws IAMException 
end

alt searchResultList size greater than 1 for a msisdn
IAMDao->IAMDao : Log Error
note left : "More than one object found for search criteria"
end
IAMDao--> IAMManager : return customerProfile
IAMManager--> SelfCareService : return customerProfile

alt customerType is PREPAID

group#DarkSeaGreen <b>Topic: TMOBILE.<env>.DSPA.TOPIC.PUBLISH, event: 'setMLType', MsgType: 'Publish' 
SelfCareService[#blue]-->TIBCO_EMS :  [[../../provisioningems/ce.dsg.dice.prov.ems.pcf.publishtopic.setmltype.svg Provisioning_AsncFlow_setMLType]]
end

alt error during posting event
SelfCareService -> SelfCareServiceWSController : throws Exception
end
end
alt servicePartnerId is not null 
SelfCareService-> SelfCareUtil: isValidServicePartnerId(accType,accSubType,servicePartnerId, isMkbTMOFilterFlagEnabled) 
SelfCareUtil--> SelfCareService: return isValidServicePartnerId flag
alt isValidServicePartnerId is false
SelfCareService -> SelfCareServiceWSController : throw NoSuchMsisdnException
end
else
SelfCareService-> SelfCareUtil: isValidServicePartnerId(accType,accSubType,isMkbTMOFilterFlagEnabled) 
note left
TMO is assumed as partnerId
endnote
SelfCareUtil--> SelfCareService: return isValidServicePartnerId flag
alt isValidServicePartnerId is false
SelfCareService -> SelfCareServiceWSController : throw NoSuchMsisdnException
end
end
SelfCareService --> SelfCareService : return profile
SelfCareService --[#green]> SelfCareServiceWSController : return customerType from profile
SelfCareServiceWSController--[#green]> Client : return customerType
else 
SelfCareServiceWSController-> Client : throws InvalidRequestException
else
SelfCareServiceWSController-> Client : throws NoSuchMsisdnException
else
SelfCareServiceWSController-> Client : throws SelfCareSystemException
end
end
@enduml