@startuml
title ** __DSPA Selfcare PCF: isPAHSetForBan__ **\n

actor Client #Magenta

participant SelfCareServiceWSController
participant SelfCareService
participant SelfcareUtil
participant IAMManager
participant IAMDao
participant LDAPService
participant IAM_LDAP #DarkSeaGreen

skinparam sequenceGroupBorderColor blue 
group#Magenta <b><color:white> isPAHSetForBan 

Client -> SelfCareServiceWSController: <font color=blue><b> isPAHSetForBan [[https://servicecatalog.internal.t-mobile.com/servicecat/dspa/2016-10-14/wsdl_api/wsdl/SelfCareService.wsdl WSDL]]\n (JAX-RPC XML Request over Http)

note left
URI: /webservice/SelfCareService
Client : EBILL
endnote

SelfCareServiceWSController->SelfCareService: isPAHSetForBan(ban)
SelfCareService-> SelfcareUtil : validateBan(ban)
alt ban doesnot match banPattern
	SelfcareUtil->SelfCareService: throws InvalidRequestException
	SelfCareService -> SelfCareServiceWSController : throws InvalidRequestException
	SelfCareServiceWSController -> Client : throws InvalidRequestException
end
SelfCareService-> IAMManager : isPAHSetForBan(ban)
IAMManager-> IAMDao : isPAHSetForBan(ban)
IAMDao-> LDAPService : ldapSearch(searchCriteria, filterAttributes, searchControls)
note left : ban sent in searchCriteria
LDAPService -> IAM_LDAP : search(rootSuffix, searchCriteria, searchControls, handler)
IAM_LDAP -> LDAPService : SearchResult List
LDAPService-> IAMDao : SearchResult List
alt Search Result is empty or doesnot return any attributes
	IAMDao-> IAMManager : throws CustomerNotFoundException, NoSuchBanException
	IAMManager-> SelfCareService : throws CustomerNotFoundException, NoSuchBanException
	SelfCareService -> SelfCareServiceWSController : throws NoSuchBanException
	SelfCareServiceWSController -> Client : throws NoSuchBanException
end
alt ML_CustomerType is PAH for one of the subscribers of Ban
	IAMDao-> IAMManager : isPAHSetForBan as True
else 
	IAMDao-> IAMManager : isPAHSetForBan as False
end
IAMManager-> SelfCareService : isPAHSetForBan Response
note left : Response contains true/false
SelfCareService-> SelfCareServiceWSController : isPAHSetForBan Response
note left : Response contains true/false
SelfCareServiceWSController-[#green]> Client : isPAHSetForBan Response
note left : Response contains true/false
end
@enduml
