{
    "swagger": "2.0",
    "info": {
        "description": "teptoscaservice API documentation",
        "version": "0.0.1",
        "title": "teptoscaservice API",
        "contact": {},
        "license": {}
    },
    "host": "teptosca.stg.px-prd02.cf.t-mobile.com",
    "basePath": "/etp/v1/tosca",
    "tags": [
        {
            "name": "repo-scan-resource",
            "description": "Repo Scan Resource"
        },
        {
            "name": "tosca-events-resource",
            "description": "Tosca Events Resource"
        }
    ],
    "paths": {
        "/api/repo/scan": {
            "get": {
                "tags": [
                    "repo-scan-resource"
                ],
                "summary": "scanRepo",
                "operationId": "scanRepoUsingGET",
                "produces": [
                    "*/*"
                ],
                "responses": {
                    "200": {
                        "description": "OK",
                        "schema": {
                            "$ref": "#/definitions/ResponseEntity"
                        }
                    },
                    "401": {
                        "description": "Unauthorized"
                    },
                    "403": {
                        "description": "Forbidden"
                    },
                    "404": {
                        "description": "Not Found"
                    }
                },
                "deprecated": false
            }
        },
        "/api/tosca/events": {
            "post": {
                "tags": [
                    "tosca-events-resource"
                ],
                "summary": "fetchToscaEvents",
                "operationId": "fetchToscaEventsUsingPOST",
                "consumes": [
                    "application/json"
                ],
                "produces": [
                    "application/json"
                ],
                "parameters": [
                    {
                        "in": "body",
                        "name": "eventsFilterDTO",
                        "description": "eventsFilterDTO",
                        "required": true,
                        "schema": {
                            "$ref": "#/definitions/EventsFilterDTO"
                        }
                    }
                ],
                "responses": {
                    "200": {
                        "description": "OK",
                        "schema": {
                            "type": "array",
                            "items": {
                                "$ref": "#/definitions/TestConfiguration"
                            }
                        }
                    },
                    "201": {
                        "description": "Created"
                    },
                    "401": {
                        "description": "Unauthorized"
                    },
                    "403": {
                        "description": "Forbidden"
                    },
                    "404": {
                        "description": "Not Found"
                    }
                },
                "deprecated": false
            }
        },
        "/api/tosca/events/details": {
            "post": {
                "tags": [
                    "tosca-events-resource"
                ],
                "summary": "fetchToscaTestCaseDetails",
                "operationId": "fetchToscaTestCaseDetailsUsingPOST",
                "consumes": [
                    "application/json"
                ],
                "produces": [
                    "application/json"
                ],
                "parameters": [
                    {
                        "in": "body",
                        "name": "tcdsInputDTO",
                        "description": "tcdsInputDTO",
                        "required": true,
                        "schema": {
                            "$ref": "#/definitions/TCDSInputDTO"
                        }
                    }
                ],
                "responses": {
                    "200": {
                        "description": "OK",
                        "schema": {
                            "$ref": "#/definitions/TestConfiguration"
                        }
                    },
                    "201": {
                        "description": "Created"
                    },
                    "401": {
                        "description": "Unauthorized"
                    },
                    "403": {
                        "description": "Forbidden"
                    },
                    "404": {
                        "description": "Not Found"
                    }
                },
                "deprecated": false
            }
        },
        "/api/tosca/events/{eventIds}": {
            "get": {
                "tags": [
                    "tosca-events-resource"
                ],
                "summary": "fetchToscaEventIdData",
                "operationId": "fetchToscaEventIdDataUsingGET",
                "produces": [
                    "application/xml"
                ],
                "parameters": [
                    {
                        "name": "eventIds",
                        "in": "path",
                        "description": "eventIds",
                        "required": true,
                        "type": "string"
                    }
                ],
                "responses": {
                    "200": {
                        "description": "OK",
                        "schema": {
                            "$ref": "#/definitions/TestConfiguration"
                        }
                    },
                    "401": {
                        "description": "Unauthorized"
                    },
                    "403": {
                        "description": "Forbidden"
                    },
                    "404": {
                        "description": "Not Found"
                    }
                },
                "deprecated": false
            }
        },
        "/api/tosca/filters/{filterName}": {
            "get": {
                "tags": [
                    "tosca-events-resource"
                ],
                "summary": "fetchFilterMasterData",
                "operationId": "fetchFilterMasterDataUsingGET",
                "produces": [
                    "application/json"
                ],
                "parameters": [
                    {
                        "name": "filterName",
                        "in": "path",
                        "description": "filterName",
                        "required": true,
                        "type": "string"
                    }
                ],
                "responses": {
                    "200": {
                        "description": "OK",
                        "schema": {
                            "type": "object"
                        }
                    },
                    "401": {
                        "description": "Unauthorized"
                    },
                    "403": {
                        "description": "Forbidden"
                    },
                    "404": {
                        "description": "Not Found"
                    }
                },
                "deprecated": false
            }
        },
        "/api/tosca/insert-event": {
            "post": {
                "tags": [
                    "tosca-events-resource"
                ],
                "summary": "insertEvent",
                "operationId": "insertEventUsingPOST",
                "consumes": [
                    "application/json"
                ],
                "produces": [
                    "application/json"
                ],
                "parameters": [
                    {
                        "in": "body",
                        "name": "tcdsInputDTO",
                        "description": "tcdsInputDTO",
                        "required": true,
                        "schema": {
                            "$ref": "#/definitions/TCDSInputDTO"
                        }
                    }
                ],
                "responses": {
                    "200": {
                        "description": "OK",
                        "schema": {
                            "$ref": "#/definitions/ToscaEventDTO"
                        }
                    },
                    "201": {
                        "description": "Created"
                    },
                    "401": {
                        "description": "Unauthorized"
                    },
                    "403": {
                        "description": "Forbidden"
                    },
                    "404": {
                        "description": "Not Found"
                    }
                },
                "deprecated": false
            }
        },
        "/api/tosca/test-result": {
            "post": {
                "tags": [
                    "tosca-events-resource"
                ],
                "summary": "fetchToscaTestEventResult",
                "operationId": "fetchToscaTestEventResultUsingPOST",
                "consumes": [
                    "application/json"
                ],
                "produces": [
                    "application/json"
                ],
                "parameters": [
                    {
                        "in": "body",
                        "name": "tcdsInputDTO",
                        "description": "tcdsInputDTO",
                        "required": true,
                        "schema": {
                            "$ref": "#/definitions/TCDSInputDTO"
                        }
                    }
                ],
                "responses": {
                    "200": {
                        "description": "OK",
                        "schema": {
                            "$ref": "#/definitions/ToscaTestEventDTO"
                        }
                    },
                    "201": {
                        "description": "Created"
                    },
                    "401": {
                        "description": "Unauthorized"
                    },
                    "403": {
                        "description": "Forbidden"
                    },
                    "404": {
                        "description": "Not Found"
                    }
                },
                "deprecated": false
            }
        },
        "/api/tosca/update-event-info": {
            "put": {
                "tags": [
                    "tosca-events-resource"
                ],
                "summary": "updateEventExecutionInfo",
                "operationId": "updateEventExecutionInfoUsingPUT",
                "consumes": [
                    "application/json"
                ],
                "produces": [
                    "application/json"
                ],
                "parameters": [
                    {
                        "in": "body",
                        "name": "toscaEventDTO",
                        "description": "toscaEventDTO",
                        "required": true,
                        "schema": {
                            "$ref": "#/definitions/ToscaEventDTO"
                        }
                    }
                ],
                "responses": {
                    "200": {
                        "description": "OK",
                        "schema": {
                            "$ref": "#/definitions/ToscaEventDTO"
                        }
                    },
                    "201": {
                        "description": "Created"
                    },
                    "401": {
                        "description": "Unauthorized"
                    },
                    "403": {
                        "description": "Forbidden"
                    },
                    "404": {
                        "description": "Not Found"
                    }
                },
                "deprecated": false
            }
        }
    },
    "definitions": {
        "CustomPropertiesDTO": {
            "type": "object",
            "properties": {
                "property": {
                    "$ref": "#/definitions/PropertyDTO"
                }
            },
            "title": "CustomPropertiesDTO"
        },
        "EventsFilterDTO": {
            "type": "object",
            "properties": {
                "applicationId": {
                    "type": "integer",
                    "format": "int64"
                },
                "businessProcessId": {
                    "type": "integer",
                    "format": "int64"
                },
                "channelId": {
                    "type": "integer",
                    "format": "int64"
                },
                "environmentId": {
                    "type": "integer",
                    "format": "int64"
                },
                "filteredData": {
                    "type": "boolean"
                },
                "id": {
                    "type": "integer",
                    "format": "int64"
                },
                "projectId": {
                    "type": "integer",
                    "format": "int64"
                },
                "releaseId": {
                    "type": "integer",
                    "format": "int64"
                }
            },
            "title": "EventsFilterDTO"
        },
        "PropertyDTO": {
            "type": "object",
            "properties": {
                "name": {
                    "type": "string"
                },
                "note": {
                    "type": "string"
                }
            },
            "title": "PropertyDTO"
        },
        "ResponseEntity": {
            "type": "object",
            "properties": {
                "body": {
                    "type": "object"
                },
                "statusCode": {
                    "type": "string",
                    "enum": [
                        "100 CONTINUE",
                        "101 SWITCHING_PROTOCOLS",
                        "102 PROCESSING",
                        "103 CHECKPOINT",
                        "200 OK",
                        "201 CREATED",
                        "202 ACCEPTED",
                        "203 NON_AUTHORITATIVE_INFORMATION",
                        "204 NO_CONTENT",
                        "205 RESET_CONTENT",
                        "206 PARTIAL_CONTENT",
                        "207 MULTI_STATUS",
                        "208 ALREADY_REPORTED",
                        "226 IM_USED",
                        "300 MULTIPLE_CHOICES",
                        "301 MOVED_PERMANENTLY",
                        "302 FOUND",
                        "302 MOVED_TEMPORARILY",
                        "303 SEE_OTHER",
                        "304 NOT_MODIFIED",
                        "305 USE_PROXY",
                        "307 TEMPORARY_REDIRECT",
                        "308 PERMANENT_REDIRECT",
                        "400 BAD_REQUEST",
                        "401 UNAUTHORIZED",
                        "402 PAYMENT_REQUIRED",
                        "403 FORBIDDEN",
                        "404 NOT_FOUND",
                        "405 METHOD_NOT_ALLOWED",
                        "406 NOT_ACCEPTABLE",
                        "407 PROXY_AUTHENTICATION_REQUIRED",
                        "408 REQUEST_TIMEOUT",
                        "409 CONFLICT",
                        "410 GONE",
                        "411 LENGTH_REQUIRED",
                        "412 PRECONDITION_FAILED",
                        "413 PAYLOAD_TOO_LARGE",
                        "413 REQUEST_ENTITY_TOO_LARGE",
                        "414 URI_TOO_LONG",
                        "414 REQUEST_URI_TOO_LONG",
                        "415 UNSUPPORTED_MEDIA_TYPE",
                        "416 REQUESTED_RANGE_NOT_SATISFIABLE",
                        "417 EXPECTATION_FAILED",
                        "418 I_AM_A_TEAPOT",
                        "419 INSUFFICIENT_SPACE_ON_RESOURCE",
                        "420 METHOD_FAILURE",
                        "421 DESTINATION_LOCKED",
                        "422 UNPROCESSABLE_ENTITY",
                        "423 LOCKED",
                        "424 FAILED_DEPENDENCY",
                        "426 UPGRADE_REQUIRED",
                        "428 PRECONDITION_REQUIRED",
                        "429 TOO_MANY_REQUESTS",
                        "431 REQUEST_HEADER_FIELDS_TOO_LARGE",
                        "451 UNAVAILABLE_FOR_LEGAL_REASONS",
                        "500 INTERNAL_SERVER_ERROR",
                        "501 NOT_IMPLEMENTED",
                        "502 BAD_GATEWAY",
                        "503 SERVICE_UNAVAILABLE",
                        "504 GATEWAY_TIMEOUT",
                        "505 HTTP_VERSION_NOT_SUPPORTED",
                        "506 VARIANT_ALSO_NEGOTIATES",
                        "507 INSUFFICIENT_STORAGE",
                        "508 LOOP_DETECTED",
                        "509 BANDWIDTH_LIMIT_EXCEEDED",
                        "510 NOT_EXTENDED",
                        "511 NETWORK_AUTHENTICATION_REQUIRED"
                    ]
                },
                "statusCodeValue": {
                    "type": "integer",
                    "format": "int32"
                }
            },
            "title": "ResponseEntity"
        },
        "TCDSInputDTO": {
            "type": "object",
            "properties": {
                "eventPaths": {
                    "type": "array",
                    "items": {
                        "type": "string"
                    }
                }
            },
            "title": "TCDSInputDTO"
        },
        "TestConfiguration": {
            "type": "object",
            "properties": {
                "customProperties": {
                    "type": "array",
                    "items": {
                        "$ref": "#/definitions/CustomPropertiesDTO"
                    }
                },
                "testEvents": {
                    "type": "array",
                    "items": {
                        "$ref": "#/definitions/TestEventsDTO"
                    }
                }
            },
            "title": "TestConfiguration"
        },
        "TestEventsDTO": {
            "type": "object",
            "properties": {
                "testEvent": {
                    "type": "string"
                }
            },
            "title": "TestEventsDTO"
        },
        "ToscaEventDTO": {
            "type": "object",
            "properties": {
                "applicationId": {
                    "type": "integer",
                    "format": "int64"
                },
                "bussinessId": {
                    "type": "integer",
                    "format": "int64"
                },
                "channelId": {
                    "type": "integer",
                    "format": "int64"
                },
                "environmentId": {
                    "type": "integer",
                    "format": "int64"
                },
                "eventName": {
                    "type": "string"
                },
                "executedDate": {
                    "type": "string",
                    "format": "date-time"
                },
                "id": {
                    "type": "integer",
                    "format": "int64"
                },
                "nodeLocation": {
                    "type": "string"
                },
                "tepExecutionId": {
                    "type": "integer",
                    "format": "int64"
                },
                "userName": {
                    "type": "string"
                },
                "workspaceName": {
                    "type": "string"
                }
            },
            "title": "ToscaEventDTO"
        },
        "ToscaExecutionListDTO": {
            "type": "object",
            "properties": {
                "CustomerJourneyID": {
                    "type": "string"
                },
                "Duration": {
                    "type": "string"
                },
                "EndTime": {
                    "type": "string",
                    "format": "date-time"
                },
                "Name": {
                    "type": "string"
                },
                "NodePath": {
                    "type": "string"
                },
                "NumberOfTestCases": {
                    "type": "integer",
                    "format": "int32"
                },
                "NumberOfTestCasesFailed": {
                    "type": "integer",
                    "format": "int32"
                },
                "NumberOfTestCasesNotExecuted": {
                    "type": "integer",
                    "format": "int32"
                },
                "NumberOfTestCasesPassed": {
                    "type": "integer",
                    "format": "int32"
                },
                "NumberOfTestCasesWithUnknownState": {
                    "type": "integer",
                    "format": "int32"
                },
                "StartTime": {
                    "type": "string",
                    "format": "date-time"
                },
                "TestCases": {
                    "type": "array",
                    "items": {
                        "$ref": "#/definitions/ToscaTestCaseDTO"
                    }
                },
                "TypeName": {
                    "type": "string"
                },
                "UniqueId": {
                    "type": "string"
                }
            },
            "title": "ToscaExecutionListDTO"
        },
        "ToscaTestCaseDTO": {
            "type": "object",
            "properties": {
                "ActualResult": {
                    "type": "string"
                },
                "AggregatedDescription": {
                    "type": "string"
                },
                "ApplicationVersion": {
                    "type": "string"
                },
                "Browser": {
                    "type": "string"
                },
                "CustomerJourneyID": {
                    "type": "string"
                },
                "Description": {
                    "type": "string"
                },
                "Duration": {
                    "type": "string"
                },
                "EndTime": {
                    "type": "string",
                    "format": "date-time"
                },
                "Environment": {
                    "type": "string"
                },
                "FrontEnd": {
                    "type": "string"
                },
                "Name": {
                    "type": "string"
                },
                "NodePath": {
                    "type": "string"
                },
                "RunType": {
                    "type": "string"
                },
                "StartTime": {
                    "type": "string",
                    "format": "date-time"
                },
                "TestStep": {
                    "type": "string"
                },
                "TypeName": {
                    "type": "string"
                },
                "UniqueId": {
                    "type": "string"
                },
                "UserName": {
                    "type": "string"
                }
            },
            "title": "ToscaTestCaseDTO"
        },
        "ToscaTestEventDTO": {
            "type": "object",
            "properties": {
                "CustomerJourneyID": {
                    "type": "string"
                },
                "Duration": {
                    "type": "string"
                },
                "EndTime": {
                    "type": "string",
                    "format": "date-time"
                },
                "Name": {
                    "type": "string"
                },
                "NodePath": {
                    "type": "string"
                },
                "StartTime": {
                    "type": "string",
                    "format": "date-time"
                },
                "TypeName": {
                    "type": "string"
                },
                "UniqueId": {
                    "type": "string"
                },
                "executionLists": {
                    "type": "array",
                    "items": {
                        "$ref": "#/definitions/ToscaExecutionListDTO"
                    }
                }
            },
            "title": "ToscaTestEventDTO"
        }
    }
}
