{
    "swagger": "2.0",
    "info": {
        "description": "tepreporting API documentation",
        "version": "0.0.1",
        "title": "etp_tepreporting.prdV1",
        "contact": {},
        "license": {}
    },
    "host": "tepreporting.dev.px-npe01.cf.t-mobile.com",
    "basePath": "/",
	"schemes": [
        "http"
    ],
    "tags": [
        {
            "name": "report-resource",
            "description": "Report Resource"
        },
        {
            "name": "profile-info-resource",
            "description": "Profile Info Resource"
        },
        {
            "name": "test-case-resource",
            "description": "Test Case Resource"
        },
        {
            "name": "test-ident-resource",
            "description": "Test Ident Resource"
        },
        {
            "name": "ui-action-log-resource",
            "description": "Ui Action Log Resource"
        },
        {
            "name": "test-case-group-resource",
            "description": "Test Case Group Resource"
        },
        {
            "name": "test-group-resource",
            "description": "Test Group Resource"
        },
        {
            "name": "test-run-resource",
            "description": "Test Run Resource"
        },
        {
            "name": "test-step-resource",
            "description": "Test Step Resource"
        }
    ],
    "paths": {
        "/api/profile-info": {
            "get": {
                "tags": [
                    "profile-info-resource"
                ],
                "summary": "getActiveProfiles",
                "operationId": "getActiveProfilesUsingGET",
                "consumes": [
                    "application/json"
                ],
                "produces": [
                    "*/*"
                ],
                "responses": {
                    "200": {
                        "description": "OK",
                        "schema": {
                            "$ref": "#/definitions/ProfileInfoVM"
                        }
                    },
                    "401": {
                        "description": "Unauthorized"
                    },
                    "403": {
                        "description": "Forbidden"
                    },
                    "404": {
                        "description": "Not Found"
                    }
                }
            }
        },
        "/api/report/appTeamList": {
            "get": {
                "tags": [
                    "report-resource"
                ],
                "summary": "findAppTeamList",
                "operationId": "findAppTeamListUsingGET",
                "consumes": [
                    "application/json"
                ],
                "produces": [
                    "*/*"
                ],
                "responses": {
                    "200": {
                        "description": "OK",
                        "schema": {
                            "$ref": "#/definitions/AppTeamListDTO"
                        }
                    },
                    "401": {
                        "description": "Unauthorized"
                    },
                    "403": {
                        "description": "Forbidden"
                    },
                    "404": {
                        "description": "Not Found"
                    }
                }
            }
        },
        "/api/report/findTestRuns": {
            "get": {
                "tags": [
                    "report-resource"
                ],
                "summary": "findTestRuns",
                "operationId": "findTestRunsUsingGET",
                "consumes": [
                    "application/json"
                ],
                "produces": [
                    "*/*"
                ],
                "parameters": [
                    {
                        "name": "appName",
                        "in": "query",
                        "description": "appName",
                        "required": false,
                        "type": "string"
                    },
                    {
                        "name": "teamName",
                        "in": "query",
                        "description": "teamName",
                        "required": false,
                        "type": "string"
                    }
                ],
                "responses": {
                    "200": {
                        "description": "OK",
                        "schema": {
                            "$ref": "#/definitions/TestRunListDTO"
                        }
                    },
                    "401": {
                        "description": "Unauthorized"
                    },
                    "403": {
                        "description": "Forbidden"
                    },
                    "404": {
                        "description": "Not Found"
                    }
                }
            }
        },
        "/api/report/test-run/{id}": {
            "get": {
                "tags": [
                    "report-resource"
                ],
                "summary": "findTestRunReport",
                "operationId": "findTestRunReportUsingGET",
                "consumes": [
                    "application/json"
                ],
                "produces": [
                    "*/*"
                ],
                "parameters": [
                    {
                        "name": "id",
                        "in": "path",
                        "description": "id",
                        "required": true,
                        "type": "integer",
                        "format": "int64"
                    }
                ],
                "responses": {
                    "200": {
                        "description": "OK",
                        "schema": {
                            "$ref": "#/definitions/TestRunDTO"
                        }
                    },
                    "401": {
                        "description": "Unauthorized"
                    },
                    "403": {
                        "description": "Forbidden"
                    },
                    "404": {
                        "description": "Not Found"
                    }
                }
            }
        },
        "/api/test-case-groups": {
            "post": {
                "tags": [
                    "test-case-group-resource"
                ],
                "summary": "createTestCaseGroup",
                "operationId": "createTestCaseGroupUsingPOST",
                "consumes": [
                    "application/json"
                ],
                "produces": [
                    "*/*"
                ],
                "parameters": [
                    {
                        "in": "body",
                        "name": "testCaseGroupDTO",
                        "description": "testCaseGroupDTO",
                        "required": true,
                        "schema": {
                            "$ref": "#/definitions/TestCaseGroupDTO"
                        }
                    }
                ],
                "responses": {
                    "200": {
                        "description": "OK",
                        "schema": {
                            "$ref": "#/definitions/TestCaseGroupDTO"
                        }
                    },
                    "201": {
                        "description": "Created"
                    },
                    "401": {
                        "description": "Unauthorized"
                    },
                    "403": {
                        "description": "Forbidden"
                    },
                    "404": {
                        "description": "Not Found"
                    }
                }
            },
            "put": {
                "tags": [
                    "test-case-group-resource"
                ],
                "summary": "updateTestCaseGroup",
                "operationId": "updateTestCaseGroupUsingPUT",
                "consumes": [
                    "application/json"
                ],
                "produces": [
                    "*/*"
                ],
                "parameters": [
                    {
                        "in": "body",
                        "name": "testCaseGroupDTO",
                        "description": "testCaseGroupDTO",
                        "required": true,
                        "schema": {
                            "$ref": "#/definitions/TestCaseGroupDTO"
                        }
                    }
                ],
                "responses": {
                    "200": {
                        "description": "OK",
                        "schema": {
                            "$ref": "#/definitions/TestCaseGroupDTO"
                        }
                    },
                    "201": {
                        "description": "Created"
                    },
                    "401": {
                        "description": "Unauthorized"
                    },
                    "403": {
                        "description": "Forbidden"
                    },
                    "404": {
                        "description": "Not Found"
                    }
                }
            }
        },
        "/api/test-case-groups/{id}": {
            "get": {
                "tags": [
                    "test-case-group-resource"
                ],
                "summary": "getTestCaseGroup",
                "operationId": "getTestCaseGroupUsingGET",
                "consumes": [
                    "application/json"
                ],
                "produces": [
                    "*/*"
                ],
                "parameters": [
                    {
                        "name": "id",
                        "in": "path",
                        "description": "id",
                        "required": true,
                        "type": "integer",
                        "format": "int64"
                    }
                ],
                "responses": {
                    "200": {
                        "description": "OK",
                        "schema": {
                            "$ref": "#/definitions/TestCaseGroupDTO"
                        }
                    },
                    "401": {
                        "description": "Unauthorized"
                    },
                    "403": {
                        "description": "Forbidden"
                    },
                    "404": {
                        "description": "Not Found"
                    }
                }
            }
        },
        "/api/test-cases": {
            "post": {
                "tags": [
                    "test-case-resource"
                ],
                "summary": "createTestCase",
                "operationId": "createTestCaseUsingPOST",
                "consumes": [
                    "application/json"
                ],
                "produces": [
                    "*/*"
                ],
                "parameters": [
                    {
                        "in": "body",
                        "name": "testCaseDTO",
                        "description": "testCaseDTO",
                        "required": true,
                        "schema": {
                            "$ref": "#/definitions/TestCaseDTO"
                        }
                    }
                ],
                "responses": {
                    "200": {
                        "description": "OK",
                        "schema": {
                            "$ref": "#/definitions/TestCaseDTO"
                        }
                    },
                    "201": {
                        "description": "Created"
                    },
                    "401": {
                        "description": "Unauthorized"
                    },
                    "403": {
                        "description": "Forbidden"
                    },
                    "404": {
                        "description": "Not Found"
                    }
                }
            },
            "put": {
                "tags": [
                    "test-case-resource"
                ],
                "summary": "updateTestCase",
                "operationId": "updateTestCaseUsingPUT",
                "consumes": [
                    "application/json"
                ],
                "produces": [
                    "*/*"
                ],
                "parameters": [
                    {
                        "in": "body",
                        "name": "testCaseDTO",
                        "description": "testCaseDTO",
                        "required": true,
                        "schema": {
                            "$ref": "#/definitions/TestCaseDTO"
                        }
                    }
                ],
                "responses": {
                    "200": {
                        "description": "OK",
                        "schema": {
                            "$ref": "#/definitions/TestCaseDTO"
                        }
                    },
                    "201": {
                        "description": "Created"
                    },
                    "401": {
                        "description": "Unauthorized"
                    },
                    "403": {
                        "description": "Forbidden"
                    },
                    "404": {
                        "description": "Not Found"
                    }
                }
            }
        },
        "/api/test-cases-by-method/{methodName}": {
            "get": {
                "tags": [
                    "test-case-resource"
                ],
                "summary": "getTestCaseByTestRun",
                "operationId": "getTestCaseByTestRunUsingGET",
                "consumes": [
                    "application/json"
                ],
                "produces": [
                    "*/*"
                ],
                "parameters": [
                    {
                        "name": "methodName",
                        "in": "path",
                        "description": "methodName",
                        "required": true,
                        "type": "string"
                    }
                ],
                "responses": {
                    "200": {
                        "description": "OK",
                        "schema": {
                            "type": "array",
                            "items": {
                                "$ref": "#/definitions/TestCaseDTO"
                            }
                        }
                    },
                    "401": {
                        "description": "Unauthorized"
                    },
                    "403": {
                        "description": "Forbidden"
                    },
                    "404": {
                        "description": "Not Found"
                    }
                }
            }
        },
        "/api/test-cases-by-testrun/{id}": {
            "get": {
                "tags": [
                    "test-case-resource"
                ],
                "summary": "getTestCaseByTestRun",
                "operationId": "getTestCaseByTestRunUsingGET_1",
                "consumes": [
                    "application/json"
                ],
                "produces": [
                    "*/*"
                ],
                "parameters": [
                    {
                        "name": "id",
                        "in": "path",
                        "description": "id",
                        "required": true,
                        "type": "integer",
                        "format": "int64"
                    }
                ],
                "responses": {
                    "200": {
                        "description": "OK",
                        "schema": {
                            "type": "array",
                            "items": {
                                "$ref": "#/definitions/TestCaseDTO"
                            }
                        }
                    },
                    "401": {
                        "description": "Unauthorized"
                    },
                    "403": {
                        "description": "Forbidden"
                    },
                    "404": {
                        "description": "Not Found"
                    }
                }
            }
        },
        "/api/test-cases-metrics": {
            "post": {
                "tags": [
                    "test-case-resource"
                ],
                "summary": "createTestCaseToMetrics",
                "operationId": "createTestCaseToMetricsUsingPOST",
                "consumes": [
                    "application/json"
                ],
                "produces": [
                    "*/*"
                ],
                "parameters": [
                    {
                        "in": "body",
                        "name": "testCaseDTO",
                        "description": "testCaseDTO",
                        "required": true,
                        "schema": {
                            "$ref": "#/definitions/TestCaseDTO"
                        }
                    }
                ],
                "responses": {
                    "200": {
                        "description": "OK",
                        "schema": {
                            "$ref": "#/definitions/TestCaseDTO"
                        }
                    },
                    "201": {
                        "description": "Created"
                    },
                    "401": {
                        "description": "Unauthorized"
                    },
                    "403": {
                        "description": "Forbidden"
                    },
                    "404": {
                        "description": "Not Found"
                    }
                }
            }
        },
        "/api/test-cases/full-test-case/{id}": {
            "get": {
                "tags": [
                    "test-case-resource"
                ],
                "summary": "getFullTestCase",
                "operationId": "getFullTestCaseUsingGET",
                "consumes": [
                    "application/json"
                ],
                "produces": [
                    "*/*"
                ],
                "parameters": [
                    {
                        "name": "id",
                        "in": "path",
                        "description": "id",
                        "required": true,
                        "type": "integer",
                        "format": "int64"
                    }
                ],
                "responses": {
                    "200": {
                        "description": "OK",
                        "schema": {
                            "$ref": "#/definitions/TestCaseDTO"
                        }
                    },
                    "401": {
                        "description": "Unauthorized"
                    },
                    "403": {
                        "description": "Forbidden"
                    },
                    "404": {
                        "description": "Not Found"
                    }
                }
            }
        },
        "/api/test-cases/{id}": {
            "get": {
                "tags": [
                    "test-case-resource"
                ],
                "summary": "getTestCase",
                "operationId": "getTestCaseUsingGET",
                "consumes": [
                    "application/json"
                ],
                "produces": [
                    "*/*"
                ],
                "parameters": [
                    {
                        "name": "id",
                        "in": "path",
                        "description": "id",
                        "required": true,
                        "type": "integer",
                        "format": "int64"
                    }
                ],
                "responses": {
                    "200": {
                        "description": "OK",
                        "schema": {
                            "$ref": "#/definitions/TestCaseDTO"
                        }
                    },
                    "401": {
                        "description": "Unauthorized"
                    },
                    "403": {
                        "description": "Forbidden"
                    },
                    "404": {
                        "description": "Not Found"
                    }
                }
            }
        },
        "/api/test-groups": {
            "post": {
                "tags": [
                    "test-group-resource"
                ],
                "summary": "createTestGroup",
                "operationId": "createTestGroupUsingPOST",
                "consumes": [
                    "application/json"
                ],
                "produces": [
                    "*/*"
                ],
                "parameters": [
                    {
                        "in": "body",
                        "name": "testGroupDTO",
                        "description": "testGroupDTO",
                        "required": true,
                        "schema": {
                            "$ref": "#/definitions/TestGroupDTO"
                        }
                    }
                ],
                "responses": {
                    "200": {
                        "description": "OK",
                        "schema": {
                            "$ref": "#/definitions/TestGroupDTO"
                        }
                    },
                    "201": {
                        "description": "Created"
                    },
                    "401": {
                        "description": "Unauthorized"
                    },
                    "403": {
                        "description": "Forbidden"
                    },
                    "404": {
                        "description": "Not Found"
                    }
                }
            },
            "put": {
                "tags": [
                    "test-group-resource"
                ],
                "summary": "updateTestGroup",
                "operationId": "updateTestGroupUsingPUT",
                "consumes": [
                    "application/json"
                ],
                "produces": [
                    "*/*"
                ],
                "parameters": [
                    {
                        "in": "body",
                        "name": "testGroupDTO",
                        "description": "testGroupDTO",
                        "required": true,
                        "schema": {
                            "$ref": "#/definitions/TestGroupDTO"
                        }
                    }
                ],
                "responses": {
                    "200": {
                        "description": "OK",
                        "schema": {
                            "$ref": "#/definitions/TestGroupDTO"
                        }
                    },
                    "201": {
                        "description": "Created"
                    },
                    "401": {
                        "description": "Unauthorized"
                    },
                    "403": {
                        "description": "Forbidden"
                    },
                    "404": {
                        "description": "Not Found"
                    }
                }
            }
        },
        "/api/test-groups/{id}": {
            "get": {
                "tags": [
                    "test-group-resource"
                ],
                "summary": "getTestGroup",
                "operationId": "getTestGroupUsingGET",
                "consumes": [
                    "application/json"
                ],
                "produces": [
                    "*/*"
                ],
                "parameters": [
                    {
                        "name": "id",
                        "in": "path",
                        "description": "id",
                        "required": true,
                        "type": "integer",
                        "format": "int64"
                    }
                ],
                "responses": {
                    "200": {
                        "description": "OK",
                        "schema": {
                            "$ref": "#/definitions/TestGroupDTO"
                        }
                    },
                    "401": {
                        "description": "Unauthorized"
                    },
                    "403": {
                        "description": "Forbidden"
                    },
                    "404": {
                        "description": "Not Found"
                    }
                }
            }
        },
        "/api/test-metrics/unique-tests": {
            "get": {
                "tags": [
                    "test-ident-resource"
                ],
                "summary": "findListUniqueTests",
                "operationId": "findListUniqueTestsUsingGET",
                "consumes": [
                    "application/json"
                ],
                "produces": [
                    "*/*"
                ],
                "responses": {
                    "200": {
                        "description": "OK",
                        "schema": {
                            "type": "array",
                            "items": {
                                "$ref": "#/definitions/TestIdentity"
                            }
                        }
                    },
                    "401": {
                        "description": "Unauthorized"
                    },
                    "403": {
                        "description": "Forbidden"
                    },
                    "404": {
                        "description": "Not Found"
                    }
                }
            }
        },
        "/api/test-runs": {
            "post": {
                "tags": [
                    "test-run-resource"
                ],
                "summary": "createTestRun",
                "operationId": "createTestRunUsingPOST",
                "consumes": [
                    "application/json"
                ],
                "produces": [
                    "*/*"
                ],
                "parameters": [
                    {
                        "in": "body",
                        "name": "testRunDTO",
                        "description": "testRunDTO",
                        "required": true,
                        "schema": {
                            "$ref": "#/definitions/TestRunDTO"
                        }
                    }
                ],
                "responses": {
                    "200": {
                        "description": "OK",
                        "schema": {
                            "$ref": "#/definitions/TestRunDTO"
                        }
                    },
                    "201": {
                        "description": "Created"
                    },
                    "401": {
                        "description": "Unauthorized"
                    },
                    "403": {
                        "description": "Forbidden"
                    },
                    "404": {
                        "description": "Not Found"
                    }
                }
            },
            "put": {
                "tags": [
                    "test-run-resource"
                ],
                "summary": "updateTestRun",
                "operationId": "updateTestRunUsingPUT",
                "consumes": [
                    "application/json"
                ],
                "produces": [
                    "*/*"
                ],
                "parameters": [
                    {
                        "in": "body",
                        "name": "testRunDTO",
                        "description": "testRunDTO",
                        "required": true,
                        "schema": {
                            "$ref": "#/definitions/TestRunDTO"
                        }
                    }
                ],
                "responses": {
                    "200": {
                        "description": "OK",
                        "schema": {
                            "$ref": "#/definitions/TestRunDTO"
                        }
                    },
                    "201": {
                        "description": "Created"
                    },
                    "401": {
                        "description": "Unauthorized"
                    },
                    "403": {
                        "description": "Forbidden"
                    },
                    "404": {
                        "description": "Not Found"
                    }
                }
            }
        },
        "/api/test-runs-max": {
            "get": {
                "tags": [
                    "test-run-resource"
                ],
                "summary": "getMaxTestRun",
                "operationId": "getMaxTestRunUsingGET",
                "consumes": [
                    "application/json"
                ],
                "produces": [
                    "*/*"
                ],
                "responses": {
                    "200": {
                        "description": "OK",
                        "schema": {
                            "$ref": "#/definitions/TestRunDTO"
                        }
                    },
                    "401": {
                        "description": "Unauthorized"
                    },
                    "403": {
                        "description": "Forbidden"
                    },
                    "404": {
                        "description": "Not Found"
                    }
                }
            }
        },
        "/api/test-runs/{id}": {
            "get": {
                "tags": [
                    "test-run-resource"
                ],
                "summary": "getTestRun",
                "operationId": "getTestRunUsingGET",
                "consumes": [
                    "application/json"
                ],
                "produces": [
                    "*/*"
                ],
                "parameters": [
                    {
                        "name": "id",
                        "in": "path",
                        "description": "id",
                        "required": true,
                        "type": "integer",
                        "format": "int64"
                    }
                ],
                "responses": {
                    "200": {
                        "description": "OK",
                        "schema": {
                            "$ref": "#/definitions/TestRunDTO"
                        }
                    },
                    "401": {
                        "description": "Unauthorized"
                    },
                    "403": {
                        "description": "Forbidden"
                    },
                    "404": {
                        "description": "Not Found"
                    }
                }
            }
        },
        "/api/test-steps": {
            "post": {
                "tags": [
                    "test-step-resource"
                ],
                "summary": "createTestStep",
                "operationId": "createTestStepUsingPOST",
                "consumes": [
                    "application/json"
                ],
                "produces": [
                    "*/*"
                ],
                "parameters": [
                    {
                        "in": "body",
                        "name": "testStepDTO",
                        "description": "testStepDTO",
                        "required": true,
                        "schema": {
                            "$ref": "#/definitions/TestStepDTO"
                        }
                    }
                ],
                "responses": {
                    "200": {
                        "description": "OK",
                        "schema": {
                            "$ref": "#/definitions/TestStepDTO"
                        }
                    },
                    "201": {
                        "description": "Created"
                    },
                    "401": {
                        "description": "Unauthorized"
                    },
                    "403": {
                        "description": "Forbidden"
                    },
                    "404": {
                        "description": "Not Found"
                    }
                }
            },
            "put": {
                "tags": [
                    "test-step-resource"
                ],
                "summary": "updateTestStep",
                "operationId": "updateTestStepUsingPUT",
                "consumes": [
                    "application/json"
                ],
                "produces": [
                    "*/*"
                ],
                "parameters": [
                    {
                        "in": "body",
                        "name": "testStepDTO",
                        "description": "testStepDTO",
                        "required": true,
                        "schema": {
                            "$ref": "#/definitions/TestStepDTO"
                        }
                    }
                ],
                "responses": {
                    "200": {
                        "description": "OK",
                        "schema": {
                            "$ref": "#/definitions/TestStepDTO"
                        }
                    },
                    "201": {
                        "description": "Created"
                    },
                    "401": {
                        "description": "Unauthorized"
                    },
                    "403": {
                        "description": "Forbidden"
                    },
                    "404": {
                        "description": "Not Found"
                    }
                }
            }
        },
        "/api/test-steps/{id}": {
            "get": {
                "tags": [
                    "test-step-resource"
                ],
                "summary": "getTestStep",
                "operationId": "getTestStepUsingGET",
                "consumes": [
                    "application/json"
                ],
                "produces": [
                    "*/*"
                ],
                "parameters": [
                    {
                        "name": "id",
                        "in": "path",
                        "description": "id",
                        "required": true,
                        "type": "integer",
                        "format": "int64"
                    }
                ],
                "responses": {
                    "200": {
                        "description": "OK",
                        "schema": {
                            "$ref": "#/definitions/TestStepDTO"
                        }
                    },
                    "401": {
                        "description": "Unauthorized"
                    },
                    "403": {
                        "description": "Forbidden"
                    },
                    "404": {
                        "description": "Not Found"
                    }
                }
            }
        },
        "/api/testRunGroup/getGroups/{id}/{needSteps}": {
            "get": {
                "tags": [
                    "test-group-resource"
                ],
                "summary": "getGroupExecutions",
                "operationId": "getGroupExecutionsUsingGET",
                "consumes": [
                    "application/json"
                ],
                "produces": [
                    "*/*"
                ],
                "parameters": [
                    {
                        "name": "id",
                        "in": "path",
                        "description": "id",
                        "required": true,
                        "type": "integer",
                        "format": "int64"
                    },
                    {
                        "name": "needSteps",
                        "in": "path",
                        "description": "needSteps",
                        "required": true,
                        "type": "string"
                    }
                ],
                "responses": {
                    "200": {
                        "description": "OK",
                        "schema": {
                            "type": "array",
                            "items": {
                                "$ref": "#/definitions/TestRunGroupList"
                            }
                        }
                    },
                    "401": {
                        "description": "Unauthorized"
                    },
                    "403": {
                        "description": "Forbidden"
                    },
                    "404": {
                        "description": "Not Found"
                    }
                }
            }
        },
        "/api/ui-aciton-log": {
            "post": {
                "tags": [
                    "ui-action-log-resource"
                ],
                "summary": "createUiActionLog",
                "operationId": "createUiActionLogUsingPOST",
                "consumes": [
                    "application/json"
                ],
                "produces": [
                    "*/*"
                ],
                "parameters": [
                    {
                        "in": "body",
                        "name": "uiActionLogDTO",
                        "description": "uiActionLogDTO",
                        "required": true,
                        "schema": {
                            "$ref": "#/definitions/UiActionLogDTO"
                        }
                    }
                ],
                "responses": {
                    "200": {
                        "description": "OK",
                        "schema": {
                            "$ref": "#/definitions/UiActionLogDTO"
                        }
                    },
                    "201": {
                        "description": "Created"
                    },
                    "401": {
                        "description": "Unauthorized"
                    },
                    "403": {
                        "description": "Forbidden"
                    },
                    "404": {
                        "description": "Not Found"
                    }
                }
            }
        }
    },
    "definitions": {
        "AlmDataDTO": {
            "type": "object",
            "properties": {
                "almUpdateFailureErrorDetails": {
                    "type": "string"
                },
                "comments": {
                    "type": "string"
                },
                "ctReportingTestCaseId": {
                    "type": "integer",
                    "format": "int64"
                },
                "dateTime": {
                    "type": "string",
                    "format": "date-time"
                },
                "domain": {
                    "type": "string"
                },
                "id": {
                    "type": "integer",
                    "format": "int64"
                },
                "project": {
                    "type": "string"
                },
                "reason": {
                    "type": "string"
                },
                "testId": {
                    "type": "integer",
                    "format": "int64"
                },
                "testRunId": {
                    "type": "integer",
                    "format": "int64"
                },
                "testSetId": {
                    "type": "integer",
                    "format": "int64"
                }
            }
        },
        "AlmUpdateDTO": {
            "type": "object",
            "properties": {
                "almUpdateFailureErrorDetails": {
                    "type": "string"
                },
                "comments": {
                    "type": "string"
                },
                "ctReportingTestCaseId": {
                    "type": "integer",
                    "format": "int64"
                },
                "dateTime": {
                    "type": "string",
                    "format": "date-time"
                },
                "domain": {
                    "type": "string"
                },
                "errorMessage": {
                    "type": "string"
                },
                "errorOccurred": {
                    "type": "boolean"
                },
                "fileLocationList": {
                    "type": "array",
                    "items": {
                        "type": "string"
                    }
                },
                "fileServiceAttachmentUrls": {
                    "type": "array",
                    "items": {
                        "type": "string"
                    }
                },
                "id": {
                    "type": "integer",
                    "format": "int64"
                },
                "project": {
                    "type": "string"
                },
                "reason": {
                    "type": "string"
                },
                "testDuration": {
                    "type": "string"
                },
                "testExecutionResult": {
                    "type": "string"
                },
                "testId": {
                    "type": "integer",
                    "format": "int64"
                },
                "testRunId": {
                    "type": "integer",
                    "format": "int64"
                },
                "testSetId": {
                    "type": "integer",
                    "format": "int64"
                }
            }
        },
        "AppTeamListDTO": {
            "type": "object",
            "properties": {
                "apps": {
                    "type": "array",
                    "items": {
                        "type": "string"
                    }
                },
                "appsTeams": {
                    "type": "object",
                    "additionalProperties": {
                        "type": "array",
                        "items": {
                            "type": "string"
                        }
                    }
                },
                "teams": {
                    "type": "array",
                    "items": {
                        "type": "string"
                    }
                }
            }
        },
        "AttachmentItemDTO": {
            "type": "object",
            "properties": {
                "id": {
                    "type": "string"
                },
                "name": {
                    "type": "string"
                }
            }
        },
        "LinkItemDTO": {
            "type": "object",
            "properties": {
                "displayName": {
                    "type": "string"
                },
                "url": {
                    "type": "string"
                }
            }
        },
        "ProfileInfoVM": {
            "type": "object",
            "properties": {
                "activeProfiles": {
                    "type": "array",
                    "items": {
                        "type": "string"
                    }
                },
                "ribbonEnv": {
                    "type": "string"
                }
            }
        },
        "QTestDataDTO": {
            "type": "object",
            "properties": {
                "ctReportingTestCaseId": {
                    "type": "integer",
                    "format": "int64"
                },
                "dateTime": {
                    "type": "string",
                    "format": "date-time"
                },
                "id": {
                    "type": "integer",
                    "format": "int64"
                },
                "notes": {
                    "type": "string"
                },
                "qtestProjectId": {
                    "type": "integer",
                    "format": "int64"
                },
                "qtestResultsUrl": {
                    "type": "string"
                },
                "qtestTestCaseUrl": {
                    "type": "string"
                },
                "qtestTestRunId": {
                    "type": "integer",
                    "format": "int64"
                },
                "qtestUpdateFailureErrorDetails": {
                    "type": "string"
                },
                "reason": {
                    "type": "string"
                }
            }
        },
        "RallyDataDTO": {
            "type": "object",
            "properties": {
                "appBuildNumber": {
                    "type": "string"
                },
                "ctReportingTestCaseId": {
                    "type": "integer",
                    "format": "int64"
                },
                "dateTime": {
                    "type": "string",
                    "format": "date-time"
                },
                "id": {
                    "type": "integer",
                    "format": "int64"
                },
                "notes": {
                    "type": "string"
                },
                "rallyTestCaseId": {
                    "type": "string"
                },
                "rallyTestCaseResultsId": {
                    "type": "string"
                },
                "rallyUpdateFailureErrorDetails": {
                    "type": "string"
                },
                "reason": {
                    "type": "string"
                }
            }
        },
        "ServiceCallDTO": {
            "type": "object",
            "properties": {
                "endpoint": {
                    "type": "string"
                },
                "httpMethod": {
                    "type": "string",
                    "enum": [
                        "GET",
                        "PUT",
                        "POST",
                        "DELETE",
                        "HEAD",
                        "TRACE",
                        "OPTIONS",
                        "PATCH"
                    ]
                },
                "id": {
                    "type": "integer",
                    "format": "int64"
                },
                "order": {
                    "type": "integer",
                    "format": "int32"
                },
                "requestBody": {
                    "type": "string"
                },
                "requestHeaders": {
                    "type": "object",
                    "additionalProperties": {
                        "type": "string"
                    }
                },
                "requestQueryParams": {
                    "type": "object",
                    "additionalProperties": {
                        "type": "string"
                    }
                },
                "responseBody": {
                    "type": "string"
                },
                "responseHeaders": {
                    "type": "object",
                    "additionalProperties": {
                        "type": "string"
                    }
                },
                "responseTime": {
                    "type": "integer",
                    "format": "int64"
                },
                "sentAt": {
                    "type": "string",
                    "format": "date-time"
                },
                "statusCode": {
                    "type": "integer",
                    "format": "int32"
                },
                "statusString": {
                    "type": "string"
                },
                "testCaseId": {
                    "type": "integer",
                    "format": "int64"
                }
            }
        },
        "TestCaseDTO": {
            "type": "object",
            "properties": {
                "almData": {
                    "$ref": "#/definitions/AlmDataDTO"
                },
                "almUpdateDTO": {
                    "$ref": "#/definitions/AlmUpdateDTO"
                },
                "browser": {
                    "type": "string"
                },
                "description": {
                    "type": "string"
                },
                "endTime": {
                    "type": "string",
                    "format": "date-time"
                },
                "exampleRowData": {
                    "type": "string"
                },
                "expected": {
                    "type": "string"
                },
                "failureLog": {
                    "type": "string"
                },
                "failureReason": {
                    "type": "string"
                },
                "failureType": {
                    "type": "string",
                    "enum": [
                        "APPLICATION_ISSUE",
                        "ENVIRONMENT",
                        "TEST_CODE_UPDATES",
                        "TEST_DATA_SETUP",
                        "TEST_INFRASTRUCTURE",
                        "UNKNOWN",
                        "UNKONWN"
                    ]
                },
                "feature": {
                    "type": "string"
                },
                "id": {
                    "type": "integer",
                    "format": "int64"
                },
                "links": {
                    "type": "array",
                    "items": {
                        "$ref": "#/definitions/LinkItemDTO"
                    }
                },
                "modules": {
                    "type": "array",
                    "items": {
                        "$ref": "#/definitions/TestCaseModuleDTO"
                    }
                },
                "otherAttachments": {
                    "type": "string"
                },
                "output": {
                    "type": "string"
                },
                "qTestData": {
                    "$ref": "#/definitions/QTestDataDTO"
                },
                "qtestDataDTO": {
                    "$ref": "#/definitions/QTestDataDTO"
                },
                "rallyData": {
                    "$ref": "#/definitions/RallyDataDTO"
                },
                "retryCount": {
                    "type": "integer",
                    "format": "int32"
                },
                "scenario": {
                    "type": "string"
                },
                "scenarioId": {
                    "type": "integer",
                    "format": "int32"
                },
                "screenShots": {
                    "type": "string"
                },
                "serviceCalls": {
                    "type": "array",
                    "items": {
                        "$ref": "#/definitions/ServiceCallDTO"
                    }
                },
                "serviceTest": {
                    "type": "boolean"
                },
                "startTime": {
                    "type": "string",
                    "format": "date-time"
                },
                "testApplication": {
                    "type": "string"
                },
                "testApplicationAkmid": {
                    "type": "string"
                },
                "testCaseIdentifier": {
                    "type": "string"
                },
                "testCaseName": {
                    "type": "string"
                },
                "testCasePayload": {
                    "type": "string"
                },
                "testCaseResult": {
                    "type": "string",
                    "enum": [
                        "PASSED",
                        "SKIPPED",
                        "FAILED",
                        "TIMEOUT"
                    ]
                },
                "testCaseStatus": {
                    "type": "string",
                    "enum": [
                        "NEW",
                        "INPROGRESS",
                        "COMPLETED",
                        "SKIPPED"
                    ]
                },
                "testData": {
                    "type": "array",
                    "items": {
                        "$ref": "#/definitions/TestDataItemDTO"
                    }
                },
                "testDataName": {
                    "type": "string"
                },
                "testFileName": {
                    "type": "string"
                },
                "testMethodName": {
                    "type": "string"
                },
                "testRunDTO": {
                    "$ref": "#/definitions/TestRunDTO"
                },
                "testRunId": {
                    "type": "integer",
                    "format": "int64"
                },
                "testSteps": {
                    "type": "array",
                    "items": {
                        "$ref": "#/definitions/TestStepDTO"
                    }
                },
                "testTools": {
                    "type": "array",
                    "items": {
                        "type": "string"
                    }
                },
                "testType": {
                    "type": "string",
                    "enum": [
                        "UNIT",
                        "FUNCTIONAL",
                        "E2E",
                        "UAT",
                        "PERFORMANCE",
                        "INTEGRATION"
                    ]
                },
                "uiActionLog": {
                    "type": "array",
                    "items": {
                        "$ref": "#/definitions/UiActionLogDTO"
                    }
                },
                "webDriver": {
                    "type": "string"
                }
            }
        },
        "TestCaseGroupDTO": {
            "type": "object",
            "properties": {
                "description": {
                    "type": "string"
                },
                "id": {
                    "type": "integer",
                    "format": "int64"
                },
                "testCaseId": {
                    "type": "integer",
                    "format": "int64"
                },
                "testGroupId": {
                    "type": "integer",
                    "format": "int64"
                }
            }
        },
        "TestCaseModuleDTO": {
            "type": "object",
            "properties": {
                "payload": {
                    "type": "object"
                },
                "type": {
                    "type": "string",
                    "enum": [
                        "ALERTING",
                        "ALM"
                    ]
                }
            }
        },
        "TestDataItemDTO": {
            "type": "object",
            "properties": {
                "data": {
                    "type": "object",
                    "additionalProperties": {
                        "type": "string"
                    }
                },
                "source": {
                    "type": "string"
                }
            }
        },
        "TestGroupDTO": {
            "type": "object",
            "properties": {
                "groupName": {
                    "type": "string"
                },
                "id": {
                    "type": "integer",
                    "format": "int64"
                }
            }
        },
        "TestIdentity": {
            "type": "object",
            "properties": {
                "application": {
                    "type": "string"
                },
                "framework": {
                    "type": "string"
                },
                "id": {
                    "type": "integer",
                    "format": "int64"
                },
                "suiteId": {
                    "type": "string"
                },
                "suiteName": {
                    "type": "string"
                },
                "team": {
                    "type": "string"
                },
                "testCaseIdentifier": {
                    "type": "string"
                },
                "testCaseName": {
                    "type": "string"
                },
                "testDataName": {
                    "type": "string"
                },
                "testFileName": {
                    "type": "string"
                },
                "testMetodName": {
                    "type": "string"
                }
            }
        },
        "TestRunDTO": {
            "type": "object",
            "properties": {
                "attachmentLocation": {
                    "type": "array",
                    "items": {
                        "$ref": "#/definitions/AttachmentItemDTO"
                    }
                },
                "bdd": {
                    "type": "boolean"
                },
                "ctVersion": {
                    "type": "string"
                },
                "endTime": {
                    "type": "string",
                    "format": "date-time"
                },
                "etpUser": {
                    "type": "string"
                },
                "executionId": {
                    "type": "integer",
                    "format": "int64"
                },
                "executionStatus": {
                    "type": "string",
                    "enum": [
                        "NEW",
                        "STARTED",
                        "INPROGRESS",
                        "COMPLETED",
                        "SUCCESSFUL",
                        "PASSED",
                        "FAILED",
                        "SKIPPED",
                        "ERROR",
                        "TIMEOUT"
                    ]
                },
                "framework": {
                    "type": "string"
                },
                "frameworkVersion": {
                    "type": "string"
                },
                "groupExecutionId": {
                    "type": "integer",
                    "format": "int64"
                },
                "hostName": {
                    "type": "string"
                },
                "id": {
                    "type": "integer",
                    "format": "int64"
                },
                "isOnDevelopment": {
                    "type": "boolean"
                },
                "javaVersion": {
                    "type": "string"
                },
                "jenkinsJobUrl": {
                    "type": "string"
                },
                "links": {
                    "type": "array",
                    "items": {
                        "$ref": "#/definitions/LinkItemDTO"
                    }
                },
                "localIp": {
                    "type": "string"
                },
                "localOS": {
                    "type": "string"
                },
                "startTime": {
                    "type": "string",
                    "format": "date-time"
                },
                "submitTime": {
                    "type": "string",
                    "format": "date-time"
                },
                "team": {
                    "type": "string"
                },
                "teamAkmId": {
                    "type": "string"
                },
                "testApplication": {
                    "type": "string"
                },
                "testCases": {
                    "type": "array",
                    "items": {
                        "$ref": "#/definitions/TestCaseDTO"
                    }
                },
                "testEnv": {
                    "type": "string"
                },
                "testRunPayload": {
                    "type": "string"
                },
                "testSuiteId": {
                    "type": "string"
                },
                "testSuiteName": {
                    "type": "string"
                },
                "userNtId": {
                    "type": "string"
                },
                "warning": {
                    "type": "boolean"
                }
            }
        },
        "TestRunGroupList": {
            "type": "object",
            "properties": {
                "end": {
                    "type": "string",
                    "format": "date-time"
                },
                "jenkinsJobUrl": {
                    "type": "string"
                },
                "noOfTestCasesFailed": {
                    "type": "integer",
                    "format": "int64"
                },
                "noOfTestCasesPassed": {
                    "type": "integer",
                    "format": "int64"
                },
                "noOfTestCasesSkipped": {
                    "type": "integer",
                    "format": "int64"
                },
                "noOfTestCasesTotal": {
                    "type": "integer",
                    "format": "int64"
                },
                "noOfTestStepsFailed": {
                    "type": "integer",
                    "format": "int64"
                },
                "noOfTestStepsPassed": {
                    "type": "integer",
                    "format": "int64"
                },
                "noOfTestStepsSkipped": {
                    "type": "integer",
                    "format": "int64"
                },
                "noOfTestStepsTotal": {
                    "type": "integer",
                    "format": "int64"
                },
                "start": {
                    "type": "string",
                    "format": "date-time"
                },
                "status": {
                    "type": "string",
                    "enum": [
                        "NEW",
                        "STARTED",
                        "INPROGRESS",
                        "COMPLETED",
                        "SUCCESSFUL",
                        "PASSED",
                        "FAILED",
                        "SKIPPED",
                        "ERROR",
                        "TIMEOUT"
                    ]
                },
                "suite": {
                    "type": "string"
                },
                "testRunId": {
                    "type": "integer",
                    "format": "int64"
                }
            }
        },
        "TestRunListDTO": {
            "type": "object",
            "properties": {
                "app": {
                    "type": "string"
                },
                "team": {
                    "type": "string"
                },
                "testRuns": {
                    "type": "array",
                    "items": {
                        "$ref": "#/definitions/TestRunListItemDTO"
                    }
                }
            }
        },
        "TestRunListItemDTO": {
            "type": "object",
            "properties": {
                "end": {
                    "type": "string",
                    "format": "date-time"
                },
                "start": {
                    "type": "string",
                    "format": "date-time"
                },
                "status": {
                    "type": "string",
                    "enum": [
                        "NEW",
                        "STARTED",
                        "INPROGRESS",
                        "COMPLETED",
                        "SUCCESSFUL",
                        "PASSED",
                        "FAILED",
                        "SKIPPED",
                        "ERROR",
                        "TIMEOUT"
                    ]
                },
                "suite": {
                    "type": "string"
                },
                "testRunId": {
                    "type": "integer",
                    "format": "int64"
                }
            }
        },
        "TestStepDTO": {
            "type": "object",
            "properties": {
                "autoGenerated": {
                    "type": "boolean"
                },
                "description": {
                    "type": "string"
                },
                "endTime": {
                    "type": "string",
                    "format": "date-time"
                },
                "id": {
                    "type": "integer",
                    "format": "int64"
                },
                "order": {
                    "type": "integer",
                    "format": "int32"
                },
                "otherAttachments": {
                    "type": "string"
                },
                "screenShots": {
                    "type": "string"
                },
                "startTime": {
                    "type": "string",
                    "format": "date-time"
                },
                "testCaseId": {
                    "type": "integer",
                    "format": "int64"
                },
                "testStepName": {
                    "type": "string"
                },
                "testStepStatus": {
                    "type": "string",
                    "enum": [
                        "PASSED",
                        "FAILED",
                        "SKIPPED",
                        "INFO"
                    ]
                },
                "testStepType": {
                    "type": "string",
                    "enum": [
                        "GHERKIN",
                        "AUTO"
                    ]
                }
            }
        },
        "UiActionLogDTO": {
            "type": "object",
            "properties": {
                "action": {
                    "type": "string",
                    "enum": [
                        "CLICK",
                        "SEND_TEXT",
                        "GET_URL",
                        "SCRIPT"
                    ]
                },
                "data": {
                    "type": "string"
                },
                "duration": {
                    "type": "integer",
                    "format": "int32"
                },
                "id": {
                    "type": "integer",
                    "format": "int64"
                },
                "locator": {
                    "type": "string"
                },
                "order": {
                    "type": "integer",
                    "format": "int32"
                },
                "testCaseId": {
                    "type": "integer",
                    "format": "int64"
                }
            }
        }
    }
}