{
    "swagger": "2.0",
    "info": {
        "description": "tepfile API documentation",
        "version": "0.0.1",
        "title": "tepfiles API",
        "contact": {},
        "license": {}
    },
    "host": "tepfiles.apps.px-npe01.cf.t-mobile.com",
    "basePath": "/",
	"schemes": [
        "http"
    ],
    "tags": [
        {
            "name": "file-resource",
            "description": "File Resource"
        },
        {
            "name": "profile-info-resource",
            "description": "Profile Info Resource"
        }
    ],
    "paths": {
        "/api/file": {
            "post": {
                "tags": [
                    "file-resource"
                ],
                "summary": "save",
                "operationId": "saveUsingPOST",
                "consumes": [
                    "application/json"
                ],
                "produces": [
                    "*/*"
                ],
                "parameters": [
                    {
                        "name": "files",
                        "in": "formData",
                        "description": "files",
                        "required": true,
                        "type": "array",
                        "items": {
                            "type": "file"
                        },
                        "collectionFormat": "multi"
                    }
                ],
                "responses": {
                    "200": {
                        "description": "OK",
                        "schema": {
                            "type": "array",
                            "items": {
                                "$ref": "#/definitions/FileMetaData"
                            }
                        }
                    },
                    "201": {
                        "description": "Created"
                    },
                    "401": {
                        "description": "Unauthorized"
                    },
                    "403": {
                        "description": "Forbidden"
                    },
                    "404": {
                        "description": "Not Found"
                    }
                }
            }
        },
        "/api/file/{id}": {
            "get": {
                "tags": [
                    "file-resource"
                ],
                "summary": "redirect",
                "operationId": "redirectUsingGET",
                "produces": [
                    "*/*"
                ],
                "parameters": [
                    {
                        "name": "method",
                        "in": "query",
                        "description": "method",
                        "required": false,
                        "type": "string",
                        "enum": [
                            "GET",
                            "HEAD",
                            "POST",
                            "PUT",
                            "PATCH",
                            "DELETE",
                            "OPTIONS",
                            "TRACE"
                        ]
                    },
                    {
                        "name": "id",
                        "in": "path",
                        "description": "id",
                        "required": true,
                        "type": "string"
                    }
                ],
                "responses": {
                    "200": {
                        "description": "OK",
                        "schema": {
                            "$ref": "#/definitions/Resource"
                        }
                    },
                    "401": {
                        "description": "Unauthorized"
                    },
                    "403": {
                        "description": "Forbidden"
                    },
                    "404": {
                        "description": "Not Found"
                    }
                }
            },
            "head": {
                "tags": [
                    "file-resource"
                ],
                "summary": "redirect",
                "operationId": "redirectUsingHEAD",
                "consumes": [
                    "application/json"
                ],
                "produces": [
                    "*/*"
                ],
                "parameters": [
                    {
                        "name": "method",
                        "in": "query",
                        "description": "method",
                        "required": false,
                        "type": "string",
                        "enum": [
                            "GET",
                            "HEAD",
                            "POST",
                            "PUT",
                            "PATCH",
                            "DELETE",
                            "OPTIONS",
                            "TRACE"
                        ]
                    },
                    {
                        "name": "id",
                        "in": "path",
                        "description": "id",
                        "required": true,
                        "type": "string"
                    }
                ],
                "responses": {
                    "200": {
                        "description": "OK",
                        "schema": {
                            "$ref": "#/definitions/Resource"
                        }
                    },
                    "204": {
                        "description": "No Content"
                    },
                    "401": {
                        "description": "Unauthorized"
                    },
                    "403": {
                        "description": "Forbidden"
                    }
                }
            }
        },
        "/api/file/{id}/{filename}": {
            "get": {
                "tags": [
                    "file-resource"
                ],
                "summary": "find",
                "operationId": "findUsingGET",
                "produces": [
                    "*/*"
                ],
                "parameters": [
                    {
                        "name": "method",
                        "in": "query",
                        "description": "method",
                        "required": false,
                        "type": "string",
                        "enum": [
                            "GET",
                            "HEAD",
                            "POST",
                            "PUT",
                            "PATCH",
                            "DELETE",
                            "OPTIONS",
                            "TRACE"
                        ]
                    },
                    {
                        "name": "id",
                        "in": "path",
                        "description": "id",
                        "required": true,
                        "type": "string"
                    }
                ],
                "responses": {
                    "200": {
                        "description": "OK",
                        "schema": {
                            "$ref": "#/definitions/Resource"
                        }
                    },
                    "401": {
                        "description": "Unauthorized"
                    },
                    "403": {
                        "description": "Forbidden"
                    },
                    "404": {
                        "description": "Not Found"
                    }
                }
            },
            "head": {
                "tags": [
                    "file-resource"
                ],
                "summary": "find",
                "operationId": "findUsingHEAD",
                "consumes": [
                    "application/json"
                ],
                "produces": [
                    "*/*"
                ],
                "parameters": [
                    {
                        "name": "method",
                        "in": "query",
                        "description": "method",
                        "required": false,
                        "type": "string",
                        "enum": [
                            "GET",
                            "HEAD",
                            "POST",
                            "PUT",
                            "PATCH",
                            "DELETE",
                            "OPTIONS",
                            "TRACE"
                        ]
                    },
                    {
                        "name": "id",
                        "in": "path",
                        "description": "id",
                        "required": true,
                        "type": "string"
                    }
                ],
                "responses": {
                    "200": {
                        "description": "OK",
                        "schema": {
                            "$ref": "#/definitions/Resource"
                        }
                    },
                    "204": {
                        "description": "No Content"
                    },
                    "401": {
                        "description": "Unauthorized"
                    },
                    "403": {
                        "description": "Forbidden"
                    }
                }
            }
        },
        "/api/profile-info": {
            "get": {
                "tags": [
                    "profile-info-resource"
                ],
                "summary": "getActiveProfiles",
                "operationId": "getActiveProfilesUsingGET",
                "produces": [
                    "*/*"
                ],
                "responses": {
                    "200": {
                        "description": "OK",
                        "schema": {
                            "$ref": "#/definitions/ProfileInfoVM"
                        }
                    },
                    "401": {
                        "description": "Unauthorized"
                    },
                    "403": {
                        "description": "Forbidden"
                    },
                    "404": {
                        "description": "Not Found"
                    }
                }
            }
        }
    },
    "definitions": {
        "File": {
            "type": "object",
            "properties": {
                "absolute": {
                    "type": "boolean"
                },
                "absoluteFile": {
                    "$ref": "#/definitions/File"
                },
                "absolutePath": {
                    "type": "string"
                },
                "canonicalFile": {
                    "$ref": "#/definitions/File"
                },
                "canonicalPath": {
                    "type": "string"
                },
                "directory": {
                    "type": "boolean"
                },
                "file": {
                    "type": "boolean"
                },
                "freeSpace": {
                    "type": "integer",
                    "format": "int64"
                },
                "hidden": {
                    "type": "boolean"
                },
                "name": {
                    "type": "string"
                },
                "parent": {
                    "type": "string"
                },
                "parentFile": {
                    "$ref": "#/definitions/File"
                },
                "path": {
                    "type": "string"
                },
                "totalSpace": {
                    "type": "integer",
                    "format": "int64"
                },
                "usableSpace": {
                    "type": "integer",
                    "format": "int64"
                }
            },
            "title": "File"
        },
        "FileMetaData": {
            "type": "object",
            "properties": {
                "filename": {
                    "type": "string"
                },
                "id": {
                    "type": "string"
                },
                "lastModified": {
                    "type": "string",
                    "format": "date-time"
                },
                "mediaType": {
                    "type": "string"
                },
                "size": {
                    "type": "integer",
                    "format": "int64"
                }
            },
            "title": "FileMetaData"
        },
        "InputStream": {
            "type": "object",
            "title": "InputStream"
        },
        "ProfileInfoVM": {
            "type": "object",
            "properties": {
                "activeProfiles": {
                    "type": "array",
                    "items": {
                        "type": "string"
                    }
                },
                "ribbonEnv": {
                    "type": "string"
                }
            },
            "title": "ProfileInfoVM"
        },
        "Resource": {
            "type": "object",
            "properties": {
                "description": {
                    "type": "string"
                },
                "file": {
                    "$ref": "#/definitions/File"
                },
                "filename": {
                    "type": "string"
                },
                "inputStream": {
                    "$ref": "#/definitions/InputStream"
                },
                "open": {
                    "type": "boolean"
                },
                "readable": {
                    "type": "boolean"
                },
                "uri": {
                    "$ref": "#/definitions/URI"
                },
                "url": {
                    "$ref": "#/definitions/URL"
                }
            },
            "title": "Resource"
        },
        "URI": {
            "type": "object",
            "properties": {
                "absolute": {
                    "type": "boolean"
                },
                "authority": {
                    "type": "string"
                },
                "fragment": {
                    "type": "string"
                },
                "host": {
                    "type": "string"
                },
                "opaque": {
                    "type": "boolean"
                },
                "path": {
                    "type": "string"
                },
                "port": {
                    "type": "integer",
                    "format": "int32"
                },
                "query": {
                    "type": "string"
                },
                "rawAuthority": {
                    "type": "string"
                },
                "rawFragment": {
                    "type": "string"
                },
                "rawPath": {
                    "type": "string"
                },
                "rawQuery": {
                    "type": "string"
                },
                "rawSchemeSpecificPart": {
                    "type": "string"
                },
                "rawUserInfo": {
                    "type": "string"
                },
                "scheme": {
                    "type": "string"
                },
                "schemeSpecificPart": {
                    "type": "string"
                },
                "userInfo": {
                    "type": "string"
                }
            },
            "title": "URI"
        },
        "URL": {
            "type": "object",
            "properties": {
                "authority": {
                    "type": "string"
                },
                "content": {
                    "type": "object"
                },
                "defaultPort": {
                    "type": "integer",
                    "format": "int32"
                },
                "file": {
                    "type": "string"
                },
                "host": {
                    "type": "string"
                },
                "path": {
                    "type": "string"
                },
                "port": {
                    "type": "integer",
                    "format": "int32"
                },
                "protocol": {
                    "type": "string"
                },
                "query": {
                    "type": "string"
                },
                "ref": {
                    "type": "string"
                },
                "userInfo": {
                    "type": "string"
                }
            },
            "title": "URL"
        }
    }
}