{
  "swagger": "2.0",
  "info": {
    "title": "Financial Account",
    "description": "This swagger contains the specification of all the API operation that are applicable for Financial Account in Digital Billing.",
    "version": "1.0.0",
    "contact": {
      "name": "Rahul Jaiswal",
      "email": "rahul.jaiswal1@t-mobile.com"
    },
    "license": {
      "name": "Proprietary software",
      "url": "https://en.wikipedia.org/wiki/Proprietary_software"
    },
    "termsOfService": "https://www.t-mobile.com/templates/popup.aspx?PAsset=Ftr_Ftr_TermsAndConditions",
    "x-createdBy": {
      "dateCreated": "Sat Jan  5 00:52:02 2019",
      "createdBy": "rjaiswa1",
      "application": "Recite",
      "appVersion": "0.4.1.2721",
      "documentId": "cfb7764e-2ead-4645-b3a7-f345a208035a",
      "status": "Conceptual - Initial",
      "classification": "7.0 Billing & Charging Management",
      "profile": "Core Business Capability Service",
      "serviceLayer": "Enterprise - Billing"
    }
  },
  "tags": [
    {
      "name": "Modify Waiver Details",
      "description": "This API is used to update waiver details of financial account."
    }
  ],
  "host": "dev01.api.t-mobile.com",
  "basePath": "/billing/v1/financial-accounts",
  "schemes": [
    "https"
  ],
  "paths": {
    "/collection-waiver": {
      "patch": {
        "tags": [
          "Modify Waiver Details"
        ],
        "x-api-pattern": "ModifyResource",
        "summary": "A patch for the financialAccount waiver details.",
        "description": "This service is used to update financial account's waiver details.",
        "operationId": "modifyWaiverDetails",
        "consumes": [
          "application/json"
        ],
        "produces": [
          "application/json"
        ],
        "parameters": [
          {
            "name": "update-waiver",
            "in": "body",
            "description": "Update waiver",
            "required": true,
            "schema": {
              "$ref": "#/definitions/UpdateWaiverRequest"
            }
          },
          {
            "name": "accept",
            "in": "header",
            "description": "Preferred content type default to application/json",
            "x-example": "application/json",
            "required": false,
            "type": "string",
            "minLength": 1,
            "maxLength": 256,
            "pattern": "^[ \\S]+$"
          },
          {
            "name": "authorization",
            "in": "header",
            "description": "The HTTP Authorization request header contains the credentials to authenticate a user agent with a server.",
            "x-example": "Bearer xAbczydfGDHji",
            "required": true,
            "type": "string",
            "minLength": 1,
            "maxLength": 256,
            "pattern": "^[\\S ]+$"
          },
          {
            "name": "X-Authorization",
            "in": "header",
            "description": "OAuth 2.0 access token with the authentication type set as Bearer.",
            "required": false,
            "type": "string",
            "pattern": "^[ \\S]+$",
            "x-example": "Bearer xAbczydfGDHji"
          },
          {
            "name": "X-Auth-Originator",
            "in": "header",
            "description": "OAuth 2.0 access token with the authentication type set as Bearer.",
            "required": true,
            "type": "string",
            "pattern": "^[ \\S]+$",
            "x-example": "Bearer xAbczydfGDHji"
          },
          {
            "name": "content-type",
            "in": "header",
            "description": "The MIME type of this content",
            "x-example": "text/xml",
            "required": true,
            "type": "string",
            "minLength": 1,
            "maxLength": 256,
            "pattern": "^[ \\S]+$"
          },
          {
            "name": "date",
            "in": "header",
            "description": "The Date general HTTP header contains the date and time at which the message was originated.",
            "x-example": "Mon, 05 Mar 2018 16:38:08 GMT",
            "required": false,
            "type": "string",
            "format": "date-time",
            "pattern": "^(Mon|Tue|Wed|Thu|Fri|Sat|Sun), [0-3]{1}[0-9]{1} (Jan|Feb|Mar|Apr|May|Jun|Jul|Aug|Sep|Oct|Nov|Dec) [1-3][0-9]{3} [0-2][0-9]:[0-6][0-9]:[0-6][0-9] GMT$"
          },
          {
            "name": "activity-id",
            "in": "header",
            "description": "Unique id alphanumeric value generated and sent by the partner to identify every the service request uniquely. Sample: XyzA:D1s5s1i-X6AFRvfiPBfs-1234  Pass as is to downstream calls.",
            "x-example": "c34e7acd-384b-4c22-8b02-ba3963682508",
            "required": false,
            "type": "string",
            "minLength": 1,
            "maxLength": 256,
            "pattern": "^[\\S]*$"
          },
          {
            "name": "application-id",
            "in": "header",
            "description": "Identifies the application, system, or tool that is being used to perform the transaction related to this request. Sample values:ACUI, ESERVICE, REBELLION, WARP",
            "x-example": "REBELLION",
            "required": true,
            "type": "string",
            "minLength": 1,
            "maxLength": 256,
            "pattern": "^[\\S]*$"
          },
          {
            "name": "authorization-idp",
            "in": "header",
            "description": "API chain initiating callers IDP token",
            "x-example": "c34e7acd-384b-4c22-8b02-ba3963682508",
            "required": false,
            "type": "string",
            "minLength": 1,
            "maxLength": 256,
            "pattern": "^[\\S]*$"
          },
          {
            "name": "channel-id",
            "in": "header",
            "description": "Categorization of access or business stream",
            "x-example": "IVR",
            "required": true,
            "type": "string",
            "minLength": 1,
            "maxLength": 256,
            "pattern": "^[\\S]*$"
          },
          {
            "name": "interaction-id",
            "in": "header",
            "description": "Alphanumeric value represent a common transaction id across all calls made from UI, while completing all business activity needs of a particular customer.",
            "x-example": "cc688d54-50d1-49d4-8c5d-95459d1172e8",
            "required": false,
            "type": "string",
            "minLength": 1,
            "maxLength": 256,
            "pattern": "^[\\S]*$"
          },
          {
            "name": "sender-id",
            "in": "header",
            "description": "The related business partner or T-Mobile organization",
            "x-example": "QVXP",
            "required": true,
            "type": "string",
            "minLength": 1,
            "maxLength": 256,
            "pattern": "^[\\S]*$"
          },
          {
            "name": "service-transaction-id",
            "in": "header",
            "description": "Request ID echoed back by server",
            "x-example": "23409209723",
            "required": false,
            "type": "string",
            "minLength": 1,
            "maxLength": 256,
            "pattern": "^[\\S]*$"
          },
          {
            "name": "session-id",
            "in": "header",
            "description": "A value populated by the sender used to track the transactions that occur during a session, a long-lasting interaction that ismaintained by the sender.",
            "x-example": "350b91ec-4a64-4b10-a3f3-a78c8db3924a",
            "required": false,
            "type": "string",
            "minLength": 1,
            "maxLength": 256,
            "pattern": "^[\\S]*$"
          },
          {
            "name": "timestamp",
            "in": "header",
            "description": "ms since 1/1/70 adjusted to GMT",
            "x-example": "1524599536",
            "required": false,
            "type": "integer",
            "format": "int64",
            "minimum": 0,
            "maximum": 999999999999,
            "pattern": "^[\\d]*$"
          },
          {
            "name": "tmo-authorization",
            "in": "header",
            "description": "Contains Proof of Possession token generated by API caller",
            "x-example": "c34e7acd-384b-4c22-8b02-ba3963682508",
            "required": false,
            "type": "string",
            "minLength": 1,
            "maxLength": 256,
            "pattern": "^[\\S ]*$"
          },
          {
            "name": "workflow-id",
            "in": "header",
            "description": "Business Use Case",
            "x-example": "ACTIVATION",
            "required": false,
            "type": "string",
            "minLength": 1,
            "maxLength": 256,
            "pattern": "^[\\S]*$"
          }
        ],
        "responses": {
          "204": {
            "description": "No Content",
            "headers": {
              "Date": {
                "description": "The Date general HTTP header contains the date and time at which the message was originated.",
                "x-example": "Mon, 05 Mar 2018 16:38:08 GMT",
                "type": "string",
                "format": "date-time",
                "pattern": "^(Mon|Tue|Wed|Thu|Fri|Sat|Sun), [0-3]{1}[0-9]{1} (Jan|Feb|Mar|Apr|May|Jun|Jul|Aug|Sep|Oct|Nov|Dec) [1-3][0-9]{3} [0-2][0-9]:[0-6][0-9]:[0-6][0-9] GMT$"
              },
              "service-transaction-id": {
                "description": "Request ID echoed back by server",
                "x-example": "23409209723",
                "type": "string",
                "minLength": 1,
                "maxLength": 256,
                "pattern": "^[\\S]*$"
              }
            }
          },
          "400": {
            "description": "Bad Request",
            "schema": {
              "$ref": "#/definitions/Error"
            },
            "examples": {
              "application/json": {
                "code": "400",
                "userMessage": "Bad Request",
                "systemMessage": "Bad Request",
                "detailLink": "http://www.tmus.com"
              }
            },
            "headers": {}
          },
          "401": {
            "description": "Unauthorized",
            "schema": {
              "$ref": "#/definitions/Error"
            },
            "examples": {
              "application/json": {
                "code": "401",
                "userMessage": "Unauthorized",
                "systemMessage": "Unauthorized",
                "detailLink": "http://www.tmus.com"
              }
            },
            "headers": {}
          },
          "403": {
            "description": "Client access denied",
            "schema": {
              "$ref": "#/definitions/Error"
            },
            "examples": {
              "application/json": {
                "code": "403",
                "userMessage": "Client access denied",
                "systemMessage": "Client access denied",
                "detailLink": "http://www.tmus.com"
              }
            },
            "headers": {}
          },
          "404": {
            "description": "Resource not found",
            "schema": {
              "$ref": "#/definitions/Error"
            },
            "examples": {
              "application/json": {
                "code": "404",
                "userMessage": "Resource not found",
                "systemMessage": "Resource not found",
                "detailLink": "http://www.tmus.com"
              }
            },
            "headers": {}
          },
          "405": {
            "description": "Method Not Allowed",
            "schema": {
              "$ref": "#/definitions/Error"
            },
            "examples": {
              "application/json": {
                "code": "405",
                "userMessage": "Method Not Allowed",
                "systemMessage": "Method Not Allowed",
                "detailLink": "http://www.tmus.com"
              }
            },
            "headers": {
              "Allow": {
                "description": "list of supported methods for URI",
                "x-example": "GET",
                "type": "string",
                "minLength": 1,
                "maxLength": 256,
                "pattern": "^[\\S]*$"
              },
              "service-transaction-id": {
                "description": "Request ID echoed back by server",
                "x-example": "23409209723",
                "type": "string",
                "minLength": 1,
                "maxLength": 256,
                "pattern": "^[\\S]*$"
              }
            }
          },
          "409": {
            "description": "Invalid data",
            "schema": {
              "$ref": "#/definitions/Error"
            },
            "examples": {
              "application/json": {
                "code": "409",
                "userMessage": "Invalid data",
                "systemMessage": "Invalid data",
                "detailLink": "http://www.tmus.com"
              }
            },
            "headers": {}
          },
          "412": {
            "description": "Stale data",
            "schema": {
              "$ref": "#/definitions/Error"
            },
            "examples": {
              "application/json": {
                "code": "412",
                "userMessage": "Stale data",
                "systemMessage": "Stale data",
                "detailLink": "http://www.tmus.com"
              }
            },
            "headers": {}
          },
          "415": {
            "description": "Unsupported Media Type",
            "schema": {
              "$ref": "#/definitions/Error"
            },
            "examples": {
              "application/json": {
                "code": "415",
                "userMessage": "Unsupported Media Type",
                "systemMessage": "Unsupported Media Type",
                "detailLink": "http://www.tmus.com"
              }
            },
            "headers": {}
          },
          "500": {
            "description": "System Error",
            "schema": {
              "$ref": "#/definitions/Error"
            },
            "examples": {
              "application/json": {
                "code": "500",
                "userMessage": "System Error",
                "systemMessage": "System Error",
                "detailLink": "http://www.tmus.com"
              }
            },
            "headers": {}
          },
          "503": {
            "description": "Service unavailable",
            "schema": {
              "$ref": "#/definitions/Error"
            },
            "examples": {
              "application/json": {
                "code": "503",
                "userMessage": "Service unavailable",
                "systemMessage": "Service unavailable",
                "detailLink": "http://www.tmus.com"
              }
            },
            "headers": {}
          }
        },
        "security": [
          {
            "oauth2-application": []
          }
        ]
      }
    }
  },
  "definitions": {
    "UpdateWaiverRequest": {
      "type": "object",
      "description": "Update Financial Account waiver details",
      "properties": {
        "waiver": {
          "type": "object",
          "description": "Waiver object to update waive information.",
          "properties": {
            "waiverIndicator": {
              "type": "string",
              "description": "waiver indicator of the rep that set the Collection Waiver",
              "enum": [
                "AUTOMATICALLY_WAIVED",
                "DELAY_WAIVED",
                "NOT_WAIVED",
                "REGULAR_WAIVED",
                "CURR_DELINQ_WAIVED",
                "TEMPORARY_WAIVED",
                "EXCLUDE_FROM_COL_DE",
                "DISPUTE_WAIVED",
                "RESUME_DISP_WAIVED"
              ]
            },
            "startDate": {
              "description": "The date when the Collection Waiver was set",
              "type": "string",
              "format": "date"
            },
            "waiverUid": {
              "description": "User ID of the rep that set the Collection Waiver",
              "type": "string",
              "example": 234556
            }
          }
        },
        "financialAccountNumber": {
          "description": "Financial account number is the public identifier of the customers financial account.",
          "example": "MTIzNDU2Nzg5",
          "type": "string"
        }
      }
    },
    "Error": {
      "type": "object",
      "description": "As defined in http://api-standards.apps.px-npe01.cf.t-mobile.com/http/status-codes/error-response-format/",
      "required": [
        "code",
        "userMessage"
      ],
      "properties": {
        "code": {
          "description": "A succinct, domain-specific, human-readable text string to identify the type of error for the given status code",
          "example": "ProductNotFound",
          "type": "string",
          "pattern": "^[\\S ]+$"
        },
        "userMessage": {
          "description": "A human-readable message describing the error.",
          "example": "Failed to find product.",
          "type": "string",
          "pattern": "^[\\S ]+$"
        },
        "systemMessage": {
          "description": "Text that provides a more detailed technical explanation of the error",
          "example": "PRODUCT_NOT_FOUND",
          "type": "string"
        },
        "detailLink": {
          "description": "link to custom information providing greater detail on error or errors",
          "example": "http://aaa.bbb.ccc/",
          "type": "string"
        }
      }
    }
  },
  "securityDefinitions": {
    "oauth2-application": {
      "type": "oauth2",
      "description": "oath2 Authentication",
      "tokenUrl": "https://host:env/v1/oauth2/accesstoken?grant_type=client_credentials",
      "flow": "application",
      "scopes": {}
    }
  }
}