@startuml
title ** <color:Magenta> Topic: __TMOBILE.<Env>.DSPA.PUBLISH.TOPIC__**\t\t\t\t\t ** <color:Magenta> Event: __setMLType__ **\n

queue PUBLISH_TOPIC #Magenta
queue IAM_QUEUE #Magenta
queue NAP_QUEUE #Magenta
queue EDGE_QUEUE #Magenta
participant Provisioning as "<b><color:white>Provisioning" #Magenta

PUBLISH_TOPIC-[#blue]>IAM_QUEUE : <font color=blue>bridge-iam
PUBLISH_TOPIC-[#blue]>NAP_QUEUE : <font color=blue>bridge-nap
PUBLISH_TOPIC-[#blue]>EDGE_QUEUE : <font color=blue>bridge-edge
IAM_QUEUE<-Provisioning: IAMEMSConsumer process the message from this queue [[../provisioning/ce.dsg.dice.prov.provisioning.pcf.iam.setmltype.svg event_setMLType_iam]] 
NAP_QUEUE<-Provisioning: NAPEMSConsumer process the message from this queue [[../provisioning/ce.dsg.dice.prov.provisioning.pcf.nap.postpaid.setmltype.svg event_setMLType_nap]]
EDGE_QUEUE<-Provisioning: EDGEEMSConsumer process the message from this queue [[../provisioning/ce.dsg.dice.prov.provisioning.pcf.edge.setmltype.svg event_setMLType_edge]]
@enduml