@startuml

title ** <color:Magenta> Topic: __TMOBILE.<Env>.DSPA.PUBLISH.TOPIC__**\t\t\t\t\t ** <color:Magenta> Event: __deleteCustomerSocArray__ **\n

queue PUBLISH_TOPIC #Magenta
queue IAM_QUEUE #Magenta
queue NAP_QUEUE #Magenta
participant Provisioning as "<b><color:white>Provisioning" #Magenta


PUBLISH_TOPIC-[#blue]> IAM_QUEUE: <color:blue> bride-iam
PUBLISH_TOPIC-[#blue]> NAP_QUEUE: <color:blue> bride-nap


IAM_QUEUE<-Provisioning: IAMEMSConsumer process the message from this queue [[../provisioning/ce.dsg.dice.prov.provisioning.pcf.iam.deletecustomersocarray.svg event_deleteCustomerSocArray_iam]]

NAP_QUEUE<-Provisioning: NAPEMSConsumer process the message from this queue [[../provisioning/ce.dsg.dice.prov.provisioning.pcf.nap.postpaid.deletecustomersocarray.svg event_deleteCustomerSocArray_nap]]
@enduml