@startuml
title ** <color:Magenta> Queue: __TMOBILE.<Env>.DSPA.PUBLISH.QUEUE.NAP__**\t\t\t\t\t ** <color:Magenta> Event: __updateProfile__ **\n

queue NAP_QUEUE #Magenta
participant Provisioning as "<b><color:white>Provisioning" #Magenta

NAP_QUEUE<-Provisioning: NAPEMSConsumer process the message from this queue [[../provisioning/ce.dsg.dice.prov.provisioning.pcf.nap.postpaid.updateprofile.svg event_updateProfile_nap]]
@enduml