@startuml
title ** <color:Magenta> Topic: __TMOBILE.<Env>.DSPA.PUBLISH.TOPIC__**\t\t\t\t\t ** <color:Magenta> Event: __partialRegister__ **\n

queue PUBLISH_TOPIC #Magenta
queue CUSTPROF_QUEUE #Magenta
participant Provisioning as "<b><color:white>Provisioning" #Magenta


PUBLISH_TOPIC-[#blue]>CUSTPROF_QUEUE: <color:blue> bride-cp

CUSTPROF_QUEUE<-Provisioning: CustProfileEMSConsumer process the message from this queue [[../provisioning/ce.dsg.dice.prov.provisioning.pcf.cp.partialregister.svg event_partialRegister_cp]]
@enduml