@startuml
title ** <color:Magenta> Topic: __TMOBILE.<Env>.DSPA.PUBLISH.TOPIC__**\t\t\t\t\t ** <color:Magenta> Event: __updateEmail__ **\n

queue PUBLISH_TOPIC #Magenta
queue NAP_QUEUE #Magenta
queue EDGE_QUEUE #Magenta
participant Provisioning as "<b><color:white>Provisioning" #Magenta


PUBLISH_TOPIC-[#blue]>NAP_QUEUE : <font color=blue>bridge-nap
PUBLISH_TOPIC-[#blue]>EDGE_QUEUE : <font color=blue>bridge-aal

NAP_QUEUE<-Provisioning: NAPEMSConsumer process the message from this queue [[../provisioning/ce.dsg.dice.prov.provisioning.pcf.nap.postpaid.updateemail.svg event_updateEmail_nap]]

EDGE_QUEUE<-Provisioning: EDGEEMSConsumer process the message from this queue [[../provisioning/ce.dsg.dice.prov.provisioning.pcf.edge.updateemail.svg event_updateEmail_edge]]
@enduml