@startuml

title ** <color:Magenta> Topic: __TMOBILE.<Env>.DSPA.TOPIC.METRO__**\t\t\t\t\t ** <color:Magenta> Events: __All_METRO_Events__ **\n

queue METRO_TOPIC #Magenta 
queue IAM_QUEUE #Magenta 
queue NAP_QUEUE #Magenta 
participant Provisioning as "<b><color:white>Provisioning" #Magenta 
skinparam sequenceGroupBorderColor blue 

METRO_TOPIC -[#blue]> IAM_QUEUE :  Bridge with selector "MsgType IN ('METRO')"
METRO_TOPIC -[#blue]> NAP_QUEUE : Bridge with selector  "MsgType IN ('METRO')"
group#DarkSeaGreen event: 'activate'
IAM_QUEUE <- Provisioning : IAMEMSConsumer listens the message from this queue [[../provisioning/ce.dsg.dice.prov.provisioning.pcf.nap.tibco.activate.svg event_activate_iam]]
NAP_QUEUE <- Provisioning : NAPEMSConsumer listens the message from this queue [[../provisioning/ce.dsg.dice.prov.provisioning.pcf.nap.tibco.activate.svg event_activate_nap]]
end
group#DarkSeaGreen event: 'cancelStatus'
IAM_QUEUE <- Provisioning : IAMEMSConsumer listens the message from this queue [[../provisioning/ce.dsg.dice.prov.provisioning.pcf.iam.cancelstatus.svg event_cancelStatus_iam]]
NAP_QUEUE <- Provisioning : NAPEMSConsumer listens the message from this queue [[../provisioning/ce.dsg.dice.prov.provisioning.pcf.nap.tibco.cancelstatus.svg event_cancelStatus_nap]]
end
group#DarkSeaGreen event: 'suspendStatus'
IAM_QUEUE <- Provisioning : IAMEMSConsumer listens the message from this queue [[../provisioning/ce.dsg.dice.prov.provisioning.pcf.iam.suspendstatus.svg event_suspendStatus_iam]]
NAP_QUEUE <- Provisioning : NAPEMSConsumer listens the message from this queue [[../provisioning/ce.dsg.dice.prov.provisioning.pcf.nap.tibco.suspendstatus.svg event_suspendStatus_nap]]
end
group#DarkSeaGreen event: 'resumeStatus'
IAM_QUEUE <- Provisioning : IAMEMSConsumer listens the message from this queue [[../provisioning/ce.dsg.dice.prov.provisioning.pcf.iam.resumestatus.svg event_resumeStatus_iam]]
NAP_QUEUE <- Provisioning : NAPEMSConsumer listens the message from this queue [[../provisioning/ce.dsg.dice.prov.provisioning.pcf.nap.tibco.resumestatus.svg event_resumeStatus_nap]]
end
group#DarkSeaGreen event: 'restoreStatus'
IAM_QUEUE <- Provisioning : IAMEMSConsumer listens the message from this queue [[../provisioning/ce.dsg.dice.prov.provisioning.pcf.iam.restorestatus.svg event_restoreStatus_iam]]
NAP_QUEUE <- Provisioning : NAPEMSConsumer listens the message from this queue [[../provisioning/ce.dsg.dice.prov.provisioning.pcf.nap.tibco.restorestatus.svg event_restoreStatus_nap]]
end
group#DarkSeaGreen event: 'reconcile'
IAM_QUEUE <- Provisioning : IAMEMSConsumer listens the message from this queue [[../provisioning/ce.dsg.dice.prov.provisioning.pcf.iam.reconcile.svg event_reconcile_iam]]
NAP_QUEUE <- Provisioning : NAPEMSConsumer listens the message from this queue [[../provisioning/ce.dsg.dice.prov.provisioning.pcf.nap.tibco.reconcile.svg event_reconcile_nap]]
end
group#DarkSeaGreen event: 'updateBAN'
IAM_QUEUE <- Provisioning : IAMEMSConsumer listens the message from this queue [[../provisioning/ce.dsg.dice.prov.provisioning.pcf.iam.updateban.svg event_updateBAN_iam]]
NAP_QUEUE <- Provisioning : NAPEMSConsumer listens the message from this queue [[../provisioning/ce.dsg.dice.prov.provisioning.pcf.nap.tibco.updateban.svg event_updateBAN_nap]]
end
group#DarkSeaGreen event: 'updateMSISDN'
IAM_QUEUE <- Provisioning : IAMEMSConsumer listens the message from this queue [[../provisioning/ce.dsg.dice.prov.provisioning.pcf.iam.updatemsisdn.svg event_updateMSISDN_iam]]
NAP_QUEUE <- Provisioning : NAPEMSConsumer listens the message from this queue [[../provisioning/ce.dsg.dice.prov.provisioning.pcf.nap.tibco.updatemsisdn.svg event_updateMSISDN_nap]]
end
group#DarkSeaGreen event: 'updateIMSI'
IAM_QUEUE <- Provisioning : IAMEMSConsumer listens the message from this queue [[../provisioning/ce.dsg.dice.prov.provisioning.pcf.iam.updateimsi.svg event_updateIMSI_iam]]
NAP_QUEUE <- Provisioning : NAPEMSConsumer listens the message from this queue [[../provisioning/ce.dsg.dice.prov.provisioning.pcf.nap.tibco.updateimsi.svg event_updateIMSI_nap]]
end
group#DarkSeaGreen event: 'updateCustomer'
IAM_QUEUE <- Provisioning : IAMEMSConsumer listens the message from this queue [[../provisioning/ce.dsg.dice.prov.provisioning.pcf.iam.updatecustomer.svg event_updateCustomer_iam]]
NAP_QUEUE <- Provisioning : NAPEMSConsumer listens the message from this queue [[../provisioning/ce.dsg.dice.prov.provisioning.pcf.nap.tibco.updatecustomer.svg event_updateCustomer_nap]]
end
group#DarkSeaGreen event: 'updateBillCycleCloseDay'
IAM_QUEUE <- Provisioning : IAMEMSConsumer listens the message from this queue [[../provisioning/ce.dsg.dice.prov.provisioning.pcf.iam.updatebillcyclecloseday.svg event_updateBillCycleCloseDay_iam]]
NAP_QUEUE <- Provisioning : NAPEMSConsumer listens the message from this queue [[../provisioning/ce.dsg.dice.prov.provisioning.pcf.nap.tibco.updatebillcyclecloseday.svg event_updateBillCycleCloseDay_nap]]
end
group#DarkSeaGreen event: 'updateCustomerSOCArray'
NAP_QUEUE <- Provisioning : NAPEMSConsumer listens the message from this queue [[../provisioning/ce.dsg.dice.prov.provisioning.pcf.nap.tibco.updatecustomersocarray.svg event_updateCustomerSOCArray_nap]]
end
group#DarkSeaGreen event: 'insertCustomerSOCArray'
IAM_QUEUE <- Provisioning : IAMEMSConsumer listens the message from this queue [[../provisioning/ce.dsg.dice.prov.provisioning.pcf.iam.insertcustomersocarray.svg event_insertCustomerSOCArray_iam]]
NAP_QUEUE <- Provisioning : NAPEMSConsumer listens the message from this queue [[../provisioning/ce.dsg.dice.prov.provisioning.pcf.nap.tibco.insertcustomersocarray.svg event_insertCustomerSOCArray_nap]]
end
group#DarkSeaGreen event: 'deleteCustomerSOCArray'
IAM_QUEUE <- Provisioning : IAMEMSConsumer listens the message from this queue [[../provisioning/ce.dsg.dice.prov.provisioning.pcf.iam.deletecustomersocarray.svg event_deleteCustomerSOCArray_iam]]
NAP_QUEUE <- Provisioning : NAPEMSConsumer listens the message from this queue [[../provisioning/ce.dsg.dice.prov.provisioning.pcf.nap.tibco.deletecustomersocarray.svg event_deleteCustomerSOCArray_nap]]
end
@enduml