@startuml
title ** <color:Magenta> Topic: __TMOBILE.<Env>.DSPA.PUBLISH.TOPIC__**\t\t\t\t\t ** <color:Magenta> Event: __updateMsisdnPairs__ **\n

queue PUBLISH_TOPIC #Magenta
queue NAP_QUEUE #Magenta
participant Provisioning as "<b><color:white>Provisioning" #Magenta


PUBLISH_TOPIC-[#blue]>NAP_QUEUE : <font color=blue>bridge-nap

NAP_QUEUE<-Provisioning: NAPEMSConsumer process the message from this queue [[../provisioning/ce.dsg.dice.prov.provisioning.pcf.nap.tibco.updatemsisdnpairs.svg event_updatemsisdnpairs_nap]]

@enduml