@startuml

title ** <color:Magenta> Topic: __TMOBILE.<Env>.DSPA.PUBLISH.TOPIC__**\t\t\t\t\t ** <color:Magenta> Event: __updateBan__ **\n

queue PUBLISH_TOPIC #Magenta
queue IAM_QUEUE #Magenta
queue NAP_QUEUE #Magenta
queue CUSTPROF_QUEUE #Magenta
participant Provisioning as "<b><color:white>Provisioning" #Magenta


PUBLISH_TOPIC-[#blue]> IAM_QUEUE: <color:blue> bride-iam
PUBLISH_TOPIC-[#blue]>NAP_QUEUE: <color:blue> bride-nap
PUBLISH_TOPIC-[#blue]>CUSTPROF_QUEUE: <color:blue> bride-cp


IAM_QUEUE<-Provisioning: IAMEMSConsumer process the message from this queue [[../provisioning/ce.dsg.dice.prov.provisioning.pcf.iam.updateban.svg event_updateban_iam]]

NAP_QUEUE<-Provisioning: NAPEMSConsumer process the message from this queue [[../provisioning/ce.dsg.dice.prov.provisioning.pcf.nap.postpaid.updateban.svg event_updateban_nap]]

CUSTPROF_QUEUE<-Provisioning: CustProfileEMSConsumer process the message from this queue [[../provisioning/ce.dsg.dice.prov.provisioning.pcf.cp.updateban.svg event_updateban_cp]]
@enduml