{
  "swagger": "2.0",
  "info": {
    "title": "Credits And Adjustments",
    "description": "API will provide the list of credit and Adjustment that will have immediate impact A/R balance. List will provide amount and Date of credit and Adjustments. This will be list of Credit and Adjustments after bill run",
    "version": "1.0.0",
    "x-createdBy": {
      "dateCreated": "Sun Apr 22 10:45:43 2018",
      "createdBy": "shehabm",
      "application": "Recite",
      "appVersion": "0.3.6.2170",
      "documentId": "05cd5a6e-95ab-4946-90bc-280a99319a16",
      "status": "Conceptual - Initial",
      "classification": "7.3.4 Billing Inquiries & Support Mgmt.",
      "profile": "Core Business Capability Service",
      "serviceLayer": "Resource - Billing"
    }
  },
  "host": "dev01.api.t-mobile.com",
  "basePath": "/billing/v1/adjustments",
  "schemes": [
    "https"
  ],
  "paths": {
    "/billing/v1/adjustments/query": {
      "post": {
        "tags": [
          "queryCreditsAndAdjustments"
        ],
        "summary": "Return a list of credit and immediate Adjustments based on provided ban list since last confirmed bill",
        "description": "Return a list of credit and immediate Adjustments based on provided ban list since last confirmed bill",
        "operationId": "queryCreditsAndAdjustments",
        "consumes": [
          "application/json"
        ],
        "produces": [
          "application/json"
        ],
        "parameters": [
          {
            "name": "searchAdjustmentsRequest",
            "in": "body",
            "required": true,
            "schema": {
              "$ref": "#/definitions/adjustmentsRequest"
            }
          },
          {
            "name": "Accept",
            "in": "header",
            "description": "Content-Types that are acceptable including application/json or application/xml (default assumed application/json)",
            "required": false,
            "type": "string"
          },
          {
            "name": "Accept-Charset",
            "in": "header",
            "description": "Character sets that are acceptable.",
            "required": false,
            "type": "string"
          },
          {
            "name": "Accept-Encoding",
            "in": "header",
            "description": "List of acceptable encodings. See HTTP compression.",
            "required": false,
            "type": "string"
          },
          {
            "name": "Accept-Language",
            "in": "header",
            "description": "List of acceptable human languages for response",
            "required": false,
            "type": "string"
          },
          {
            "name": "Authorization",
            "in": "header",
            "description": "OAuth 2.0 access token with the authentication type set as Bearer.",
            "required": true,
            "type": "string"
          },
          {
            "name": "Content-Type",
            "in": "header",
            "description": "The Content-Length header specifies the actual length of the returned payload.",
            "required": true,
            "type": "string"
          },
          {
            "name": "Date",
            "in": "header",
            "description": "The date and time that the message was originated (in HTTP-date format as defined by RFC 7231 Date/Time Formats).",
            "required": false,
            "type": "string",
            "format": "date-time"
          },
          {
            "name": "activityid",
            "in": "header",
            "description": "Unique id alphanumeric value generated and sent by the partner to identify every the service request uniquely. Sample: XyzA:D1s5s1i-X6AFRvfiPBfs-1234  Pass as is to downstream calls.",
            "required": true,
            "type": "string"
          },
          {
            "name": "applicationid",
            "in": "header",
            "description": "Identifies the application, system, or tool that is being used to perform the transaction related to this request. Below are the sample values.ACUI, ESERVICE, REBELLION, WARP",
            "required": false,
            "type": "string"
          },
          {
            "name": "applicationuserid",
            "in": "header",
            "description": "NT id of the one who is managing the transaction from CARE/RETAIL channels.",
            "required": false,
            "type": "string"
          },
          {
            "name": "authcustomerid",
            "in": "header",
            "description": "Customer id _ of the person that is interacting with the system.",
            "required": false,
            "type": "string"
          },
          {
            "name": "authlineofserviceid",
            "in": "header",
            "description": "Service Line that the customer intends to operate on, while interacting with the system.",
            "required": false,
            "type": "string"
          },
          {
            "name": "channelid",
            "in": "header",
            "description": "Identifies the business unit or sales channel for the Request.Below are the sample values:            Care            TeleSales            FullService            BusinessDirect            FinancePartners            NonFinancePartners            SelfServiceAuthenticated            SelfServiceAnonymous            InteractiveVoiceResponse",
            "required": false,
            "type": "string"
          },
          {
            "name": "dealercode",
            "in": "header",
            "description": "Unique code to identify the dealer/rep user.",
            "required": false,
            "type": "integer",
            "format": "int32"
          },
          {
            "name": "interactionid",
            "in": "header",
            "description": "Alphanumeric value represent a common transaction id across all calls made from UI, while completing all business activity needs of a particular customer.",
            "required": false,
            "type": "string"
          },
          {
            "name": "segmentationid",
            "in": "header",
            "description": "Identifier of customers primary data center.Sample: Polaris,Titan",
            "required": false,
            "type": "string"
          },
          {
            "name": "senderid",
            "in": "header",
            "description": "Uniquely identifies an Operation consumer. Below are the sample values.ACUI, MYTMO, QVXP, REBELLION, WALMARTRETAIL, SAMSCLUBRETAIL.",
            "required": false,
            "type": "string"
          },
          {
            "name": "sessionid",
            "in": "header",
            "description": "A value populated by the sender used to track the transactions that occur during a session, a long-lasting interaction that ismaintained by the sender.",
            "required": false,
            "type": "string"
          },
          {
            "name": "storeid",
            "in": "header",
            "description": "Unique identifier for the retail store location.",
            "required": false,
            "type": "string"
          },
          {
            "name": "terminalid",
            "in": "header",
            "description": "Unique identifier for the retail store terminal. Needed for FullService  (Tmobile RETAIL channel). Need to discuss with T-Mobile business liaison if there is a need for Partner to pass their retail Store Id).",
            "required": false,
            "type": "string"
          },
          {
            "name": "tillid",
            "in": "header",
            "description": "Unique identifier for the retail register. Needed for FullService  (Tmobile RETAIL channel). Need to discuss with T-Mobile business liaison if there is a need for Partner to pass their retail Store Id).",
            "required": false,
            "type": "string"
          },
          {
            "name": "timestamp",
            "in": "header",
            "description": "A timestamp provided by sender to track their workflow. If it is empty APIGEE can send current system timestamp.",
            "required": false,
            "type": "string",
            "format": "date-time"
          },
          {
            "name": "workflowid",
            "in": "header",
            "description": "Workflow name (NEW/ADD/EXCHANGE/RETURN)/OrderTypes _ ACTIVATION ADDALINE CHANGEDEVICE_JUMP CHANGEDEVICE",
            "required": false,
            "type": "string"
          },
          {
            "name": "balanceImpactType",
            "in": "query",
            "description": "Immediate or Pending , default = IMMEDIATE",
            "required": false,
            "type": "string",
            "enum": [
              "IMMEDIATE",
              "PENDING"
            ]
          },
          {
            "name": "cycleType",
            "in": "query",
            "description": "type of cycle, valid values CONFIRMED/OPEN/ALL ,default value = ALL",
            "required": false,
            "type": "string",
            "enum": [
              "CONFIRMED",
              "OPEN",
              "ALL"
            ]
          },
          {
            "name": "adjustmentLevel",
            "in": "query",
            "description": "Level of adjustemt , valid values = ACCOUNT/LINE/ALL ,default = ALL >",
            "required": false,
            "type": "string",
            "enum": [
              "ACCOUNT",
              "LINE",
              "ALL"
            ]
          }
        ],
        "responses": {
          "200": {
            "description": "Ok",
            "schema": {
              "$ref": "#/definitions/searchAdjustmentsResponse"
            },
            "headers": {
              "Content-Encoding": {
                "description": "The type of encoding used on the data",
                "type": "string"
              },
              "Content-Length": {
                "description": "The Content-Length header specifies the actual length of the returned payload.",
                "type": "string"
              },
              "Content-Type": {
                "description": "The Content-Length header specifies the actual length of the returned payload.",
                "type": "string"
              },
              "Date": {
                "description": "The date and time that the message was originated (in HTTP-date format as defined by RFC 7231 Date/Time Formats).",
                "type": "string",
                "format": "date-time"
              },
              "Transfer-Encoding": {
                "description": "The form of encoding used to safely transfer the entity to the user. Currently defined methods are: chunked, compress, deflate, gzip, identity.",
                "type": "string"
              },
              "servicetransactionid": {
                "description": "Internal identifier for transaction tracking an individual transaction/API request within API platform. Don_t receive/don_t send to downstream",
                "type": "string"
              }
            }
          },
          "207": {
            "description": "multi status",
            "schema": {
              "$ref": "#/definitions/searchAdjustmentsResponse"
            },
            "headers": {
              "Content-Encoding": {
                "description": "The type of encoding used on the data",
                "type": "string"
              },
              "Content-Length": {
                "description": "The Content-Length header specifies the actual length of the returned payload.",
                "type": "string"
              },
              "Content-Type": {
                "description": "The Content-Length header specifies the actual length of the returned payload.",
                "type": "string"
              },
              "Date": {
                "description": "The date and time that the message was originated (in HTTP-date format as defined by RFC 7231 Date/Time Formats).",
                "type": "string",
                "format": "date-time"
              },
              "Transfer-Encoding": {
                "description": "The form of encoding used to safely transfer the entity to the user. Currently defined methods are: chunked, compress, deflate, gzip, identity.",
                "type": "string"
              },
              "servicetransactionid": {
                "description": "Internal identifier for transaction tracking an individual transaction/API request within API platform. Don_t receive/don_t send to downstream",
                "type": "string"
              }
            }
          },
          "400": {
            "description": "Bad Request",
            "schema": {
              "$ref": "#/definitions/errorCollection"
            }
          },
          "401": {
            "description": "Unauthorized",
            "schema": {
              "$ref": "#/definitions/errorCollection"
            }
          },
          "404": {
            "description": "Resource not found",
            "schema": {
              "$ref": "#/definitions/errorCollection"
            }
          },
          "500": {
            "description": "System Error",
            "schema": {
              "$ref": "#/definitions/errorCollection"
            }
          },
          "503": {
            "description": "Service unavailable",
            "schema": {
              "$ref": "#/definitions/errorCollection"
            }
          }
        },
        "security": []
      }
    }
  },
  "definitions": {
    "adjustmentsRequest": {
      "type": "object",
      "description": "A collection of financialAccount objects.",
      "properties": {
        "financialAccounts": {
          "description": "This a list of objects with billingAccountId and billSequenceNumber.",
          "type": "array",
          "items": {
            "$ref": "#/definitions/financialAccount"
          }
        }
      }
    },
    "financialAccount": {
      "type": "object",
      "description": "financialAccount objects with ban and billSequenceNumber.",
      "properties": {
        "financialAccountNumber": {
          "description": "financialAccountNumber to be used in adjustemt table.",
          "type": "string"
        }
      }
    },
    "error": {
      "description": "Error object.",
      "type": "object",
      "properties": {
        "code": {
          "description": "A specific T-Mobile error code.",
          "type": "string"
        },
        "userMessage": {
          "description": "A human-readable message describing the error.",
          "type": "string"
        },
        "systemMessage": {
          "description": "Backend system error message.",
          "type": "string"
        },
        "requestURI": {
          "description": "Any.",
          "type": "string"
        },
        "traceId": {
          "description": "Any.",
          "type": "string"
        }
      }
    },
    "errorCollection": {
      "description": "The array of error objects. As defined in https://tmobileusa.sharepoint.com/teams/EnterpriseServices/ESG%20Standards%20Documents/APIs/T-Mobile%20API%20Design%20Guidelines%20v1.0.docx",
      "type": "object",
      "properties": {
        "errors": {
          "type": "array",
          "items": {
            "$ref": "#/definitions/error"
          }
        }
      }
    },
    "searchAdjustmentsObject": {
      "description": "credit And Adjustments object.",
      "type": "object",
      "properties": {
        "financialAccountNumber": {
          "description": "billingAccountId maped to object",
          "type": "string"
        },
        "billSequenceNumber": {
          "description": "billSequenceNumber maped to object",
          "type": "string"
        },
        "mobileNumber": {
          "description": "For Line level adjustments , mobile Number will be populated",
          "type": "string"
        },
        "amount": {
          "description": "This will be individual’s credit and Adjustment Amount.  This will be positive amount on Response .",
          "type": "number"
        },
        "reasonCode": {
          "description": "Reason code of the credit and Adjustment.",
          "type": "string"
        },
        "reasonDescription": {
          "description": "This will be description of Reason code or Feature code for Credit and Adjustment.",
          "type": "string"
        },
        "appliedDate": {
          "description": "Date when individual credit and adjustment reversal applied to A/R balance.",
          "type": "string"
        }
      }
    },
    "searchAdjustmentsResponse": {
      "description": "Array of errors objects with partial passed requests.",
      "type": "object",
      "properties": {
        "adjustmentList": {
          "type": "array",
          "items": {
            "$ref": "#/definitions/searchAdjustmentsObject"
          }
        },
        "adjustmentErrorList": {
          "type": "array",
          "items": {
            "$ref": "#/definitions/failedSearchAdjustments"
          }
        }
      }
    },
    "failedSearchAdjustments": {
      "type": "object",
      "properties": {
        "financialAccountNumber": {
          "type": "string"
        },
        "errors": {
          "type": "array",
          "items": {
            "$ref": "#/definitions/error"
          }
        }
      }
    }
  },
  "securityDefinitions": {}
}