{
  "swagger": "2.0",
  "info": {
    "description": "This document lists version 1.0 for the APIs that support ibilling-sa-v1.",
    "version": "1.0",
    "title": "ibilling-sa-v1"
  },
  "host": "localhost:8080",
  "basePath": "/",
  "tags": [
    {
      "name": "ibilling-resource",
      "description": "Provide i-Billing get/enroll/un-enroll interactions."
    }
  ],
  "paths": {
    "/billing/v1/billing-preferences/i-billing": {
	  "get": {
        "tags": [
          "ibilling"
        ],
        "summary": "ibilling",
        "operationId": "getIBillingActivitiesGET",
        "consumes": [
          "application/json"
        ],
        "produces": [
          "application/json"
        ],
        "parameters": [
          {
            "name": "activityid",
            "in": "header",
            "description": "activityid",
            "required": true,
            "type": "string"
          },
          {
            "name": "applicationuserid",
            "in": "header",
            "description": "applicationuserid",
            "required": false,
            "type": "integer",
            "format": "int32"
          },
          {
            "name": "financialAccountId",
            "in": "query",
            "description": "financialAccountId",
            "required": false,
            "type": "string"
          }
        ],
        "responses": {
          "200": {
            "description": "OK",
            "schema": {
              "$ref": "#/definitions/IBillingActivitiesGetResponse"
            }
          },
          "400": {
            "description": "Bad request error",
            "schema": {
              "$ref": "#/definitions/IBillingActivitiesGetResponse"
            }
          },
          "404": {
            "description": "Record not found",
            "schema": {
              "$ref": "#/definitions/IBillingActivitiesGetResponse"
            }
          },
          "500": {
            "description": "The server encountered an unexpected condition which prevented it from fulfilling the request",
            "schema": {
              "$ref": "#/definitions/IBillingActivitiesGetResponse"
            }
          }
        }
      },
      "post": {
        "tags": [
          "ibilling"
        ],
        "summary": "ibilling",
        "operationId": "getIBillingActivitiesPOST",
        "consumes": [
          "application/json"
        ],
        "produces": [
          "application/json"
        ],
        "parameters": [
          {
            "in": "body",
            "name": "iBillingActivitiesRequest",
            "description": "iBilling Request",
            "required": true,
            "schema": {
              "$ref": "#/definitions/IBillingActivitiesRequest"
            }
          },
          {
            "name": "activityid",
            "in": "header",
            "description": "activityid",
            "required": true,
            "type": "string"
          },
          {
            "name": "applicationuserid",
            "in": "header",
            "description": "applicationuserid",
            "required": false,
            "type": "integer",
            "format": "int32"
          }
        ],
        "responses": {
          "200": {
            "description": "OK",
            "schema": {
              "$ref": "#/definitions/IBillingActivitiesResponse"
            }
          },
          "400": {
            "description": "Bad request error",
            "schema": {
              "$ref": "#/definitions/IBillingActivitiesResponse"
            }
          },
          "404": {
            "description": "Record not found",
            "schema": {
              "$ref": "#/definitions/IBillingActivitiesResponse"
            }
          },
          "500": {
            "description": "The server encountered an unexpected condition which prevented it from fulfilling the request",
            "schema": {
              "$ref": "#/definitions/IBillingActivitiesResponse"
            }
          }
        }
      },
	  "delete": {
        "tags": [
          "ibilling"
        ],
        "summary": "ibilling",
        "operationId": "getIBillingActivitiesDELETE",
        "consumes": [
          "application/json"
        ],
        "produces": [
          "application/json"
        ],
        "parameters": [
          {
            "in": "body",
            "name": "iBillingActivitiesRequest",
            "description": "iBilling Request",
            "required": true,
            "schema": {
              "$ref": "#/definitions/IBillingActivitiesRequest"
            }
          },
          {
            "name": "activityid",
            "in": "header",
            "description": "activityid",
            "required": true,
            "type": "string"
          },
          {
            "name": "applicationuserid",
            "in": "header",
            "description": "applicationuserid",
            "required": false,
            "type": "integer",
            "format": "int32"
          }
        ],
        "responses": {
          "200": {
            "description": "OK",
            "schema": {
              "$ref": "#/definitions/IBillingActivitiesResponse"
            }
          },
          "400": {
            "description": "Bad request error",
            "schema": {
              "$ref": "#/definitions/IBillingActivitiesResponse"
            }
          },
          "404": {
            "description": "Record not found",
            "schema": {
              "$ref": "#/definitions/IBillingActivitiesResponse"
            }
          },
          "500": {
            "description": "The server encountered an unexpected condition which prevented it from fulfilling the request",
            "schema": {
              "$ref": "#/definitions/IBillingActivitiesResponse"
            }
          }
        }
      }
    }
  },
  "definitions": {
    "IBillingActivitiesResponse": {
      "type": "object",
      "properties": {
        "errText": {
          "type": "string"
        }
      }
    },
    "IBillingActivitiesRequest": {
      "type": "object",
      "properties": {
        "financialAccountId": {
          "type": "string"
        },
        "bpLanguage": {
          "type": "string"
        },
        "noOfCopies": {
          "type": "integer",
          "format": "int32"
        },
        "printBatch": {
          "type": "integer",
          "format": "int32"
        }
      }
    },
	"IBillingActivitiesGetResponse": {
      "type": "object",
      "properties": {
	    "bpRowCount": {
          "type": "integer",
          "format": "int32"
        },
        "ibillingCurrentEnrollmentList": {
          "type": "array",
          "items": {
            "$ref": "#/definitions/IBillingCurrentEnrollmentRecord"
          }
        }
      }
    },
    "IBillingCurrentEnrollmentRecord": {
      "type": "object",
      "properties": {
        "bpSeqNo": {
          "type": "integer",
          "format": "int32"
        },
        "bpFormat": {
          "type": "string"
        },
        "bpEffectiveDate": {
          "type": "string"
        },
        "bpExpirationDate": {
          "type": "string"
        },
        "noOfCopies": {
          "type": "integer",
          "format": "int32"
        },
        "language": {
          "type": "string"
        },
        "printBatch": {
          "type": "string"
        },
        "gsaBillingIndicator": {
          "type": "string"
        },
        "contractId": {
          "type": "string"
        },
        "ediIndicator": {
          "type": "string"
        },
        "xmlDownloadIndicator": {
          "type": "string"
        },
        "deliveryOrderNumber": {
          "type": "string"
        }
      }
    }
  }
}