{
  "swagger": "2.0",
  "info": {
    "description": "This document lists version 1.0 for the APIs that support paperless-bill-sa-v1.",
    "version": "1.0",
    "title": "paperless-bill-sa-v1"
  },
  "host": "localhost:8080",
  "basePath": "/",
  "tags": [
    {
      "name": "paperless-bill-resource",
      "description": "REST API – Paperless Bill activities."
    }
  ],
  "paths": {
    "/billing/v1/billing-preferences/paperless-bill": {
      "get": {
        "tags": [
          "paperless-bill"
        ],
        "summary": "paperless-bill",
        "operationId": "getPaperlessBillActivitiesGET",
        "consumes": [
          "application/json"
        ],
        "produces": [
          "application/json"
        ],
        "parameters": [
          {
            "name": "Accept",
            "in": "header",
            "description": "Content-Types that are acceptable including application/json or application/xml (default assumed application/json)",
            "required": false,
            "type": "string"
          },
          {
            "name": "Accept-Charset",
            "in": "header",
            "description": "Character sets that are acceptable.",
            "required": false,
            "type": "string"
          },
          {
            "name": "Accept-Encoding",
            "in": "header",
            "description": "List of acceptable encodings. See HTTP compression.",
            "required": false,
            "type": "string"
          },
          {
            "name": "Accept-Language",
            "in": "header",
            "description": "List of acceptable human languages for response",
            "required": false,
            "type": "string"
          },
          {
            "name": "Authorization",
            "in": "header",
            "description": "OAuth 2.0 access token with the authentication type set as Bearer.",
            "required": true,
            "type": "string"
          },
          {
            "name": "Content-Type",
            "in": "header",
            "description": "The Content-Length header specifies the actual length of the returned payload.",
            "required": true,
            "type": "string"
          },
          {
            "name": "Date",
            "in": "header",
            "description": "The date and time that the message was originated (in HTTP-date format as defined by RFC 7231 Date/Time Formats).",
            "required": false,
            "type": "string",
            "format": "date-time"
          },
          {
            "name": "If-Modified-Since",
            "in": "header",
            "description": "The If-Modified-Since header specifies date-related conditions to be placed on the execution of a request.  The request will only be executed if the requested resource has not been modified since the date-time specified.  Because the behavior is complex, the details for usage are provided at http://www.w3.org/Protocols/rfc2616/rfc2616-sec14.html",
            "required": false,
            "type": "string"
          },
          {
            "name": "If-None-Match",
            "in": "header",
            "description": "The If-None-Match header specifies an ETag-related condition to be placed on the execution of a request.  The request will NOT be executed if the ETag of the requested resource matches one of those specified in the If-None-Match header.  Because the behavior is complex, the details for usage are provided at http://www.w3.org/Protocols/rfc2616/rfc2616-sec14.html",
            "required": false,
            "type": "string"
          },
          {
            "name": "activityid",
            "in": "header",
            "description": "Unique id alphanumeric value generated and sent by the partner to identify every the service request uniquely. Sample: XyzA:D1s5s1i-X6AFRvfiPBfs-1234  Pass as is to downstream calls.",
            "required": true,
            "type": "string"
          },
          {
            "name": "applicationid",
            "in": "header",
            "description": "Identifies the application, system, or tool that is being used to perform the transaction related to this request. Below are the sample values.ACUI, ESERVICE, REBELLION, WARP",
            "required": false,
            "type": "string"
          },
          {
            "name": "applicationuserid",
            "in": "header",
            "description": "NT id of the one who is managing the transaction from CARE/RETAIL channels.",
            "required": false,
            "type": "string"
          },
          {
            "name": "authcustomerid",
            "in": "header",
            "description": "Customer id _ of the person that is interacting with the system.",
            "required": false,
            "type": "string"
          },
          {
            "name": "authlineofserviceid",
            "in": "header",
            "description": "Service Line that the customer intends to operate on, while interacting with the system.",
            "required": false,
            "type": "string"
          },
          {
            "name": "channelid",
            "in": "header",
            "description": "Identifies the business unit or sales channel for the Request.Below are the sample values:            Care            TeleSales            FullService            BusinessDirect            FinancePartners            NonFinancePartners            SelfServiceAuthenticated            SelfServiceAnonymous            InteractiveVoiceResponse",
            "required": false,
            "type": "string"
          },
          {
            "name": "dealercode",
            "in": "header",
            "description": "Unique code to identify the dealer/rep user.",
            "required": false,
            "type": "integer",
            "format": "int32"
          },
          {
            "name": "interactionid",
            "in": "header",
            "description": "Alphanumeric value represent a common transaction id across all calls made from UI, while completing all business activity needs of a particular customer.",
            "required": false,
            "type": "string"
          },
          {
            "name": "segmentationid",
            "in": "header",
            "description": "Identifier of customers primary data center.Sample: Polaris,Titan",
            "required": false,
            "type": "string"
          },
          {
            "name": "senderid",
            "in": "header",
            "description": "Uniquely identifies an Operation consumer. Below are the sample values.ACUI, MYTMO, QVXP, REBELLION, WALMARTRETAIL, SAMSCLUBRETAIL.",
            "required": false,
            "type": "string"
          },
          {
            "name": "sessionid",
            "in": "header",
            "description": "A value populated by the sender used to track the transactions that occur during a session, a long-lasting interaction that ismaintained by the sender.",
            "required": false,
            "type": "string"
          },
          {
            "name": "storeid",
            "in": "header",
            "description": "Unique identifier for the retail store location.",
            "required": false,
            "type": "string"
          },
          {
            "name": "terminalid",
            "in": "header",
            "description": "Unique identifier for the retail store terminal. Needed for FullService  (Tmobile RETAIL channel). Need to discuss with T-Mobile business liaison if there is a need for Partner to pass their retail Store Id).",
            "required": false,
            "type": "string"
          },
          {
            "name": "tillid",
            "in": "header",
            "description": "Unique identifier for the retail register. Needed for FullService  (Tmobile RETAIL channel). Need to discuss with T-Mobile business liaison if there is a need for Partner to pass their retail Store Id).",
            "required": false,
            "type": "string"
          },
          {
            "name": "timestamp",
            "in": "header",
            "description": "A timestamp provided by sender to track their workflow. If it is empty APIGEE can send current system timestamp.",
            "required": false,
            "type": "string",
            "format": "date-time"
          },
          {
            "name": "workflowid",
            "in": "header",
            "description": "Workflow name (NEW/ADD/EXCHANGE/RETURN)/OrderTypes _ ACTIVATION ADDALINE CHANGEDEVICE_JUMP CHANGEDEVICE",
            "required": false,
            "type": "string"
          },
		   {
            "name": "financialAccountId",
            "in": "query",
            "description": "financialAccountId",
            "required": true,
            "type": "string"
          }
        ],
        "responses": {
          "200": {
            "description": "OK",
            "schema": {
              "$ref": "#/definitions/PaperlessBillActivitiesGetResponse"
            }
          },
          "400": {
            "description": "Bad request error",
            "schema": {
              "$ref": "#/definitions/PaperlessBillActivitiesGetResponse"
            }
          },
          "404": {
            "description": "Record not found",
            "schema": {
              "$ref": "#/definitions/PaperlessBillActivitiesGetResponse"
            }
          },
          "500": {
            "description": "The server encountered an unexpected condition which prevented it from fulfilling the request",
            "schema": {
              "$ref": "#/definitions/PaperlessBillActivitiesGetResponse"
            }
          }
        }
      },
      "post": {
        "tags": [
          "paperless-bill "
        ],
        "summary": "paperless-bill",
        "operationId": "getPaperlessBillActivitiesPOST",
        "consumes": [
          "application/json"
        ],
        "produces": [
          "application/json"
        ],
        "parameters": [
          {
            "in": "body",
            "name": "paperlessBillActivitiesRequest",
            "description": "Paperless Billing Request",
            "required": true,
            "schema": {
              "$ref": "#/definitions/PaperlessBillActivitiesPostRequest"
            }
          },
          {
            "name": "Accept",
            "in": "header",
            "description": "Content-Types that are acceptable including application/json or application/xml (default assumed application/json)",
            "required": false,
            "type": "string"
          },
          {
            "name": "Accept-Charset",
            "in": "header",
            "description": "Character sets that are acceptable.",
            "required": false,
            "type": "string"
          },
          {
            "name": "Accept-Encoding",
            "in": "header",
            "description": "List of acceptable encodings. See HTTP compression.",
            "required": false,
            "type": "string"
          },
          {
            "name": "Accept-Language",
            "in": "header",
            "description": "List of acceptable human languages for response",
            "required": false,
            "type": "string"
          },
          {
            "name": "Authorization",
            "in": "header",
            "description": "OAuth 2.0 access token with the authentication type set as Bearer.",
            "required": true,
            "type": "string"
          },
          {
            "name": "Content-Type",
            "in": "header",
            "description": "The Content-Length header specifies the actual length of the returned payload.",
            "required": true,
            "type": "string"
          },
          {
            "name": "Date",
            "in": "header",
            "description": "The date and time that the message was originated (in HTTP-date format as defined by RFC 7231 Date/Time Formats).",
            "required": false,
            "type": "string",
            "format": "date-time"
          },
          {
            "name": "If-Modified-Since",
            "in": "header",
            "description": "The If-Modified-Since header specifies date-related conditions to be placed on the execution of a request.  The request will only be executed if the requested resource has not been modified since the date-time specified.  Because the behavior is complex, the details for usage are provided at http://www.w3.org/Protocols/rfc2616/rfc2616-sec14.html",
            "required": false,
            "type": "string"
          },
          {
            "name": "If-None-Match",
            "in": "header",
            "description": "The If-None-Match header specifies an ETag-related condition to be placed on the execution of a request.  The request will NOT be executed if the ETag of the requested resource matches one of those specified in the If-None-Match header.  Because the behavior is complex, the details for usage are provided at http://www.w3.org/Protocols/rfc2616/rfc2616-sec14.html",
            "required": false,
            "type": "string"
          },
          {
            "name": "activityid",
            "in": "header",
            "description": "Unique id alphanumeric value generated and sent by the partner to identify every the service request uniquely. Sample: XyzA:D1s5s1i-X6AFRvfiPBfs-1234  Pass as is to downstream calls.",
            "required": true,
            "type": "string"
          },
          {
            "name": "applicationid",
            "in": "header",
            "description": "Identifies the application, system, or tool that is being used to perform the transaction related to this request. Below are the sample values.ACUI, ESERVICE, REBELLION, WARP",
            "required": false,
            "type": "string"
          },
          {
            "name": "applicationuserid",
            "in": "header",
            "description": "NT id of the one who is managing the transaction from CARE/RETAIL channels.",
            "required": false,
            "type": "string"
          },
          {
            "name": "authcustomerid",
            "in": "header",
            "description": "Customer id _ of the person that is interacting with the system.",
            "required": false,
            "type": "string"
          },
          {
            "name": "authlineofserviceid",
            "in": "header",
            "description": "Service Line that the customer intends to operate on, while interacting with the system.",
            "required": false,
            "type": "string"
          },
          {
            "name": "channelid",
            "in": "header",
            "description": "Identifies the business unit or sales channel for the Request.Below are the sample values:            Care            TeleSales            FullService            BusinessDirect            FinancePartners            NonFinancePartners            SelfServiceAuthenticated            SelfServiceAnonymous            InteractiveVoiceResponse",
            "required": false,
            "type": "string"
          },
          {
            "name": "dealercode",
            "in": "header",
            "description": "Unique code to identify the dealer/rep user.",
            "required": false,
            "type": "integer",
            "format": "int32"
          },
          {
            "name": "interactionid",
            "in": "header",
            "description": "Alphanumeric value represent a common transaction id across all calls made from UI, while completing all business activity needs of a particular customer.",
            "required": false,
            "type": "string"
          },
          {
            "name": "segmentationid",
            "in": "header",
            "description": "Identifier of customers primary data center.Sample: Polaris,Titan",
            "required": false,
            "type": "string"
          },
          {
            "name": "senderid",
            "in": "header",
            "description": "Uniquely identifies an Operation consumer. Below are the sample values.ACUI, MYTMO, QVXP, REBELLION, WALMARTRETAIL, SAMSCLUBRETAIL.",
            "required": false,
            "type": "string"
          },
          {
            "name": "sessionid",
            "in": "header",
            "description": "A value populated by the sender used to track the transactions that occur during a session, a long-lasting interaction that ismaintained by the sender.",
            "required": false,
            "type": "string"
          },
          {
            "name": "storeid",
            "in": "header",
            "description": "Unique identifier for the retail store location.",
            "required": false,
            "type": "string"
          },
          {
            "name": "terminalid",
            "in": "header",
            "description": "Unique identifier for the retail store terminal. Needed for FullService  (Tmobile RETAIL channel). Need to discuss with T-Mobile business liaison if there is a need for Partner to pass their retail Store Id).",
            "required": false,
            "type": "string"
          },
          {
            "name": "tillid",
            "in": "header",
            "description": "Unique identifier for the retail register. Needed for FullService  (Tmobile RETAIL channel). Need to discuss with T-Mobile business liaison if there is a need for Partner to pass their retail Store Id).",
            "required": false,
            "type": "string"
          },
          {
            "name": "timestamp",
            "in": "header",
            "description": "A timestamp provided by sender to track their workflow. If it is empty APIGEE can send current system timestamp.",
            "required": false,
            "type": "string",
            "format": "date-time"
          },
          {
            "name": "workflowid",
            "in": "header",
            "description": "Workflow name (NEW/ADD/EXCHANGE/RETURN)/OrderTypes _ ACTIVATION ADDALINE CHANGEDEVICE_JUMP CHANGEDEVICE",
            "required": false,
            "type": "string"
          }
        ],
        "responses": {
          "200": {
            "description": "OK",
            "schema": {
              "$ref": "#/definitions/PaperlessBillActivitiesResponse"
            }
          },
          "400": {
            "description": "Bad request error",
            "schema": {
              "$ref": "#/definitions/PaperlessBillActivitiesResponse"
            }
          },
          "404": {
            "description": "Record not found",
            "schema": {
              "$ref": "#/definitions/PaperlessBillActivitiesResponse"
            }
          },
          "500": {
            "description": "The server encountered an unexpected condition which prevented it from fulfilling the request",
            "schema": {
              "$ref": "#/definitions/PaperlessBillActivitiesResponse"
            }
          }
        }
      },
      "put": {
        "tags": [
          "paperless-bill"
        ],
        "summary": "paperless-bill",
        "operationId": "getPaperlessBillActivitiesPUT",
        "consumes": [
          "application/json"
        ],
        "produces": [
          "application/json"
        ],
        "parameters": [
          {
            "in": "body",
            "name": "paperlessBillActivitiesRequest",
            "description": "Paperless Billing Request",
            "required": true,
            "schema": {
              "$ref": "#/definitions/PaperlessBillActivitiesPutRequest"
            }
          },
{
            "name": "Accept",
            "in": "header",
            "description": "Content-Types that are acceptable including application/json or application/xml (default assumed application/json)",
            "required": false,
            "type": "string"
          },
          {
            "name": "Accept-Charset",
            "in": "header",
            "description": "Character sets that are acceptable.",
            "required": false,
            "type": "string"
          },
          {
            "name": "Accept-Encoding",
            "in": "header",
            "description": "List of acceptable encodings. See HTTP compression.",
            "required": false,
            "type": "string"
          },
          {
            "name": "Accept-Language",
            "in": "header",
            "description": "List of acceptable human languages for response",
            "required": false,
            "type": "string"
          },
          {
            "name": "Authorization",
            "in": "header",
            "description": "OAuth 2.0 access token with the authentication type set as Bearer.",
            "required": true,
            "type": "string"
          },
          {
            "name": "Content-Type",
            "in": "header",
            "description": "The Content-Length header specifies the actual length of the returned payload.",
            "required": true,
            "type": "string"
          },
          {
            "name": "Date",
            "in": "header",
            "description": "The date and time that the message was originated (in HTTP-date format as defined by RFC 7231 Date/Time Formats).",
            "required": false,
            "type": "string",
            "format": "date-time"
          },
          {
            "name": "If-Modified-Since",
            "in": "header",
            "description": "The If-Modified-Since header specifies date-related conditions to be placed on the execution of a request.  The request will only be executed if the requested resource has not been modified since the date-time specified.  Because the behavior is complex, the details for usage are provided at http://www.w3.org/Protocols/rfc2616/rfc2616-sec14.html",
            "required": false,
            "type": "string"
          },
          {
            "name": "If-None-Match",
            "in": "header",
            "description": "The If-None-Match header specifies an ETag-related condition to be placed on the execution of a request.  The request will NOT be executed if the ETag of the requested resource matches one of those specified in the If-None-Match header.  Because the behavior is complex, the details for usage are provided at http://www.w3.org/Protocols/rfc2616/rfc2616-sec14.html",
            "required": false,
            "type": "string"
          },
          {
            "name": "activityid",
            "in": "header",
            "description": "Unique id alphanumeric value generated and sent by the partner to identify every the service request uniquely. Sample: XyzA:D1s5s1i-X6AFRvfiPBfs-1234  Pass as is to downstream calls.",
            "required": true,
            "type": "string"
          },
          {
            "name": "applicationid",
            "in": "header",
            "description": "Identifies the application, system, or tool that is being used to perform the transaction related to this request. Below are the sample values.ACUI, ESERVICE, REBELLION, WARP",
            "required": false,
            "type": "string"
          },
          {
            "name": "applicationuserid",
            "in": "header",
            "description": "NT id of the one who is managing the transaction from CARE/RETAIL channels.",
            "required": false,
            "type": "string"
          },
          {
            "name": "authcustomerid",
            "in": "header",
            "description": "Customer id _ of the person that is interacting with the system.",
            "required": false,
            "type": "string"
          },
          {
            "name": "authlineofserviceid",
            "in": "header",
            "description": "Service Line that the customer intends to operate on, while interacting with the system.",
            "required": false,
            "type": "string"
          },
          {
            "name": "channelid",
            "in": "header",
            "description": "Identifies the business unit or sales channel for the Request.Below are the sample values:            Care            TeleSales            FullService            BusinessDirect            FinancePartners            NonFinancePartners            SelfServiceAuthenticated            SelfServiceAnonymous            InteractiveVoiceResponse",
            "required": false,
            "type": "string"
          },
          {
            "name": "dealercode",
            "in": "header",
            "description": "Unique code to identify the dealer/rep user.",
            "required": false,
            "type": "integer",
            "format": "int32"
          },
          {
            "name": "interactionid",
            "in": "header",
            "description": "Alphanumeric value represent a common transaction id across all calls made from UI, while completing all business activity needs of a particular customer.",
            "required": false,
            "type": "string"
          },
          {
            "name": "segmentationid",
            "in": "header",
            "description": "Identifier of customers primary data center.Sample: Polaris,Titan",
            "required": false,
            "type": "string"
          },
          {
            "name": "senderid",
            "in": "header",
            "description": "Uniquely identifies an Operation consumer. Below are the sample values.ACUI, MYTMO, QVXP, REBELLION, WALMARTRETAIL, SAMSCLUBRETAIL.",
            "required": false,
            "type": "string"
          },
          {
            "name": "sessionid",
            "in": "header",
            "description": "A value populated by the sender used to track the transactions that occur during a session, a long-lasting interaction that ismaintained by the sender.",
            "required": false,
            "type": "string"
          },
          {
            "name": "storeid",
            "in": "header",
            "description": "Unique identifier for the retail store location.",
            "required": false,
            "type": "string"
          },
          {
            "name": "terminalid",
            "in": "header",
            "description": "Unique identifier for the retail store terminal. Needed for FullService  (Tmobile RETAIL channel). Need to discuss with T-Mobile business liaison if there is a need for Partner to pass their retail Store Id).",
            "required": false,
            "type": "string"
          },
          {
            "name": "tillid",
            "in": "header",
            "description": "Unique identifier for the retail register. Needed for FullService  (Tmobile RETAIL channel). Need to discuss with T-Mobile business liaison if there is a need for Partner to pass their retail Store Id).",
            "required": false,
            "type": "string"
          },
          {
            "name": "timestamp",
            "in": "header",
            "description": "A timestamp provided by sender to track their workflow. If it is empty APIGEE can send current system timestamp.",
            "required": false,
            "type": "string",
            "format": "date-time"
          },
          {
            "name": "workflowid",
            "in": "header",
            "description": "Workflow name (NEW/ADD/EXCHANGE/RETURN)/OrderTypes _ ACTIVATION ADDALINE CHANGEDEVICE_JUMP CHANGEDEVICE",
            "required": false,
            "type": "string"
          }
        ],
        "responses": {
          "200": {
            "description": "OK",
            "schema": {
              "$ref": "#/definitions/PaperlessBillActivitiesResponse"
            }
          },
          "400": {
            "description": "Bad request error",
            "schema": {
              "$ref": "#/definitions/PaperlessBillActivitiesResponse"
            }
          },
          "404": {
            "description": "Record not found",
            "schema": {
              "$ref": "#/definitions/PaperlessBillActivitiesResponse"
            }
          },
          "500": {
            "description": "The server encountered an unexpected condition which prevented it from fulfilling the request",
            "schema": {
              "$ref": "#/definitions/PaperlessBillActivitiesResponse"
            }
          }
        }
      },
      "delete": {
        "tags": [
          "paperless-bill"
        ],
        "summary": "paperless-bill",
        "operationId": "getPaperlessBillActivitiesDELETE",
        "consumes": [
          "application/json"
        ],
        "produces": [
          "application/json"
        ],
        "parameters": [
          {
            "in": "body",
            "name": "paperlessBillActivitiesDeleteRequest",
            "description": "Paperless Billing Delete Request",
            "required": true,
            "schema": {
              "$ref": "#/definitions/PaperlessBillActivitiesDeleteRequest"
            }
          },
          {
            "name": "Accept",
            "in": "header",
            "description": "Content-Types that are acceptable including application/json or application/xml (default assumed application/json)",
            "required": false,
            "type": "string"
          },
          {
            "name": "Accept-Charset",
            "in": "header",
            "description": "Character sets that are acceptable.",
            "required": false,
            "type": "string"
          },
          {
            "name": "Accept-Encoding",
            "in": "header",
            "description": "List of acceptable encodings. See HTTP compression.",
            "required": false,
            "type": "string"
          },
          {
            "name": "Accept-Language",
            "in": "header",
            "description": "List of acceptable human languages for response",
            "required": false,
            "type": "string"
          },
          {
            "name": "Authorization",
            "in": "header",
            "description": "OAuth 2.0 access token with the authentication type set as Bearer.",
            "required": true,
            "type": "string"
          },
          {
            "name": "Content-Type",
            "in": "header",
            "description": "The Content-Length header specifies the actual length of the returned payload.",
            "required": true,
            "type": "string"
          },
          {
            "name": "Date",
            "in": "header",
            "description": "The date and time that the message was originated (in HTTP-date format as defined by RFC 7231 Date/Time Formats).",
            "required": false,
            "type": "string",
            "format": "date-time"
          },
          {
            "name": "If-Modified-Since",
            "in": "header",
            "description": "The If-Modified-Since header specifies date-related conditions to be placed on the execution of a request.  The request will only be executed if the requested resource has not been modified since the date-time specified.  Because the behavior is complex, the details for usage are provided at http://www.w3.org/Protocols/rfc2616/rfc2616-sec14.html",
            "required": false,
            "type": "string"
          },
          {
            "name": "If-None-Match",
            "in": "header",
            "description": "The If-None-Match header specifies an ETag-related condition to be placed on the execution of a request.  The request will NOT be executed if the ETag of the requested resource matches one of those specified in the If-None-Match header.  Because the behavior is complex, the details for usage are provided at http://www.w3.org/Protocols/rfc2616/rfc2616-sec14.html",
            "required": false,
            "type": "string"
          },
          {
            "name": "activityid",
            "in": "header",
            "description": "Unique id alphanumeric value generated and sent by the partner to identify every the service request uniquely. Sample: XyzA:D1s5s1i-X6AFRvfiPBfs-1234  Pass as is to downstream calls.",
            "required": true,
            "type": "string"
          },
          {
            "name": "applicationid",
            "in": "header",
            "description": "Identifies the application, system, or tool that is being used to perform the transaction related to this request. Below are the sample values.ACUI, ESERVICE, REBELLION, WARP",
            "required": false,
            "type": "string"
          },
          {
            "name": "applicationuserid",
            "in": "header",
            "description": "NT id of the one who is managing the transaction from CARE/RETAIL channels.",
            "required": false,
            "type": "string"
          },
          {
            "name": "authcustomerid",
            "in": "header",
            "description": "Customer id _ of the person that is interacting with the system.",
            "required": false,
            "type": "string"
          },
          {
            "name": "authlineofserviceid",
            "in": "header",
            "description": "Service Line that the customer intends to operate on, while interacting with the system.",
            "required": false,
            "type": "string"
          },
          {
            "name": "channelid",
            "in": "header",
            "description": "Identifies the business unit or sales channel for the Request.Below are the sample values:            Care            TeleSales            FullService            BusinessDirect            FinancePartners            NonFinancePartners            SelfServiceAuthenticated            SelfServiceAnonymous            InteractiveVoiceResponse",
            "required": false,
            "type": "string"
          },
          {
            "name": "dealercode",
            "in": "header",
            "description": "Unique code to identify the dealer/rep user.",
            "required": false,
            "type": "integer",
            "format": "int32"
          },
          {
            "name": "interactionid",
            "in": "header",
            "description": "Alphanumeric value represent a common transaction id across all calls made from UI, while completing all business activity needs of a particular customer.",
            "required": false,
            "type": "string"
          },
          {
            "name": "segmentationid",
            "in": "header",
            "description": "Identifier of customers primary data center.Sample: Polaris,Titan",
            "required": false,
            "type": "string"
          },
          {
            "name": "senderid",
            "in": "header",
            "description": "Uniquely identifies an Operation consumer. Below are the sample values.ACUI, MYTMO, QVXP, REBELLION, WALMARTRETAIL, SAMSCLUBRETAIL.",
            "required": false,
            "type": "string"
          },
          {
            "name": "sessionid",
            "in": "header",
            "description": "A value populated by the sender used to track the transactions that occur during a session, a long-lasting interaction that ismaintained by the sender.",
            "required": false,
            "type": "string"
          },
          {
            "name": "storeid",
            "in": "header",
            "description": "Unique identifier for the retail store location.",
            "required": false,
            "type": "string"
          },
          {
            "name": "terminalid",
            "in": "header",
            "description": "Unique identifier for the retail store terminal. Needed for FullService  (Tmobile RETAIL channel). Need to discuss with T-Mobile business liaison if there is a need for Partner to pass their retail Store Id).",
            "required": false,
            "type": "string"
          },
          {
            "name": "tillid",
            "in": "header",
            "description": "Unique identifier for the retail register. Needed for FullService  (Tmobile RETAIL channel). Need to discuss with T-Mobile business liaison if there is a need for Partner to pass their retail Store Id).",
            "required": false,
            "type": "string"
          },
          {
            "name": "timestamp",
            "in": "header",
            "description": "A timestamp provided by sender to track their workflow. If it is empty APIGEE can send current system timestamp.",
            "required": false,
            "type": "string",
            "format": "date-time"
          },
          {
            "name": "workflowid",
            "in": "header",
            "description": "Workflow name (NEW/ADD/EXCHANGE/RETURN)/OrderTypes _ ACTIVATION ADDALINE CHANGEDEVICE_JUMP CHANGEDEVICE",
            "required": false,
            "type": "string"
          }
        ],
        "responses": {
          "200": {
            "description": "OK",
            "schema": {
              "$ref": "#/definitions/PaperlessBillActivitiesResponse"
            }
          },
          "400": {
            "description": "Bad request error",
            "schema": {
              "$ref": "#/definitions/PaperlessBillActivitiesResponse"
            }
          },
          "404": {
            "description": "Record not found",
            "schema": {
              "$ref": "#/definitions/PaperlessBillActivitiesResponse"
            }
          },
          "500": {
            "description": "The server encountered an unexpected condition which prevented it from fulfilling the request",
            "schema": {
              "$ref": "#/definitions/PaperlessBillActivitiesResponse"
            }
          }
        }
      }
    }
  },
  "definitions": {
    "PaperlessBillActivitiesResponse": {
      "type": "object",
      "properties": {
        "pbreason": {
          "type": "string"
        }
      }
    },
    "PaperlessBillActivitiesPostRequest": {
      "type": "object",
      "properties": {
        "financialAccountId": {
          "type": "string"
        },
        "email": {
          "type": "string"
        },
        "pbDeliveryMtd": {
          "type": "string"
        },
        "msisdn": {
          "type": "string"
        }
      }
    },
  "PaperlessBillActivitiesPutRequest": {
      "type": "object",
      "properties": {
        "financialAccountId": {
          "type": "string"
        },
        "email": {
          "type": "string"
        },
        "pbDeliveryMtd": {
          "type": "string"
        },
        "msisdn": {
          "type": "string"
        },
      "actcode": {
          "type": "string"
        }
      }
    },
  "PaperlessBillActivitiesDeleteRequest": {
      "type": "object",
      "properties": {
        "financialAccountId": {
          "type": "string"
        },
        "msisdn": {
          "type": "string"
        }
      }
    },
    "PaperlessBillActivitiesGetResponse": {
      "type": "object",
      "properties": {
        "paperlessBillCurrentEnrollmentList": {
          "type": "array",
          "items": {
            "$ref": "#/definitions/PaperlessBillCurrentEnrollmentRecord"
          }
        }
      }
    },
    "PaperlessBillCurrentEnrollmentRecord": {
      "type": "object",
      "properties": {
      "pbId": {
             "type": "integer",
            "format": "int32"
        },
        "financialAccountId": {
          "type": "string"
        },
        "effectiveDate": {
          "type": "string"
        },
        "email": {
          "type": "string"
        },
        "expirationDate": {
          "type": "string"
        },
        "pbDeliveryMtd": {
          "type": "string"
        },
        "pbStatus": {
          "type": "string"
        },
    "fullBillInd": {
      "type": "string"
    },
        "msisdn": {
          "type": "string"
        }
      }
    }
  }
}