@startuml
title Manager functionality  Override flow
Actor Rep
participant Client
Participant "OAM WebGate" as webgate
participant "Rebellion app server" as server
participant "API Gateway" as GW
participant "Experience Services" as ES
participant "Redis" as Cache
participant HAS
Participant "OAM Access Server" as OAM
participant TIBCO
Participant "OIM" as OIM
participant WSIL


group Rebellion User Login flow
Rep -> Client: Launch Rebellion
Client -> webgate: Request Acess to Rebellion ( URL)
webgate -> webgate : Intercept the request
webgate->OAM: Determine if resource is protected .
webgate->Client: Redirect to login page.
Client->Client: displays Login pageUI.
Rep->Client: Login(username , pwd)
Client -> webgate: Login(userid, PWD)
webgate->OAM: authenticate(uid, pwd)
OAM-->webgate: redirect uri + OAMAuthCookie
webgate->webgate: create userID cookie.
webgate->webgate: Set OAM Cookie
webgate-->Client: Set OAM Cookie for SSO and Redirect to requested URI
Client->Client: Persist OAM Cookie.
Client-> server : Load Rebbellion( OAM Cookie)
server -->Client: Rebellion app
Client->Client: Loading Rebellion Application
note left:client is now Rebellion UI
Client->HAS: getMACID or DeviceID()
Client-> GW: API_xx_RepProfile(OAM Cookie, [MACDID],[Device ID], OAM URL, userid= NTID, GrantType]
GW->ES: API_xx_RepProfile
ES->webgate:Validate OAM Cookie.
webgate-->ES: response 200 + userid
end

group Fetch Rep(user) profile data
ES-> TIBCO: UserSecurityEnterprise.getUSerDetails(UserID, [MACID, Device ID])
TIBCO-> POSDB: getStore ID ( MAC or Device ID)
TIBCO->OIM:USerSecurityenterrprise.GetUserdetails( user Id)
OIM-->TIBCO: user profile data( name , dealer code , role[array], channel segmentation , CRM channel.
TIBCO-->ES: user profile data
ES->Cache: Save UserProfile(Interaction ID,userid,User Segmentation, User Roles etc)
alt if Rep has multiple roles
ES-> ES: If Role exists as array
ES-->GW: role array
GW-->Client: Show Role array for selection
Client->Client: show Role selector
Rep->Client:Select Role
Client->GW: API_XXXPostRole(userId)
GW->ES: API_XXXPostRole(userId)
ES->Cache:Validate the Role in array(userid)
note left :for valid role selected then get enititlements
end
end
group Get Rep entitlements
ES-> TIBCO : EntitlementService. GetUserEntitlement(userid, role , Dealercode, Channel , Store IDetc)
TIBCO ->OES: get Entitlements
OES-->TIBCO: entitlements list
TIBCO-->ES: entitlements list
ES->ES: Create JWT token with embedded Entitlements and add user details from Gem Fire as well.
ES->Cache: Refer to ABF to UI mapping and /n Create Permissions object.
note left: The ABF mapping to UI elements is created in AEM and can be Persisted in Gem Fire
ES---> GW: JWT + Permissions Object.
GW->GW: Register JWT as OAuth Bearer Token.
GW-->Client: JWT + Permissions Object
Client->Client: Print UI as per permissions object.
end



@enduml
