@startuml
title ReverseCreditAdjustment-CR749

actor "Customer" as Customer
actor "Rep" as Rep
participant "Rebellion UI" as UI
participant "API Gateway" as GW
participant "Experience Services" as ES
participant "WSIL" as WSIL
participant "REEF" as Reef



note over UI: Rebellion Application is initialized

Customer -> Rep : Customer calls Care Rep \n or visits retail store to enquire \n about pending credit adjustments
Rep -> UI : Rep pulls up customer’s account \n and navigates to the "Bill Details" \n page which displays charges

UI -> UI : Customer is verified

UI -> GW : API_2051_getTransactionSummary
GW -> ES : API_2051_getTransactionSummary

ES -> WSIL : FinancialAccountWSIL.getTransactionalSummary
ES <-- WSIL :

GW <-- ES
UI <-- GW
UI->UI: Display all posted adjustments for \n the account
Note left :Rep has ABF for courtesy credit


/'****************************************************'/

Rep -> UI : Rep selects the cerdit \n transaction to be reversed

UI->GW: API_2052_getTransactionHistory
GW->ES: API_2052_getTransactionHistory
ES->WSIL: FinancialAccountWSIL.getTransactionalDetails

ES<--WSIL
GW <-- ES
UI <-- GW

UI -> UI : Display Transactional Details

/'****************************************************'/

alt REVERSE posted credit adjustment

Rep -> UI : Rep opts to REVERSE the selected credit \n adjustment and provides reversal ammount
UI->UI: Credit reversals CTA
UI -> GW : API_2627_paymentRefund \n (FAN, correlationID/billingID, reversalAmount<=balance...)
GW -> ES : API_2627_paymentRefund \n (FAN, correlationID/billingID, reversalAmount<=balance...)

ES -> WSIL : PaymentProcessorWSIL.processReversals
ES <-- WSIL

GW <-- ES
UI <-- GW

UI -> UI : Dispaly refreshed history

Reef -> Customer : Publish approval of credit adjustment request for customer/account notification
end

/'****************************************************'/


/'****************************************************'/


@enduml
