@startuml
title Fraud Routing

participant "Rebellion UI" as UI
participant "API Gateway" as GW
participant "Experience Services" as ES
participant "Experience Services Cache" as ESCH
participant "AEM" as AEM
participant "WSIL" as WSIL
participant "Event Enterprise" as EventEnterprise


UI->UI: Rep login()

note over UI: Fraud routing request can be initiated for anonymous customer


/'****************************************************'/

UI -> GW : API_2021_getRepDashLookupCriteria
GW -> ES : API_2021_getRepDashLookupCriteria

ES -> AEM : GetEventReferenceData(type=FraudRoutingReasons)
ES <-- AEM

ES -> EventEnterprise : EventEnterprise.getActivityReferenceData
ES <-- EventEnterprise

ES -> WSIL : CaseWSIL.getCaseReasonCodes
ES <-- WSIL

GW <-- ES
UI <-- GW

UI->UI: Rep clicks Fraud Routing from Repdash Tools
UI -> UI: Populate Reason Codes dropdown

/'****************************************************'/


UI -> UI: Address is populated from Account landing data (if available)
UI -> UI: Rep fills fraud routing form
UI -> UI: Rep clicks Submit


/'****************************************************'/

UI -> GW : API_2004_addressValidation
GW -> ES : API_2004_addressValidation


ES -> WSIL : addressWSIL.validateAddress
ES <-- WSIL

GW <-- ES
UI <-- GW


/'****************************************************'/

UI -> UI: Choose Address from Confirmation pop up
UI -> UI: Rep clicks Continue


/'****************************************************'/

UI -> GW : API_2204_postFraudRoutingRequest
GW -> ES : API_2204_postFraudRoutingRequest


ES -> WSIL : caseWSIL.createCase (transactionType=ZTFR)
ES <-- WSIL

GW <-- ES
UI <-- GW : (Case id)

UI->UI: Case Created

/'****************************************************'/
@enduml
