@startuml
skinparam SequenceMessageAlign left
actor "TIBCOBW-AAMREEFEventHandler" as AAMREEFEventHandler
participant "AAM" as AAM
	group PortOutDeactivation
		AAMREEFEventHandler -> AAM : Invoke AAM's PortOutDeactivation operation SOAP call 
        note right: SB sequence diagram not available in Clearwater for this API
		AAM -> AAMREEFEventHandler : Return response back		
	end
    AAMREEFEventHandler -> AAMREEFEventHandler : Confirm to JMS message
@enduml