{
  "swagger": "2.0",
  "info": {
    "version": "0.1.0",
    "title": "Service Providers API",
    "description": "This API provides list of Service Providers (Carriers)",
    "contact": {
      "name": "Umesh Kadam",
      "url": "http://www.t-mobile.com",
      "email": "umesh.kadam1@t-mobile.com"
    }
  },
  "x-createdBy": {
    "dateCreated": "Fri Nov 15 12:00:00 2019",
    "createdBy": "Umesh Kadam",
    "application": "TPAS",
    "status": "Draft",
    "classification": "Service Providers",
    "profile": "Core Business Capability Service"
  },
  "tags": [
    {
      "name": "ServiceProviders",
      "description": "Service Providers API"
    }
  ],
  "schemes": [
    "https"
  ],
  "host": "tpas.t-mobile.com",
  "basePath": "/tpas/v1",
  "x-servers": [
    {
      "url": "https://tpas-staging.t-mobile.com",
      "description": "Sandbox"
    },
    {
      "url": "https://tpas.t-mobile.com",
      "description": "Production"
    }
  ],
  "paths": {
    "/service-providers": {
      "get": {
        "x-api-pattern": "QueryCollection",
        "operationId": "get list of Service Providers (Carriers)",
        "tags": [
          "ServiceProviders"
        ],
        "summary": "This API provides list of Service Providers (Carriers)",
        "description": "This API provides list of Service Providers (Carriers) Details like ServiceProviderCode, Name and ShortName",
        "produces": [
          "application/json"
        ],
        "parameters": [
          {
            "name": "Content-Type",
            "in": "header",
            "description": "The MIME type of the content",
            "x-example": "application/json",
            "required": true,
            "type": "string",
            "minLength": 1,
            "maxLength": 256,
            "pattern": "^[ \\S]+$"
          },
          {
            "name": "service-transaction-id",
            "in": "header",
            "description": "The unique alpha-numeric id that is generated by the consumer of the API and is maintained through the customer transaction lifecycle",
            "x-example": "2ah34d092A9723",
            "required": true,
            "type": "string",
            "minLength": 10,
            "maxLength": 20,
            "pattern": "^[a-zA-Z0-9]*$"
          },
          {
            "name": "channel-id",
            "in": "header",
            "description": "Captures the channel being used to invoke the API. Supported values are WEB|CARE|RETAIL|APP",
            "x-example": "WEB",
            "required": true,
            "type": "string",
            "enum": [
              "WEB",
              "RETAIL",
              "APP",
              "CARE"
            ]
          },
          {
            "name": "partner-id",
            "in": "header",
            "description": "Unique id alphanumeric value generated by TMO to identify the partner uniquely. Example: Par12345ABCEF",
            "x-example": "Par12345ABCEF",
            "required": true,
            "type": "string",
            "minLength": 10,
            "maxLength": 20,
            "pattern": "^[a-zA-Z0-9]*$"
          },
          {
            "name": "activity-id",
            "in": "header",
            "description": "Unique alphanumeric ID value generated  by the consumer of the API and it is unique for each API request. This is used to track each API request.",
            "x-example": "c34e7acd-384b-4c22-8b02-ba3963682508",
            "required": true,
            "type": "string",
            "minLength": 36,
            "maxLength": 36,
            "pattern": "([a-fA-F0-9]{8}-[a-fA-F0-9]{4}-[a-fA-F0-9]{4}-[a-fA-F0-9]{4}-[a-fA-F0-9]{12}){1}"
          },
            {
			"name": "Authorization",
			"in": "header",
			"description": "OAuth 2.0 access token with the authentication type set as Bearer.",
			"x-example": "Bearer eyJraWQiOiI0Nzc1M2UzZi0zOGFjLTQ1ODQtZDcxYy0zZDgxYTE1Nzk5NWMiLCJ0eXAiOiJKV",
			"required": true,
			"type": "string",
			"pattern": "^[\\S ]+$"
			},
		   {
			"name": "x-authorization",
			"in": "header",
			"description": "Proof of Possession POP token, signed JWT object using client Private Key.",
			"required": true,
			"type": "string",
			"pattern": "^[\\S]*$",
			"x-example": "YUFSbFZ.HQ1p5dE5KMzV6RVAzOVFneXFUS0tRM1VONHM6Qmt.YN0c5RmQxTnNEaHRsWg=="
			},
			{
			"name": "x-auth-originator",
			"in": "header",
			"description": "OAuth 2.0 access token with the authentication type set as Bearer (id token).",
			"required": true,
			"type": "string",
			"pattern": "^[\\S]*$",
			"x-example": "aasFAFq3fwsdgsw4GTgw442.sdjbfsdjksg2o34t.dsfbhifh9h2wf92f"
			}
        ],
        
		"security": [
			{
				"oauth2": []
			}
		],
        "responses": {
          "200": {
            "description": "ServiceProviderResponse",
            "schema": {
              "$ref": "#/definitions/ServiceProvidersResponse"
            },
            "headers": {
              "Content-Type": {
                "type": "string",
                "description": "content type",
                "x-example": "application/json",
                "pattern": "^[\\w ]+$",
                "minLength": 0,
                "maxLength": 256
              },
              "Cache-Control": {
                "type": "string",
                "description": "No cache indicators supported at this time. Samples: no-cache",
                "x-example": "no-cache",
                "pattern": "^[\\S]*$",
                "minLength": 1,
                "maxLength": 256
              },
              "service-transaction-id": {
                "description": "The unique alpha-numeric id that is generated by the consumer of the API and is maintained through the customer transaction lifecycle",
                "x-example": "2ah34d092A9723",
                "type": "string",
                "minLength": 10,
                "maxLength": 20,
                "pattern": "^[a-zA-Z0-9]*$"
              },
              "Date": {
                "description": "The Date general HTTP header contains the date and time at which the message was originated.",
                "x-example": "Mon, 05 Mar 2018 16:38:08 GMT",
                "type": "string",
                "format": "date-time",
                "pattern": "^(Mon|Tue|Wed|Thu|Fri|Sat|Sun), [0-3]{1}[0-9]{1} (Jan|Feb|Mar|Apr|May|Jun|Jul|Aug|Sep|Oct|Nov|Dec) [1-3][0-9]{3} [0-2][0-9]:[0-6][0-9]:[0-6][0-9] GMT$"
              }
            },
            "examples": {
              "application/json":{
                "serviceProviderDetails": [
                  {
                    "serviceProviderCode": "611",
                    "serviceProviderName": "T-Mobile TELECOM",
                    "serviceProviderShortName": "T-MO"
                  }
                ]
              }
            }
          },
          "400": {
            "description": "Bad Request.",
            "schema": {
              "$ref": "#/definitions/ErrorResponse"
            },
            "examples": {
              "application/json": {
                "code": "400",
                "userMessage": "Bad Request.",
                "systemMessage": "Bad Request.",
                "detailLink": "http://www.tmus.com"
              }
            },
            "headers": {
            }
          },
          "401": {
            "description": "Unauthorized.",
            "schema": {
              "$ref": "#/definitions/ErrorResponse"
            },
            "examples": {
              "application/json": {
                "code": "401",
                "userMessage": "Unauthorized.",
                "systemMessage": "Unauthorized.",
                "detailLink": "http://www.tmus.com"
              }
            },
            "headers": {
            }
          },
          "404": {
            "description": "Resource not found.",
            "schema": {
              "$ref": "#/definitions/ErrorResponse"
            },
            "examples": {
              "application/json": {
                "code": "404",
                "userMessage": "Resource not found.",
                "systemMessage": "Resource not found.",
                "detailLink": "http://www.tmus.com"
              }
            },
            "headers": {
            }
          },
          "405": {
            "description": "Method Not Allowed.",
            "schema": {
              "$ref": "#/definitions/ErrorResponse"
            },
            "examples": {
              "application/json": {
                "code": "405",
                "userMessage": "Method Not Allowed.",
                "systemMessage": "Method Not Allowed.",
                "detailLink": "http://www.tmus.com"
              }
            },
            "headers": {
              "Allow": {
                "description": "list of supported methods for URI",
                "x-example": "GET",
                "type": "string",
                "minLength": 1,
                "maxLength": 256,
                "pattern": "^[\\S]*$"
              },
              "service-transaction-id": {
                "description": "The unique alpha-numeric id that is generated by the consumer of the API and is maintained through the customer transaction lifecycle",
                "x-example": "2ah34d092A9723",
                "type": "string",
                "minLength": 10,
                "maxLength": 20,
                "pattern": "^[a-zA-Z0-9]*$"
              }
            }
          },
          "406": {
            "description": "Not Acceptable.",
            "schema": {
              "$ref": "#/definitions/ErrorResponse"
            },
            "examples": {
              "application/json": {
                "code": "409",
                "userMessage": "Not Acceptable.",
                "systemMessage": "Not Acceptable.",
                "detailLink": "http://www.tmus.com"
              }
            },
            "headers": {
            }
          },
          "500": {
            "description": "System Error.",
            "schema": {
              "$ref": "#/definitions/ErrorResponse"
            },
            "examples": {
              "application/json": {
                "code": "500",
                "userMessage": "System Error.",
                "systemMessage": "System Error.",
                "detailLink": "http://www.tmus.com"
              }
            },
            "headers": {
            }
          },
          "503": {
            "description": "Service unavailable.",
            "schema": {
              "$ref": "#/definitions/ErrorResponse"
            },
            "examples": {
              "application/json": {
                "code": "503",
                "userMessage": "Service unavailable.",
                "systemMessage": "Service unavailable.",
                "detailLink": "http://www.tmus.com"
              }
            },
            "headers": {
            }
          }
        }
      }
    }
  },
  "definitions": {
    "ErrorResponse": {
      "description": "Error Response Object returned for all error scenarios ",
      "type": "object",
      "required": [
        "code",
        "userMessage"
      ],
      "properties": {
        "code": {
          "description": "A succinct, domain-specific, human-readable text string to identify the type of error for the given status code",
          "example": "503",
          "minLength": 3,
          "maxLength": 5,
          "type": "string",
          "pattern": "^[0-9]*$"
        },
        "userMessage": {
          "description": "A human-readable message describing the error.",
          "example": "Service unavailable.",
          "minLength": 10,
          "maxLength": 1024,
          "type": "string",
          "pattern": "^[\\S ]+$"
        },
        "systemMessage": {
          "description": "Text that provides a more detailed technical explanation of the error",
          "example": "Service unavailable.",
          "minLength": 10,
          "maxLength": 1024,
          "type": "string",
          "pattern": "^[ \\S]+$"
        },
        "detailLink": {
          "description": "link to custom information providing greater detail on error or errors",
          "example": "http://www.tmus.com",
          "minLength": 10,
          "maxLength": 1024,
          "type": "string",
          "pattern": "^[ \\S]+$"
        }
      }
    },
    "ServiceProvidersResponse": {
      "type": "object",
      "description": "Object containing a list of Service Providers (Carriers)",
      "properties": {
        "serviceProviderDetails": {
          "description": "Service Providers Details Response Body",
          "type": "array",
          "items": {
            "$ref": "#/definitions/ServiceProviderDetails"
          }
        }
      }
    },
    "ServiceProviderDetails": {
      "type": "object",
      "description": "Describes the response structure for Service Provider details",
      "properties": {
        "serviceProviderCode": {
          "description": "Service Provider (Carrier) code from CARRIER table. In case of Port-in, this should be T-Mobile code",
          "type": "string",
          "example": "611",
          "pattern": "^[\\d]+$",
          "minLength": 3,
          "maxLength": 4
        },
        "serviceProviderName": {
          "description": "The name of the service provider (Carrier)",
          "type": "string",
          "example": "T-Mobile TELECOM",
          "pattern": "^[\\S]*$",
          "minLength": 0,
          "maxLength": 40
        },
        "serviceProviderShortName": {
          "description": "The short name of the service provider",
          "type": "string",
          "example": "T-MO",
          "pattern": "^[\\S]*$",
          "minLength": 0,
          "maxLength": 15
        },
        "error":{
          "$ref": "#/definitions/ErrorResponse"
        }
      }
    }
  },
   "securityDefinitions": {
   		"oauth2": {
			"type": "oauth2",
			"description": "oauth2 Authentication",
			"tokenUrl": "https://host:env/v1/oauth2/accesstoken?grant_type=client_credentials",
			"flow": "application",
			"scopes": {
				
			}
		}
	
   }
}
