{
  "swagger": "2.0",
  "info": {
    "title": "APCFE Health Check APIs",
    "description": "APCFE Health Check APIs",
    "version": "1.0.0",
    "contact": {
      "name": "DICE API COE",
      "url": "http://www.t-mobile.com",
      "email": "DICEAPICOE@T-Mobile.com"
    },
    "x-createdBy": {
      "dateCreated": "Friday August 24 10:10:02 2018",
      "createdBy": "Venkatesh Gontla",
      "application": "Recite",
      "appVersion": "0.3.8.2201",
      "documentId": "39e22044-fe01-4396-a35e-228d375900f9",
      "status": "Conceptual - Initial",
      "classification": "16.4.1 Staffing/Sourcing Strategy Mgmt.",
      "profile": "Application Integration Service",
      "serviceLayer": "Resource - Other"
    }
  },
  "host": "env.api.t-mobile.com",
  "basePath": "/apicoe/v1/latency-check-pcf",
  "schemes": [
    "https"
  ],
  "x-servers": [
    {
      "url": "https://tmobileb-sb01.apigee.net/jwttoken-demo/v1/orders",
      "description": "Sandbox Server"
    },
    {
      "url": "https://api.t-mobile.com/hr/v1/employees",
      "description": "Live Server"
    }
  ],
  "tags": [
    {
      "name": "Metadata API",
      "description": "Metadata API operations."
    }
  ],
  "consumes": [
    "application/json"
  ],
  "produces": [
    "application/json"
  ],
  "paths": {
    "/metadata": {
      "post": {
        "x-api-pattern": "CreateInCollection",
        "tags": [
          "CreateData"
        ],
        "description": "This resource can be used to post date",
        "operationId": "createDataInfo",
        "consumes": [
          "application/json"
        ],
        "produces": [
          "application/json"
        ],
        "parameters": [
          {
            "name": "order",
            "in": "body",
            "description": "The request payload for the posting data",
            "required": false,
            "schema": {
              "$ref": "#/definitions/Order"
            }
          },
          {
            "name": "Authorization",
            "in": "header",
            "description": "Authorization header for the request.",
            "required": true,
            "type": "string",
            "pattern": "Bearer .*$",
			"minLength": 0,
            "maxLength": 50,
            "x-example": "Bearer WoOhe88khLZ3rMVqujG9GGa4PRH2"
          },
          {
            "name": "Date",
            "in": "header",
            "description": "The date and time of the request.",
            "required": false,
            "type": "string",
            "format": "date-time",
			"minLength": 0,
            "maxLength": 50,
            "x-example": "Friday, 24 Aug 2018 16:38:08 GMT"
          },
          {
            "name": "Content-Type",
            "in": "header",
            "description": "The content-type of request body.",
            "required": true,
            "type": "string",
            "pattern": ".*$",
			"minLength": 0,
            "maxLength": 50,
            "x-example": "application/json; charset=UTF-8"
          },
          {
            "name": "Accept",
            "in": "header",
            "description": "The preferred content type.",
            "required": false,
            "type": "string",
			"minLength": 0,
            "maxLength": 50,
            "x-example": "application/json"
          },
          {
            "name": "Accept-Encoding",
            "in": "header",
            "description": "The preferred encoding of response body for better performance.",
            "required": false,
            "type": "string",
			"minLength": 0,
            "maxLength": 50,
            "x-example": "gzip"
          },
          {
            "name": "Accept-Language",
            "in": "header",
            "description": "Represents the list of natural languages preferred in response.",
            "required": false,
            "type": "string",
			"minLength": 0,
            "maxLength": 50,
            "x-example": "en"
          },
          {
            "name": "Content-Length",
            "in": "header",
            "description": "Represents the length of request body in octets.",
            "required": false,
            "type": "string",
			"minLength": 0,
            "maxLength": 50,
            "x-example": "1024"
          },
          {
            "name": "If-None-Match",
            "in": "header",
            "description": "This header is used for conditional GET: success if representation exists with specified ETag.",
            "required": false,
            "type": "string",
			"minLength": 0,
            "maxLength": 50,
            "x-example": "069dbb7e7b3d7338f3ac7b82da65c22d0"
          },
          {
            "name": "If-Modified-Since",
            "in": "header",
            "description": "This header is used for conditional GET: success if representation exists with more recent date than specified.",
            "required": false,
            "type": "string",
			"minLength": 0,
            "maxLength": 50,
            "x-example": "Friday, 24 Aug 2018 16:38:08 GMT"
          },
          {
            "name": "If-Unmodified-Since",
            "in": "header",
            "description": "This header is used for conditional POST, PUT, PATCH, DELETE: success if no representation exists with more recent date than specified.",
            "required": false,
            "type": "string",
			"minLength": 0,
            "maxLength": 50,
            "x-example": "Friday, 24 Aug 2018 16:38:08 GMT"
          },
          {
            "name": "Prefer",
            "in": "header",
            "description": "This header is used to determine whether to return an empty response body after a create or update.",
            "required": false,
            "type": "string",
			"minLength": 0,
            "maxLength": 50,
            "x-example": "return=representation"
          },
          {
            "name": "activity-id",
            "in": "header",
            "description": "The unique identifier of the request.",
            "required": false,
            "type": "string",
			"minLength": 0,
            "maxLength": 50,
            "x-example": "c34e7acd-384b-4c22-8b02-ba3963682508"
          }
        ],
        "responses": {
          "201": {
            "description": "Created",
			"schema": {
              "$ref": "#/definitions/Order"
            },
            "headers": {
			  "Content-Type": {
                "description": "The Content-Type header",
                "x-example": "application/json",
                "type": "string"
              },
              "Content-Encoding": {
                "description": "The type of encoding used on the data.",
                "type": "string",
                "x-example": "gzip",
				"minLength": 0,
                "maxLength": 50,
                "pattern": ".*$"
              },
              "Content-Language": {
                "description": "The natural language or languages of the intended audience for the enclosed content.",
                "type": "string",
                "x-example": "en",
				"minLength": 0,
                "maxLength": 50,
                "pattern": ".*$"
              },
              "Content-Length": {
                "description": "The Content-Length header specifies the actual length of the returned payload.",
                "x-example": "1024",
                "type": "string",
				"minLength": 0,
                "maxLength": 50,
                "pattern": ".*$"
              },
              "Date": {
                "description": "The date and time of the request based on the clock on server side.",
                "x-example": "Date: Mon, 05 Mar 2018 16:38:08 GMT",
                "type": "string",
                "format": "date-time",
				"minLength": 0,
                "maxLength": 50,
                "pattern": ".*$"
              },
              "Transfer-Encoding": {
                "description": "Indicates that data is streamed as a series of chunks with the final zero-length chunk indicating completion.",
                "x-example": "chunked",
                "type": "string",
				"minLength": 0,
                "maxLength": 50,
                "pattern": ".*$"
              },
              "Expires": {
                "description": "The Expires response header contains the date/time after which the response is considered stale.",
                "x-example": "Mon, 05 Mar 2018 16:38:08 GMT",
                "type": "string",
				"minLength": 0,
                "maxLength": 50,
                "pattern": ".*$"
              },
              "Last-Modified": {
                "description": "The last modification date of the resource.",
                "x-example": "Mon, 05 Mar 2018 16:38:08 GMT",
                "type": "string",
				"minLength": 0,
                "maxLength": 50,
                "pattern": ".*$"
              },
              "ETag": {
                "description": "The version of the resource, usually a hash of the representation.",
                "x-example": "069dbb7e7b3d7338f3ac7b82da65c22d0",
                "type": "string",
				"minLength": 0,
                "maxLength": 50,
                "pattern": ".*$"
              },
              "Preference-Applied": {
                "description": "Indicates that the prefer header specified in the request was successfully applied.",
                "x-example": "return=minimal",
                "type": "string",
				"minLength": 0,
                "maxLength": 50,
                "pattern": ".*$"
              },
              "Cache-Control": {
                "description": "Cache policy supported for the resource by the server, max-age indicates the number of seconds, x, after which the response is stale, no-cache means the client or intermediate cache must not re-use the representation without checking the ETag with the server: if possible, it is preferable to use a low value for max-age instead, no-store means the client is not allowed to cache the representation.",
                "x-example": "max-age=3600",
                "type": "string",
				"minLength": 0,
                "maxLength": 50,
                "pattern": ".*$"
              },
              "Location": {
                "description": "the URI of the newly created resource.",
                "x-example": "Location: http://api.tmo.com/billing/v1/accounts/33c093e9b05",
                "type": "string",
				"minLength": 0,
                "maxLength": 50,
                "pattern": ".*$"
              }
            },
			"examples": {
				"application/json": {
					"orderId": "11233211",
					"productName": "product name",
					"accountNumber": "123456789"
				}
			}
          },
          "400": {
            "description": "Bad Request",
            "schema": {
              "$ref": "#/definitions/Error"
            },
            "examples": {
              "application/json": {
                "code": "HR-0400",
                "userMessage": "Bad Request",
                "systemMessage": "Bad Request",
                "detailLink": "https://dev01.api.t-mobile.com/hr/v1/errors/21b7c4d3"
              }
            }
          },
          "401": {
            "description": "Unauthorized",
            "schema": {
              "$ref": "#/definitions/Error"
            },
            "examples": {
              "application/json": {
                "code": "HR-0401",
                "userMessage": "Unauthorized",
                "systemMessage": "Unauthorized",
                "detailLink": "https://dev01.api.t-mobile.com/hr/v1/errors/21b7c4d3"
              }
            }
          },
          "403": {
            "description": "Forbidden",
            "schema": {
              "$ref": "#/definitions/Error"
            },
            "examples": {
              "application/json": {
                "code": "HR-0403",
                "userMessage": "Forbidden",
                "systemMessage": "Forbidden",
                "detailLink": "https://dev01.api.t-mobile.com/hr/v1/errors/21b7c4d3"
              }
            }
          },
          "404": {
            "description": "Resource not found",
            "schema": {
              "$ref": "#/definitions/Error"
            },
            "examples": {
              "application/json": {
                "code": "HR-0404",
                "userMessage": "Resource not found",
                "systemMessage": "Resource not found",
                "detailLink": "https://dev01.api.t-mobile.com/hr/v1/errors/21b7c4d3"
              }
            }
          },
          "405": {
            "description": "Method not allowed",
            "schema": {
              "$ref": "#/definitions/Error"
            },
            "headers": {
              "Allow": {
                "description": "List of supported methods for URI.",
                "x-example": "Allow: PUT, GET",
                "type": "string"
              }
            },
            "examples": {
              "application/json": {
                "code": "HR-0405",
                "userMessage": "Method not allowed",
                "systemMessage": "Method not allowed",
                "detailLink": "https://dev01.api.t-mobile.com/hr/v1/errors/21b7c4d3"
              }
            }
          },
          "406": {
            "description": "Not Acceptable",
            "schema": {
              "$ref": "#/definitions/Error"
            },
            "examples": {
              "application/json": {
                "code": "HR-0406",
                "userMessage": "Not Acceptable",
                "systemMessage": "Not Acceptable",
                "detailLink": "https://dev01.api.t-mobile.com/hr/v1/errors/21b7c4d3"
              }
            }
          },
          "409": {
            "description": "Invalid data",
            "schema": {
              "$ref": "#/definitions/Error"
            },
            "examples": {
              "application/json": {
                "code": "HR-0409",
                "userMessage": "Invalid data",
                "systemMessage": "Invalid data",
                "detailLink": "https://dev01.api.t-mobile.com/hr/v1/errors/21b7c4d3"
              }
            }
          },
          "415": {
            "description": "Unsupported media type",
            "schema": {
              "$ref": "#/definitions/Error"
            },
            "examples": {
              "application/json": {
                "code": "HR-0415",
                "userMessage": "Unsupported media type",
                "systemMessage": "Unsupported media type",
                "detailLink": "https://dev01.api.t-mobile.com/hr/v1/errors/21b7c4d3"
              }
            }
          },
          "500": {
            "description": "System Error",
            "schema": {
              "$ref": "#/definitions/Error"
            },
            "examples": {
              "application/json": {
                "code": "HR-0500",
                "userMessage": "System Error",
                "systemMessage": "System Error",
                "detailLink": "https://dev01.api.t-mobile.com/hr/v1/errors/21b7c4d3"
              }
            }
          },
          "503": {
            "description": "Service unavailable",
            "schema": {
              "$ref": "#/definitions/Error"
            },
            "examples": {
              "application/json": {
                "code": "HR-0503",
                "userMessage": "Service unavailable",
                "systemMessage": "Service unavailable",
                "detailLink": "https://dev01.api.t-mobile.com/hr/v1/errors/21b7c4d3"
              }
            }
          }
        },
        "summary": "Post Data",
        "security": [
          {
            "Oauth": [
              "post:DataCreation"
            ]
          }
        ]
      },
      "get": {
        "x-api-pattern": "QueryCollection",
        "tags": [
          "GetData"
        ],
        "description": "This resource can be used to fetch the data details",
        "operationId": "getData",
        "produces": [
          "application/json"
        ],
        "parameters": [
		  {
            "name": "Authorization",
            "in": "header",
            "description": "Authorization header for the request.",
            "required": true,
            "type": "string",
            "pattern": "Bearer .*$",
            "x-example": "Bearer WoOhe88khLZ3rMVqujG9GGa4PRH2"
          }
        ],
        "responses": {
          "200": {
            "description": "ok",
			"schema": {
                "type": "array",
				"description": "Represents the response payload for orders",
				"minItems": 0,
				"maxItems": 2000,
				"items": {
				    "$ref": "#/definitions/Order"
				},
				"example": [{
				    "orderId": "11233211"
				}]
            },
            "headers": {
              "Content-Encoding": {
                "description": "The type of encoding used on the data.",
                "type": "string",
                "pattern": ".*$",
                "x-example": "gzip",
                "minLength": 0,
                "maxLength": 500
              },
			  "Content-Type": {
                "description": "The Content-Type header",
                "x-example": "application/json",
                "type": "string"
              },
              "Content-Language": {
                "description": "The natural language or languages of the intended audience for the enclosed content.",
                "type": "string",
                "x-example": "en",
                "pattern": ".*$",
                "minLength": 0,
                "maxLength": 500
              },
              "Content-Length": {
                "description": "The Content-Length header specifies the actual length of the returned payload.",
                "x-example": "1024",
                "type": "string",
                "pattern": ".*$",
                "minLength": 0,
                "maxLength": 500
              },
              "Date": {
                "description": "The date and time of the request based on the clock on server side.",
                "x-example": "Date: Mon, 05 Mar 2018 16:38:08 GMT",
                "type": "string",
                "format": "date-time",
                "minLength": 0,
                "maxLength": 20
              },
              "Transfer-Encoding": {
                "description": "Indicates that data is streamed as a series of chunks with the final zero-length chunk indicating completion.",
                "x-example": "chunked",
                "type": "string",
                "pattern": ".*$",
                "minLength": 0,
                "maxLength": 500
              },
              "Expires": {
                "description": "The Expires response header contains the date/time after which the response is considered stale.",
                "x-example": "Mon, 05 Mar 2018 16:38:08 GMT",
                "type": "string",
                "pattern": ".*$",
                "minLength": 0,
                "maxLength": 500
              },
              "Last-Modified": {
                "description": "The last modification date of the resource.",
                "x-example": "Mon, 05 Mar 2018 16:38:08 GMT",
                "type": "string",
                "pattern": ".*$",
                "minLength": 0,
                "maxLength": 100
              },
              "ETag": {
                "description": "The version of the resource, usually a hash of the representation.",
                "x-example": "069dbb7e7b3d7338f3ac7b82da65c22d0",
                "type": "string",
                "pattern": ".*$",
                "minLength": 0,
                "maxLength": 500
              },
              "Preference-Applied": {
                "description": "Indicates that the prefer header specified in the request was successfully applied.",
                "x-example": "return=minimal",
                "type": "string",
                "pattern": ".*$",
                "minLength": 0,
                "maxLength": 500
              },
              "Location": {
                "description": "The URI of the newly created resource",
                "x-example": "http://api.tmo.com/billing/v1/accounts/33c093e9b05",
                "type": "string",
                "pattern": ".*$",
                "minLength": 0,
                "maxLength": 500
              },
              "Cache-Control": {
                "description": "Cache policy supported for the resource by the server, max-age indicates the number of seconds, x, after which the response is stale, no-cache means the client or intermediate cache must not re-use the representation without checking the ETag with the server: if possible, it is preferable to use a low value for max-age instead, no-store means the client is not allowed to cache the representation.",
                "x-example": "max-age=3600",
                "type": "string",
                "pattern": ".*$",
                "minLength": 0,
                "maxLength": 500
              }
            },
			"examples": {
				"application/json": [{
					"orderId": "11233211",
					"productName": "product name",
					"accountNumber": "123456789"
				}]
			}
          },
          "400": {
            "description": "Bad Request",
            "schema": {
              "$ref": "#/definitions/Error"
            },
            "examples": {
              "application/json": {
                "code": "MD-0400",
                "userMessage": "Bad Request",
                "systemMessage": "Bad Request"
              }
            }
          },
          "401": {
            "description": "Unauthorized",
            "schema": {
              "$ref": "#/definitions/Error"
            },
            "examples": {
              "application/json": {
                "code": "MD-0401",
                "userMessage": "Unauthorized",
                "systemMessage": "Unauthorized"
              }
            }
          },
          "404": {
            "description": "Resource not found",
            "schema": {
              "$ref": "#/definitions/Error"
            },
            "examples": {
              "application/json": {
                "code": "MD-0404",
                "userMessage": "Resource not found",
                "systemMessage": "Resource not found"
              }
            }
          },
          "405": {
            "description": "Method not allowed",
            "schema": {
              "$ref": "#/definitions/Error"
            },
            "headers": {
              "Allow": {
                "description": "List of supported methods for URI.",
                "x-example": "Allow: PUT, GET",
                "type": "string",
                "minLength": 0,
                "maxLength": 50,
                "pattern": ".*$"
              }
            },
            "examples": {
              "application/json": {
                "code": "MD-0405",
                "userMessage": "Method not allowed",
                "systemMessage": "Method not allowed"
              }
            }
          },
          "406": {
            "description": "Not Acceptable",
            "schema": {
              "$ref": "#/definitions/Error"
            },
            "examples": {
              "application/json": {
                "code": "MD-0406",
                "userMessage": "Not Acceptable",
                "systemMessage": "Not Acceptable"
              }
            }
          },
          "500": {
            "description": "System Error",
            "schema": {
              "$ref": "#/definitions/Error"
            },
            "examples": {
              "application/json": {
                "code": "MD-0500",
                "userMessage": "System Error",
                "systemMessage": "System Error"
              }
            }
          },
          "503": {
            "description": "Service unavailable",
            "schema": {
              "$ref": "#/definitions/Error"
            },
            "examples": {
              "application/json": {
                "code": "MD-0503",
                "userMessage": "Service unavailable",
                "systemMessage": "Service unavailable"
              }
            }
          }
        },
        "summary": "Get Data",
        "security": [
          {
            "Oauth": []
          }
        ]
      }
    }
  },
  "definitions": {
    "Order": {
      "type": "object",
      "description": "Represents the request payload for Order",
      "properties": {
        "orderId": {
          "$ref": "#/definitions/OrderId"
        },
        "productName": {
          "$ref": "#/definitions/ProductName"
        },
        "accountNumber": {
          "$ref": "#/definitions/AccountNumber"
        }
      },
      "example": {
        "orderId": "11233211",
        "productName": "product name",
        "accountNumber": "123456789"
      }
    },
    "OrderId": {
      "type": "string",
      "description": "Represents the system of record unique id for each request.",
	  "minLength": 0,
      "maxLength": 50,
      "pattern": ".*$",
      "x-example": "5691e1fb-126a-4f79-94de-471584518a07"
    },
    "ProductName": {
      "type": "string",
      "description": "Represents the employee id.",
	  "minLength": 0,
      "maxLength": 50,
      "pattern": ".*$",
      "x-example": "Order Product"
    },
    "AccountNumber": {
      "type": "string",
      "description": "Represents the date of employment termination.",
	  "minLength": 0,
      "maxLength": 15,
      "format": "date",
      "x-example": "20187070621"
    },
    "Error": {
      "description": "Used to pass error information in a response. As defined in https://tmobileusa.sharepoint.com/teams/EnterpriseServices/ESG%20Standards%20Documents/APIs/T-Mobile%20API%20Design%20Guidelines%20v1.0.docx",
      "type": "object",
      "properties": {
        "code": {
          "type": "string",
          "description": "Represents the error code.",
		  "minLength": 0,
          "maxLength": 20,
          "pattern": ".*$"
        },
        "userMessage": {
          "description": "Represents the human readable error message.",
          "type": "string",
		  "minLength": 0,
          "maxLength": 1000,
          "pattern": ".*$"
        },
        "systemMessage": {
          "description": "Represents the system error message.",
          "type": "string",
		  "minLength": 0,
          "maxLength": 1000,
          "pattern": ".*$"
        },
        "detailLink": {
          "description": "Represents the custom information providing greater detail on error",
          "type": "string",
		  "minLength": 0,
          "maxLength": 500,
          "pattern": ".*$"
        }
      }
    }
  },
  "securityDefinitions": {
    "Oauth": {
      "type": "oauth2",
      "description": "When you sign up for an account, you are given your first API key.\nTo do so please follow this link: https://www.t-mobile.com/site/signup/\nAlso you can generate additional API keys, and delete API keys (as you may\nneed to rotate your keys in the future).\nToken can change to a JwT and ID and PoP tokens.\n",
      "tokenUrl": "https://host:env/v1/oauth2/accesstoken?grant_type=client_credentials",
      "flow": "application",
      "scopes": {
        "post:DataCreation": "Create Data"
      }
    }
  }
}