@startuml
skinparam BoxPadding 5
skinparam sequenceArrowThickness 2
skinparam roundcorner 20
skinparam maxmessagesize 60
title ** Pass information Query Flow (Data-pass-information-sa)**
box "TFB Domain"
Participant UI
collections ExperienceAPI
end box 
box "Apigee"
participant Apigee 
end box 
box "Digital Billing"
collections QueryDataPasses
end box 
box "Samson"
collections evLsSubPasAgr
database "Samson DB" 
end box 
Group Query effective passes
UI->ExperienceAPI: Query effective data pass request [[https://bitbucket.service.edp.t-mobile.com/projects/EITCODEDOC/repos/flow-documentation/browse/swagger/digitalbilling/Billing%20Enablement/data-pass-information-sa-v1.json data-pass-information-sa-v1]]
ExperienceAPI->Apigee:Query effective data pass request [[https://bitbucket.service.edp.t-mobile.com/projects/EITCODEDOC/repos/flow-documentation/browse/swagger/digitalbilling/Billing%20Enablement/data-pass-information-sa-v1.json data-pass-information-sa-v1]]
Apigee->QueryDataPasses:Query effective data pass request [[https://bitbucket.service.edp.t-mobile.com/projects/EITCODEDOC/repos/flow-documentation/browse/swagger/digitalbilling/Billing%20Enablement/data-pass-information-sa-v1.json data-pass-information-sa-v1]]
QueryDataPasses->evLsSubPasAgr: Tuxedo request 
evLsSubPasAgr->"Samson DB" 
evLsSubPasAgr-->QueryDataPasses: Tuxedo response 
QueryDataPasses-->Apigee: Query effective data pass response
Apigee-->ExperienceAPI: Query effective data pass response
ExperienceAPI-->UI: Display appropriate massage on UI
note over QueryDataPasses
passDetailsRequest:
{
  "financialAccountNumber": "900000975",
  "periodStartDate": "20190105",
  "periodEndDate": "20190705",
  "retExpiredPassIndicator": "Y",
  "mobileNumbersList": [
    "string"
  ]
}
end note 
@enduml