{
    "swagger": "2.0",
    "info": {
        "title": "TMoneyAccountsLifecycle",
        "description": "The first version of DEEP.io Publish Event API for AccountsLifeCycle event.",
        "version": "1.0.1",
        "contact": {
            "name": "Jamieson Gill",
            "url": "http://www.t-mobile.com",
            "email": "jamiesonian.gill24@t-mobile.com"
        },
        "license": {
            "name": "Proprietary software",
            "url": "https://en.wikipedia.org/wiki/Proprietary_software"
        },
        "termsOfService": "https://www.t-mobile.com/templates/popup.aspx?PAsset=Ftr_Ftr_TermsAndConditions",
        "x-createdBy": {
            "dateCreated": "Thu Aug  8 20:33:19 2019",
            "createdBy": "kpyata2",
            "application": "Recite",
            "appVersion": "1.0.0.2891",
            "documentId": "a3d998f0-f557-4e43-b27a-339eada6bae5",
            "status": "Conceptual - Initial",
            "classification": "1.1.3 Customer Account Maintenance",
            "profile": "Core Business Capability Service",
            "serviceLayer": "Resource - Other"
        }
    },
    "x-servers": [
        {
            "url": "http://127.0.0.1/",
            "description": "Test Server 1"
        }
    ],
    "tags": [
        {
            "name": "publishEvent",
            "description": "Provides a method to create an instance of the event resource."
        }
    ],
    "host": "localhost",
    "basePath": "/deep/v1/events",
    "schemes": [
        "https"
    ],
    "paths": {
        "/{eventType}": {
            "post": {
                "tags": [
                    "publishEvent"
                ],
                "x-api-pattern": "CreateInCollection",
                "summary": "A put for the event resource using Digital Archecture's CreateByName pattern.",
                "description": "Provides a method to create an instance of the event resource.",
                "operationId": "publishEvent",
                "consumes": [],
                "produces": [],
                "parameters": [
                    {
                        "name": "eventType",
                        "in": "path",
                        "description": "Unique name of the event",
                        "required": true,
                        "type": "string"
                    },
                    {
                        "name": "event",
                        "in": "body",
                        "required": true,
                        "schema": {
                            "$ref": "#/definitions/Event"
                        },
                        "x-example": {
                            "auditInfo": "null",
                            "eventId": "Event-123",
                            "headerReference": "null",
                            "payload": {},
                            "eventVersion": "1.0",
                            "eventTime": "2017-03-27T16:20:11.108Z",
                            "eventType": "Activation",
                            "eventProducerId": "Producer1",
                            "specifications": "null"
                        }
                    },
                    {
                        "name": "Authorization",
                        "in": "header",
                        "description": "The HTTP Authorization request header contains the credentials to authenticate a user agent with a server.",
                        "x-example": "Bearer mF_9.B5f-4.1JqM",
                        "required": false,
                        "type": "string",
                        "minLength": 1,
                        "maxLength": 256,
                        "pattern": "^[\\S ]+$"
                    },
                    {
                        "name": "Content-Type",
                        "in": "header",
                        "description": "The MIME type of this content",
                        "x-example": "text/xml",
                        "required": false,
                        "type": "string",
                        "minLength": 1,
                        "maxLength": 256,
                        "pattern": "^[ \\S]+$"
                    }
                ],
                "responses": {
                    "200": {
                        "description": "Message Published Successfully.",
                        "schema": {
                            "description": "string is a predefined object from an igniteXml model - cabinet 1001760002 build 1001760247 key 1001760477",
                            "title": "unnamedObject_1",
                            "type": "string"
                        },
                        "headers": {
                            "Cache-Control": {
                                "description": "Cache policy supported for the resource by the server",
                                "x-example": "no-cache",
                                "type": "string",
                                "minLength": 1,
                                "maxLength": 256,
                                "pattern": "^[\\S]*$"
                            },
                            "ETag": {
                                "description": "The ETag header specifies the unique entity tag value for the returned resource.",
                                "x-example": "*",
                                "type": "string",
                                "minLength": 1,
                                "maxLength": 256,
                                "pattern": "^[\\S]*$"
                            }
                        }
                    },
                    "201": {
                        "description": "Message Broker has not accepted the message but has been Saved and need resubmission from UI. Please Contact Admin to resubmit",
                        "headers": {
                            "Location": {
                                "description": "The Location header specifies the URI of a created resource, or redirects the API consumer to an alternate resource location.",
                                "x-example": "http://api.t-mo.com/order-mgmt/v1/orders/123xyz-0/status",
                                "type": "string",
                                "minLength": 1,
                                "maxLength": 65536,
                                "pattern": "^[\\S]*$"
                            }
                        }
                    },
                    "400": {
                        "description": "Not a valid Request",
                        "schema": {
                            "$ref": "#/definitions/Error"
                        },
                        "examples": {
                            "application/json": {
                                "code": "400",
                                "userMessage": "Not a valid Request",
                                "systemMessage": "Not a valid Request",
                                "detailLink": "http://www.tmus.com"
                            }
                        },
                        "headers": {}
                    },
                    "401": {
                        "description": "Unauthorized - Provided token is not a valid token",
                        "schema": {
                            "$ref": "#/definitions/Error"
                        },
                        "examples": {
                            "application/json": {
                                "code": "401",
                                "userMessage": "Unauthorized - Provided token is not a valid token",
                                "systemMessage": "Unauthorized - Provided token is not a valid token",
                                "detailLink": "http://www.tmus.com"
                            }
                        },
                        "headers": {}
                    },
                    "403": {
                        "description": "Forbidden - ProducerId should match with TeamName",
                        "schema": {
                            "$ref": "#/definitions/Error"
                        },
                        "examples": {
                            "application/json": {
                                "code": "403",
                                "userMessage": "Forbidden - ProducerId should match with TeamName",
                                "systemMessage": "Forbidden - ProducerId should match with TeamName",
                                "detailLink": "http://www.tmus.com"
                            }
                        },
                        "headers": {}
                    },
                    "404": {
                        "description": "Resource not found",
                        "schema": {
                            "$ref": "#/definitions/Error"
                        },
                        "examples": {
                            "application/json": {
                                "code": "404",
                                "userMessage": "Resource not found",
                                "systemMessage": "Resource not found",
                                "detailLink": "http://www.tmus.com"
                            }
                        },
                        "headers": {}
                    },
                    "405": {
                        "description": "Method Not Allowed",
                        "schema": {
                            "$ref": "#/definitions/Error"
                        },
                        "examples": {
                            "application/json": {
                                "code": "405",
                                "userMessage": "Method Not Allowed",
                                "systemMessage": "Method Not Allowed",
                                "detailLink": "http://www.tmus.com"
                            }
                        },
                        "headers": {
                            "Allow": {
                                "description": "list of supported methods for URI",
                                "x-example": "GET",
                                "type": "string",
                                "minLength": 1,
                                "maxLength": 256,
                                "pattern": "^[\\S]*$"
                            },
                            "service-transaction-id": {
                                "description": "Request ID echoed back by server",
                                "x-example": "23409209723",
                                "type": "string",
                                "minLength": 1,
                                "maxLength": 256,
                                "pattern": "^[\\S]*$"
                            }
                        }
                    },
                    "406": {
                        "description": "Mismatching data format",
                        "schema": {
                            "$ref": "#/definitions/Error"
                        },
                        "examples": {
                            "application/json": {
                                "code": "406",
                                "userMessage": "Mismatching data format",
                                "systemMessage": "Mismatching data format",
                                "detailLink": "http://www.tmus.com"
                            }
                        },
                        "headers": {}
                    },
                    "409": {
                        "description": "Invalid data",
                        "schema": {
                            "$ref": "#/definitions/Error"
                        },
                        "examples": {
                            "application/json": {
                                "code": "409",
                                "userMessage": "Invalid data",
                                "systemMessage": "Invalid data",
                                "detailLink": "http://www.tmus.com"
                            }
                        },
                        "headers": {}
                    },
                    "415": {
                        "description": "Unsupported Media Type",
                        "schema": {
                            "$ref": "#/definitions/Error"
                        },
                        "examples": {
                            "application/json": {
                                "code": "415",
                                "userMessage": "Unsupported Media Type",
                                "systemMessage": "Unsupported Media Type",
                                "detailLink": "http://www.tmus.com"
                            }
                        },
                        "headers": {}
                    },
                    "500": {
                        "description": "Error while sending message to Queue OR Error happened inside producer",
                        "schema": {
                            "$ref": "#/definitions/Error"
                        },
                        "examples": {
                            "application/json": {
                                "code": "500",
                                "userMessage": "Error while sending message to Queue OR Error happened inside producer",
                                "systemMessage": "Error while sending message to Queue OR Error happened inside producer",
                                "detailLink": "http://www.tmus.com"
                            }
                        },
                        "headers": {}
                    },
                    "503": {
                        "description": "Contract is defined but payload posted is not valid as per uploaded contract",
                        "schema": {
                            "$ref": "#/definitions/Error"
                        },
                        "examples": {
                            "application/json": {
                                "code": "503",
                                "userMessage": "Contract is defined but payload posted is not valid as per uploaded contract",
                                "systemMessage": "Contract is defined but payload posted is not valid as per uploaded contract",
                                "detailLink": "http://www.tmus.com"
                            }
                        },
                        "headers": {}
                    }
                },
                "security": []
            }
        }
    },
    "definitions": {
        "Accounts": {
            "description": "accounts",
            "type": "object",
            "required": [
                "accountId",
                "accountType",
                "activity",
                "activityDateTime"
            ],
            "properties": {
                "accountId": {
                    "description": "ReferenceId to Loan Account in FIS create by bank",
                    "example": "a226242c-1d9d-e911-a97e-000d3a90515d",
                    "type": "string"
                },
                "accountType": {
                    "description": "ReferenceId to Loan Account in FIS create by bank",
                    "example": "Loan, Checking",
                    "type": "string"
                },
                "activity": {
                    "description": "Open, Close,",
                    "example": "Open, Close",
                    "type": "string"
                },
                "activityDateTime": {
                    "description": "Activity Date Time",
                    "type": "string",
                    "format": "date-time"
                },
                "activityReasonCode": {
                    "description": "reason code",
                    "example": "1000, 2000",
                    "type": "string"
                },
                "activityReasonDescription": {
                    "description": "reason description",
                    "example": "paidoff, fraud",
                    "type": "string"
                },
                "amount": {
                    "description": "amount",
                    "example": "200,400",
                    "type": "number",
                    "format": "double"
                },
                "terms": {
                    "description": "terms",
                    "example": "2,4,6",
                    "type": "string"
                },
                "contactMsisdn": {
                    "description": "primary phone number",
                    "type": "string",
                    "minLength": 10,
                    "maxLength": 15,
                    "pattern": "^[\\d]*$"
                }
            }
        },
        "AuditInfo": {
            "description": "Audit information used to search specific event. All elements included in this complex element will be searchable in DEEP.io.",
            "example": "null",
            "type": "object",
            "properties": {
                "accountNumber": {
                    "description": "The financial account number.",
                    "example": "F123111",
                    "type": "string"
                },
                "batchId": {
                    "description": "Identifer of batch job.",
                    "example": "batch0",
                    "type": "string"
                },
                "customerId": {
                    "description": "Uniquely identifies the Customer.",
                    "example": "Customer1",
                    "type": "string"
                },
                "iamUniqueId": {
                    "description": "Unique identifier for Identity and Access Management.",
                    "example": "deepuser",
                    "type": "string"
                },
                "lineId": {
                    "description": "Uniquely identifies a  line of service.",
                    "example": "1234567890",
                    "type": "string"
                },
                "orderId": {
                    "description": "Identifier of order.",
                    "example": "order1",
                    "type": "string"
                },
                "phoneNumber": {
                    "description": "The phone number (MSISDN) associated with the line of service.",
                    "example": "1234567890",
                    "type": "string"
                },
                "universalLineId": {
                    "description": "ULID - Universal identifier of the LineofService, as defined in Customer Hub.",
                    "example": "1234567890",
                    "type": "string"
                }
            }
        },
        "Error": {
            "description": "As defined in http://api-standards.apps.px-npe01.cf.t-mobile.com/http/status-codes/error-response-format/",
            "type": "object",
            "required": [
                "code",
                "userMessage"
            ],
            "properties": {
                "code": {
                    "description": "A succinct, domain-specific, human-readable text string to identify the type of error for the given status code",
                    "example": "ProductNotFound",
                    "type": "string",
                    "pattern": "^[\\S ]+$"
                },
                "userMessage": {
                    "description": "A human-readable message describing the error.",
                    "example": "Failed to find product.",
                    "type": "string",
                    "pattern": "^[\\S ]+$"
                },
                "systemMessage": {
                    "description": "Text that provides a more detailed technical explanation of the error",
                    "example": "PRODUCT_NOT_FOUND",
                    "type": "string"
                },
                "detailLink": {
                    "description": "link to custom information providing greater detail on error or errors",
                    "example": "http://aaa.bbb.ccc/",
                    "type": "string"
                }
            }
        },
        "Event": {
            "example": {
                "auditInfo": "null",
                "eventId": "Event-123",
                "headerReference": "null",
                "payload": {},
                "eventVersion": "1.0",
                "eventTime": "2017-03-27T16:20:11.108Z",
                "eventType": "Activation",
                "eventProducerId": "Producer1",
                "specifications": "null"
            },
            "type": "object",
            "required": [
                "eventProducerId",
                "eventTime",
                "eventType",
                "payload"
            ],
            "properties": {
                "auditInfo": {
                    "$ref": "#/definitions/AuditInfo"
                },
                "eventId": {
                    "description": "Unique identifier for the event generated by the event producer. This element will be searchable in DEEP.io UI",
                    "example": "Event-123",
                    "type": "string"
                },
                "eventProducerId": {
                    "description": "Unique identifier for the producer of the event.",
                    "example": "Producer1",
                    "type": "string"
                },
                "eventTime": {
                    "description": "The date and time that the event occurred.",
                    "example": "2017-03-27T16:20:11.108Z",
                    "type": "string",
                    "format": "date-time"
                },
                "eventType": {
                    "description": "Event Name that you want to publish",
                    "example": "Activation",
                    "type": "string"
                },
                "eventVersion": {
                    "description": "version of the event , will be used to distinguish different versions by a consumer",
                    "example": "1.0",
                    "type": "string"
                },
                "headerReference": {
                    "$ref": "#/definitions/HeaderReference"
                },
                "payload": {
                    "$ref": "#/definitions/Payload"
                },
                "specifications": {
                    "description": "An array of specifications objects.",
                    "type": "array",
                    "items": {
                        "$ref": "#/definitions/Specifications"
                    }
                }
            }
        },
        "HeaderReference": {
            "description": "standard HTTP header elements to be able to deliver them to consumer without interruption",
            "example": "null",
            "type": "object",
            "properties": {
                "activityId": {
                    "description": "Unique id alphanumeric value generated and sent by the partner to identify every service request uniquely.",
                    "example": "null",
                    "type": "string"
                },
                "applicationId": {
                    "description": "Identifies the application, system or platform name that is being used to initiate the transaction  related to this request.",
                    "example": "null",
                    "type": "string"
                },
                "applicationUserId": {
                    "description": "NT id of the rep who is managing the transaction from CARE/RETAIL channels. Required for assisted channels, not required for unassisted channels.",
                    "example": "null",
                    "type": "string"
                },
                "authCustomerId": {
                    "description": "Customer Id of Tmo customer that is being served/using the application. (Required for non anonymous flows)",
                    "example": "null",
                    "type": "string"
                },
                "authFinancialAccountId": {
                    "description": "Financial Account Id that the customer that is being served/using the application is working on.  (Required for non anonymous flows)",
                    "example": "null",
                    "type": "string"
                },
                "authLineOfServiceId": {
                    "description": "Line of service Id , within the Financial Account of the customer that is being served/using the application is working on. (Required for non anonymous flows)",
                    "example": "null",
                    "type": "string"
                },
                "channelId": {
                    "description": "Identifies the business unit or sales channel.",
                    "example": "null",
                    "type": "string"
                },
                "dealerCode": {
                    "description": "Uniquely identifies the dealer/rep user.",
                    "example": "null",
                    "type": "string"
                },
                "interactionId": {
                    "description": "Alphanumeric value represent a common transaction id across all calls made from UI, while completing all business activity needs of a particular customer.",
                    "example": "null",
                    "type": "string"
                },
                "masterDealerCode": {
                    "description": "Code that uniquely identifies the master dealer for a large retail partner, such as Apple or Costco. Will not be applicable for TMo channels.",
                    "example": "null",
                    "type": "string"
                },
                "segmentationId": {
                    "description": "Identifier of customers primary data center.",
                    "example": "null",
                    "type": "string"
                },
                "senderId": {
                    "description": "Uniquely identifies an Operation consumerPartner.",
                    "example": "null",
                    "type": "string"
                },
                "sessionId": {
                    "description": "see deep io swagger for detailed description",
                    "example": "null",
                    "type": "string"
                },
                "storeId": {
                    "description": "Unique identifier for the retail store location.",
                    "example": "null",
                    "type": "string"
                },
                "terminalId": {
                    "description": "Unique identifier for the retail store terminal.",
                    "example": "null",
                    "type": "string"
                },
                "tillId": {
                    "description": "Unique identifier for the retail store terminal till number.",
                    "example": "null",
                    "type": "string"
                },
                "timestamp": {
                    "description": "A timestamp provided by sender to track their workflow.",
                    "example": "null",
                    "type": "string",
                    "format": "date-time"
                },
                "workflowId": {
                    "description": "Name of business purpose/flow, for which the API is being invoked.",
                    "example": "null",
                    "type": "string"
                }
            }
        },
        "Payload": {
            "description": "the payload",
            "type": "object",
            "required": [
                "customerId",
                "ban"
            ],
            "properties": {
                "customerId": {
                    "description": "Uniquely identifies the customer.",
                    "example": "2-56WI-9641",
                    "type": "string",
                    "minLength": 1,
                    "maxLength": 50,
                    "pattern": "^[a-zA-Z\\d\\-]*$"
                },
                "ban": {
                    "description": "accountId",
                    "example": "954478367",
                    "type": "string",
                    "maxLength": 50,
                    "pattern": "^[a-zA-Z0-9]*$"
                },
                "tmoId": {
                    "description": "TMOID",
                    "type": "string",
                    "minLength": 1,
                    "maxLength": 50,
                    "pattern": "^[a-zA-Z\\d\\-]*$"
                },
                "accounts": {
                    "description": "An array of accounts objects.",
                    "type": "array",
                    "minItems": 1,
                    "items": {
                        "$ref": "#/definitions/Accounts"
                    }
                }
            }
        },
        "Specifications": {
            "description": "Name value pair.",
            "type": "object",
            "properties": {
                "name": {
                    "description": "Name value pair.",
                    "example": "null",
                    "type": "string"
                },
                "value": {
                    "description": "Name value pair.",
                    "example": "null",
                    "type": "string"
                }
            }
        }
    },
    "securityDefinitions": {
        "JWT": {
            "type": "apiKey",
            "name": "Authorization",
            "in": "header"
        }
    }
}