{
  "swagger": "2.0",
  "info": {
    "description": "TMoneyLoanDeviceDetails Publish Event API",
    "version": "1.0",
    "title": "tmag-loandevicedetails"
  },
  "host": "localhost:8080",
  "basePath": "/deep/v1/events/TMoneyLoanDeviceDetails",
  "paths": {
    "/{eventType}": {
      "post": {
        "tags": [
          "messaging-controller"
        ],
        "summary": "This API shall be used by TMAG to publish events into DEEP.io for TMoneyLoanDeviceDetails",
        "operationId": "TMoneyLoanDeviceDetails",
        "consumes": [
          "application/json"
        ],
        "produces": [
          "*/*"
        ],
        "parameters": [
          {
            "name": "eventType",
            "in": "path",
            "description": "Unique name of the event",
            "required": true,
            "type": "string"
          },
          {
            "in": "body",
            "name": "event",
            "description": "Event Complex Element",
            "required": true,
            "schema": {
              "$ref": "#/definitions/Event"
            }
          }
        ],
        "responses": {
          "200": {
            "description": "Message Published Successfully.",
            "schema": {
              "type": "object",
              "properties": {}
            }
          },
          "201": {
            "description": "Message Broker has not accepted the message but has been Saved and need resubmission from UI. Please Contact Admin to resubmit"
          },
          "400": {
            "description": "Not a valid Request"
          },
          "401": {
            "description": "Unauthorized - Provided token is not a valid token"
          },
          "403": {
            "description": "Forbidden - ProducerId should match with TeamName"
          },
          "426": {
            "description": "Upgrade Required - Access Denied as request is not coming through Deep Gateway. Please use Gateway to publish the message."
          },
          "429": {
            "description": "Too Many Requests"
          },
          "500": {
            "description": "Error while sending message to Queue OR Error happened inside producer"
          },
          "501": {
            "description": "Rule is Not Configured For EventType"
          },
          "502": {
            "description": "Contract is Not Defined"
          },
          "503": {
            "description": "Contract is defined but payload posted is not valid as per uploaded contract"
          },
          "506": {
            "description": "Event is not Configured."
          }
        }
      }
    }
  },
  "definitions": {
    "AuditInfo": {
      "type": "object",
      "properties": {
        "accountNumber": {
          "type": "string",
          "example": "F123111",
          "description": "The financial account number."
        },
        "batchId": {
          "type": "string",
          "example": "batch0",
          "description": "Identifer of batch job."
        },
        "customerId": {
          "type": "string",
          "example": "Customer1",
          "description": "Uniquely identifies the Customer."
        },
        "iamUniqueId": {
          "type": "string",
          "example": "deepuser",
          "description": "Unique identifier for Identity and Access Management."
        },
        "lineId": {
          "type": "string",
          "example": "1234567890",
          "description": "Uniquely identifies a  line of service."
        },
        "orderId": {
          "type": "string",
          "example": "order1",
          "description": "Identifier of order."
        },
        "phoneNumber": {
          "type": "string",
          "example": "1234567890",
          "description": "The phone number (MSISDN) associated with the line of service."
        },
        "universalLineId": {
          "type": "string",
          "example": "1234567890",
          "description": "ULID - Universal identifier of the LineofService, as defined in Customer Hub. "
        }
      },
      "description": "Audit information used to search specific event. All elements included in this complex element will be searchable in DEEP.io.",
      "example": "null"
    },
    "HeaderReference": {
      "type": "object",
      "properties": {
        "activityId": {
          "type": "string",
          "example": "null",
          "description": "Unique id alphanumeric value generated and sent by the partner to identify every service request uniquely."
        },
        "applicationId": {
          "type": "string",
          "example": "null",
          "description": "Identifies the application, system or platform name that is being used to initiate the transaction  related to this request."
        },
        "applicationUserId": {
          "type": "string",
          "example": "null",
          "description": "NT id of the rep who is managing the transaction from CARE/RETAIL channels. Required for assisted channels, not required for unassisted channels."
        },
        "authCustomerId": {
          "type": "string",
          "example": "null",
          "description": "Customer Id of Tmo customer that is being served/using the application. (Required for non anonymous flows)"
        },
        "authFinancialAccountId": {
          "type": "string",
          "example": "null",
          "description": "Financial Account Id that the customer that is being served/using the application is working on.  (Required for non anonymous flows)"
        },
        "authLineOfServiceId": {
          "type": "string",
          "example": "null",
          "description": "Line of service Id , within the Financial Account of the customer that is being served/using the application is working on. (Required for non anonymous flows)"
        },
        "channelId": {
          "type": "string",
          "example": "null",
          "description": "Identifies the business unit or sales channel."
        },
        "dealerCode": {
          "type": "string",
          "example": "null",
          "description": "Uniquely identifies the dealer/rep user."
        },
        "interactionId": {
          "type": "string",
          "example": "null",
          "description": "Alphanumeric value represent a common transaction id across all calls made from UI, while completing all business activity needs of a particular customer."
        },
        "masterDealerCode": {
          "type": "string",
          "example": "null",
          "description": "Code that uniquely identifies the master dealer for a large retail partner, such as Apple or Costco. Will not be applicable for TMo channels."
        },
        "segmentationId": {
          "type": "string",
          "example": "null",
          "description": "Identifier of customer\ufffd\ufffd\ufffds primary data center."
        },
        "senderId": {
          "type": "string",
          "example": "null",
          "description": "Uniquely identifies an Operation consumer/Partner."
        },
        "sessionId": {
          "type": "string",
          "example": "null",
          "description": "A value populated by the sender used to track the transactions that occur during a session, a long-lasting interaction, managed by the sender. GUID generated by partner. Within one session (sessionid) for Rep/system can serve  multiple customers(interactionid) and in a given customer interation \ufffd\ufffd\ufffd multiple API calls (activityid) will be made to serve the customer. 1 sessionid -> many interactionid 1 interactionid -> many activityid"
        },
        "storeId": {
          "type": "string",
          "example": "null",
          "description": "Unique identifier for the retail store location."
        },
        "terminalId": {
          "type": "string",
          "example": "null",
          "description": "Unique identifier for the retail store terminal."
        },
        "tillId": {
          "type": "string",
          "example": "null",
          "description": "Unique identifier for the retail store terminal till number."
        },
        "timestamp": {
          "type": "string",
          "format": "date-time",
          "example": "null",
          "description": "A timestamp provided by sender to track their workflow."
        },
        "workflowId": {
          "type": "string",
          "example": "null",
          "description": "Name of business purpose/flow, for which the API is being invoked."
        }
      },
      "description": "standard HTTP header elements to be able to deliver them to consumer without interruption",
      "example": "null"
    },
    "Specifications": {
      "type": "object",
      "properties": {
        "name": {
          "type": "string",
          "example": "null"
        },
        "value": {
          "type": "string",
          "example": "null"
        }
      },
      "description": "Name value pair."
    },
    "Event": {
      "type": "object",
      "required": [
        "eventProducerId",
        "eventTime",
        "eventType",
        "payload"
      ],
      "properties": {
        "auditInfo": {
          "$ref": "#/definitions/AuditInfo"
        },
        "eventId": {
          "type": "string",
          "example": "Event-123",
          "description": "Unique identifier for the event generated by the event producer. This element will be searchable in DEEP.io UI"
        },
        "eventProducerId": {
          "type": "string",
          "example": "Producer1",
          "description": "Unique identifier for the producer of the event."
        },
        "eventTime": {
          "type": "string",
          "format": "date-time",
          "example": "2017-03-27T16:20:11.108Z",
          "description": "The date and time that the event occurred."
        },
        "eventType": {
          "type": "string",
          "example": "Activation",
          "description": "Event Name that you want to publish"
        },
        "eventVersion": {
          "type": "string",
          "example": "1.0",
          "description": "version of the event , will be used to distinguish different versions by a consumer"
        },
        "headerReference": {
          "$ref": "#/definitions/HeaderReference"
        },
        "payload": {
          "$ref": "#/definitions/Payload"
        },
        "specifications": {
          "type": "array",
          "example": "null",
          "description": "added for future reference so can ignore.",
          "items": {
            "$ref": "#/definitions/Specifications"
          }
        }
      },
      "example": {
        "auditInfo": "null",
        "eventId": "Event-123",
        "headerReference": "null",
        "payload": {},
        "eventVersion": "1.0",
        "eventTime": "2017-03-27T16:20:11.108Z",
        "eventType": "Activation",
        "eventProducerId": "Producer1",
        "specifications": "null"
      }
    },
    "Payload": {
      "type": "object",
      "description": "Event specific information that can be modeled using APIv2 or inline elements.",
      "properties": {
        "eventHeader": {
          "$ref": "#/definitions/PayloadHeader"
        },
        "eventBody": {
          "$ref": "#/definitions/LoanDetailsEvent"
        }
      }
    },
    "PayloadHeader": {
      "description": "Event specific header information. ",
      "required": [
        "transactionId",
        "eventType",
        "eventDate",
        "activityId"
      ],
      "properties": {
        "transactionId": {
          "type": "string"
        },
        "activityId": {
          "type": "string"
        },
        "eventDate": {
          "type": "string",
          "format": "date-time"
        },
        "eventType": {
          "type": "string"
        },
        "eventProducerId": {
          "type": "string"
        }
      }
    },
    "LoanDetailsEvent": {
      "description": "Event specific body information information. ",
      "required": [
        "CommonCustomerID",
        "BAN",
        "Subscriber",
        "BRP"
      ],
      "properties": {
        "CommonCustomerID": {
          "type": "string"
        },
        "BAN": {
          "type": "string"
        },
        "Subscriber": {
          "description": "Minimum 1 line should be present.",
          "type": "array",
          "items": {
            "$ref": "#/definitions/Subscriber"
          }
        },
        "BRP": {
          "description": "First Line Details.",
          "items": {
            "$ref": "#/definitions/BRP"
          }
        }
      }
    },
    "Subscriber": {
      "type": "object",
      "required": [
        "ActivationMSISDN",
        "PortInInitiated"
      ],
      "properties": {
        "SIMNumber": {
          "type": "string"
        },
        "SIMSKU": {
          "type": "string"
        },
        "ActivationMSISDN": {
          "description": "MSISDN assigned at activation.",
          "type": "string"
        },
        "BYODDeviceLoan": {
          "description": "Minimum 1 line should be present.",
          "type": "object",
          "items": {
            "$ref": "#/definitions/BYODDeviceLoan"
          }
        },
        "PortInInitiated": {
          "description": "true / false ",
          "type": "boolean"
        },
        "PortInNumber": {
          "description": "Port in number if PortInInitiated is true else Activation MSIDN ",
          "type": "string"
        }
      }
    },
    "BRP": {
      "type": "object",
      "required": [
        "FirstName",
        "LastName",
        "PrimaryEmailAddress",
        "ActivationMSISDN",
        "PortInInitiated"
      ],
      "properties": {
        "FirstName": {
          "type": "string"
        },
        "LastName": {
          "type": "string"
        },
        "PrimaryEmailAddress": {
          "type": "string"
        },
        "ActivationMSISDN": {
          "description": "Activation MSIDN",
          "type": "string"
        },
        "PortInInitiated": {
          "description": "true / false ",
          "type": "boolean"
        },
        "PortInNumber": {
          "description": "Port in number if PortInInitiated is true",
          "type": "string"
        }
      }
    },
    "BYODDeviceLoan": {
      "type": "object",
      "required": [
        "Carrier",
        "DevicePhoneNumber",
        "FinancedAmount"
      ],
      "properties": {
        "Carrier": {
          "description": "VERIZON /SPRINT/ AT&T.",
          "type": "string"
        },
        "DevicePhoneNumber": {
          "description": "Previous carrier MSISDN.",
          "type": "string"
        },
        "LoanBalance": {
          "description": "available only for AT&T ,Verizon.",
          "type": "string"
        },
        "RemainingBalance": {
          "description": "available only for Sprint.",
          "type": "string"
        },
        "LeasePayOffAmount": {
          "description": "available only for Sprint.",
          "type": "string"
        },
        "FinancedAmount": {
          "description": "Loan amount per device.",
          "type": "string"
        },
        "DeviceMakeandModel": {
          "type": "string"
        }
      }
    }
  }
}