{
  "swagger": "2.0",
  "info": {
    "version": "1.0.0",
    "title": "Restful Authentication System",
    "description": "A micro service that authenticates, authorizes and issues an access token, sso session",
    "contact": {
      "name": "SecureID - Development Team",
      "email": "EUIDevelopment@T-Mobile.com"
    }
  },
  "host": "brass.account.t-mobile.com",
  "x-servers": [
    {
      "url": "https://brass.account.t-mobile.com/ras/v2"
    },
    {
      "url": "https://{Environment}brass.account.t-mobile.com/ras/v2",
      "variables": {
        "Environment": {
          "enum": [
            "dev.",
            "qat.",
            "uat.",
            "plab.",
            "ppd."
          ],
          "default": "dev."
        }
      }
    },
    {
      "url": "https://localhost:{Port}/ras/v2",
      "variables": {
        "Port": {
          "enum": [
            "3502"
          ],
          "default": "3502"
        }
      }
    }
  ],
  "basePath": "/ras/v2",
  "tags": [
    {
      "name": "Token",
      "description": "Gets token with user id and password"
    },
    {
      "name": "Fetch Token With Code",
      "description": "Gets token with code instead of user id and password"
    },
    {
      "name": "Code",
      "description": "Returns Authorization_code and Session details."
    },
    {
      "name": "Get Profile",
      "description": "Get the profile of a given customer"
    },
    {
      "name": "Get User Info",
      "description": "Get User info, this includes extended lines and associated lines"
    },
    {
      "name": "Logout",
      "description": "Logout a user"
    },
    {
      "name": "Health Check",
      "description": "check the health of the RAS service"
    }
  ],
  "schemes": ["https"],
  "consumes": ["application/json"],
  "produces": ["application/json"],
  "paths": {
    "/token": {
      "post": {
        "x-api-pattern": "ExecuteFunction",
        "operationId": "token",
        "description": "Returns Access token and Session details.",
        "summary": "Get access token for user",
        "tags": [
          "Token"
        ],
        "security": [
          {},
          {
            "BasicAuth": []
          },
          {
            "DatToken": []
          },
          {
            "PopToken": []
          }
        ],
        "parameters": [
          {
            "in": "header",
            "name": "authorization",
            "type": "string",
            "description": "Authorization will be in form of DAT and POP token, and is optional if connection is coming from within local network; authentication is still done with client bearer token, or clientId and clientSecret pair.",
            "required": true,
            "format": "byte",
            "x-example": "basic"
          },
          {
            "in": "header",
            "name": "content-type",
            "type": "string",
            "description": "Type of the returned content",
            "required": true,
            "format": "application/json",
            "x-example": "application/json"
          },
          {
            "in": "body",
            "name": "requestBody",
            "description": "Request JSON body for access token",
            "schema": {
              "$ref": "#/definitions/TokenRequest"
            }
          }
        ],
        "responses": {
          "200": {
            "description": "JSON response with access_token, access_token_type, access_token_ttl, code, sso_session_id, sso_session_ttl, scope, user_id and session_number",
            "headers": {
              "date": {
                "type": "string",
                "format": "date-time",
                "description": "date of transaction",
                "x-example": "2002-09-24+06:00"
              },
              "content-type": {
                "type": "string",
                "format": "application/json",
                "description": "type of the returned content",
                "x-example": "application/json"
              },
              "cache-control": {
                "type": "string",
                "description": "date of transaction",
                "x-example": "public"
              }
            },
            "schema": {
              "allOf": [
                {
                  "$ref": "#/definitions/TokenResponse"
                },
                {
                  "$ref": "#/definitions/MissingActionResponse"
                }
              ],
              "example": {
                "access_token": "01.USR.7zzIsJDe3vcZfNZMg",
                "access_token_type": "Bearer",
                "access_token_ttl": 3600,
                "code": "1.asgdv34ndkk",
                "user_id": "u-anjbdj-246366-djebddb",
                "sso_session_id": "eeetyeubdbeunkenrkf.emjej.ndheyvryv",
                "sso_session_ttl": "Mon, 27 Aug 2018 11:49:42 GMT",
                "scope": "TMO_ID_profile associated_lines extended_lines openid",
                "session_number": "exxedj552627992"
              }
            }
          },
          "400": {
            "$ref": "#/definitions/ErrorModel/x-examples/BadRequest"
          },
          "401": {
            "$ref": "#/definitions/ErrorModel/x-examples/Unauthorized"
          },
          "403": {
            "$ref": "#/definitions/ErrorModel/x-examples/Forbidden"
          },
          "404": {
            "$ref": "#/definitions/ErrorModel/x-examples/NotFound"
          },
          "500": {
            "$ref": "#/definitions/ErrorModel/x-examples/ServerError"
          },
          "503": {
            "$ref": "#/definitions/ErrorModel/x-examples/ServiceUnavailable"
          }
        }
      }
    },
    "/getProfile": {
      "post": {
        "description": "get customer profile",
        "operationId": "getProfile",
        "x-api-pattern": "ExecuteFunction",
        "summary": "get customer profile",
        "tags": [
          "Get Profile"
        ],
        "security": [
          {},
          {
            "BasicAuth": []
          },
          {
            "DatToken": []
          },
          {
            "PopToken": []
          }
        ],
        "parameters": [
          {
            "in": "header",
            "name": "authorization",
            "type": "string",
            "description": "Authorization will be in form of DAT and POP token, and is optional if connection is coming from within local network; authentication is still done with client bearer token, or clientId and clientSecret pair.",
            "required": true,
            "format": "byte",
            "x-example": "basic"
          },
          {
            "in": "header",
            "name": "content-type",
            "type": "string",
            "description": "Type of the returned content",
            "required": true,
            "format": "application/json",
            "x-example": "application/json"
          },
          {
            "in": "body",
            "name": "requestBody",
            "description": "Request JSON body for access token",
            "schema": {
              "$ref": "#/definitions/GetProfileRequest"
            }
          }
        ],
        "responses": {
          "200": {
            "description": "properley fetched user info",
            "headers": {
              "date": {
                "type": "string",
                "format": "date-time",
                "description": "date of transaction",
                "x-example": "2002-09-24+06:00"
              },
              "content-type": {
                "type": "string",
                "format": "application/json",
                "description": "type of the returned content",
                "x-example": "application/json"
              }
            },
            "schema": {
              "$ref": "#/definitions/GetUserInfoResponse"
            }
          },
          "400": {
            "description": "Authorization code is invalid.",
            "schema": {
              "$ref": "#/definitions/ErrorResponse"
            }
          }
        }
      }
    },
    "/userInfo": {
      "post": {
        "description": "get user infor",
        "operationId": "userInfo",
        "x-api-pattern": "ExecuteFunction",
        "summary": "get user info",
        "tags": [
          "Get User Info"
        ],
        "security": [
          {},
          {
            "BasicAuth": []
          },
          {
            "DatToken": []
          },
          {
            "PopToken": []
          }
        ],
        "parameters": [
          {
            "in": "header",
            "name": "authorization",
            "type": "string",
            "description": "Authorization will be in form of DAT and POP token, and is optional if connection is coming from within local network; authentication is still done with client bearer token, or clientId and clientSecret pair.",
            "required": true,
            "format": "byte",
            "x-example": "basic"
          },
          {
            "in": "header",
            "name": "content-type",
            "type": "string",
            "description": "Type of the returned content",
            "required": true,
            "format": "application/json",
            "x-example": "application/json"
          },
          {
            "in": "body",
            "name": "requestBody",
            "description": "Request JSON body for access token",
            "schema": {
              "$ref": "#/definitions/GetUserInfoRequest"
            }
          }
        ],
        "responses": {
          "200": {
            "description": "properley fetched user info",
            "headers": {
              "date": {
                "type": "string",
                "format": "date-time",
                "description": "date of transaction",
                "x-example": "2002-09-24+06:00"
              },
              "content-type": {
                "type": "string",
                "format": "application/json",
                "description": "type of the returned content",
                "x-example": "application/json"
              }
            },
            "schema": {
              "$ref": "#/definitions/GetUserInfoResponse"
            }
          },
          "400": {
            "description": "Authorization code is invalid.",
            "schema": {
              "$ref": "#/definitions/ErrorResponse"
            }
          }
        }
      }
    },
    "/logout": {
      "post": {
        "x-api-pattern": "ExecuteFunction",
        "description": "logout",
        "operationId": "logout",
        "summary": "logout client",
        "tags": [
          "Logout"
        ],
        "security": [
          {},
          {
            "BasicAuth": []
          },
          {
            "DatToken": []
          },
          {
            "PopToken": []
          }
        ],
        "parameters": [
          {
            "name": "requestBody",
            "in": "body",
            "required": true,
            "description": "request body",
            "schema": {
              "$ref":"#/definitions/LogOutRequest"
            },
            "x-example": {
              "trans_id": "e9581d42-91a5-4cd4-aaea-1866b15862a6",
              "client_id": "TMOAppNative",
              "sso_session_id": "eyJ0eXAiOiJKV0UiLCJhbGciOiJSU0ExXzUiLCJlbmMiOiJBMjU2Q0JDK0hTNTEyIn0.QZmu5u1Y3emFm8RJMX1qdBsV95SZHUuIv4PXsm3Ri2jFKEYCshwuy9QYe_bqr7bPHsU545h6EBZSu4P3tExN4khYAxK5y42GvcXdpoadA5TqBMnFV-HtWALaeBaemC8Qex5i8nzOTKJ9qDTaevrfHqN59_QsRny3iz9rKESvsfOh5pRYKbHoalZktFRMNcEzMBT33_0nX5ZF6Os7gm5obA_m66TeuH-aCgHSCYGCkTXfrmho1c7uCHBFf-ahfAtt1-HTR4cypI-BVl4DzHy_UGpoi9aKR-AbEq-fY5ghi9HaUwhBQXABXZH8FErJeSmSLyZMFNfbAdcb-mwQQOqZBA.RZwMnt-oFRIXdOGsmYIsgw.Fhk5syLZy1YH4Rvd6q_uLLs-BMnPx21VbP_C0RvrTh6RPt4KRG2C3OcYLhcfVZVIT2QSbMKCDXFuTGBfETHXjA.RX3UzeFLKJgPi3wcHWDm7niPkR6wcy_d4vTcENrM2ARKZj0Z-YzrJ4pe_0gDoulfUpEaDLxEplVLFr5P6EB8aA"
            }
          },
          {
            "in": "header",
            "name": "authorization",
            "type": "string",
            "description": "Authorization will be in form of DAT and POP token, and is optional if connection is coming from within local network; authentication is still done with client bearer token, or clientId and clientSecret pair.",
            "required": true,
            "format": "byte",
            "x-example": "basic"
          },
          {
              "in": "header",
              "name": "content-type",
              "type": "string",
              "description": "Type of the returned content",
              "required": true,
              "format": "application/json",
              "x-example": "application/json"
          }
        ],
        "responses": {
          "200": {
            "description": "successful logout",
            "headers": {
              "date": {
                "type": "string",
                "format": "date-time",
                "description": "date of transaction",
                "x-example": "2002-09-24+06:00"
              },
              "content-type": {
                "type": "string",
                "format": "application/json",
                "description": "type of the returned content",
                "x-example": "application/json"
              }
            },
            "schema": {
              "type": "object",
              "properties": {
                "code": {
                  "$ref": "#/definitions/code"
                }
              }
            }
          },
          "400": {
            "description": "unsuccessful logout",
            "schema": {
              "$ref": "#/definitions/ErrorResponse"
            }
          }
        }
      }
    }
  },
  "securityDefinitions": {
    "BasicAuth": {
      "type": "basic",
      "description": "Standard basic authentication"
    },
    "DatToken": {
      "description": "Token for authorizing the client, checked by middleware for any not whitelisted connections",
      "type": "apiKey",
      "name": "Authorization",
      "in": "header"
    },
    "PopToken": {
      "description": "Token used to validate the DatToken, checked by middleware for any not whitelisted connections",
      "type": "apiKey",
      "name": "x-authorization",
      "in": "header"
    }
  },
  "definitions": {
    "HealthCheckResponse": {
      "type":"object",
      "required": [
        "serverState"
      ],
      "properties": {
        "serverState": {
          "type": "string",
          "format": "string",
          "description": "state of the server",
          "example": "RAS is up and running"
        }
      }
    },
    "LogOutRequest": {
      "type": "object",
      "required": [
        "trans_id",
        "client_id",
        "sso_session_id"
      ],
      "properties": {
        "trans_id": {
          "$ref":"#/definitions/trans_id"
        },
        "client_id": {
          "$ref":"#/definitions/client_id"
        },
        "sso_session_id": {
          "$ref":"#/definitions/sso_session_id"
        }
      }
    },
    "GetProfileRequest": {
      "type": "object",
      "required": [
        "trans_id",
        "user_id",
        "redirect_uri",
        "scope",
        "response_type",
        "response_selection",
        "session_number",
        "access_token"
      ],
      "properties": {
        "trans_id": {
          "$ref": "#/definitions/trans_id"
        },
        "user_id": {
          "$ref": "#/definitions/user_id"
        },
        "redirect_uri": {
          "$ref": "#/definitions/redirect_uri"
        },
        "scope": {
          "$ref": "#/definitions/scope"
        },
        "response_type": {
          "$ref": "#/definitions/response_type"
        },
        "response_selection": {
          "$ref": "#/definitions/response_selection"
        },
        "session_number": {
          "$ref": "#/definitions/session_number"
        },
        "access_token": {
          "$ref": "#/definitions/access_token"
        }
      }
    },
    "GetUserInfoRequest": {
      "type": "object",
      "required": [
        "user_id",
        "trans_id",
        "client_id"
      ],
      "properties": {
        "user_id": {
          "$ref":"#/definitions/user_id"
        },
        "trans_id": {
          "$ref":"#/definitions/trans_id"
        },
        "client_id": {
          "$ref":"#/definitions/client_id"
        }
      }
    },
    "GetUserInfoResponse": {
      "type": "object",
      "required": [
        "iam"
      ],
      "properties": {
        "iam": {
          "$ref": "#/definitions/iam"
        },
        "associatedLines": {
          "type": "object",
          "description": "list of associated lines",
          "example": [
            {
                "multiLineCustomerType": "PAH",
                "primaryBillingAccountCode": "897047899",
                "msisdn": "2066439229",
                "subscriberType": "POSTPAID",
                "status": "A",
                "statusDate": "2017-03-14T16:49:48Z",
                "migrationStatus": "N",
                "linkTypes": [
                    "direct",
                    "indirect"
                ],
                "billCyclePeriod": "8"
            }
          ]
        },
        "extendedLines": {
          "type": "object",
          "description": "list of extended lines",
          "example": [
            {
                "customers": [
                    {
                        "customerToBARoles": [
                            "AO"
                        ],
                        "userId": "U-4aa871b6-4578-4da6-8ccb-ac5d2585870d",
                        "customerNumber": "C039647761",
                        "businessUnit": "TMO",
                        "status": "A",
                        "firstName": "testa"
                    }
                ],
                "contracts": [
                    {
                        "multiLineCustomerType": "PAH",
                        "operatorLastUpdated": "2018-09-05T08:12:20Z",
                        "billCyclePeriodLastUpdated": "2018-09-05T08:12:20Z",
                        "answerFailCount": 0,
                        "answerFailCountTimestamp": "2017-06-23T09:15:11Z",
                        "authZipFailCount": 0,
                        "authZipFailCountTimestamp": "2017-06-23T09:15:11Z",
                        "authFailureCount": 0,
                        "lastAuthFailureTimestamp": "2018-07-25T08:50:42Z",
                        "pinSsnFailCount": 0,
                        "pinSsnFailCountTimestamp": "2016-03-08T12:19:46Z",
                        "lastLoginTimestamp": "2018-06-26T13:06:07Z",
                        "sn": "test",
                        "socLastUpdatedTimestamp": "2018-09-05T08:12:20Z",
                        "dangerFlag": false,
                        "contractCode": "286066568",
                        "uniqueContractCode": "286066568",
                        "primaryBillingAccountCode": "897047899",
                        "userId": "U-4aa871b6-4578-4da6-8ccb-ac5d2585870d",
                        "msisdn": "2066439229",
                        "lineType": "Legacy",
                        "subscriberType": "POSTPAID",
                        "registrationStatus": "F",
                        "email": "testsajgsaj@yopmail.com",
                        "password": "BQDrXjKS062IGFvABpfU5HHWeBmYkFhGNGaQ695DwozA2A==",
                        "billingFirstname": "JAMES",
                        "billingLastname": "PROUTY",
                        "lastEmailUpdatedTimestamp": "2018-09-05T08:15:41Z",
                        "billingBirthDate": "1970-01-01",
                        "billingZip": "98006",
                        "securityAnswer1": "BQDryzdsBqHMbM9euUqPWMpl",
                        "securityAnswer2": "BQBf4FtfarzoDuMLtlVVD81O",
                        "securityAnswer3": "BQA1Jf/kFuzeK2iPc/lw7vDl",
                        "imsi": "310260134301668",
                        "status": "A",
                        "statusDate": "2017-03-14T16:49:48Z",
                        "activationDate": "2013-07-05T00:00:00Z",
                        "features": "SPP-4608MB,B52ROAM,SBB-BANK-DYN",
                        "voWifiEnabled": false,
                        "mcaEnabled": false,
                        "mwiEnabled": false,
                        "isPrimary": true,
                        "iccid": "8901260131543016686",
                        "migrationStatus": "N",
                        "operatorId": 1000,
                        "isReceivingOffer": false,
                        "accountTypeSubType": "IR",
                        "nickname": "test",
                        "loginCount": 1,
                        "prepaidPinFailureCount": 0,
                        "lastPrepaidPinFailureTimestamp": "2018-09-05T08:16:12Z",
                        "ssnFailureCount": 0,
                        "ssnFailureLastUpdated": "2018-09-05T08:16:12Z",
                        "smsPinFailureCount": 0,
                        "smsPinFailureLastUpdated": "2018-09-05T08:16:12Z",
                        "customers": [
                            {
                                "customerNumber": "C039647761",
                                "userRoles": [
                                    "AO"
                                ]
                            }
                        ],
                        "linkTypes": [
                            "direct",
                            "indirect"
                        ],
                        "optOutIBA": false,
                        "billCyclePeriod": "8",
                        "lineUseSource": "ESOA",
                        "lineUseLastUpdatedTimestamp": "2018-09-05T08:15:41Z",
                        "lineLinkedTimestamp": "2018-09-05T08:16:12Z"
                    }
                ],
                "numberOfContractsOnBA": 1,
                "contractsPagingFromIndex": 0,
                "contractsPagingToIndex": 0,
                "totalContractsPerQuery": 1,
                "billingAccountType": "Legacy",
                "billingAccountCode": "897047899",
                "businessLine": "TMO",
                "billCyclePeriod": 8,
                "paymentOption": "POST",
                "status": "A"
            }
          ]
        }
      }
    },
    "CodeRequest": {
      "type": "object",
      "required": [
        "trans_id",
        "sso_session_id",
        "client_id",
        "redirect_uri",
        "scope",
        "response_type"
      ],
      "properties": {
        "trans_id": {
          "$ref": "#/definitions/trans_id"
        },
        "sso_session_id": {
          "$ref": "#/definitions/sso_session_id"
        },
        "user_id": {
          "$ref": "#/definitions/user_id"
        },
        "password": {
          "$ref": "#/definitions/password"
        },
        "client_id": {
          "$ref": "#/definitions/client_id"
        },
        "redirect_uri": {
          "$ref": "#/definitions/redirect_uri"
        },
        "scope": {
          "$ref": "#/definitions/scope"
        },
        "response_type": {
          "$ref": "#/definitions/response_type"
        },
        "re_auth": {
          "$ref": "#/definitions/re_auth"
        },
        "app_version": {
          "type": "string",
          "description": "Version of T-Mobile APP. Helps in sending supported responses",
          "example": "22.10.1"
        },
        "platform": {
          "type": "string",
          "description": "Device OS version.",
          "example": "Android_7.2.0"
        },
        "lang": {
          "$ref": "#/definitions/lang"
        },
        "keep_me_logged_in": {
          "type": "boolean",
          "description": "If true, then sso_session_id is valid for 90 days else 30 min session",
          "example": "true or false"
        },
        "customer_ip": {
          "$ref": "#/definitions/customer_ip"
        },
        "access_type": {
          "$ref": "#/definitions/access_type"
        }
      }
    },
    "CodeResponse": {
      "type": "object",
      "properties": {
        "code": {
          "type": "string",
          "format": "string",
          "description": "Authorization code"
        },
        "sso_session_id": {
          "type": "string",
          "format": "string",
          "description": "Single sign on - Session id"
        },
        "sso_session_ttl": {
          "type": "string",
          "format": "string",
          "description": "Expiry time of session in GMT"
        },
        "user_id": {
          "type": "string",
          "format": "string",
          "description": "Unique id of user"
        },
        "session_number": {
          "type": "string",
          "format": "string",
          "description": "Session number to track session activities"
        }
      }
    },
    "TokenRequest": {
      "type": "object",
      "required": [
        "trans_id",
        "user_id",
        "password",
        "client_id",
        "redirect_uri",
        "scope",
        "response_type"
      ],
      "properties": {
        "trans_id": {
          "type": "string",
          "description": "Unique identifier for auditing",
          "example": "abcd_23pqr78_1244",
          "format": "string"
        },
        "sso_session_id": {
          "type": "string",
          "description": "The client shall pass ANY SSO Session ID the client has.",
          "example": "eyJ0eXAiOiJKV0UiLCJhbGciOiJSU0ExXzUiLCJlbmMiOiJBMj",
          "format": "byte"
        },
        "user_id": {
          "type": "string",
          "description": "user_id must be passed If SSO_SESSION_ID exists then this becomes optional",
          "example": "test@yopmail.com or 1234567890",
          "format": "string"
        },
        "password": {
          "type": "string",
          "description": "password must be passed",
          "example": "te5t@1234",
          "format": "string"
        },
        "client_id": {
          "type": "string",
          "description": "OAUTH parameter clients can pass to receive code",
          "example": "TMOAppNative",
          "format": "string"
        },
        "redirect_uri": {
          "type": "string",
          "description": "Client application URI",
          "format": "uri",
          "example": "https://localhost"
        },
        "scope": {
          "type": "string",
          "description": "This parameter will decide",
          "example": "associatedLines billingInformation TMOIDProfile openid",
          "format": "string"
        },
        "response_type": {
          "type": "string",
          "description": "code",
          "format": "string",
          "example": "Allowed value 'code'"
        },
        "re_auth": {
          "type": "string",
          "description": "OAUTH parameter clients can pass to receive code",
          "format": "string",
          "example": "auto"
        },
        "app_version": {
          "type": "string",
          "description": "Version of T-Mobile APP. Helps in sending supported responses",
          "example": "22.10.1"
        },
        "platform": {
          "type": "string",
          "description": "Device OS version.",
          "example": "Android_7.2.0"
        },
        "lang": {
          "$ref":"#/definitions/lang"
        },
        "keep_me_logged_in": {
          "type": "boolean",
          "description": "If true, then sso_session_id is valid for 90 days else 30 min session",
          "example": "true or false"
        },
        "coustomer_ip": {
          "type": "string",
          "description": "Highly recommend to send this customer ip this help in adudting and tracking location.",
          "example": "10.21.50.108",
          "format": "ip address"
        },
        "access_type": {
          "type": "string",
          "description": "OAUTH parameter clients can pass to receive a refresh token for offline access.",
          "format": "string",
          "example": "offline or online"
        },
        "approval_prompt": {
          "type": "string",
          "description": "OAUTH parameter clients can pass to receive a refresh token for offline access.",
          "format": "string",
          "example": "offline or online"
        },
        "response_selection": {
          "$ref": "#/definitions/response_selection"
        }
      }
    },
    "TokenResponse": {
      "type": "object",
      "properties": {
        "access_token": {
          "type": "string",
          "format": "string",
          "description": "Authorization code"
        },
        "token_type": {
          "type": "string",
          "format": "string",
          "description": "Authorization code"
        },
        "access_token_ttl": {
          "type": "string",
          "format": "string",
          "description": "Authorization code"
        },
        "code": {
          "type": "string",
          "format": "string",
          "description": "Authorization code"
        },
        "sso_session_id": {
          "type": "string",
          "format": "string",
          "description": "Single sign on - Session id"
        },
        "sso_session_ttl": {
          "type": "string",
          "format": "string",
          "description": "Expiry time of session in GMT"
        },
        "user_id": {
          "type": "string",
          "format": "string",
          "description": "Unique id of user"
        },
        "session_number": {
          "type": "string",
          "format": "string",
          "description": "Session number to track session activities"
        },
        "refresh_token": {
          "type": "string",
          "format": "string",
          "description": "Allows to get a new access token without a users authentication"
        },
        "id_tokens": {
          "type": "array",
          "description": "An Array of JWTs Where name of the key is exactly as specified in response_selection parameter and value is JWT. If rt header is exists in request then rt will comes in response as a part of id_tokens array",
          "items": {
            "type": "object",
            "properties": {
              "id_token.none": {
                "type": "string",
                "description": "JWT value",
                "example": "eyJhbGciOiJSUzI1NiIsInR5cCI6IkpXVCJ9.eyJpYXQiOjE1NDAxOTE1MD"
              },
              "id_token.basic": {
                "type": "string",
                "description": "JWT value",
                "example": "eyJhbGciOiJSUzI1NiIsInR5cCI6IkpXVCJ9.eyJpYXQiOjE1NDAxOTE1MD"
              }
            }
          }
        }
      }
    },
    "MissingActionResponse": {
      "type": "object",
      "properties": {
        "web_view_url": {
          "type": "string",
          "format": "uri",
          "description": "Web view url to proceed with missing actions"
        },
        "actions": {
          "type": "array",
          "description": "contains list of missing action",
          "items": {
            "type": "object",
            "properties": {
              "action": {
                "type": "string",
                "description": "name of missing actions",
                "example": "validate_2nd_factor"
              }
            }
          }
        },
        "sso_session_id": {
          "type": "string",
          "format": "string",
          "description": "Single sign on - Session id"
        },
        "session_number": {
          "type": "string",
          "format": "string",
          "description": "Session number to track session activities"
        },
        "display_msg": {
          "type": "string",
          "format": "string",
          "description": "Message to display on Native screen if any"
        }
      }
    },
    "ErrorModel": {
      "type": "object",
      "properties": {
        "error": {
          "type": "string",
          "description": "succinct, domain-specific, human-readable text string to identify the type of error for the given status code",
          "example": "authentication_failure",
          "format": "string"
        },
        "error_description": {
          "type": "string",
          "description": "human readable text that describes the nature of the error",
          "example": "We could not authenticate that user.",
          "format": "string"
        },
        "disable_login_button": {
          "type": "boolean",
          "description": "If true Login button on Native Apps Login screen should be disabled If false Login button should be enabled.",
          "example": true,
          "format": "boolean"
        },
        "hide_signup_button": {
          "type": "boolean",
          "description": "If true Signup button on Native Apps Login screen should be disabled If false Signup button should be enabled.",
          "example": true,
          "format": "boolean"
        },
        "url_value": {
          "type": "string",
          "description": "URL value that needs to be opened up in web view on user click of the link.",
          "example": "https://ppd.account.t-mobile.com/oauth2/v1/forgotpassword’",
          "format": "string"
        }
      },
      "required": [
        "error",
        "error_description"
      ],
      "x-examples": {
        "BadRequest": {
          "error": "invalid_iam_session",
          "error_description": "The SSO Session is invalid",
          "disable_login_button": false,
          "hide_signup_button": false,
          "actions": [
            {
              "action": "authenticate"
            }
          ]
        },
        "Unauthenticated": {
          "error": "authentication_failure",
          "error_description": "The login information you provided is incorrect. Please try again."
        },
        "Forbidden": {
          "error": "Forbidden",
          "error_description": "Invalid oauth parameters"
        },
        "Unauthorized": {
          "error": "Unauthorized",
          "error_description": "Unauthorized client"
        },
        "NotFound": {
          "error": "Not Found",
          "error_description": "That ClientId was not found"
        },
        "ServerError": {
          "error": "server_error",
          "error_description": "Sorry, we are currently experiencing problems with our server. Please try again later."
        },
        "ServiceUnavailable": {
          "error": "Service Unavailable",
          "error_description": "JSON response in case the requested service is unavailable"
        }
      }
    },
    "fetchTokenWithCode": {
      "type": "object",
      "properties": {
        "client_id": {
          "type": "string",
          "description": "client id"
        },
        "redirect_uri": {
          "type": "string",
          "description": "url"
        },
        "code": {
          "type": "string",
          "description": "mobile/desktop"
        },
        "trans_id": {
          "type": "string",
          "description": "ramdom string"
        }
      }
    },
    "fetchTokenWithCodeResponse": {
      "type": "object",
      "properties": {
        "access_token": {
          "type": "string",
          "example": "yes",
          "description": "some value"
        },
        "access_token_type": {
          "type": "string",
          "example": "yes",
          "description": "some value"
        },
        "access_token_ttl": {
          "type": "number",
          "example": "some number",
          "description": "number"
        },
        "scope": {
          "type": "string",
          "description": "some value"
        },
        "tmobileId": {
          "type": "string",
          "description": "some value",
          "example": "yes"
        }
      },
      "example": {
        "access_token": "string",
        "access_token_type": "string",
        "access_token_ttl": "string",
        "scope": "string",
        "tMoID": "Yes"
      }
    },
    "ErrorResponse": {
      "type": "object",
      "properties": {
        "error": {
          "type": "string",
          "description": "Some error"
        },
        "error_description": {
          "type": "string",
          "description": "Some error"
        }
      },
      "example": {
        "error": "string",
        "error_description": "string"
      }
    },
    "trans_id": {
      "type": "string",
      "description": "Unique identifier for auditing",
      "example": "abcd_23pqr78_1244",
      "format": "string"
    },
    "user_id": {
      "type": "string",
      "description": "user_id must be passed If SSO_SESSION_ID exists then this becomes optional",
      "example": "test@yopmail.com or 1234567890",
      "format": "string"
    },
    "redirect_uri": {
      "type": "string",
      "description": "Client application URI",
      "format": "uri",
      "example": "https://localhost"
    },
    "scope": {
      "type": "string",
      "description": "This parameter will decide",
      "example": "associatedLines billingInformation TMOIDProfile openid",
      "format": "string"
    },
    "response_type": {
      "type": "string",
      "description": "code",
      "format": "string",
      "example": "Allowed value 'code'"
    },
    "session_number": {
      "type": "string",
      "format": "string",
      "description": "Session number to track session activities",
      "example": "abcdSession"
    },
    "response_selection": {
      "type": "string",
      "description": "This parameter can have any of the below values, it can also have multiple values separated with <space>.",
      "format": "string",
      "example": "id_token id_token.none id_token.basic userinfo"
    },
    "sso_session_id": {
      "type": "string",
      "description": "The client shall pass ANY SSO Session ID the client has. If an SSO session id is not provided, then Username & password must be provided.",
      "example": "eyJ0eXAiOiJKV0UiLCJhbGciO",
      "format": "string"
    },
    "password": {
      "type": "string",
      "description": "password must be passed",
      "example": "te5t@1234",
      "format": "string"
    },
    "client_id": {
      "type": "string",
      "description": "OAUTH parameter clients can pass to receive code",
      "example": "TMOAppNative",
      "format": "string"
    },
    "re_auth": {
      "type": "string",
      "description": "OAUTH parameter clients can pass to receive code",
      "format": "string",
      "example": "auto"
    },
    "lang": {
      "type": "string",
      "description": "Supported values en and es",
      "example": "en",
      "format": "string"
    },
    "customer_ip": {
      "type": "string",
      "description": "Highly recommend to send this custoer ip this help in adudting and tracking location.",
      "example": "10.21.50.108",
      "format": "ip address"
    },
    "access_type": {
      "type": "string",
      "description": "OAUTH parameter clients can pass to receive a refresh token for offline access.",
      "format": "string",
      "example": "offline or online"
    },
    "code": {
      "type": "string",
      "format": "string",
      "description": "Authorization code",
      "example": "200"
    },
    "access_token": {
      "type": "string",
      "format": "string",
      "description": "Authorization code",
      "example": "01.USR.GlSuX74cXGkamT8DR"
    },
    "iam": {
      "type": "object",
      "required": [
        "client_id"
      ],
      "properties": {
        "client_id": {
          "type": "string",
          "format": "string",
          "description": "Token for authorizing the client, checked by middleware for any not whitelisted connections",
          "example": "TMOAppNative"
        },
        "scope": {
          "type": "string",
          "description": "scope"
        },
        "redirect_uri": {
          "type": "string",
          "description": "redirrect Id"
        },
        "access_type": {
          "type": "string",
          "description": "the type of access"
        },
        "approval_prompt": {
          "type": "string",
          "description": "approval prompt"
        },
        "response_type": {
          "type": "string",
          "description": "type of response"
        }
      },
      "example": {
        "client_id": "TMOAppNative",
        "scope": "TMO_ID_profile associated_lines",
        "redirect_uri": "https://localhost",
        "access_type": "ONLINE",
        "approval_prompt": "auto",
        "response_type": "200"
      }
    }
  }
}