{
  "swagger": "2.0",
  "info": {
    "title": "SubscriberLookup",
    "description": "This service returns an subscriber info.",
    "version": "1.0.0",
    "x-createdBy": {
      "dateCreated": "Tus Oct 02 17:13:43 2018",
      "createdBy": "SSOIFER",
      "application": "Recite",
      "appVersion": "0.3.6.2170", 
      "status": "Conceptual - Initial",
      "classification": "1.0 Customer Interaction Management", 
      "profile": "Core Business Capability Service ",
      "serviceLayer": "Enterprise - Billing"
    }
  },
  "host": "dev01.api.t-mobile.com",
  "basePath": "/billing/v2/subscribers",
  "schemes": [
    "https"
  ],
  "paths": {
    "/billing/v2/subscribers/details": {
      "post": {
        "tags": [
          "subscriber-rest"
        ],
        "summary": "get subscriber by search criteria",
        "description": "Return subscriber by search criteria using post method",
        "operationId": "subscribersDetailsUsingPost",
        "consumes": [
          "application/json"
        ],
        "produces": [
          "application/json"
        ],
        "parameters": [{
          "name": "subscriberRequestUsingPost",
          "required": true,
          "in": "body",
          "description": "financial account id",
          "schema": {
              "$ref": "#/definitions/GetSubscriberRequest"
            }
        },
          {
            "name": "classificationlevel",
            "in": "query",
            "description": "Indicates whether the Price Plan or the SOC is at  a Subscriber level or at a BAN level. Valid values:  ACCOUNT / SUBSCRIBER",
            "required": false,
            "type": "string",
            "enum": [
              "ACCOUNT",
              "SUBSCRIBER"
            ]
          },
          {
            "name": "classificationtype",
            "in": "query",
            "description": "The service type - price plan ,AddOn . Valid values: RATE_PLAN / ADD-ONS",
            "required": false,
            "type": "string",
            "enum": [
              "RATE_PLAN",
              "ADD_ONS"
            ]
          },
          {
            "name": "mobileNumber",
            "in": "query",
            "description": "The CTN Number",
            "required": false,
            "type": "string"
          },
          {
            "in": "query",
            "name": "pagenumber",
            "description": "The Page Number",
            "required": false,
            "type": "integer"
          },
          {
            "in": "query",
            "name": "pagesize",
            "description": "The Page Size",
            "required": false,
            "type": "integer"
          },
          {
            "name": "Accept",
            "in": "header",
            "description": "Content-Types that are acceptable including application/json or application/xml (default assumed application/json)",
            "required": false,
            "type": "string"
          },
          {
            "name": "Accept-Charset",
            "in": "header",
            "description": "Character sets that are acceptable.",
            "required": false,
            "type": "string"
          },
          {
            "name": "Accept-Encoding",
            "in": "header",
            "description": "List of acceptable encodings. See HTTP compression.",
            "required": false,
            "type": "string"
          },
          {
            "name": "Accept-Language",
            "in": "header",
            "description": "List of acceptable human languages for response",
            "required": false,
            "type": "string"
          },
          {
            "name": "Authorization",
            "in": "header",
            "description": "OAuth 2.0 access token with the authentication type set as Bearer.",
            "required": true,
            "type": "string"
          },
                              {
            "name": "X-Authorization",
            "in": "header",
            "description": "OAuth 2.0 access token with the authentication type set as Bearer.",
            "required": false,
            "type": "string"
          },
                    {
            "name": "X-Auth-Originator",
            "in": "header",
            "description": "OAuth 2.0 access token with the authentication type set as Bearer.",
            "required": true,
            "type": "string"
          },
          {
            "name": "Content-Type",
            "in": "header",
            "description": "The Content-Length header specifies the actual length of the returned payload.",
            "required": true,
            "type": "string"
          },
          {
            "name": "Date",
            "in": "header",
            "description": "The date and time that the message was originated (in HTTP-date format as defined by RFC 7231 Date/Time Formats).",
            "required": false,
            "type": "string",
            "format": "date-time"
          },
          {
            "name": "If-Modified-Since",
            "in": "header",
            "description": "The If-Modified-Since header specifies date-related conditions to be placed on the execution of a request.  The request will only be executed if the requested resource has not been modified since the date-time specified.  Because the behavior is complex, the details for usage are provided at http://www.w3.org/Protocols/rfc2616/rfc2616-sec14.html",
            "required": false,
            "type": "string",
            "x-example":"1540183534000"
          },
          {
            "name": "If-None-Match",
            "in": "header",
            "description": "The If-None-Match header specifies an ETag-related condition to be placed on the execution of a request.  The request will NOT be executed if the ETag of the requested resource matches one of those specified in the If-None-Match header.  Because the behavior is complex, the details for usage are provided at http://www.w3.org/Protocols/rfc2616/rfc2616-sec14.html",
            "required": false,
            "type": "string"
          },
          {
            "name": "activityid",
            "in": "header",
            "description": "Unique id alphanumeric value generated and sent by the partner to identify every the service request uniquely. Sample: XyzA:D1s5s1i-X6AFRvfiPBfs-1234  Pass as is to downstream calls.",
            "required": true,
            "type": "string"
          },
          {
            "name": "applicationid",
            "in": "header",
            "description": "Identifies the application, system, or tool that is being used to perform the transaction related to this request. Below are the sample values.ACUI, ESERVICE, REBELLION, WARP",
            "required": false,
            "type": "string"
          },
          {
            "name": "applicationuserid",
            "in": "header",
            "description": "NT id of the one who is managing the transaction from CARE/RETAIL channels.",
            "required": false,
            "type": "string"
          },
          {
            "name": "authcustomerid",
            "in": "header",
            "description": "Customer id _ of the person that is interacting with the system.",
            "required": false,
            "type": "string"
          },
          {
            "name": "authlineofserviceid",
            "in": "header",
            "description": "Service Line that the customer intends to operate on, while interacting with the system.",
            "required": false,
            "type": "string"
          },
          {
            "name": "channelid",
            "in": "header",
            "description": "Identifies the business unit or sales channel for the Request.Below are the sample values:            Care            TeleSales            FullService            BusinessDirect            FinancePartners            NonFinancePartners            SelfServiceAuthenticated            SelfServiceAnonymous            InteractiveVoiceResponse",
            "required": false,
            "type": "string"
          },
          {
            "name": "dealercode",
            "in": "header",
            "description": "Unique code to identify the dealer/rep user.",
            "required": false,
            "type": "string",
            "format": "string"
          },
          {
            "name": "interactionid",
            "in": "header",
            "description": "Alphanumeric value represent a common transaction id across all calls made from UI, while completing all business activity needs of a particular customer.",
            "required": false,
            "type": "string"
          },
          {
            "name": "segmentationid",
            "in": "header",
            "description": "Identifier of customers primary data center.Sample: Polaris,Titan",
            "required": false,
            "type": "string"
          },
          {
            "name": "senderid",
            "in": "header",
            "description": "Uniquely identifies an Operation consumer. Below are the sample values.ACUI, MYTMO, QVXP, REBELLION, WALMARTRETAIL, SAMSCLUBRETAIL.",
            "required": false,
            "type": "string"
          },
          {
            "name": "sessionid",
            "in": "header",
            "description": "A value populated by the sender used to track the transactions that occur during a session, a long-lasting interaction that ismaintained by the sender.",
            "required": false,
            "type": "string"
          },
          {
            "name": "storeid",
            "in": "header",
            "description": "Unique identifier for the retail store location.",
            "required": false,
            "type": "string"
          },
          {
            "name": "terminalid",
            "in": "header",
            "description": "Unique identifier for the retail store terminal. Needed for FullService  (Tmobile RETAIL channel). Need to discuss with T-Mobile business liaison if there is a need for Partner to pass their retail Store Id).",
            "required": false,
            "type": "string"
          },
          {
            "name": "tillid",
            "in": "header",
            "description": "Unique identifier for the retail register. Needed for FullService  (Tmobile RETAIL channel). Need to discuss with T-Mobile business liaison if there is a need for Partner to pass their retail Store Id).",
            "required": false,
            "type": "string"
          },
          {
            "name": "timestamp",
            "in": "header",
            "description": "A timestamp provided by sender to track their workflow. If it is empty APIGEE can send current system timestamp.",
            "required": false,
            "type": "string",
            "format": "string"
          },
          {
            "name": "workflowid",
            "in": "header",
            "description": "Workflow name (NEW/ADD/EXCHANGE/RETURN)/OrderTypes _ ACTIVATION ADDALINE CHANGEDEVICE_JUMP CHANGEDEVICE",
            "required": false,
            "type": "string"
          }
        ],
        "responses": {
          "207": {
            "description": "The charges resource has been found.  Returning the ban charges.",
            "headers": {
              "Cache-Control": {
                "description": "No cache indicators supported at this time. Samples: no-cache",
                "type": "string"
              },
              "Content-Encoding": {
                "description": "The type of encoding used on the data",
                "type": "string"
              },
              "Content-Language": {
                "description": "The natural language or languages of the intended audience for the enclosed content",
                "type": "string"
              },
              "Content-Length": {
                "description": "The Content-Length header specifies the actual length of the returned payload.",
                "type": "string"
              },
              "Content-Type": {
                "description": "The Content-Length header specifies the actual length of the returned payload.",
                "type": "string"
              },
              "Date": {
                "description": "The date and time that the message was originated (in HTTP-date format as defined by RFC 7231 Date/Time Formats).",
                "type": "string",
                "format": "date-time"
              },
              "ETag": {
                "description": "The ETag header specifies the unique entity tag value for the returned resource.",
                "type": "string"
              },
              "Last-Modified": {
                "description": "The Last-Modified entity-header field indicates the date and time at which the origin server believes the variant was last modified.",
                "type": "string",
                "format": "date-time"
              },
              "Transfer-Encoding": {
                "description": "The form of encoding used to safely transfer the entity to the user. Currently defined methods are: chunked, compress, deflate, gzip, identity.",
                "type": "string"
              },
              "servicetransactionid": {
                "description": "Internal identifier for transaction tracking an individual transaction/API request within API platform. Don_t receive/don_t send to downstream",
                "type": "string"
              }
            },
            "schema": {
              "$ref": "#/definitions/Subscriber"
            }
          },
          "400": {
            "description": "Bad Request",
            "schema": {
              "$ref": "#/definitions/ErrorCollection"
            }
          },
          "401": {
            "description": "Unauthorized",
            "schema": {
              "$ref": "#/definitions/ErrorCollection"
            }
          },
          "404": {
            "description": "Resource not found",
            "schema": {
              "$ref": "#/definitions/ErrorCollection"
            }
          },
          "500": {
            "description": "System Error",
            "schema": {
              "$ref": "#/definitions/ErrorCollection"
            }
          },
          "503": {
            "description": "Service unavailable",
            "schema": {
              "$ref": "#/definitions/ErrorCollection"
            }
          }
        },
        "security": []
      },
      "get":{
               "tags": [
          "subscriber-rest"
        ],
        "summary": "get subscriber by search criteria",
        "description": "Return subscriber by search criteria, using get method",
        "operationId": "subscribersDetailsUsingGet",
        "consumes": [
          "application/json"
        ],
        "produces": [
          "application/json"
        ],
        "parameters": [
          {
            "name": "financialAccountNumber",
            "in": "query",
            "description": "The financial account number ",
            "required": true,
            "type": "string",
            "x-example":"123456789"
          },
                    {
            "name": "mobileNumber",
            "in": "query",
            "description": "The msisdn ",
            "required": false,
            "type": "string",
            "x-example":"12345678"
          },
          
          {
            "name": "classificationlevel",
            "in": "query",
            "description": "Indicates whether the Price Plan or the SOC is at  a Subscriber level or at a BAN level. Valid values:  ACCOUNT / SUBSCRIBER",
            "required": false,
            "type": "string",
            "enum": [
              "ACCOUNT",
              "SUBSCRIBER"
            ]
          },
          {
            "name": "classificationtype",
            "in": "query",
            "description": "The service type - price plan ,AddOn . Valid values: RATE_PLAN / ADD-ONS",
            "required": false,
            "type": "string",
            "enum": [
              "RATE_PLAN",
              "ADD_ONS"
            ]
          },
          {
            "in": "query",
            "name": "pagenumber",
            "description": "The Page Number",
            "required": false,
            "type": "integer"
          },
          {
            "in": "query",
            "name": "pagesize",
            "description": "The Page Size",
            "required": false,
            "type": "integer"
          },
          {
            "name": "Accept",
            "in": "header",
            "description": "Content-Types that are acceptable including application/json or application/xml (default assumed application/json)",
            "required": false,
            "type": "string"
          },
          {
            "name": "Accept-Charset",
            "in": "header",
            "description": "Character sets that are acceptable.",
            "required": false,
            "type": "string"
          },
          {
            "name": "Accept-Encoding",
            "in": "header",
            "description": "List of acceptable encodings. See HTTP compression.",
            "required": false,
            "type": "string"
          },
          {
            "name": "Accept-Language",
            "in": "header",
            "description": "List of acceptable human languages for response",
            "required": false,
            "type": "string"
          },
          {
            "name": "Authorization",
            "in": "header",
            "description": "OAuth 2.0 access token with the authentication type set as Bearer.",
            "required": true,
            "type": "string"
          },
                    {
            "name": "X-Authorization",
            "in": "header",
            "description": "OAuth 2.0 access token with the authentication type set as Bearer.",
            "required": false,
            "type": "string"
          },
                    {
            "name": "X-Auth-Originator",
            "in": "header",
            "description": "OAuth 2.0 access token with the authentication type set as Bearer.",
            "required": true,
            "type": "string"
          },
          {
            "name": "Content-Type",
            "in": "header",
            "description": "The Content-Length header specifies the actual length of the returned payload.",
            "required": true,
            "type": "string"
          },
          {
            "name": "Date",
            "in": "header",
            "description": "The date and time that the message was originated (in HTTP-date format as defined by RFC 7231 Date/Time Formats).",
            "required": false,
            "type": "string",
            "format": "date-time"
          },
          {
            "name": "If-Modified-Since",
            "in": "header",
            "description": "The If-Modified-Since header specifies date-related conditions to be placed on the execution of a request.  The request will only be executed if the requested resource has not been modified since the date-time specified.  Because the behavior is complex, the details for usage are provided at http://www.w3.org/Protocols/rfc2616/rfc2616-sec14.html",
            "required": false,
            "type": "string",
            "x-example": "1540183534000"
          },
          {
            "name": "If-None-Match",
            "in": "header",
            "description": "The If-None-Match header specifies an ETag-related condition to be placed on the execution of a request.  The request will NOT be executed if the ETag of the requested resource matches one of those specified in the If-None-Match header.  Because the behavior is complex, the details for usage are provided at http://www.w3.org/Protocols/rfc2616/rfc2616-sec14.html",
            "required": false,
            "type": "string"
          },
          {
            "name": "activityid",
            "in": "header",
            "description": "Unique id alphanumeric value generated and sent by the partner to identify every the service request uniquely. Sample: XyzA:D1s5s1i-X6AFRvfiPBfs-1234  Pass as is to downstream calls.",
            "required": true,
            "type": "string"
          },
          {
            "name": "applicationid",
            "in": "header",
            "description": "Identifies the application, system, or tool that is being used to perform the transaction related to this request. Below are the sample values.ACUI, ESERVICE, REBELLION, WARP",
            "required": false,
            "type": "string"
          },
          {
            "name": "applicationuserid",
            "in": "header",
            "description": "NT id of the one who is managing the transaction from CARE/RETAIL channels.",
            "required": false,
            "type": "string"
          },
          {
            "name": "authcustomerid",
            "in": "header",
            "description": "Customer id _ of the person that is interacting with the system.",
            "required": false,
            "type": "string"
          },
          {
            "name": "authlineofserviceid",
            "in": "header",
            "description": "Service Line that the customer intends to operate on, while interacting with the system.",
            "required": false,
            "type": "string"
          },
          {
            "name": "channelid",
            "in": "header",
            "description": "Identifies the business unit or sales channel for the Request.Below are the sample values:            Care            TeleSales            FullService            BusinessDirect            FinancePartners            NonFinancePartners            SelfServiceAuthenticated            SelfServiceAnonymous            InteractiveVoiceResponse",
            "required": false,
            "type": "string"
          },
          {
            "name": "dealercode",
            "in": "header",
            "description": "Unique code to identify the dealer/rep user.",
            "required": false,
            "type": "string",
            "format": "string"
          },
          {
            "name": "includeProducts",
            "description": "fetch subscriber products",
            "in": "query",
            "required": false,
            "type": "boolean"
          },
          {
            "name": "interactionid",
            "in": "header",
            "description": "Alphanumeric value represent a common transaction id across all calls made from UI, while completing all business activity needs of a particular customer.",
            "required": false,
            "type": "string"
          },
          {
            "name": "segmentationid",
            "in": "header",
            "description": "Identifier of customers primary data center.Sample: Polaris,Titan",
            "required": false,
            "type": "string"
          },
          {
            "name": "senderid",
            "in": "header",
            "description": "Uniquely identifies an Operation consumer. Below are the sample values.ACUI, MYTMO, QVXP, REBELLION, WALMARTRETAIL, SAMSCLUBRETAIL.",
            "required": false,
            "type": "string"
          },
          {
            "name": "sessionid",
            "in": "header",
            "description": "A value populated by the sender used to track the transactions that occur during a session, a long-lasting interaction that ismaintained by the sender.",
            "required": false,
            "type": "string"
          },
          {
            "name": "storeid",
            "in": "header",
            "description": "Unique identifier for the retail store location.",
            "required": false,
            "type": "string"
          },
          {
            "name": "terminalid",
            "in": "header",
            "description": "Unique identifier for the retail store terminal. Needed for FullService  (Tmobile RETAIL channel). Need to discuss with T-Mobile business liaison if there is a need for Partner to pass their retail Store Id).",
            "required": false,
            "type": "string"
          },
          {
            "name": "tillid",
            "in": "header",
            "description": "Unique identifier for the retail register. Needed for FullService  (Tmobile RETAIL channel). Need to discuss with T-Mobile business liaison if there is a need for Partner to pass their retail Store Id).",
            "required": false,
            "type": "string"
          },
          {
            "name": "timestamp",
            "in": "header",
            "description": "A timestamp provided by sender to track their workflow. If it is empty APIGEE can send current system timestamp.",
            "required": false,
            "type": "string",
            "format": "string"
          },
          {
            "name": "workflowid",
            "in": "header",
            "description": "Workflow name (NEW/ADD/EXCHANGE/RETURN)/OrderTypes _ ACTIVATION ADDALINE CHANGEDEVICE_JUMP CHANGEDEVICE",
            "required": false,
            "type": "string"
          }
        ],
        "responses": {
          "200": {
            "description": "The charges resource has been found.  Returning the ban charges.",
            "headers": {
              "Cache-Control": {
                "description": "No cache indicators supported at this time. Samples: no-cache",
                "type": "string"
              },
              "Content-Encoding": {
                "description": "The type of encoding used on the data",
                "type": "string"
              },
              "Content-Language": {
                "description": "The natural language or languages of the intended audience for the enclosed content",
                "type": "string"
              },
              "Content-Length": {
                "description": "The Content-Length header specifies the actual length of the returned payload.",
                "type": "string"
              },
              "Content-Type": {
                "description": "The Content-Length header specifies the actual length of the returned payload.",
                "type": "string"
              },
              "Date": {
                "description": "The date and time that the message was originated (in HTTP-date format as defined by RFC 7231 Date/Time Formats).",
                "type": "string",
                "format": "date-time"
              },
              "ETag": {
                "description": "The ETag header specifies the unique entity tag value for the returned resource.",
                "type": "string"
              },
              "Last-Modified": {
                "description": "The Last-Modified entity-header field indicates the date and time at which the origin server believes the variant was last modified.",
                "type": "string",
                "format": "date-time"
              },
              "Transfer-Encoding": {
                "description": "The form of encoding used to safely transfer the entity to the user. Currently defined methods are: chunked, compress, deflate, gzip, identity.",
                "type": "string"
              },
              "servicetransactionid": {
                "description": "Internal identifier for transaction tracking an individual transaction/API request within API platform. Don_t receive/don_t send to downstream",
                "type": "string"
              }
            },
            "schema": {
              "type": "array",
              "items": {
                 "$ref": "#/definitions/Subscriber"
	      }
            }
          },
          "304": {
            "description": "Not Modified.  Will be returned in the response if Service Agreement and Ban Discount data is not modified since the timestamp mentioned in the request parameter",
            "headers": {
              "Last-Modified": {
                "description": "The Last-Modified entity-header field indicates the date and time at which the origin server believes the variant was last modified.",
                "type": "string",
                "format": "date-time"
              }
            }
          },
          "400": {
            "description": "Bad Request",
            "schema": {
              "$ref": "#/definitions/ErrorCollection"
            }
          },
          "401": {
            "description": "Unauthorized",
            "schema": {
              "$ref": "#/definitions/ErrorCollection"
            }
          },
          "404": {
            "description": "Resource not found",
            "schema": {
              "$ref": "#/definitions/ErrorCollection"
            }
          },
          "500": {
            "description": "System Error",
            "schema": {
              "$ref": "#/definitions/ErrorCollection"
            }
          },
          "503": {
            "description": "Service unavailable",
            "schema": {
              "$ref": "#/definitions/ErrorCollection"
            }
          }
        },
        "security": []
      }
    },
      
    "/billing/v2/subscribers/summary": {
      "post": {
        "tags": [
          "get charges"
        ],
        "summary": "get subscribers by various parameteres",
        "description": "Return subscriber list",
        "operationId": "getSubscribersSummary",
        "consumes": [
          "application/json"
        ],
        "produces": [
          "application/json"
        ],
        "parameters": [{
          "name": "subscribersSearch",
          "in": "body",
          "description": "subscribers-search-request",
          "required": true,
          "schema": { 
              "$ref": "#/definitions/SubscriberSearchRequest"
            }
        },
          {
            "name": "classificationlevel",
            "in": "query",
            "description": "Indicates whether the Price Plan or the SOC is at  a Subscriber level or at a BAN level. Valid values:  ACCOUNT / SUBSCRIBER",
            "required": false,
            "type": "string",
            "enum": [
              "ACCOUNT",
              "SUBSCRIBER"
            ]
          },
          {
            "name": "classificationtype",
            "in": "query",
            "description": "The service type - price plan ,AddOn . Valid values: RATE_PLAN / ADD-ONS",
            "required": false,
            "type": "string",
            "enum": [
              "RATE_PLAN",
              "ADD_ONS"
            ]
          },
          {
            "name": "mobileNumber",
            "in": "query",
            "description": "The CTN Number",
            "required": false,
            "type": "string"
          },
          {
            "in": "query",
            "name": "pagenumber",
            "description": "The Page Number",
            "required": false,
            "type": "integer"
          },
          {
            "in": "query",
            "name": "pagesize",
            "description": "The Page Size",
            "required": false,
            "type": "integer"
          },
          {
            "name": "Accept",
            "in": "header",
            "description": "Content-Types that are acceptable including application/json or application/xml (default assumed application/json)",
            "required": false,
            "type": "string"
          },
          {
            "name": "Accept-Charset",
            "in": "header",
            "description": "Character sets that are acceptable.",
            "required": false,
            "type": "string"
          },
          {
            "name": "Accept-Encoding",
            "in": "header",
            "description": "List of acceptable encodings. See HTTP compression.",
            "required": false,
            "type": "string"
          },
          {
            "name": "Accept-Language",
            "in": "header",
            "description": "List of acceptable human languages for response",
            "required": false,
            "type": "string"
          },
          {
            "name": "Authorization",
            "in": "header",
            "description": "OAuth 2.0 access token with the authentication type set as Bearer.",
            "required": true,
            "type": "string"
          },
          {
            "name": "Content-Type",
            "in": "header",
            "description": "The Content-Length header specifies the actual length of the returned payload.",
            "required": true,
            "type": "string"
          },
          {
            "name": "Date",
            "in": "header",
            "description": "The date and time that the message was originated (in HTTP-date format as defined by RFC 7231 Date/Time Formats).",
            "required": false,
            "type": "string",
            "format": "date-time"
          },
          {
            "name": "If-Modified-Since",
            "in": "header",
            "description": "The If-Modified-Since header specifies date-related conditions to be placed on the execution of a request.  The request will only be executed if the requested resource has not been modified since the date-time specified.  Because the behavior is complex, the details for usage are provided at http://www.w3.org/Protocols/rfc2616/rfc2616-sec14.html",
            "required": false,
            "type": "string",
            "x-example":"1540183534000"
          },
          {
            "name": "If-None-Match",
            "in": "header",
            "description": "The If-None-Match header specifies an ETag-related condition to be placed on the execution of a request.  The request will NOT be executed if the ETag of the requested resource matches one of those specified in the If-None-Match header.  Because the behavior is complex, the details for usage are provided at http://www.w3.org/Protocols/rfc2616/rfc2616-sec14.html",
            "required": false,
            "type": "string"
          },
          {
            "name": "activityid",
            "in": "header",
            "description": "Unique id alphanumeric value generated and sent by the partner to identify every the service request uniquely. Sample: XyzA:D1s5s1i-X6AFRvfiPBfs-1234  Pass as is to downstream calls.",
            "required": true,
            "type": "string"
          },
          {
            "name": "applicationid",
            "in": "header",
            "description": "Identifies the application, system, or tool that is being used to perform the transaction related to this request. Below are the sample values.ACUI, ESERVICE, REBELLION, WARP",
            "required": false,
            "type": "string"
          },
          {
            "name": "applicationuserid",
            "in": "header",
            "description": "NT id of the one who is managing the transaction from CARE/RETAIL channels.",
            "required": false,
            "type": "string"
          },
          {
            "name": "authcustomerid",
            "in": "header",
            "description": "Customer id _ of the person that is interacting with the system.",
            "required": false,
            "type": "string"
          },
          {
            "name": "authlineofserviceid",
            "in": "header",
            "description": "Service Line that the customer intends to operate on, while interacting with the system.",
            "required": false,
            "type": "string"
          },
          {
            "name": "channelid",
            "in": "header",
            "description": "Identifies the business unit or sales channel for the Request.Below are the sample values:            Care            TeleSales            FullService            BusinessDirect            FinancePartners            NonFinancePartners            SelfServiceAuthenticated            SelfServiceAnonymous            InteractiveVoiceResponse",
            "required": false,
            "type": "string"
          },
          {
            "name": "dealercode",
            "in": "header",
            "description": "Unique code to identify the dealer/rep user.",
            "required": false,
            "type": "string"
          },
          {
            "name": "includeProducts",
            "description": "fetch subscriber products",
            "in": "query",
            "required": false,
            "type": "boolean"
          },
          {
            "name": "interactionid",
            "in": "header",
            "description": "Alphanumeric value represent a common transaction id across all calls made from UI, while completing all business activity needs of a particular customer.",
            "required": false,
            "type": "string"
          },
          {
            "name": "segmentationid",
            "in": "header",
            "description": "Identifier of customers primary data center.Sample: Polaris,Titan",
            "required": false,
            "type": "string"
          },
          {
            "name": "senderid",
            "in": "header",
            "description": "Uniquely identifies an Operation consumer. Below are the sample values.ACUI, MYTMO, QVXP, REBELLION, WALMARTRETAIL, SAMSCLUBRETAIL.",
            "required": false,
            "type": "string"
          },
          {
            "name": "sessionid",
            "in": "header",
            "description": "A value populated by the sender used to track the transactions that occur during a session, a long-lasting interaction that ismaintained by the sender.",
            "required": false,
            "type": "string"
          },
          {
            "name": "storeid",
            "in": "header",
            "description": "Unique identifier for the retail store location.",
            "required": false,
            "type": "string"
          },
          {
            "name": "terminalid",
            "in": "header",
            "description": "Unique identifier for the retail store terminal. Needed for FullService  (Tmobile RETAIL channel). Need to discuss with T-Mobile business liaison if there is a need for Partner to pass their retail Store Id).",
            "required": false,
            "type": "string"
          },
          {
            "name": "tillid",
            "in": "header",
            "description": "Unique identifier for the retail register. Needed for FullService  (Tmobile RETAIL channel). Need to discuss with T-Mobile business liaison if there is a need for Partner to pass their retail Store Id).",
            "required": false,
            "type": "string"
          },
          {
            "name": "timestamp",
            "in": "header",
            "description": "A timestamp provided by sender to track their workflow. If it is empty APIGEE can send current system timestamp.",
            "required": false,
            "type": "string",
            "format": "string"
          },
          {
            "name": "workflowid",
            "in": "header",
            "description": "Workflow name (NEW/ADD/EXCHANGE/RETURN)/OrderTypes _ ACTIVATION ADDALINE CHANGEDEVICE_JUMP CHANGEDEVICE",
            "required": false,
            "type": "string"
          }
        ],
        "responses": {
          "207": {
            "description": "The charges resource has been found.  Returning the ban charges.",
            "headers": {
              "Cache-Control": {
                "description": "No cache indicators supported at this time. Samples: no-cache",
                "type": "string"
              },
              "Content-Encoding": {
                "description": "The type of encoding used on the data",
                "type": "string"
              },
              "Content-Language": {
                "description": "The natural language or languages of the intended audience for the enclosed content",
                "type": "string"
              },
              "Content-Length": {
                "description": "The Content-Length header specifies the actual length of the returned payload.",
                "type": "string"
              },
              "Content-Type": {
                "description": "The Content-Length header specifies the actual length of the returned payload.",
                "type": "string"
              },
              "Date": {
                "description": "The date and time that the message was originated (in HTTP-date format as defined by RFC 7231 Date/Time Formats).",
                "type": "string",
                "format": "date-time"
              },
              "ETag": {
                "description": "The ETag header specifies the unique entity tag value for the returned resource.",
                "type": "string"
              },
              "Last-Modified": {
                "description": "The Last-Modified entity-header field indicates the date and time at which the origin server believes the variant was last modified.",
                "type": "string",
                "format": "date-time"
              },
              "Transfer-Encoding": {
                "description": "The form of encoding used to safely transfer the entity to the user. Currently defined methods are: chunked, compress, deflate, gzip, identity.",
                "type": "string"
              },
              "servicetransactionid": {
                "description": "Internal identifier for transaction tracking an individual transaction/API request within API platform. Don_t receive/don_t send to downstream",
                "type": "string"
              }
            },
            "schema": {
              "type": "array",
              "items": {
                "$ref": "#/definitions/BillingAccountResponse"
              }
            }
          },
          "304": {
            "description": "Not Modified.  Will be returned in the response if Service Agreement and Ban Discount data is not modified since the timestamp mentioned in the request parameter",
            "headers": {
              "Last-Modified": {
                "description": "The Last-Modified entity-header field indicates the date and time at which the origin server believes the variant was last modified.",
                "type": "string",
                "format": "date-time"
              }
            }
          },
          "400": {
            "description": "Bad Request",
            "schema": {
              "$ref": "#/definitions/ErrorCollection"
            }
          },
          "401": {
            "description": "Unauthorized",
            "schema": {
              "$ref": "#/definitions/ErrorCollection"
            }
          },
          "404": {
            "description": "Resource not found",
            "schema": {
              "$ref": "#/definitions/ErrorCollection"
            }
          },
          "500": {
            "description": "System Error",
            "schema": {
              "$ref": "#/definitions/ErrorCollection"
            }
          },
          "503": {
            "description": "Service unavailable",
            "schema": {
              "$ref": "#/definitions/ErrorCollection"
            }
          }
        },
        "security": []
      }
    }
  },
  "definitions": {
    "GetSubscriberRequest": {
      "description": "financialAccountNumber is optional",
      "type": "object",
      "properties": {
        "msisdn": {
          "type": "string"
        },
        "financialAccountNumber": {
          "type": "string"
        }
      }
    },
    "Subscriber": {
      "type": "object",
      "properties": {
        "_links": {
          "type": "array",
          "items": {
            "$ref": "./definitions.json#/definitions/IdRef"
          }
        },
        "activatingDealer": {
          "$ref": "#/definitions/DealerProfile"
        },
        "activatingStoreInfo": {
          "$ref": "#/definitions/StoreInfo"
        },
        "activationDate": {
          "type": "string",
          "format": "date-time"
        },
        "billingAccountId": {
          "type": "string"
        },
        "contact": {
          "$ref": "#/definitions/ContactInfo"
        },
        "lastActivityCode": {
          "$ref": "#/definitions/StatusActivityCode"
        },
        "marketType": {
          "$ref": "#/definitions/MarketType"
        },
        "mobileNumber": {
          "type": "string"
        },
        "paperworkDate": {
          "type": "string",
          "format": "date-time"
        },
        "productType": {
          "$ref": "#/definitions/SubscriberProductType"
        },
        "products": {
          "type": "array",
          "items": {
            "$ref": "./definitions.json#/definitions/ProductRef"
          }
        },
        "resource": {
          "type": "array",
          "items": {
            "$ref": "#/definitions/Resource"
          }
        },
        "status": {
          "$ref": "#/definitions/SubscriberStatus"
        },
        "statusDate": {
          "type": "string",
          "format": "date-time"
        },
        "uuid": {
          "type": "string"
        },
        "lineType": {
          "type": "string",
		  "description":"valid values A, C, D, F, I, V"
        },
        "errorsList": {
          "type":"array",
          "items":{
          "$ref": "#/definitions/Error"
        }
        }
      }
    },
    "DealerProfile": {
      "type": "object",
      "properties": {
        "code": {
          "type": "string"
        },
        "description": {
          "type": "string"
        },
        "name": {
          "type": "string"
        },
        "salesChannel": {
          "type": "string"
        }
      }
    },
    "StoreInfo": {
      "type": "object",
      "properties": {
        "code": {
          "type": "string"
        },
        "description": {
          "type": "string"
        },
        "name": {
          "type": "string"
        }
      }
    },
    "ContactInfo": {
      "type": "object",
      "properties": {
        "firstName": {
          "type": "string"
        },
        "lastName": {
          "type": "string"
        },
        "middleInitial": {
          "type": "string"
        },
        "nameId": {
          "type": "integer",
          "format": "int64"
        },
        "suffix": {
          "type": "string"
        },
        "title": {
          "type": "string"
        }
      }
    },
    "StatusActivityCode": {
      "type": "object",
      "properties": {
        "code": {
          "type": "string",
          "description":"valid values CAN,CCN,CCP,MCN,NAC,RCL,RES,RSP,SUS"
        },
        "description": {
          "type": "string"
        },
        "name": {
          "type": "string"
        },
        "reasonCode": {
          "type": "string",
          "description":"valid values EQU, MAN, PPC, PPD, Sta"

        },
        "reasonName": {
          "type": "string"
        }
      }
    },
    "MarketType": {
      "type": "object",
      "properties": {
        "code": {
          "type": "string"
        },
        "description": {
          "type": "string"
        },
        "name": {
          "type": "string"
        }
      }
    },
    "SubscriberProductType": {
      "type": "object",
      "properties": {
        "code": {
          "type": "string"
        },
        "description": {
          "type": "string"
        },
        "name": {
          "type": "string"
        }
      }
    },
    "Resource": {
      "type": "object",
      "properties": {
        "endDate": {
          "type": "string",
          "format": "date-time"
        },
        "name": {
          "type": "string"
        },
        "startDate": {
          "type": "string",
          "format": "date-time"
        },
        "type": {
          "$ref": "#/definitions/ResourceType"
        },
        "value": {
          "type": "string"
        }
      }
    },
    "ResourceType": {
      "type": "object",
      "properties": {
        "code": {
          "type": "string"
        },
        "description": {
          "type": "string"
        },
        "name": {
          "type": "string"
        }
      }
    },
    "SubscriberStatus": {
      "type": "object",
      "properties": {
        "code": {
          "type": "string",
          "description":"valid values for status code A, B, C, O, R, S"
        },
        "description": {
          "type": "string"
        },
        "name": {
          "type": "string"
        }
      }
    },
    "SubscriberSearchRequest": {
      "type": "object",
      "description": "only one of the following attributes is allowed in the request, sending more than one array will result in a 400 bad request.",
      "properties": {
        "msisdns": {
          "type": "array",
          "items": {
            "type": "string"
          }
        },
        "billingAccountIds": {
          "type": "array",
          "items": {
            "type": "string"
          }
        },
        "sims": {
          "type": "array",
          "items": {
            "type": "string"
          }
        },
        "imeis": {
          "type": "array",
          "items": {
            "type": "string"
          }
        },
        "uuids": {
          "type": "array",
          "items": {
            "type": "string"
          }
        },
        "billingAccountIdAndMsisdnCombinations": {
          "type": "array",
          "items": {
            "type": "object",
            "properties": {
              "billingAccountId": {
                "type": "string"
              },
              "msisdn": {
                "type": "string"
              }
            }
          }
        }
      }
    },
    "BillingAccountResponse": {
      "type": "object",
      "properties": {
        "billingAccountId": {
          "type": "string"
        },
        "subscribers": {
          "type": "array",
          "items": {
            "$ref": "#/definitions/Subscriber"
          }
        }
      }
    },
    "Error": {
      "description": "Error object.",
      "type": "object",
      "properties": {
        "code": {
          "description": "A specific T-Mobile error code.",
          "type": "string"
        },
        "userMessage": {
          "description": "A human-readable message describing the error.",
          "type": "string"
        },
        "systemMessage": {
          "description": "Backend system error message.",
          "type": "string"
        }
      }
    },
    "ErrorCollection": {
      "description": "The array of error objects. As defined in https://tmobileusa.sharepoint.com/teams/EnterpriseServices/ESG%20Standards%20Documents/APIs/T-Mobile%20API%20Design%20Guidelines%20v1.0.docx",
      "type": "object",
      "properties": {
        "errors": {
          "type": "array",
          "items": {
            "$ref": "#/definitions/Error"
          }
        }
      }
    }
  },
  "securityDefinitions": {

  }
}