{
    "swagger": "2.0",
    "info": {
        "title": "PortInEligibility",
        "description": "This service is called as part of the activations service and check for portineligibility.",
        "version": "1.0.0",
        "contact": {
            "name": "Postpaid",
            "email": "Postpaid@t-mobile.com"
        }
    },
    "host": "dit01.api.t-mobile.com",
    "schemes": [
        "https"
    ],
    "basePath": "/reb2-number-mgmt/v1",
    "consumes": [
        "application/json"
    ],
    "produces": [
        "application/json"
    ],
    "paths": {
        "/port-in-eligibility": {
            "post": {
                "summary": "PortInEligibility",
                "description": "By providing the phone number, this endpoint can be used to check for portin eligibility",
                "parameters": [
                    {
                        "name": "Authorization",
                        "in": "header",
                        "required": true,
                        "type": "string",
                        "description": "Format 'Authorization Bearer <<OAuth Token>>'",
                        "pattern": ".+",
                        "x-example": {}
                    },
                    {
                        "name": "channelId",
                        "in": "header",
                        "type": "string",
                        "enum": [
                            "WEB",
                            "RETAIL",
                            "CARE",
                            "NA"
                        ],
                        "required": true,
                        "description": "Channel identifier. NA is treated as default.",
                        "x-example": {}
                    },
                    {
                        "name": "applicationId",
                        "in": "header",
                        "type": "string",
                        "enum": [
                            "REBELLION"
                        ],
                        "required": true,
                        "description": "Consuming Application identifier. NA is treated as default. More values will be added to swagger as clients are onboarded.",
                        "x-example": {}
                    },
                    {
                        "name": "interactionId",
                        "in": "header",
                        "type": "string",
                        "required": true,
                        "description": "Alphanumeric value represent a common transaction id across all calls made from UI, while completing all business activity needs of a particular customer.",
                        "pattern": ".+",
                        "x-example": {}
                    },
                    {
                        "name": "senderId",
                        "in": "header",
                        "type": "string",
                        "required": false,
                        "description": "SenderId care or retail or Web",
                        "x-example": {}
                    },
                    {
                        "name": "storeId",
                        "in": "header",
                        "type": "string",
                        "required": false,
                        "description": "Unique identifier for the retail store location. Mandatory for FullService  (Tmobile RETAIL channel). Need to discuss with T-Mobile business liaison if there is a need for Partner to pass their retail Store Id).",
                        "x-example": {}
                    },
                    {
                        "name": "applicationUserId",
                        "in": "header",
                        "type": "string",
                        "required": false,
                        "description": "Application User Id sends by UI",
                        "x-example": {}
                    },
                    {
                        "name": "sessionId",
                        "in": "header",
                        "type": "string",
                        "required": false,
                        "description": "session Id sends by UI",
                        "x-example": {}
                    },
                    {
                        "name": "workFlowId",
                        "in": "header",
                        "type": "string",
                        "required": false,
                        "description": "workFlow Id sends by UI",
                        "x-example": {}
                    },
                    {
                        "name": "activityId",
                        "in": "header",
                        "type": "string",
                        "required": false,
                        "description": "activity Id sends by UI",
                        "x-example": {}
                    },
                    {
                        "name": "timeStamp",
                        "in": "header",
                        "type": "string",
                        "required": false,
                        "description": "Time stamp sends by UI",
                        "x-example": {}
                    },
                    {
                        "name": "PortInEligibilityPayload",
                        "in": "body",
                        "description": "request parameters",
                        "required": true,
                        "schema": {
                            "$ref": "#/definitions/PortInEligibilityRequest"
                        },
                        "x-example": {}
                    },
                    {
                        "name": "If-Modified-Since",
                        "in": "header",
                        "description": "The If-Modified-Since header specifies date-related conditions to be placed on the execution of a request.  The request will only be executed if the requested resource has not been modified since the date-time specified.  Because the behavior is complex, the details for usage are provided at http://www.w3.org/Protocols/rfc2616/rfc2616-sec14.html",
                        "x-example": "Wed, 18-Apr-2018 11:34:57 GMT",
                        "required": false,
                        "type": "string"
                    },
                    {
                        "name": "If-None-Match",
                        "in": "header",
                        "description": "The If-None-Match header specifies an ETag-related condition to be placed on the execution of a request.  The request will NOT be executed if the ETag of the requested resource matches one of those specified in the If-None-Match header.  Because the behavior is complex, the details for usage are provided at http://www.w3.org/Protocols/rfc2616/rfc2616-sec14.html",
                        "x-example": "*",
                        "required": false,
                        "type": "string"
                    }
                ],
                "tags": [
                    "PortInEligibility"
                ],
                "responses": {
                    "200": {
                        "description": "PortInEligibility Response",
                        "schema": {
                            "$ref": "#/definitions/PortInEligibilityResponse"
                        },
                        "headers": {
                            "Cache-Control": {
                                "description": "No cache indicators supported at this time. Samples: no-cache",
                                "x-example": "no-cache",
                                "type": "string"
                            },
                            "Content-Encoding": {
                                "description": "The type of encoding used on the data",
                                "x-example": "gzip,deflate",
                                "type": "string"
                            },
                            "Content-Language": {
                                "description": "The natural language or languages of the intended audience for the enclosed content",
                                "x-example": "da",
                                "type": "string"
                            },
                            "Content-Length": {
                                "description": "The Content-Length header specifies the actual length of the returned payload.",
                                "x-example": "1024",
                                "type": "string"
                            },
                            "Content-Type": {
                                "description": "The MIME type of this content",
                                "x-example": "text/xml",
                                "pattern": "^[\\S]*$",
                                "type": "string"
                            },
                            "Date": {
                                "description": "The date and time that the message was originated (in HTTP-date format as defined by RFC 7231 Date/Time Formats).",
                                "x-example": "Wed, 18-Apr-2018 11:34:57 GMT",
                                "type": "string",
                                "format": "date-time"
                            },
                            "ETag": {
                                "description": "The ETag header specifies the unique entity tag value for the returned resource.",
                                "x-example": "*",
                                "type": "string"
                            },
                            "Last-Modified": {
                                "description": "The Last-Modified entity-header field indicates the date and time at which the origin server believes the variant was last modified.",
                                "x-example": "Wed, 18-Apr-2018 11:34:57 GMT",
                                "type": "string",
                                "format": "date-time"
                            },
                            "Transfer-Encoding": {
                                "description": "The form of encoding used to safely transfer the entity to the user. Currently defined methods are: chunked, compress, deflate, gzip, identity.",
                                "x-example": "chunked",
                                "type": "string"
                            },
                            "servicetransactionid": {
                                "description": "Internal identifier for transaction tracking an individual transaction/API request within API platform. Don_t receive/don_t send to downstream",
                                "x-example": "23409209723",
                                "type": "string"
                            },
                            "If-Match": {
                                "description": "the If-Match HTTP request header makes the request conditional. For GET and HEAD methods, the server will send back the requested resource only if it matches one of the listed ETags. For PUT and other non-safe methods, it will only upload the resource in this case.",
                                "x-example": "*",
                                "type": "string"
                            },
                            "If-None-Match": {
                                "description": "the If-Match HTTP request header makes the request conditional. For GET and HEAD methods, the server will send back the requested resource only if it matches one of the listed ETags. For PUT and other non-safe methods, it will only upload the resource in this case.",
                                "x-example": "*",
                                "type": "string"
                            },
                            "serviceTransactionId": {
                                "type": "string"
                            },
                            "Location": {
                                "description": "Success Response.",
                                "type": "string",
                                "x-example": ""
                            }
                        }
                    },
                    "304": {
                        "description": "Not Modified",
                        "headers": {
                            "Cache-Control": {
                                "description": "No cache indicators supported at this time. Samples: no-cache",
                                "x-example": "no-cache",
                                "type": "string"
                            },
                            "ETag": {
                                "description": "The ETag header specifies the unique entity tag value for the returned resource.",
                                "x-example": "*",
                                "type": "string"
                            }
                        }
                    },
                    "400": {
                        "description": "Bad Request",
                        "schema": {
                            "type": "array",
                            "description": "An array of error objects.",
                            "minItems": 1,
                            "items": {
                                "$ref": "#/definitions/Error"
                            }
                        },
                        "examples": {
                            "application/json": [
                                {
                                    "code": "400",
                                    "userMessage": "Bad Request",
                                    "systemMessage": "Bad Request"
                                }
                            ]
                        },
                        "headers": {}
                    },
                    "401": {
                        "description": "Unauthorized",
                        "schema": {
                            "type": "array",
                            "description": "An array of error objects.",
                            "minItems": 1,
                            "items": {
                                "$ref": "#/definitions/Error"
                            }
                        },
                        "examples": {
                            "application/json": [
                                {
                                    "code": "401",
                                    "userMessage": "Unauthorized",
                                    "systemMessage": "Unauthorized"
                                }
                            ]
                        },
                        "headers": {}
                    },
                    "403": {
                        "description": "Client access denied",
                        "schema": {
                            "type": "array",
                            "description": "An array of error objects.",
                            "minItems": 1,
                            "items": {
                                "$ref": "#/definitions/Error"
                            }
                        },
                        "examples": {
                            "application/json": [
                                {
                                    "code": "403",
                                    "userMessage": "Client access denied",
                                    "systemMessage": "Client access denied"
                                }
                            ]
                        },
                        "headers": {}
                    },
                    "404": {
                        "description": "Resource not found",
                        "schema": {
                            "type": "array",
                            "description": "An array of error objects.",
                            "minItems": 1,
                            "items": {
                                "$ref": "#/definitions/Error"
                            }
                        },
                        "examples": {
                            "application/json": [
                                {
                                    "code": "404",
                                    "userMessage": "Resource not found",
                                    "systemMessage": "Resource not found"
                                }
                            ]
                        },
                        "headers": {}
                    },
                    "405": {
                        "description": "Method Not Allowed",
                        "schema": {
                            "type": "array",
                            "description": "An array of error objects.",
                            "minItems": 1,
                            "items": {
                                "$ref": "#/definitions/Error"
                            }
                        },
                        "examples": {
                            "application/json": [
                                {
                                    "code": "405",
                                    "userMessage": "Method Not Allowed",
                                    "systemMessage": "Method Not Allowed"
                                }
                            ]
                        },
                        "headers": {}
                    },
                    "406": {
                        "description": "Mismatching data format",
                        "schema": {
                            "type": "array",
                            "description": "An array of error objects.",
                            "minItems": 1,
                            "items": {
                                "$ref": "#/definitions/Error"
                            }
                        },
                        "examples": {
                            "application/json": [
                                {
                                    "code": "406",
                                    "userMessage": "Mismatching data format",
                                    "systemMessage": "Mismatching data format"
                                }
                            ]
                        },
                        "headers": {}
                    },
                    "500": {
                        "description": "System Error",
                        "schema": {
                            "type": "array",
                            "description": "An array of error objects.",
                            "minItems": 1,
                            "items": {
                                "$ref": "#/definitions/Error"
                            }
                        },
                        "examples": {
                            "application/json": [
                                {
                                    "code": "500",
                                    "userMessage": "System Error",
                                    "systemMessage": "System Error"
                                }
                            ]
                        },
                        "headers": {}
                    },
                    "503": {
                        "description": "Service unavailable",
                        "schema": {
                            "type": "array",
                            "description": "An array of error objects.",
                            "minItems": 1,
                            "items": {
                                "$ref": "#/definitions/Error"
                            }
                        },
                        "examples": {
                            "application/json": [
                                {
                                    "code": "503",
                                    "userMessage": "Service unavailable",
                                    "systemMessage": "Service unavailable"
                                }
                            ]
                        },
                        "headers": {}
                    }
                },
                "operationId": "/*ToDo*/SomeOpId",
                "security": [
                    {
                        "Oauth": []
                    }
                ]
            }
        }
    },
    "definitions": {
        "PortInEligibilityRequest": {
            "type": "array",
            "items": {
                "properties": {
                    "msisdn": {
                        "type": "string",
                        "description": "Msisdn taht needs to be portin",
                        "x-example": "/*ToDO*/ Some Example",
                        "pattern": ".+"
                    },
                    "lineNumber": {
                        "type": "string",
                        "description": "linenumber for which the msisdn to be portin",
                        "x-example": "/*ToDO*/ Some Example",
                        "pattern": ".+"
                    }
                },
                "type": "object",
                "description": "/*ToDo*/ Some description",
                "x-example": "/*ToDO*/ Some Example"
            },
            "description": "/*ToDo*/ Some description",
            "x-example": "/*ToDO*/ Some Example"
        },
        "PortInEligibilityResponse": {
            "type": "array",
            "items": {
                "properties": {
                    "msisdn": {
                        "type": "string",
                        "description": "/*ToDo*/ Some description",
                        "x-example": "/*ToDO*/ Some Example",
                        "pattern": ".+"
                    },
                    "lineNumber": {
                        "type": "string",
                        "description": "/*ToDo*/ Some description",
                        "x-example": "/*ToDO*/ Some Example",
                        "pattern": ".+"
                    },
                    "eligible": {
                        "type": "boolean",
                        "description": "/*ToDo*/ Some description",
                        "x-example": "/*ToDO*/ Some Example",
                        "enum": [
                            true,
                            false
                        ]
                    },
                    "previousOperator": {
                        "type": "string",
                        "description": "/*ToDo*/ Some description",
                        "x-example": "/*ToDO*/ Some Example",
                        "pattern": ".+"
                    },
                    "previousOperatorName": {
                        "type": "string",
                        "description": "/*ToDo*/ Some description",
                        "x-example": "/*ToDO*/ Some Example",
                        "pattern": ".+"
                    },
                    "portTime": {
                        "type": "string",
                        "description": "/*ToDo*/ Some description",
                        "x-example": "/*ToDO*/ Some Example",
                        "pattern": ".+"
                    }
                },
                "type": "object",
                "description": "/*ToDo*/ Some description",
                "x-example": "/*ToDO*/ Some Example"
            },
            "description": "/*ToDo*/ Some description",
            "x-example": "/*ToDO*/ Some Example"
        },
        "Errors": {
            "type": "array",
            "items": {
                "properties": {
                    "code": {
                        "type": "string",
                        "description": "/*ToDo*/ Some description",
                        "x-example": "/*ToDO*/ Some Example",
                        "pattern": ".+"
                    },
                    "userMessage": {
                        "type": "string",
                        "description": "Friendly message contextual to the API operation.",
                        "x-example": "/*ToDO*/ Some Example",
                        "pattern": ".+"
                    },
                    "systemMessage": {
                        "type": "string",
                        "description": "/*ToDo*/ Some description",
                        "x-example": "/*ToDO*/ Some Example",
                        "pattern": ".+"
                    }
                },
                "type": "object",
                "description": "/*ToDo*/ Some description",
                "x-example": "/*ToDO*/ Some Example"
            },
            "description": "/*ToDo*/ Some description",
            "x-example": "/*ToDO*/ Some Example"
        },
        "Error": {
            "type": "object",
            "description": "As defined in https://tmobileusa.sharepoint.com/teams/EnterpriseServices/ESG%20Standards%20Documents/APIs/T-Mobile%20API%20Design%20Guidelines%20v1.0.docx",
            "properties": {
                "code": {
                    "description": "A succinct, domain-specific, human-readable text string to identify the type of error for the given status code",
                    "type": "string"
                },
                "userMessage": {
                    "description": "A human-readable message describing the error.",
                    "type": "string"
                },
                "systemMessage": {
                    "description": "Text that provides a more detailed technical explanation of the error",
                    "type": "string"
                },
                "errorDetailUrl": {
                    "description": "link to custom information providing greater detail on error or errors",
                    "type": "string"
                }
            }
        }
    },
    "x-servers": [],
    "tags": [],
    "securityDefinitions": {
        "Oauth": {
            "type": "oauth2",
            "description": "When you sign up for an account, you are given your first API key\n",
            "tokenUrl": "https://dlab03.core.op.api.t-mobile.com:443/v2/oauth2/accesstoken?grant_type=client_credentials",
            "flow": "application",
            "scopes": {}
        }
    }
}