@startuml

!define MS_SERVICE change-device-v5
!define MS_OPERATION get-fmip-status
!define LAST_UPDATE %date[yyyy.MM.dd 'at' HH:mm]%
!define module(x) component x <<module>> 
!define send(a,b,c) a->b : c
!define response(a,b) a-->b : Response

left header
<font color=blue>MS: MS_SERVICE/MS_OPERATION</font>
endheader

title
MS: MS_SERVICE/MS_OPERATION
Last update: LAST_UPDATE

end title

/' 
 ' This is our suppression for the footbox (aka. our diagrams box a the bottom of each flow
' tower - comment out the next line and regenerate the diagram, to see what I mean)
'/
hide footbox


/'
' The spacing in the following text is important. 
 ' 
 ' Trust me.
'/ 
center footer

 
Copyright (c) 2019 Amdocs.

Information Security Level 1 - Confidential

CONTAINS RESTRICTED - PROPRIETARY INFORMATION

This document is strictly confidential and proprietary; to be used only by authorized persons
on a need to know basis, and must not be distributed without specific permission.

In the event of unauthorized use of this document or the confidential information it contains,
violators will be subject to sever disciplinary action, based on Amdocs regulations, as well as
any other sanctions applicable by law.

endfooter


participant Channel
participant "change-\ndevice-v5\nMS" as CD
participant "subscriber-management-\nservices-v1 \nMS" as SM
participant "device-management-\nservices-v5\nMS" as DM5

skinparam sequenceArrowThickness 2
skinparam ArrowColor  #blue 

Channel -> CD: get-fmip-status \nToken + JWT
Activate CD #lightgreen

send(CD,SM,searchSubscriber)
Activate SM #lightgreen

ref over SM 
searchSubscriber 
end

response(SM,CD)
Deactivate SM

CD -> CD : JWT authentication

send(CD,DM5,getFmipStatus)
Activate DM5 #lightgreen

ref over DM5 
getFmipStatus 
end

response(DM5,CD)
Deactivate DM5

response(CD,Channel)
Deactivate CD

@enduml