@startuml
Title "Search overlay for line on BAN listing page"
actor "BO/TEM" as A
participant "SSP Portal" as B
participant "Stream API" as C
participant "TFB API Platform" as D

Activate A
A -> B : User searches for line 
Activate B
B -> C : Get subscribers call\n(subscribers? msisdn={msisdn}&imei={imei} \n&newSim={newSim} &filter={nil})
Activate C
C -> D : Get subscribers call \n (/subscribers)
Activate D
D --> C : API Response with BAN details
Deactivate D
C --> B : Response from subscriber call
Deactivate C
Deactivate B
hnote over A,B #red : Failure
B --> A : Show the error message to the user
hnote over A,B #green : Success
B --> A : Show the Account verification modal

A -> B : User input to the Account cerification modal
Activate B
B -> C :Get billingAccount (billingAccount? \nban={banNumber}&groupName={groupName} \n&group={groupId} &type={BAN})
Activate C
C -> D : Get billingAccount \n (/{billing-account})
Activate D
D --> C : API Response with BAN details
Deactivate D
C --> B : API Response with BAN details
Deactivate C
Deactivate B
B --> A : Show the data
Deactivate A
@enduml