@startuml
Title "Transaction History"
actor "BO/TEM" as A
participant "SSP Portal" as B
participant "Stream API" as C
participant "TFB API Platform" as D

A -> B : when user clicks on the <b>"TRANSACTIONS"</b> menu, \n User is directed to the transaction history page
note over A,D
Basic authentication and navigation completed
end note
Activate B
B -> C : OrderStatus GET call is triggered \n (/account/orderstatus)
Activate C
C -> D : Get OrderStatus \n (/account-order-statuses)
Activate D
D --> C : OrderStatus API Response
Deactivate D
C --> B : OrderStatus API Response
Deactivate C

B -> C : OrderType GET call is triggered \n (/account/ordertypes)
Activate C
C -> D : Get OrderType \n (/account-order-types)
Activate D
D --> C : OrderType API Response
Deactivate D
C --> B : OrderType API Response
Deactivate C

B -> C : Transaction history GET call is triggered \n (/account/order/history)
Activate C
C -> D : Get Transaction history \n (/account-orders-history?{date-range-limit}&{page-size}& \n{submitted-by}&{order-id}&{order-status}&{page}\n&{order-type}&{billing-accounts}&{mobile-numbers})
Activate D
D --> C : API Response with Transaction history
Deactivate D
C --> B : API Response with Transaction history
Deactivate C
B -->A : Transaction page gets displayed with <b>"All types", \n<b>"All statuses","All accounts","All dates"</b> for filteration \n and transaction history details
Deactivate B

Activate A
A -> B : User search based on the <b>"TRANSACTION ID", "TYPE", "STATUS"
Activate B
B -> C : Transaction history GET call is triggered \n (/account/order/history)
Activate C
C -> D : Get Transaction history \n (/account-orders-history?{date-range-limit}&{page-size}& \n{submitted-by}&{order-id}&{order-status}&{page}\n&{order-type}&{billing-accounts}&{mobile-numbers})
Activate D
D --> C :  Response from API based on search condition
Deactivate D
C --> B :  Response from API based on search condition
Deactivate C
hnote over A,B #red : Failure
B --> A : <font color=red>Error message is shown to the user
hnote over A,B #green : Success
B --> A : Transaction history gets displayed based on the search criteria
Deactivate B

A -> B : User clicks on <b>"Download Transaction"
Activate B
B -> C : Transaction history GET call is triggered \n (/account/order/history)
Activate C
C -> D : Get Transaction history \n (/account-orders-history?{date-range-limit}&{page-size}& \n{submitted-by}&{order-id}&{order-status}&{page}\n&{order-type}&{billing-accounts}&{mobile-numbers})
Activate D
D --> C : API Response with Transaction history
Deactivate D
C --> B : API Response with Transaction history
Deactivate C
B --> A : Excel File gets downloaded with Transaction history despite\n pagination
Deactivate B

A -> B : User tries to filter the transacion history based on \n <b>"All statuses","All accounts","All dates","All types"
Activate B
B -> C : Transaction history GET call is triggered \n (/account/order/history)
Activate C
C -> D : Get Transaction history \n (/account-orders-history?{date-range-limit}&{page-size}& \n{submitted-by}&{order-id}&{order-status}&{page}\n&{order-type}&{billing-accounts}&{mobile-numbers})
Activate D
D --> C : Response from API based on filtered condition
Deactivate D
C --> B : Response from API based on filtered condition
Deactivate C
hnote over A,B #red : Failure
B --> A : <font color=red>Error message is shown to the user
hnote over A,B #green : Success
B --> A : Transaction history gets displayed based on filtered condition
Deactivate B

Deactivate A
@enduml