@startuml
title loan Lead Details Service Flow 
participant Bank
participant APIGEE
participant PCF

autonumber

Bank -> APIGEE: loanLeadDetails 
APIGEE -> APIGEE: Authenticate
APIGEE -> APIGEE: Generate JWT Token 
APIGEE -> PCF: loanLeadDetails 
PCF-> PCF: Validate JWT Token
PCF-> PCF: Orchestrate the loan lead details 
PCF--> APIGEE: Response
APIGEE -> Bank:  Response
@enduml