@startuml
title RPC Microapp (REMO Expansion)

actor retailrep

participant QVXPAccountReview
participant RPCMicroapp
participant RSP
|||
retailrep-[#Black]>RPCMicroapp: Rep clicks on "continue" from TPL screen \n(or) navigates to this screen from Autopay Microapp (Decline Autopay CTA)
== <font color=black> Talk Primary Selection ==

group <font color=black> **Resolve soft conflicts (w.r.to selected rate plan)**
    RPCMicroapp<[#Green]-RPCMicroapp:Display **conflict summary screen** if there are any auto resolvable conflicts identifed else display **change features screen**
    alt 1] <font color=black> If Conflicts exists
        RPCMicroapp<[#Green]-RPCMicroapp: Rep continues to click on "Continue" CTA _ Refer to change features screen
    end
    alt 2] <font color=black> If Conflicts doesn't exists
        RPCMicroapp<[#Green]-RPCMicroapp: Navigates to Change features screen flow  
    end
|||

RPCMicroapp-[#Green]>RPCMicroapp: Rep Clicks on "Continue" CTA, then navigates to Change features screen
RPCMicroapp-[#Green]>RPCMicroapp: Rep Clicks on "Go to cart" CTA, then naviagte to Rate Plan Cart screen
RPCMicroapp-[#Green]>RPCMicroapp: Rep clicks on "BACK" CTA, then navigate to TPL screen
RPCMicroapp-[#Green]>RPCMicroapp: Rep clicks on "Cancel" CTA
QVXPAccountReview<--RPCMicroapp: Toggle back to QVXP Account review screen (pass BANLOCK= FALSE)
|||

@enduml
