@startuml
title RPC Microapp (REMO Expansion- Toggle from QVXP) 

actor retailrep

participant QVFlex
participant RPCMicroapp
participant RSP
participant Internal 

retailrep->QVFlex: Rep logins, completes verification & lands on service summary screen
QVFlex->QVFlex:Rep clicks on "**Change Plan**" CTA 

QVFlex-[#Black]> RSP:<font color=black> Request for **EnterpriseToken.generateToken**
QVFlex<-RSP: Returns success response (generated Token value)


== <font color=black> Toggle to RPC Microapp from QVFlex ==
note right of QVFlex #PaleTurquoise
    <font color=black>**Toggle parameters:**
     
     Action: RATE_PLAN_CHANGE
     User ID
     Device ID
     Store ID
     Verification status
     channel name
     |
     |
     BAN
     MSISDN(current/selected MSISDN and not searched MSISDN)
     Verified name
     Account status
     |
     return Params

end note

hnote over RPCMicroapp #Limegreen:Toggle success
== <font color=black> Open RPC Microapp - Landing page ==

group **On page load**

    RPCMicroapp-[#Black]>RSP:<font color=black>Request for **PostPaidAccountService.getBasicAccountDetails**(accountNumber)
    RPCMicroapp <[#Green]--RSP:Returns the account details
    RPCMicroapp<[#Red]--RSP:Exception error received 
    RPCMicroapp<[#Red]-RPCMicroapp: Display Exception error modal 
    note right: **<font color=Red>HARD STOP**: user has to close the modal and try to refresh the page\n or launch the app again based on parent applicatio
par <font color=blue> Once getbasicAccountDetails is success 
    RPCMicroapp-[#Black]>RSP:<font color=black>Request for **PostPaidSubscrberService.getSubscriberList**(BAN,includeCountSummary,IncludeName)
    RPCMicroapp <[#Green]--RSP: Returns the subscriber details
    
    RPCMicroapp-[#Black]>RSP:<font color=black>Request for **StoreService.getStoreInfo**
    RPCMicroapp <[#Green]--RSP: Returns the success response 

    RPCMicroapp-[#Black]>RSP:<font color=black>Request for **Offer.LookupDecisionvalues**
    RPCMicroapp <[#Green]--RSP: Returns the success response 
|||
else <font color=Red>Service failure: getSubscriberList
        RPCMicroapp<[#Red]--RSP: Exception error received with error codes
        RPCMicroapp<[#Red]-RPCMicroapp: Display Exception error modal with User friendly message & failed service name
        RPCMicroapp<[#Red]-RPCMicroapp:If user clicks "Continue" on modal will close the modal \n& user stays back on landing page
end
|||
|||
alt <font color=blue> Once getSubscriberList is success

    RPCMicroapp-[#Black]>RSP:<font color=black>Request for **PostPaidSubscrberService.getSubscriberInfo**(BAN,infoToRetrieve)
    RPCMicroapp <[#Green]--RSP: Returns the subscriber information
else <font color=Red>Service failure: getSubscriberList
        RPCMicroapp<[#Red]--RSP: Exception error received with error codes
        RPCMicroapp<[#Red]-RPCMicroapp: Display Exception error modal with User friendly message & failed service name
        RPCMicroapp<[#Red]-RPCMicroapp:If user clicks "Continue" on modal will close the modal \n& user stays back on landing page
end
|||
alt  <font color=blue> Once getSubscinfo is success
    RPCMicroapp-[#Black]>RSP:<font color=black>Request for **DeviceProfile.GetSubscriberDetails**
    RPCMicroapp <[#Green]--RSP: Returns the subscriber information with LineTypes    
else <font color=Red>Service failure: getSubscriberInfo
        RPCMicroapp<[#Red]--RSP: Exception error received with error codes
        RPCMicroapp<[#Red]-RPCMicroapp: Display Exception error modal with User friendly message & failed service name
        RPCMicroapp<[#Red]-RPCMicroapp:If user clicks "Continue" on modal will close the modal \n& user stays back on landing page
end
|||
par  <font color=blue> If getSubscriptionDetails is success or failure
    RPCMicroapp-[#Black]>RSP:<font color=black>Request for **PostPaidSubscrberService.getMonthlyRecurringChargeSummary**(BAN,MSISDN,BillCycleCode)
    RPCMicroapp <[#Green]--RSP: Returns the MRC details
    
    RPCMicroapp-[#Black]>RSP:<font color=black>Request for **ServiceAgreement.getServiceAgreement**(BAN,MSISDN,ProductType)
    RPCMicroapp <[#Green]--RSP: Returns product/subscriber summary details
    
    RPCMicroapp-[#Black]>RSP:<font color=black>Request for **EnterpriseEntitlementsService.getUSerProfilesandPermissions**(Userid)
    RPCMicroapp <[#Green]--RSP: Returns user entitlements
    |||
    RPCMicroapp<[#Green]-RPCMicroapp: If the request succeeded normally(SERVICE_REPONSES=SUCCESS) then Display **Landing page**, else continues to **Failure case flow**    
    
else <font color=Red>Service failure: getMRCSummary and getServiceAgreement

        alt 1] <font color=Black> **SERVICE FAILURE - 400, 403**
        RPCMicroapp<[#Red]--RSP: Exception error received with error codes
        RPCMicroapp<[#Red]-RPCMicroapp: Display Exception error modal with User friendly message & failed service name
        RPCMicroapp<[#Red]-RPCMicroapp:If user clicks "Continue" on modal will close the modal \n& user stays back on landing page
        end

        alt 2] <font color=Black> **SC_UNAUTHORIZED(401) & INTERNAL_SERVER_ERROR(500)**
        RPCMicroapp<[#Red]-RPCMicroapp: Display Exception error modal with user friendly system error message
        end
        |||
    note right of RPCMicroapp #yellow: GetSubscriptionDetails service failure is NOT a hardstop in the flow \nand no error modal will be displayed if this service fails. 
end
end
|||
RPCMicroapp-[#Green]>RPCMicroapp: If Rep clicks on cancel CTA & continue to cancel
QVFlex<--RPCMicroapp: Toggle back to QVXP Account review screen (pass BANLOCK= FALSE)
RPCMicroapp<[#Green]-RPCMicroapp: If Rep Clicks on "Continue" CTA, then navigates to Choose new rate plan screen

@enduml
