@startuml

title **Fraud decision changed post submit**

actor DASH_REP
actor CDMAgent


DASH_REP -> DASH_APP: Build the order
DASH_APP --> DASH_APP : Complete the order
DASH_REP -> DASH_APP: Click on Submit
DASH_APP -> DPS: Auth & Fraud[$0 Auth or Full Auth]
DPS -> CDM: FraudCheck
CDM --> DPS: FraudDecision
DPS --> DASH_APP: Auth + FraudCheck decision[review]
DASH_APP -> DASH_APP : Display the confirmation page
note left: Order wont be submitted to SAP

group CDMActivities
    CDMAgent -> CDM: Provide decision[approve/reject]
    CDM -> DPS: Receive the updated decision

end

DPS -> Samson: Writes memo[FraudReject]

DPS -> Deep.io : Post the "DashReviewDecision" event

DASH_APP -> Deep.io: Listen to the event from Deep.io Queue

group OrderCreationDate < 18 hrs

    group#GreenYellow CDMDecion:Accept
        DASH_APP -> DASH_APP: Resume OrderSubimission
        DASH_APP -> SAP: Submit the order
        SAP -> Customer: Order details in email
    end

    group#red CDMDecion: Reject
        DASH_APP -> DASH_APP: Start orderCancellation
        DASH_APP -> DASH_APP: Cancel Order
        DASH_APP -> Deep.io: Post "FraudOrderRejected" event
        Deep.io -> NotificaionsDomain : Read FraudOrderRejected event
        NotificaionsDomain -> DST: Send event to trigger email
        DST -> Customer: Send OrderCancellation email
    end
end

alt OrderCreation>18 hours
    DASH_APP -> DASH_APP: ignore the CDM decison, Order already submitted
end

@enduml
