{
  "swagger": "2.0",
  "info": {
    "description": "Api Documentation",
    "version": "1.0.0",
    "title": "Api Documentation",
    "termsOfService": "urn:tos",
    "contact": {
      "email": "RebellionDevOps@T-Mobile.com",
      "name": "Rebellion Devops"
    },
    "license": {
      "name": "Apache 2.0",
      "url": "http://www.apache.org/licenses/LICENSE-2.0"
    }
  },
  "host": "qlab06-qat.apps.px-npe01b.cf.t-mobile.com",
  "basePath": "/reb2-auth/v1",
  "tags": [
    {
      "name": "auth-controller",
      "description": "Auth Controller"
    },
    {
      "name": "controller",
      "description": "Controller"
    }
  ],
  "paths": {
    "/customers/segmentation": {
      "get": {
        "tags": [
          "auth-controller"
        ],
        "summary": "getSubscriberSegmentation",
        "operationId": "API_493_getSubscriberSegmentation",
        "produces": [
          "application/json"
        ],
        "parameters": [
          {
            "name": "accountNumber",
            "in": "query",
            "description": "accountNumber",
            "required": false,
            "type": "string",
            "minLength": 1,
            "maxLength": 256,
            "pattern": "^[ \\S]+$",
            "x-example": "65362146"
          },
          {
            "name": "msisdn",
            "in": "query",
            "description": "msisdn",
            "required": false,
            "type": "string",
            "minLength": 1,
            "maxLength": 256,
            "pattern": "^[ \\S]+$",
            "x-example": "9853621569"
          },
          {
            "name": "sim",
            "in": "query",
            "description": "sim",
            "required": false,
            "type": "string",
            "minLength": 1,
            "maxLength": 256,
            "pattern": "^[ \\S]+$",
            "x-example": "64987432135468798465"
          },
          {
            "name": "imsi",
            "in": "query",
            "description": "imsi",
            "required": false,
            "type": "string",
            "minLength": 1,
            "maxLength": 256,
            "pattern": "^[ \\S]+$",
            "x-example": "64987432135468798465"
          },
          {
            "$ref": "#/parameters/header-X-Authorization"
          },
          {
            "$ref": "#/parameters/header-X-Auth-Originator"
          },
          {
            "$ref": "#/parameters/header-session-id"
          },
          {
            "$ref": "#/parameters/header-interaction-id"
          },
          {
            "$ref": "#/parameters/header-application-user-id"
          },
          {
            "$ref": "#/parameters/header-workflow-id"
          },
          {
            "$ref": "#/parameters/header-service-transaction-id"
          },
          {
            "$ref": "#/parameters/header-activity-id"
          },
          {
            "$ref": "#/parameters/header-Accept"
          },
          {
            "$ref": "#/parameters/header-Accept-Charset"
          },
          {
            "$ref": "#/parameters/header-Accept-Encoding"
          },
          {
            "$ref": "#/parameters/header-Accept-Language"
          },
          {
            "$ref": "#/parameters/header-Authorization"
          },
          {
            "$ref": "#/parameters/header-Content-Type"
          },
          {
            "$ref": "#/parameters/header-Referer"
          },
          {
            "$ref": "#/parameters/header-Date"
          },
          {
            "$ref": "#/parameters/header-channel-id"
          },
          {
            "$ref": "#/parameters/header-timestamp"
          }
        ],
        "responses": {
          "200": {
            "description": "OK",
            "schema": {
              "$ref": "#/definitions/SubscriberSegmentationResponse"
            },
            "headers": {
              "Content-Type": {
                "description": "The MIME type of this content.",
                "x-example": "text/xml",
                "type": "string",
                "minLength": 1,
                "maxLength": 256,
                "pattern": "^[ \\S]+$"
              },
              "Cache-Control": {
                "description": "The MIME type of this content.",
                "x-example": "text value ",
                "type": "string",
                "minLength": 1,
                "maxLength": 256,
                "pattern": "^[ \\S]+$"
              },
              "Date": {
                "description": "The Date general HTTP header contains the date and time at which the message was originated.",
                "x-example": "Mon, 05 Mar 2018 16:38:08 GMT",
                "type": "string",
                "format": "date-time",
                "pattern": "^(Mon|Tue|Wed|Thu|Fri|Sat|Sun), [0-3]{1}[0-9]{1} (Jan|Feb|Mar|Apr|May|Jun|Jul|Aug|Sep|Oct|Nov|Dec) [1-3][0-9]{3} [0-2][0-9]:[0-6][0-9]:[0-6][0-9] GMT$"
              },
              "service-transaction-id": {
                "description": "Request ID echoed back by server",
                "x-example": "23409209723",
                "type": "string",
                "minLength": 1,
                "maxLength": 256,
                "pattern": "^[\\S]*$"
              }
            }
          },
          "400": {
            "description": "Bad Request",
            "schema": {
              "$ref": "#/definitions/Error"
            },
            "examples": {
              "application/json": {
                "code": "400",
                "userMessage": "Bad Request",
                "systemMessage": "Bad Request"
              }
            }
          },
          "401": {
            "description": "Unauthorized",
            "schema": {
              "$ref": "#/definitions/Error"
            },
            "examples": {
              "application/json": {
                "code": "401",
                "userMessage": "Unauthorized",
                "systemMessage": "Unauthorized"
              }
            }
          },
          "404": {
            "description": "Resource not found",
            "schema": {
              "$ref": "#/definitions/Error"
            },
            "examples": {
              "application/json": {
                "code": "404",
                "userMessage": "Resource not found",
                "systemMessage": "Resource not found"
              }
            }
          },
          "405": {
            "description": "Method Not Allowed",
            "schema": {
              "$ref": "#/definitions/Error"
            },
            "examples": {
              "application/json": {
                "code": "405",
                "userMessage": "Method Not Allowed",
                "systemMessage": "Method Not Allowed"
              }
            },
            "headers": {
              "Allow": {
                "description": "list of supported methods for URI",
                "x-example": "GET",
                "type": "string",
                "minLength": 1,
                "maxLength": 256,
                "pattern": "^[\\S]*$"
              },
              "service-transaction-id": {
                "description": "Request ID echoed back by server",
                "x-example": "23409209723",
                "type": "string",
                "minLength": 1,
                "maxLength": 256,
                "pattern": "^[\\S]*$"
              }
            }
          },
          "406": {
            "description": "Not Acceptable",
            "schema": {
              "$ref": "#/definitions/Error"
            },
            "examples": {
              "application/json": {
                "code": "406",
                "userMessage": "Not Acceptable",
                "systemMessage": "Not Acceptable"
              }
            }
          },
          "500": {
            "description": "System Error",
            "schema": {
              "$ref": "#/definitions/Error"
            },
            "examples": {
              "application/json": {
                "code": "500",
                "userMessage": "System Error",
                "systemMessage": "System Error"
              }
            }
          },
          "503": {
            "description": "Service unavailable",
            "schema": {
              "$ref": "#/definitions/Error"
            },
            "examples": {
              "application/json": {
                "code": "503",
                "userMessage": "Service unavailable",
                "systemMessage": "Service unavailable"
              }
            }
          }
        },
        "description": "operation descritpion",
        "x-api-pattern": "QueryResource",
        "security": [
          {
            "oauth2": []
          }
        ]
      }
    },
    "/permissions": {
      "post": {
        "tags": [
          "auth-controller"
        ],
        "summary": "getPermissions",
        "operationId": "API_2226_getPermissions",
        "consumes": [
          "application/json"
        ],
        "produces": [
          "application/json"
        ],
        "parameters": [
          {
            "in": "body",
            "name": "userRole",
            "description": "userRole",
            "required": true,
            "schema": {
              "$ref": "#/definitions/CombinedRequestBody"
            }
          },
          {
            "$ref": "#/parameters/header-X-Authorization"
          },
          {
            "$ref": "#/parameters/header-X-Auth-Originator"
          },
          {
            "$ref": "#/parameters/header-session-id"
          },
          {
            "$ref": "#/parameters/header-interaction-id"
          },
          {
            "$ref": "#/parameters/header-application-user-id"
          },
          {
            "$ref": "#/parameters/header-workflow-id"
          },
          {
            "$ref": "#/parameters/header-service-transaction-id"
          },
          {
            "$ref": "#/parameters/header-activity-id"
          },
          {
            "$ref": "#/parameters/header-Accept"
          },
          {
            "$ref": "#/parameters/header-Accept-Charset"
          },
          {
            "$ref": "#/parameters/header-Accept-Encoding"
          },
          {
            "$ref": "#/parameters/header-Accept-Language"
          },
          {
            "$ref": "#/parameters/header-Authorization"
          },
          {
            "$ref": "#/parameters/header-Content-Type"
          },
          {
            "$ref": "#/parameters/header-Referer"
          },
          {
            "$ref": "#/parameters/header-Date"
          },
          {
            "$ref": "#/parameters/header-channel-id"
          },
          {
            "$ref": "#/parameters/header-timestamp"
          }
        ],
        "responses": {
          "200": {
            "description": "OK",
            "schema": {
              "type": "string",
              "description": "schema",
              "maxLength": 256,
              "minLength": 1,
              "pattern": "^[\\S ]+$",
              "x-example": ""
            },
            "headers": {
              "Content-Type": {
                "description": "The MIME type of this content.",
                "x-example": "text/xml",
                "type": "string",
                "minLength": 1,
                "maxLength": 256,
                "pattern": "^[ \\S]+$"
              },
              "Cache-Control": {
                "description": "The MIME type of this content.",
                "x-example": "text value ",
                "type": "string",
                "minLength": 1,
                "maxLength": 256,
                "pattern": "^[ \\S]+$"
              },
              "Date": {
                "description": "The Date general HTTP header contains the date and time at which the message was originated.",
                "x-example": "Mon, 05 Mar 2018 16:38:08 GMT",
                "type": "string",
                "format": "date-time",
                "pattern": "^(Mon|Tue|Wed|Thu|Fri|Sat|Sun), [0-3]{1}[0-9]{1} (Jan|Feb|Mar|Apr|May|Jun|Jul|Aug|Sep|Oct|Nov|Dec) [1-3][0-9]{3} [0-2][0-9]:[0-6][0-9]:[0-6][0-9] GMT$"
              },
              "service-transaction-id": {
                "description": "Request ID echoed back by server",
                "x-example": "23409209723",
                "type": "string",
                "minLength": 1,
                "maxLength": 256,
                "pattern": "^[\\S]*$"
              }
            }
          },
          "400": {
            "description": "Bad Request",
            "schema": {
              "$ref": "#/definitions/Error"
            },
            "examples": {
              "application/json": {
                "code": "400",
                "userMessage": "Bad Request",
                "systemMessage": "Bad Request"
              }
            }
          },
          "401": {
            "description": "Unauthorized",
            "schema": {
              "$ref": "#/definitions/Error"
            },
            "examples": {
              "application/json": {
                "code": "401",
                "userMessage": "Unauthorized",
                "systemMessage": "Unauthorized"
              }
            }
          },
          "404": {
            "description": "Resource not found",
            "schema": {
              "$ref": "#/definitions/Error"
            },
            "examples": {
              "application/json": {
                "code": "404",
                "userMessage": "Resource not found",
                "systemMessage": "Resource not found"
              }
            }
          },
          "405": {
            "description": "Method Not Allowed",
            "schema": {
              "$ref": "#/definitions/Error"
            },
            "examples": {
              "application/json": {
                "code": "405",
                "userMessage": "Method Not Allowed",
                "systemMessage": "Method Not Allowed"
              }
            },
            "headers": {
              "Allow": {
                "description": "list of supported methods for URI",
                "x-example": "GET",
                "type": "string",
                "minLength": 1,
                "maxLength": 256,
                "pattern": "^[\\S]*$"
              },
              "service-transaction-id": {
                "description": "Request ID echoed back by server",
                "x-example": "23409209723",
                "type": "string",
                "minLength": 1,
                "maxLength": 256,
                "pattern": "^[\\S]*$"
              }
            }
          },
          "409": {
            "description": "Conflict",
            "schema": {
              "$ref": "#/definitions/Error"
            },
            "examples": {
              "application/json": {
                "code": "409",
                "userMessage": "Conflict",
                "systemMessage": "The request could not be completed due to a conflict with the current state of the resource."
              }
            }
          },
          "415": {
            "description": "Unsupported Media Type",
            "schema": {
              "$ref": "#/definitions/Error"
            },
            "examples": {
              "application/json": {
                "code": "415",
                "userMessage": "Unsupported Media Type",
                "systemMessage": "Unsupported Media Type"
              }
            }
          },
          "500": {
            "description": "System Error",
            "schema": {
              "$ref": "#/definitions/Error"
            },
            "examples": {
              "application/json": {
                "code": "500",
                "userMessage": "System Error",
                "systemMessage": "System Error"
              }
            }
          },
          "503": {
            "description": "Service unavailable",
            "schema": {
              "$ref": "#/definitions/Error"
            },
            "examples": {
              "application/json": {
                "code": "503",
                "userMessage": "Service unavailable",
                "systemMessage": "Service unavailable"
              }
            }
          }
        },
        "description": "operation descritpion",
        "x-api-pattern": "ExecuteFunction",
        "security": [
          {
            "oauth2": []
          }
        ]
      }
    },
    "/tmobile-profile": {
      "post": {
        "tags": [
          "auth-controller"
        ],
        "summary": "postCreateTmobileProfile",
        "operationId": "API_2803_postCreateTmobileProfile",
        "consumes": [
          "application/json"
        ],
        "produces": [
          "application/json"
        ],
        "parameters": [
          {
            "in": "body",
            "name": "createTmobileProfileRequest",
            "description": "createTmobileProfileRequest",
            "required": true,
            "schema": {
              "$ref": "#/definitions/PostCreateTmobileProfileRequest"
            }
          },
          {
            "$ref": "#/parameters/header-X-Authorization"
          },
          {
            "$ref": "#/parameters/header-X-Auth-Originator"
          },
          {
            "$ref": "#/parameters/header-session-id"
          },
          {
            "$ref": "#/parameters/header-interaction-id"
          },
          {
            "$ref": "#/parameters/header-application-user-id"
          },
          {
            "$ref": "#/parameters/header-workflow-id"
          },
          {
            "$ref": "#/parameters/header-service-transaction-id"
          },
          {
            "$ref": "#/parameters/header-activity-id"
          },
          {
            "$ref": "#/parameters/header-Accept"
          },
          {
            "$ref": "#/parameters/header-Accept-Charset"
          },
          {
            "$ref": "#/parameters/header-Accept-Encoding"
          },
          {
            "$ref": "#/parameters/header-Accept-Language"
          },
          {
            "$ref": "#/parameters/header-Authorization"
          },
          {
            "$ref": "#/parameters/header-Content-Type"
          },
          {
            "$ref": "#/parameters/header-Referer"
          },
          {
            "$ref": "#/parameters/header-Date"
          },
          {
            "$ref": "#/parameters/header-channel-id"
          },
          {
            "$ref": "#/parameters/header-timestamp"
          }
        ],
        "responses": {
          "200": {
            "description": "OK",
            "schema": {
              "$ref": "#/definitions/PostCreateTmobileProfileResponse"
            },
            "headers": {
              "Content-Type": {
                "description": "The MIME type of this content.",
                "x-example": "text/xml",
                "type": "string",
                "minLength": 1,
                "maxLength": 256,
                "pattern": "^[ \\S]+$"
              },
              "Cache-Control": {
                "description": "The MIME type of this content.",
                "x-example": "text value ",
                "type": "string",
                "minLength": 1,
                "maxLength": 256,
                "pattern": "^[ \\S]+$"
              },
              "Date": {
                "description": "The Date general HTTP header contains the date and time at which the message was originated.",
                "x-example": "Mon, 05 Mar 2018 16:38:08 GMT",
                "type": "string",
                "format": "date-time",
                "pattern": "^(Mon|Tue|Wed|Thu|Fri|Sat|Sun), [0-3]{1}[0-9]{1} (Jan|Feb|Mar|Apr|May|Jun|Jul|Aug|Sep|Oct|Nov|Dec) [1-3][0-9]{3} [0-2][0-9]:[0-6][0-9]:[0-6][0-9] GMT$"
              },
              "service-transaction-id": {
                "description": "Request ID echoed back by server",
                "x-example": "23409209723",
                "type": "string",
                "minLength": 1,
                "maxLength": 256,
                "pattern": "^[\\S]*$"
              }
            }
          },
          "400": {
            "description": "Bad Request",
            "schema": {
              "$ref": "#/definitions/Error"
            },
            "examples": {
              "application/json": {
                "code": "400",
                "userMessage": "Bad Request",
                "systemMessage": "Bad Request"
              }
            }
          },
          "401": {
            "description": "Unauthorized",
            "schema": {
              "$ref": "#/definitions/Error"
            },
            "examples": {
              "application/json": {
                "code": "401",
                "userMessage": "Unauthorized",
                "systemMessage": "Unauthorized"
              }
            }
          },
          "404": {
            "description": "Resource not found",
            "schema": {
              "$ref": "#/definitions/Error"
            },
            "examples": {
              "application/json": {
                "code": "404",
                "userMessage": "Resource not found",
                "systemMessage": "Resource not found"
              }
            }
          },
          "405": {
            "description": "Method Not Allowed",
            "schema": {
              "$ref": "#/definitions/Error"
            },
            "examples": {
              "application/json": {
                "code": "405",
                "userMessage": "Method Not Allowed",
                "systemMessage": "Method Not Allowed"
              }
            },
            "headers": {
              "Allow": {
                "description": "list of supported methods for URI",
                "x-example": "GET",
                "type": "string",
                "minLength": 1,
                "maxLength": 256,
                "pattern": "^[\\S]*$"
              },
              "service-transaction-id": {
                "description": "Request ID echoed back by server",
                "x-example": "23409209723",
                "type": "string",
                "minLength": 1,
                "maxLength": 256,
                "pattern": "^[\\S]*$"
              }
            }
          },
          "409": {
            "description": "Conflict",
            "schema": {
              "$ref": "#/definitions/Error"
            },
            "examples": {
              "application/json": {
                "code": "409",
                "userMessage": "Conflict",
                "systemMessage": "The request could not be completed due to a conflict with the current state of the resource."
              }
            }
          },
          "415": {
            "description": "Unsupported Media Type",
            "schema": {
              "$ref": "#/definitions/Error"
            },
            "examples": {
              "application/json": {
                "code": "415",
                "userMessage": "Unsupported Media Type",
                "systemMessage": "Unsupported Media Type"
              }
            }
          },
          "500": {
            "description": "System Error",
            "schema": {
              "$ref": "#/definitions/Error"
            },
            "examples": {
              "application/json": {
                "code": "500",
                "userMessage": "System Error",
                "systemMessage": "System Error"
              }
            }
          },
          "503": {
            "description": "Service unavailable",
            "schema": {
              "$ref": "#/definitions/Error"
            },
            "examples": {
              "application/json": {
                "code": "503",
                "userMessage": "Service unavailable",
                "systemMessage": "Service unavailable"
              }
            }
          }
        },
        "description": "operation descritpion",
        "x-api-pattern": "ExecuteFunction",
        "security": [
          {
            "oauth2": []
          }
        ]
      }
    },
    "/tokens": {
      "post": {
        "tags": [
          "auth-controller"
        ],
        "summary": "getTokenAndCartId",
        "operationId": "API_2103_getToken",
        "consumes": [
          "application/json"
        ],
        "produces": [
          "application/json"
        ],
        "parameters": [
          {
            "in": "body",
            "name": "facadeRequest",
            "description": "facadeRequest",
            "required": true,
            "schema": {
              "$ref": "#/definitions/FacadeRequest"
            }
          },
          {
            "name": "api-version",
            "in": "header",
            "description": "api-version",
            "required": true,
            "type": "string",
            "minLength": 1,
            "maxLength": 256,
            "pattern": "^[ \\S]+$",
            "x-example": "v1"
          },
          {
            "name": "storeId",
            "in": "header",
            "description": "storeId",
            "required": false,
            "type": "string",
            "minLength": 1,
            "maxLength": 256,
            "pattern": "^[ \\S]+$",
            "x-example": "8635"
          },
          {
            "$ref": "#/parameters/header-X-Authorization"
          },
          {
            "$ref": "#/parameters/header-X-Auth-Originator"
          },
          {
            "$ref": "#/parameters/header-session-id"
          },
          {
            "$ref": "#/parameters/header-interaction-id"
          },
          {
            "$ref": "#/parameters/header-application-user-id"
          },
          {
            "$ref": "#/parameters/header-workflow-id"
          },
          {
            "$ref": "#/parameters/header-service-transaction-id"
          },
          {
            "$ref": "#/parameters/header-activity-id"
          },
          {
            "$ref": "#/parameters/header-Accept"
          },
          {
            "$ref": "#/parameters/header-Accept-Charset"
          },
          {
            "$ref": "#/parameters/header-Accept-Encoding"
          },
          {
            "$ref": "#/parameters/header-Accept-Language"
          },
          {
            "$ref": "#/parameters/header-Authorization"
          },
          {
            "$ref": "#/parameters/header-Content-Type"
          },
          {
            "$ref": "#/parameters/header-Referer"
          },
          {
            "$ref": "#/parameters/header-Date"
          },
          {
            "$ref": "#/parameters/header-channel-id"
          },
          {
            "$ref": "#/parameters/header-timestamp"
          }
        ],
        "responses": {
          "200": {
            "description": "OK",
            "schema": {
              "$ref": "#/definitions/FacadeReponse"
            },
            "headers": {
              "Content-Type": {
                "description": "The MIME type of this content.",
                "x-example": "text/xml",
                "type": "string",
                "minLength": 1,
                "maxLength": 256,
                "pattern": "^[ \\S]+$"
              },
              "Cache-Control": {
                "description": "The MIME type of this content.",
                "x-example": "text value ",
                "type": "string",
                "minLength": 1,
                "maxLength": 256,
                "pattern": "^[ \\S]+$"
              },
              "Date": {
                "description": "The Date general HTTP header contains the date and time at which the message was originated.",
                "x-example": "Mon, 05 Mar 2018 16:38:08 GMT",
                "type": "string",
                "format": "date-time",
                "pattern": "^(Mon|Tue|Wed|Thu|Fri|Sat|Sun), [0-3]{1}[0-9]{1} (Jan|Feb|Mar|Apr|May|Jun|Jul|Aug|Sep|Oct|Nov|Dec) [1-3][0-9]{3} [0-2][0-9]:[0-6][0-9]:[0-6][0-9] GMT$"
              },
              "service-transaction-id": {
                "description": "Request ID echoed back by server",
                "x-example": "23409209723",
                "type": "string",
                "minLength": 1,
                "maxLength": 256,
                "pattern": "^[\\S]*$"
              }
            }
          },
          "400": {
            "description": "Bad Request",
            "schema": {
              "$ref": "#/definitions/Error"
            },
            "examples": {
              "application/json": {
                "code": "400",
                "userMessage": "Bad Request",
                "systemMessage": "Bad Request"
              }
            }
          },
          "401": {
            "description": "Unauthorized",
            "schema": {
              "$ref": "#/definitions/Error"
            },
            "examples": {
              "application/json": {
                "code": "401",
                "userMessage": "Unauthorized",
                "systemMessage": "Unauthorized"
              }
            }
          },
          "404": {
            "description": "Resource not found",
            "schema": {
              "$ref": "#/definitions/Error"
            },
            "examples": {
              "application/json": {
                "code": "404",
                "userMessage": "Resource not found",
                "systemMessage": "Resource not found"
              }
            }
          },
          "405": {
            "description": "Method Not Allowed",
            "schema": {
              "$ref": "#/definitions/Error"
            },
            "examples": {
              "application/json": {
                "code": "405",
                "userMessage": "Method Not Allowed",
                "systemMessage": "Method Not Allowed"
              }
            },
            "headers": {
              "Allow": {
                "description": "list of supported methods for URI",
                "x-example": "GET",
                "type": "string",
                "minLength": 1,
                "maxLength": 256,
                "pattern": "^[\\S]*$"
              },
              "service-transaction-id": {
                "description": "Request ID echoed back by server",
                "x-example": "23409209723",
                "type": "string",
                "minLength": 1,
                "maxLength": 256,
                "pattern": "^[\\S]*$"
              }
            }
          },
          "409": {
            "description": "Conflict",
            "schema": {
              "$ref": "#/definitions/Error"
            },
            "examples": {
              "application/json": {
                "code": "409",
                "userMessage": "Conflict",
                "systemMessage": "The request could not be completed due to a conflict with the current state of the resource."
              }
            }
          },
          "415": {
            "description": "Unsupported Media Type",
            "schema": {
              "$ref": "#/definitions/Error"
            },
            "examples": {
              "application/json": {
                "code": "415",
                "userMessage": "Unsupported Media Type",
                "systemMessage": "Unsupported Media Type"
              }
            }
          },
          "500": {
            "description": "System Error",
            "schema": {
              "$ref": "#/definitions/Error"
            },
            "examples": {
              "application/json": {
                "code": "500",
                "userMessage": "System Error",
                "systemMessage": "System Error"
              }
            }
          },
          "503": {
            "description": "Service unavailable",
            "schema": {
              "$ref": "#/definitions/Error"
            },
            "examples": {
              "application/json": {
                "code": "503",
                "userMessage": "Service unavailable",
                "systemMessage": "Service unavailable"
              }
            }
          }
        },
        "description": "operation descritpion",
        "x-api-pattern": "ExecuteFunction",
        "security": [
          {
            "oauth2": []
          }
        ]
      }
    }
  },
  "definitions": {
    "AuthResponse": {
      "type": "object",
      "properties": {
        "accessToken": {
          "type": "string",
          "description": "hold the value of the type",
          "maxLength": 256,
          "minLength": 1,
          "pattern": "^[\\S ]+$",
          "x-example": ""
        },
        "expiresIn": {
          "type": "string",
          "description": "hold the value of the type",
          "maxLength": 256,
          "minLength": 1,
          "pattern": "^[\\S ]+$",
          "x-example": ""
        }
      },
      "title": "AuthResponse",
      "description": "contains type Object values"
    },
    "CartResponse": {
      "type": "object",
      "properties": {
        "cartId": {
          "type": "string",
          "description": "hold the value of the type",
          "maxLength": 256,
          "minLength": 1,
          "pattern": "^[\\S ]+$",
          "x-example": ""
        },
        "extCartId": {
          "type": "string",
          "description": "hold the value of the type",
          "maxLength": 256,
          "minLength": 1,
          "pattern": "^[\\S ]+$",
          "x-example": ""
        },
        "status": {
          "$ref": "#/definitions/Status"
        }
      },
      "title": "CartResponse",
      "description": "contains type Object values"
    },
    "CombinedRequestBody": {
      "type": "object",
      "properties": {
        "entitlementsDetails": {
          "$ref": "#/definitions/EntitlementsDetails"
        }
      },
      "title": "CombinedRequestBody",
      "description": "contains type Object values"
    },
    "EntitlementsDetails": {
      "type": "object",
      "properties": {
        "securityProfile": {
          "$ref": "#/definitions/SecurityProfile"
        }
      },
      "title": "EntitlementsDetails",
      "description": "contains type Object values"
    },
    "FacadeReponse": {
      "type": "object",
      "properties": {
        "authResponse": {
          "$ref": "#/definitions/AuthResponse"
        },
        "cartResponse": {
          "$ref": "#/definitions/CartResponse"
        }
      },
      "title": "FacadeReponse",
      "description": "contains type Object values"
    },
    "FacadeRequest": {
      "type": "object",
      "properties": {
        "accountNumber": {
          "type": "string",
          "description": "hold the value of the type",
          "maxLength": 256,
          "minLength": 1,
          "pattern": "^[\\S ]+$",
          "x-example": ""
        },
        "clientId": {
          "type": "string",
          "description": "hold the value of the type",
          "maxLength": 256,
          "minLength": 1,
          "pattern": "^[\\S ]+$",
          "x-example": ""
        },
        "customerId": {
          "type": "string",
          "description": "hold the value of the type",
          "maxLength": 256,
          "minLength": 1,
          "pattern": "^[\\S ]+$",
          "x-example": ""
        },
        "grantType": {
          "type": "string",
          "description": "hold the value of the type",
          "maxLength": 256,
          "minLength": 1,
          "pattern": "^[\\S ]+$",
          "x-example": ""
        },
        "phoneNumber": {
          "type": "string",
          "description": "hold the value of the type",
          "maxLength": 256,
          "minLength": 1,
          "pattern": "^[\\S ]+$",
          "x-example": ""
        },
        "role": {
          "type": "string",
          "description": "hold the value of the type",
          "maxLength": 256,
          "minLength": 1,
          "pattern": "^[\\S ]+$",
          "x-example": ""
        },
        "scope": {
          "type": "string",
          "description": "hold the value of the type",
          "maxLength": 256,
          "minLength": 1,
          "pattern": "^[\\S ]+$",
          "x-example": ""
        }
      },
      "title": "FacadeRequest",
      "description": "contains type Object values"
    },
    "GetPermissionsRootFlowInforItem": {
      "type": "object",
      "properties": {
        "id": {
          "type": "string",
          "description": "hold the value of the type",
          "maxLength": 256,
          "minLength": 1,
          "pattern": "^[\\S ]+$",
          "x-example": ""
        },
        "isPrimary": {
          "type": "boolean",
          "description": "hold the value of the type"
        },
        "type": {
          "type": "string",
          "description": "hold the value of the type",
          "maxLength": 256,
          "minLength": 1,
          "pattern": "^[\\S ]+$",
          "x-example": ""
        }
      },
      "title": "GetPermissionsRootFlowInforItem",
      "description": "contains type Object values"
    },
    "GetPermissionsRootPermItem": {
      "type": "object",
      "properties": {
        "CUST": {
          "type": "string",
          "description": "contains type string values",
          "maxLength": 256,
          "minLength": 1,
          "pattern": "^[\\S ]+$",
          "x-example": ""
        },
        "REP": {
          "type": "string",
          "description": "contains type string values",
          "maxLength": 256,
          "minLength": 1,
          "pattern": "^[\\S ]+$",
          "x-example": ""
        }
      },
      "title": "GetPermissionsRootPermItem",
      "description": "contains type Object values"
    },
    "PostCreateTmobileProfileRequest": {
      "type": "object",
      "properties": {
        "addresses": {
          "type": "string",
          "description": "hold the value of the type",
          "maxLength": 256,
          "minLength": 1,
          "pattern": "^[\\S ]+$",
          "x-example": ""
        },
        "birthDate": {
          "type": "string",
          "description": "hold the value of the type",
          "maxLength": 256,
          "minLength": 1,
          "pattern": "^[\\S ]+$",
          "x-example": ""
        },
        "contactNumber": {
          "type": "string",
          "description": "hold the value of the type",
          "maxLength": 256,
          "minLength": 1,
          "pattern": "^[\\S ]+$",
          "x-example": ""
        },
        "email": {
          "type": "string",
          "description": "hold the value of the type",
          "maxLength": 256,
          "minLength": 1,
          "pattern": "^[\\S ]+$",
          "x-example": ""
        },
        "firstName": {
          "type": "string",
          "description": "hold the value of the type",
          "maxLength": 256,
          "minLength": 1,
          "pattern": "^[\\S ]+$",
          "x-example": ""
        },
        "lastName": {
          "type": "string",
          "description": "hold the value of the type",
          "maxLength": 256,
          "minLength": 1,
          "pattern": "^[\\S ]+$",
          "x-example": ""
        },
        "middleName": {
          "type": "string",
          "description": "hold the value of the type",
          "maxLength": 256,
          "minLength": 1,
          "pattern": "^[\\S ]+$",
          "x-example": ""
        },
        "notiPreference": {
          "type": "string",
          "description": "hold the value of the type",
          "maxLength": 256,
          "minLength": 1,
          "pattern": "^[\\S ]+$",
          "x-example": ""
        },
        "password": {
          "type": "string",
          "description": "hold the value of the type",
          "maxLength": 256,
          "minLength": 1,
          "pattern": "^[\\S ]+$",
          "x-example": ""
        },
        "pin": {
          "type": "string",
          "description": "hold the value of the type",
          "maxLength": 256,
          "minLength": 1,
          "pattern": "^[\\S ]+$",
          "x-example": ""
        },
        "securityA1": {
          "type": "string",
          "description": "hold the value of the type",
          "maxLength": 256,
          "minLength": 1,
          "pattern": "^[\\S ]+$",
          "x-example": ""
        },
        "securityA2": {
          "type": "string",
          "description": "hold the value of the type",
          "maxLength": 256,
          "minLength": 1,
          "pattern": "^[\\S ]+$",
          "x-example": ""
        },
        "securityA3": {
          "type": "string",
          "description": "hold the value of the type",
          "maxLength": 256,
          "minLength": 1,
          "pattern": "^[\\S ]+$",
          "x-example": ""
        },
        "userName": {
          "type": "string",
          "description": "hold the value of the type",
          "maxLength": 256,
          "minLength": 1,
          "pattern": "^[\\S ]+$",
          "x-example": ""
        }
      },
      "title": "PostCreateTmobileProfileRequest",
      "description": "contains type Object values"
    },
    "PostCreateTmobileProfileResponse": {
      "type": "object",
      "properties": {
        "errorCode": {
          "type": "string",
          "description": "hold the value of the type",
          "maxLength": 256,
          "minLength": 1,
          "pattern": "^[\\S ]+$",
          "x-example": ""
        },
        "errorDescription": {
          "type": "string",
          "description": "hold the value of the type",
          "maxLength": 256,
          "minLength": 1,
          "pattern": "^[\\S ]+$",
          "x-example": ""
        },
        "pinError": {
          "type": "string",
          "description": "hold the value of the type",
          "maxLength": 256,
          "minLength": 1,
          "pattern": "^[\\S ]+$",
          "x-example": ""
        },
        "status": {
          "type": "string",
          "description": "hold the value of the type",
          "maxLength": 256,
          "minLength": 1,
          "pattern": "^[\\S ]+$",
          "x-example": ""
        },
        "tmobileId": {
          "type": "string",
          "description": "hold the value of the type",
          "maxLength": 256,
          "minLength": 1,
          "pattern": "^[\\S ]+$",
          "x-example": ""
        }
      },
      "title": "PostCreateTmobileProfileResponse",
      "description": "contains type Object values"
    },
    "SecurityProfile": {
      "type": "object",
      "properties": {
        "customerId": {
          "type": "string",
          "description": "hold the value of the type",
          "maxLength": 256,
          "minLength": 1,
          "pattern": "^[\\S ]+$",
          "x-example": ""
        },
        "financialAccountNumber": {
          "type": "string",
          "description": "hold the value of the type",
          "maxLength": 256,
          "minLength": 1,
          "pattern": "^[\\S ]+$",
          "x-example": ""
        },
        "userRole": {
          "type": "string",
          "description": "hold the value of the type",
          "maxLength": 256,
          "minLength": 1,
          "pattern": "^[\\S ]+$",
          "x-example": ""
        }
      },
      "title": "SecurityProfile",
      "description": "contains type Object values"
    },
    "Status": {
      "type": "object",
      "properties": {
        "code": {
          "type": "string",
          "description": "hold the value of the type",
          "maxLength": 256,
          "minLength": 1,
          "pattern": "^[\\S ]+$",
          "x-example": ""
        },
        "message": {
          "type": "string",
          "description": "hold the value of the type",
          "maxLength": 256,
          "minLength": 1,
          "pattern": "^[\\S ]+$",
          "x-example": ""
        }
      },
      "title": "Status",
      "description": "contains type Object values"
    },
    "SubscriberSegmentationResponse": {
      "type": "object",
      "properties": {
        "segmentationCode": {
          "type": "string",
          "description": "hold the value of the type",
          "maxLength": 256,
          "minLength": 1,
          "pattern": "^[\\S ]+$",
          "x-example": ""
        }
      },
      "title": "SubscriberSegmentationResponse",
      "description": "contains type Object values"
    },
    "Error": {
      "type": "object",
      "description": "As defined in http://api-standards.apps.px-npe01.cf.t-mobile.com/http/status-codes/error-response-format/",
      "required": [
        "code",
        "userMessage"
      ],
      "properties": {
        "code": {
          "description": "A succinct, domain-specific, human-readable text string to identify the type of error for the given status code",
          "example": "ProductNotFound",
          "type": "string",
          "pattern": "^[\\S ]+$"
        },
        "userMessage": {
          "description": "A human-readable message describing the error.",
          "example": "Failed to find product.",
          "type": "string",
          "minLength": 1,
          "maxLength": 256,
          "pattern": "^[\\S ]+$"
        },
        "systemMessage": {
          "description": "Text that provides a more detailed technical explanation of the error",
          "example": "PRODUCT_NOT_FOUND",
          "type": "string",
          "minLength": 1,
          "maxLength": 256,
          "pattern": "^[\\S]*$"
        },
        "detailLink": {
          "description": "link to custom information providing greater detail on error or errors",
          "example": "http://aaa.bbb.ccc/",
          "type": "string",
          "minLength": 1,
          "maxLength": 256,
          "pattern": "^[\\S]*$"
        }
      }
    }
  },
  "schemes": [
    "https"
  ],
  "x-servers": [
    {
      "url": "http://127.0.0.1/",
      "description": "Test Server 1"
    }
  ],
  "securityDefinitions": {
    "oauth2": {
      "type": "oauth2",
      "description": "oauth2 Authentication",
      "tokenUrl": "https://host/v4/oauth2/accesstoken?grant_type=client_credentials",
      "flow": "application",
      "scopes": {}
    }
  },
  "parameters": {
    "header-activity-id": {
      "in": "header",
      "name": "activityId",
      "description": "Unique id alphanumeric value generated and sent by the partner to identify every the service request uniquely. Sample: XyzA:D1s5s1i-X6AFRvfiPBfs-1234  Pass as is to downstream calls.",
      "required": true,
      "type": "string",
      "x-example": "A342431",
      "format": "string",
      "minLength": 1,
      "maxLength": 256,
      "pattern": "^[ \\S]+$"
    },
    "header-X-Authorization": {
      "name": "x-authorization",
      "in": "header",
      "description": "OAuth 2.0 access token with the authentication type set as Bearer (pop token).",
      "required": false,
      "type": "string",
      "format": "string",
      "minLength": 1,
      "maxLength": 256,
      "x-example": "aodsidj9038j203jd203dj230djaSFAfa3",
      "pattern": "^[ \\S]+$"
    },
    "header-X-Auth-Originator": {
      "name": "x-auth-originator",
      "in": "header",
      "description": "OAuth 2.0 access token with the authentication type set as Bearer (id token).",
      "required": true,
      "type": "string",
      "format": "string",
      "minLength": 1,
      "maxLength": 256,
      "x-example": "aasFAFq3fwsdgsw4GTgw442.sdjbfsdjksg2o34t.dsfbhifh9h2wf92f"
    },
    "header-Accept": {
      "name": "Accept",
      "in": "header",
      "description": "Preferred content type _ default to application/json",
      "x-example": "application/json",
      "required": false,
      "type": "string",
      "minLength": 1,
      "maxLength": 256,
      "pattern": "^[ \\S]+$"
    },
    "header-Accept-Charset": {
      "name": "Accept-Charset",
      "in": "header",
      "description": "Character sets that are acceptable.",
      "x-example": "ISO-8859-1,utf-8;q=0.7,*;q=0.7",
      "required": false,
      "type": "string",
      "minLength": 1,
      "maxLength": 256,
      "pattern": "^[\\S ]*$"
    },
    "header-Accept-Encoding": {
      "name": "Accept-Encoding",
      "in": "header",
      "description": "List of acceptable encodings. See HTTP compression.",
      "x-example": "gzip,deflate",
      "required": false,
      "type": "string",
      "minLength": 1,
      "maxLength": 256,
      "pattern": "^[\\S ]*$"
    },
    "header-Accept-Language": {
      "name": "Accept-Language",
      "in": "header",
      "description": "List of acceptable human languages for response",
      "x-example": "en-us,en;q=0.5",
      "required": false,
      "type": "string",
      "minLength": 1,
      "maxLength": 256,
      "pattern": "g'^[\\S ]*$'."
    },
    "header-Authorization": {
      "name": "Authorization",
      "in": "header",
      "description": "The HTTP Authorization request header contains the credentials to authenticate a user agent with a server (access token).",
      "x-example": "Bearer mF_9.B5f-4.1JqM",
      "required": true,
      "type": "string",
      "minLength": 1,
      "maxLength": 256,
      "pattern": "^[\\S ]+$"
    },
    "header-application-user-id": {
      "name": "applicationUserId",
      "in": "header",
      "description": "user id of the rep/user who logged in",
      "x-example": "AJay3",
      "required": true,
      "type": "string",
      "minLength": 1,
      "maxLength": 256,
      "pattern": "^[\\S ]+$"
    },
    "header-Content-Type": {
      "name": "Content-Type",
      "in": "header",
      "description": "The MIME type of this content",
      "x-example": "text/xml",
      "required": true,
      "type": "string",
      "minLength": 1,
      "maxLength": 256,
      "pattern": "^[ \\S]+$"
    },
    "header-Date": {
      "name": "Date",
      "in": "header",
      "description": "The Date general HTTP header contains the date and time at which the message was originated.",
      "x-example": "Mon, 05 Mar 2018 16:38:08 GMT",
      "required": false,
      "type": "string",
      "format": "date-time",
      "pattern": "^(Mon|Tue|Wed|Thu|Fri|Sat|Sun), [0-3]{1}[0-9]{1} (Jan|Feb|Mar|Apr|May|Jun|Jul|Aug|Sep|Oct|Nov|Dec) [1-3][0-9]{3} [0-2][0-9]:[0-6][0-9]:[0-6][0-9] GMT$"
    },
    "header-Referer": {
      "name": "Referer",
      "in": "header",
      "description": "The Referer header specifies date-related conditions to be placed on the execution of a request.  The request will only be executed if the requested resource has not been modified since the date-time specified.  Because the behavior is complex, the details for usage are provided at http://www.w3.org/Protocols/rfc2616/rfc2616-sec14.html",
      "x-example": "Mon, 05 Mar 2018 16:38:08 GMT",
      "required": false,
      "type": "string",
      "format": "date-time",
      "pattern": "^(Mon|Tue|Wed|Thu|Fri|Sat|Sun), [0-3]{1}[0-9]{1} (Jan|Feb|Mar|Apr|May|Jun|Jul|Aug|Sep|Oct|Nov|Dec) [1-3][0-9]{3} [0-2][0-9]:[0-6][0-9]:[0-6][0-9] GMT$"
    },
    "header-channel-id": {
      "name": "channelId",
      "in": "header",
      "description": "Defines which channel this specific transaction belongs to (RETAIL/CARE/WEB/RAP)",
      "x-example": "*",
      "required": true,
      "type": "string",
      "minLength": 1,
      "maxLength": 256,
      "pattern": "^[\\S]*$"
    },
    "header-timestamp": {
      "name": "timestamp",
      "in": "header",
      "description": "ms since 1/1/70 adjusted to GMT",
      "x-example": "1524599536",
      "required": false,
      "type": "integer",
      "format": "int64",
      "minimum": 0,
      "maximum": 999999999999,
      "pattern": "^[\\d]*$"
    },
    "header-workflow-id": {
      "name": "workflowId",
      "in": "header",
      "description": "Business Use Case",
      "x-example": "ACTIVATION",
      "required": false,
      "type": "string",
      "minLength": 1,
      "maxLength": 256,
      "pattern": "^[\\S]*$"
    },
    "header-session-id": {
      "name": "sessionId",
      "in": "header",
      "description": "A value populated by the sender used to track the transactions that occur during a session, a long-lasting interaction that ismaintained by the sender.",
      "x-example": "350b91ec-4a64-4b10-a3f3-a78c8db3924a",
      "required": true,
      "type": "string",
      "minLength": 1,
      "maxLength": 256,
      "pattern": "^[\\S]*$"
    },
    "header-interaction-id": {
      "name": "interactionId",
      "in": "header",
      "description": "Alphanumeric value represent a common transaction id across all calls made from UI, while completing all business activity needs of a particular customer.",
      "x-example": "cc688d54-50d1-49d4-8c5d-95459d1172e8",
      "required": true,
      "type": "string",
      "minLength": 1,
      "maxLength": 256,
      "pattern": "^[\\S]*$"
    },
    "header-service-transaction-id": {
      "name": "service-transaction-id",
      "in": "header",
      "description": "Request ID echoed back by server",
      "x-example": "23409209723",
      "required": false,
      "type": "string",
      "minLength": 1,
      "maxLength": 256,
      "pattern": "^[\\S]*$"
    }
  }
}