@startuml
title <size:18>__U2.0 Prepaid Upgrade + ML Cart Payment - Web/Care __</size>
actor Rep
participant Rep as Rep
participant Rebellion as ui
participant "API Gateway" as proxy
participant ES as es
participant Cache as cacheSSS
participant ESP as esp
participant WSIL as wsil
participant Vesta as vesta

ui->proxy : API_2006_customer billing summary \n (customerSummaryWSIL.getAggregatedCustomerInfo)
proxy->es : API_2006_customer billing summary \n (customerSummaryWSIL.getAggregatedCustomerInfo)
es->wsil : API_2006_customer billing summary \n (customerSummaryWSIL.getAggregatedCustomerInfo)
wsil->es :response API_2006_customer billing summary \n (customerSummaryWSIL.getAggregatedCustomerInfo)
es->proxy : response API_2006_customer billing summary \n (customerSummaryWSIL.getAggregatedCustomerInfo)
proxy->ui : response API_2006_customer billing summary \n (customerSummaryWSIL.getAggregatedCustomerInfo)

ui->proxy : API_513_getAccountFundingOptions
proxy->es : API_513_getAccountFundingOptions
es-> wsil : getPaymentOptions (PaymentWSIL.getEligiblePaymentMethods \n PaymentWSIL.getSoftgoodFundingOptions)
wsil-->es : Response getPaymentOptions (PaymentWSIL.getEligiblePaymentMethods \n PaymentWSIL.getSoftgoodFundingOptions)
es-->proxy : Response API_513_getAccountFundingOptions
proxy-->ui : Response API_513_getAccountFundingOptions

alt existing balance as funding options
    ui -> proxy : API_2607_updateExistingBalance
    proxy -> es : API_2607_updateExistingBalance
    alt If Cart info is Cached
        es -> cache : get latest WSIL cart response
        cache --> es : response with latest WSIL cart response
    end
    es -> wsil : updateCart
    wsil --> es : response
    es -> cache : store updated WSIL cart response to cache
    es --> proxy : Response API_2607_updateExistingBalance
    proxy --> ui : Response API_2607_updateExistingBalance
end

alt refill card (ePin or voucher) as funding options
    Rep -> ui : ** rep enters voucher details **
    ui -> proxy : API_2621_postValidatePrepaidRefillCard
    proxy -> es : API_2621_postValidatePrepaidRefillCard
    es -> wsil : VoucherWSIL.checkVoucherEligibility \n VoucherWSIL.getVoucherDetails \n VoucherWSIL.validateActivationCode
    wsil --> es : Response (VoucherWSIL.checkVoucherEligibility \n VoucherWSIL.getVoucherDetails \n VoucherWSIL.validateActivationCode)
    es --> proxy : Response API_2621_postValidatePrepaidRefillCard
    proxy --> ui : Response API_2621_postValidatePrepaidRefillCard
    ui --> ui : Enables ** "Apply" ** button on success response
    ui --> ui : UI displays added voucher with a ** "Remove" ** clickable text

    alt rep clicks on ** "Apply" ** or ** "Remove" **
        ui -> es : API_2608_updateRefillCard
        es -> cache : get latest WSIL cart response from cache
        cache --> es : Response latest WSIL cart response from cache
        es -> wsil : updateCart
        wsil --> es : response
        es -> cache : store updated WSIL cart response to cache
        es --> proxy : Response API_2608_updateRefillCard
        proxy --> ui : Response API_2608_updateRefillCard
    end
end

alt add extra amount (pay extra)
    Rep -> ui : rep enters extra amount (>= $1 AND <= $300)
    ui -> proxy : API_2609_updatePayExtraAmount
    proxy -> es : API_2609_updatePayExtraAmount
    alt If productOfferingId is not sent in request
        es -> es : API_2100_retrieveProducts to get D2A sku and offeringId
        es -> es : Response API_2100_retrieveProducts
    end
    es -> cache : get latest WSIL cart response from cache
    cache --> es : Response with latest WSIL cart response from cache
    es -> wsil : updateCart
    wsil --> es : Response
    es -> cache : store updated WSIL cart response to cache
    es --> proxy : Response API_2609_updatePayExtraAmount
    proxy --> ui : Response API_2609_updatePayExtraAmount
end

alt REP selects ** Card ** Credit / Debit
       alt P2P off
        alt If Legacy (non-digital) Store
        ui-> vesta : java script lib for encryption
        vesta --> ui : Response Temporary Token generated
        end
       end

   ui -> proxy : API_419_getEligiblePaymentMethod
   proxy -> es : API_419_getEligiblePaymentMethod
   es-> wsil :  PaymentWSIL.getEligiblePaymentMethods \n PaymentWSIL.getSoftgoodFundingOptions
   wsil --> es :  Response PaymentWSIL.getEligiblePaymentMethods \n PaymentWSIL.getSoftgoodFundingOptions
   es --> proxy :  Response API_419_getEligiblePaymentMethod
   proxy --> ui :  Response API_419_getEligiblePaymentMethod

   note over ui: By entering the 6 digit of card, Verify the Card Type (bin lookup)
   ui -> proxy : API_2611_CardTypeValidation
   proxy -> es :API_2611_CardTypeValidation
   es -> proxy : Response API_2611_CardTypeValidation
   proxy -> ui : Response API_2611_CardTypeValidation
   note over ui: highlight the card logo

    ui->proxy : API_2614_postValidatePaymentMethod
    proxy ->es : API_2614_postValidatePaymentMethod
    es->esp : validatePaymentMethod
    esp ->vesta : ChagreGetPaymentDeviceInfo
    vesta --> esp : validate the card
    esp-->es : Response API_2614_postValidatePaymentMethod
    es-->proxy : Response API_2614_postValidatePaymentMethod
    proxy-->ui : Response Card Validation Result
    note over ui: If card is invalid: "Prompt User to enter another card details"

   ui->proxy : API_2150_postSubmitOrderPaymentMethod
   proxy ->es : API_2150_postSubmitOrderPaymentMethod
   es->esp : CreateOrderCheckout Service(UpdatePaymentDetails)
   esp-->es : Response API_2150_postSubmitOrderPaymentMethod
   es-->proxy : Response API_2150_postSubmitOrderPaymentMethod
   proxy-->ui : Response API_2150_postSubmitOrderPaymentMethod

end

note over ui:If tender is debit/credit and Fraud Check = "Reject" then prompt the customer to use new card

ui-> proxy : API_2806_termsAndConditions
proxy -> es : API_2806_termsAndConditions
es -> wsil: CustomerDocumentWSIL.getDocumentReference
wsil --> es : return T&C
es --> proxy : return T&C
proxy --> ui : return T&C
ui --> ui : Display Terms & Conditions

ui->es : API_2150_postSubmitOrder
es->esp :CreateOrderCheckout Service(Submit PaymentDetails)
esp-->es : Response API_2150_postSubmitOrder (Submit PaymentDetails)
es-->proxy : Response API_2150_postSubmitOrder (Submit PaymentDetails)
proxy-->ui : Displays the order confirmation/response

@enduml