@startuml
title <size:18>__U2.0 Prepaid Upgrade + ML - Stored Payment Methods __</size>

actor User
participant User as User
participant Rebellion as ui
participant "API Gateway" as proxy
participant ES as es
participant ESP as esp
participant WSIL as wsil

ui -> ui: Load the ** SC1211 Manage Payment Methods ** screen

== Add a new Stored Payment method ==

alt if User selects new credit/debit
   
    ui -> proxy : API_2616_getEligiblePaymentMethods
    proxy -> es : API_2616_getEligiblePaymentMethods
    es-> wsil :  PaymentWSIL.getEligiblePaymentMethods
    wsil --> es :  Response PaymentWSIL.getEligiblePaymentMethods
    es --> proxy :  Response API_2616_getEligiblePaymentMethods
    proxy --> ui :  Response API_2616_getEligiblePaymentMethods
    
    User -> ui : select  new credit/debit
    User -> ui: User enter the 6 digit

    ui -> proxy : API_2611_CardTypeValidation
    proxy -> es :API_2611_CardTypeValidation
    es-> esp : PaymentEnterprise.ValidatePaymentMethod
    esp --> es : Response PaymentEnterprise.ValidatePaymentMethod
    es --> proxy : API_2611_CardTypeValidation
    proxy --> ui : API_2611_CardTypeValidation
    note over ui: enables the card logo

    User -> ui: Finished entering Credit Card Number and other details

    ui-> vesta : java script lib for encryption
    vesta --> ui : Response Temporary Token generated

    ui->proxy : API_2614_postValidatePaymentMethod
    proxy ->es : API_2614_postValidatePaymentMethod
    es->esp : validatePaymentMethod
    esp ->vesta : validatePaymentMethod
    vesta --> esp : validate the card
    esp-->es : Response API_2614_postValidatePaymentMethod
    es-->proxy : Response API_2614_postValidatePaymentMethod
    proxy-->ui : Response Card Validation Result

     User -> ui : Click on ** Accept & Continue **

    ui -> proxy : API_2618_postStoredPaymentMethod (actionCode=Create)
    proxy -> es : API_2618_postStoredPaymentMethod (actionCode=Create)
    es-> esp : paymentEnterprise.manageStoredPaymentMethods (actionCode=Create)
    esp --> es : Response paymentEnterprise.manageStoredPaymentMethods(actionCode=Create)
    es --> proxy : Response API_2618_postStoredPaymentMethod (actionCode=Create)
    proxy --> ui : Response API_2618_postStoredPaymentMethod (actionCode=Create)
end

== Update an existing Stored Payment method ==

ui->proxy : API_2617_getStoredPaymentMethods
proxy->es : API_2617_getStoredPaymentMethods
es->esp : paymentEnterprise.getStoredPaymentMethods
esp-->es : Response paymentEnterprise.getStoredPaymentMethods
es-->proxy : Response API_2617_getStoredPaymentMethods
proxy-->ui : Response API_2617_getStoredPaymentMethods

alt if User selects one the stored credit/debit card

    User -> ui: User enter the 6 digit

    ui -> proxy : API_2611_CardTypeValidation
    proxy -> es : API_2611_CardTypeValidation
    es-> esp : PaymentEnterprise.ValidatePaymentMethod
    esp --> es : Response PaymentEnterprise.ValidatePaymentMethod
    es --> proxy : API_2611_CardTypeValidation
    proxy --> ui : API_2611_CardTypeValidation
    note over ui: enables the card logo

    User -> ui: Finished entering Credit Card Number and other details

    ui-> vesta : java script lib for encryption
    vesta --> ui : Response Temporary Token generated

    ui->proxy : API_2614_postValidatePaymentMethod
    proxy ->es : API_2614_postValidatePaymentMethod
    es->esp : validatePaymentMethod
    esp ->vesta : validatePaymentMethod
    vesta --> esp : validate the card
    esp-->es : Response API_2614_postValidatePaymentMethod
    es-->proxy : Response API_2614_postValidatePaymentMethod
    proxy-->ui : Response Card Validation Result

     User -> ui : Click on ** Accept & Continue **

    ui -> proxy : API_2619_updateStoredPaymentMethod(actionCode=Update)
    proxy -> es : API_2619_updateStoredPaymentMethod(actionCode=Update)
    es-> esp : paymentEnterprise.manageStoredPaymentMethods (actionCode=Update)
    esp --> es : Response paymentEnterprise.manageStoredPaymentMethods(actionCode=Update)
    es --> proxy : Response API_2619_updateStoredPaymentMethod(actionCode=Update))
    proxy --> ui : Response API_2619_updateStoredPaymentMethod(actionCode=Update)
end

== Remove an existing Stored Payment method ==

ui->proxy : API_2617_getStoredPaymentMethods
proxy->es : API_2617_getStoredPaymentMethods
es->esp : paymentEnterprise.getStoredPaymentMethods
esp-->es : Response paymentEnterprise.getStoredPaymentMethods
es-->proxy : Response API_2617_getStoredPaymentMethods
proxy-->ui : Response API_2617_getStoredPaymentMethods

alt if User selects one the stored credit/debit card
     User -> ui : Click on ** Remove **

    ui -> ui: show Removed Modal with message
    User -> ui: click on ** Continue **

    ui -> proxy : API_2620_deleteStoredPaymentMethod(actionCode=Delete)
    proxy -> es : API_2620_deleteStoredPaymentMethod(actionCode=Delete)
    es-> esp : paymentEnterprise.manageStoredPaymentMethods (actionCode=Delete)
    esp --> es : Response paymentEnterprise.manageStoredPaymentMethods(actionCode=Delete)
    es --> proxy : Response API_2620_deleteStoredPaymentMethod(actionCode=Delete)
    proxy --> ui : Response API_2620_deleteStoredPaymentMethod(actionCode=Delete)
end

@enduml