@startuml
participant DICE
participant APIGEE
participant OMAPI
participant RABBITMQ
participant "WorkFlow \n Engine" as WorkFlow
Participant "Network Prov \n Order Repository" as NPOR
participant "OF Network \n Activation\n Handler" as OFNAH
participant EDA
participant "OF Network \n Provisioning \n Status Handler" as OFNPSH
participant "OF Samson\n Update Sim \nEvent Handler" as OFSUSEH
participant "OF Samson\n EDA port-in \nEvent Handler" as OFPORT
participant "OF Samson\n Insert MPCS Subscriber \nEvent Handler" as OFSIMEH
participant Samson
participant "OF Metro \nEvent Handler" as OFMEH
participant Metro
participant "OF Qpay \nEvent Handler" as OFQEH
participant QPAY
participant "OF UPdateIMEI Handler" as OFUIM

DICE ->APIGEE : Creating order ID request
APIGEE-->DICE : Order ID response
DICE ->APIGEE : Submitting the order
APIGEE->>OMAPI :REST API (ProvisioningOrder)
OMAPI->RABBITMQ :  
RABBITMQ->WorkFlow :
WorkFlow ->NPOR :Insert an order,\ncreate Execution steps with status New (including samson(insert MPCS/update SIM,qpay,AAM))
WorkFlow -> WorkFlow : Process Metro Provisioning  Request
WorkFlow ->NPOR : Update status to Running 
WorkFlow->RABBITMQ :RABBIT MQ Message (OrderPayload)\nPost message to Queue -OM.OF.Provisioning.METRO.NetworkActivation.Process.DEV

Group port-in to Samson
   RABBITMQ ->> OFPORT : Network  Portin Activation Request
   OFPORT-> Samson: call samson to deactivate the MSISDN
   Samson --> RABBITMQ: Send port-out complete ACK
   RABBITMQ --> WorkFlow :  Send Acknowledgement (success/Failure)
   WorkFlow-> WorkFlow : validate if the responce is success or failure
   WorkFlow ->NPOR: Update status to Completed or failure 
   
end
  
WorkFlow-> WorkFlow  :  if samson responce =success 
WorkFlow ->NPOR :Insert an order,\ncreate Execution steps with status New (including samson(insert MPCS/update SIM,qpay,AAM))
WorkFlow -> WorkFlow : Process Metro Provisioning  Request
WorkFlow ->NPOR : Update status to Running 
WorkFlow->RABBITMQ :RABBIT MQ Message (OrderPayload)\nPost message to Queue -OM.OF.Provisioning.METRO.NetworkActivation.Process.DEV

 Group INVOKE InsertMPCS Subscriber Handler to update MSISDN PROV_STATUS as PP
      WorkFlow ->> RABBITMQ : Network Port-in Activation Payload
      RABBITMQ->OFSIMEH:Network Activation Payload
      OFSIMEH -> Samson : InsertMPCSSubscriberDetails
      Samson --> OFSIMEH: Send success/failure
      OFSIMEH --> RABBITMQ : OM.OF.Provisioning.METRO.ExecutionStep.Notification.DEV 
      RABBITMQ--> WorkFlow
      WorkFlow ->NPOR: Update status to Completed or failure 

Group Network Port-in Activation Request
   RABBITMQ ->> OFNAH : Network  Port-in Activation Request
   OFNAH -> EDA : Invoke  Port-in Activate API POST http://<host>:<port>/v1/eda/provisioning/line-of-services/port-in 
   EDA --> OFNAH : Send Acknowledgement
   OFNAH --> RABBITMQ  :  Send Acknowledgement
   RABBITMQ --> WorkFlow :  Send Acknowledgement
   WorkFlow ->NPOR :Update status to Acknowledged
end

Group EDA Callback
   EDA -> APIGEE : Send Core/Final notification  
   APIGEE->OFNPSH: Send Core/Final notification  
   OFNPSH -> RABBITMQ: OM.OF.Provisioning.METRO.ExecutionStep.Notification.DEV 
   RABBITMQ-> WorkFlow : Update EDA Response 
   WorkFlow-> NPOR : Update status to Completed
end

Par WorkFlow Engine backend updates
   Group Invoke UpdateSim handler to update SIM RESOURCE_STATUS as ACT
      WorkFlow ->> RABBITMQ : Network Port-in Activation Payload
      RABBITMQ->OFSUSEH : Network Activation Payload
      OFSUSEH -> Samson : UpdateSimStatus
      Samson --> OFSUSEH : Send success/failure
      OFSUSEH --> RABBITMQ : OM.OF.Provisioning.METRO.ExecutionStep.Notification.DEV 
      RABBITMQ--> WorkFlow : 
      WorkFlow ->NPOR: Update status to Completed or failure 

   end
   Group INVOKE InsertMPCS Subscriber Handler to update MSISDN PROV_STATUS as PC
      WorkFlow ->> RABBITMQ : Network Port-in Activation Payload
      RABBITMQ->OFSIMEH:Network Activation Payload
      OFSIMEH -> Samson : InsertMPCSSubscriberDetails
      Samson --> OFSIMEH: Send success/failure
      OFSIMEH --> RABBITMQ : OM.OF.Provisioning.METRO.ExecutionStep.Notification.DEV 
      RABBITMQ--> WorkFlow
      WorkFlow ->NPOR: Update status to Completed or failure 
   end
   Group UpdateIMEI call to LOCK IMSI&IMEI
      WorkFlow ->> RABBITMQ : Network Activation Payload with New stepID
      RABBITMQ->OFUIM : Network Activation Payload
      OFUIM -> EDA : Invoke PUT /http://<host>:<port>/v1/eda/provisioning/line-of-services/{msisdn}/imei 
      alt APIGEE server Up & Running
      EDA -> APIGEE : Send Core/Final notification  
      APIGEE->OFNPSH: Send Core/Final notification \n with respond status code 200  
      OFNPSH -> RABBITMQ: OM.OF.Provisioning.METRO.ExecutionStep.Notification.DEV 
      RABBITMQ-> WorkFlow : Update EDA Response 
      WorkFlow-> NPOR : Update status to Completed for updateIMEI completed
       else APIGEE server down then 
      EDA ->APIGEE : Resend/retry the Core/Final notification   
  end
 end
   Group Update Metro AAM
      WorkFlow ->> RABBITMQ : Network Port-in Activation Payload
      RABBITMQ->OFMEH :Network Activation Payload
      OFMEH -> Metro
      Metro --> OFMEH: Send success/failure
      OFMEH--> RABBITMQ : OM.OF.Provisioning.METRO.ExecutionStep.Notification.DEV 
      RABBITMQ--> WorkFlow
      WorkFlow ->NPOR: Update status to Completed or failure 
   end
   Group Update QPay
      WorkFlow ->> RABBITMQ : Network Port-in Activation Payload
      RABBITMQ->OFQEH: Network Activation Payload
      OFQEH -> QPAY 
      QPAY--> OFQEH:Send success/failure
      OFQEH--> RABBITMQ : OM.OF.Provisioning.METRO.ExecutionStep.Notification.DEV 
      RABBITMQ--> WorkFlow
      WorkFlow ->NPOR: Update status to Completed or failure 
   end
end
@enduml

