@startuml
participant DICE
participant APIGEE
participant OMAPI
participant RABBITMQ
participant "WorkFlow \n Engine" as WorkFlow
Participant "Network Prov \n Order Repository" as NPOR
participant "OF Network \n SuspendSubscriber\n Handler" as OFSH
participant EDA
participant "OF Network \n Provisioning \n Status Handler" as OFNPSH
participant "OF Metro \nEvent Handler" as OFMEH
participant Metro


DICE ->APIGEE : send order ID request
APIGEE->OMAPI : senn order ID request
OMAPI-->APIGEE : Order ID response
APIGEE-->DICE : Order ID response
DICE ->APIGEE : Submitting the order
APIGEE->>OMAPI :REST API (ProvisioningOrder)
OMAPI->RABBITMQ :  
RABBITMQ->WorkFlow :
WorkFlow ->NPOR :Insert an order,\ncreate Execution steps with status New (including AAM)
WorkFlow -> WorkFlow : Process Metro Provisioning  Request
WorkFlow ->NPOR : Update status to Running 
WorkFlow->RABBITMQ :RABBIT MQ Message (OrderPayload)\nPost message to Queue -OM.OF.Provisioning.METRO.NetworkSuspendSubscriber.Process.DEV
Group Network SuspendSubscriber Request
   RABBITMQ ->> OFSH :SuspendSubscriber Request
   OFSH -> EDA : Invoke SuspendSubscriber API \n PUT  http://<host>:<port>/v1/eda/provisioning/line-of-services/status
   EDA --> OFSH : Send Acknowledgement with status code 200
   OFSH --> RABBITMQ  :  Send Acknowledgement with status code 200
   RABBITMQ --> WorkFlow :  Send Acknowledgement with status code 200
   WorkFlow ->NPOR :Update status to Acknowledged
end

Group EDA Callback
    alt APIGEE server Up & Running
   EDA -> APIGEE : Send Core/Final notification with status code 200
   APIGEE->OFNPSH: Send Core/Final notification with status code 200
   OFNPSH -> RABBITMQ: OM.OF.Provisioning.METRO.ExecutionStep.Notification.DEV 
   RABBITMQ-> WorkFlow : Update EDA Response 
   WorkFlow-> NPOR : Update status to Completed
  else APIGEE server is down 
   EDA -> APIGEE : resend/retry the core/Final notification
end


Par WorkFlow Engine backend updates

   Group Update Metro AAM
      WorkFlow ->> RABBITMQ :SuspendSubscriber Payload
      RABBITMQ->OFMEH :SuspendSubscriber Payload
      OFMEH -> Metro
      Metro --> OFMEH: Send success/failure
      OFMEH--> RABBITMQ : OM.OF.Provisioning.METRO.ExecutionStep.Notification.DEV 
      RABBITMQ--> WorkFlow
      WorkFlow ->NPOR: Update status to Completed or failure 
   end
 

end
@enduml 