@startuml
participant DICE
participant APIGEE
participant OMAPI
participant RABBITMQ
participant "WorkFlow \n Engine" as WorkFlow
Participant "Network Prov \n Order Repository" as NPOR
participant "OF Network \n Deactivation\n Handler" as OFNAH
participant EDA
participant "OF Network \n Provisioning \n Status Handler" as OFNPSH
participant "OF Samson\n Update Sim \nEvent Handler" as OFSUSEH
participant "OF Samson\n EDA port-out \nEvent Handler" as OFPORT
participant "OF Samson\n Insert MPCS Subscriber \nEvent Handler" as OFSIMEH
participant Samson
participant "OF Metro \nEvent Handler" as OFMEH
participant Metro
participant "OF Qpay \nEvent Handler" as OFQEH
participant QPAY
participant "OF UPdateIMEI Handler" as OFUIM

DICE ->APIGEE : Creating order ID request
APIGEE-->DICE : Order ID response
DICE ->APIGEE : Submitting the order
APIGEE->>OMAPI :REST API (ProvisioningOrder)
OMAPI->RABBITMQ :  
RABBITMQ->WorkFlow :
WorkFlow ->NPOR :Insert an order,\ncreate Execution steps with status New (including samson(insert MPCS/update SIM,qpay,AAM))
WorkFlow -> WorkFlow : Process Metro Provisioning  Request
WorkFlow ->NPOR : Update status to Running 
WorkFlow->RABBITMQ :RABBIT MQ Message (OrderPayload)\nPost message to Queue -OM.OF.Provisioning.METRO.NetworkDeactivation.Process.DEV
 

Group Network Port-out Deactivation Request
   RABBITMQ ->> OFNAH : Network  Port-out deactivation Request
   OFNAH -> EDA : Invoke  Port-in Deactivate API POST http://<host>:<port>/v1/eda/provisioning/line-of-services/port-out
   EDA --> OFNAH : Send Acknowledgement
   OFNAH --> RABBITMQ  :  Send Acknowledgement
   RABBITMQ --> WorkFlow :  Send Acknowledgement
   WorkFlow ->NPOR :Update status to Acknowledged
end

Group EDA Callback
alt APIGEE server Up & Running 
   EDA -> APIGEE : Send Core/Final notification with respond status code 200 
   APIGEE->OFNPSH: Send Core/Final notification with respond status code 200
   OFNPSH -> RABBITMQ: OM.OF.Provisioning.METRO.ExecutionStep.Notification.DEV 
   RABBITMQ-> WorkFlow : Update EDA Response 
   WorkFlow-> NPOR : Update status to Completed for port-out
   else APIGEE server down then 
   EDA ->APIGEE : Resend/retry the Core/Final notification 
end

Par WorkFlow Engine backend updates
   Group Invoke NumberMgtAutoPortUpdate call
   RABBITMQ ->> OFPORT : Network  Portout  Request
   OFPORT-> Samson: call samson to deactivate the MSISDN
   Samson --> RABBITMQ: Send port-out complete ACK
   RABBITMQ --> WorkFlow :  Send Acknowledgement (success/Failure)
   WorkFlow-> WorkFlow : validate if the responce is success or failure
   WorkFlow ->NPOR: Update status to Completed or failure 
   end
   
   Group Invoke UpdateSim handler to update SIM RESOURCE_STATUS as DPO
      WorkFlow ->> RABBITMQ : Network Port-out Deactivation Payload
      RABBITMQ->OFSUSEH : Network Deactivation Payload
      OFSUSEH -> Samson : UpdateSimStatus
      Samson --> OFSUSEH : Send success/failure
      OFSUSEH --> RABBITMQ : OM.OF.Provisioning.METRO.ExecutionStep.Notification.DEV 
      RABBITMQ--> WorkFlow : 
      WorkFlow ->NPOR: Update status to Completed or failure 

   end
   
   Group UpdateIMEI call to UNLOCK IMSI&IMEI
      WorkFlow ->> RABBITMQ : Network PORT-out Payload with New stepID
      RABBITMQ->OFUIM : Network Port-out  Payload
      OFUIM -> EDA : Invoke PUT /http://<host>:<port>/v1/eda/provisioning/line-of-services/{msisdn}/imei 
      alt APIGEE server Up & Running
      EDA -> APIGEE : Send Core/Final notification  
      APIGEE->OFNPSH: Send Core/Final notification \n with respond status code 200  
      OFNPSH -> RABBITMQ: OM.OF.Provisioning.METRO.ExecutionStep.Notification.DEV 
      RABBITMQ-> WorkFlow : Update EDA Response 
      WorkFlow-> NPOR : Update status to Completed for updateIMEI completed
       else APIGEE server down then 
      EDA ->APIGEE : Resend/retry the Core/Final notification   
  end
 end
   Group Update Metro AAM
      WorkFlow ->> RABBITMQ : Network Port-out Deactivation Payload
      RABBITMQ->OFMEH :Network Deactivation Payload
      OFMEH -> Metro
      Metro --> OFMEH: Send success/failure
      OFMEH--> RABBITMQ : OM.OF.Provisioning.METRO.ExecutionStep.Notification.DEV 
      RABBITMQ--> WorkFlow
      WorkFlow ->NPOR: Update status to Completed or failure 
   end
  
end
@enduml

