@startuml
title Rebellion and Domains Feature Toggle (U2 Pre-Paid)

note over "Rebellion Config"
Add Feature Toggle true/false
as per Release guidelines
end note

Rebellion -> "Rebellion Config" : Read Feature Toggle true/false
"Rebellion Config" --> Rebellion
note over Rebellion
PseudoCode:
function rebellionFeature(){
  if(!Env.isFeatureXEnabled){
    return regressionFunctionality();
  }else{
    return progressionFunctionality();
  }
}
end note
Rebellion -> "Apigee Facade"
"Apigee Facade" -> Core
Core -> "Other Domain"
note over "Domain Config"
Add Feature Toggle true/false
as per Release guidelines
end note
"Other Domain" -> "Domain Config" :Read Feature Toggle true/false

"Domain Config" --> "Other Domain"
note over "Other Domain"
Pseudocode:
function domainAPI(){
  if(!Env.isFeatureXEnabled){
    return regressionFunctionality();
  }else{
    return progressionFunctionality();
  }
}
end note
"Other Domain" --> Core
Core --> "Apigee Facade"
"Apigee Facade" --> Rebellion
@enduml