{
    "swagger": "2.0",
    "info": {
        "title": "This service support Supply Chain Services - List of APIs for Invoice Itemized Details.",
        "description": "Refund will be processed via DPS. SAP will provide itemized information to DPS for refund settlement and subscriber cancel design will be handled in DPS. Expose a API to DPS to consume line item level details like Activation Fee, Shipping Fee, Freight, Taxes, any other fees and line items that are being refunded for Forward and Return Billing document.",
        "version": "1.0.0",
        "contact": {
            "name": "API Center For Enablement",
            "url": "http://www.t-mobile.com",
            "email": "APICFE@T-Mobile.com"
        },
        "license": {
            "name": "Proprietary software",
            "url": "https://en.wikipedia.org/wiki/Proprietary_software"
        },
        "termsOfService": "https://www.t-mobile.com/templates/popup.aspx?PAsset=Ftr_Ftr_TermsAndConditions",
        "x-createdBy": {
            "dateCreated": "Fri Aug 23 23:18:37 2019",
            "createdBy": "syannam",
            "application": "Recite",
            "appVersion": "1.0.0.2891",
            "documentId": "97053221-c5d2-44d8-8026-9b19cd6206a7",
            "status": "Conceptual - Initial",
            "classification": "11.3.8 Inventory Audit Mgmt.",
            "profile": "Core Business Capability Service",
            "serviceLayer": "Resource - Supply Chain Management"
        }
    },
    "x-servers": [
        {
            "url": "http://127.0.0.1/",
            "description": "Test Server 1"
        }
    ],
    "tags": [
        {
            "name": "execute-invoice-itemized-details",
            "description": "The ExecuteFunction design pattern as defined by T-Mobile Digital Architecture."
        }
    ],
    "host": "dev01.api.t-mobile.com",
    "basePath": "/supplychain/v1/order-to-cash",
    "schemes": [
        "https"
    ],
    "paths": {
        "/invoice-item-details": {
            "post": {
                "tags": [
                    "execute-invoice-itemized-details"
                ],
                "x-api-pattern": "ExecuteFunction",
                "summary": "Order itemized information for refund settlement and subscriber cancel design.",
                "description": "Consume line item level details like Activation Fee, Shipping Fee, Freight, Taxes, any other fees and line items that are being refunded for Forward and Return Billing document.",
                "operationId": "queryInvoiceItemizedDetails",
                "consumes": [
                    "application/json",
                    "application/xml"
                ],
                "produces": [
                    "application/json",
                    "application/xml"
                ],
                "parameters": [
                    {
                        "name": "invoiceOrderDetailsRequest",
	                    "in": "body",
						"description": "Query execute request for order itemized information",
						"required": true,
						"schema": {
							"$ref": "#/definitions/InvoiceOrderDetailsRequest"
						}
                    },
                    {
                        "name": "Accept",
                        "in": "header",
                        "description": "Preferred content type _ default to application/json",
                        "x-example": "application/json",
                        "required": false,
                        "type": "string",
                        "minLength": 1,
                        "maxLength": 256,
                        "pattern": "^[ \\S]+$"
                    },
                    {
                        "name": "Accept-Encoding",
                        "in": "header",
                        "description": "List of acceptable encodings. See HTTP compression.",
                        "x-example": "gzip,deflate",
                        "required": false,
                        "type": "string",
                        "minLength": 1,
                        "maxLength": 256,
                        "pattern": "^[\\S ]*$"
                    },
                    {
                        "name": "Accept-Language",
                        "in": "header",
                        "description": "List of acceptable human languages for response",
                        "x-example": "en-us,en;q=0.5",
                        "required": false,
                        "type": "string",
                        "minLength": 1,
                        "maxLength": 256,
                        "pattern": "^[\\S ]*$"
                    },
                    {
                        "name": "Authorization",
                        "in": "header",
                        "description": "The HTTP Authorization request header contains the credentials to authenticate a user agent with a server.",
                        "x-example": "Bearer mF_9.B5f-4.1JqM",
                        "required": true,
                        "type": "string",
                        "minLength": 1,
                        "maxLength": 256,
                        "pattern": "^[\\S ]+$"
                    },
                    {
                        "name": "Date",
                        "in": "header",
                        "description": "The Date general HTTP header contains the date and time at which the message was originated.",
                        "x-example": "Mon, 05 Mar 2018 16:38:08 GMT",
                        "required": false,
                        "type": "string",
                        "format": "date-time",
                        "pattern": "^(Mon|Tue|Wed|Thu|Fri|Sat|Sun), [0-3]{1}[0-9]{1} (Jan|Feb|Mar|Apr|May|Jun|Jul|Aug|Sep|Oct|Nov|Dec) [1-3][0-9]{3} [0-2][0-9]:[0-6][0-9]:[0-6][0-9] GMT$"
                    },
                    {
						"name": "Content-Type",
						"in": "header",
						"description": "The MIME type of this content",
						"x-example": "text/xml",
						"required": true,
						"type": "string",
						"minLength": 1,
						"maxLength": 256,
						"pattern": "^[ \\S]+$"
					},
                    {
                        "name": "activity-id",
                        "in": "header",
                        "description": "Unique id alphanumeric value generated and sent by the partner to identify every the service request uniquely. Sample: XyzA:D1s5s1i-X6AFRvfiPBfs-1234  Pass as is to downstream calls.",
                        "x-example": "c34e7acd-384b-4c22-8b02-ba3963682508",
                        "required": false,
                        "type": "string",
                        "minLength": 1,
                        "maxLength": 256,
                        "pattern": "^[\\S]*$"
                    },
                    {
                        "name": "interaction-id",
                        "in": "header",
                        "description": "Alphanumeric value represent a common transaction id across all calls made from UI, while completing all business activity needs of a particular customer.",
                        "x-example": "cc688d54-50d1-49d4-8c5d-95459d1172e8",
                        "required": false,
                        "type": "string",
                        "minLength": 1,
                        "maxLength": 256,
                        "pattern": "^[\\S]*$"
                    },
                    {
                        "name": "service-transaction-id",
                        "in": "header",
                        "description": "Request ID echoed back by server",
                        "x-example": "23409209723",
                        "required": false,
                        "type": "string",
                        "minLength": 1,
                        "maxLength": 256,
                        "pattern": "^[\\S]*$"
                    },
                    {
                        "name": "session-id",
                        "in": "header",
                        "description": "A value populated by the sender used to track the transactions that occur during a session, a long-lasting interaction that ismaintained by the sender.",
                        "x-example": "350b91ec-4a64-4b10-a3f3-a78c8db3924a",
                        "required": false,
                        "type": "string",
                        "minLength": 1,
                        "maxLength": 256,
                        "pattern": "^[\\S]*$"
                    },
                    {
                        "name": "timestamp",
                        "in": "header",
                        "description": "ms since 1/1/70 adjusted to GMT",
                        "x-example": "1524599536",
                        "required": false,
                        "type": "integer",
                        "format": "int64",
                        "minimum": 0,
                        "maximum": 999999999999,
                        "pattern": "^[\\d]*$"
                    },
                    {
                        "name": "workflow-id",
                        "in": "header",
                        "description": "Business Use Case",
                        "x-example": "ACTIVATION",
                        "required": false,
                        "type": "string",
                        "minLength": 1,
                        "maxLength": 256,
                        "pattern": "^[\\S]*$"
                    },
                    {
                        "name": "x-auth-originator",
                        "in": "header",
                        "description": "API chain initiating callers access token",
                        "x-example": "c34e7acd-384b-4c22-8b02-ba3963682508",
                        "required": false,
                        "type": "string",
                        "minLength": 1,
                        "maxLength": 256,
                        "pattern": "^[\\S]*$"
                    },
                    {
                        "name": "x-authorization",
                        "in": "header",
                        "description": "Contains Proof of Possession token generated by API caller",
                        "x-example": "c34e7acd-384b-4c22-8b02-ba3963682508",
                        "required": false,
                        "type": "string",
                        "minLength": 1,
                        "maxLength": 256,
                        "pattern": "^[\\S ]*$"
                    }
                ],
                "responses": {
                    "200": {
                        "description": "OK",
                        "schema": {
                            "$ref": "#/definitions/InvoiceOrderDetailsResponse"
                        },
                        "examples": {
                            "application/json": {
                                "orderId": "4356731",
                                "accountNumber": "123456790",
                                "totalAmountWithoutTax": 49.98,
                                "totalTax": 5.25,
                                "paymentIds": [
                                    "2022448",
                                    "2022449"
                                ],
                                "orderType": "ZRTM",
                                "orderReasonCode": "542",
                                "orderLines": [
                                    {
                                        "orderLineId": "10000000000000000051",
                                        "salesDocumentItemNumber": "000010",
                                        "sku": "000000190198786029",
                                        "quantity": 1,
                                        "extendedPrice": 29.99,
                                        "tax": 3.15,
                                        "shippingCharge": 0.0,
                                        "phoneNumber": "5205283587"
                                    },
                                    {
                                        "orderLineId": "10000000000000000052",
                                        "salesDocumentItemNumber": "000020",
                                        "sku": "LCD4033",
                                        "quantity": 1,
                                        "extendedPrice": 19.99,
                                        "tax": 2.1,
                                        "shippingCharge": 0.0,
                                        "phoneNumber": "5205283587"
                                    }
                                ]
                            }
                        },
                        "headers": {
                            "Cache-Control": {
                                "description": "Cache policy supported for the resource by the server",
                                "x-example": "no-cache",
                                "type": "string",
                                "minLength": 1,
                                "maxLength": 256,
                                "pattern": "^[\\S]*$"
                            },
                            "Content-Encoding": {
                                "description": "The type of encoding used on the data",
                                "x-example": "gzip,deflate",
                                "type": "string",
                                "minLength": 1,
                                "maxLength": 15,
                                "pattern": "^[\\S]*$"
                            },
                            "Content-Length": {
                                "description": "Length of the response body in octets; not supported if Transfer-Endoding = chunked",
                                "x-example": "9112300000003",
                                "type": "integer",
                                "format": "int64",
                                "minimum": 0,
                                "pattern": "^[\\d]*$"
                            },
                            "Content-Type": {
                                "description": "The MIME type of this content",
                                "x-example": "text/xml",
                                "type": "string",
                                "minLength": 1,
                                "maxLength": 256,
                                "pattern": "^[ \\S]+$"
                            },
                            "Date": {
                                "description": "The Date general HTTP header contains the date and time at which the message was originated.",
                                "x-example": "Mon, 05 Mar 2018 16:38:08 GMT",
                                "type": "string",
                                "format": "date-time",
                                "pattern": "^(Mon|Tue|Wed|Thu|Fri|Sat|Sun), [0-3]{1}[0-9]{1} (Jan|Feb|Mar|Apr|May|Jun|Jul|Aug|Sep|Oct|Nov|Dec) [1-3][0-9]{3} [0-2][0-9]:[0-6][0-9]:[0-6][0-9] GMT$"
                            },
                            "ETag": {
                                "description": "The ETag header specifies the unique entity tag value for the returned resource.",
                                "x-example": "*",
                                "type": "string",
                                "minLength": 1,
                                "maxLength": 256,
                                "pattern": "^[\\S]*$"
                            },
                            "Transfer-Encoding": {
                                "description": "The form of encoding used to safely transfer the entity to the user. Currently defined methods are: chunked, compress, deflate, gzip, identity.",
                                "x-example": "chunked",
                                "type": "string",
                                "minLength": 1,
                                "maxLength": 15,
                                "pattern": "^[\\S]*$"
                            },
                            "service-transaction-id": {
                                "description": "Request ID echoed back by server",
                                "x-example": "23409209723",
                                "type": "string",
                                "minLength": 1,
                                "maxLength": 256,
                                "pattern": "^[\\S]*$"
                            }
                        }
                    },
                    "400": {
                        "description": "Bad Request",
                        "schema": {
                            "$ref": "#/definitions/Error"
                        },
                        "examples": {
                            "application/json": {
                                "code": "400",
                                "userMessage": "Bad Request",
                                "systemMessage": "Bad Request",
                                "detailLink": "http://www.tmus.com"
                            }
                        },
                        "headers": {}
                    },
                    "401": {
                        "description": "Unauthorized",
                        "schema": {
                            "$ref": "#/definitions/Error"
                        },
                        "examples": {
                            "application/json": {
                                "code": "401",
                                "userMessage": "Unauthorized",
                                "systemMessage": "Unauthorized",
                                "detailLink": "http://www.tmus.com"
                            }
                        },
                        "headers": {}
                    },
                    "404": {
                        "description": "Resource not found",
                        "schema": {
                            "$ref": "#/definitions/Error"
                        },
                        "examples": {
                            "application/json": {
                                "code": "404",
                                "userMessage": "No information found for Accounting document-1800046031 and orderfiscalyear-2019",
                                "systemMessage": "No information found for Accounting document-1800046031 and orderfiscalyear-2019",
                                "detailLink": "http://www.tmus.com"
                            }
                        },
                        "headers": {}
                    },
                    "405": {
                        "description": "Method Not Allowed",
                        "schema": {
                            "$ref": "#/definitions/Error"
                        },
                        "examples": {
                            "application/json": {
                                "code": "405",
                                "userMessage": "Method Not Allowed",
                                "systemMessage": "Method Not Allowed",
                                "detailLink": "http://www.tmus.com"
                            }
                        },
                        "headers": {
                            "Allow": {
                                "description": "list of supported methods for URI",
                                "x-example": "GET",
                                "type": "string",
                                "minLength": 1,
                                "maxLength": 256,
                                "pattern": "^[\\S]*$"
                            },
                            "service-transaction-id": {
                                "description": "Request ID echoed back by server",
                                "x-example": "23409209723",
                                "type": "string",
                                "minLength": 1,
                                "maxLength": 256,
                                "pattern": "^[\\S]*$"
                            }
                        }
                    },
                   "409": {
						"description": "Invalid data",
						"schema": {
							"$ref": "#/definitions/Error"
						},
						"examples": {
							"application/json": {
								"code": "409",
								"userMessage": "Accounting document-1800046031 is not valid",
								"systemMessage": "Accounting document-1800046031 is not valid",
								"detailLink": "http://www.tmus.com"
							}
						},
						"headers": {}
					},
					"415": {
						"description": "Unsupported Media Type",
						"schema": {
							"$ref": "#/definitions/Error"
						},
						"examples": {
							"application/json": {
								"code": "415",
								"userMessage": "Unsupported Media Type",
								"systemMessage": "Unsupported Media Type",
								"detailLink": "http://www.tmus.com"
							}
						},
						"headers": {}
					},
                    "500": {
                        "description": "System Error",
                        "schema": {
                            "$ref": "#/definitions/Error"
                        },
                        "examples": {
                            "application/json": {
                                "code": "500",
                                "userMessage": "System Error",
                                "systemMessage": "System Error",
                                "detailLink": "http://www.tmus.com"
                            }
                        },
                        "headers": {}
                    },
                    "503": {
                        "description": "Service unavailable",
                        "schema": {
                            "$ref": "#/definitions/Error"
                        },
                        "examples": {
                            "application/json": {
                                "code": "503",
                                "userMessage": "Service unavailable",
                                "systemMessage": "Service unavailable",
                                "detailLink": "http://www.tmus.com"
                            }
                        },
                        "headers": {}
                    }
                },
                "security": [
                    {
					"JWT": ["post:queryInvoiceItemizedDetails: read invoice item details"]
				}
                ]
            }
        }
    },
    "definitions": {
        "Error": {
            "description": "As defined in http://api-standards.apps.px-npe01.cf.t-mobile.com/http/status-codes/error-response-format/",
            "type": "object",
            "required": [
                "code",
                "userMessage"
            ],
            "properties": {
                "code": {
                    "description": "A succinct, domain-specific, human-readable text string to identify the type of error for the given status code",
                    "example": "ProductNotFound",
                    "type": "string",
                    "minLength": 1,
                    "maxLength": 8,
                    "pattern": "^[\\S ]+$"
                },
                "userMessage": {
                    "description": "A human-readable message describing the error.",
                    "example": "Failed to find product.",
                    "type": "string",
                    "minLength": 1,
                    "maxLength": 8,
                    "pattern": "^[\\S ]+$"
                },
                "systemMessage": {
                    "description": "Text that provides a more detailed technical explanation of the error",
                    "example": "PRODUCT_NOT_FOUND",
                    "type": "string",
                    "minLength": 1,
                    "maxLength": 8,
                    "pattern": "^[\\S ]+$"
                },
                "detailLink": {
                    "description": "link to custom information providing greater detail on error or errors",
                    "example": "http://aaa.bbb.ccc/",
                    "type": "string",
                    "minLength": 1,
                    "maxLength": 16,
                    "pattern": "^[\\S ]+$"
                }
            }
        },
        "InvoiceOrderDetailsRequest": {
        	 "description": "Querying Invoice order details by supply chain accounting number and year",
            "type": "object",
            "properties": {
                "accountingDocumentNumber": {
                    "description": "Associated unique order number  for an order",
                    "example": "1800046031",
                    "type": "string",
                    "minLength": 1,
                    "maxLength": 8,
                    "pattern": "^[\\S ]+$"
                },
                "orderCreationYear": {
                    "description": "The financial account number that identifies the account.",
                    "example": "2019",
                    "type": "string",
                    "minLength": 1,
                    "maxLength": 4,
                    "pattern": "^[\\S ]+$"
                }
            }
        },
        "InvoiceOrderDetailsResponse": {
            "description": "Invoice order details for given supply chain accounting number and year",
            "type": "object",
            "properties": {
                "orderId": {
                    "description": "Associated unique order number  for an order",
                    "example": "4356731",
                    "type": "string",
                    "minLength": 1,
                    "maxLength": 8,
                    "pattern": "^[\\S ]+$"
                },
                "accountNumber": {
                    "description": "The financial account number that identifies the account.",
                    "example": "123456790",
                    "type": "string",
                    "minLength": 1,
                    "maxLength": 8,
                    "pattern": "^[\\S ]+$"
                },
                "totalAmountWithoutTax": {
                    "description": "The total gross value of all order items before discounts, taxes, or other modifiers besides tradeIns.  This is the aggregate of extendedPrice of all order items less tradeIns.",
                    "example": "49.98",
                    "type": "number",
                    "format": "float",
                    "minimum": -9223372036854776000.0,
                    "maximum": 9223372036854776000.0,
                    "pattern": "^([0-9]*|\\d*\\.\\d{1}?\\d*)$"
                },
                "totalTax": {
                    "description": "Aggregate of all taxes.",
                    "example": "5.25",
                    "type": "number",
                    "format": "float",
                    "minimum": 9223372036854776000.0,
                    "maximum": 9223372036854776000.0,
                    "pattern": "^([0-9]*|\\d*\\.\\d{1}?\\d*)$"
                },
                "paymentIds": {
                    "description": "An array of paymentIds objects.",
                    "example": "2022448",
                    "type": "array",
                    "items": {
                        "type": "string",
                        "description": "A single instance of the paymentIds object.",
                        "minLength": 1,
                        "maxLength": 8,
                        "pattern": "^[\\S ]+$"
                    }
                },
                "orderType": {
                    "description": "Order type in supply chain.",
                    "example": "ZRTM",
                    "type": "string",
                    "minLength": 1,
                    "maxLength": 8,
                    "pattern": "^[\\S ]+$"
                },
                "orderReasonCode": {
                    "description": "Order status reason code",
                    "example": "542",
                    "type": "string",
                    "minLength": 1,
                    "maxLength": 8,
                    "pattern": "^[\\S ]+$"
                },
                "orderLines": {
                    "description": "An array of orderLines objects.",
                    "type": "array",
                    "items": {
                        "$ref": "#/definitions/OrderLines"
                    }
                }
            }
        },
        "OrderLines": {
            "description": "An array of orderLines objects.",
            "type": "object",
            "properties": {
                "orderLineId": {
                    "description": "Identifier of order line.",
                    "example": "10000000000000000051",
                    "type": "string",
                    "minLength": 1,
                    "maxLength": 8,
                    "pattern": "^[\\S ]+$"
                },
                "salesDocumentItemNumber": {
                    "description": "Identifier of fulfillment. This is the orderLineId in supply chain.",
                    "example": "000010",
                    "type": "string",
                    "minLength": 1,
                    "maxLength": 8,
                    "pattern": "^[\\S ]+$"
                },
                "sku": {
                    "description": "The sku of the device offer variant.  Only relevant if the customer purchased the device from T-Mobile.",
                    "example": "000000190198786029",
                    "type": "string",
                    "minLength": 1,
                    "maxLength": 8,
                    "pattern": "^[\\S ]+$"
                },
                "quantity": {
                    "description": "The quantity of the product being ordered on this line.",
                    "example": "1",
                    "type": "integer",
                    "format": "int32",
                    "minimum": -2147483648,
                    "maximum": 2147483647,
                    "pattern": "^[\\-+]?[0-9]+$"
                },
                "extendedPrice": {
                    "description": "Total value of the items on this sales order not including taxes or charges. This is the sum of all the line item Extended Amounts",
                    "example": "29.99",
                    "type": "number",
                    "format": "double",
                    "minimum": -9223372036854776000.0,
                    "maximum": 9223372036854776000.0,
                    "pattern": "^([0-9]*|\\d*\\.\\d{1}?\\d*)$"
                },
                "tax": {
                    "description": "The tax of the product being ordered on this line.",
                    "example": "3.15",
                    "type": "number",
                    "format": "double",
                    "minimum": -9223372036854776000.0,
                    "maximum": 9223372036854776000.0,
                    "pattern": "^([0-9]*|\\d*\\.\\d{1}?\\d*)$"
                },
                "shippingCharge": {
                    "description": "Charge for the shipping option.",
                    "example": "0.00",
                    "type": "number",
                    "format": "double",
                    "minimum": -9223372036854776000.0,
                    "maximum": 9223372036854776000.0,
                    "pattern": "^([0-9]*|\\d*\\.\\d{1}?\\d*)$"
                },
                "phoneNumber": {
                    "description": "The phone number (MSISDN) associated with the order line of service.",
                    "example": "5205283587",
                    "type": "string",
                    "minLength": 1,
                    "maxLength": 8,
                    "pattern": "^[\\S ]+$"
                }
            }
        }
    },
    "securityDefinitions": {
        "JWT": {
            "type": "oauth2",
            "description": "Standard security scheme to access the APIs flow is accessCode, for channels where customer is accessing the UI. Other flow types like - application may be supported if approved by Security teams at T-Mobile",
			"authorizationUrl": "https://example.com/oauth/authorize",
			"tokenUrl": "https://host-env:port/oauth2/v4/tokens",
			"flow": "accessCode",
            "scopes": {
                "post:queryInvoiceItemizedDetails: read invoice item details": ""
            }
        }
    }
}
