{
    "swagger": "2.0",
    "info": {
        "title": "Worker Parking Badge Transactions and Information",
        "description": "This service supports the use of Worker resource, used for worker Badge infomration and Parking Transactions.",
        "version": "1.0.0",
        "contact": {
            "name": "Suresh Annamreddy",
            "url": "http://www.t-mobile.com",
            "email": "suresh.annamreddy@t-mobile.com"
        },
        "x-createdBy": {
            "dateCreated": "12/12/17 21:55:36",
            "createdBy": "MRamakr1",
            "classification": "16.4 WorkforceMgmt.",
            "profile": "Application Integration Service",
            "serviceLayer": "Enterprise - WorkforceManagement"
        }
    },
    "host": "tmobileb-sb01.apigee.net",
    "basePath": "/hr/v1/workers",
    "schemes": [
        "https"
    ],
    "x-servers": [
        {
            "url": "https://tmobileb-sb01.apigee.net/hr/v1/workers",
            "description": "Sandbox Server"
        },
        {
            "url": "https://tmobileqat-qat02.apigee.net/hr/v1/workers",
            "description": "Live Server"
        }
    ],
    "tags": [
        {
            "name": "Create Worker Parking Badge Transactions/Information",
            "description": "Create Worker Parking Badge Transactions/Information"
        }
    ],
    "paths": {
        "/commute-badge-transactions": {
            "get": {
                "tags": [
                    "get worker badge parking transactions"
                ],
                "summary": "gets badge parking transactions",
                "operationId": "WorkerBadgeParkingTransactions",
                "consumes": [
                    "application/json",
                    "application/xml"
                ],
                "parameters": [
                    {
                        "in": "query",
                        "name": "startdatetime",
                        "description": "start datetime",
                        "required": true,
                        "type": "string",
                        "x-example": "Fri, 11 May 2018 21:14:11 GMT",
                        "pattern": "Fri, 11 May 2018 21:14:11 GMT"
                    },
                    {
                        "name": "enddatetime",
                        "in": "query",
                        "description": "end datetime",
                        "required": false,
                        "type": "string",
                        "x-example": "Fri, 11 May 2018 21:14:11 GMT"
                    },
                    {
                        "$ref": "#/parameters/AuthorizationParam"
                    },
                    {
                        "$ref": "#/parameters/X-AuthorizationParam"
                    },
                    {
                        "$ref": "#/parameters/sessionidParam"
                    },
                    {
                        "$ref": "#/parameters/interactionidParam"
                    },
                    {
                        "$ref": "#/parameters/activityidParam"
                    },
                    {
                        "$ref": "#/parameters/workflowidParam"
                    },
                    {
                        "$ref": "#/parameters/servicetransactionidParam"
                    },
                    {
                        "name": "If-Match",
                        "in": "header",
                        "description": "The If-Match header specifies an ETag-related condition to be placed on the execution of a request.  The request will only be executed if the ETag of the requested resource matches one of those specified in the If-Match header.  Because the behavior is complex, the details for usage are provided at http://www.w3.org/Protocols/rfc2616/rfc2616-sec14.html .",
                        "x-example": "*",
                        "required": false,
                        "type": "string"
                    },
                    {
                        "name": "If-None-Match",
                        "in": "header",
                        "description": "The If-None-Match header specifies an ETag-related condition to be placed on the execution of a request.  The request will NOT be executed if the ETag of the requested resource matches one of those specified in the If-None-Match header.  Because the behavior is complex, the details for usage are provided at http://www.w3.org/Protocols/rfc2616/rfc2616-sec14.html",
                        "x-example": "*",
                        "required": false,
                        "type": "string"
                    }
                ],
                "responses": {
                    "200": {
                        "description": "badge parking transactions",
                        "schema": {
                            "$ref": "#/definitions/BadgeInformationResponse"
                        },
                        "headers": {
                            "Access-Control-Allow-Headers": {
                                "description": "Indicates which headers are supported by the response's url for the purposes of CORS protocol",
                                "type": "string",
                                "x-example": "<header-name>"
                            },
                            "Access-Control-Allow-Methods": {
                                "description": "Indicates which method a future CORS request to the same resource might use",
                                "type": "string",
                                "x-example": "POST, GET, OPTIONS"
                            },
                            "Access-Control-Allow-Origin": {
                                "description": "Indicates whether the response can be shared when request's credential mode is \"include\".",
                                "type": "string",
                                "x-example": "*"
                            },
                            "Cache-Control": {
                                "description": "no-cache",
                                "type": "string",
                                "x-example": null
                            },
                            "ETag": {
                                "description": "ETag",
                                "type": "string",
                                "x-example": null
                            },
                            "Content-Length": {
                                "description": "Indicates the size of the entity-body, in bytes, sent to the recipient",
                                "type": "string",
                                "x-example": 113
                            },
                            "Content-Type": {
                                "description": "Indicates the media type of the resource",
                                "type": "string",
                                "x-example": "text/html; charset=utf-8"
                            },
                            "servicetransactionid": {
                                "description": "Internal identifier for transaction tracking an individual transaction/API request within API platform. Don_t receive/ send to downstream",
                                "type": "string",
                                "x-example": 1234567
                            }
                        }
                    },
                    "400": {
                        "description": "Bad Request",
                        "schema": {
                            "$ref": "#/definitions/Error"
                        }
                    },
                    "401": {
                        "description": "Client not authorized",
                        "schema": {
                            "$ref": "#/definitions/Error"
                        },
                        "examples": {
                            "example": "Client not authorized"
                        }
                    },
                    "403": {
                        "description": "Client access denied",
                        "schema": {
                            "$ref": "#/definitions/Error"
                        },
                        "examples": {
                            "example": "Client access denied"
                        }
                    },
                    "404": {
                        "description": "Resource not found",
                        "schema": {
                            "$ref": "#/definitions/Error"
                        }
                    },
                    "406": {
                        "description": "Mismatching data format",
                        "schema": {
                            "$ref": "#/definitions/Error"
                        }
                    },
                    "409": {
                        "description": "Invalid data",
                        "schema": {
                            "$ref": "#/definitions/Error"
                        }
                    },
                    "500": {
                        "description": "System Error",
                        "schema": {
                            "$ref": "#/definitions/Error"
                        }
                    },
                    "502": {
                        "description": "Backend system problem",
                        "schema": {
                            "$ref": "#/definitions/Error"
                        }
                    },
                    "503": {
                        "description": "Service unavailable",
                        "schema": {
                            "$ref": "#/definitions/Error"
                        }
                    }
                },
                "security": [
                    {
                        "Oauth": [
                            "create:WorkerBadgeParkingTransactions"
                        ]
                    }
                ]
            }
        },
        "/badge-information": {
            "get": {
                "tags": [
                    "get worker badge information"
                ],
                "summary": "gets badge information",
                "operationId": "badgeInformation",
                "consumes": [
                    "application/json",
                    "application/xml"
                ],
                "parameters": [
                    {
                        "$ref": "#/parameters/AuthorizationParam"
                    },
                    {
                        "$ref": "#/parameters/X-AuthorizationParam"
                    },
                    {
                        "$ref": "#/parameters/sessionidParam"
                    },
                    {
                        "$ref": "#/parameters/interactionidParam"
                    },
                    {
                        "$ref": "#/parameters/activityidParam"
                    },
                    {
                        "$ref": "#/parameters/workflowidParam"
                    },
                    {
                        "$ref": "#/parameters/servicetransactionidParam"
                    },
                    {
                        "name": "If-Match",
                        "in": "header",
                        "description": "The If-Match header specifies an ETag-related condition to be placed on the execution of a request.  The request will only be executed if the ETag of the requested resource matches one of those specified in the If-Match header.  Because the behavior is complex, the details for usage are provided at http://www.w3.org/Protocols/rfc2616/rfc2616-sec14.html .",
                        "x-example": "*",
                        "required": false,
                        "type": "string"
                    },
                    {
                        "name": "If-None-Match",
                        "in": "header",
                        "description": "The If-None-Match header specifies an ETag-related condition to be placed on the execution of a request.  The request will NOT be executed if the ETag of the requested resource matches one of those specified in the If-None-Match header.  Because the behavior is complex, the details for usage are provided at http://www.w3.org/Protocols/rfc2616/rfc2616-sec14.html",
                        "x-example": "*",
                        "required": false,
                        "type": "string"
                    }
                ],
                "responses": {
                    "200": {
                        "description": "badge transactions",
                        "schema": {
                            "$ref": "#/definitions/BadgeResponse"
                        },
                        "headers": {
                            "Access-Control-Allow-Headers": {
                                "description": "Indicates which headers are supported by the response's url for the purposes of CORS protocol",
                                "type": "string",
                                "x-example": "<header-name>"
                            },
                            "Access-Control-Allow-Methods": {
                                "description": "Indicates which method a future CORS request to the same resource might use",
                                "type": "string",
                                "x-example": "POST, GET, OPTIONS"
                            },
                            "Access-Control-Allow-Origin": {
                                "description": "Indicates whether the response can be shared when request's credential mode is \"include\".",
                                "type": "string",
                                "x-example": "*"
                            },
                            "Cache-Control": {
                                "description": "no-cache",
                                "type": "string",
                                "x-example": null
                            },
                            "ETag": {
                                "description": "ETag",
                                "type": "string",
                                "x-example": null
                            },
                            "Content-Length": {
                                "description": "Indicates the size of the entity-body, in bytes, sent to the recipient",
                                "type": "string",
                                "x-example": 113
                            },
                            "Content-Type": {
                                "description": "Indicates the media type of the resource",
                                "type": "string",
                                "x-example": "text/html; charset=utf-8"
                            },
                            "servicetransactionid": {
                                "description": "Internal identifier for transaction tracking an individual transaction/API request within API platform. Don_t receive/ send to downstream",
                                "type": "string",
                                "x-example": 1234567
                            }
                        }
                    },
                    "400": {
                        "description": "Bad Request",
                        "schema": {
                            "$ref": "#/definitions/Error"
                        }
                    },
                    "401": {
                        "description": "Client not authorized",
                        "schema": {
                            "$ref": "#/definitions/Error"
                        }
                    },
                    "403": {
                        "description": "Client access denied",
                        "schema": {
                            "$ref": "#/definitions/Error"
                        }
                    },
                    "404": {
                        "description": "Resource not found",
                        "schema": {
                            "$ref": "#/definitions/Error"
                        }
                    },
                    "406": {
                        "description": "Mismatching data format",
                        "schema": {
                            "$ref": "#/definitions/Error"
                        }
                    },
                    "409": {
                        "description": "Invalid data",
                        "schema": {
                            "$ref": "#/definitions/Error"
                        }
                    },
                    "500": {
                        "description": "System Error",
                        "schema": {
                            "$ref": "#/definitions/Error"
                        }
                    },
                    "502": {
                        "description": "Backend system problem",
                        "schema": {
                            "$ref": "#/definitions/Error"
                        }
                    },
                    "503": {
                        "description": "Service unavailable",
                        "schema": {
                            "$ref": "#/definitions/Error"
                        }
                    }
                },
                "security": [
                    {
                        "Oauth": [
                            "create:WorkerBadgeParkingTransactions"
                        ]
                    }
                ]
            }
        }
    },
    "parameters": {
        "AuthorizationParam": {
            "name": "Authorization",
            "description": "Authorization Parameter",
            "in": "header",
            "required": false,
            "type": "string",
            "x-example": "sampleText"
        },
        "X-AuthorizationParam": {
            "name": "X-Authorization",
            "description": "X-Authorization Parameter",
            "in": "header",
            "required": false,
            "type": "string",
            "x-example": "sampleText"
        },
        "sessionidParam": {
            "name": "sessionid",
            "description": "Session ID Parameter",
            "in": "header",
            "required": false,
            "type": "string",
            "x-example": "sampleText"
        },
        "interactionidParam": {
            "name": "interactionid",
            "description": "Interaction ID Parameter",
            "in": "header",
            "required": false,
            "type": "string",
            "x-example": "sampleText"
        },
        "activityidParam": {
            "name": "activityid",
            "description": "Activity ID Parameter",
            "in": "header",
            "required": true,
            "type": "string",
            "x-example": "sampleText",
            "pattern": "sampleText"
        },
        "workflowidParam": {
            "name": "workflowid",
            "description": "Workflow ID Parameter",
            "in": "header",
            "required": false,
            "type": "string",
            "x-example": "sampleText"
        },
        "servicetransactionidParam": {
            "name": "servicetransactionid",
            "description": "Service Transaction ID Parameter",
            "in": "header",
            "required": false,
            "type": "string",
            "x-example": "sampleText"
        }
    },
    "definitions": {
        "BadgeInformationResponse": {
            "description": "a collection of errors",
            "type": "array",
            "items": {
                "$ref": "#/definitions/TransactionResponse"
            }
        },
        "TransactionResponse": {
            "type": "object",
            "description": "response",
            "properties": {
                "id": {
                    "description": "An User Defined Object",
                    "type": "integer",
                    "minimum": -1000000,
                    "maximum": 1000000
                },
                "badgeNumber": {
                    "description": "An User Defined Object",
                    "type": "string"
                },
                "employeeNumber": {
                    "description": "An User Defined Object",
                    "type": "string"
                },
                "transDateTime": {
                    "description": "An User Defined Object",
                    "type": "string"
                },
                "readerId": {
                    "description": "An User Defined Object",
                    "type": "integer",
                    "minimum": -1000000,
                    "maximum": 1000000
                }
            }
        },
        "Error": {
            "description": "Used to pass error information in a response.",
            "type": "array",
            "items": {
                "$ref": "#/definitions/ErrorCollection"
            }
        },
        "ErrorCollection": {
            "description": "Used to pass error information in a response.",
            "type": "object",
            "properties": {
                "code": {
                    "type": "string",
                    "description": "Used to pass error codes"
                },
                "userMessage": {
                    "description": "Use to pass human friendly information to the user.",
                    "type": "string"
                },
                "systemMessage": {
                    "description": "Used to pass system information.",
                    "type": "string"
                }
            }
        },
        "BadgeResponse": {
            "description": "a collection of errors",
            "type": "array",
            "items": {
                "$ref": "#/definitions/Badge"
            }
        },
        "Badge": {
            "type": "object",
            "description": "response",
            "properties": {
                "employeeNumber": {
                    "description": "An User Defined Object",
                    "type": "integer",
                    "minimum": -1000000,
                    "maximum": 1000000
                },
                "encodedNumber": {
                    "description": "An User Defined Object",
                    "type": "string"
                }
            }
        }
    },
    "securityDefinitions": {
        "Oauth": {
            "type": "oauth2",
            "description": "When you sign up for an account, you are given your first API key.\nTo do so please follow this link: https://www.t-mobile.com/site/signup/\nAlso you can generate additional API keys, and delete API keys (as you may\nneed to rotate your keys in the future).\nToken can change to a JwT and ID and PoP tokens.\n",
            "tokenUrl": "https://host:env/v1/oauth2/accesstoken?grant_type=client_credentials",
            "flow": "application",
            "scopes": {
                "create:WorkerBadgeParkingTransactions": "Create Worker Commute Badge Transactions"
            }
        }
    }
}