@startuml
collections "External Systems"


"External Systems" -> "DQi Metadata Service": <b> [1] Create/Modify Check
activate "DQi Metadata Service"

"DQi Metadata Service" -> "DQi Metadata Service": <b>[2] Validate Request
activate "DQi Metadata Service" #DarkSalmon

database Aurora
"DQi Metadata Service" -> Aurora: <b>[3] Save to Metadata Schema
activate Aurora

Aurora -> "DQi Metadata Service": <b>[4] Metadata persisted
deactivate Aurora


deactivate "DQi Metadata Service" #DarkSalmon
"DQi Metadata Service" -> "External Systems": <b>[5] 200 Response
deactivate "DQi Metadata Service"
@enduml