@startuml

!define MS_SERVICE Subscriber-Management-V4
!define MS_OPERATION search-subscriber
!define LAST_UPDATE %date[yyyy.MM.dd 'at' HH:mm]%

left header
<font color=blue>MS: MS_SERVICE/MS_OPERATION</font>
endheader

title
 MS: MS_SERVICE/MS_OPERATION
 Last update: LAST_UPDATE
 
end title

hide footbox

center footer
 
 
Copyright (c) 2019 Amdocs.
 
Information Security Level 1 - Confidential
 
CONTAINS RESTRICTED - PROPRIETARY INFORMATION
 
This document is strictly confidential and proprietary; to be used only by authorized persons
on a need to know basis, and must not be distributed without specific permission.
 
In the event of unauthorized use of this document or the confidential information it contains,
violators will be subject to sever disciplinary action, based on Amdocs regulations, as well as
any other sanctions applicable by law.
 
endfooter

participant Channel
participant "Subscriber-Management-V4\nMS" as AS
participant "TUXEDO/\nCSM" as CSM

Channel -> AS: search-subscriber
activate AS
AS -> CSM: gnGtSubId
activate CSM
CSM --> AS: Response
deactivate CSM



AS -->Channel: Response
deactivate AS

@enduml