@startuml

!define MS_SERVICE change-offer-v5
!define MS_OPERATION validate-coupon
!define LAST_UPDATE %date[yyyy.MM.dd 'at' HH:mm]%

title
 MS: MS_SERVICE/MS_OPERATION
 Last update: LAST_UPDATE
 
end title

participant Client
participant "change-\noffer-v5\nMS" as CO
participant "Subscriber-\nManagement-V1\nMS" as SM
participant "Plan-\nManagement-V5\nMS" as PM

Client -> CO : validate-coupon\nTOKEN + JWT
activate CO

CO -> SM : searchSubscriber
activate SM
ref over SM
searchSubscriber
end
CO <-- SM : Response
deactivate SM

CO -> CO : JWT\nauthentication\ncheck


CO -> PM : validateCouponEdge
activate PM
ref over PM
validateCouponEdge
end
CO <-- PM : Response
deactivate PM

Client <-- CO : Response
deactivate CO

center footer
 
 
Copyright (c) 2019 Amdocs.
 
Information Security Level 1 - Confidential
 
CONTAINS RESTRICTED - PROPRIETARY INFORMATION
 
This document is strictly confidential and proprietary; to be used only by authorized persons
on a need to know basis, and must not be distributed without specific permission.
 
In the event of unauthorized use of this document or the confidential information it contains,
violators will be subject to sever disciplinary action, based on Amdocs regulations, as well as
any other sanctions applicable by law.
 
endfooter

@enduml