@startuml
skinparam BoxPadding 30
skinparam sequenceArrowThickness 2
skinparam roundcorner 20
skinparam maxmessagesize 60
skinparam sequenceParticipant underline

title Provision Network Elements for NB IoT Devices
box "Billing" #LightCyan
actor User
participant "CSM" as A
database "Samson" as B
end box 
box "Switch" #LightCyan
participant "Switch" as C
end box
box "Engineering" #LightCyan
Participant "HLR" as D
participant "DSPA" as E
participant "NAP" as F
end box
User->A: Activation
activate A
A->B: Activate Subscriber Processed
activate B
B->C: Provision on Network
activate B
C->D: Povision on HLR
activate D
C->E: Provision on DSPA
activate E
E->F: Provison on NAP
activate F
F-->E: Provision Completed on NAP
deactivate F
E-->C: Provision completed on DSPA
deactivate E
D-->C: HLR Update Switch on Network Provision
deactivate D
C-->B: Switch update Samson on Network Provision
deactivate C
deactivate B 
deactivate A

@enduml