{
	"swagger": "2.0",
	"info": {
		"title": "NegativeFileHistoryAPI",
		"description": "NegativeFileHistoryAPI",
		"version": "3"
	},
	"basePath": "/payments/v3/negativefilehistory",
	"schemes": [
		"https"
	],
	"paths": {		
		"/": {
			"post": {
				"tags": [
					"negativefile"
				],
				"consumes": [
					"application/json",
					"application/xml"
				],
				"produces": [
					"application/json",
					"application/xml"
				],
				"responses": {
					"401": {
						"description": "Unauthorized",
						"schema": {
							"$ref": "#/definitions/errors"
						}
					},
					"404": {
						"description": "Not Found",
						"schema": {
							"$ref": "#/definitions/errors"
						}
					},
					"405": {
						"description": "Method Not Allowed",
						"schema": {
							"$ref": "#/definitions/errors"
						}
					},
					"415": {
						"description": "Unsupported Media Type",
						"schema": {
							"$ref": "#/definitions/errors"
						}
					},
					"500": {
						"description": "Internal Server Error",
						"schema": {
							"$ref": "#/definitions/errors"
						}
					},
					"501": {
						"description": "Not Implemented",
						"schema": {
							"$ref": "#/definitions/errors"
						}
					},
					"502": {
						"description": "Bad Gateway",
						"schema": {
							"$ref": "#/definitions/errors"
						}
					},
					"503": {
						"description": "Service Unavailable",
						"schema": {
							"$ref": "#/definitions/errors"
						}
					},
					"200": {
						"description": "no description",
						"schema": {
							"$ref": "#/definitions/NegativeFileResponse"
						},
						"headers": {
							"Access-Control-Allow-Headers": {
								"description": "The Access-Control-Allow-Headers header indicates, as part of a pre-flight request which headers can be used on the actual request.",
								"type": "string"
							},
							"Access-Control-Allow-Methods": {
								"description": "The Access-Control-Allow-Methods header indicates, as part of a pre-flight request which methods can be used on the actual request.",
								"type": "string"
							},
							"Access-Control-Allow-Origin": {
								"description": "The Access-Control-Allow-Origin header indicates whether a resource can be shared by returning the value of the Origin request header or \ufffd*\ufffd in the response.",
								"type": "string"
							},
							"Cache-Control": {
								"description": "no-cache",
								"type": "string"
							},
							"Content-Length": {
								"description": "The Content-Length header specifies the actual length of the returned payload.",
								"type": "string"
							},
							"Content-Type": {
								"description": "The Content-Length header specifies the actual length of the returned payload.",
								"type": "string"
							},
							"ETag": {
								"description": "The ETag header specifies the unique entity tag value for the returned resource.",
								"type": "string"
							},
							"Expires": {
								"description": "The Expires header gives the date-time after which the response is considered stale.",
								"type": "string"
							},
							"Location": {
								"description": "The Location header specifies the URI of a created resource, or redirects the API consumer to an alternate resource location.",
								"type": "string"
							},
							"servicetransactionid": {
								"description": "Internal identifier for transaction tracking an individual transaction/API request within API platform. Don\ufffdt receive/don\ufffdt send to downstream",
								"type": "string"
							}
						}
					}
				},
				"operationId": "read-negativefilehistory",
				"parameters": [
					{
						"name": "Request",
						"in": "body",
						"schema": {
							"$ref": "#/definitions/NegativeFileRequest"
						},
						"description": ""
					},
					{
						"$ref": "#/parameters/AuthorizationParam"
					},
					{
						"$ref": "#/parameters/Content-typeParam"
					},
					{
						"$ref": "#/parameters/AcceptParam"
					},
					{
						"$ref": "#/parameters/applicationuseridParam"
					},
					{
						"$ref": "#/parameters/applicationidParam"
					},
					{
						"$ref": "#/parameters/channelidParam"
					},
					{
						"$ref": "#/parameters/senderidParam"
					},
					{
						"$ref": "#/parameters/sessionidParam"
					},
					{
						"$ref": "#/parameters/interactionidParam"
					},
					{
						"$ref": "#/parameters/activityidParam"
					},
					{
						"$ref": "#/parameters/workflowidParam"
					},
					{
						"$ref": "#/parameters/timestampParam"
					},
					{
						"$ref": "#/parameters/storeidParam"
					},
					{
						"$ref": "#/parameters/terminalidParam"
					},
					{
						"$ref": "#/parameters/tillidParam"
					},
					{
						"$ref": "#/parameters/dealercodeParam"
					},
					{
						"$ref": "#/parameters/segmentationidParam"
					},
					{
						"$ref": "#/parameters/authcustomeridParam"
					},
					{
						"$ref": "#/parameters/authfinancialaccountidParam"
					},
					{
						"$ref": "#/parameters/authlineofserviceidParam"
					},
					{
						"$ref": "#/parameters/servicetransactionidParam"
					},
					{
						"$ref": "#/parameters/Access-Control-Request-HeadersParam"
					},
					{
						"$ref": "#/parameters/Access-Control-Request-MethodParam"
					},
					{
						"$ref": "#/parameters/If-MatchParam"
					},
					{
						"$ref": "#/parameters/If-Modified-SinceParam"
					},
					{
						"$ref": "#/parameters/If-None-MatchParam"
					},
					{
						"$ref": "#/parameters/OriginParam"
					}
				],
				"summary": "read-negativefilehistory"
			}
		}		
	},
	"security": [
		{
			"Oauth": []
		}
	],
	"tags": [
		{
			"name": "negativefile"
		}
	],
	"definitions": {
		"Payment": {
			"type": "object",
			"properties": {
				"clientId": {
					"description": "To indicate the clientID.",
					"type": "string"
				},
				"programCode": {
					"description": "Identifier of the program, such as ZCP, ZCNP, U2POSTCP, U2PRECP, U2PRECNP, U2POSTCNP, U1POSTLEGACY",
					"type": "string"
				},
				"bankAccountToken": {
					"description": "Unique one to one T-Mobile generated Token for the lifetime of Bank Account.",
					"type": "string"
				},
				"paymentCardToken": {
					"description": "To indicate the payment card token.",
					"type": "string"
				},
				"messages": {
					"description": "Retail application messages.",
					"type": "array",
					"items": {
						"$ref": "#/definitions/UIMessage"
					}
				},
				"paymentMethodReference": {
					"type": "object",
					"properties": {
						"paymentMethodCode": {
							"description": "Describes the BIN payment type such as CC - Credit Card,HD - Hybrid Debit,HC - Hybrid Credit,DC - Debit Card,PD - Prepaid Debit or PC - Prepaid Credit.",
							"type": "string"
						}
					}
				},
				"paymentInstrument": {
					"$ref": "#/definitions/PaymentInstrument"
				},
				"paymentNegativeFiles": {
					"description": "List of payment negative files.",
					"type": "array",
					"items": {
						"$ref": "#/definitions/PaymentNegativeFile"
					}
				}
			}
		},
		"SalesContext": {
			"type": "object",
			"properties": {
				"operatorId": {
					"description": "To indicate the identifier of user/operator.",
					"type": "string"
				}
			}
		},
		"UIMessage": {
			"type": "object",
			"properties": {
				"applicationName": {
					"description": "Name of the application, such as Ingenico/EMV Scanner or POS/mPOS.",
					"type": "string"
				},
				"uiMessage": {
					"description": "Message to be displayed on the Device (IPC, Ingenico).",
					"type": "string"
				},
				"uiShortCode": {
					"description": "Short Code to be returned to UI.",
					"type": "string"
				},
				"uiAction": {
					"description": "Action or action code to ui.",
					"type": "string"
				}
			}
		},
		"SwipeData": {
			"type": "object",
			"properties": {
				"encryptionTarget": {
					"description": "The type of the data is being encrypted.",
					"type": "string"
				},
				"encryptedContent": {
					"description": "The track data or card number provided in an encrypted block.",
					"type": "string"
				}
			}
		},
		"CustomerReference": {
			"type": "object",
			"properties": {
				"customerId": {
					"description": "uniquely identifies the customer party.",
					"type": "string"
				},
				"commonCustomerId": {
					"description": "Universal identifier of the customer, as defined in Customer Hub.",
					"type": "string"
				}
			}
		},
		"Reason": {
			"type": "object",
			"properties": {
				"reasonCode": {
					"description": "Status reason code",
					"type": "string"
				}
			}
		},
		"StatusBody": {
			"type": "object",
			"properties": {
				"reasonDescription": {
					"description": "Status reason description",
					"type": "string"
				}
			}
		},
		"Status": {
			"type": "object",
			"properties": {
				"statusCode": {
					"description": "Status code",
					"type": "string"
				}
			}
		},
		"PaymentNegativeFile": {
			"type": "object",
			"properties": {
				"denyChannels": {
					"description": "What is denied such as ALL or IVR or WEB or RETAIL or CARE.",
					"enum": [
						"ALL",
						"IVR",
						"WEB",
						"RETAIL",
						"CARE"
					],
					"type": "array",
					"items": {
						"type": "string"
					}
				},
				"denialTypes": {
					"description": "What is denied such as ALL or CHECK or CREDIT_CARD or DEBIT_CARD.",
					"enum": [
						"ALL",
						"CHECK",
						"CREDIT_CARD",
						"DEBIT_CARD"
					],
					"type": "array",
					"items": {
						"type": "string"
					}
				},
				"denyPaymentProcessing": {
					"description": "Set to true to deny any payment acceptance/processing for the queried entity.",
					"type": "boolean"
				},
				"negativeFileExpTime": {
					"description": "Expiration time of the negative file. The negative file will not be active after the expiration time.",
					"type": "string",
					"format": "date-time"
				},
				"chargeBackCounter": {
					"description": "Charge back counter.",
					"type": "integer",
					"format": "int32"
				},
				"denialCode": {
					"description": "Denial code.",
					"type": "string"
				},
				"denialReason": {
					"description": "Denial Reason.",
					"type": "string"
				},
				"ticketNumber": {
					"description": "Ticket Number for each entry.",
					"type": "string"
				},
				"comments": {
					"description": "Comment for that specific entry.",
					"type": "string"
				},
				"status": {
					"description": "Status of that specific entry such as CREATED or UPDATED or DELETED.",
					"type": "string"
				},
				"createdBy": {
					"description": "User who created the record.",
					"type": "string"
				},
				"modifiedBy": {
					"description": "User who modified the record.",
					"type": "string"
				},
				"creationTime": {
			          "description": "Time when the negative file record was CREATED or UPDATED or DELETED.",
			          "type": "string",
			          "format": "date-time"
			        },
				"negativeEntityType": {
					"description": "Type of negative file entity such as account or payment card or customer ID. Entities are CCID  or BAN or TMO_TOKEN_CARD or TMO_TOKEN_BANK or BIN or ROUTING_NUMBER.",
					"type": "string"
				}
			}
		},
		"errors": {
		  "type": "object",
		  "properties": {
			"responseError": {
			  "type": "array",
			  "items": {
				"$ref": "#/definitions/ResponseError"
			  }
			}
		  }
		},
		"PaymentInstrument": {
			"type": "object",
			"properties": {
				"paymentCard": {
					"type": "object",
					"properties": {
						"bin": {
							"description": "The first 6 or 8 digits of a payment card number, known as Issuer Identification Numbers (IIN) or Bank Identification Number (BIN.",
							"type": "string"
						},
						"category": {
							"description": "To indicate whether Credit,Debit etc.",
							"type": "string"
						},
						"typeCode": {
							"description": "Type of payment Card. Examples are Visa, MasterCard, Debit etc",
							"type": "string"
						},
						"cardNumber": {
							"description": "Payment card number.",
							"type": "string"
						},
						"paymentCardTmoToken": {
							"type": "string"
						},
						"paymentCardAlias": {
							"description": "A nickname assigned by the customer as an alternative way to identify a stored payment card.",
							"type": "string"
						}
					}
				},
				"bankPayment": {
					"type": "object",
					"properties": {
						"accountNumber": {
							"description": "Account number in the bank.",
							"type": "string"
						},
						"routingNumber": {
							"description": "Routing Number of the bank on whom the payment instrument is drawn.",
							"type": "string"
						},
						"accountType": {
							"description": "Type of account, Saving or Checking.",
							"type": "string"
						},
						"bankAccountAlias": {
							"description": "Bank account alias used by the customer.",
							"type": "string"
						}
					}
				}
			}
		},
		"NegativeFileRequest": {
			"type": "object",
			"properties": {
				"customerReference": {
					"$ref": "#/definitions/CustomerReference"
				},
				"payment": {
					"$ref": "#/definitions/Payment"
				},
				"salesContext": {
					"$ref": "#/definitions/SalesContext"
				},
				"swipeData": {
					"$ref": "#/definitions/SwipeData"
				}
			}
		},
		"NegativeFileResponse": {
			"type": "object",
			"properties": {
				"payment": {
					"$ref": "#/definitions/Payment"
				},
				"reason": {
					"$ref": "#/definitions/Reason"
				},
				"statusBody": {
					"$ref": "#/definitions/StatusBody"
				},
				"status": {
					"$ref": "#/definitions/Status"
				}
			}
		},
		"ResponseError": {
			"description": "Used to pass error information in a response.",
			"type": "object",
			"properties": {
				"code": {
					"description": "Used to pass error codes",
					"type": "string"
				},
				"userMessage": {
					"description": "Use to pass human friendly information to the user.",
					"type": "string"
				},
				"systemMessage": {
					"description": "Used to pass system information.",
					"type": "string"
				}
			}
		}
	},
	"parameters": {
		"AuthorizationParam": {
			"name": "Authorization",
			"in": "header",
			"required": true,
			"type": "string"
		},
		"Content-typeParam": {
			"name": "Content-type",
			"in": "header",
			"required": true,
			"type": "string"
		},
		"AcceptParam": {
			"name": "Accept",
			"in": "header",
			"required": false,
			"type": "string"
		},
		"applicationuseridParam": {
			"name": "applicationuserid",
			"in": "header",
			"required": false,
			"type": "string"
		},
		"applicationidParam": {
			"name": "applicationid",
			"in": "header",
			"required": true,
			"type": "string"
		},
		"sessionidParam": {
			"name": "sessionid",
			"in": "header",
			"required": false,
			"type": "string"
		},
		"senderidParam": {
			"name": "senderid",
			"in": "header",
			"required": false,
			"type": "string"
		},
		"channelidParam": {
			"name": "channelid",
			"in": "header",
			"required": true,
			"type": "string"
		},
		"interactionidParam": {
			"name": "interactionid",
			"in": "header",
			"required": false,
			"type": "string"
		},
		"activityidParam": {
			"name": "activityid",
			"in": "header",
			"required": false,
			"type": "string"
		},
		"workflowidParam": {
			"name": "workflowid",
			"in": "header",
			"required": false,
			"type": "string"
		},
		"timestampParam": {
			"name": "timestamp",
			"in": "header",
			"required": false,
			"type": "string",
			"format": "date-time"
		},
		"storeidParam": {
			"name": "storeid",
			"in": "header",
			"required": false,
			"type": "string"
		},
		"terminalidParam": {
			"name": "terminalid",
			"in": "header",
			"required": false,
			"type": "string"
		},
		"tillidParam": {
			"name": "tillid",
			"in": "header",
			"required": false,
			"type": "string"
		},
		"dealercodeParam": {
			"name": "dealercode",
			"in": "header",
			"required": false,
			"type": "integer",
			"format": "int32"
		},
		"segmentationidParam": {
			"name": "segmentationid",
			"in": "header",
			"required": false,
			"type": "string"
		},
		"authcustomeridParam": {
			"name": "authcustomerid",
			"in": "header",
			"required": false,
			"type": "string"
		},
		"authfinancialaccountidParam": {
			"name": "authfinancialaccountid",
			"in": "header",
			"required": false,
			"type": "string"
		},
		"authlineofserviceidParam": {
			"name": "authlineofserviceid",
			"in": "header",
			"required": false,
			"type": "string"
		},
		"servicetransactionidParam": {
			"name": "servicetransactionid",
			"in": "header",
			"required": false,
			"type": "string"
		},
		"Access-Control-Request-HeadersParam": {
			"name": "Access-Control-Request-Headers",
			"in": "header",
			"required": false,
			"type": "string"
		},
		"Access-Control-Request-MethodParam": {
			"name": "Access-Control-Request-Method",
			"in": "header",
			"required": false,
			"type": "string"
		},
		"If-MatchParam": {
			"name": "If-Match",
			"in": "header",
			"required": false,
			"type": "string"
		},
		"If-Modified-SinceParam": {
			"name": "If-Modified-Since",
			"in": "header",
			"required": false,
			"type": "string"
		},
		"If-None-MatchParam": {
			"name": "If-None-Match",
			"in": "header",
			"required": false,
			"type": "string"
		},
		"OriginParam": {
			"name": "Origin",
			"in": "header",
			"required": false,
			"type": "string"
		}
	},
	"securityDefinitions": {
		"Oauth": {
			"type": "oauth2",
			"tokenUrl": "https://dlab03.core.op.api.t-mobile.com:443/v3/oauth2/accesstoken?grant_type=client_credentials",
			"flow": "application",
			"scopes": {
				
			}
		}
	}
}
