{
	"swagger": "2.0",
	"info": {
		"description": "Stored Payment API is a part of wallet product and provides capability Verify and Search Payment(CARD/BANK) Instruments stored in the wallet. \n \n **Who should use this?** \n \n Application wants to provide wallet search and verfication capability to their customers.",	
			"version": "4.0.11",
		"title": "StoredPaymentInstrumentsV4",
		"contact": {
			"name": "EP API team",
			"url": "http://swagger.io",
			"email": "DPSAvengers@T-Mobile.com"
		},
		"license": {
			"name": "Creative Commons 4.0 International",
			"url": "http://creativecommons.org/licenses/by/4.0/"
		}
	},
	"host": "api.t-mobile.com",

	"x-servers": [{
			"url": "https://dlab03.core.op.api.t-mobile.com/payments/v4/storedpayments",
			"description": "Live Server"
		}
	], 
	"basePath": "/payments/v4/storedpayments",
	"schemes": [
		"https"
	],
	"consumes": [
		"application/json"
	],
	"produces": [
		"application/json"
	],
	"paths": {
		"/checkverificationstatus": {
			"post": {
				"x-api-pattern": "CreateInCollection",
                "summary": "Operation to check verification status of given payment instrument and member.",
				"description": "Check Verification Status Method is used to check the verification status of the stored payment instrument. Response indicates if the payment insturment is already verified or not.",
				"tags": [
					"Stored Payment Instruments"
				],
				"security": [{
						"Oauth2": [
							"payment:StoredPayment"
						]
					}
				],
				"responses": {
					"200": {
						"description": "OK:: success status response code indicates that the request has succeeded.",
						"schema": {
							"$ref": "#/definitions/VerifyPaymentMethodResponse"
						},

						"examples": {
							"application/json": {
								"reason": {
									"reasonCode": "2710"
								},
								"statusBody": {
									"reasonDescription": "Verified Successfully"
								},
								"status": {
									"statusCode": "SUCCESS"
								},
								"payment": {
									"verificationIndicator": true,
									"memberId": "1234567"
								}
							}
						},
						"headers": {
							"Access-Control-Allow-Headers": {
                                "description": "Standard HTTP header. The Access-Control-Allow-Headers header indicates, as part of a pre-flight request which headers can be used on the actual request. e.g Content-type",
								"type": "string",
								"x-example": "Content-type or allow or accept or accept-language"
							},
							"Access-Control-Allow-Methods": {
                                "description": "Standard HTTP header. The Access-Control-Allow-Methods header indicates, as part of a pre-flight request which methods can be used on the actual request. e.g GET",
								"type": "string",
								"x-example": "GET/POST/DELETE/OPTION"
							},
							"Access-Control-Allow-Origin": {
                                "description": "Standard HTTP header. The Access-Control-Allow-Origin header indicates whether a resource can be shared by returning the value of the Origin request header or \ufffd*\ufffd in the response. e.g <origin> or *",
								"type": "string",
								"x-example": "*"
							},
							"Cache-Control": {
                                "description": "Standard HTTP header. Used to specify directives like max-age, no-cache, no-store, public, private etc for caching mechanisms in both requests and responses. Set it as no-cache. e.g no-cache",
								"type": "string",
								"x-example": "no-cache"
							},
							"Content-Length": {
                            "description": "Standard HTTP header. The Content-Length header specifies the actual length of the returned payload. e.g 124",
								"type": "string",
								"x-example": "1345"
							},
							"Content-Type": {
								"description": "Standard HTTP header. The Media type of the body of the request. Tells the client what the content type of the returned content actually is. e.g application/json",
								"type": "string",
								"x-example": "application/json"
							},
							"servicetransactionid": {
								"description": "Internal identifier for tracking an individual transaction/API request within API platform. Don't receive/don't send to downstream .e.g 23409209723",
								"type": "string",
								"x-example": "23409209723"
							}
						}
					},
					"400": {
						"description": "Bad Request: The server cannot or will not process the request due to something that is perceived to be a client error (e.g., malformed request syntax, invalid request message framing, or deceptive request routing)",
						"schema": {
							"$ref": "#/definitions/errors"
						},
						"examples": {
							"application/json": {

								"errors": [
									{
										"code": "2702",
										"userMessage": "Request Validation Failed",
										"systemMessage": "Member Id is required"
									}
								]
						}
					}
					},
					"401": {
                      "description": "Unauthorized: The request has not been applied because it lacks valid authentication credentials for the target resource",
						"schema": {
							"$ref": "#/definitions/errors"
						},
						"examples": {
							"application/json": {
																
								"errors": {
									"error": [
										{
											"code": "Security-1001",
											"userMessage": "Invalid Token",
											"systemMessage": "Invalid Token"
										}
									]
								}

							}
						}
					},
					"500": {
						"description": "Internal Server Error: The server encountered an unexpected condition that prevented it from fulfilling the request.",
						"schema": {
							"$ref": "#/definitions/errors"
						},
						"examples": {
							"application/json": {																
								"errors": [
									{
										"code": "500",
										"userMessage": "org.springframework.web.HttpMediaTypeNotSupportedException: Content type 'text/plain' not supported",
										"systemMessage": ""
									}
								]
								
							}
						}
					},
					"503": {
						"description": "Service Unavailable: The server is currently unable to handle the request due to a temporary overload or scheduled maintenance, which will likely be alleviated after some delay.",
						"schema": {
							"$ref": "#/definitions/errors"
						},
						"examples": {
							"application/json": {
								"code": "503",
								"userMessage": "Unexpected error",
								"systemMessage": "503 Unexpected error"
							}
						}
					}
				},
				"operationId": "verification-status-paymentMethods",
				"parameters": [{
						"name": "VerifyPaymentMethodRequest",
						"in": "body",
						"schema": {
							"$ref": "#/definitions/VerifyPaymentMethodRequest"
						},
						"description": "Operation for Verifying Status Request"
					}, {
						"$ref": "#/parameters/AuthorizationParam"

					}, {
						"$ref": "#/parameters/Content-TypeParam"
					}, {
						"$ref": "#/parameters/AcceptParam"
					}, {
						"$ref": "#/parameters/applicationidParam"
					}, {
						"$ref": "#/parameters/channelidParam"
					}, {
						"$ref": "#/parameters/activityidParam"
					}, {
						"$ref": "#/parameters/Access-Control-Request-HeadersParam"
					}, {
						"$ref": "#/parameters/Access-Control-Request-MethodParam"
					}
				]
			}

		},
		"/verifypaymentmethod": {
			"post": {
				"x-api-pattern": "CreateInCollection",
                "summary": "Operation to performs verification of given payment instrument and member.",
				"description":" Verify Payment Method endpoint allows user to verify Payment Instruments stored in the wallet. User can verify Bank account or Card Number associated with the member in the wallet. Once the payment method is verified, it could be used to make one time, recurring or Future dated payments.",
                "tags": [
					"Stored Payment Instruments"
				],
				"security": [{
						"Oauth2": [
							"payment:StoredPayment"
						]
					}
				],
				"responses": {
					"200": {
						"description": "OK:: success status response code indicates that the request has succeeded.",
						"schema": {
							"$ref": "#/definitions/VerifyPaymentMethodResponse"
						},

						"examples": {
							"application/json": {
								"reason": {
									"reasonCode": "2710"
								},
								"statusBody": {
									"reasonDescription": "Verified Successfully"
								},
								"status": {
									"statusCode": "SUCCESS"
								},
								"payment": {
									"verificationIndicator": true,
									"memberId": "1234567"
								}
							}
						},
						"headers": {
							"Access-Control-Allow-Headers": {
                                "description": "Standard HTTP header. The Access-Control-Allow-Headers header indicates, as part of a pre-flight request which headers can be used on the actual request. e.g Content-type",
								"type": "string",
								"x-example": "X-Custom-Header,content-type, accept-language"
							},
							"Access-Control-Allow-Methods": {
                            "description": "Standard HTTP header. The Access-Control-Allow-Methods header indicates, as part of a pre-flight request which methods can be used on the actual request. e.g GET",
								"type": "string",
								"x-example": "GET/POST/DELETE/OPTION"
							},
							"Access-Control-Allow-Origin": {
                                "description": "Standard HTTP header. The Access-Control-Allow-Origin header indicates whether a resource can be shared by returning the value of the Origin request header or \ufffd*\ufffd in the response. e.g <origin> or *",
								"type": "string",
								"x-example": "*"
							},
							"Cache-Control": {
                            "description": "Standard HTTP header. Used to specify directives like max-age, no-cache, no-store, public, private etc for caching mechanisms in both requests and responses. Set it as no-cache. e.g no-cache",
								"type": "string",
								"x-example": "no-cache"
							},
							"Content-Length": {
                                "description": "Standard HTTP header. The Content-Length header specifies the actual length of the returned payload. e.g 124",
								"type": "string",
								"x-example": "2136"
							},
							"Content-Type": {
								"description": "Standard HTTP header. The Media type of the body of the request. Tells the client what the content type of the returned content actually is. e.g application/json",
								"type": "string",
								"x-example": "application/json"
							},
							"servicetransactionid": {
								"description": "Internal identifier for tracking an individual transaction/API request within API platform. Don't receive/don't send to downstream .e.g 23409209723",
								"type": "string",
								"x-example": "23409209723"
							}
						}
					},
					"400": {
						"description": "Bad Request: The server cannot or will not process the request due to something that is perceived to be a client error (e.g., malformed request syntax, invalid request message framing, or deceptive request routing)",
						"schema": {
							"$ref": "#/definitions/errors"
						},
						"examples": {
							"application/json": {
																
								"errors": [
									{
										"code": "2702",
										"userMessage": "Request Validation Failed",
										"systemMessage": "Member Id is required"
									}
								]

							}
						}
					},
					"401": {
						"description": "UnAuthorized: The request has not been applied because it lacks valid authentication credentials for the target resource",
						"schema": {
							"$ref": "#/definitions/errors"
						},
						"examples": {
							"application/json": {
																
								"errors": {
									"error": [
										{
											"code": "Security-1001",
											"userMessage": "Invalid Token",
											"systemMessage": "Invalid Token"
										}
									]
								}

							}
						}
					},
					"500": {
						"description": "Internal Server Error: The server encountered an unexpected condition that prevented it from fulfilling the request.",
						"schema": {
							"$ref": "#/definitions/errors"
						},
						"examples": {
							"application/json": {
																
								"errors": [
									{
										"code": "2472",
										"userMessage": "HSM Error - Decryption of encrypted data failed",
										"systemMessage": "Update device for P2Pe Key and Encryption Parameters"
									}
								]

							}
						}
					},
					"503": {
						"description": "Service Unavailable: The server is currently unable to handle the request due to a temporary overload or scheduled maintenance, which will likely be alleviated after some delay.",
						"schema": {
							"$ref": "#/definitions/errors"
						},
						"examples": {
							"application/json": {
								"code": "503",
								"userMessage": "Unexpected error",
								"systemMessage": "503 Unexpected error"
							}
						}
					}
				},
				"operationId": "verify-paymentMethods",
				"parameters": [{
						"name": "VerifyPaymentMethodRequest",
						"in": "body",
						"schema": {
							"maxItems": 1,
							"$ref": "#/definitions/VerifyPaymentMethodRequest"
						},
						"description": "POST for Verify Payement Method Request"
					}, {
						"$ref": "#/parameters/AuthorizationParam"
					}, {
						"$ref": "#/parameters/Content-TypeParam"
					}, {
						"$ref": "#/parameters/AcceptParam"
					}, {
						"$ref": "#/parameters/applicationidParam"
					}, {
						"$ref": "#/parameters/channelidParam"
					}, {
						"$ref": "#/parameters/activityidParam"
					}, {
						"$ref": "#/parameters/Access-Control-Request-HeadersParam"
					}, {
						"$ref": "#/parameters/Access-Control-Request-MethodParam"
					}
				]
			}

		},
		"/search": {
			"post": {
				"x-api-pattern": "CreateInCollection",
				"description": "Stored Payment Search method retrives Payment Instruments stored in the wallet by user. The response contains bank and/or card instruments stored in the pre-defined sorted order. The response also entails wallet capacity and current wallet size. The wallet capacity is currently up to 10 payment instruments. \n \n Each payment instrument provides status and if a Payment Instrument is in negative file then the Instrument would be flagged as invalid and couldn’t be used in payment transactions." ,
				"summary": "Operation is used retrieve payment instruments stored in the wallet for give member.",
                "tags": [
					"Stored Payment Instruments"
				],
				"security": [{
						"Oauth2": [
							"payment:StoredPayment"
						]
					}
				],
				"responses": {
					"200": {
						"description": "OK:: success status response code indicates that the request has succeeded.",
						"schema": {
						
							"$ref": "#/definitions/GetPaymentMethodsResponse"
						},

						"examples": {
							
							"application/json": {

								"customer": {
									"customerAccountSummary": {
										"specifications": [{
												"name": "customerBlocked",
												"value": "CHECK/CARD/ALL"
											}
										]
									}
								},
								"reason": {
									"reasonCode": "2204"
								},
								"statusBody": {
									"reasonDescription": "Retrieved Successfully"
								},
								"status": {
									"statusCode": "SUCCESS"
								},
								"payment": [
									{
										"paymentInstrument": {
											"bankPayment": {
												"routingNumber": "042206503",
												"bankAccountAlias": "99999900001446567564",
												"accountHolderFirstName": "Rahul",
												"accountHolderLastName": "Sharma",
												"updateTime": "2019-03-12T19:58:24Z",
												"accountHolderNames": [
													"Rahul"
												],
												"accountHolderAddress": {
													"addressCore": {
														"addressLine2": "gateway",
														"cityName": "Portland",
														"stateCode": "OR",
														"zip": "98012"
													}
												}
											}
										},
										"paymentMethod": {
											"paymentMethodStatus": "VALID"
										},
										"paymentMethodReference": {
											"paymentMethodCode": "CHECK",
											"defaultPaymentMethodIndicator": false,
											"autopayEnabledIndicator": false
										},
										"termsAgreementIndicator": false,
										"walletCapacity": 100,
										"walletSize": 6,
										"walletId": "WT001903121207460334",
										"verificationIndicator": false,
										"migrationIndicator": false
									},
									{
										"paymentInstrument": {
											"paymentCard": {
												"cardHolderName": "RAHUL123",
												"updateTime": "2019-03-12T20:04:04Z",
												"typeCode": "VISA",
												"expirationMonthYear": "0220",
												"paymentCardAlias": "4000022421709328",
												"cardHolderAddress": {
													"addressCore": {
														"addressLine1": "address sw garden pl",
														"addressLine2": "gateway",
														"cityName": "Portland",
														"stateCode": "OR",
														"zip": "03112"
													}
												}
											}
										},
										"paymentMethod": {
											"paymentMethodStatus": "VALID"
										},
										"paymentMethodReference": {
											"paymentMethodCode": "DC",
											"defaultPaymentMethodIndicator": false,
											"autopayEnabledIndicator": false
										},
										"termsAgreementIndicator": false,
										"walletCapacity": 100,
										"walletSize": 6,
										"walletId": "WT001903121207460334",
										"verificationIndicator": false,
										"migrationIndicator": false
									},
									{
										"paymentInstrument": {
											"paymentCard": {
												"cardHolderName": "RAHUL123",
												"updateTime": "2019-03-13T17:58:32Z",
												"typeCode": "AMERICANEXPRESS",
												"expirationMonthYear": "0220",
												"paymentCardAlias": "300023252008183",
												"cardHolderAddress": {
													"addressCore": {
														"addressLine1": "address sw garden pl",
														"addressLine2": "gateway",
														"cityName": "Portland",
														"stateCode": "OR",
														"zip": "03112"
													}
												}
											}
										},
										"paymentMethod": {
											"paymentMethodStatus": "VALID"
										},
										"paymentMethodReference": {
											"paymentMethodCode": "CC",
											"defaultPaymentMethodIndicator": false,
											"autopayEnabledIndicator": false
										},
										"termsAgreementIndicator": false,
										"walletCapacity": 100,
										"walletSize": 6,
										"walletId": "WT001903121207460334",
										"verificationIndicator": false,
										"migrationIndicator": false
									}
								]
							}
						
					
						},
						"headers": {
							"Access-Control-Allow-Headers": {
                            "description": "Standard HTTP header. The Access-Control-Allow-Headers header indicates, as part of a pre-flight request which headers can be used on the actual request. e.g Content-type",
								"type": "string",
								"x-example": "X-Custom-Header,Content-type"
							},
							"Access-Control-Allow-Methods": {
                                "description": "Standard HTTP header. The Access-Control-Allow-Methods header indicates, as part of a pre-flight request which methods can be used on the actual request. e.g GET",
								"type": "string",
								"x-example": "POST/GET/DELETE/OPTION"
							},
							"Access-Control-Allow-Origin": {
                                "description": "Standard HTTP header. The Access-Control-Allow-Origin header indicates whether a resource can be shared by returning the value of the Origin request header or \ufffd*\ufffd in the response. e.g <origin> or *",
								"type": "string",
								"x-example": "*"
							},
							"Cache-Control": {
                                "description": "Standard HTTP header. Used to specify directives like max-age, no-cache, no-store, public, private etc for caching mechanisms in both requests and responses. Set it as no-cache. e.g no-cache",
								"type": "string",
								"x-example": "no-cache"
							},
							"Content-Length": {
                                "description": "Standard HTTP header. The Content-Length header specifies the actual length of the returned payload. e.g 124",
								"type": "string",
								"x-example": "2136"
							},
							"Content-Type": {
								"description": "Standard HTTP header. The Media type of the body of the request. Tells the client what the content type of the returned content actually is. e.g application/json",
								"type": "string",
								"x-example": "application/json"
							},
							"servicetransactionid": {
								"description": "Internal identifier for tracking an individual transaction/API request within API platform. Don't receive/don't send to downstream .e.g 23409209723",
								"type": "string",
								"x-example": "23409209723"
							}
						}
					},		
					"400": {
						"description": "Bad Request: The server cannot or will not process the request due to something that is perceived to be a client error (e.g., malformed request syntax, invalid request message framing, or deceptive request routing)",
						"schema": {
							"$ref": "#/definitions/errors"
						},
						"examples": {
							"application/json": {
								"errors":[
									{ 
								
								"code": "2703",
								"userMessage": "Request Validation Failed",
								"systemMessage": "Member Id Type is required"
							}
								]
					}}
					},
					"401": {
						"description": "UnAuthorized: The request has not been applied because it lacks valid authentication credentials for the target resource",
						"schema": {
							"$ref": "#/definitions/errors"
						},
						"examples": {
							"application/json": {
								"errors": {
									"error": [
										{
											"code": "Security-1008",
											"userMessage": "Invalid API Key",
											"systemMessage": "Invalid API Key"
										}
									]
								}
							}	}
					},
					"500": {
						"description": "Internal Server Error: The server encountered an unexpected condition that prevented it from fulfilling the request.",
						"schema": {
							"$ref": "#/definitions/errors"
						},
						"examples": {
							"application/json": {
								"code": "1500",
								"userMessage": "Internal Server Error",
								"systemMessage": "Internal Server Error"
							}
						}
					},
					"503": {
						"description": "Service Unavailable: The server is currently unable to handle the request due to a temporary overload or scheduled maintenance, which will likely be alleviated after some delay.",
						"schema": {
							"$ref": "#/definitions/errors"
						},
						"examples": {
							"application/json": {
								"code": "503",
								"userMessage": "Unexpected error",
								"systemMessage": "503 Unexpected error"
							}
						}
					}
				},
				"operationId": "search-paymentMethods",
				"parameters": [{
						"name": "StoredPaymentsSearchRequest",
						"in": "body",
						"schema": {
							"maxItems": 1,
							"$ref": "#/definitions/StoredPaymentsSearchRequest"
						},
						"description": "Operation for search a stored payment"
					}, {
						"$ref": "#/parameters/AuthorizationParam"

					}, {
						"$ref": "#/parameters/Content-TypeParam"
					}, {
						"$ref": "#/parameters/AcceptParam"
					}, {
						"$ref": "#/parameters/applicationidParam"
					}, {
						"$ref": "#/parameters/channelidParam"
					}, {
						"$ref": "#/parameters/activityidParam"
					}, {
						"$ref": "#/parameters/Access-Control-Request-HeadersParam"
					}, {
						"$ref": "#/parameters/Access-Control-Request-MethodParam"
					}
				]
			}

		},
		"/": {
			"post": {
				"x-api-pattern": "CreateInCollection",
				"description":"The Stored Payment allows user to create wallet by adding at least one payment instrument. \n\n The wallet capacity is currently up to 10 payment instruments and user is allowed to store up to 10 payment instruments in combination of Bank accounts and Card.\n\n **NOTE: This endpoint is strictly  restricted for internal use**. ",
				"tags": [
					"Stored Payment Instruments"
				],
				"security": [{
						"Oauth2": [
							"payment:StoredPayment"
						]
					}
				],
				"responses": {
					"201": {
						"description": "Created",
						"schema": {
							"$ref": "#/definitions/PaymentInResponse"
						},
						"examples": {
							"application/json": {
								"reason": {
									"reasonCode": "DPS CODE"
								},
								"statusBody": {
									"reasonDescription": "Created Successfully"
								},
								"status": {
									"statusCode": "SUCCESS"
								}

							}
						},
						"headers": {
							"Access-Control-Allow-Headers": {
								"description": "The Access-Control-Allow-Headers header indicates, as part of a pre-flight request which headers can be used on the actual request.",
								"type": "string",
								"x-example": "X-Custom-Header, Content-Type"
							},
							"Access-Control-Allow-Methods": {
								"description": "The Access-Control-Allow-Methods header indicates, as part of a pre-flight request which methods can be used on the actual request.",
								"type": "string",
								"x-example": "POST/PUT/DELETE/OPTION"
							},
							"Access-Control-Allow-Origin": {
								"description": "The Access-Control-Allow-Origin header indicates whether a resource can be shared by returning the value of the Origin request header or '*' in the response.",
								"type": "string",
								"x-example": "*"
							},
							"Cache-Control": {
								"description": "Standard HTTP header. Used to specify directives like max-age, no-cache, no-store, public, private etc for caching mechanisms in both requests and responses. Set it as no-cache ",
								"type": "string",
								"x-example": "no-cache"
							},
							"Content-Length": {
                                "description": "Standard HTTP header. The Content-Length header specifies the actual length of the returned payload. e.g 124",
								"type": "string",
								"x-example": "2136"
							},
							"Content-Type": {
								"description": "Standard HTTP header. This entity header is used to indicate the media type of the resource. e.g application/json",
								"type": "string",
								"x-example": "application/json"
							},
							"servicetransactionid": {
								"description": "Internal identifier for tracking an individual transaction/API request within API platform. Don't receive/don't send to downstream .e.g 23409209723",
								"type": "string",
								"x-example": "23409209723"
							}
						}
					},
					"400": {
						"description": "Bad Request: The server cannot or will not process the request due to something that is perceived to be a client error (e.g., malformed request syntax, invalid request message framing, or deceptive request routing)",
						"schema": {
							"$ref": "#/definitions/errors"
						},
						"examples": {
							"application/json": {
								"code": "dps-error-code-1400",
								"userMessage": "bad request error",
								"systemMessage": "bad request error"
							}
						}
					},
					"401": {
						"description": "UnAuthorized: The request has not been applied because it lacks valid authentication credentials for the target resource",
						"schema": {
							"$ref": "#/definitions/errors"
						},
						"examples": {
							"application/json": {
								"code": "dps-error-code-1401",
								"userMessage": "unauthorized error",
								"systemMessage": "unauthorized error"
							}
						}
					},
					"500": {
						"description": "Internal Server Error: The server encountered an unexpected condition that prevented it from fulfilling the request.",
						"schema": {
							"$ref": "#/definitions/errors"
						},
						"examples": {
							"application/json": {
								"code":"500",
								"userMessage": "Internal Server Error",
								"systemMessage": "Internal Server Error"
							}
						}
					},
					"503": {
						"description": "Service Unavailable: The server is currently unable to handle the request due to a temporary overload or scheduled maintenance, which will likely be alleviated after some delay.",
						"schema": {
							"$ref": "#/definitions/errors"
						},
						"examples": {
							"application/json": {
								"code": "503",
								"userMessage": "Unexpected error",
								"systemMessage": "503 Unexpected error"
							}
						}
					}
				},
				"operationId": "post-paymentmethods",
				"parameters": [{
						"name": "StoredPaymentsRequest",
						"in": "body",
						"schema": {
							"maxItems": 1,
							"$ref": "#/definitions/StoredPaymentsRequest"
						},
						"description": " Operation used to setup/create a wallet"
					}, {
						"$ref": "#/parameters/AuthorizationParam"
					}, {
						"$ref": "#/parameters/Content-TypeParam"
					}, {
						"$ref": "#/parameters/AcceptParam"
					}, {
						"$ref": "#/parameters/applicationidParam"
					}, {
						"$ref": "#/parameters/channelidParam"
					}, {
						"$ref": "#/parameters/activityidParam"
					}, {
						"$ref": "#/parameters/Access-Control-Request-HeadersParam"
					}, {
						"$ref": "#/parameters/Access-Control-Request-MethodParam"
					}
				],
				"summary": "This APIendpoint is used to add a new payment instrument to the Wallet."
			},
			"put": {
				"x-api-pattern": "ReplaceResource",
				"description":"The Stored Payment API allows the user to update or delete Payment Instruments stored in the wallet.\n\n **NOTE: This endpoint is strictly  restricted for internal use** ",
				"tags": [
					"Stored Payment Instruments"
				],
				"security": [{
						"Oauth2": [
							"payment:StoredPayment"
						]
					}
				],
				"responses": {
					"200": {
						"description": "OK:: success status response code indicates that the request has succeeded.",
						"schema": {
									"$ref": "#/definitions/PaymentInResponse"
						},
						"examples": {
							"application/json": {
								"reason": {
									"reasonCode": "xxxx"
								},
								"statusBody": {
									"reasonDescription": "Updated Successfully"
								},
								"status": {
									"statusCode": "SUCCESS"
								}

							}
						},

						"headers": {
							"Access-Control-Allow-Headers": {
								"description": "The Access-Control-Allow-Headers header indicates, as part of a pre-flight request which headers can be used on the actual request.",
								"type": "string",
								"x-example": "X-Custom-Header,content-type"
							},
							"Access-Control-Allow-Methods": {
								"description": "The Access-Control-Allow-Methods header indicates, as part of a pre-flight request which methods can be used on the actual request.",
								"type": "string",
								"x-example": "POST/PUT/DELETE/OPTION"
							},
							"Access-Control-Allow-Origin": {
								"description": "The Access-Control-Allow-Origin header indicates whether a resource can be shared by returning the value of the Origin request header or '*' in the response.",
								"type": "string",
								"x-example": "*"
							},
							"Cache-Control": {
								"description": "Standard HTTP header. Used to specify directives like max-age, no-cache, no-store, public, private etc for caching mechanisms in both requests and responses. Set it as no-cache ",
								"type": "string",
								"x-example": "no-cache"
							},
							"Content-Length": {
                            "description": "Standard HTTP header. The Content-Length header specifies the actual length of the returned payload. e.g 124",
								"type": "string",
								"x-example": "2136"
							},
							"Content-Type": {
								"description": "The Content-Length header specifies the actual length of the returned payload.",
								"type": "string",
								"x-example": "application/json"
							},
							"servicetransactionid": {
								"description": "Internal identifier for tracking an individual transaction/API request within API platform. Don't receive/don't send to downstream .e.g 23409209723",
								"type": "string",
								"x-example": "234092097232"
							}
						}
					},
					"400": {
						"description": "Bad Request: The server cannot or will not process the request due to something that is perceived to be a client error (e.g., malformed request syntax, invalid request message framing, or deceptive request routing)",
						"schema": {
							"$ref": "#/definitions/errors"
						},
						"examples": {
							"application/json": {
								"code": "dps-error-code-1400",
								"userMessage": "bad request error",
								"systemMessage": "bad request error"
							}
						}
					},
					"401": {
						"description": "UnAuthorized: The request has not been applied because it lacks valid authentication credentials for the target resource",
						"schema": {
							"$ref": "#/definitions/errors"
						},
						"examples": {
							"application/json": {
								"code": "dps-error-code-401",
								"userMessage": "unauthorized error",
								"systemMessage": "unauthorized error"
							}
						}
					},
					"500": {
						"description": "Internal Server Error: The server encountered an unexpected condition that prevented it from fulfilling the request.",
						"schema": {
							"$ref": "#/definitions/errors"
						},
						"examples": {
							"application/json": {
								"code": "dps-error-code-1500",
								"userMessage": "Internal Server Error",
								"systemMessage": "Internal Server Error"
							}
						}
					},
					"503": {
						"description": "Service Unavailable: The server is currently unable to handle the request due to a temporary overload or scheduled maintenance, which will likely be alleviated after some delay.",
						"schema": {
							"$ref": "#/definitions/errors"
						},
						"examples": {
							"application/json": {
								"code": "503",
								"userMessage": "Unexpected error",
								"systemMessage": "503 Unexpected error"
							}
						}
					}
				},
				"operationId": "put-paymentmethods",
				"parameters": [{
						"name": "StoredPaymentsRequest",
						"in": "body",
						"schema": {
							"maxItems": 1,
							"$ref": "#/definitions/StoredPaymentsRequest"
						},
						"description": "Operation used to Update the Wallet"
					}, {
						"$ref": "#/parameters/AuthorizationParam"
					}, {
						"$ref": "#/parameters/Content-TypeParam"
					}, {
						"$ref": "#/parameters/AcceptParam"
					}, {
						"$ref": "#/parameters/applicationidParam"
					}, {
						"$ref": "#/parameters/channelidParam"
					}, {
						"$ref": "#/parameters/activityidParam"
					}, {
						"$ref": "#/parameters/Access-Control-Request-HeadersParam"
					}, {
						"$ref": "#/parameters/Access-Control-Request-MethodParam"
					}
				],
				"summary": "This endpoint updates the existing stored payment instrument."
			},
			"delete": {
				"x-api-pattern": "RemoveResource",
				"description":"The Stored Payment API allows user to delete Payment Instruments stored in the wallet. \n\n **NOTE: This endpoint is strictly  restricted for internal use**",
				"tags": [
					"Stored Payment Instruments"
				],
				"security": [{
						"Oauth2": [
							"payment:StoredPayment"
						]
					}
				],

				"responses": {
					"200": {
						"description": "OK:: success status response code indicates that the request has succeeded.",
						"schema": {
							"$ref": "#/definitions/PaymentInResponse"
						},
						"examples": {
							"application/json": {
								"reason": {
									"reasonCode": "DPS CODE"
								},
								"statusBody": {
									"reasonDescription": "deleted Successfully"
								},
								"status": {
									"statusCode": "SUCCESS"
								}

							}
						},
						"headers": {
							"Access-Control-Allow-Headers": {
								"description": "The Access-Control-Allow-Headers header indicates, as part of a pre-flight request which headers can be used on the actual request.",
								"type": "string",
								"x-example": "X-Custom-Header"
							},
							"Access-Control-Allow-Methods": {
								"description": "The Access-Control-Allow-Methods header indicates, as part of a pre-flight request which methods can be used on the actual request.",
								"type": "string",
								"x-example": "POST"
							},
							"Access-Control-Allow-Origin": {
								"description": "The Access-Control-Allow-Origin header indicates whether a resource can be shared by returning the value of the Origin request header or '*' in the response.",
								"type": "string",
								"x-example": "*"
							},
							"Cache-Control": {
								"description": "Standard HTTP header. Used to specify directives like max-age, no-cache, no-store, public, private etc for caching mechanisms in both requests and responses. Set it as no-cache ",
								"type": "string",
								"x-example": "no-cache"
							},
							"Content-Length": {
								"description": "The Content-Length header specifies the actual length of the returned payload.",
								"type": "string",
								"x-example": "2136"
							},
							"Content-Type": {
								"description": "The Content-Length header specifies the actual length of the returned payload.",
								"type": "string",
								"x-example": "application/json"
							},
							"servicetransactionid": {
								"description": "Internal identifier for tracking an individual transaction/API request within API platform. Don't receive/don't send to downstream .e.g 23409209723",
								"type": "string",
								"x-example": "23409209723"
							}
						}
					},
					"400": {
						"description": "Bad Request: The server cannot or will not process the request due to something that is perceived to be a client error (e.g., malformed request syntax, invalid request message framing, or deceptive request routing)",
						"schema": {
							"$ref": "#/definitions/errors"
						},
						"examples": {
							"application/json": {
								"code": "dps-error-code-1400",
								"userMessage": "bad request error",
								"systemMessage": "bad request error"
							}
						}
					},
					"401": {
						"description": "UnAuthorized: The request has not been applied because it lacks valid authentication credentials for the target resource",
						"schema": {
							"$ref": "#/definitions/errors"
						},
						"examples": {
							"application/json": {
								"code": "dps-error-code-401",
								"userMessage": "unauthorized error",
								"systemMessage": "unauthorized error"
							}
						}
					},
					"500": {
						"description": "Internal Server Error: The server encountered an unexpected condition that prevented it from fulfilling the request.",
						"schema": {
							"$ref": "#/definitions/errors"
						},
						"examples": {
							"application/json": {
								"code": "dps-error-code-1500",
								"userMessage": "Internal Server Error",
								"systemMessage": "Internal Server Error"
							}
						}
					},
					"503": {
						"description": "Service Unavailable: The server is currently unable to handle the request due to a temporary overload or scheduled maintenance, which will likely be alleviated after some delay.",
						"schema": {
							"$ref": "#/definitions/errors"
						},
						"examples": {
							"application/json": {
								"code": "503",
								"userMessage": "Unexpected error",
								"systemMessage": "503 Unexpected error"
							}
						}
					}
				},
				"operationId": "delete-paymentmethods",
				"parameters": [{
						"name": "StoredPaymentsDeleteRequest",
						"in": "body",
						"schema": {
							"maxItems": 1,
							"$ref": "#/definitions/StoredPaymentsDeleteRequest"
						},
						"description": "Operation used to delete a wallet"
					}, {
						"$ref": "#/parameters/AuthorizationParam"
					}, {
						"$ref": "#/parameters/Content-TypeParam"
					}, {
						"$ref": "#/parameters/AcceptParam"
					}, {
						"$ref": "#/parameters/applicationidParam"
					}, {
						"$ref": "#/parameters/channelidParam"
					}, {
						"$ref": "#/parameters/activityidParam"
					}, {
						"$ref": "#/parameters/Access-Control-Request-HeadersParam"
					}, {
						"$ref": "#/parameters/Access-Control-Request-MethodParam"
					}
				],
				"summary": "This endpoint is used to delete the existing stored payment instrument."
			}
		}
	},
	"tags": [{
			"name": "Stored Payment Instruments"
		}
	],
	"definitions": {
		"PaymentInSearchRequest": {
			"description":"This property have fields that are to be passed in the payment search request body to search for a wallet.",
			"type": "object",
			"required":["businessUnit","programCode","memberIdType","divisionId","partnerId"],
			"properties": {
				"specifications": {
					"description": "Name Value Pairs.",
					"type": "array",
					"items": {
						"type": "object",
						"properties": {
							"name": {
								"description": "This is an optional field. It describes the Key Name of negative file search. e.g negativeFileType",
								"type": "string",
								"example": "negativeFileType"
							},
							"value": {
								"description": "This is an optional field. It describes the Value of negative file type. e.g FDP",
								"type": "string",
								"example": "FDP"
							}
						}
					}
				},
				"clientId": {
					"description": "This is an optional field. It indicates the Front End Application client ID name. For example POSR, POS_PLDBT,MWEB",
					"type": "string",
					"example":"MWEB"
				},
				"walletId": {
					"description": "Unique wallet ID associated with the user wallet. e.g WT724c03b0369d1403 ",
					"type": "string",
					"example":"WT724c03b0369d1403"
				},
				"memberId": {
					"description": "This is an optional field, used to indicate identification of customer. It could be MSISDN of customer or unique tmobiel id. e.g U-E59DD604-A1B2-4F3D-856E-A4A203312965",
					"type": "string",
					"example": "U-E59DD604-A1B2-4F3D-856E-A4A203312965"
				},
				"memberIdType": {
					"description": "Indicates member id type of customer. e,g ORGA",
					"type": "string",
					"example": "ORGA",
					"pattern":"^([A-Z]{4})$"

				},
				"divisionId": {
					"description": "Indicates member division id of business segement. e.g FBI",
					"type": "string",
					"example": "FBI",
					"pattern":"^([A-Z]{3})$"
				},
				"partnerId": {
					"description": "Indicates the partner id associate with the division .e.g LER",
					"type": "string",
					"example": "LER",
					"pattern":"^([A-Z]{3,15})$"
				},
				"businessSegment": {
					"description": "Indicates the T-Mobile Business Segment: Valid values - Prepaid, Postpaid, Anonymous, B2B, Dealer, NationalRetail",
					"type": "string",
					"example":"Postpaid"
				},
				"productGroup": {
					"enum": [
						"HardGoods",
						"SoftGoods"
					],
					"description": "Indicates the Product group e.g HardGoods or SoftGoods",
					"type": "string",
					"example":"HardGoods"
				},
				"orderTypes": {
					"description": "This is an optional field. This element describes the type of order made by the customer, such as EQUIPMENT UPGRADE, ACCESSORY PURCHASE, AALREFUND,ADDALINE etc",
					"type": "string",
					"example":"ADDALINE"
				},
				"businessUnit": {
					"description": "Indicates the T-Mobile business unit. e.g TMOBILE, METROPCS, SPRINT",
					"type": "string",
					"example":"TMOBILE",
					"pattern":"^([A-Za-z]{3,15})$"
				},
				"programCode": {
					"description": "Indicates the program identifiers such as ZCP, ZCNP, U2POSTCP, U2PRECP, U2PRECNP, U2POSTCNP, U1POSTLEGACY",
					"type": "string",
					"example":"U1POSTLEGACY",
					"pattern":"^([A-Z0-9a-z]{3,15})$"
				},
				"billerCode": {
					"description": "Indicates the Biller code of the  Billing system e.g SAMSON, ERICSSON, OFSLL, EIP",
					"type": "string",
					"example":"SAMSON"
				}
			}
		},
		"PaymentInDeleteRequest": {
			"description":"This property have payment related fields that are to be passed in the request body to delete a wallet.",
			"type": "object",
			"properties": {
				"paymentMethodReference": {
					"description": "Describes the payment methods like type of card used by the customer such as credit card,hybrid card,debit card etc",
					"type": "object",
					"properties": {
						"paymentMethodCode": {
							"description": "Describes the BIN payment type such as CC - Credit Card,HD - Hybrid Debit,HC - Hybrid Credit,DC - Debit Card,PD - Prepaid Debit or PC - Prepaid Credit.",
							"type": "string"
						}
					}
				},
				"memberId": {
					"description": "This is an optional field, used to indicate identification of customer. It could be MSISDN of customer",
					"type": "string",
					"x-example": "alex123"
				},
				"memberIdType": {
					"description": "To indicate member type id of customer",
					"type": "string",
					"x-example": "INDL, ORGA"
				},
				"divisionId": {
					"description": "To indicate member division id of business segement",
					"type": "string",
					"x-example": "FBI, CIA, PUR, SAL etc"
				},
				"partnerId": {
					"description": "To indicate partner id of devision",
					"type": "string",
					"x-example": "LER, DEALER, COSTCO etc"
				},
				"businessSegment": {
					"description": "Business Segment: Valid values - Prepaid, Postpaid, Anonymous, B2B, Dealer, NationalRetail",
					"type": "string"
				},
				"productGroup": {
					"enum": [
						"HardGoods",
						"SoftGoods"
					],
					"description": "Product grouping such as HardGoods or SoftGoods",
					"type": "string"
				},
				"orderTypes": {
					"description": "Describes the type of Order the customer placed, such as EQUIPMENT UPGRADE, ACCESSORY PURCHASE, AALREFUND",
					"type": "string",
					"x-example":"AALREFUND"
				},
				"businessUnit": {
					"description": "The T-Mobile business unit, such as TMOBILE, METROPCS, SPRINT",
					"type": "string"
				},
				"programCode": {
					"description": "Program identifier such as ZCP, ZCNP, U2POSTCP, U2PRECP, U2PRECNP, U2POSTCNP, U1POSTLEGACY",
					"type": "string"
				},
				"billerCode": {
					"description": "Billing system identifier such as SAMSON, ERICSSON, OFSLL, EIP",
					"type": "string"
				},
				"paymentInstrument": {
					"$ref": "#/definitions/DeletePaymentInstrument"
				}
			}
		},
		"PaymentInVerifyRequest": {
			"type": "object",
			"description":"Request Object for verfiying the payment instrument.",
			"properties": {
				"paymentMethodReference": {
					"description": "Object to describes the payment methods like type of card used by the customer such as credit card,hybrid card,debit card etc",
					"type": "object",
					"properties": {
						"paymentMethodCode": {
							"description": "Describes the BIN payment type such as CC - Credit Card,HD - Hybrid Debit,HC - Hybrid Credit,DC - Debit Card,PD - Prepaid Debit or PC - Prepaid Credit.",
							"type": "string",
							"example":"CC"
						}
					}
				},
				"memberId": {
					"description": "This is an optional field, used to indicate identification of customer. It could be MSISDN of customer or unique tmobiel id. e.g U-E59DD604-A1B2-4F3D-856E-A4A203312965",
					"type": "string",
					"example": "SRAVANI45"
				},
				"memberIdType": {
					"description": "Indicates member id type of customer. e,g INDL",
					"type": "string",
					"example": "INDL"
				},
				"divisionId": {
					"description": "Indicates member division id of business segement. e.g FBI",
					"type": "string",
					"example": "FBI"
				},
				"partnerId": {
					"description": "Indicates the partner id associate with the division .e.g LER",
					"type": "string",
					"example": "LER"
				},
				"businessSegment": {
					"description": "Indicates the T-Mobile Business Segment: Valid values - Prepaid, Postpaid, Anonymous, B2B, Dealer, NationalRetail",
					"type": "string",
					"example":"POSTPAID"
				},
				"productGroup": {
					"enum": [
						"HardGoods",
						"SoftGoods"
					],
					"description": "Indicates the Product group e.g HardGoods or SoftGoods",
					"type": "string"
				},
				"orderTypes": {
					"description": "This is an optional field. This element describes the type of order made by the customer, such as EQUIPMENT UPGRADE, ACCESSORY PURCHASE, AALREFUND,ADDALINE etc",
					"type": "string",
					"example":"POSTPAYMENT"
				},
				"businessUnit": {
					"description": "Indicates the T-Mobile business unit. e.g TMOBILE, METROPCS, SPRINT",
					"type": "string",
					"example":"TMOBILE"
				},
				"programCode": {
					"description": "Indicates the program identifiers such as ZCP, ZCNP, U2POSTCP, U2PRECP, U2PRECNP, U2POSTCNP, U1POSTLEGACY",
					"type": "string",
					"example":"U1POSTLEGACY"
				},
				"billerCode": {
					"description": "Indicates the Biller code of the  Billing system e.g SAMSON, ERICSSON, OFSLL, EIP",
					"type": "string",
					"example":"SAMSON"
				},
				"paymentInstrument": {
					"$ref": "#/definitions/VerifyPaymentInstrument"
				},
				"salesChannelReference": {
				  "$ref": "#/definitions/SalesChannelReference"
				}
			}
		},
		"CustomResponsePayment": {
			"type": "object",
			"properties": {
				"walletId": {
					"description": "Unique wallet ID associated with the user wallet. e.g WT724c03b0369d1403 ",
					"type": "string",
                   	"example":"WT724c03b0369d1403"

				},
				"messages": {
					"description": "Array of Object providing UI Messages.",
					"type": "array",
					"items": {
						"$ref": "#/definitions/UIMessage"
					}
				}
			}
		},
		"SalesChannelReference": {
		  "type": "object",
          "description": "SalesChannel Object. If the 'channleid' in header is not one of CARE/RETAIL/WEB/IVR, then then name of channel on which behalf the transaction is performed should be provided. e.g CARE",
		  "properties": {
			"salesChannelId": {
                "description": "Uniquely identifier for the the Sales Channel.",
				"type": "string",
			  "example":"RETAIL"
			}
		  }
		},
		"Payment": {
			"type": "object",
			"description":" This element refers to the properties of payments like type of credit card used, payment identification number, order type, business unit, biller code etc.",
			"properties": {
				"paymentMethodReference": {
					"description": "Object to describes the payment methods like type of card used by the customer such as credit card,hybrid card,debit card etc",
					"type": "object",
					"properties": {
						"paymentMethodCode": {
							"description": "Describes the type of the payment card such as CC - Credit Card,HD - Hybrid Debit,HC - Hybrid Credit,DC - Debit Card,PD - Prepaid Debit or PC - Prepaid Credit.",
							"type": "string",
							"example":"CC"
						},
						"defaultPaymentMethodIndicator": {
							"description": "Indicates if the payment instrument being used is the deault one. e.g false",
							"type": "boolean"
						},
						"storePaymentMethodIndicator": {
							"description": "Indicates if payment instrument is present in stored payment (Wallet) of customer. e.g false",
							"type": "boolean"

						}
					}
				},
				"clientId": {
					"description": "This is an optional field. It indicates the Front End Application client ID name. For example POSR, POS_PLDBT,MWEB",
					"type": "string",
					"example":"MWEB"
				},
				"paymentId": {
					"description": "Unique Payment Id generated by Enterprise Payment system after the transaction is successful processed.",
					"type": "string",
                    "example" : "287742860"
				},
				"businessTransactionType": {
					"description": "Indicates the type of transaction with business process. e.g Prepaid",
					"type": "string",
					"example": "Prepaid"
				},
				"creationTime": {
					"description": "Time when the Payment request was created. e.g 2018-08-01T21:57:20.994Z",
					"type": "string",
					"format": "date-time",
					"example": "2018-08-01T21:57:20.994Z"
				},
				"termsAgreementIndicator": {
					"description": "Indicates if the customer accept the payment agreement or not. e.g false",
					"type": "boolean",
					"example": "false"
				},
				"termsAgreementTime": {
					"description": "Time when the customer accepts the payment terms agreement. e.g 2018-08-01T21:57:20.994Z",
					"type": "string",
					"format": "date-time",
					"example": "2018-08-01T21:57:20.994Z"
				},
				"spmTermsAgreementIndicator": {
					"description": "Indicates if the customer accept the agreement or not for storing payment instrument in wallet. e.g false",
					"type": "boolean",
                    "example" : false
				},
				"spmTermsAgreementTime": {
					"description": "Time when the customer accepted the agreement for storing payment instrument in wallet.  e.g 2018-08-01T21:57:20.994Z",
					"type": "string",
					"format": "date-time",
                    "example": "2018-08-01T21:57:20.994Z"

				},
				"accountNumber": {
					"description": "The financial account number that identifies the customer account. Either orderNumber or account number should be passed.",
					"type": "string",
                    "example" : "123532453"
         
				},
				"memberId": {
					"description": "This is an optional field, used to indicate identification of customer. It could be MSISDN of customer or unique tmobiel id. e.g U-E59DD604-A1B2-4F3D-856E-A4A203312965",
					"type": "string",
					"example": "U-E59DD604-A1B2-4F3D-856E-A4A203312965"
				},
				"memberIdType": {
					"description": "Indicates member id type of customer. e,g ORGA",
					"type": "string",
					"example": "ORGA",
					"pattern":"^([A-Z]{4})$"

				},
				"divisionId": {
					"description": "Indicates member division id of business segement. e.g FBI",
					"type": "string",
					"example": "FBI",
					"pattern":"^([A-Z]{3})$"
				},
				"partnerId": {
					"description": "Indicates the partner id associate with the division .e.g LER",
					"type": "string",
					"example": "LER",
					"pattern":"^([A-Z]{3,15})$"
				},
				"businessSegment": {
					"description": "Indicates the T-Mobile Business Segment: Valid values - Prepaid, Postpaid, Anonymous, B2B, Dealer, NationalRetail",
					"type": "string",
					"example":"Postpaid"
				},
				"productGroup": {
					"enum": [
						"HardGoods",
						"SoftGoods"
					],
					"description": "Indicates the Product group e.g HardGoods or SoftGoods",
					"type": "string",
					"example":"HardGoods"
				},
				"orderTypes": {
					"description": "This is an optional field. This element describes the type of order made by the customer, such as EQUIPMENT UPGRADE, ACCESSORY PURCHASE, AALREFUND,ADDALINE etc",
					"type": "string",
					"example":"ADDALINE"
				},
				"businessUnit": {
					"description": "Indicates the T-Mobile business unit. e.g TMOBILE, METROPCS, SPRINT",
					"type": "string",
					"example":"TMOBILE",
					"pattern":"^([A-Za-z]{3,15})$"
				},
				"programCode": {
					"description": "Indicates the program identifiers such as ZCP, ZCNP, U2POSTCP, U2PRECP, U2PRECNP, U2POSTCNP, U1POSTLEGACY",
					"type": "string",
					"example":"U1POSTLEGACY",
					"pattern":"^([A-Z0-9a-z]{3,15})$"
				},
				"billerCode": {
					"description": "Indicates the Biller code of the  Billing system e.g SAMSON, ERICSSON, OFSLL, EIP",
					"type": "string",
					"example":"SAMSON"
				},
				"paymentInstrument": {
					"$ref": "#/definitions/PaymentInstrument"
				}
			}
		},
		"PaymentInResponse": {
			"type": "object",
			"description":" Payment Response Obeject. Response body include Reason for that response, status body, status code etc",
			"properties": {
				"reason": {
					"$ref": "#/definitions/Reason"
				},
				"statusBody": {
					"$ref": "#/definitions/StatusBody"
				},
				"status": {
					"$ref": "#/definitions/Status"
				},
				"payment": {
					"$ref": "#/definitions/CustomResponsePayment"
				}
			}
		},
		"BankPayment": {
			"type": "object",
			"description":"Bank account Object describing the bank details of the customer like type of account, routing number, account holders name and address.",
			"properties": {
				"accountType": {
					"description": "Type of account, Saving or Checking.",
					"type": "string",
                    "example" : "Checking"
				},
				"routingNumber": {
					"description": "Routing Number associated with the bank payment instrument.e.g 272078365",
					"type": "string",
                    "example" : "272078365"
				},
				"accountHolderNames": {
					"description": "Array object holding the bank account holder names.",
					"type": "array",
					"items": {
						"type": "string"
					},
                    "example" : "['peter pan']"
				},
				"accountHolderLastName": {
					"description": "Indicates the bank account holder's last name.",
					"type": "string",
                    "example" : "pan"

				},
				"accountHolderFirstName": {
					"description": "Indicates the bank account holder's first name.",
					"type": "string",
                    "example" : "peter"                   
				},
				"accountHolderAddress": {
					"description": "Address Object Indicates the bank account holder address details.",
					"type": "object",
					"properties": {
						"addressCore": {
							"$ref": "#/definitions/AddressCore"
						}
					}
				},
				"bankAccountAlias": {
					"description": "Indicates token associated with the Bank account number used by the customer. e.g 99999900209478307212",
					"type": "string",
                    "example" : "99999900209478307212"
				},
				"status": {
					"description": "Provides bank account payment current status either valid or invalid after checking negative file. e.g VALID",
					"type": "string",
					"enum": [
						"VALID",
						"INVALID"
					]
				},
				"nickName": {
					"description": "Unique nickname given to bank payment instrument. e.g WellsFargo Account",
					"type": "string",
                    "example" : "WellsFargo Account"
				},
				"updateTime": {
					"description": "Indicates the time when the payment instrumnt information was last updated. e.g 2018-08-01T21:57:20.994Z",
					"type": "string",
					"format": "date-time",
                    	"example": "2018-08-01T21:57:20.994Z"
				}
			}
		},
		"DeleteBankPayment": {
			"type": "object",
			"description": "This property contains the bank details of the customer that are to be deleted like routing number and bank account Alias",
			"properties": {
				"routingNumber": {
					"description": "Routing Number of the bank on whom the payment instrument is drawn. e.g 272078365",
					"type": "string",
					"example":"272078365"
				},
				"bankAccountAlias": {
						"description": "Indicates token associated with the Bank account number used by the customer. e.g  99999900209478307212",
					"type": "string",
                    "example" : "99999900209478307212"
				}
			}
		},
		"DeletePaymentCard": {
			"type": "object",
			"description": "This property contains the card details of the customer that are to be deleted like payment card Alias",
			"properties": {
				"paymentCardAlias": {
					"description": "Indicates token associated with the card number used by the customer. e.g  4023148901807370",
					"type": "string",
                    "example" : "4023148901807370"
				}
			}
		},
		"VerifyBankPayment": {
			"type": "object",
			"description": "Bank Account Object with details of the customer like bank routing number, bank account Alias and account number.",
			"properties": {
				"routingNumber": {
					"description": "Routing Number of the bank on whom the payment instrument is drawn. e.g 272078365",
					"type": "string",
					"example":"272078365"
				},
				"bankAccountAlias": {
                    "description": "Bank account alias used by the customer.",
					"type": "string",
					"example":"99999900000142878901"
				},
				"accountNumber": {
					"description": "Bank Account number of the customer in encrypted format.",
					"type": "string",
					"example":"61CC10328C6BD959E089150888BC62EC2B0DB8CA6D1343B475137ACE8C79378FBF3B66C7991CFA4F685173632D159FBC45580A3C9AC99C2D68031C129D83BAA8E5F9D907B9B91DA01DDE6E4F0184EA8358BF161C8A6F98B9F7EA268E043F26D9F02E4D81BF152DA6491738336EBAECF39036A65DA5B6C3E68709178B609449537E3540964625375997C6B72F81990B67A386D8A4863067E9AD918C15C47B189261FEE3ABA6E2FEF2C05F48CB0E613DC63422E9367B077FB5693850BF9002B4568474D1F160444D25C5D3C4A753D0218C129A54E53FF559B8C9663864AEA01999F1B9689B9C7336C3908E52644D7895738A7665394239604A520324D57D4EBE56"
				}
			}
		},
		"VerifyPaymentCard": {
			"type": "object",
			"description": "Card Object with card details of the customer like payment card Alias,card number etc",
			"properties": {
				"paymentCardAlias": {
					"description": "Indicates token associated with the card number used by the customer. e.g  4023148901807370",
					"type": "string",
                    "example" : "4023148901807370"
				},
				"cardNumber": {
					"description": "Card number of the customer in encrypted format.",
					"type": "string",
					"example":"72736A5AD78A09BC2A3B844BF46A5DF3CE4DFACA3A0F85D3E752B60DD063F34F05DD3FB9DAEF3292A6D711179BB013C0C53ED6E704B3E1D546EEF4444221D629492529799B2BE6B5E392C77675B33F32A6553574EDD16CF2E44F1F50DF69642E90BA5EF97927C6D332FF4A3466AEB4E9FF845C018CB0C9E91A7A7FC5F802B0B440298B5CFFA0CA8D6596D74F326BB52BACBEFB7586855F36CBE3DF9767EBADDC5A4F6C3C0D848FB2C5B50EA8ED0AECD7C502FC889D74E4B4E8475BD4216A2A7850015A3224B753ACA092BA9552313A596699CA9F4806AEAF8C7B15AFD20E22B69DCC19A9D40D58604F7896C73B367E1D0F79B6AFD4EFE0D33605F34CF1568265"
				}
			}
		},
		"UIMessage": {
			"type": "object",
			"description":"Refers to the details displayed on UI about the application name,response message etc.",
			"properties": {
				"applicationName": {
					"description": "Name of the application returning the message. e.g DPS",
					"type": "string",
                    "example" : "DPS"
				},
				"uiMessage": {
					"description": "Message to be displayed by front end system. e.g Deleted Succesfully",
					"type": "string",
                    "example" : "Deleted Succesfully"
				},
				"uiAction": {
					"description": "Action or action code returned to UI. e.g APPROVED",
					"type": "string",
                    "example" : "APPROVED"
				},
				"uiShortCode": {
					"description": "Short Code to be returned to UI. e.g A",
					"type": "string",
                    "example" : "A"
				}
			}
		},
		"Customer": {
			"type": "object",
			"description": "Customer Object having customer account summary details like if the customer is blocked,",
			"properties": {
				"customerAccountSummary": {
					"$ref": "#/definitions/CustomerAccountSummary"
				}
			}
		},
		"CustomerAccountSummary": {
			"type": "object",
			"description": "Customer Summary Object having customer account specification like type of card used and the status like 'customer blocked' for the blocked card etc",
			"properties": {
				"specifications": {
					"description": "Name Value Pairs.",
					"type": "array",
					"items": {
						"type": "object",
						"properties": {
							"name": {
								"description": "Describes Key Name for Name Value Pair. e.g customerBlocked",
								"type": "string",
								"example": "customerBlocked"

							},
							"value": {
								"description": "Describes Value for Name Value Pair. e.g CARD",
								"type": "string",
								"example": "CHECK/CARD/ALL"
							}
						}
					}
				}
			}
		},
		"CustomerReference": {
			"type": "object",
			"properties": {
				"customerId": {
					"description": "Uniquie id of T-Mobile customer. e.g 888776778",
					"type": "string",
					"example":"888776778"
				},
				"commonCustomerId": {
					"description": "Universal identifier of the customer, as defined in Customer Hub.",
					"type": "string"
				}
			}
		},
		"Reason": {
			"type": "object",
			"description":"Refers to the properties like Status reason code for the response",
			"properties": {
				"reasonCode": {
					"description": "Status reason code for the response obtained like 2204 for retrieved successully",
					"type": "string",
					"example":"2204"
				}
			}
		},
		"StatusBody": {
			"type": "object",
			"description":"Refers to the reason message for the response",
			"properties": {
				"reasonDescription": {
					"description": "Status reason message like retrieved successfully ",
					"type": "string",
					"example":"Retrieved Successfully"
				}
			}
		},
		"Status": {
			"type": "object",
			"description":"Refers to the SUCCESS OR DECLINED status code",
			"properties": {
				"statusCode": {
					"description": "Refers to the success,declined/failed as Status code",
					"type": "string",
					"example":"SUCCESS"
				}
			}
		},
		"PaymentMethod": {
			"type": "object",
			"description":"Refers to the status of the payment method whether it is  valid or invalid.",
			"properties": {
				"paymentMethodStatus": {
					"description": "Status of payment method, such as VALID, INVALID",
					"type": "string",
					"example":"VALID"
				}
			}
		},
		"PaymentCard": {
			"type": "object",
			"description":"Payment Card Object having card holder's details like cardholdersname,time,type of card used, expirationMonth and year of the card etc.",
			"properties": {
				"category": {
					"type": "string",
					"description": "provide card category"
				},

				"cardHolderName": {
					"description": "Indicates the full name of the Card Holder. e.g Peter Pan",
					"type": "string",
					"example":"Manali Gupta"
				},
				"cardHolderFirstName": {
					"description": "Indicates the card holder first name. e.g Peter",
					"type": "string",
					"example":"Manali"
				},
				"cardHolderLastName": {
					"description": "Indicates the card holder last name. e.g Pan",
					"type": "string",
					"example":"Gupta"
				},
				"typeCode": {
					"description": "Indicates the type of payment Card. e.g Visa, MasterCard, Debit etc",
					"type": "string",
					"example":"AMERICANEXPRESS"
				},
				"expirationMonthYear": {
					"description": "Indicates the Expiration date of the card in MMYY format. e.g 0722",
					"type": "string",
					"example":"0719"
				},
				"expirationStatus": {
					"description": "Indicates the status of card as either EXPIRED when its expired or EXPIRING when expiration date of the Card is within 30 days",
					"type": "string",
                    "example" : "EXPIRING or EXPIRED"
				},
                "paymentCardAlias": {
					"description": "Indicates token associated with the card number used by the customer. e.g  4023148901807370",
					"type": "string",
                    "example" : "4023148901807370"
				},
				"cardHolderAddress": {
					"$ref": "#/definitions/CardHolderAddress"
				},
				"status": {
					"description": "Provides Card instruments current status either valid or invalid after checking negative file. e.g VALID",
					"type": "string",
					"enum": [
						"VALID",
						"INVALID"
					]
				},
				"nickName": {
					"description": "Unique nickname given to card payment instrument. e.g my visa",
					"type": "string",
                    "example" : "my visa"
				},
				"updateTime": {
					"description": "Indicates the time when the payment instrumnt information was last updated. e.g 2018-08-01T21:57:20.994Z",
					"type": "string",
					"format": "date-time",
                    	"example": "2018-08-01T21:57:20.994Z"
				}
			}
		},
		"CardHolderAddress": {
			"type": "object",
			"description": "Card Address Object having the card holder address details.",
			"properties": {
				"addressCore": {
					"$ref": "#/definitions/AddressCore"
				}
			}
		},
		"SalesContext": {
			"type": "object",
			"description":"This field refers to the payment sales context",
			"properties": {
				"operatorId": {
					"description": "This property is not applicable for Search scenerio. It indicates the identifier of user/operator. e.g SAMSON",
					"type": "string",
					"example":"SAMSON"
				}
			}
		},
		"AddressCore": {
			"type": "object",
			"description": "Address Core Object having address details of the customer like house and street name,city name,zip etc",
			"properties": {
				"addressLine1": {
					"description": "Indicates the  Address Line1 that should include house number with street name. e.g 11950 sw garden pl",
					"type": "string",
					"example":"11950 sw garden pl"
				},
				"addressLine2": {
					"description": "Indicates the Address Line2 that contains additional details of the address Line 1. e.g Apt 201",
					"type": "string",
					"example":"Apt 201"
				},
				"cityName": {
					"description": "Indicates the city name. e.g Bellevue",
					"type": "string",
					"example":"Portland"
				},
				"stateCode": {
					"description": "Indicates the state code. e.g WA",
					"type": "string",
					"example":"OR"
				},
				"zip": {
					"description": "Inndicates the ZipCode. e.g 98043",
					"type": "string",
					"example":"97224"
				},
				"countryCode": {
					"description": "Indicates the Country Code. e.g US",
					"type": "string",
                    "example" : "US"
				}
			}
		},
		          "errors": {
    "type": "object",
    "properties": {
    "responseError": {
      "type": "array",
      "description" : "Array of Errors returned by the API",
      "items": {
      "$ref": "#/definitions/ResponseError"
      }
    }
    }
  },
		"PaymentInstrument": {
			"type": "object",
			"description":"PaymentInstrument Object having payment properties like bank details and card details of the customer",
			"properties": {
				"bankPayment": {
					"$ref": "#/definitions/BankPayment"
				},
				"paymentCard": {
					"$ref": "#/definitions/PaymentCard"
				}
			}
		},
		"StoredPaymentsRequest": {
			"type": "object",
			"description":"Request Object having fields that are to be passed in the payment request body to create a wallet.",
			"properties": {
				"salesContext": {
					"$ref": "#/definitions/SalesContext"
				},
				"payment": {
					"$ref": "#/definitions/Payment"
				},
				"customerReference": {
					"$ref": "#/definitions/CustomerReference"
				},
				"salesChannelReference": {
				  "$ref": "#/definitions/SalesChannelReference"
				}
			}
		},
		"StoredPaymentsSearchRequest": {
			"type": "object",
			"description":"Request Object having fields that are to be passed in the payment search request body to search for a wallet.",
			"properties": {
				"salesContext": {
					"$ref": "#/definitions/SalesContext"
				},
				"payment": {
					"$ref": "#/definitions/PaymentInSearchRequest"
				},
				"customerReference": {
					"$ref": "#/definitions/CustomerReference"
				},
				"salesChannelReference": {
				  "$ref": "#/definitions/SalesChannelReference"
				}
			}

		},
		"VerifyPaymentMethodRequest": {
			"type": "object",
			"description":"Request Object having fields that are to be passed in the request body for payment verification.",
			"properties": {
				"payment": {
					"$ref": "#/definitions/PaymentInVerifyRequest"
				}
			}

		},
		"StoredPaymentsDeleteRequest": {
			"type": "object",
			"description":"Request Object having fields are to be passed in the request body to delete a wallet.",
			"properties": {
				"salesContext": {
					"$ref": "#/definitions/SalesContext"
				},
				"payment": {
					"$ref": "#/definitions/PaymentInDeleteRequest"
				},
				"customerReference": {
					"$ref": "#/definitions/CustomerReference"
				},
				"salesChannelReference": {
				  "$ref": "#/definitions/SalesChannelReference"
				}
			}
		},

		"DeletePaymentInstrument": {
			"type": "object",
			"properties": {
				"bankPayment": {
					"$ref": "#/definitions/DeleteBankPayment"
				},
				"paymentCard": {
					"$ref": "#/definitions/DeletePaymentCard"
				}
			}
		},
		"VerifyPaymentInstrument": {
			"type": "object",
			"properties": {
				"bankPayment": {
					"$ref": "#/definitions/VerifyBankPayment"
				},
				"paymentCard": {
					"$ref": "#/definitions/VerifyPaymentCard"
				}
			}
		},
		"GetPaymentMethodsResponse": {
			"description": "Response Object having Payment instruments details from the wallet",
			"type": "object",
			"properties": {
				"customer": {
					"$ref": "#/definitions/Customer"
				},
				"reason": {
					"$ref": "#/definitions/Reason"
				},
				"statusBody": {
					"$ref": "#/definitions/StatusBody"
				},
				"status": {
					"$ref": "#/definitions/Status"
				},
				"payment": {
					"description": "Payment details",
					"type": "array",
					"items": {
						"$ref": "#/definitions/GetPaymentMethodsPayment"
					}
				}
			}
		},
		"VerifyPaymentMethodResponse": {
			"description": "Response Object having Verification details of Payment instrument",
			"type": "object",
			"properties": {
				"customer": {
					"$ref": "#/definitions/Customer"
				},
				"reason": {
					"$ref": "#/definitions/Reason"
				},
				"statusBody": {
					"$ref": "#/definitions/StatusBody"
				},
				"status": {
					"$ref": "#/definitions/Status"
				},
				"payment": {
					"description": "Refers to the response details related to the Payment verfication",
					"type": "array",
					"items": {
						"$ref": "#/definitions/VerifyPaymentMethodPayment"
					}
				}
			}
		},
		"GetPaymentMethodsPayment": {
			"type": "object",
			"description": "Response Payment Object with  details obtained for Payment search request",
			"properties": {
				"paymentInstrument": {
					"$ref": "#/definitions/PaymentInstrument"
				},
				"paymentMethod": {
					"$ref": "#/definitions/PaymentMethod"
				},
				"paymentMethodReference": {
					"description": "Describes the method of payment",
					"type": "object",
					"properties": {
						"paymentMethodCode": {
							"description": "Describes the type of the payment card such as CC - Credit Card,HD - Hybrid Debit,HC - Hybrid Credit,DC - Debit Card,PD - Prepaid Debit or PC - Prepaid Credit.",
							"type": "string",
							"example":"CC"
						},
						"autopayEnabledIndicator": {
							"description": "Indicates whether the payment method is enabled for automatic payment. true/false",
							"type": "string",
							"example":"false"
						},
						"defaultPaymentMethodIndicator": {
							"description": "Indicates if the payment instrument being used is the deault one. e.g false",
							"type": "boolean"
						}
					}
				},
				"verificationIndicator": {
					"description": "Indicates if the payment Instrument is verified. e.g false",
					"type": "boolean",
					"example":"false"
				},
				"migrationIndicator": {
					"description": "Indicate if the payment Instrument is migrated. e.g false",
					"type": "boolean",
					"example":"false"
				},
				"walletCapacity": {
					"description": "Indicates the number of payment methods allowed in the Digital Wallet. e.g 10",
					"type": "integer",
					"example":"100"
				},
				"walletId": {
					"description": "Unique wallet ID associated with the user wallet. e.g WT724c03b0369d1403 ",
					"type": "string",
					"example":"WT001901220759220570"
				},
				"walletSize": {
					"description": "Indicates the number of payment instruments present in the wallet. If the capacity is 10 then size can be less than or equal to 10. e.g 8",
					"type": "integer",
					"example":"1"
				},
				"memberIdType": {
					"description": "Indicates member id type of customer. e,g ORGA",
					"type": "string",
					"example": "ORGA",
					"pattern":"^([A-Z]{4})$"
				}
			}
		},
		"VerifyPaymentMethodPayment": {
			"type": "object",
			"description": "Response object with details related to the Payment verification",
			"properties": {
				"verificationIndicator": {
					"description": "To indicate if the Instrument is verified",
					"type": "boolean",
					"x-example": "true"
				},
				"memberId": {
					"description": "This is an optional field, used to indicate identification of customer. It could be MSISDN of customer or unique tmobiel id. e.g U-E59DD604-A1B2-4F3D-856E-A4A203312965",
					"type": "string",
					"example": "U-E59DD604-A1B2-4F3D-856E-A4A203312965"
				}
			}
		},
		"ResponseError": {
            "description": "Error Object with error information in a response.",
			"type": "object",
			"properties": {
				"code": {
                  "description": "Error code for the error occured",
					"type": "string",
					"pattern":"^[A-Za-z]*$",
					"minLength":1,
					"maxLength": 100,
					"example":"2160"
				},
				"userMessage": {
                    "description": "User friendly information to the user indicating what is the error about.",
					"type": "string",
					"pattern":"^[A-Za-z]*$",
					"minLength":1,
					"maxLength":2000,
					"example":"Invalid token"
				},
				"systemMessage": {
                  "description": "Message from the system indicating the actual error.",
					"type": "string",
					"pattern":"^[A-Za-z]*$",
					"minLength":1,
					"maxLength":2000,
					"example":"Invalid token"
				}
			}
		}
	},
	"parameters": {
		"AuthorizationParam": {
            "description": "Standard HTTP header. OAuth 2.0 access token with the authentication type set as Bearer. e.g Basic NU1vSDJ0VlBEOVBPSkdKUmlZR3pOckwzODQzU3U2RU46ZFRPN0hiTndBMDJyZ2VBdA==",
			"name": "Authorization",
			"in": "header",
			"required": true,
			"type": "string",
			"maxLength": 50,
			"pattern": "[bB]earer .*$",
			"x-example": "Bearer awcwedviwv=="
		},
		"Content-TypeParam": {
            "description": "Standard HTTP header. This entity header is used to indicate the media type of the resource. e.g application/json",
			"name": "Content-Type",
			"in": "header",
			"required": true,
			"type": "string",
			"maxLength": 50,
            "pattern": "^[a-zA-Z0-9_]/*$",
			"x-example": "application/json"
		},
		"AcceptParam": {
        "description": "Standard HTTP header. Content types that are acceptable for the response (default assumed application/json).e.g application/json",
			"name": "Accept",
			"in": "header",
			"required": false,
			"type": "string",
			"maxLength": 50,
            "pattern": "^[a-zA-Z0-9_]/*$",		
            "x-example": "application/json"
		},
		"applicationidParam": {
            "description": "Identifies the application, system, or tool that is being used to perform the transaction related to this request. e.g ACUI, ESERVICE, REBELLION etc",
			"name": "applicationid",
			"in": "header",
			"required": true,
			"type": "string",
			"maxLength": 50,
			"pattern": "^[a-zA-Z0-9_]/*$",
			"x-example": "CSM"
		},
		"channelidParam": {
            "description": "Identifies the business unit or sales channel for the Request. e.g CARE, WEB, RETAIL, IVR etc.",
			"name": "channelid",
			"in": "header",
			"required": true,
			"type": "string",
			"maxLength": 50,
			"pattern": "^[a-zA-Z0-9_]/*$",
			"x-example": "WEB or RETAIL or IVR or CARE"
		},
		"activityidParam": {
			"name": "activityid",
            "in": "header",
            "required": true,
            "description": "Unique id alphanumeric value generated and sent by the partner to identify every the service request uniquely. e.g XyzA:D1s5s1i-X6AFRvfiPBfs-1234",
            "x-example": "XyzA:D1s5s1i-X6AFRvfiPBfs-1234",
            "pattern": "^[a-zA-Z0-9_]*$",
            "type": "string"
		},
         "Access-Control-Request-HeadersParam": {
            "name": "Access-Control-Request-Headers",
            "in": "header",
            "required": false,
            "description": "Standard HTTP header. Indicates which headers will be used in the actual request as part of a preflight request. e.g Content-type",
            "x-example": "Content-type",
            "type": "string"
         },
          "Access-Control-Request-MethodParam": {
            "name": "Access-Control-Request-Method",
            "in": "header",
            "required": false,
            "description": "Standard HTTP header. Indicates which method will be used in the actual request as part of a preflight request. e.g POST",
            "x-example": "POST",
            "type": "string"
         }
	},
	"securityDefinitions": {
		"Oauth2": {
			"type": "oauth2",
			"description": "When you sign up for an account, you are given your first API key.\nTo do so please follow this link: https://www.t-mobile.com/site/signup/\nAlso you can generate additional API keys, and delete API keys (as you may\nneed to rotate your keys in the future).\n",
			"tokenUrl": "https://dlab03.core.op.api.t-mobile.com:443/devportal/oauth2/accesstoken?grant_type=client_credentials",
			"flow": "application",
			"scopes": {
				"payment:StoredPayment": "Stored Payments"
			}
		}
	}
}