@startuml
autonumber 1

skinparam titleBorderRoundCorner 15
skinparam titleBorderThickness 2
skinparam titleBorderColor red
skinparam titleBackgroundColor  Lightgreen
title Bulk Processor- Part 1
actor API_Partner
'comment: actor boundary control entity
note over API_Partner, APIGEE_Proxy
OAuth 2.0 Token Based Authentication
end note
note over API_Partner
required headers for all APIs
----
Content-Type : application/json
B2b-client : TEST
B2b-org : 7000000999999911111
Authorization : <OAuth2 access_token>
end note
note over API_Partner
(1) Bulk processor
end note
API_Partner->APIGEE_Proxy :  POST /b2b-experience/v1/bulk/bulkprocessor
note over API_Partner
BULK SIM SWAP
---
{
  "targetServiceName": "sim-swap",
  "requests": [
    {
      "orgId": "7000000999999911111",
      "logonId": "test01",
      "email": "test@t-mobile.com",      
      "newSim": "8901240109020050779",
      "reasonCode": "CR",
      "msisdn": "4252198948"
    }
  ]
}
end note
note over API_Partner
BULK SUSPEND
---
{
  "targetServiceName": "suspend-service",
  "requests": [
    {
    "orgId": "7000000999999911111",
    "msisdn": "4252198948",
     "ban": "985612345",
    "reasonCode": "RSQ",
    "validatorType": "VP",
    "suspendStartDate": "2018-02-20",
    "restoreDate": "2018-02-21",     
    "logonId": "test01",
    "email": "test@t-mobile.com",
    "dealerCode": "0000000"
   }
 ]
}
end note
note over API_Partner
BULK RESTORE
---
  {
  "targetServiceName": "restore-service",
  "requests": [
  {
    "orgId": "7000000999999911111",
    "msisdn": "4252198948",
    "ban": "985612345",
    "reasonCode": "RSQ", 
    "restoreDate": "2018-02-21", 
    "logonId": "test01",
    "email": "test@t-mobile.com",
    "dealerCode": "0000000"
  }
 ]
}
end note
note over API_Partner
BULK CHANGE MSISDN
---
 {
  "targetServiceName": "change-msisdn",
  "requests": 
[
{
  "ban":"985612345",
  "oldMsisdn":"4252198948",
  "orgId":"7000000999999911111",
  "reasonCode":"CR",
  "logonId":"test01",
  "email":"test@t-mobile.com"
  "npa":"248"
  "nxx":"123"	  
  }
 ]
}
end note
APIGEE_Proxy-[#0000FF]>API_Partner: Response : all the fields as seen in the response are returned
note over APIGEE_Proxy
 {
  "message": "New Request accepted:1234",
  "status": "SUCCESS",
  "token": "9999",
  "orderId": "900084847"
}
end note
note over API_Partner, APIGEE_Proxy
	Error Response On Any Call Will Terminate The Transaction
end note
@enduml
