@startuml
autonumber 1


skinparam titleBorderRoundCorner 15
skinparam titleBorderThickness 2
skinparam titleBorderColor red
skinparam titleBackgroundColor  Lightgreen
title Unbilled Usage Details - Subscribers
actor API_Partner
'comment: actor boundary control entity
note over API_Partner, APIGEE_Proxy
OAuth 2.0 Token Based Authentication
end note


note over API_Partner
(3) Unbilled Usage Details – Subscriber
---
required path parameters:
mobile-number= NTY3MzI4NjU5Mg==
---
required query parameters:
financialAccountNumberr=OTQ1NTQwNTUw
end note

API_Partner->APIGEE_Proxy :  GET /b2b-experience/v1/lines-of-service/NTY3MzI4NjU5Mg==/usage-details?financialAccountNumber=OTQ1NTQwNTUw



APIGEE_Proxy-[#0000FF]>API_Partner: Response {$.UsageDetailsOutputRecord.financialAccountNumber, $.UsageDetailsOutputRecord.data[], $.UsageDetailsOutputRecord.text[], $.UsageDetailsOutputRecord.voice[] }

note over APIGEE_Proxy
{
    "UsageDetailsOutputRecord": {
        "financialAccountNumber": "945540550",
        "data": [
            {
                "channelSeizureDate": "2019-03-02 14:24:15",
                "callType": "DATA",
                "bucket": [
                    {
                        "bucketService": "PB2HDAT1",
                        "bucketFeature": "FVGDAT"
                    }
                ],
                "ratedAmount": 0,
                "callVolume": 1.3525,
                "messageType": "0",
                "roamingIndicator": "H",
                "unitOfMeasure": "H",
                "usageCategory": "A"
            }

        ],
	"text": [
            {
                "callType": "TEXT",
                "channelSeizureDate": "2019-03-03 08:21:07",
                "destinationCity": "NEWBALTIMR",
                "destinationNumber": "5866849601",
                "destinationState": "MI",
                "direction": "1",
                "bucket": [
                    {
                        "bucketService": "BIZUTTP6",
                        "bucketFeature": "FMSMS"
                    }
                ],
                "ratedAmount": 0,
                "messageType": "0",
                "billLegend": "L",
                "origin": "T-Mobile (USA)",
                "roamingIndicator": "H",
                "unitOfMeasure": "S",
                "usageCategory": "A"
            }
        ],
        "voice": [
            {
                "callDuration": 1,
                "callType": "VOICE",
                "carrier": "278",
                "channelSeizureDate": "2019-03-02 17:01:25",
                "destinationCity": "1-800 #",
                "destinationNumber": "8004626260",
                "destinationState": "",
                "originCity": "Toledo",
                "originState": "OH",
                "bucket": [
                    {
                        "bucketService": "BIZUTTP6",
                        "bucketFeature": "UTOLT"
                    }
                ],
                "ratedAmount": 0,
                "billLegend": "H",
                "messageType": "A",
                "direction": "2",
                "origin": "T-Mobile (USA)",
                "roamingIndicator": "E",
                "unitOfMeasure": "M",
                "usageCategory": "B"
            }
        ]
    },
    "pagination": {
        "pageNumber": 0,
        "totalRecordCount": 590,
        "totalPages": 6,
        "pageSize": 100,
        "currentPageItems": 100
    },
    "status": "SUCCESS",
    "message": "Successfully fetched the Unbilled usage for the Subscriber"
}

end note


note over API_Partner, APIGEE_Proxy
	Error Response On Any Call Will Terminate The Transaction
end note
@enduml