@startuml
autonumber 1
skinparam titleBorderRoundCorner 15
skinparam titleBorderThickness 2
skinparam titleBorderColor red
skinparam titleBackgroundColor  Lightgreen
title Suspend Service - Part 2
actor API_Partner
'comment: actor boundary control entity
note over API_Partner, APIGEE_Proxy
OAuth 2.0 Token Based Authentication
end note
note over API_Partner
required headers for all APIs
----
Content-Type : application/json
B2b-client : TEST
B2b-org : 7000000999999911111
Authorization : <OAuth2 access_token>
end note
note over API_Partner
(4) Validate Suspend
---
required path param:
---
mobile-number=MTEwMDA3MTc5==
---
required query param:
---
org=7000000999999911111
reason-code=$.suspendReasons[].code
suspend-start-date=2019-06-21 (optional for reason-code=ELST)
restore-date=2019-06-23 (optional for reason-code=ELST)
validator-type=$.approverTypes[].code (optional for reason-code=ELST or MSS)
end note
API_Partner->APIGEE_Proxy :  GET /b2b-experience/v1/lines-of service/MTEwMDA3MTc5==/service-suspension-eligibility?org=7000000999999911111&reason-code=RSQ&suspend-start-date=2019-06-21&validator-type=VP&restore-date=2019-06-23	
APIGEE_Proxy-[#0000FF]>API_Partner: Response {$.status, $.ban, $.msisdn, $.reasonCode, $.suspendStartDate, $.restoreDate}
note over APIGEE_Proxy
{
  "status": "SUCCESS",
  "message": "Successfully validated Suspend request",
  "ban": 985612345,
  "msisdn": 9856123456,
  "reasonCode": "RSQ",
  "suspendStartDate": "2019-06-21",
  "restoreDate": "2019-06-23",
  "dealerCode": "0000000",  
  "commitEndDate": "2018-05-31-07:00"
}
end note
note over API_Partner
(5) Service Suspend
---
required path param:
---
mobile-number=MTEwMDA3MTc5==
---
required payload:
---
"orgId": 7000000999999911111
"ban": $.ban
"reasonCode": $.reasonCode
"suspendStartDate": $.suspendStartDate
"restoreDate": $.restoreDate (optional for reason-code=ELST)
"logonId": "AJhon4"
"email": "allen.jhon@company.com"
"dealerCode": "0000000"
"validatorType": $.approverTypes[].code (optional for reason-code=ELST or MSS)
end note
API_Partner->APIGEE_Proxy :  POST /b2b-experience/v1/lines-of-service/MTEwMDA3MTc5==/service-suspension
note over APIGEE_Proxy
{
  "orgId": "7000000999999911111",
  "ban": "985612345",
  "reasonCode": "RSQ",
  "suspendStartDate": "2019-06-21",
  "restoreDate": "2019-06-23",
  "extendContract": "True",
  "logonId": "AJhon4",
  "email": "allen.jhon@company.com",
  "dealerCode": "0000000",
  "validatorType": "B2B_MARKETING_MANAGER",
  "documentDetails": [
    {
      "documentId": 1234,
      "documentType": "SERVICE_AGREEMENT",
      "acceptedTimeStamp": "2018-05-31-07:00"
    }
  ]
}

end note
APIGEE_Proxy-[#0000FF]>API_Partner: Response {$.status, $.ban, $.orderId}
note over APIGEE_Proxy
{
  "status": "SUCCESS",
  "message": "Successfully validated Suspend request",
  "msisdn": "9856123456",
  "ban": "985612345",
  "suspendStartDate": "2019-06-21",
  "restoreDate": "2019-06-23",
  "dealerCode": "0000000",
  "oldContractDate": "2019-09-12",
  "newContractDate": "2019-11-24",
  "orderId": "123456",
  "orderItemId": "123456"
}
end note
note over API_Partner
(6) Bulk processing for Suspend
end note
API_Partner->APIGEE_Proxy :  POST /b2b-experience/v1/bulk/bulkprocessor
note over API_Partner
{
  "targetServiceName": "suspend-service",
  "requests": [{
    "orgId": "7000000999999911111",
    "msisdn": "9856123456",
     "ban": "985612345",
    "reasonCode": "RSQ", 
    "suspendStartDate": "2019-06-21",
    "restoreDate": "2019-06-23", (optional for ELST)    
    "logonId": "AJhon4",
    "email": "allen.jhon@company.com",
    "dealerCode": "0000000"
  }]
}
end note
APIGEE_Proxy-[#0000FF]>API_Partner: Response {$.status, $.paperWorkDate, $.totalNoOfSuspendedDays}
note over APIGEE_Proxy
{
"message": "New Request accepted:1234",
"status": "SUCCESS",
"token": "token",
"orderId": 1234
}
end note
note over API_Partner, APIGEE_Proxy
	Error Response On Any Call Will Terminate The Transaction
end note
@enduml