@startuml
autonumber 1

skinparam titleBorderRoundCorner 15
skinparam titleBorderThickness 2
skinparam titleBorderColor red
skinparam titleBackgroundColor  Lightgreen
title add or update cart address
actor API_Partner
'comment: actor boundary control entity
note over API_Partner, APIGEE_Proxy
OAuth 2.0 Token Based Authentication
end note

note over API_Partner
required headers for all APIs
----
Content-Type : application/json
B2b-client : TEST
B2b-org : 7000000999999911111
B2b-order-token : <<WBC Order token>>
Authorization : <OAuth2 access_token>
end note

note over API_Partner
(3)Add or Update address for the cart created
---
required Path URI
{cart-id} = 760508242
---
request body
{
  "credentials": {
    "logonId": "INSEEGO"
  },
  "contactFname": "Riley",
  "contactLname": "Smith",
  "shipToCompanyName": "",
  "shipToContactName": "",
  "address1": "135 EILEEN WAY",
  "address2": "Apt 123",
  "contactPhone": "9876543210",
  "contactEmail": "tmoPartnerTest@t-mobile.com",
  "addressOverride": false,
  "city": "SYOSSET",
  "state": "NY",
  "zipCode": 11791,
  "addressType": "C"
}
end note

API_Partner->APIGEE_Proxy :  POST/cart/{cart-id}/addresses

APIGEE_Proxy-[#0000FF]>API_Partner: Response : all the fields as seen in the response are returned

note over APIGEE_Proxy
 {
   "addressId": 9345185,
   "orderId": 715472250,
   "status": "SUCCESS",
   "suggestedAddress": {
     "address1": "",
     "address2": "",
     "city": "",
     "state": "",
     "zipCode": ""
   }
end note

note over API_Partner, APIGEE_Proxy
	Error Response On Any Call Will Terminate The Transaction
end note
@enduml
