{
    "swagger": "2.0",
    "info": {
        "title": "service-agreement-v3-soc",
        "description": "New  capability API will be built in in Service Agreement MS to list of regular and device services, validate and save service agreement.",
        "version": "1.0.0",
        "contact": {
            "name": "Amdocs Digital Billing",
            "url": "http://www.t-mobile.com",
            "email": "Sari.Elgabsi1@T-Mobile.com"
        },
        "license": {
            "name": "Proprietary software",
            "url": "https://en.wikipedia.org/wiki/Proprietary_software"
        },
        "termsOfService": "https://www.t-mobile.com/templates/popup.aspx?PAsset=Ftr_Ftr_TermsAndConditions",
        "x-createdBy": {
            "dateCreated": "Tue Feb 19 13:21:51 2019",
            "createdBy": "SARIE",
            "application": "Recite",
            "appVersion": "0.4.1.2721",
            "documentId": "3356f60c-f537-4c2a-83c7-06016286da4e",
            "status": "Conceptual - Initial",
            "classification": "1.0 Customer Interaction Management",
            "profile": "Core Business Capability Service",
            "serviceLayer": "Enterprise - Billing"
        }
    },
    "x-servers": [
        {
            "url": "http://127.0.0.1/",
            "description": "Test Server 1."
        }
    ],
    "tags": [
        {
            "name": "retrieveEffectiveServices",
            "description": ""
        }
    ],
    "host": "dev01.api.t-mobile.com",
    "basePath": "/billing/v2/service-agreement",
    "schemes": [
        "https"
    ],
    "paths": {
        "/billing/v2/service-agreement/effective-services": {
            "post": {
                "tags": [
                    "retrieveEffectiveServices"
                ],
                "x-api-pattern": "ExecuteFunction",
                "summary": "API to retrieve all effective services for subscribers under a BAN",
                "description": "Executes a Function.",
                "operationId": "retrieveEffectiveServices",
                "consumes": [
                    "application/json",
                    "application/xml"
                ],
                "produces": [
                    "application/json",
                    "application/xml"
                ],
                "parameters": [
                    {
                        "name": "RetrieveEffectiveServicesRequest",
                        "in": "body",
                        "description": "retrieveEffectiveServicess request object",
                        "required": true,
                        "schema": {
                            "$ref": "#/definitions/RetrieveEffectiveServicesRequest"
                        },
                        "x-example": {
                            "financialAccountNumber": "123456789",
                            "mobileNumber": [
                                "1234567890"
                            ],
                            "pdpIndicator": "true"
                        }
                    },
                    {
                        "name": "Accept",
                        "in": "header",
                        "description": "Preferred content type _ default to application/json",
                        "x-example": "application/json",
                        "required": false,
                        "type": "string",
                        "minLength": 1,
                        "maxLength": 256,
                        "pattern": "^[ \\S]+$"
                    },
                    {
                        "name": "Accept-Encoding",
                        "in": "header",
                        "description": "List of acceptable encodings. See HTTP compression.",
                        "x-example": "gzip,deflate",
                        "required": false,
                        "type": "string",
                        "minLength": 1,
                        "maxLength": 256,
                        "pattern": "^[\\S ]*$"
                    },
                    {
                        "name": "Accept-Language",
                        "in": "header",
                        "description": "List of acceptable human languages for response",
                        "x-example": "en-us,en;q=0.5",
                        "required": false,
                        "type": "string",
                        "minLength": 1,
                        "maxLength": 256,
                        "pattern": "^[\\S ]*$"
                    },
                    {
                        "name": "Authorization",
                        "in": "header",
                        "description": "The HTTP Authorization request header contains the credentials to authenticate a user agent with a server.",
                        "x-example": "Bearer mF_9.B5f-4.1JqM",
                        "required": true,
                        "type": "string",
                        "minLength": 1,
                        "maxLength": 256,
                        "pattern": "^[\\S ]+$"
                    },
                    {
                        "name": "Content-Type",
                        "in": "header",
                        "description": "The MIME type of this content",
                        "x-example": "text/xml",
                        "required": true,
                        "type": "string",
                        "minLength": 1,
                        "maxLength": 256,
                        "pattern": "^[ \\S]+$"
                    },
                    {
                        "name": "Date",
                        "in": "header",
                        "description": "The Date general HTTP header contains the date and time at which the message was originated.",
                        "x-example": "Mon, 05 Mar 2018 16:38:08 GMT",
                        "required": false,
                        "type": "string",
                        "format": "date-time",
                        "pattern": "^(Mon|Tue|Wed|Thu|Fri|Sat|Sun), [0-3]{1}[0-9]{1} (Jan|Feb|Mar|Apr|May|Jun|Jul|Aug|Sep|Oct|Nov|Dec) [1-3][0-9]{3} [0-2][0-9]:[0-6][0-9]:[0-6][0-9] GMT$"
                    },
                    {
                        "name": "activity-id",
                        "in": "header",
                        "description": "Unique id alphanumeric value generated and sent by the partner to identify every the service request uniquely. Sample: XyzA:D1s5s1i-X6AFRvfiPBfs-1234  Pass as is to downstream calls.",
                        "x-example": "c34e7acd-384b-4c22-8b02-ba3963682508",
                        "required": false,
                        "type": "string",
                        "minLength": 1,
                        "maxLength": 256,
                        "pattern": "^[\\S]*$"
                    },
                    {
                        "name": "interaction-id",
                        "in": "header",
                        "description": "Alphanumeric value represent a common transaction id across all calls made from UI, while completing all business activity needs of a particular customer.",
                        "x-example": "cc688d54-50d1-49d4-8c5d-95459d1172e8",
                        "required": false,
                        "type": "string",
                        "minLength": 1,
                        "maxLength": 256,
                        "pattern": "^[\\S]*$"
                    },
                    {
                        "name": "service-transaction-id",
                        "in": "header",
                        "description": "Request ID echoed back by server",
                        "x-example": "23409209723",
                        "required": false,
                        "type": "string",
                        "minLength": 1,
                        "maxLength": 256,
                        "pattern": "^[\\S]*$"
                    },
                    {
                        "name": "session-id",
                        "in": "header",
                        "description": "A value populated by the sender used to track the transactions that occur during a session, a long-lasting interaction that ismaintained by the sender.",
                        "x-example": "350b91ec-4a64-4b10-a3f3-a78c8db3924a",
                        "required": false,
                        "type": "string",
                        "minLength": 1,
                        "maxLength": 256,
                        "pattern": "^[\\S]*$"
                    },
                    {
                        "name": "timestamp",
                        "in": "header",
                        "description": "ms since 1/1/70 adjusted to GMT",
                        "x-example": "1524599536",
                        "required": false,
                        "type": "integer",
                        "format": "int64",
                        "minimum": 0,
                        "maximum": 999999999999,
                        "pattern": "^[\\d]*$"
                    },
                    {
                        "name": "workflow-id",
                        "in": "header",
                        "description": "Business Use Case",
                        "x-example": "ACTIVATION",
                        "required": false,
                        "type": "string",
                        "minLength": 1,
                        "maxLength": 256,
                        "pattern": "^[\\S]*$"
                    },
                    {
                        "name": "x-auth-originator",
                        "in": "header",
                        "description": "API chain initiating callers access token",
                        "x-example": "c34e7acd-384b-4c22-8b02-ba3963682508",
                        "required": false,
                        "type": "string",
                        "minLength": 1,
                        "maxLength": 256,
                        "pattern": "^[\\S]*$"
                    },
                    {
                        "name": "x-authorization",
                        "in": "header",
                        "description": "Contains Proof of Possession token generated by API caller",
                        "x-example": "c34e7acd-384b-4c22-8b02-ba3963682508",
                        "required": false,
                        "type": "string",
                        "minLength": 1,
                        "maxLength": 256,
                        "pattern": "^[\\S ]*$"
                    }
                ],
                "responses": {
                    "200": {
                        "description": "OK",
                        "schema": {
                            "$ref": "#/definitions/RetrieveEffectiveServicesResponse"
                        },
                        "headers": {
                            "Content-Encoding": {
                                "description": "The type of encoding used on the data",
                                "x-example": "gzip,deflate",
                                "type": "string",
                                "minLength": 1,
                                "maxLength": 15,
                                "pattern": "^[\\S]*$"
                            },
                            "Content-Length": {
                                "description": "Length of the response body in octets; not supported if Transfer-Endoding = chunked",
                                "x-example": "9112300000003",
                                "type": "integer",
                                "format": "int64",
                                "minimum": 0,
                                "pattern": "^[\\d]*$"
                            },
                            "Content-Type": {
                                "description": "The MIME type of this content",
                                "x-example": "text/xml",
                                "type": "string",
                                "minLength": 1,
                                "maxLength": 256,
                                "pattern": "^[ \\S]+$"
                            },
                            "Date": {
                                "description": "The Date general HTTP header contains the date and time at which the message was originated.",
                                "x-example": "Mon, 05 Mar 2018 16:38:08 GMT",
                                "type": "string",
                                "format": "date-time",
                                "pattern": "^(Mon|Tue|Wed|Thu|Fri|Sat|Sun), [0-3]{1}[0-9]{1} (Jan|Feb|Mar|Apr|May|Jun|Jul|Aug|Sep|Oct|Nov|Dec) [1-3][0-9]{3} [0-2][0-9]:[0-6][0-9]:[0-6][0-9] GMT$"
                            },
                            "Transfer-Encoding": {
                                "description": "The form of encoding used to safely transfer the entity to the user. Currently defined methods are: chunked, compress, deflate, gzip, identity.",
                                "x-example": "chunked",
                                "type": "string",
                                "minLength": 1,
                                "maxLength": 15,
                                "pattern": "^[\\S]*$"
                            },
                            "service-transaction-id": {
                                "description": "Request ID echoed back by server",
                                "x-example": "23409209723",
                                "type": "string",
                                "minLength": 1,
                                "maxLength": 256,
                                "pattern": "^[\\S]*$"
                            }
                        }
                    },
                    "400": {
                        "description": "Bad Request",
                        "schema": {
                            "$ref": "#/definitions/Error"
                        },
                        "examples": {
                            "application/json": {
                                "code": "400",
                                "userMessage": "Bad Request",
                                "systemMessage": "Bad Request",
                                "detailLink": "http://www.tmus.com"
                            }
                        },
                        "headers": {}
                    },
                    "401": {
                        "description": "Unauthorized",
                        "schema": {
                            "$ref": "#/definitions/Error"
                        },
                        "examples": {
                            "application/json": {
                                "code": "401",
                                "userMessage": "Unauthorized",
                                "systemMessage": "Unauthorized",
                                "detailLink": "http://www.tmus.com"
                            }
                        },
                        "headers": {}
                    },
                    "404": {
                        "description": "Resource not found",
                        "schema": {
                            "$ref": "#/definitions/Error"
                        },
                        "examples": {
                            "application/json": {
                                "code": "404",
                                "userMessage": "Resource not found",
                                "systemMessage": "Resource not found",
                                "detailLink": "http://www.tmus.com"
                            }
                        },
                        "headers": {}
                    },
                    "405": {
                        "description": "Method Not Allowed",
                        "schema": {
                            "$ref": "#/definitions/Error"
                        },
                        "examples": {
                            "application/json": {
                                "code": "405",
                                "userMessage": "Method Not Allowed",
                                "systemMessage": "Method Not Allowed",
                                "detailLink": "http://www.tmus.com"
                            }
                        },
                        "headers": {
                            "Allow": {
                                "description": "list of supported methods for URI",
                                "x-example": "GET",
                                "type": "string",
                                "minLength": 1,
                                "maxLength": 256,
                                "pattern": "^[\\S]*$"
                            },
                            "service-transaction-id": {
                                "description": "Request ID echoed back by server",
                                "x-example": "23409209723",
                                "type": "string",
                                "minLength": 1,
                                "maxLength": 256,
                                "pattern": "^[\\S]*$"
                            }
                        }
                    },
                    "409": {
                        "description": "Invalid data",
                        "schema": {
                            "$ref": "#/definitions/Error"
                        },
                        "examples": {
                            "application/json": {
                                "code": "409",
                                "userMessage": "Invalid data",
                                "systemMessage": "Invalid data",
                                "detailLink": "http://www.tmus.com"
                            }
                        },
                        "headers": {}
                    },
                    "415": {
                        "description": "Unsupported Media Type",
                        "schema": {
                            "$ref": "#/definitions/Error"
                        },
                        "examples": {
                            "application/json": {
                                "code": "415",
                                "userMessage": "Unsupported Media Type",
                                "systemMessage": "Unsupported Media Type",
                                "detailLink": "http://www.tmus.com"
                            }
                        },
                        "headers": {}
                    },
                    "500": {
                        "description": "System Error",
                        "schema": {
                            "$ref": "#/definitions/Error"
                        },
                        "examples": {
                            "application/json": {
                                "code": "500",
                                "userMessage": "System Error",
                                "systemMessage": "System Error",
                                "detailLink": "http://www.tmus.com"
                            }
                        },
                        "headers": {}
                    },
                    "503": {
                        "description": "Service unavailable",
                        "schema": {
                            "$ref": "#/definitions/Error"
                        },
                        "examples": {
                            "application/json": {
                                "code": "503",
                                "userMessage": "Service unavailable",
                                "systemMessage": "Service unavailable",
                                "detailLink": "http://www.tmus.com"
                            }
                        },
                        "headers": {}
                    }
                },
                "security": []
            }
        }
    },
    "definitions": {
        "Error": {
            "type": "object",
            "description": "As defined in http://api-standards.apps.px-npe01.cf.t-mobile.com/http/status-codes/error-response-format/",
            "required": [
                "code",
                "userMessage"
            ],
            "properties": {
                "code": {
                    "description": "A succinct, domain-specific, human-readable text string to identify the type of error for the given status code",
                    "example": "ProductNotFound",
                    "type": "string",
                    "pattern": "^[\\S ]+$"
                },
                "userMessage": {
                    "description": "A human-readable message describing the error.",
                    "example": "Failed to find product.",
                    "type": "string",
                    "pattern": "^[\\S ]+$"
                },
                "systemMessage": {
                    "description": "Text that provides a more detailed technical explanation of the error",
                    "example": "PRODUCT_NOT_FOUND",
                    "type": "string"
                },
                "detailLink": {
                    "description": "link to custom information providing greater detail on error or errors",
                    "example": "http://aaa.bbb.ccc/",
                    "type": "string"
                }
            }
        },
        "RetrieveEffectiveServicesRequest": {
            "type": "object",
            "description": "retrieveEffectiveServicess request object",
            "properties": {
                "financialAccountNumber": {
                    "description": "Financial account number.",
                    "example": "123456789",
                    "type": "integer",
                    "format": "int64"
                },
                "mobileNumber": {
                    "description": "An array of mobileNumber objects.",
                    "example": "1234567890",
                    "type": "array",
                    "items": {
                        "type": "integer",
                        "format": "int64",
                        "description": "A single instance of the mobileNumber object."
                    }
                },
                "pdpIndicator": {
                    "description": "if flag is set to true than API should return only PDP services for ban, otherwise all services will be returned",
                    "example": "true",
                    "type": "boolean"
                }
            }
        },
        "RetrieveEffectiveServicesResponse": {
            "type": "object",
            "properties": {
                "subscriberServiceInfo": {
                    "description": "An array of subscriberServicesInfo objects.",
                    "type": "array",
                    "items": {
                        "$ref": "#/definitions/SubscriberServiceInfo"
                    }
                },
                "financialAccountNumber": {
                    "description": "Financial account number.",
                    "type": "integer",
                    "format": "int64",
                    "example":"123456789"
                }
            }
        },
        "ServiceInfo": {
            "type": "object",
            "description": "An array of servicesInfo objects.",
            "properties": {
                "serviceClassification": {
                    "description": "service indicator",
                    "example": "pdp",
                    "type": "string"
                },
                "serviceDescription": {
                    "description": "service description",
                    "example": "1000 Incl WE Air min",
                    "type": "string"
                },
                "recurringCharge": {
                    "description": "Recurring charge.",
                    "example": "1.2",
                    "type": "number",
                    "format": "double"
                },
                "serviceCode": {
                    "description": "service code",
                    "example": "1000A12M",
                    "type": "string"
                },
                "serviceEffectiveDate": {
                    "description": "service start date",
                    "example":"Sun Nov 01 16:00:00 PST 2015",
                    "type": "string"
                },
                "serviceExpirationDate": {
                    "description": "service end date",
                    "example":"Sun Nov 01 16:00:00 PST 2015",
                    "type": "string"
                },
                "serviceSequenceId": {
                    "type": "integer",
                    "format": "int64",
                    "example": "676560130"
                }
            }
        },
        "SubscriberServiceInfo": {
            "type": "object",
            "description": "An array of SubscriberserviceInfo objects.",
            "properties": {
                "mobileNumber": {
                    "description": "Subscriber mobile number.",
                    "type": "integer",
                    "format": "int64",
                    "example":"0123456789"

                },
                "serviceInfo": {
                    "description": "An array of servicesInfo objects.",
                    "type": "array",
                    "items": {
                        "$ref": "#/definitions/ServiceInfo"
                    }
                }
            }
        }
    },
    "securityDefinitions": {
        "oauth2": {
            "type": "oauth2",
            "description": "oauth2 Authentication.",
            "tokenUrl": "https://host:env/v1/oauth2/accesstoken?grant_type=client_credentials",
            "flow": "application",
            "scopes": {}
        }
    }
}