@startuml
autonumber
title __SetUpPaymentArrangement__

participant Atlas
participant Apigee

box "DPS" #FFFFFF
    participant ManagePaymentMS
    participant DPSPaymentArrangementMS
    participant StoredPaymentMS
    participant StoredPaymentInstrumentsRepositoryV3
    
    participant PostOrderMS
end box

box "Samson" #FFFFFF
    participant PaymentArrangementMS
end box

box "OrderManagment" #FFFFFF
    participant CreateOrderSerivce
end box


alt Customer Confirm to Set Up Unsecured Payment Arrangment 
    Atlas -> Apigee :/payments/v3/mpi
    Apigee -> ManagePaymentMS :/payments/v3/mpi (amount,ban)
    ManagePaymentMS -> DPSPaymentArrangementMS :/payments/v3/PaymentArrangement
    alt Sedona Off flow   
        DPSPaymentArrangementMS -> PaymentArrangementMS :/samson/PaymentArrangement
        PaymentArrangementMS --> DPSPaymentArrangementMS : PaymentArrangmentResponse
    else Sedona On Flow
        DPSPaymentArrangementMS -> PostOrderMS :/payments/v3/postOrder
        PostOrderMS -> CreateOrderSerivce : submitOrder
        CreateOrderSerivce --> PostOrderMS : Order Response
        PostOrderMS --> DPSPaymentArrangementMS : Order Response
    end
    DPSPaymentArrangementMS --> ManagePaymentMS :  Payment Arrangement Response
    ManagePaymentMS --> Apigee : Manage Payment Response
    Apigee --> Atlas : Manage Payment Response
end


alt Customer Confirm to Set Up or Update Secured Payment Arrangment with new card or bank Account
    Atlas -> Apigee :/payments/v3/mpi
    Apigee -> ManagePaymentMS :/payments/v3/mpi (PaymentID)
    ManagePaymentMS -> DPSPaymentArrangementMS :/payments/v3/PaymentArrangement
    alt Sedona Off flow   
        DPSPaymentArrangementMS -> PaymentArrangementMS :/samson/PaymentArrangement
        PaymentArrangementMS --> DPSPaymentArrangementMS : PaymentArrangmentResponse
    else Sedona On Flow
        DPSPaymentArrangementMS -> PostOrderMS :/payments/v3/postOrder
        PostOrderMS -> CreateOrderSerivce : submitOrder
        CreateOrderSerivce --> PostOrderMS : Order Response
        PostOrderMS --> DPSPaymentArrangementMS : Order Response
    end
    DPSPaymentArrangementMS --> ManagePaymentMS :  Payment Arrangement Response
    alt Customer Accpeted wallet Terms Conditions
        ManagePaymentMS -> StoredPaymentMS :/payments/v3/spi/create
        StoredPaymentMS -> StoredPaymentInstrumentsRepositoryV3 :/retrieveWallet(BAN)
        StoredPaymentInstrumentsRepositoryV3 -->StoredPaymentMS : StoredPaymentInstrument Response
        StoredPaymentMS --> ManagePaymentMS : Response
    end
    ManagePaymentMS --> Apigee : Manage Payment Response
    Apigee --> Atlas : Manage Payment Response
end
alt Customer Confirm to Set Up or Update Payment Arrangment with Stored Payment Method
    Atlas -> Apigee :/payments/v3/mpi
    Apigee -> ManagePaymentMS :/payments/v3/mpi (Token)
    ManagePaymentMS -> DPSPaymentArrangementMS :/payments/v3/PaymentArrangement
    alt Sedona Off flow   
        DPSPaymentArrangementMS -> PaymentArrangementMS :/samson/PaymentArrangement
        PaymentArrangementMS --> DPSPaymentArrangementMS : PaymentArrangmentResponse
    else Sedona On Flow
        DPSPaymentArrangementMS -> PostOrderMS :/payments/v3/postOrder
        PostOrderMS -> CreateOrderSerivce : submitOrder
        CreateOrderSerivce --> PostOrderMS : Order Response
        PostOrderMS --> DPSPaymentArrangementMS : Order Response
    end
    DPSPaymentArrangementMS --> ManagePaymentMS :  Payment Arrangement Response
    ManagePaymentMS --> Apigee : Manage Payment Response
    Apigee --> Atlas : Manage Payment Response
end

@enduml