@startuml
autonumber
title __ Wallet Search__

participant Atlas

participant Apigee

box "DPS" #FFFFFF
   participant StoredPaymentInstrumentAPI
   database StoredPaymentInstrumentsRepositoryV3
end box

Atlas -> Apigee :/payments/v3/spi
Apigee -> StoredPaymentInstrumentAPI :/payments/v3/spi
StoredPaymentInstrumentAPI -> StoredPaymentInstrumentsRepositoryV3 :/retrieveWallet(BAN)
StoredPaymentInstrumentsRepositoryV3 -->StoredPaymentInstrumentAPI : StoredPaymentInstrument Response
StoredPaymentInstrumentAPI --> Apigee : Wallet Response
Apigee --> Atlas : Wallet Response
@enduml