{
  "swagger": "2.0",
  "info": {
    "description": "Inquire Affiliation Data",
    "version": "1.0.0",
    "title": "Inquire Affiliation Data",
    "termsOfService": "urn:tos",
    "contact": {
      "name": "SantoshPillai",
      "email": "santosh.pillai2@t-mobile.com"
    },
    "license": {
      "name": "Apache 2.0",
      "url": "http://www.apache.org/licenses/LICENSE-2.0"
    }
  },
  "schemes": [
    "https"
  ],
  "host": "dit01.api.t-mobile.com",
  "basePath": "/customer/v1/customer-segmentation",
  "tags": [
    {
      "name": "customer-account-segmentation-controller",
      "description": "Customer Account Segmentation Controller"
    }
  ],
  "paths": {
    "/customers/custom/lookupAffiliationInfo": {
      "post": {
        "tags": [
          "AffiliationInfoSearch"
        ],
        "summary": "query Affiliation info for given BAN,MSISDN",
        "description": "This API will lookup Affiliation info given BAN/MSISDN.",
        "operationId": "lookupaffiliationinfoUsingGET",
        "consumes": [
          "application/json"
        ],
        "security": [
          {
            "Oauth": []
          }
        ],
        "produces": [
          "application/json"
        ],
        "parameters": [
          {
            "name": "Authorization",
            "in": "header",
            "description": "authorization token for service",
            "required": true,
            "type": "string",
            "x-example": "Bearer ewazQl6SuKmQTN5PXCS24uqO7UxX",
            "pattern": "^Bearer [a-zA-Z0-9]*$'"
          },
          {
            "name": "applicationId",
            "in": "header",
            "description": "applicationId of calling application",
            "required": true,
            "type": "string",
            "x-example": "SecureId",
            "pattern": "^[a-zA-Z0-9]*$'"
          },
          {
            "name": "timeStamp",
            "in": "header",
            "description": "timeStamp",
            "required": false,
            "type": "string",
            "x-example": ""
          },
          {
            "name": "workflowId",
            "in": "header",
            "description": "workflowId",
            "required": false,
            "type": "string",
            "x-example": ""
          },
          {
            "name": "activityId",
            "in": "header",
            "description": "activityId - global GUID of transaction for auditing sent from calling app",
            "required": true,
            "type": "string",
            "x-example": "",
            "pattern": "'^[a-zA-Z0-9-]*$'"
          },
          {
            "name": "serviceTransactionId",
            "in": "header",
            "description": "serviceTransactionId",
            "required": false,
            "type": "string",
            "x-example": ""
          },
          {
            "name": "applicationUserId",
            "in": "header",
            "description": "applicationUserId - NTID or user identifier invoking service from UI",
            "required": false,
            "type": "string",
            "x-example": "SPILLAI99"
          },
          {
            "name": "senderId",
            "in": "header",
            "description": "senderId - Sender Id of Calling application",
            "required": true,
            "type": "string",
            "x-example": "Care or Retail or Web",
            "pattern": "^[a-zA-Z0-9]*$'"
          },
          {
            "name": "channelId",
            "in": "header",
            "description": "channelId - CHANNEL of calling application",
            "required": true,
            "type": "string",
            "x-example": "Care or Retail or Web",
            "pattern": "^[a-zA-Z0-9]*$'"
          },
          {
            "name": "clientId",
            "in": "header",
            "description": "clientId",
            "required": false,
            "type": "string",
            "x-example": ""
          },
          {
            "name": "sessionId",
            "in": "header",
            "description": "sessionId",
            "required": false,
            "type": "string",
            "x-example": ""
          },
          {
            "name": "interactionId",
            "in": "header",
            "description": "interactionId",
            "required": false,
            "type": "string",
            "x-example": ""
          },
          {
            "in": "body",
            "name": " AffiliationinfoSearchRequest",
            "description": "AffiliationinfoSearchRequest",
            "required": true,
            "schema": {
              "$ref": "#/definitions/AffiliationinfoSearchRequest"
            }
          }
        ],
        "responses": {
          "200": {
            "description": "OK",
            "schema": {
              "type": "array",
              "items": {
                "$ref": "#/definitions/AffiliationinfoSearchResponse"
              }
            },
            "headers": {
              "Cache-Control": {
                "description": "No cache indicators supported at this time. Samples: no-cache",
                "type": "string",
                "x-example": ""
              },
              "Content-Encoding": {
                "description": "The type of encoding used on the data",
                "type": "string",
                "x-example": ""
              },
              "Content-Language": {
                "description": "The natural language or languages of the intended audience for the enclosed content",
                "type": "string",
                "x-example": ""
              },
              "Content-Length": {
                "description": "The Content-Length header specifies the actual length of the returned payload.",
                "type": "string",
                "x-example": ""
              },
              "Content-Type": {
                "description": "The Content-Length header specifies the actual length of the returned payload.",
                "type": "string",
                "x-example": ""
              },
              "Date": {
                "description": "The date and time that the message was originated (in HTTP-date format as defined by RFC 7231 Date/Time Formats).",
                "type": "string",
                "format": "date-time",
                "x-example": ""
              },
              "ETag": {
                "description": "The ETag header specifies the unique entity tag value for the returned resource.",
                "type": "string",
                "x-example": ""
              },
              "Last-Modified": {
                "description": "The Last-Modified entity-header field indicates the date and time at which the origin server believes the variant was last modified.",
                "type": "string",
                "format": "date-time",
                "x-example": ""
              },
              "Transfer-Encoding": {
                "description": "The form of encoding used to safely transfer the entity to the user. Currently defined methods are: chunked, compress, deflate, gzip, identity.",
                "type": "string",
                "x-example": ""
              },
              "servicetransactionid": {
                "description": "Internal identifier for transaction tracking an individual transaction/API request within API platform. Don_t receive/don_t send to downstream",
                "type": "string",
                "x-example": ""
              }
            }
          },
          "400": {
            "description": "BAD Request",
            "schema": {
              "$ref": "#/definitions/errors"
            }
          },
          "401": {
            "description": "Unauthorized"
          },
          "403": {
            "description": "Forbidden"
          },
          "404": {
            "description": "No Segment data found for CustomerAccount Id/MSISDN",
            "schema": {
              "$ref": "#/definitions/errors"
            }
          },
          "500": {
            "description": "Internal Service Error",
            "schema": {
              "$ref": "#/definitions/errors"
            }
          }
        }
      }
    }
  },
  "definitions": {
    "VerificationError": {
      "description": "Error",
      "type": "object",
      "properties": {
        "code": {
          "description": "code",
          "type": "string"
        },
        "message": {
          "description": "systemMessage",
          "type": "string"
        },
        "propertyName": {
          "description": "userMessage",
          "type": "string"
        }
      }
    },
    "AffiliationinfoSearchResponse": {
      "description": "AffiliationinfoSearchResponse",
      "type": "object",
      "properties": {
        "customerAccountId": {
          "description": "Ban/Customer Account Id",
          "type": "string"
        },
        "affiliationType": {
          "description": "affiliationType",
          "type": "string",
          "x-value": 999999999
        },
        "sourceofAffiliation": {
          "description": "sourceofAffiliation ",
          "type": "string",
          "x-value": "DOD, SHEERID, REP"
        },
        "verificationAddedDate": {
          "description": "VerificationCreationDate, creation date of verification record ",
          "type": "string"
        },
        "verificationUpdatedDate": {
          "description": "VerificationUpdatedDate, last updated date of verification record ",
          "type": "string"
        },          
        "verificationApprovalDate": {
          "description": "VerificationApprovalDate ",
          "type": "string"
        },
        "verificationExpiryDate": {
          "description": "VerificationApprovalDate ",
          "type": "string",
          "x-value": "01-01-4700"
        },
        "verificationResult": {
          "description": "VerificationResult ",
          "type": "boolean",
          "x-value": "true or false"
        },
        "Lines": {
          "type": "array",
          "items": {
            "$ref": "#/definitions/ListofLines"
          }
        }
      }
    },
    "AffiliationinfoSearchRequest": {
      "description": "AffiliationinfoSearchRequest",
      "type": "object",
      "required": [
        "customerAccountId"
      ],
      "properties": {
        "customerAccountId": {
          "description": "Ban/Customer Account Id",
          "type": "string"
        },
        "msisdn": {
          "description": "msisdn - if msisdn is not provided pull affiliation data at BAN level as well as MSISDN level",
          "type": "string",
          "x-value": "1234567890"
        },
        "affiliationType": {
          "description": "affiliationType e.g Military - if affiliation type is not provided then pull all affilaiations for given BAN and/or MSISDN ",
          "type": "string",
          "x-value": "Military"
        }
      }
    },
    "errors": {
      "type": "object",
      "properties": {
        "errors": {
          "type": "array",
          "items": {
            "$ref": "#/definitions/Error"
          }
        }
      }
    },        
    "Error": {
      "description": "Used to pass error information in a response.",
      "type": "object",
      "properties": {
        "code": {
          "description": "Used to pass error codes",
          "type": "string"
        },
        "userMessage": {
          "description": "Use to pass human friendly information to the user.",
          "type": "string"
        },        
        "systemMessage": {
          "description": "Used to pass system information.",
          "type": "string"
        }
      }
    },    
    "ListofLines": {
      "description": "list of affiliations at line level",
      "type": "object",
      "properties": {
        "customerAccountId": {
          "description": "Ban/Customer Account Id",
          "type": "string"
        },
        "msisdn": {
          "description": "msisdn",
          "type": "string",
          "x-value": 1234567890
        },
        "affiliationType": {
          "description": "affiliationType",
          "type": "string",
          "x-value": 999999999
        },
        "affiliationSubType": {
          "description": "affiliationSubType",
          "type": "string"
        },
        "sourceofAffiliation": {
          "description": "sourceofAffiliation",
          "type": "string",
          "x-value": "Y"
        },
        "verificationResult": {
          "description": "VerificationResult ",
          "type": "boolean",
          "x-value": "true or false"
        },
        "verificationRequestId": {
          "description": "verificationRequestId ",
          "type": "string",
          "x-value": ""
        },
        "firstName": {
          "description": "firstName ",
          "type": "string",
          "x-value": ""
        },
        "lastName": {
          "description": "lastName ",
          "type": "string",
          "x-value": ""
        },
        "birthDate": {
          "description": "birthDate ",
          "type": "string",
          "x-value": ""
        },
        "status_start_date": {
          "description": "status_start_date, date when retired or became  a veteran",
          "type": "string",
          "x-value": ""
        },
        "email": {
          "description": "email ",
          "type": "string",
          "x-value": ""
        },
        "relationship": {
          "description": "relationship with Service Member",
          "type": "string",
          "x-value": ""
        },
        "organizationId": {
          "description": "organizationId",
          "type": "string",
          "x-value": ""
        },
        "organizationName": {
          "description": "organizationName",
          "type": "string",
          "x-value": ""
        },
        "uploadStatus": {
          "description": "uploadStatus. Possible values: IF verificationResults = False, uploadStatus = PENDING_REVIEW or uploadStatus = FAILED.  IF verificationResults = True, uploadStatus = NULL or uploadStatus = REVIEWED",
          "type": "string",
          "x-value": ""
        },
        "uploadAttemptCount": {
          "description": "uploadAttemptCount ",
          "type": "string",
          "x-value": ""
        },
        "verificationAddedDate": {
          "description": "VerificationCreationDate, creation date of verification record ",
          "type": "string"
        },
        "verificationUpdatedDate": {
          "description": "VerificationUpdatedDate, last updated date of verification record",
          "type": "string"
        },        
        "verificationApprovalDate": {
          "description": "VerificationApprovalDate ",
          "type": "string"
        },
        "verificationExpiryDate": {
          "description": "VerificationApprovalDate ",
          "type": "string",
          "x-value": "01-01-4700"
        },
        "verificationErrors": {
          "description": "if the verification is unccessful the message in this section will have the details for failure",
          "type": "array",
          "items": {
            "$ref": "#/definitions/VerificationError"
          }
        }
      }
    }
  },
  "securityDefinitions": {
    "Oauth": {
      "description": "Oauth",
      "type": "oauth2",
      "tokenUrl": "https://dlab03.core.op.api.t-mobile.com:443/v2/oauth2/accesstoken?grant_type=client_credentials",
      "flow": "application",
      "scopes": {}
    }
  }
}