{
	"swagger": "2.0",
	"info": {
		"description": "This the swagger-ui for pi-net",
		"version": "1.0.0",
		"title": "PiNet Swagger"
	},
	"basePath": "/api-docs",
	"tags": [
		{
			"name": "location",
			"description": "Adding and operations pertaining to locations"
		},
		{
			"name": "sector",
			"description": "Adding and operations pertaining to sectors"
		},
		{
			"name": "dashboard",
			"description": "Adding and operations pertaining to dashboard"
		}
	],
	"schemes": [
		"http"
	],
	"paths": {
		"/{device_id}/dashboard": {
			"get": {
				"tags": [
					"dashboard"
				],
				"summary": "Gets dashboard for a given device",
				"description": "Gets dashboard for a given device",
				"operationId": "getDashboard",
				"produces": [
					"application/json"
				],
				"parameters": [
					{
						"in": "path",
						"name": "device_id",
						"required": true,
						"type": "string",
						"description": "device id to get dashboard from"
					}
				],
				"responses": {
					"201": {
						"description": "succesfully got dashboard",
						"schema": {
							"type": "array",
							"items": {
								"$ref": "#/definitions/Dashboard"
							}
						}
					},
					"500": {
						"description": "Internal server error"
					}
				}
			},
			"post": {
				"tags": [
					"dashboard"
				],
				"summary": "Post a dashboard to a given device",
				"description": "Post dashboard to a given device",
				"operationId": "postDashboard",
				"consumes": [
					"application/json"
				],
				"produces": [
					"application/json"
				],
				"parameters": [
					{
						"in": "path",
						"name": "device_id",
						"required": true,
						"type": "string",
						"description": "device id to get dashboard from"
					},
					{
						"in": "body",
						"name": "body",
						"description": "Dashboard object",
						"required": true,
						"schema": {
							"$ref": "#/definitions/Dashboard"
						}
					}
				],
				"responses": {
					"201": {
						"description": "succesfully got location",
						"schema": {
							"type": "array",
							"items": {
								"$ref": "#/definitions/Status"
							}
						}
					},
					"400": {
						"description": "Bad request"
					},
					"500": {
						"description": "Internal server error"
					}
				}
			}
		},
		"/location": {
			"post": {
				"tags": [
					"location"
				],
				"summary": "Adding location",
				"description": "",
				"operationId": "addLocation",
				"consumes": [
					"application/json"
				],
				"produces": [
					"application/json"
				],
				"parameters": [
					{
						"in": "body",
						"name": "body",
						"description": "Location object",
						"required": true,
						"schema": {
							"$ref": "#/definitions/Location"
						}
					}
				],
				"responses": {
					"201": {
						"description": "succesfully got location",
						"schema": {
							"type": "array",
							"items": {
								"$ref": "#/definitions/Status"
							}
						}
					},
					"400": {
						"description": "Invalid input"
					}
				}
			},
			"get": {
				"tags": [
					"location"
				],
				"summary": "Gets list of locations",
				"description": "Gets a list of locations",
				"operationId": "getLocation",
				"produces": [
					"application/json"
				],
				"responses": {
					"201": {
						"description": "Successful operation",
						"schema": {
							"type": "array",
							"items": {
								"$ref": "#/definitions/Location"
							}
						}
					},
					"500": {
						"description": "Internal server error"
					}
				}
			}
		},
		"/location/{location_id}": {
			"put": {
				"tags": [
					"location"
				],
				"summary": "Adding location",
				"description": "Updates the location",
				"operationId": "updateLocation",
				"consumes": [
					"application/json"
				],
				"produces": [
					"application/json"
				],
				"parameters": [
					{
						"name": "location_id",
						"in": "path",
						"description": "Id of location to update",
						"required": true,
						"type": "string"
					},
					{
						"in": "body",
						"name": "body",
						"description": "Location object",
						"required": true,
						"schema": {
							"$ref": "#/definitions/LocationUpdate"
						}
					}
				],
				"responses": {
					"201": {
						"description": "Operation successfull",
						"schema": {
							"type": "array",
							"items": {
								"$ref": "#/definitions/Status"
							}
						}
					},
					"400": {
						"description": "Invalid input"
					}
				}
			}
		},
		"/{location_id}/sector": {
			"post": {
				"tags": [
					"sector"
				],
				"summary": "Adding sector",
				"description": "Adds a sector to a location",
				"operationId": "addSector",
				"consumes": [
					"application/json"
				],
				"produces": [
					"application/json"
				],
				"parameters": [
					{
						"name": "location_id",
						"in": "path",
						"description": "Id of location where sector lies in",
						"required": true,
						"type": "string"
					},
					{
						"in": "body",
						"name": "body",
						"description": "Sector object",
						"required": true,
						"schema": {
							"$ref": "#/definitions/Sector"
						}
					}
				],
				"responses": {
					"201": {
						"description": "succesfully got location",
						"schema": {
							"type": "array",
							"items": {
								"$ref": "#/definitions/Status"
							}
						}
					},
					"400": {
						"description": "Invalid input"
					}
				}
			},
			"get": {
				"tags": [
					"sector"
				],
				"summary": "Adding sector",
				"description": "Adds a sector to a location",
				"operationId": "getSector",
				"produces": [
					"application/json"
				],
				"parameters": [
					{
						"name": "location_id",
						"in": "path",
						"description": "Id of location where sector lies in",
						"required": true,
						"type": "string"
					}
				],
				"responses": {
					"201": {
						"description": "Successful operation",
						"schema": {
							"type": "array",
							"items": {
								"$ref": "#/definitions/Sector"
							}
						}
					},
					"400": {
						"description": "Invalid input"
					}
				}
			}
		},
		"/{location_id}/sector/{sector_id}": {
			"put": {
				"tags": [
					"sector"
				],
				"summary": "Adding location",
				"description": "Updates the location",
				"operationId": "updateSector",
				"consumes": [
					"application/json"
				],
				"produces": [
					"application/json"
				],
				"parameters": [
					{
						"name": "sector_id",
						"in": "path",
						"description": "Id of sector to update",
						"required": true,
						"type": "string"
					},
					{
						"name": "location_id",
						"in": "path",
						"description": "Id of location where sector lies in",
						"required": true,
						"type": "string"
					},
					{
						"in": "body",
						"name": "body",
						"description": "Sector object",
						"required": true,
						"schema": {
							"$ref": "#/definitions/SectorUpdate"
						}
					}
				],
				"responses": {
					"201": {
						"description": "succesfully got location",
						"schema": {
							"type": "array",
							"items": {
								"$ref": "#/definitions/Status"
							}
						}
					},
					"400": {
						"description": "Invalid input"
					}
				}
			}
		},
		"/{sector_id}/register": {
			"post": {
				"tags": [
					"sector"
				],
				"summary": "Registering devices",
				"description": "Registers device to a section",
				"operationId": "registerDevice",
				"consumes": [
					"application/json"
				],
				"produces": [
					"application/json"
				],
				"parameters": [
					{
						"name": "sector_id",
						"in": "path",
						"description": "id of the sector to register device to",
						"required": true,
						"type": "string"
					},
					{
						"name": "body",
						"in": "body",
						"description": "Device object",
						"required": true,
						"schema": {
							"$ref": "#/definitions/RegisterDevice"
						}
					}
				],
				"responses": {
					"201": {
						"description": "succesfully got location",
						"schema": {
							"type": "array",
							"items": {
								"$ref": "#/definitions/Status"
							}
						}
					},
					"400": {
						"description": "Invalid input"
					}
				}
			}
		},
		"/{sector_id}/unregister": {
			"post": {
				"tags": [
					"sector"
				],
				"summary": "Unegistering devices",
				"description": "unregisters device to a section",
				"operationId": "unregisterDevice",
				"consumes": [
					"application/json"
				],
				"produces": [
					"application/json"
				],
				"parameters": [
					{
						"name": "sector_id",
						"in": "path",
						"description": "id of the sector to register device to",
						"required": true,
						"type": "string"
					},
					{
						"name": "body",
						"in": "body",
						"description": "Device object",
						"required": true,
						"schema": {
							"$ref": "#/definitions/UnregisterDevice"
						}
					}
				],
				"responses": {
					"201": {
						"description": "succesfully got location",
						"schema": {
							"type": "array",
							"items": {
								"$ref": "#/definitions/Status"
							}
						}
					},
					"400": {
						"description": "Invalid input"
					}
				}
			}
		}
	},
	"definitions": {
		"UnregisterDevice": {
			"type": "object",
			"required": [
				"device_id"
			],
			"properties": {
				"device_id": {
					"type": "string",
					"description": "id of the device",
					"example": "38B012S3D"
				}
			}
		},
		"RegisterDevice": {
			"type": "object",
			"required": [
				"name",
				"device_id",
				"is_active",
				"created_by"
			],
			"properties": {
				"device_id": {
					"type": "string",
					"description": "id of the device",
					"example": "38B012S3D"
				},
				"name": {
					"type": "string",
					"description": "name of the device",
					"example": "Samsung tv"
				},
				"is_active": {
					"type": "integer",
					"format": "int64",
					"description": "Tells if this device is active or not. 1 for active, 0 inactive, 2 deleted",
					"enum": [
						1,
						2,
						0
					]
				},
				"created_by": {
					"type": "string",
					"description": "The creator of this device",
					"example": "SZeng1"
				}
			}
		},
		"Sector": {
			"type": "object",
			"required": [
				"name",
				"sector_id",
				"is_active",
				"created_by"
			],
			"properties": {
				"sector_id": {
					"type": "string",
					"description": "id of the sector",
					"example": "2NDFLRSE"
				},
				"name": {
					"type": "string",
					"description": "name of the sector",
					"example": "Second building second floor NE"
				},
				"is_active": {
					"type": "integer",
					"format": "int64",
					"description": "Tells if this location is active or not. 1 for active, 0 inactive, 2 deleted",
					"enum": [
						1,
						2,
						0
					]
				},
				"created_by": {
					"type": "string",
					"description": "The creator of this sector",
					"example": "SZeng1"
				}
			}
		},
		"SectorUpdate": {
			"type": "object",
			"required": [
				"name",
				"modified_by",
				"is_active"
			],
			"properties": {
				"name": {
					"type": "string",
					"example": "2NDFLRSE"
				},
				"is_active": {
					"type": "integer",
					"format": "int64",
					"description": "Tells if this location is active or not. 1 for active, 0 inactive, 2 deleted",
					"enum": [
						1,
						2,
						0
					]
				},
				"modified_by": {
					"type": "string",
					"example": "SZeng1"
				}
			}
		},
		"Status": {
			"type": "object",
			"properties": {
				"result": {
					"type": "string",
					"example": "Operation successfull"
				},
				"status": {
					"type": "string",
					"example": "OK"
				}
			}
		},
		"Location": {
			"type": "object",
			"required": [
				"name",
				"location_id",
				"is_active",
				"created_by"
			],
			"properties": {
				"location_id": {
					"type": "string",
					"example": "WASNQ"
				},
				"name": {
					"type": "string",
					"example": "Snoqualmie, Washington"
				},
				"is_active": {
					"type": "integer",
					"format": "int64",
					"description": "Tells if this location is active or not. 1 for active, 0 inactive, 2 deleted",
					"enum": [
						1,
						2,
						0
					]
				},
				"created_by": {
					"type": "string",
					"example": "SZeng1"
				}
			}
		},
		"LocationUpdate": {
			"type": "object",
			"required": [
				"name",
				"modified_by",
				"is_active"
			],
			"properties": {
				"name": {
					"type": "string",
					"example": "Snoqualmie, Washington"
				},
				"is_active": {
					"type": "integer",
					"format": "int64",
					"description": "Tells if this location is active or not. 1 for active, 0 inactive, 2 deleted",
					"enum": [
						1,
						2,
						0
					]
				},
				"modified_by": {
					"type": "string",
					"example": "SZeng1"
				}
			}
		},
		"Dashboard": {
			"type": "object",
			"required": [
				"action",
				"message",
				"slideShowInterval",
				"piSyncInterval",
				"embedConfigs"
			],
			"properties": {
				"action": {
					"type": "string",
					"example": "reload"
				},
				"message": {
					"type": "string",
					"example": "message"
				},
				"slideShowInterval": {
					"type": "integer",
					"format": "int64",
					"example": "120000",
					"description": "measured in milliseconds"
				},
				"piSyncInterval": {
					"type": "integer",
					"format": "int64",
					"example": "60000",
					"description": "measured in milliseconds"
				},
				"embedConfigs": {
					"type": "array",
					"items": {
						"$ref": "#/definitions/EmbedConfig"
					}
				}
			}
		},
		"EmbedConfig": {
			"type": "object",
			"required": [
				"embedId",
				"embedType",
				"tokenType",
				"id",
				"settings"
			],
			"properties": {
				"embedID": {
					"type": "integer",
					"format": "int64",
					"example": 1
				},
				"embedType": {
					"type": "string",
					"example": "reports"
				},
				"tokenType": {
					"type": "string",
					"example": "models.TokenType.Aad"
				},
				"id": {
					"type": "string",
					"example": "42e9z1wj"
				},
				"settings": {
					"type": "object",
					"properties": {
						"filterPaneEnabled": {
							"type": "boolean",
							"example": false
						},
						"navContentPaneEnabled": {
							"type": "boolean",
							"example": false
						}
					}
				}
			}
		},
		"ApiResponse": {
			"type": "object",
			"properties": {
				"code": {
					"type": "integer",
					"format": "int32"
				},
				"type": {
					"type": "string"
				},
				"message": {
					"type": "string"
				}
			}
		}
	},
	"externalDocs": {
		"description": "Find out more about Swagger",
		"url": "http://swagger.io"
	}
}