{
  "swagger": "2.0",
  "info": {
    "title": "UCC-QOE-Reporting",
    "description": "This is the API specification for UCC QOE Reportig",
    "version": "1.0.0",
    "contact": {
      "name": "Apigee/Documentation support",
      "email": "TFB_DTD_API_DEVOPS@T-Mobile.com"
    }
  },
  "host": "tmobileh-sb05.apigee.net",
  "schemes": [
    "https"
  ],
  "basePath": "/b2b-experience/v1/ucc-qoereporting",
  "x-servers": {
    "url": "tmobileh-sb05.apigee.net/b2b-experience/v1/ucc-qoereporting",
    "description": "server path"
  },
  "tags": [
    {
      "name": "QOE Reporting",
      "description": "QOE Reporting APIs"
    }
  ],
  "securityDefinitions": {
    "OauthSecurity": {
      "description": "security definition",
      "type": "oauth2",
      "flow": "accessCode",
      "authorizationUrl": "https://tmobileh-sb05.apigee.net/oauth/client_credential/accesstoken?grant_type=client_credentials",
      "tokenUrl": "https://tmobileh-sb05.apigee.net/oauth/client_credential/accesstoken?grant_type=client_credentials",
      "scopes": {
        "user": "User scope"
      }
    }
  },
  "produces": [
    "application/json"
  ],
  "paths": {
    "/usage/ucc-qoe-usage-call-visual": {
      "post": {
        "security": [
          {
            "OauthSecurity": [
              "user"
            ]
          }
        ],
        "x-api-pattern": "ExecuteFunction",
        "description": "The purpose of this API is to show the total number of UCC Voice/Video and Conference Calls for visual data.",
        "operationId": "postCallVisual",
        "summary": "ucc-qoe-usage-call-visual",
        "parameters": [
          {
            "$ref": "#/parameters/Accept"
          },
          {
            "$ref": "#/parameters/Content-Type"
          },
          {
            "$ref": "#/parameters/Authorization"
          }
        ],
        "tags": [
          "QOE Reporting"
        ],
        "responses": {
          "200": {
            "description": "Success (Ok)",
            "headers": {
              "Date": {
                "type": "string",
                "description": "Tue, 11 Sep 2018 20:42:21 GMT",
                "x-example": "Tue, 11 Sep 2018 20:42:21 GMT"
              },
              "Content-Type": {
                "type": "string",
                "description": "application/json;charset=UTF-8",
                "x-example": "application/json;charset=UTF-8"
              },
              "Cache-Control": {
                "type": "string",
                "description": "wether cache control is defined",
                "x-example": "no-cache"
              }
            },
            "schema": {
              "$ref": "#/definitions/usageCallVisual"
            },
            "examples": {
              "application/json": {
                "FAIL": "0",
                "CANCEL": "27",
                "date": "3/7/2019",
                "SUCCESS": "189",
                "Unknown": "0",
                "CALLTYPE": "OUT"
              }
            }
          }
        }
      }
    },
    "/dashboard/ucc-qoe-messages-visual": {
      "post": {
        "security": [
          {
            "OauthSecurity": [
              "user"
            ]
          }
        ],
        "x-api-pattern": "ExecuteFunction",
        "description": "The purpose of this API is to show UCC message details for visual format.",
        "operationId": "postMessageVisual",
        "summary": "ucc-qoe-messages-visual",
        "parameters": [
          {
            "$ref": "#/parameters/Accept"
          },
          {
            "$ref": "#/parameters/Content-Type"
          },
          {
            "$ref": "#/parameters/Authorization"
          }
        ],
        "tags": [
          "QOE Reporting"
        ],
        "responses": {
          "200": {
            "description": "Success (Ok)",
            "headers": {
              "Date": {
                "type": "string",
                "description": "Tue, 11 Sep 2018 20:42:21 GMT",
                "x-example": "Tue, 11 Sep 2018 20:42:21 GMT"
              },
              "Content-Type": {
                "type": "string",
                "description": "application/json;charset=UTF-8",
                "x-example": "application/json;charset=UTF-8"
              },
              "Cache-Control": {
                "type": "string",
                "description": "wether cache control is defined",
                "x-example": "no-cache"
              }
            },
            "schema": {
              "$ref": "#/definitions/messageVisual"
            },
            "examples": {
              "application/json": {
                "ERRORS": "5",
                "SUCCESS": "0",
                "date": "04/25/2019",
                "messageType": "originating"
              }
            }
          }
        }
      }
    },
    "/usage/ucc-qoe-usage-call-details": {
      "post": {
        "security": [
          {
            "OauthSecurity": [
              "user"
            ]
          }
        ],
        "x-api-pattern": "ExecuteFunction",
        "description": "The purpose of this API is to show UCC message details for visual format.",
        "operationId": "postCallDetail",
        "summary": "ucc-qoe-usage-call-details",
        "parameters": [
          {
            "$ref": "#/parameters/Accept"
          },
          {
            "$ref": "#/parameters/Content-Type"
          },
          {
            "$ref": "#/parameters/Authorization"
          }
        ],
        "tags": [
          "QOE Reporting"
        ],
        "responses": {
          "200": {
            "description": "Success (Ok)",
            "headers": {
              "Date": {
                "type": "string",
                "description": "Tue, 11 Sep 2018 20:42:21 GMT",
                "x-example": "Tue, 11 Sep 2018 20:42:21 GMT"
              },
              "Content-Type": {
                "type": "string",
                "description": "application/json;charset=UTF-8",
                "x-example": "application/json;charset=UTF-8"
              },
              "Cache-Control": {
                "type": "string",
                "description": "wether cache control is defined",
                "x-example": "no-cache"
              }
            },
            "schema": {
              "$ref": "#/definitions/callDetail"
            },
            "examples": {
              "application/json": {
                "locale": "US",
                "UserNetwork": "T-Mobile",
                "longitude": "NA",
                "UserConnection": "WWAN",
                "appVersionCode": "37",
                "appEnvironment": "Staging",
                "platform": "iOS",
                "state": "CONNECTED",
                "latitude": "NA",
                "osversion": "12.1",
                "transaction_id": "2814062E-D49B-45C1-9214-FC06F5538048",
                "UserDevice": "iPhone10,5",
                "Region": "null",
                "host": "0.0.0.0",
                "remoteip": "10.85.155.3",
                "date": "2019-05-18 19:31:50",
                "TransactionStatus": "FAIL",
                "sdkVersion": "5.2.5",
                "batteryLevel": "100",
                "reason": "",
                "session_id": "3E0CA4D2-0A0E-4134-A944-275256DE353C",
                "tr_duration": "803879",
                "Tenant": "prodtest",
                "location_timestamp": "NA",
                "appVersionName": "0.008.037"
              }
            }
          }
        }
      }
    },
    "/mos-visual": {
      "post": {
        "security": [
          {
            "OauthSecurity": [
              "user"
            ]
          }
        ],
        "x-api-pattern": "ExecuteFunction",
        "description": "The purpose of this API is to show the visual api for MOS scores.",
        "operationId": "postVisual",
        "summary": "mos visual",
        "parameters": [
          {
            "$ref": "#/parameters/Accept"
          },
          {
            "$ref": "#/parameters/Content-Type"
          },
          {
            "$ref": "#/parameters/Authorization"
          }
        ],
        "tags": [
          "QOE Reporting"
        ],
        "responses": {
          "200": {
            "description": "Success (Ok)",
            "headers": {
              "Date": {
                "type": "string",
                "description": "Tue, 11 Sep 2018 20:42:21 GMT",
                "x-example": "Tue, 11 Sep 2018 20:42:21 GMT"
              },
              "Content-Type": {
                "type": "string",
                "description": "application/json;charset=UTF-8",
                "x-example": "application/json;charset=UTF-8"
              },
              "Cache-Control": {
                "type": "string",
                "description": "wether cache control is defined",
                "x-example": "no-cache"
              }
            },
            "schema": {
              "$ref": "#/definitions/visual"
            },
            "examples": {
              "application/json": {
                "data": {
                  "date": "1/6/2019",
                  "avg_mos": "3.7949976921081543"
                }
              }
            }
          }
        }
      }
    },
    "/ucc-qoe-conference-mos-details": {
      "post": {
        "security": [
          {
            "OauthSecurity": [
              "user"
            ]
          }
        ],
        "x-api-pattern": "ExecuteFunction",
        "description": "The purpose of this API is to show the detailed MOS scores on a per User basis based on the calls they have been placing.",
        "operationId": "postConference",
        "summary": "conference mos details",
        "parameters": [
          {
            "$ref": "#/parameters/Accept"
          },
          {
            "$ref": "#/parameters/Content-Type"
          },
          {
            "$ref": "#/parameters/Authorization"
          },
          {
            "in": "body",
            "name": "conference",
            "description": "conference",
            "required": true,
            "schema": {
              "$ref": "#/definitions/conferenceRequest"
            }
          }
        ],
        "tags": [
          "QOE Reporting"
        ],
        "responses": {
          "200": {
            "description": "Success (Ok)",
            "headers": {
              "Date": {
                "type": "string",
                "description": "Tue, 11 Sep 2018 20:42:21 GMT",
                "x-example": "Tue, 11 Sep 2018 20:42:21 GMT"
              },
              "Content-Type": {
                "type": "string",
                "description": "application/json;charset=UTF-8",
                "x-example": "application/json;charset=UTF-8"
              },
              "Cache-Control": {
                "type": "string",
                "description": "wether cache control is defined",
                "x-example": "no-cache"
              }
            },
            "schema": {
              "$ref": "#/definitions/conference"
            },
            "examples": {
              "application/json": {
                "data": {
                  "rtc_jitter_keyword": "16",
                  "osUserAgent": "",
                  "rtc_packetsSent_keyword": "22944",
                  "rtc_bytesDiscardedOnSend_keyword": "0",
                  "rtc_mediaType_keyword": "audio",
                  "mos": "3.700000047683716",
                  "rtc_packetsReceived_keyword": "22705",
                  "ipAddr": "192.168.0.7",
                  "rtc_ssrc_keyword": "44009915",
                  "rtc_samplingTime_keyword": "459",
                  "rtc_codecId_keyword": "OPUS",
                  "rtc_transportId_keyword": "1509050390",
                  "userAgent": "",
                  "rtc_audioLevel": "100",
                  "networkType": "Wi-Fi",
                  "date": "2019-03-30 23:58:05",
                  "rtc_droppedFrames_keyword": "2403",
                  "rtc_targetBitrate_keyword": "25000",
                  "rtc_roundTripTime": "0",
                  "rtc_bytesReceived_keyword": "1263631",
                  "rtc_bytesSent_keyword": "1170630",
                  "rtc_packetsDiscardedOnSend_keyword": "0",
                  "rtc_trackId_keyword": "3499627743",
                  "rtc_packetsLost_keyword": "2403",
                  "osUa": "Android 7.0",
                  "callId": "0AEE1B58BAEEDA3EABA42B32EBB3DFE0DEAD3F904E5F0E7D2E8A1FF00E6CAF508E4C4BAF0B8FFFF04E5D",
                  "clientId": "77E5FC05084CA1643D2CE606D2542E65FE59744FA204508DCFB62F1EB93530445035CCD",
                  "rtc_totalAudioEnergy": "100"
                }
              }
            }
          }
        }
      }
    },
    "/ucc-qoe-call-details": {
      "post": {
        "security": [
          {
            "OauthSecurity": [
              "user"
            ]
          }
        ],
        "x-api-pattern": "ExecuteFunction",
        "description": "This API  will show the results of calls placed by a user",
        "operationId": "postCallDetails",
        "summary": "qoe call details",
        "parameters": [
          {
            "$ref": "#/parameters/Accept"
          },
          {
            "$ref": "#/parameters/Content-Type"
          },
          {
            "$ref": "#/parameters/Authorization"
          },
          {
            "in": "body",
            "name": "call-details",
            "description": "call-details",
            "required": true,
            "schema": {
              "$ref": "#/definitions/callDetailRequest"
            }
          }
        ],
        "tags": [
          "QOE Reporting"
        ],
        "responses": {
          "200": {
            "description": "Success (Ok)",
            "headers": {
              "Date": {
                "type": "string",
                "description": "Tue, 11 Sep 2018 20:42:21 GMT",
                "x-example": "Tue, 11 Sep 2018 20:42:21 GMT"
              },
              "Content-Type": {
                "type": "string",
                "description": "application/json;charset=UTF-8",
                "x-example": "application/json;charset=UTF-8"
              },
              "Cache-Control": {
                "type": "string",
                "description": "wether cache control is defined",
                "x-example": "no-cache"
              }
            },
            "schema": {
              "$ref": "#/definitions/callDetailResponse"
            },
            "examples": {
              "application/json": {
                "data": [
                  {
                    "subscriptionId": "2?sip:1426@prodtest.pool5.ucc.t-mobile.com!0?14252298568",
                    "domain": "pol1.wrgsec.ucc.t-mobile.com",
                    "duration": "900",
                    "calledParty_averageJitter": "",
                    "calledParty_averagePacketLatency": "",
                    "calledParty_averagePacketSize": "",
                    "calledParty_maximumJitter": "",
                    "calledParty_mos": "",
                    "calledParty_totalPacketsLost": "",
                    "calledParty_totalRtpReceived": "",
                    "calledParty_totalRtpSent": "",
                    "callingParty_averageJitter": "",
                    "callingParty_averagePacketLatency": "",
                    "callingParty_averagePacketSize": "",
                    "callingParty_maximumJitter": "",
                    "callingParty_mos": "",
                    "callingParty_totalPacketsLost": "",
                    "callingParty_totalRtpReceived": "",
                    "callingParty_totalRtpSent": "",
                    "requestedPartyAddress": "sip:mcu-conference-focus@uccas2.pol.uccprod.t-mobile.com",
                    "userAgent": "Mozilla/5.0 (Windows NT 10.0; Win64; x64) AppleWebKit/537.36 (KHTML, like Gecko) Chrome/74.0.3729.169 Safari/537.36 WebClient Webrtc-Phone2 ConferenceFlow",
                    "recordClosureTime": "2019-06-01 00:14:04",
                    "recordExtensions": "??1?0??900?4?0000000000000000???msg.pc.t-mobile.com?sip:mcu-conference-focus@uccas2.pol.uccprod.t-mobile.com+?Mozilla/5.0 (Windows NT 10.0; Win64; x64) AppleWebKit/537.36 (KHTML, like Gecko) Chrome/74.0.3729.169 Safari/537.36 WebClient Webrtc-Phone2 ConferenceFlow??",
                    "recordOpeningTime": "2019-05-31 23:59:04",
                    "recordType": "900",
                    "routeHeaderReceived": "sip:pol1.wrgsec.ucc.t-mobile.com:5062;lr",
                    "routeHeaderTransmitted": "sip:uccasue.uccprodgeo.t-mobile.com;wrgOrig;orig;lr",
                    "sIPMethod": "INVITE",
                    "serviceDeliveryEndTimeStamp": "2019-06-01 00:14:04",
                    "serviceDeliveryEndTimeStampFraction": "911",
                    "serviceDeliveryStartTimeStamp": "2019-05-31 23:59:04",
                    "sessionId": "FA163E82AA52-6cff-499f4700-27dc-5cf07fcf-79328",
                    "serviceRequestTimeStamp": "2019-05-31 01:13:51",
                    "callType": "OUT",
                    "tenant": "prodtest",
                    "region": "West",
                    "called_Party_Address_tEL_URI": "",
                    "list_Of_Calling_Party_Address_sIP_URI": "sip:U-1d634454-0cc3-42f1-8df6-1adfa24e56c4@prodtest.pool5.ucc.t-mobile.com?",
                    "list_Of_Calling_Party_Address_tEL_URI": "/",
                    "serviceReasonReturnCode": "-1"
                  }
                ],
                "next": ""
              }
            }
          }
        }
      }
    },
    "/ucc-qoe-message-details": {
      "post": {
        "security": [
          {
            "OauthSecurity": [
              "user"
            ]
          }
        ],
        "x-api-pattern": "ExecuteFunction",
        "description": "This API  will show the UCC message details in detailed manner.",
        "operationId": "postMessageDetails",
        "summary": "qoe message details",
        "parameters": [
          {
            "$ref": "#/parameters/Accept"
          },
          {
            "$ref": "#/parameters/Content-Type"
          },
          {
            "$ref": "#/parameters/Authorization"
          },
          {
            "in": "body",
            "name": "message-details",
            "description": "message-details",
            "required": true,
            "schema": {
              "$ref": "#/definitions/messageDetailRequest"
            }
          }
        ],
        "tags": [
          "QOE Reporting"
        ],
        "responses": {
          "200": {
            "description": "Success (Ok)",
            "headers": {
              "Date": {
                "type": "string",
                "description": "Tue, 11 Sep 2018 20:42:21 GMT",
                "x-example": "Tue, 11 Sep 2018 20:42:21 GMT"
              },
              "Content-Type": {
                "type": "string",
                "description": "application/json;charset=UTF-8",
                "x-example": "application/json;charset=UTF-8"
              },
              "Cache-Control": {
                "type": "string",
                "description": "wether cache control is defined",
                "x-example": "no-cache"
              }
            },
            "schema": {
              "$ref": "#/definitions/messageDetailResponse"
            },
            "examples": {
              "application/json": {
                "data": [
                  {
                    "conversationId": "34643465353363352D643234342D343464662D623262342D653262353262663337643365",
                    "service_request_timestamp": "2019-06-19T23:57:22.000Z",
                    "called_tel_uri": "",
                    "service_response_timestamp": "2070-01-01T09:05:08.000Z",
                    "domainName": null,
                    "instanceId": "urn:uuid:48015afd-bd32-3fa8-8554-a99d7ab1ce01",
                    "recordSequenceNumber": "50550864",
                    "accessNetworkInformation": "6D73672E70632E742D6D6F62696C652E636F6D",
                    "session_id": "",
                    "serviceContextID": "SIMPLE_IM@openmobilealliance.org",
                    "servedParty_ipAddress": "",
                    "calling_tel_uri": "",
                    "http_host": "10.190.228.241:8180",
                    "calling_sip_uri": "U-5319895c-37ea-47e7-bca7-759416f80f71@prodtest.pool5.ucc.t-mobile.com",
                    "http_userAgent": "Jakarta Commons-HttpClient/3.1",
                    "contributionId": "66323333616335382D373538392D343737382D396562392D386364616636616333646334",
                    "messageType": "IN",
                    "called_sip_uri": "U-b6331064-5165-499c-a683-533542de4ef9@prodtest.pool5.ucc.t-mobile.com",
                    "service_reason_return_code": "0"
                  }
                ],
                "next": ""
              }
            }
          }
        }
      }
    },
    "/ucc-qoe-message-visual": {
      "post": {
        "security": [
          {
            "OauthSecurity": [
              "user"
            ]
          }
        ],
        "x-api-pattern": "ExecuteFunction",
        "description": "This API  will show UCC message details for visual format",
        "operationId": "postMessageVisualFormat",
        "summary": "qoe message Visual details",
        "parameters": [
          {
            "$ref": "#/parameters/Accept"
          },
          {
            "$ref": "#/parameters/Content-Type"
          },
          {
            "$ref": "#/parameters/Authorization"
          },
          {
            "in": "body",
            "name": "message-visual",
            "description": "message-visual",
            "required": true,
            "schema": {
              "$ref": "#/definitions/messageVisualRequest"
            }
          }
        ],
        "tags": [
          "QOE Reporting"
        ],
        "responses": {
          "200": {
            "description": "Success (Ok)",
            "headers": {
              "Date": {
                "type": "string",
                "description": "Tue, 11 Sep 2018 20:42:21 GMT",
                "x-example": "Tue, 11 Sep 2018 20:42:21 GMT"
              },
              "Content-Type": {
                "type": "string",
                "description": "application/json;charset=UTF-8",
                "x-example": "application/json;charset=UTF-8"
              },
              "Cache-Control": {
                "type": "string",
                "description": "wether cache control is defined",
                "x-example": "no-cache"
              }
            },
            "schema": {
              "$ref": "#/definitions/messageVisualResponse"
            },
            "examples": {
              "application/json": {
                "data": [
                  {
                    "date": "01/01/2019",
                    "originating": "0",
                    "terminating": "0"
                  }
                ],
                "next": ""
              }
            }
          }
        }
      }
    },
    "/ucc-qoe-call-visual": {
      "post": {
        "security": [
          {
            "OauthSecurity": [
              "user"
            ]
          }
        ],
        "x-api-pattern": "ExecuteFunction",
        "description": "This API  will show UCC call visual details in detailed manner.",
        "operationId": "postCallVisualFormat",
        "summary": "qoe call Visual details",
        "parameters": [
          {
            "$ref": "#/parameters/Accept"
          },
          {
            "$ref": "#/parameters/Content-Type"
          },
          {
            "$ref": "#/parameters/Authorization"
          },
          {
            "in": "body",
            "name": "call-visual",
            "description": "call-visual",
            "required": true,
            "schema": {
              "$ref": "#/definitions/callVisualRequest"
            }
          }
        ],
        "tags": [
          "QOE Reporting"
        ],
        "responses": {
          "200": {
            "description": "Success (Ok)",
            "headers": {
              "Date": {
                "type": "string",
                "description": "Tue, 11 Sep 2018 20:42:21 GMT",
                "x-example": "Tue, 11 Sep 2018 20:42:21 GMT"
              },
              "Content-Type": {
                "type": "string",
                "description": "application/json;charset=UTF-8",
                "x-example": "application/json;charset=UTF-8"
              },
              "Cache-Control": {
                "type": "string",
                "description": "wether cache control is defined",
                "x-example": "no-cache"
              }
            },
            "schema": {
              "$ref": "#/definitions/callVisualResponse"
            },
            "examples": {
              "application/json": {
                "data": [
                  {
                    "date": "01/01/2019",
                    "originating": "0",
                    "terminating": "0",
                    "unknown": "0"
                  }
                ],
                "next": ""
              }
            }
          }
        }
      }
    }
  },
  "parameters": {
    "Accept": {
      "name": "Accept",
      "in": "header",
      "description": "+   The request header must contain the Accept element.\n\n\n+   Accept header is used by HTTP clients to tell the server what content types they'll accept\n\n\n+   The default value is *'application/json'*.",
      "required": true,
      "type": "string",
      "x-example": "application/json",
      "enum": [
        "application/json"
      ]
    },
    "Cache-Control": {
      "name": "Cache-Control",
      "in": "header",
      "description": "+   no-cache",
      "required": false,
      "type": "string",
      "x-example": false,
      "enum": [
        false
      ]
    },
    "Content-Type": {
      "name": "Content-Type",
      "in": "header",
      "required": true,
      "description": "\n+   The request header must contain the Content-Type element. \n\n\n+ In HTTP requests, API clients must specify the format in which the\n      data is submitted.\n\n\n\n+   The default value is *'application/json'*.",
      "type": "string",
      "x-example": "application/json",
      "enum": [
        "application/json"
      ]
    },
    "Authorization": {
      "name": "Authorization",
      "in": "header",
      "description": "+   The request header must contain a valid access token generated by APIGEE.\n\n\n+   The access token is environment specific and is generated dynamically.\n\n\n+   It is mandatory to be passed in the request parameter for authentication.\n\n\n+   The sample Value is *'EGQ94pYxAzk2JRmSoW1GTZifPAJI'*.",
      "required": true,
      "type": "string",
      "x-example": false,
      "enum": [
        false
      ]
    }
  },
  "definitions": {
    "callDetailRequest": {
      "type": "object",
      "description": "Request payload details",
      "properties": {
        "fromtimestamp": {
          "type": "string",
          "description": "The time stamp from which the call is placed",
          "example": "2018-07-01T00:00:00"
        },
        "totimestamp": {
          "type": "string",
          "description": "The time stamp until which the call is placed",
          "example": "2018-07-01T00:00:00"
        },
        "tenant": {
          "type": "array",
          "description": "An array of Tenant Id/Enterprise Id",
          "items": {
            "type": "string",
            "description": "Tenant Id/Enterprise Id",
            "example": "1-3R5P8ZZ"
          }
        },
        "email": {
          "type": "array",
          "description": "An array of contact email address",
          "items": {
            "type": "string",
            "description": "Email Id",
            "example": "abc@xzy.com"
          }
        },
        "phone": {
          "type": "array",
          "description": "An array of phone number",
          "items": {
            "type": "string",
            "description": "10 digit valid phone number",
            "example": "9432897654"
          }
        },
        "callType": {
          "type": "array",
          "description": "The call type placed",
          "items": {
            "type": "string",
            "description": "The call type placed",
            "example": "originating terminating",
            "enum": [
              "originating",
              "terminating"
            ]
          }
        },
        "limit": {
          "type": "string",
          "description": "The limit assigned for call placement",
          "example": "10000"
        },
        "next": {
          "type": "string",
          "description": "next value from current response",
          "example": ""
        },
        "sortdatetime": {
          "type": "string",
          "description": "Sort the data based on date and time. It can be Ascending or Descending",
          "example": "ASC",
          "enum": [
            "ASC DESC"
          ]
        }
      }
    },
    "messageDetailRequest": {
      "type": "object",
      "description": "Request payload details",
      "properties": {
        "fromtimestamp": {
          "type": "string",
          "description": "The time stamp from which the message is placed",
          "example": "2018-06-01T00:00:00"
        },
        "totimestamp": {
          "type": "string",
          "description": "The time stamp until which the message is placed",
          "example": "2019-09-12T00:59:59"
        },
        "region": {
          "type": "array",
          "description": "An array of region",
          "items": {
            "type": "string",
            "description": "region",
            "example": ""
          }
        },
        "tenant": {
          "type": "array",
          "description": "An array of Tenant Id/Enterprise Id",
          "items": {
            "type": "string",
            "description": "Tenant Id/Enterprise Id",
            "example": "1-3R5P8ZZ"
          }
        },
        "client": {
          "type": "array",
          "description": "client list array",
          "items": {
            "type": "string",
            "description": "client",
            "example": ""
          }
        },
        "clientVersion": {
          "type": "array",
          "description": "client version array",
          "items": {
            "type": "string",
            "description": "client version",
            "example": ""
          }
        },
        "status": {
          "type": "string",
          "description": "Provisde the status",
          "example": ""
        },
        "messagetype": {
          "type": "array",
          "description": "The message type placed",
          "items": {
            "type": "string",
            "description": "The message type placed",
            "example": "originating terminating",
            "enum": [
              "originating",
              "terminating"
            ]
          }
        },
        "limit": {
          "type": "string",
          "description": "The limit assigned for message placement",
          "example": "50"
        },
        "email": {
          "type": "array",
          "description": "An array of contact email address",
          "items": {
            "type": "string",
            "description": "Email Id",
            "example": "abc@xzy.com"
          }
        },
        "phone": {
          "type": "array",
          "description": "An array of phone number",
          "items": {
            "type": "string",
            "description": "10 digit valid phone number",
            "example": "9432897654"
          }
        },
        "sortdatetime": {
          "type": "string",
          "description": "Sort the data based on date and time. It can be Ascending or Descending",
          "example": "ASC",
          "enum": [
            "ASC DESC"
          ]
        },
        "next": {
          "type": "string",
          "description": "next value from current response",
          "example": ""
        }
      }
    },
    "messageVisualRequest": {
      "type": "object",
      "description": "Request payload details",
      "properties": {
        "fromtimestamp": {
          "type": "string",
          "description": "The time stamp from which the message is placed",
          "example": "2018-06-01T00:00:00"
        },
        "totimestamp": {
          "type": "string",
          "description": "The time stamp until which the message is placed",
          "example": "2019-09-12T00:59:59"
        },
        "tenant": {
          "type": "array",
          "description": "An array of Tenant Id/Enterprise Id",
          "items": {
            "type": "string",
            "description": "Tenant Id/Enterprise Id",
            "example": "1-3R5P8ZZ"
          }
        },
        "email": {
          "type": "array",
          "description": "An array of contact email address",
          "items": {
            "type": "string",
            "description": "Email Id",
            "example": "abc@xzy.com"
          }
        },
        "phone": {
          "type": "array",
          "description": "An array of phone number",
          "items": {
            "type": "string",
            "description": "10 digit valid phone number",
            "example": "9432897654"
          }
        },
        "calltype": {
          "type": "array",
          "description": "The call type placed",
          "items": {
            "type": "string",
            "description": "The message type placed",
            "example": "originating terminating",
            "enum": [
              "originating",
              "terminating"
            ]
          }
        },
        "limit": {
          "type": "string",
          "description": "The limit assigned for message placement",
          "example": "50"
        },
        "sortdatetime": {
          "type": "string",
          "description": "Sort the data based on date and time. It can be Ascending or Descending",
          "example": "ASC",
          "enum": [
            "ASC DESC"
          ]
        },
        "next": {
          "type": "string",
          "description": "next value from current response",
          "example": ""
        }
      }
    },
    "callVisualRequest": {
      "type": "object",
      "description": "Request payload details",
      "properties": {
        "fromtimestamp": {
          "type": "string",
          "description": "The time stamp from which the message is placed",
          "example": "2018-06-01T00:00:00"
        },
        "totimestamp": {
          "type": "string",
          "description": "The time stamp until which the message is placed",
          "example": "2019-09-12T00:59:59"
        },
        "tenant": {
          "type": "array",
          "description": "An array of Tenant Id/Enterprise Id",
          "items": {
            "type": "string",
            "description": "Tenant Id/Enterprise Id",
            "example": "1-3R5P8ZZ"
          }
        },
        "email": {
          "type": "array",
          "description": "An array of contact email address",
          "items": {
            "type": "string",
            "description": "Email Id",
            "example": "abc@xzy.com"
          }
        },
        "phone": {
          "type": "array",
          "description": "An array of phone number",
          "items": {
            "type": "string",
            "description": "10 digit valid phone number",
            "example": "9432897654"
          }
        },
        "calltype": {
          "type": "array",
          "description": "The call type placed",
          "items": {
            "type": "string",
            "description": "The message type placed",
            "example": "originating terminating",
            "enum": [
              "originating",
              "terminating"
            ]
          }
        },
        "limit": {
          "type": "string",
          "description": "The limit assigned for message placement",
          "example": "50"
        },
        "sortdatetime": {
          "type": "string",
          "description": "Sort the data based on date and time. It can be Ascending or Descending",
          "example": "ASC",
          "enum": [
            "ASC DESC"
          ]
        },
        "next": {
          "type": "string",
          "description": "next value from current response",
          "example": ""
        }
      }
    },
    "messageVisualResponse": {
      "type": "object",
      "description": "Response payload details",
      "properties": {
        "data": {
          "type": "array",
          "description": "An array of response data",
          "items": {
            "type": "object",
            "description": "Data object details",
            "properties": {
              "date": {
                "type": "string",
                "description": "DateTime the transaction got triggered",
                "example": "01/01/2019"
              },
              "originating": {
                "type": "number",
                "description": "Originating count",
                "example": "0"
              },
              "terminating": {
                "type": "string",
                "description": "Terminating Count",
                "example": "0"
              }
            }
          }
        },
        "next": {
          "type": "string",
          "description": "Value for the upcoming response",
          "example": "Value for the upcoming response"
        }
      }
    },
    "callVisualResponse": {
      "type": "object",
      "description": "Response payload details",
      "properties": {
        "data": {
          "type": "array",
          "description": "An array of response data",
          "items": {
            "type": "object",
            "description": "Data object details",
            "properties": {
              "date": {
                "type": "string",
                "description": "DateTime the transaction got triggered",
                "example": "01/01/2019"
              },
              "originating": {
                "type": "number",
                "description": "Originating count",
                "example": "0"
              },
              "terminating": {
                "type": "string",
                "description": "Terminating Count",
                "example": "0"
              },
              "unknown": {
                "type": "number",
                "description": "unknown count",
                "example": "0"
              }
            }
          }
        },
        "next": {
          "type": "string",
          "description": "Value for the upcoming response",
          "example": "Value for the upcoming response"
        }
      }
    },
    "callDetailResponse": {
      "type": "object",
      "description": "Response payload details",
      "properties": {
        "data": {
          "type": "array",
          "description": "An array of response data",
          "items": {
            "type": "object",
            "description": "Data object details",
            "properties": {
              "subscriptionId": {
                "type": "string",
                "description": "Field contains the subscription identifier",
                "example": "2?sip:1426@prodtest.pool5.ucc.t-mobile.com!0?14252298568"
              },
              "domain": {
                "type": "string",
                "description": "Field contains the domain. Time filter for calls",
                "example": "pol1.wrgsec.ucc.t-mobile.com"
              },
              "duration": {
                "type": "string",
                "description": "Field contains the call duration",
                "example": "900"
              },
              "calledParty_averageJitter": {
                "type": "string",
                "description": "called party jitter",
                "example": ""
              },
              "calledParty_averagePacketLatency": {
                "type": "string",
                "description": "Field contains the called party average packet latency",
                "example": ""
              },
              "calledParty_averagePacketSize": {
                "type": "string",
                "description": "Field contains the called party average packet size",
                "example": ""
              },
              "calledParty_maximumJitter": {
                "type": "string",
                "description": "Field contains the called party maximum jitter recorder",
                "example": ""
              },
              "calledParty_mos": {
                "type": "string",
                "description": "Field contains the called party mean opinion score",
                "example": ""
              },
              "calledParty_totalPacketsLost": {
                "type": "string",
                "description": "Field contains the called party total packet loss",
                "example": ""
              },
              "calledParty_totalRtpReceived": {
                "type": "string",
                "description": "Field contains the called party total RTP received",
                "example": ""
              },
              "calledParty_totalRtpSent": {
                "type": "string",
                "description": "Field contains the called party total RTP sent",
                "example": ""
              },
              "callingParty_averageJitter": {
                "type": "string",
                "description": "calling party jitter",
                "example": ""
              },
              "callingParty_averagePacketLatency": {
                "type": "string",
                "description": "Field contains the calling party average packet latency",
                "example": ""
              },
              "callingParty_averagePacketSize": {
                "type": "string",
                "description": "Field contains the calling party average packet size",
                "example": ""
              },
              "callingParty_maximumJitter": {
                "type": "string",
                "description": "Field contains the calling party maximum jitter recorder",
                "example": ""
              },
              "callingParty_mos": {
                "type": "string",
                "description": "Field contains the calling party mean opinion score",
                "example": ""
              },
              "callingParty_totalPacketsLost": {
                "type": "string",
                "description": "Field contains the calling party total packet loss",
                "example": ""
              },
              "callingParty_totalRtpReceived": {
                "type": "string",
                "description": "Field contains the calling party total RTP received",
                "example": ""
              },
              "callingParty_totalRtpSent": {
                "type": "string",
                "description": "Field contains the calling party total RTP sent",
                "example": ""
              },
              "requestedPartyAddress": {
                "type": "string",
                "description": "Field contains the requested party address",
                "example": "sip:mcu-conference-focus@uccas2.pol.uccprod.t-mobile.com"
              },
              "userAgent": {
                "type": "string",
                "description": "Field contains the userAgent",
                "example": "Mozilla/5.0 (Windows NT 10.0; Win64; x64) AppleWebKit/537.36 (KHTML, like Gecko) Chrome/74.0.3729.169 Safari/537.36 WebClient Webrtc-Phone2 ConferenceFlow"
              },
              "recordClosureTime": {
                "type": "string",
                "description": "Field contains the record closure time",
                "example": "2019-06-01 00:14:04"
              },
              "recordExtensions": {
                "type": "string",
                "description": "Field contains the record extensions",
                "example": "??1?0??900?4?0000000000000000???msg.pc.t-mobile.com?sip:mcu-conference-focus@uccas2.pol.uccprod.t-mobile.com+?Mozilla/5.0 (Windows NT 10.0; Win64; x64) AppleWebKit/537.36 (KHTML, like Gecko) Chrome/74.0.3729.169 Safari/537.36 WebClient Webrtc-Phone2 ConferenceFlow???"
              },
              "recordOpeningTime": {
                "type": "string",
                "description": "Field contains the record opening time",
                "example": "2019-05-31 23:59:04"
              },
              "recordType": {
                "type": "string",
                "description": "Field contains the filter for calls",
                "example": "900"
              },
              "routeHeaderReceived": {
                "type": "string",
                "description": "Field contains the routeHeaderReceived",
                "example": "sip:pol1.wrgsec.ucc.t-mobile.com:5062;lr"
              },
              "routeHeaderTransmitted": {
                "type": "string",
                "description": "Field contains the routeHeaderTransmitted",
                "example": "sip:uccasue.uccprodgeo.t-mobile.com;wrgOrig;orig;lr"
              },
              "sIPMethod": {
                "type": "string",
                "description": "Field contains the sipMethod",
                "example": "INVITE"
              },
              "serviceDeliveryEndTimeStamp": {
                "type": "string",
                "description": "Field contains the service Delivery End TimeStamp",
                "example": "2019-06-01 00:14:04"
              },
              "serviceDeliveryEndTimeStampFraction": {
                "type": "string",
                "description": "Field contains the service Delivery End TimeStamp Fraction",
                "example": "911"
              },
              "serviceDeliveryStartTimeStamp": {
                "type": "string",
                "description": "Field contains the service Delivery Start TimeStamp",
                "example": "2019-05-31 23:59:04"
              },
              "sessionId": {
                "type": "string",
                "description": "Field contains the sessionId",
                "example": "FA163E82AA52-6cff-499f4700-27dc-5cf07fcf-79328"
              },
              "serviceRequestTimeStamp": {
                "type": "string",
                "description": "DateTime the transaction got triggered",
                "example": "2019-05-31 01:13:51"
              },
              "callType": {
                "type": "string",
                "description": "Field contains the callType placed",
                "example": "OUT"
              },
              "tenant": {
                "type": "string",
                "description": "Field contains the tenant",
                "example": "prodtest"
              },
              "region": {
                "type": "string",
                "description": "Field contains the region",
                "example": "West"
              },
              "called_Party_Address_tEL_URI": {
                "type": "string",
                "description": "Field contains the called_Party_Address_tEL_URI",
                "example": ""
              },
              "list_Of_Calling_Party_Address_sIP_URI": {
                "type": "string",
                "description": "Field contains the list Of Calling Party Address sIP URI",
                "example": "sip:U-1d634454-0cc3-42f1-8df6-1adfa24e56c4@prodtest.pool5.ucc.t-mobile.com?"
              },
              "list_Of_Calling_Party_Address_tEL_URI": {
                "type": "string",
                "description": "Field contains the list Of Calling Party Address tEL URI",
                "example": "?"
              },
              "serviceReasonReturnCode": {
                "type": "string",
                "description": "Field contains Service code indicating success/ error",
                "example": "-1"
              }
            }
          }
        },
        "next": {
          "type": "string",
          "description": "Value for the upcoming response",
          "example": "Value for the upcoming response"
        }
      }
    },
    "messageDetailResponse": {
      "type": "object",
      "description": "Response payload details",
      "properties": {
        "data": {
          "type": "array",
          "description": "An array of response data",
          "items": {
            "type": "object",
            "description": "Data object details",
            "properties": {
              "conversationId": {
                "type": "string",
                "description": "Field contains the conversation identifier",
                "example": "34643465353363352D643234342D343464662D623262342D653262353262663337643365"
              },
              "service_request_timestamp": {
                "type": "string",
                "description": "DateTime the transaction got triggered",
                "example": "2019-06-19T23:57:22.000Z"
              },
              "called_tel_uri": {
                "type": "string",
                "description": "Field contains the called_tel_uri",
                "example": ""
              },
              "service_response_timestamp": {
                "type": "string",
                "description": "service_response_timestamp",
                "example": "2070-01-01T09:05:08.000Z"
              },
              "domainName": {
                "type": "string",
                "description": "Field contains the domainName",
                "example": null
              },
              "instanceId": {
                "type": "string",
                "description": "Field contains the instanceId",
                "example": "urn:uuid:48015afd-bd32-3fa8-8554-a99d7ab1ce01"
              },
              "recordSequenceNumber": {
                "type": "string",
                "description": "Field contains the recordSequenceNumber",
                "example": "50550864"
              },
              "accessNetworkInformation": {
                "type": "string",
                "description": "Field contains the accessNetworkInformation",
                "example": "6D73672E70632E742D6D6F62696C652E636F6D"
              },
              "session_id": {
                "type": "string",
                "description": "Field contains the session_id",
                "example": ""
              },
              "serviceContextID": {
                "type": "string",
                "description": "Field contains the serviceContextID",
                "example": "SIMPLE_IM@openmobilealliance.org"
              },
              "servedParty_ipAddress": {
                "type": "string",
                "description": "Field contains the servedParty_ipAddress",
                "example": ""
              },
              "calling_tel_uri": {
                "type": "string",
                "description": "calling_tel_uri",
                "example": ""
              },
              "http_host": {
                "type": "string",
                "description": "Field contains the host",
                "example": "10.190.228.241:8180"
              },
              "calling_sip_uri": {
                "type": "string",
                "description": "Field contains the calling_sip_uri",
                "example": "U-5319895c-37ea-47e7-bca7-759416f80f71@prodtest.pool5.ucc.t-mobile.com"
              },
              "http_userAgent": {
                "type": "string",
                "description": "Field contains http_userAgent",
                "example": "Jakarta Commons-HttpClient/3.1"
              },
              "contributionId": {
                "type": "string",
                "description": "Field contains the contributionId",
                "example": "66323333616335382D373538392D343737382D396562392D386364616636616333646334"
              },
              "messageType": {
                "type": "string",
                "description": "Field contains the messageType",
                "example": "IN"
              },
              "called_sip_uri": {
                "type": "string",
                "description": "Field contains the called_sip_uri",
                "example": "U-b6331064-5165-499c-a683-533542de4ef9@prodtest.pool5.ucc.t-mobile.com"
              },
              "service_reason_return_code": {
                "type": "string",
                "description": "Field contains Service code indicating success/ error",
                "example": "0"
              }
            }
          }
        },
        "next": {
          "type": "string",
          "description": "Value for the upcoming response",
          "example": "Value for the upcoming response"
        }
      }
    },
    "conferenceRequest": {
      "type": "object",
      "description": "Provide Mos score request",
      "properties": {
        "limit": {
          "type": "string",
          "description": "Provide limit",
          "example": 20
        },
        "criteria": {
          "type": "array",
          "description": "Provide criteria",
          "items": {
            "type": "object",
            "description": "Provide items",
            "properties": {
              "startDate": {
                "type": "string",
                "description": "Provide startDate",
                "example": "2018-11-30T00:00:00.000Z"
              },
              "endDate": {
                "type": "string",
                "description": "Provide endDate",
                "example": "2019-03-30T00:00:00.000Z"
              }
            }
          }
        },
        "columns": {
          "type": "array",
          "description": "Provide columns",
          "items": {
            "type": "object",
            "description": "Provide items",
            "properties": {
              "date": {
                "type": "string",
                "description": "Provide date",
                "example": "string"
              },
              "callId": {
                "type": "string",
                "description": "Provide callId",
                "example": "string"
              },
              "mos": {
                "type": "string",
                "description": "Provide mos",
                "example": "string"
              },
              "osUa": {
                "type": "string",
                "description": "Provide osUa",
                "example": "string"
              },
              "userAgent": {
                "type": "string",
                "description": "Provide userAgent",
                "example": "string"
              },
              "ipAddr": {
                "type": "string",
                "description": "Provide ipAddr",
                "example": "string"
              },
              "osUserAgent": {
                "type": "string",
                "description": "Provide osUserAgent",
                "example": "string"
              },
              "networkType": {
                "type": "string",
                "description": "Provide networkType",
                "example": "string"
              },
              "clientId": {
                "type": "string",
                "description": "Provide clientId",
                "example": "string"
              },
              "rtc.audioLevel": {
                "type": "string",
                "description": "Provide rtc.audioLevel",
                "example": "string"
              },
              "rtc.bytesDiscardedOnSend.keyword": {
                "type": "string",
                "description": "Provide rtc.bytesDiscardedOnSend.keyword",
                "example": "string"
              },
              "rtc.bytesReceived.keyword": {
                "type": "string",
                "description": "Provide rtc.bytesReceived.keyword",
                "example": "string"
              },
              "rtc.bytesSent.keyword": {
                "type": "string",
                "description": "Provide rtc.bytesSent.keyword",
                "example": "string"
              },
              "rtc.codecId.keyword": {
                "type": "string",
                "description": "Provide rtc.codecId.keyword",
                "example": "string"
              },
              "rtc.droppedFrames.keyword": {
                "type": "string",
                "description": "Provide rtc.droppedFrames.keyword",
                "example": "string"
              },
              "rtc.jitter.keyword": {
                "type": "string",
                "description": "Provide rtc.jitter.keyword",
                "example": "string"
              },
              "rtc.mediaType.keyword": {
                "type": "string",
                "description": "Provide rtc.mediaType.keyword",
                "example": "string"
              },
              "rtc.packetsDiscardedOnSend.keyword": {
                "type": "string",
                "description": "Provide rtc.packetsDiscardedOnSend.keyword",
                "example": "string"
              },
              "rtc.packetsLost.keyword": {
                "type": "string",
                "description": "Provide rtc.packetsLost.keyword",
                "example": "string"
              },
              "rtc.packetsReceived.keyword": {
                "type": "string",
                "description": "Provide rtc.packetsReceived.keyword",
                "example": "string"
              },
              "rtc.packetsSent.keyword": {
                "type": "string",
                "description": "Provide rtc.packetsSent.keyword",
                "example": "string"
              },
              "rtc.roundTripTime": {
                "type": "string",
                "description": "Provide rtc.roundTripTime",
                "example": "string"
              },
              "rtc.samplingTime.keyword": {
                "type": "string",
                "description": "Provide rtc.samplingTime.keyword",
                "example": "string"
              },
              "rtc.ssrc.keyword": {
                "type": "string",
                "description": "Provide rtc.ssrc.keyword",
                "example": "string"
              },
              "rtc.targetBitrate.keyword": {
                "type": "string",
                "description": "Provide rtc.targetBitrate.keyword",
                "example": "string"
              },
              "rtc.totalAudioEnergy": {
                "type": "string",
                "description": "Provide rtc.totalAudioEnergy",
                "example": "string"
              },
              "rtc.trackId.keyword": {
                "type": "string",
                "description": "Provide rtc.trackId.keyword",
                "example": "string"
              },
              "rtc.transportId.keyword": {
                "type": "string",
                "description": "Provide rtc.transportId.keyword",
                "example": "string"
              }
            }
          }
        }
      }
    },
    "conference": {
      "type": "object",
      "description": "Return mos score details",
      "properties": {
        "data": {
          "type": "array",
          "description": "Return data",
          "items": {
            "type": "object",
            "description": "Return items",
            "properties": {
              "rtc_jitter_keyword": {
                "type": "string",
                "description": "Return rtc_jitter_keyword"
              },
              "osUserAgent": {
                "type": "string",
                "description": "Return osUserAgent"
              },
              "rtc_packetsSent_keyword": {
                "type": "string",
                "description": "Return rtc_packetsSent_keyword"
              },
              "rtc_bytesDiscardedOnSend_keyword": {
                "type": "string",
                "description": "Return rtc_bytesDiscardedOnSend_keyword"
              },
              "rtc_mediaType_keyword": {
                "type": "string",
                "description": "Return rtc_mediaType_keyword"
              },
              "mos": {
                "type": "string",
                "description": "Return mos"
              },
              "rtc_packetsReceived_keyword": {
                "type": "string",
                "description": "Return rtc_packetsReceived_keyword"
              },
              "ipAddr": {
                "type": "string",
                "description": "Return ipAddr"
              },
              "rtc_ssrc_keyword": {
                "type": "string",
                "description": "Return rtc_ssrc_keyword"
              },
              "rtc_samplingTime_keyword": {
                "type": "string",
                "description": "Return rtc_samplingTime_keyword"
              },
              "rtc_codecId_keyword": {
                "type": "string",
                "description": "Return rtc_codecId_keyword"
              },
              "rtc_transportId_keyword": {
                "type": "string",
                "description": "Return rtc_transportId_keyword"
              },
              "userAgent": {
                "type": "string",
                "description": "Return userAgent"
              },
              "rtc_audioLevel": {
                "type": "string",
                "description": "Return rtc_audioLevel"
              },
              "networkType": {
                "type": "string",
                "description": "Return networkType"
              },
              "date": {
                "type": "string",
                "description": "Return date"
              },
              "rtc_droppedFrames_keyword": {
                "type": "string",
                "description": "Return rtc_droppedFrames_keyword"
              },
              "rtc_targetBitrate_keyword": {
                "type": "string",
                "description": "Return rtc_targetBitrate_keyword"
              },
              "rtc_roundTripTime": {
                "type": "string",
                "description": "Return rtc_roundTripTime"
              },
              "rtc_bytesReceived_keyword": {
                "type": "string",
                "description": "Return rtc_bytesReceived_keyword"
              },
              "rtc_bytesSent_keyword": {
                "type": "string",
                "description": "Return rtc_bytesSent_keyword"
              },
              "rtc_packetsDiscardedOnSend_keyword": {
                "type": "string",
                "description": "Return rtc_packetsDiscardedOnSend_keyword"
              },
              "rtc_trackId_keyword": {
                "type": "string",
                "description": "Return rtc_trackId_keyword"
              },
              "rtc_packetsLost_keyword": {
                "type": "string",
                "description": "Return rtc_packetsLost_keyword"
              },
              "osUa": {
                "type": "string",
                "description": "Return osUa"
              },
              "callId": {
                "type": "string",
                "description": "Return callId"
              },
              "clientId": {
                "type": "string",
                "description": "Return clientId"
              },
              "rtc_totalAudioEnergy": {
                "type": "string",
                "description": "Return rtc_totalAudioEnergy"
              }
            }
          }
        }
      }
    },
    "visual": {
      "type": "object",
      "description": "Return visual",
      "properties": {
        "data": {
          "type": "array",
          "description": "Return data",
          "items": {
            "type": "object",
            "description": "Return items",
            "properties": {
              "date": {
                "type": "string",
                "description": "Return date"
              },
              "avg_mos": {
                "type": "string",
                "description": "Return avg_mos"
              }
            }
          }
        }
      }
    },
    "callDetail": {
      "type": "object",
      "description": "Return callDetail",
      "properties": {
        "locale": {
          "type": "string",
          "description": "Return locale"
        },
        "UserNetwork": {
          "type": "string",
          "description": "Return UserNetwork"
        },
        "longitude": {
          "type": "string",
          "description": "Return longitude"
        },
        "UserConnection": {
          "type": "string",
          "description": "Return UserConnection"
        },
        "appVersionCode": {
          "type": "string",
          "description": "Return appVersionCode"
        },
        "appEnvironment": {
          "type": "string",
          "description": "Return appEnvironment"
        },
        "platform": {
          "type": "string",
          "description": "Return platform"
        },
        "state": {
          "type": "string",
          "description": "Return state"
        },
        "latitude": {
          "type": "string",
          "description": "Return latitude"
        },
        "osversion": {
          "type": "string",
          "description": "Return osversion"
        },
        "transaction_id": {
          "type": "string",
          "description": "Return transaction_id"
        },
        "UserDevice": {
          "type": "string",
          "description": "Return UserDevice"
        },
        "Region": {
          "type": "string",
          "description": "Return Region"
        },
        "host": {
          "type": "string",
          "description": "Return host"
        },
        "remoteip": {
          "type": "string",
          "description": "Return remoteip"
        },
        "date": {
          "type": "string",
          "description": "Return date"
        },
        "TransactionStatus": {
          "type": "string",
          "description": "Return TransactionStatus"
        },
        "sdkVersion": {
          "type": "string",
          "description": "Return sdkVersion"
        },
        "batteryLevel": {
          "type": "string",
          "description": "Return batteryLevel"
        },
        "reason": {
          "type": "string",
          "description": "Return reason"
        },
        "session_id": {
          "type": "string",
          "description": "Return session_id"
        },
        "tr_duration": {
          "type": "string",
          "description": "Return tr_duration"
        },
        "Tenant": {
          "type": "string",
          "description": "Return Tenant"
        },
        "location_timestamp": {
          "type": "string",
          "description": "Return location_timestamp"
        },
        "appVersionName": {
          "type": "string",
          "description": "Return appVersionName"
        }
      }
    },
    "usageCallVisual": {
      "type": "object",
      "description": "Return usageCallVisual",
      "properties": {
        "FAIL": {
          "type": "string",
          "description": "Return FAIL"
        },
        "CANCEL": {
          "type": "string",
          "description": "Return CANCEL"
        },
        "date": {
          "type": "string",
          "description": "Return date"
        },
        "SUCCESS": {
          "type": "string",
          "description": "Return SUCCESS"
        },
        "Unknown": {
          "type": "string",
          "description": "Return Unknown"
        },
        "CALLTYPE": {
          "type": "string",
          "description": "Return CALLTYPE"
        }
      }
    },
    "messageVisual": {
      "type": "object",
      "description": "Return usageCallVisual",
      "properties": {
        "ERRORS": {
          "type": "string",
          "description": "Return ERRORS"
        },
        "SUCCESS": {
          "type": "string",
          "description": "Return SUCCESS"
        },
        "date": {
          "type": "string",
          "description": "Return date"
        },
        "messageType": {
          "type": "string",
          "description": "Return messageType"
        }
      }
    }
  }
}
