{
	"swagger": "2.0",
	"basePath": "/paymentapp/v2",
	"securityDefinitions": {
		"OAuth2": {
			"type": "oauth2",
			"flow": "application",
			"tokenUrl": "https://qlab02.core.op.api.t-mobile.com/v1/oauth2/accesstoken?grant_type=client_credentials&transactiontype=POSTPAID",
			"scopes": {
				
			},
			"description": "https://oauth.net/2/"
		}
	},
	"info": {
		"version": "2.0.0",
		"title": "Payment Acknowledgement",
		"contact": {
			"name": "DTD Frontline Systems - Retail - GreenLantern",
			"email": "DTDFrontlineSystems-Retail-GreenLantern@T-Mobile.com"
		},
		"description": "Information related to the payload of Payment-acknowledgement used for offline/realtime payment Acknowledgement to Streamline"
	},
	"host": "dit01.api.t-mobile.com",
	"x-servers": [{
		"url": "https://tmobileb-sb01.apigee.net/payment-acknowledgement-v2",
		"description": "Sandbox Server"
	}],
	"tags": [{
		"name": "payment-acknowledgement",
		"description": "Payment App acknowledgement"
	}],
	"schemes": ["https"],
	"consumes": ["application/json"],
	"produces": ["application/json"],
	"paths": {
		"/payment-acknowledgement": {
			"post": {
				"security": [{
					"OAuth2": []
				}],
				"tags": ["payment-acknowledgement"],
				"summary": "Validates request elements and generates a new formId",
				"operationId": "post-payment-acknowledgement",
				"consumes": ["application/json",
				"application/xml"],
				"produces": ["application/json",
				"application/xml"],
				"parameters": [{
					"in": "body",
					"name": "payment-acknowledgement",
					"description": "parameters defined representing payment-acknowledgement",
					"required": true,
					"schema": {
						"$ref": "#/definitions/Forms"
					}
				},
				{
					"name": "Cache-Control",
					"in": "header",
					"description": "No cache indicators supported at this time. Samples: no-cache",
					"required": false,
					"type": "string",
					"x-example": {
						"cache-control": ""
					}
				},
				{
					"name": "ETag",
					"in": "header",
					"description": "The ETag header specifies the actual ETag",
					"required": false,
					"type": "string",
					"x-example": {
						"cache-control": ""
					}
				},
				{
					"name": "If-Match",
					"in": "header",
					"description": "The If-Match header specifies an ETag-related condition to be placed on the execution of a request.  The request will only be executed if the ETag of the requested resource matches one of those specified in the If-Match header.  Because the behavior is complex, the details for usage are provided at http://www.w3.org/Protocols/rfc2616/rfc2616-sec14.html .",
					"required": false,
					"type": "string",
					"x-example": {
						"If-Match": ""
					}
				},
				{
					"name": "If-Modified-Since",
					"in": "header",
					"description": "The If-Modified-Since header specifies date-related conditions to be placed on the execution of a request.  The request will only be executed if the requested resource has not been modified since the date-time specified.  Because the behavior is complex, the details for usage are provided at http://www.w3.org/Protocols/rfc2616/rfc2616-sec14.html",
					"required": false,
					"type": "string",
					"x-example": {
						"If-Modified-Since": ""
					}
				},
				{
					"name": "If-None-Match",
					"in": "header",
					"description": "The If-None-Match header specifies an ETag-related condition to be placed on the execution of a request.  The request will NOT be executed if the ETag of the requested resource matches one of those specified in the If-None-Match header.  Because the behavior is complex, the details for usage are provided at http://www.w3.org/Protocols/rfc2616/rfc2616-sec14.html",
					"required": false,
					"type": "string",
					"x-example": {
						"If-None-Match": ""
					}
				}],
				"responses": {
					"200": {
						"description": "OK",
						"schema": {
							"description": "Successful insert of status for payment acknowledgement",
							"$ref": "#/definitions/PaymentAcknowledgementResponses"
						},
						"examples": {
							"application/json": [{
								"code": "200",
								"userMessage": "OK",
								"systemMessage": "OK"
							}]
						},
						"headers": {
							"Cache-Control": {
								"description": "No cache indicators supported at this time. Examples: no-cache",
								"type": "string",
								"x-example": {
									"cache-control": ""
								}
							},
							"ETag": {
								"description": "The ETag header specifies the unique entity tag value for the returned resource.",
								"type": "string",
								"x-example": {
									"ETag": ""
								}
							}
						}
					},
					"400": {
						"description": "Bad Request",
						"schema": {
							"$ref": "#/definitions/ResponseError"
						}
					},
					"401": {
						"description": "Unauthorized",
						"schema": {
							"$ref": "#/definitions/ResponseError"
						}
					},
					"403": {
						"description": "Forbidden error",
						"schema": {
							"$ref": "#/definitions/ResponseError"
						}
					},
					"404": {
						"description": "Not Found",
						"schema": {
							"$ref": "#/definitions/ResponseError"
						}
					},
					"500": {
						"description": "Internal Server Error",
						"schema": {
							"$ref": "#/definitions/ResponseError"
						}
					},
					"503": {
						"description": "Service Unavailable",
						"schema": {
							"$ref": "#/definitions/ResponseError"
						}
					}
				}
			}
		},
		"/payment-acknowledgement/{formId}": {
			"put": {
				"security": [{
					"OAuth2": []
				}],
				"tags": ["payment-acknowledgement"],
				"summary": "Validates input and updates the existing Form",
				"operationId": "put-payment-acknowledgement",
				"consumes": ["application/json",
				"application/xml"],
				"produces": ["application/json",
				"application/xml"],
				"parameters": [{
					"name": "formId",
					"in": "path",
					"description": "uniqueId",
					"required": true,
					"type": "integer",
					"format": "int32",
					"x-example": {
						"formId": ""
					},
					"enum": ["formId"]
				},
				{
					"in": "body",
					"name": "saveForm",
					"description": "api name",
					"required": true,
					"schema": {
						"$ref": "#/definitions/Forms"
					}
				},
				{
					"name": "Cache-Control",
					"in": "header",
					"description": "No cache indicators supported at this time. Samples: no-cache",
					"required": false,
					"type": "string",
					"x-example": {
						"cache-control": ""
					}
				},
				{
					"name": "ETag",
					"in": "header",
					"description": "The ETag header specifies the actual ETag",
					"required": false,
					"type": "string",
					"x-example": {
						"cache-control": ""
					}
				},
				{
					"name": "If-Match",
					"in": "header",
					"description": "The If-Match header specifies an ETag-related condition to be placed on the execution of a request.  The request will only be executed if the ETag of the requested resource matches one of those specified in the If-Match header.  Because the behavior is complex, the details for usage are provided at http://www.w3.org/Protocols/rfc2616/rfc2616-sec14.html .",
					"required": false,
					"type": "string",
					"x-example": {
						"If-Match": ""
					}
				},
				{
					"name": "If-Modified-Since",
					"in": "header",
					"description": "The If-Modified-Since header specifies date-related conditions to be placed on the execution of a request.  The request will only be executed if the requested resource has not been modified since the date-time specified.  Because the behavior is complex, the details for usage are provided at http://www.w3.org/Protocols/rfc2616/rfc2616-sec14.html",
					"required": false,
					"type": "string",
					"x-example": {
						"If-Modified-Since": ""
					}
				},
				{
					"name": "If-None-Match",
					"in": "header",
					"description": "The If-None-Match header specifies an ETag-related condition to be placed on the execution of a request.  The request will NOT be executed if the ETag of the requested resource matches one of those specified in the If-None-Match header.  Because the behavior is complex, the details for usage are provided at http://www.w3.org/Protocols/rfc2616/rfc2616-sec14.html",
					"required": false,
					"type": "string",
					"x-example": {
						"If-None-Match": ""
					}
				}],
				"responses": {
					"200": {
						"description": "OK",
						"schema": {
							"description": "Successful insert of status for payment acknowledgement",
							"$ref": "#/definitions/PaymentAcknowledgementResponses"
						},
						"examples": {
							"application/json": [{
								"code": "200",
								"userMessage": "OK",
								"systemMessage": "OK"
							}]
						},
						"headers": {
							"Cache-Control": {
								"description": "No cache indicators supported at this time. Examples: no-cache",
								"type": "string",
								"x-example": {
									"Cache-Control": ""
								}
							},
							"ETag": {
								"description": "The ETag header specifies the unique entity tag value for the returned resource.",
								"type": "string",
								"x-example": {
									"ETag": ""
								}
							}
						}
					},
					"400": {
						"description": "Bad Request",
						"schema": {
							"$ref": "#/definitions/ResponseError"
						}
					},
					"401": {
						"description": "Unauthorized",
						"schema": {
							"$ref": "#/definitions/ResponseError"
						}
					},
					"403": {
						"description": "Forbidden error",
						"schema": {
							"$ref": "#/definitions/ResponseError"
						}
					},
					"404": {
						"description": "Not Found",
						"schema": {
							"$ref": "#/definitions/ResponseError"
						}
					},
					"500": {
						"description": "Internal Server Error",
						"schema": {
							"$ref": "#/definitions/ResponseError"
						}
					},
					"503": {
						"description": "Service Unavailable",
						"schema": {
							"$ref": "#/definitions/ResponseError"
						}
					}
				}
			}
		}
	},
	"definitions": {
		"Forms": {
			"type": "object",
			"properties": {
				"workFlowId": {
					"type": "string",
					"description": "unique Id to identify complete flow across applications"
				},
				"activityId": {
					"type": "string",
					"description": "activityId is a unique id which will help to track the API logs"
				},
				"channel": {
					"description": " Channel id for the transaction. For e.g. CARE, RETAIL, NR, WEB",
					"type": "string"
				},
				"senderId": {
					"type": "string",
					"description": "unique Id to identify complete flow across applications"
				},
				"form": {
					"description": "Details relevant to form details fetched from form properties",
					"$ref": "#/definitions/Form"
				},
				"customerInformation": {
					"description": "Details relevant to customer details fetched from customerInformation properties",
					"$ref": "#/definitions/CustomerInformation"
				},
				"paymentInstrument": {
					"description": "Details relevant to payment details fetched from paymentInstrument properties",
					"$ref": "#/definitions/PaymentInstrument"
				},
				"repInfo": {
					"description": "Details relevant to representatives details fetched from rep-info properties",
					"$ref": "#/definitions/RepInfo"
				}
			},
			"description": "Sample form property details",
			"example": {
				"workFlowId": "workFlowId",
				"form": {
					"formId": 0,
					"waiveProceesingFee": "waiveProceesingFee",
					"termsAgreementTime": "2000-01-23T04:56:07.000+00:00",
					"formTypeId": 6,
					"applicationId": "applicationId",
					"transactionId": "transactionId",
					"termsAgreementIndicator": true,
					"waiveReasonId": 1,
					"statusCode": "statusCode"
				},
				"repInfo": {
					"dealerCode": 7,
					"userId": "userId"
				},
				"customerInformation": {
					"phoneNumber": 5,
					"accountType": "accountType",
					"primaryCustomerName": "primaryCustomerName",
					"accountNumber": 5
				},
				"paymentInstrument": {
					"paymentMethodCode": "paymentMethodCode",
					"bankPayment": {
						"routingNumber": 2,
						"accountNumber": 4,
						"accountHolderNames": "accountHolderNames"
					},
					"isOverBalance": true,
					"authorizedAmount": 2.3021358869347655,
					"paymentId": 7,
					"cardPayment": {
						"zip": 3,
						"approvalCode": "approvalCode",
						"expirationMonthYear": "2000-01-23T04:56:07.000+00:00",
						"cardHolderName": "cardHolderName",
						"cardNumber": 9,
						"cardHolderFirstName": "cardHolderFirstName",
						"responseMsg": "responseMsg"
					}
				}
			}
		},
		"Form": {
			"type": "object",
			"properties": {
				"formId": {
					"type": "string",
					"description": "Streamline generated formId. This is a unique Id generated for each transaction in Streamline (SourceOrderId from inserthandoff)."
				},
				"formTypeId": {
					"type": "string",
					"description": "Streamline generated formId. This is a unique Id generated for each transaction in Streamline (Credit card - 50, for ECP - 51, for EIP balance - 84)"
				},
				"statusCode": {
					"type": "string",
					"description": "PaymentApp transaction status (i.e. AP-Approved, PD-Pending, DE-Decline, ER-Error, CA-Cancelled, OF-Offline) (Need discussion on this) - Map Statuscode from cnpsale or ecpsale here"
				},
				"applicationId": {
					"type": "string",
					"description": "PaymentApp generated applicationId Id"
				},
				"transactionId": {
					"type": "string",
					"description": "PaymentApp generated Transaction Id"
				},
				"termsAgreementIndicator": {
					"type": "string",
					"description": "boolean flag indicating the acceptance of terms and conditions; In-case user cancels flow without clicking T&C then this value will not be populated"
				},
				"termsAgreementTime": {
					"type": "string",
					"format": "date-time",
					"description": "Timestamp indicating the date of acceptance towards the terms and conditions;In-case user cancels flow without clicking T&C then this value will not be populated"
				},
				"waiveProceesingFee": {
					"type": "string",
					"description": "boolean flag indicating waive fee processing (1-x or 2 from insertHandoff)."
				},
				"waiveReasonId": {
					"type": "string",
					"description": "Id indicating the reason of waive processing (STL will always excepted waiveReason code if  the waiveProceesingFee = 2, Get the list of STL waiverReson description and the Id)"
				}
			},
			"description": "Sample form related details",
			"example": {
				"formId": "0",
				"waiveProceesingFee": "1-x,2",
				"termsAgreementTime": "2000-01-23T04:56:07.000+00:00",
				"formTypeId": "6",
				"transactionId": "transactionId",
				"termsAgreementIndicator": "true",
				"waiveReasonId": "1",
				"statusCode": "statusCode"
			}
		},
		"CustomerInformation": {
			"type": "object",
			"properties": {
				"accountNumber": {
					"type": "string",
					"description": "The 9-digit billing account number (BAN)"
				},
				"phoneNumber": {
					"type": "string",
					"description": "The 10-digit customer telephone number (MSISDN)"
				},
				"accountType": {
					"type": "string",
					"description": "Type of the account, P or B"
				},
				"subType": {
					"description": " Account sub type of the customer. for e.g. R, Needed for $8 payment processing fee waive option hiding.",
					"type": "string"
				},
				"primaryCustomerName": {
					"type": "string",
					"description": "Customer name"
				}
			},
			"description": "Sample Customer Information details",
			"example": {
				"phoneNumber": "5",
				"accountType": "accountType",
				"primaryCustomerName": "primaryCustomerName",
				"accountNumber": "5",
				"subType": "subType"
			}
		},
		"PaymentInstrument": {
			"type": "object",
			"properties": {
				"authorizedAmount": {
					"type": "string",
					"description": "amount which is to be processed for payment"
				},
				"paymentId": {
					"type": "string",
					"description": "The payment Id generated post completion of payment"
				},
				"paymentTypeId": {
					"type": "string",
					"description": "Payment Type value selected on Payment App UI"
				},
				"cardPayment": {
					"$ref": "#/definitions/CardPayment"
				},
				"bankPayment": {
					"$ref": "#/definitions/BankPayment"
				}
			},
			"description": "Sample Payment amount and payment mode details",
			"example": {
				"CardPayment": {
					"zip": "3",
					"approvalCode": "approvalCode",
					"expirationMonthYear": "2000-01-23T04:56:07.000+00:00",
					"cardHolderName": "cardHolderName",
					"cardNumber": "9",
					"responseMsg": "responseMsg",
					"typeCode": "Visa"
				},
				"authorizedAmount": "2.3021358869347655",
				"paymentId": "7",
				"bankPayment": {
					"routingNumber": "2",
					"accountNumber": "4",
					"accountHolderNames": "accountHolderNames"
				}
			}
		},
		"RepInfo": {
			"type": "object",
			"properties": {
				"dealerCode": {
					"type": "string",
					"description": "dealer Code details"
				},
				"userId": {
					"type": "string",
					"description": "NTID used to login and process"
				}
			},
			"description": "Sample RepInfo",
			"example": {
				"dealerCode": 7,
				"userId": "userId"
			}
		},
		"CardPayment": {
			"type": "object",
			"properties": {
				"responseMsg": {
					"type": "string",
					"description": "Message obtained from service stating Approved or Not (Response Message from payment Services 100-Approved (uiMessage) Map to ReasonDescription from ecp and cnp)"
				},
				"approvalCode": {
					"type": "string",
					"description": "Related status code base on the response status (Approval code from paymentServices (authorizationId) Map reasonCode from cnp and ecp)"
				},
				"cardNumber": {
					"type": "string",
					"description": "The 15-digit card number (alias)"
				},
				"expirationMonthYear": {
					"type": "string",
					"description": "specific card expiration details"
				},
				"cardHolderName": {
					"type": "string",
					"description": "card holders first name"
				},
				"typeCode": {
					"type": "string",
					"description": "card type name"
				},
				"zip": {
					"type": "string",
					"description": "The 5-digit zip code number"
				}
			},
			"description": "Sample Payment customer card details",
			"example": {
				"zip": "3",
				"approvalCode": "approvalCode",
				"expirationMonthYear": "2000-01-23T04:56:07.000+00:00",
				"cardHolderName": "cardHolderName",
				"cardNumber": "9",
				"responseMsg": "responseMsg"
			}
		},
		"BankPayment": {
			"type": "object",
			"description": "Customers Bank payment details",
			"properties": {
				"accountHolderNames": {
					"type": "string",
					"description": "customers Bank Account name",
					"maxLength": 256
				},
				"routingNumber": {
					"type": "string",
					"description": "The 8 to 10 digit bank routing number"
				},
				"bankName": {
					"type": "string",
					"description": "Bank name where customers account belongs to",
					"maxLength": 256
				},
				"accountNumber": {
					"type": "string",
					"description": "The 15-digit customer bank account  number"
				}
			},
			"example": {
				"routingNumber": "2",
				"accountNumber": "4",
				"accountHolderNames": "accountHolderNames",
				"bankName": "bankName"
			}
		},
		"PaymentAcknowledgementResponses": {
			"type": "object",
			"description": "Payment Acknowledgement decision response",
			"properties": {
				"code": {
					"description": "Used to pass Successful message code",
					"type": "string"
				},
				"userMessage": {
					"description": "Use to pass human friendly information to the user.",
					"type": "string"
				},
				"systemMessage": {
					"description": "Used to pass system information.",
					"type": "string"
				}
			}
		},
		"ResponseError": {
			"description": "Used to pass error information in a response.",
			"type": "object",
			"properties": {
				"code": {
					"description": "Used to pass error codes",
					"type": "string"
				},
				"userMessage": {
					"description": "Use to pass human friendly information to the user.",
					"type": "string"
				},
				"systemMessage": {
					"description": "Used to pass system information.",
					"type": "string"
				}
			}
		}
	}
}