{
    "swagger": "2.0",
    "info": {
        "title": "PaymentApp-ExperienceAPI",
        "description": "Payment App capability specification",
        "version": "2.0.0",
        "contact": {
            "name": "Frontline GreenLantern Team",
            "email": "DTDFrontlineSystems-Retail-GreenLantern@T-Mobile.com"
        },
        "x-createdBy": {
            "dateCreated": "Thu May 23 19:51:45 2019",
            "createdBy": "ssouri1",
            "application": "Recite",
            "appVersion": "1.0.0.2891",
            "documentId": "70b174bc-762b-46bf-9f9e-b2d506177630",
            "status": "Conceptual - Initial",
            "classification": "8.3.1 Store Payment Methods Mgmt.",
            "profile": "Facade Business Capability Service",
            "serviceLayer": "Resource - ProfileManagement"
        }
    },
    "x-servers": [
        {
            "url": "https://tmobileb-sb01.apigee.net/paymentapp-experienceapi",
            "description": "Sandbox Server"
        }
    ],
    "tags": [
        {
            "name": "Customers wallet search",
            "description": ""
        },
        {
            "name": "Update CashApp Approval Decision",
            "description": ""
        },
        {
            "name": "update cancel transaction details",
            "description": ""
        }
    ],
    "host": "api.t-mobile.com",
    "basePath": "/paymentapp-experienceapi/v2",
    "schemes": [
        "https"
    ],
    "paths": {
        "/canceltransaction": {
            "post": {
                "tags": [
                    "update cancel transaction details"
                ],
                "x-api-pattern": "CreateInCollection",
                "summary": "Send cancel transaction data",
                "description": "send cancel transaction details",
                "operationId": "SendCancelTransactiondata",
                "consumes": [],
                "produces": [],
                "parameters": [
                    {
                        "name": "ValidationAuthRequest",
                        "in": "body",
                        "description": "a collection of ResponseError",
                        "required": false,
                        "schema": {
                            "$ref": "#/definitions/ValidationAuthRequest"
                        }
                    },
                    {
                        "name": "Authorization",
                        "in": "header",
                        "description": "The HTTP Authorization request header contains the credentials to authenticate a user agent with a server.",
                        "x-example": "Bearer mF_9.B5f-4.1JqM",
                        "required": true,
                        "type": "string",
                        "minLength": 1,
                        "maxLength": 256,
                        "pattern": "^[\\S ]+$"
                    },
                    {
                        "name": "Cache-Control",
                        "in": "header",
                        "description": "Cache policy supported for the resource by the server",
                        "x-example": "no-cache",
                        "required": false,
                        "type": "string",
                        "minLength": 1,
                        "maxLength": 256,
                        "pattern": "^[\\S]*$"
                    },
                    {
                        "name": "Content-Type",
                        "in": "header",
                        "description": "The MIME type of this content",
                        "x-example": "text/xml",
                        "required": true,
                        "type": "string",
                        "minLength": 1,
                        "maxLength": 256,
                        "pattern": "^[ \\S]+$"
                    },
                    {
                        "name": "If-Match",
                        "in": "header",
                        "description": "The If-Match header specifies an ETag-related condition to be placed on the execution of a request.  The request will only be executed if the ETag of the requested resource matches one of those specified in the If-Match header.  Because the behavior is complex, the details for usage are provided at http://www.w3.org/Protocols/rfc2616/rfc2616-sec14.html .",
                        "x-example": "*",
                        "required": false,
                        "type": "string",
                        "minLength": 1,
                        "maxLength": 256,
                        "pattern": "^[\\S]*$"
                    },
                    {
                        "name": "If-Modified-Since",
                        "in": "header",
                        "description": "The If-Modified-Since header specifies date-related conditions to be placed on the execution of a request.  The request will only be executed if the requested resource has not been modified since the date-time specified.  Because the behavior is complex, the details for usage are provided at http://www.w3.org/Protocols/rfc2616/rfc2616-sec14.html",
                        "x-example": "Mon, 05 Mar 2018 16:38:08 GMT",
                        "required": false,
                        "type": "string",
                        "format": "date-time",
                        "pattern": "^(Mon|Tue|Wed|Thu|Fri|Sat|Sun), [0-3]{1}[0-9]{1} (Jan|Feb|Mar|Apr|May|Jun|Jul|Aug|Sep|Oct|Nov|Dec) [1-3][0-9]{3} [0-2][0-9]:[0-6][0-9]:[0-6][0-9] GMT$"
                    },
                    {
                        "name": "If-None-Match",
                        "in": "header",
                        "description": "The If-None-Match header specifies an ETag-related condition to be placed on the execution of a request.  The request will NOT be executed if the ETag of the requested resource matches one of those specified in the If-None-Match header.  Because the behavior is complex, the details for usage are provided at http://www.w3.org/Protocols/rfc2616/rfc2616-sec14.html",
                        "x-example": "*",
                        "required": false,
                        "type": "string",
                        "minLength": 1,
                        "maxLength": 256,
                        "pattern": "^[\\S]*$"
                    }
                ],
                "responses": {
                    "200": {
                        "description": "Successfully updated cancel transaction details",
                        "schema": {
                            "$ref": "#/definitions/ResponseError"
                        },
                        "examples": {
                            "application/json": {
                                "code": "200",
                                "userMessage": "OK",
                                "systemMessage": "OK"
                            }
                        },
                        "headers": {
                            "Cache-Control": {
                                "description": "Cache policy supported for the resource by the server",
                                "x-example": "no-cache",
                                "type": "string",
                                "minLength": 1,
                                "maxLength": 256,
                                "pattern": "^[\\S]*$"
                            },
                            "Content-Type": {
                                "description": "The MIME type of this content",
                                "x-example": "text/xml",
                                "type": "string",
                                "minLength": 1,
                                "maxLength": 256,
                                "pattern": "^[ \\S]+$"
                            },
                            "ETag": {
                                "description": "The ETag header specifies the unique entity tag value for the returned resource.",
                                "x-example": "*",
                                "type": "string",
                                "minLength": 1,
                                "maxLength": 256,
                                "pattern": "^[\\S]*$"
                            }
                        }
                    },
                    "400": {
                        "description": "Bad Request",
                        "schema": {
                            "$ref": "#/definitions/Error"
                        },
                        "examples": {
                            "application/json": {
                                "code": "400",
                                "userMessage": "Bad Request",
                                "systemMessage": "Bad Request",
                                "detailLink": "http://www.tmus.com"
                            }
                        },
                        "headers": {}
                    },
                    "401": {
                        "description": "Unauthorized",
                        "schema": {
                            "$ref": "#/definitions/Error"
                        },
                        "examples": {
                            "application/json": {
                                "code": "401",
                                "userMessage": "Unauthorized",
                                "systemMessage": "Unauthorized",
                                "detailLink": "http://www.tmus.com"
                            }
                        },
                        "headers": {}
                    },
                    "403": {
                        "description": "Forbidden error",
                        "schema": {
                            "$ref": "#/definitions/Error"
                        },
                        "examples": {
                            "application/json": {
                                "code": "403",
                                "userMessage": "Forbidden error",
                                "systemMessage": "Forbidden error",
                                "detailLink": "http://www.tmus.com"
                            }
                        },
                        "headers": {}
                    },
                    "404": {
                        "description": "Not Found",
                        "schema": {
                            "$ref": "#/definitions/Error"
                        },
                        "examples": {
                            "application/json": {
                                "code": "404",
                                "userMessage": "Not Found",
                                "systemMessage": "Not Found",
                                "detailLink": "http://www.tmus.com"
                            }
                        },
                        "headers": {}
                    },
                    "405": {
                        "description": "Method Not Allowed",
                        "schema": {
                            "$ref": "#/definitions/Error"
                        },
                        "examples": {
                            "application/json": {
                                "code": "405",
                                "userMessage": "Method Not Allowed",
                                "systemMessage": "Method Not Allowed",
                                "detailLink": "http://www.tmus.com"
                            }
                        },
                        "headers": {
                            "Allow": {
                                "description": "list of supported methods for URI",
                                "x-example": "GET",
                                "type": "string",
                                "minLength": 1,
                                "maxLength": 256,
                                "pattern": "^[\\S]*$"
                            },
                            "service-transaction-id": {
                                "description": "Request ID echoed back by server",
                                "x-example": "23409209723",
                                "type": "string",
                                "minLength": 1,
                                "maxLength": 256,
                                "pattern": "^[\\S]*$"
                            }
                        }
                    },
                    "406": {
                        "description": "Not Acceptable",
                        "schema": {
                            "$ref": "#/definitions/Error"
                        },
                        "examples": {
                            "application/json": {
                                "code": "406",
                                "userMessage": "Not Acceptable",
                                "systemMessage": "Not Acceptable",
                                "detailLink": "http://www.tmus.com"
                            }
                        },
                        "headers": {}
                    },
                    "409": {
                        "description": "Conflict",
                        "schema": {
                            "$ref": "#/definitions/Error"
                        },
                        "examples": {
                            "application/json": {
                                "code": "409",
                                "userMessage": "Conflict",
                                "systemMessage": "Conflict",
                                "detailLink": "http://www.tmus.com"
                            }
                        },
                        "headers": {}
                    },
                    "415": {
                        "description": "Unsupported Media Type",
                        "schema": {
                            "$ref": "#/definitions/Error"
                        },
                        "examples": {
                            "application/json": {
                                "code": "415",
                                "userMessage": "Unsupported Media Type",
                                "systemMessage": "Unsupported Media Type",
                                "detailLink": "http://www.tmus.com"
                            }
                        },
                        "headers": {}
                    },
                    "500": {
                        "description": "Internal Server Error",
                        "schema": {
                            "$ref": "#/definitions/Error"
                        },
                        "examples": {
                            "application/json": {
                                "code": "500",
                                "userMessage": "Internal Server Error",
                                "systemMessage": "Internal Server Error",
                                "detailLink": "http://www.tmus.com"
                            }
                        },
                        "headers": {}
                    },
                    "503": {
                        "description": "Service Unavailable",
                        "schema": {
                            "$ref": "#/definitions/Error"
                        },
                        "examples": {
                            "application/json": {
                                "code": "503",
                                "userMessage": "Service Unavailable",
                                "systemMessage": "Service Unavailable",
                                "detailLink": "http://www.tmus.com"
                            }
                        },
                        "headers": {}
                    }
                },
                "security": [
                    {
                        "OAuth2": []
                    }
                ]
            }
        },
        "/cashapp-decision": {
            "post": {
                "tags": [
                    "Update CashApp Approval Decision"
                ],
                "x-api-pattern": "CreateInCollection",
                "summary": "UpdateCashAppApprovalData",
                "description": "Update CashApp Approval Status",
                "operationId": "UpdateCashAppApprovalData",
                "consumes": [],
                "produces": [],
                "parameters": [
                    {
                        "name": "CashAppDecisionRequest",
                        "in": "body",
                        "description": "CashApp decision request",
                        "required": false,
                        "schema": {
                            "$ref": "#/definitions/CashAppDecisionRequest"
                        }
                    },
                    {
                        "name": "Authorization",
                        "in": "header",
                        "description": "The HTTP Authorization request header contains the credentials to authenticate a user agent with a server.",
                        "x-example": "Bearer mF_9.B5f-4.1JqM",
                        "required": true,
                        "type": "string",
                        "minLength": 1,
                        "maxLength": 256,
                        "pattern": "^[\\S ]+$"
                    },
                    {
                        "name": "Cache-Control",
                        "in": "header",
                        "description": "Cache policy supported for the resource by the server",
                        "x-example": "no-cache",
                        "required": false,
                        "type": "string",
                        "minLength": 1,
                        "maxLength": 256,
                        "pattern": "^[\\S]*$"
                    },
                    {
                        "name": "Content-Type",
                        "in": "header",
                        "description": "The MIME type of this content",
                        "x-example": "text/xml",
                        "required": true,
                        "type": "string",
                        "minLength": 1,
                        "maxLength": 256,
                        "pattern": "^[ \\S]+$"
                    },
                    {
                        "name": "If-Match",
                        "in": "header",
                        "description": "The If-Match header specifies an ETag-related condition to be placed on the execution of a request.  The request will only be executed if the ETag of the requested resource matches one of those specified in the If-Match header.  Because the behavior is complex, the details for usage are provided at http://www.w3.org/Protocols/rfc2616/rfc2616-sec14.html .",
                        "x-example": "*",
                        "required": false,
                        "type": "string",
                        "minLength": 1,
                        "maxLength": 256,
                        "pattern": "^[\\S]*$"
                    },
                    {
                        "name": "If-Modified-Since",
                        "in": "header",
                        "description": "The If-Modified-Since header specifies date-related conditions to be placed on the execution of a request.  The request will only be executed if the requested resource has not been modified since the date-time specified.  Because the behavior is complex, the details for usage are provided at http://www.w3.org/Protocols/rfc2616/rfc2616-sec14.html",
                        "x-example": "Mon, 05 Mar 2018 16:38:08 GMT",
                        "required": false,
                        "type": "string",
                        "format": "date-time",
                        "pattern": "^(Mon|Tue|Wed|Thu|Fri|Sat|Sun), [0-3]{1}[0-9]{1} (Jan|Feb|Mar|Apr|May|Jun|Jul|Aug|Sep|Oct|Nov|Dec) [1-3][0-9]{3} [0-2][0-9]:[0-6][0-9]:[0-6][0-9] GMT$"
                    },
                    {
                        "name": "If-None-Match",
                        "in": "header",
                        "description": "The If-None-Match header specifies an ETag-related condition to be placed on the execution of a request.  The request will NOT be executed if the ETag of the requested resource matches one of those specified in the If-None-Match header.  Because the behavior is complex, the details for usage are provided at http://www.w3.org/Protocols/rfc2616/rfc2616-sec14.html",
                        "x-example": "*",
                        "required": false,
                        "type": "string",
                        "minLength": 1,
                        "maxLength": 256,
                        "pattern": "^[\\S]*$"
                    }
                ],
                "responses": {
                    "200": {
                        "description": "Successful update of status for declined scenario",
                        "schema": {
                            "$ref": "#/definitions/CashAppDecisionResponses"
                        },
                        "examples": {
                            "application/json": {
                                "code": "200",
                                "userMessage": "OK",
                                "systemMessage": "OK"
                            }
                        },
                        "headers": {
                            "Cache-Control": {
                                "description": "Cache policy supported for the resource by the server",
                                "x-example": "no-cache",
                                "type": "string",
                                "minLength": 1,
                                "maxLength": 256,
                                "pattern": "^[\\S]*$"
                            },
                            "Content-Type": {
                                "description": "The MIME type of this content",
                                "x-example": "text/xml",
                                "type": "string",
                                "minLength": 1,
                                "maxLength": 256,
                                "pattern": "^[ \\S]+$"
                            },
                            "ETag": {
                                "description": "The ETag header specifies the unique entity tag value for the returned resource.",
                                "x-example": "*",
                                "type": "string",
                                "minLength": 1,
                                "maxLength": 256,
                                "pattern": "^[\\S]*$"
                            }
                        }
                    },
                    "202": {
                        "description": "Successfully posting to SaveForm queue.",
                        "schema": {
                            "$ref": "#/definitions/CashAppDecisionResponses"
                        },
                        "examples": {
                            "application/json": {
                                "code": "202",
                                "userMessage": "ACCEPTED",
                                "systemMessage": "ACCEPTED"
                            }
                        },
                        "headers": {
                            "Cache-Control": {
                                "description": "Cache policy supported for the resource by the server",
                                "x-example": "no-cache",
                                "type": "string",
                                "minLength": 1,
                                "maxLength": 256,
                                "pattern": "^[\\S]*$"
                            },
                            "Content-Type": {
                                "description": "The MIME type of this content",
                                "x-example": "text/xml",
                                "type": "string",
                                "minLength": 1,
                                "maxLength": 256,
                                "pattern": "^[ \\S]+$"
                            },
                            "Date": {
                                "description": "The Date general HTTP header contains the date and time at which the message was originated.",
                                "x-example": "Mon, 05 Mar 2018 16:38:08 GMT",
                                "type": "string",
                                "format": "date-time",
                                "pattern": "^(Mon|Tue|Wed|Thu|Fri|Sat|Sun), [0-3]{1}[0-9]{1} (Jan|Feb|Mar|Apr|May|Jun|Jul|Aug|Sep|Oct|Nov|Dec) [1-3][0-9]{3} [0-2][0-9]:[0-6][0-9]:[0-6][0-9] GMT$"
                            },
                            "ETag": {
                                "description": "The ETag header specifies the unique entity tag value for the returned resource.",
                                "x-example": "*",
                                "type": "string",
                                "minLength": 1,
                                "maxLength": 256,
                                "pattern": "^[\\S]*$"
                            },
                            "Location": {
                                "description": "The Location header specifies the URI of a created resource, or redirects the API consumer to an alternate resource location.",
                                "x-example": "http://api.t-mo.com/order-mgmt/v1/orders/123xyz-0/status",
                                "type": "string",
                                "minLength": 1,
                                "maxLength": 65536,
                                "pattern": "^[\\S]*$"
                            }
                        }
                    },
                    "400": {
                        "description": "Bad Request",
                        "schema": {
                            "$ref": "#/definitions/Error"
                        },
                        "examples": {
                            "application/json": {
                                "code": "400",
                                "userMessage": "Bad Request",
                                "systemMessage": "Bad Request",
                                "detailLink": "http://www.tmus.com"
                            }
                        },
                        "headers": {}
                    },
                    "401": {
                        "description": "Unauthorized",
                        "schema": {
                            "$ref": "#/definitions/Error"
                        },
                        "examples": {
                            "application/json": {
                                "code": "401",
                                "userMessage": "Unauthorized",
                                "systemMessage": "Unauthorized",
                                "detailLink": "http://www.tmus.com"
                            }
                        },
                        "headers": {}
                    },
                    "403": {
                        "description": "Forbidden error",
                        "schema": {
                            "$ref": "#/definitions/Error"
                        },
                        "examples": {
                            "application/json": {
                                "code": "403",
                                "userMessage": "Forbidden error",
                                "systemMessage": "Forbidden error",
                                "detailLink": "http://www.tmus.com"
                            }
                        },
                        "headers": {}
                    },
                    "404": {
                        "description": "Not Found",
                        "schema": {
                            "$ref": "#/definitions/Error"
                        },
                        "examples": {
                            "application/json": {
                                "code": "404",
                                "userMessage": "Not Found",
                                "systemMessage": "Not Found",
                                "detailLink": "http://www.tmus.com"
                            }
                        },
                        "headers": {}
                    },
                    "405": {
                        "description": "Method Not Allowed",
                        "schema": {
                            "$ref": "#/definitions/Error"
                        },
                        "examples": {
                            "application/json": {
                                "code": "405",
                                "userMessage": "Method Not Allowed",
                                "systemMessage": "Method Not Allowed",
                                "detailLink": "http://www.tmus.com"
                            }
                        },
                        "headers": {
                            "Allow": {
                                "description": "list of supported methods for URI",
                                "x-example": "GET",
                                "type": "string",
                                "minLength": 1,
                                "maxLength": 256,
                                "pattern": "^[\\S]*$"
                            },
                            "service-transaction-id": {
                                "description": "Request ID echoed back by server",
                                "x-example": "23409209723",
                                "type": "string",
                                "minLength": 1,
                                "maxLength": 256,
                                "pattern": "^[\\S]*$"
                            }
                        }
                    },
                    "406": {
                        "description": "Not Acceptable",
                        "schema": {
                            "$ref": "#/definitions/Error"
                        },
                        "examples": {
                            "application/json": {
                                "code": "406",
                                "userMessage": "Not Acceptable",
                                "systemMessage": "Not Acceptable",
                                "detailLink": "http://www.tmus.com"
                            }
                        },
                        "headers": {}
                    },
                    "409": {
                        "description": "Conflict",
                        "schema": {
                            "$ref": "#/definitions/Error"
                        },
                        "examples": {
                            "application/json": {
                                "code": "409",
                                "userMessage": "Conflict",
                                "systemMessage": "Conflict",
                                "detailLink": "http://www.tmus.com"
                            }
                        },
                        "headers": {}
                    },
                    "415": {
                        "description": "Unsupported Media Type",
                        "schema": {
                            "$ref": "#/definitions/Error"
                        },
                        "examples": {
                            "application/json": {
                                "code": "415",
                                "userMessage": "Unsupported Media Type",
                                "systemMessage": "Unsupported Media Type",
                                "detailLink": "http://www.tmus.com"
                            }
                        },
                        "headers": {}
                    },
                    "500": {
                        "description": "Unable to API (/PaymentAppMessagingQueue/message) to post/put saveForm",
                        "schema": {
                            "$ref": "#/definitions/Error"
                        },
                        "examples": {
                            "application/json": {
                                "code": "500",
                                "userMessage": "Unable to API (/PaymentAppMessagingQueue/message) to post/put saveForm",
                                "systemMessage": "Unable to API (/PaymentAppMessagingQueue/message) to post/put saveForm",
                                "detailLink": "http://www.tmus.com"
                            }
                        },
                        "headers": {}
                    },
                    "503": {
                        "description": "Service Unavailable",
                        "schema": {
                            "$ref": "#/definitions/Error"
                        },
                        "examples": {
                            "application/json": {
                                "code": "503",
                                "userMessage": "Service Unavailable",
                                "systemMessage": "Service Unavailable",
                                "detailLink": "http://www.tmus.com"
                            }
                        },
                        "headers": {}
                    }
                },
                "security": [
                    {
                        "OAuth2": []
                    }
                ]
            }
        },
        "/customers/wallet/search": {
            "post": {
                "tags": [
                    "Customers wallet search"
                ],
                "x-api-pattern": "CreateInCollection",
                "summary": "A get for the wallet resource using Digital Archecture's QueryResource pattern.",
                "description": "Retrieves a single instance of the wallet resource.",
                "operationId": "Customers wallet search",
                "consumes": [],
                "produces": [],
                "parameters": [
                    {
                        "name": "walletRequest",
                        "in": "body",
                        "description": "Customer wallet seach api request object",
                        "required": false,
                        "schema": {
                            "$ref": "#/definitions/WalletRequest"
                        },
                        "x-example": {
                            "accountNumber": "123456789",
                            "walletIdentificationMsisdn": "4356665454",
                            "phoneNumber": "4356665454"
                        }
                    },
                    {
                        "name": "Accept",
                        "in": "header",
                        "description": "Preferred content type _ default to application/json",
                        "x-example": "application/json",
                        "required": false,
                        "type": "string",
                        "minLength": 1,
                        "maxLength": 256,
                        "pattern": "^[ \\S]+$"
                    },
                    {
                        "name": "Accept-Encoding",
                        "in": "header",
                        "description": "List of acceptable encodings. See HTTP compression.",
                        "x-example": "gzip,deflate",
                        "required": false,
                        "type": "string",
                        "minLength": 1,
                        "maxLength": 256,
                        "pattern": "^[\\S ]*$"
                    },
                    {
                        "name": "Accept-Language",
                        "in": "header",
                        "description": "List of acceptable human languages for response",
                        "x-example": "en-us,en;q=0.5",
                        "required": false,
                        "type": "string",
                        "minLength": 1,
                        "maxLength": 256,
                        "pattern": "^[\\S ]*$"
                    },
                    {
                        "name": "Authorization",
                        "in": "header",
                        "description": "The HTTP Authorization request header contains the credentials to authenticate a user agent with a server.",
                        "x-example": "Bearer mF_9.B5f-4.1JqM",
                        "required": true,
                        "type": "string",
                        "minLength": 1,
                        "maxLength": 256,
                        "pattern": "^[\\S ]+$"
                    },
                    {
                        "name": "Content-Type",
                        "in": "header",
                        "description": "The MIME type of this content",
                        "x-example": "text/xml",
                        "required": true,
                        "type": "string",
                        "minLength": 1,
                        "maxLength": 256,
                        "pattern": "^[ \\S]+$"
                    },
                    {
                        "name": "Date",
                        "in": "header",
                        "description": "The Date general HTTP header contains the date and time at which the message was originated.",
                        "x-example": "Mon, 05 Mar 2018 16:38:08 GMT",
                        "required": false,
                        "type": "string",
                        "format": "date-time",
                        "pattern": "^(Mon|Tue|Wed|Thu|Fri|Sat|Sun), [0-3]{1}[0-9]{1} (Jan|Feb|Mar|Apr|May|Jun|Jul|Aug|Sep|Oct|Nov|Dec) [1-3][0-9]{3} [0-2][0-9]:[0-6][0-9]:[0-6][0-9] GMT$"
                    },
                    {
                        "name": "If-Modified-Since",
                        "in": "header",
                        "description": "The If-Modified-Since header specifies date-related conditions to be placed on the execution of a request.  The request will only be executed if the requested resource has not been modified since the date-time specified.  Because the behavior is complex, the details for usage are provided at http://www.w3.org/Protocols/rfc2616/rfc2616-sec14.html",
                        "x-example": "Mon, 05 Mar 2018 16:38:08 GMT",
                        "required": false,
                        "type": "string",
                        "format": "date-time",
                        "pattern": "^(Mon|Tue|Wed|Thu|Fri|Sat|Sun), [0-3]{1}[0-9]{1} (Jan|Feb|Mar|Apr|May|Jun|Jul|Aug|Sep|Oct|Nov|Dec) [1-3][0-9]{3} [0-2][0-9]:[0-6][0-9]:[0-6][0-9] GMT$"
                    },
                    {
                        "name": "If-None-Match",
                        "in": "header",
                        "description": "The If-None-Match header specifies an ETag-related condition to be placed on the execution of a request.  The request will NOT be executed if the ETag of the requested resource matches one of those specified in the If-None-Match header.  Because the behavior is complex, the details for usage are provided at http://www.w3.org/Protocols/rfc2616/rfc2616-sec14.html",
                        "x-example": "*",
                        "required": false,
                        "type": "string",
                        "minLength": 1,
                        "maxLength": 256,
                        "pattern": "^[\\S]*$"
                    },
                    {
                        "name": "activity-id",
                        "in": "header",
                        "description": "Unique id alphanumeric value generated and sent by the partner to identify every the service request uniquely. Sample: XyzA:D1s5s1i-X6AFRvfiPBfs-1234  Pass as is to downstream calls.",
                        "x-example": "c34e7acd-384b-4c22-8b02-ba3963682508",
                        "required": false,
                        "type": "string",
                        "minLength": 1,
                        "maxLength": 256,
                        "pattern": "^[\\S]*$"
                    },
                    {
                        "name": "application-id",
                        "in": "header",
                        "description": "Identifies the application, system, or tool that is being used to perform the transaction related to this request. Sample values:ACUI, ESERVICE, REBELLION, WARP",
                        "x-example": "REBELLION",
                        "required": true,
                        "type": "string",
                        "minLength": 1,
                        "maxLength": 256,
                        "pattern": "^[\\S]*$"
                    },
                    {
                        "name": "channel-id",
                        "in": "header",
                        "description": "Categorization of access or business stream",
                        "x-example": "IVR",
                        "required": true,
                        "type": "string",
                        "minLength": 1,
                        "maxLength": 256,
                        "pattern": "^[\\S]*$"
                    },
                    {
                        "name": "interaction-id",
                        "in": "header",
                        "description": "Alphanumeric value represent a common transaction id across all calls made from UI, while completing all business activity needs of a particular customer.",
                        "x-example": "cc688d54-50d1-49d4-8c5d-95459d1172e8",
                        "required": false,
                        "type": "string",
                        "minLength": 1,
                        "maxLength": 256,
                        "pattern": "^[\\S]*$"
                    },
                    {
                        "name": "service-transaction-id",
                        "in": "header",
                        "description": "Request ID echoed back by server",
                        "x-example": "23409209723",
                        "required": false,
                        "type": "string",
                        "minLength": 1,
                        "maxLength": 256,
                        "pattern": "^[\\S]*$"
                    },
                    {
                        "name": "session-id",
                        "in": "header",
                        "description": "A value populated by the sender used to track the transactions that occur during a session, a long-lasting interaction that ismaintained by the sender.",
                        "x-example": "350b91ec-4a64-4b10-a3f3-a78c8db3924a",
                        "required": false,
                        "type": "string",
                        "minLength": 1,
                        "maxLength": 256,
                        "pattern": "^[\\S]*$"
                    },
                    {
                        "name": "timestamp",
                        "in": "header",
                        "description": "ms since 1/1/70 adjusted to GMT",
                        "x-example": "1524599536",
                        "required": false,
                        "type": "integer",
                        "format": "int64",
                        "minimum": 0,
                        "maximum": 999999999999,
                        "pattern": "^[\\d]*$"
                    },
                    {
                        "name": "workflow-id",
                        "in": "header",
                        "description": "Business Use Case",
                        "x-example": "ACTIVATION",
                        "required": false,
                        "type": "string",
                        "minLength": 1,
                        "maxLength": 256,
                        "pattern": "^[\\S]*$"
                    },
                    {
                        "name": "x-auth-originator",
                        "in": "header",
                        "description": "API chain initiating callers access token",
                        "x-example": "c34e7acd-384b-4c22-8b02-ba3963682508",
                        "required": false,
                        "type": "string",
                        "minLength": 1,
                        "maxLength": 256,
                        "pattern": "^[\\S]*$"
                    },
                    {
                        "name": "x-authorization",
                        "in": "header",
                        "description": "Contains Proof of Possession token generated by API caller",
                        "x-example": "c34e7acd-384b-4c22-8b02-ba3963682508",
                        "required": false,
                        "type": "string",
                        "minLength": 1,
                        "maxLength": 256,
                        "pattern": "^[\\S ]*$"
                    }
                ],
                "responses": {
                    "200": {
                        "description": "OK",
                        "schema": {
                            "$ref": "#/definitions/WalletResponse"
                        },
                        "examples": {
                            "application/json": {
                                "walletConfig": {
                                    "allowWalletUsage ": true,
                                    "denialTypes": [
                                        "CREDIT_CARD",
                                        "CHECK",
                                        "ALL"
                                    ]
                                },
                                "wallet": {
                                    "payment": [
                                        {
                                            "paymentInstrument": {
                                                "bankPayment": {
                                                    "routingNumber": "042206503",
                                                    "bankAccountAlias": "99999900001446567564",
                                                    "accountHolderFirstName": "Rahul",
                                                    "accountHolderLastName": "Sharma",
                                                    "updateTime": "2019-03-12T19:58:24Z",
                                                    "accountHolderNames": [
                                                        "Rahul"
                                                    ],
                                                    "accountHolderAddress": {
                                                        "addressCore": {
                                                            "addressLine2": "gateway",
                                                            "cityName": "Portland",
                                                            "stateCode": "OR",
                                                            "zip": "98012"
                                                        }
                                                    }
                                                }
                                            },
                                            "paymentMethod": {
                                                "paymentMethodStatus": "VALID"
                                            },
                                            "paymentMethodReference": {
                                                "paymentMethodCode": "CHECK",
                                                "defaultPaymentMethodIndicator": false,
                                                "autopayEnabledIndicator": false
                                            },
                                            "walletCapacity": 10,
                                            "walletSize": 2,
                                            "verificationIndicator": false,
                                            "migrationIndicator": false
                                        },
                                        {
                                            "paymentInstrument": {
                                                "paymentCard": {
                                                    "cardHolderName": "RAHUL123",
                                                    "updateTime": "2019-03-12T20:04:04Z",
                                                    "typeCode": "VISA",
                                                    "expirationMonthYear": "0220",
                                                    "expirationStatus": "EXPIRED",
                                                    "paymentCardAlias": "4000022421709328",
                                                    "cardHolderAddress": {
                                                        "addressCore": {
                                                            "addressLine1": "address sw garden pl",
                                                            "addressLine2": "gateway",
                                                            "cityName": "Portland",
                                                            "stateCode": "OR",
                                                            "zip": "03112"
                                                        }
                                                    }
                                                }
                                            },
                                            "paymentMethod": {
                                                "paymentMethodStatus": "VALID"
                                            },
                                            "paymentMethodReference": {
                                                "paymentMethodCode": "DC",
                                                "defaultPaymentMethodIndicator": false,
                                                "autopayEnabledIndicator": false
                                            },
                                            "walletCapacity": 10,
                                            "walletSize": 2,
                                            "verificationIndicator": false,
                                            "migrationIndicator": false
                                        }
                                    ]
                                }
                            }
                        },
                        "headers": {
                            "Cache-Control": {
                                "description": "Cache policy supported for the resource by the server",
                                "x-example": "no-cache",
                                "type": "string",
                                "minLength": 1,
                                "maxLength": 256,
                                "pattern": "^[\\S]*$"
                            },
                            "Content-Encoding": {
                                "description": "The type of encoding used on the data",
                                "x-example": "gzip,deflate",
                                "type": "string",
                                "minLength": 1,
                                "maxLength": 15,
                                "pattern": "^[\\S]*$"
                            },
                            "Content-Language": {
                                "description": "The natural language or languages of the intended audience for the enclosed content",
                                "x-example": "da",
                                "type": "string",
                                "minLength": 1,
                                "maxLength": 15,
                                "pattern": "^[\\S ]*$"
                            },
                            "Content-Length": {
                                "description": "Length of the response body in octets; not supported if Transfer-Endoding = chunked",
                                "x-example": "9112300000003",
                                "type": "integer",
                                "format": "int64",
                                "minimum": 0,
                                "pattern": "^[\\d]*$"
                            },
                            "Content-Type": {
                                "description": "The MIME type of this content",
                                "x-example": "text/xml",
                                "type": "string",
                                "minLength": 1,
                                "maxLength": 256,
                                "pattern": "^[ \\S]+$"
                            },
                            "Date": {
                                "description": "The Date general HTTP header contains the date and time at which the message was originated.",
                                "x-example": "Mon, 05 Mar 2018 16:38:08 GMT",
                                "type": "string",
                                "format": "date-time",
                                "pattern": "^(Mon|Tue|Wed|Thu|Fri|Sat|Sun), [0-3]{1}[0-9]{1} (Jan|Feb|Mar|Apr|May|Jun|Jul|Aug|Sep|Oct|Nov|Dec) [1-3][0-9]{3} [0-2][0-9]:[0-6][0-9]:[0-6][0-9] GMT$"
                            },
                            "ETag": {
                                "description": "The ETag header specifies the unique entity tag value for the returned resource.",
                                "x-example": "*",
                                "type": "string",
                                "minLength": 1,
                                "maxLength": 256,
                                "pattern": "^[\\S]*$"
                            },
                            "Last-Modified": {
                                "description": "The Last-Modified entity-header field indicates the date and time at which the origin server believes the variant was last modified.",
                                "x-example": "Mon, 05 Mar 2018 16:38:08 GMT",
                                "type": "string",
                                "format": "date-time",
                                "pattern": "^(Mon|Tue|Wed|Thu|Fri|Sat|Sun), [0-3]{1}[0-9]{1} (Jan|Feb|Mar|Apr|May|Jun|Jul|Aug|Sep|Oct|Nov|Dec) [1-3][0-9]{3} [0-2][0-9]:[0-6][0-9]:[0-6][0-9] GMT$"
                            },
                            "Location": {
                                "description": "The Location header specifies the URI of a created resource, or redirects the API consumer to an alternate resource location.",
                                "x-example": "http://api.t-mo.com/order-mgmt/v1/orders/123xyz-0/status",
                                "type": "string",
                                "minLength": 1,
                                "maxLength": 65536,
                                "pattern": "^[\\S]*$"
                            },
                            "Transfer-Encoding": {
                                "description": "The form of encoding used to safely transfer the entity to the user. Currently defined methods are: chunked, compress, deflate, gzip, identity.",
                                "x-example": "chunked",
                                "type": "string",
                                "minLength": 1,
                                "maxLength": 15,
                                "pattern": "^[\\S]*$"
                            },
                            "service-transaction-id": {
                                "description": "Request ID echoed back by server",
                                "x-example": "23409209723",
                                "type": "string",
                                "minLength": 1,
                                "maxLength": 256,
                                "pattern": "^[\\S]*$"
                            }
                        }
                    },
                    "304": {
                        "description": "Not Modified",
                        "headers": {
                            "Cache-Control": {
                                "description": "Cache policy supported for the resource by the server",
                                "x-example": "no-cache",
                                "type": "string",
                                "minLength": 1,
                                "maxLength": 256,
                                "pattern": "^[\\S]*$"
                            },
                            "Date": {
                                "description": "The Date general HTTP header contains the date and time at which the message was originated.",
                                "x-example": "Mon, 05 Mar 2018 16:38:08 GMT",
                                "type": "string",
                                "format": "date-time",
                                "pattern": "^(Mon|Tue|Wed|Thu|Fri|Sat|Sun), [0-3]{1}[0-9]{1} (Jan|Feb|Mar|Apr|May|Jun|Jul|Aug|Sep|Oct|Nov|Dec) [1-3][0-9]{3} [0-2][0-9]:[0-6][0-9]:[0-6][0-9] GMT$"
                            },
                            "service-transaction-id": {
                                "description": "Request ID echoed back by server",
                                "x-example": "23409209723",
                                "type": "string",
                                "minLength": 1,
                                "maxLength": 256,
                                "pattern": "^[\\S]*$"
                            }
                        }
                    },
                    "400": {
                        "description": "Bad Request",
                        "schema": {
                            "$ref": "#/definitions/Error"
                        },
                        "examples": {
                            "application/json": {
                                "code": "400",
                                "userMessage": "Bad Request",
                                "systemMessage": "Bad Request",
                                "detailLink": "http://www.tmus.com"
                            }
                        },
                        "headers": {}
                    },
                    "401": {
                        "description": "Unauthorized",
                        "schema": {
                            "$ref": "#/definitions/Error"
                        },
                        "examples": {
                            "application/json": {
                                "code": "401",
                                "userMessage": "Unauthorized",
                                "systemMessage": "Unauthorized",
                                "detailLink": "http://www.tmus.com"
                            }
                        },
                        "headers": {}
                    },
                    "403": {
                        "description": "Client access denied",
                        "schema": {
                            "$ref": "#/definitions/Error"
                        },
                        "examples": {
                            "application/json": {
                                "code": "403",
                                "userMessage": "Client access denied",
                                "systemMessage": "Client access denied",
                                "detailLink": "http://www.tmus.com"
                            }
                        },
                        "headers": {}
                    },
                    "404": {
                        "description": "Resource not found",
                        "schema": {
                            "$ref": "#/definitions/Error"
                        },
                        "examples": {
                            "application/json": {
                                "code": "404",
                                "userMessage": "Resource not found",
                                "systemMessage": "Resource not found",
                                "detailLink": "http://www.tmus.com"
                            }
                        },
                        "headers": {}
                    },
                    "405": {
                        "description": "Method Not Allowed",
                        "schema": {
                            "$ref": "#/definitions/Error"
                        },
                        "examples": {
                            "application/json": {
                                "code": "405",
                                "userMessage": "Method Not Allowed",
                                "systemMessage": "Method Not Allowed",
                                "detailLink": "http://www.tmus.com"
                            }
                        },
                        "headers": {
                            "Allow": {
                                "description": "list of supported methods for URI",
                                "x-example": "GET",
                                "type": "string",
                                "minLength": 1,
                                "maxLength": 256,
                                "pattern": "^[\\S]*$"
                            },
                            "service-transaction-id": {
                                "description": "Request ID echoed back by server",
                                "x-example": "23409209723",
                                "type": "string",
                                "minLength": 1,
                                "maxLength": 256,
                                "pattern": "^[\\S]*$"
                            }
                        }
                    },
                    "406": {
                        "description": "Mismatching data format",
                        "schema": {
                            "$ref": "#/definitions/Error"
                        },
                        "examples": {
                            "application/json": {
                                "code": "406",
                                "userMessage": "Mismatching data format",
                                "systemMessage": "Mismatching data format",
                                "detailLink": "http://www.tmus.com"
                            }
                        },
                        "headers": {}
                    },
                    "409": {
                        "description": "Invalid data",
                        "schema": {
                            "$ref": "#/definitions/Error"
                        },
                        "examples": {
                            "application/json": {
                                "code": "409",
                                "userMessage": "Invalid data",
                                "systemMessage": "Invalid data",
                                "detailLink": "http://www.tmus.com"
                            }
                        },
                        "headers": {}
                    },
                    "412": {
                        "description": "Stale data",
                        "schema": {
                            "$ref": "#/definitions/Error"
                        },
                        "examples": {
                            "application/json": {
                                "code": "412",
                                "userMessage": "Stale data",
                                "systemMessage": "Stale data",
                                "detailLink": "http://www.tmus.com"
                            }
                        },
                        "headers": {}
                    },
                    "415": {
                        "description": "Unsupported Media Type",
                        "schema": {
                            "$ref": "#/definitions/Error"
                        },
                        "examples": {
                            "application/json": {
                                "code": "415",
                                "userMessage": "Unsupported Media Type",
                                "systemMessage": "Unsupported Media Type",
                                "detailLink": "http://www.tmus.com"
                            }
                        },
                        "headers": {}
                    },
                    "500": {
                        "description": "System Error",
                        "schema": {
                            "$ref": "#/definitions/Error"
                        },
                        "examples": {
                            "application/json": {
                                "code": "500",
                                "userMessage": "System Error",
                                "systemMessage": "System Error",
                                "detailLink": "http://www.tmus.com"
                            }
                        },
                        "headers": {}
                    },
                    "503": {
                        "description": "Service unavailable",
                        "schema": {
                            "$ref": "#/definitions/Error"
                        },
                        "examples": {
                            "application/json": {
                                "code": "503",
                                "userMessage": "Service unavailable",
                                "systemMessage": "Service unavailable",
                                "detailLink": "http://www.tmus.com"
                            }
                        },
                        "headers": {}
                    }
                },
                "security": [
                    {
                        "OAuth2": []
                    }
                ]
            }
        }
    },
    "definitions": {
        "AccountHolderAddress": {
            "description": "account holder address",
            "type": "object",
            "properties": {
                "addressCore": {
                    "$ref": "#/definitions/AddressCore"
                }
            }
        },
        "AddressCore": {
            "description": "address core",
            "type": "object",
            "properties": {
                "addressLine1": {
                    "description": "To indicate the  Address Line1.",
                    "type": "string"
                },
                "addressLine2": {
                    "description": "To indicate the Address Line2.",
                    "type": "string"
                },
                "cityName": {
                    "description": "To indicate the city name.",
                    "type": "string"
                },
                "stateCode": {
                    "description": "To indicate the Country Code.",
                    "example": "WA",
                    "type": "string",
                    "minLength": 2,
                    "maxLength": 2
                },
                "zip": {
                    "description": "To indicate the ZipCode.",
                    "type": "string"
                }
            }
        },
        "BankPayment": {
            "type": "object",
            "properties": {
                "accountHolderAddress": {
                    "$ref": "#/definitions/AccountHolderAddress"
                },
                "routingNumber": {
                    "description": "routing number",
                    "type": "string"
                },
                "bankAccountAlias": {
                    "description": "Bank account alias used by the customer.",
                    "type": "string"
                },
                "nickName": {
                    "description": "Nickname for bank payment.",
                    "type": "string"
                },
                "updateTime": {
                    "description": "Time when the record is last updated.",
                    "example": "2019-03-12T19:58:24Z",
                    "type": "string"
                },
                "accountHolderNames": {
                    "description": "An array of accountHolderNames objects.",
                    "type": "array",
                    "items": {
                        "type": "string",
                        "description": "A single instance of the accountHolderNames object."
                    }
                }
            }
        },
        "CardHolderAddress": {
            "description": "card holder address",
            "type": "object",
            "properties": {
                "addressCore": {
                    "$ref": "#/definitions/AddressCore"
                }
            }
        },
        "CashAppDecisionRequest": {
            "description": "CashApp decision request",
            "type": "object",
            "required": [
                "transactionId",
                "decision",
                "cashAppUserId"
            ],
            "properties": {
                "transactionId": {
                    "description": "Transaction ID. For e.g. 1001",
                    "example": {
                        "transactionId": "1001"
                    },
                    "type": "string",
                    "enum": [
                        "xxxxx"
                    ]
                },
                "formId": {
                    "description": "Form ID. For e.g. 1001",
                    "example": {
                        "formId": "1001"
                    },
                    "type": "string",
                    "enum": [
                        "xxxxx"
                    ]
                },
                "decision": {
                    "description": "Over balance decision. For e.g. AP Approved, AS APROVED BY SUPERVISOR, AX Approved Exception, CA Cancelled, DE Declined",
                    "example": {
                        "decision": "AP"
                    },
                    "type": "string",
                    "enum": [
                        "AP",
                        "AS",
                        "AX",
                        "CA",
                        "DE"
                    ]
                },
                "cashAppUserId": {
                    "description": "CashApp approved by user. For e.g. RETAILTEST1",
                    "example": {
                        "cashAppUserId": "RETAILTEST1"
                    },
                    "type": "string",
                    "enum": [
                        "RETAILTEST1"
                    ]
                }
            }
        },
        "CashAppDecisionResponses": {
            "description": "CashApp decision response",
            "type": "object",
            "properties": {
                "code": {
                    "description": "Used to pass Successful message code",
                    "type": "string"
                },
                "userMessage": {
                    "description": "Use to pass human friendly information to the user.",
                    "type": "string"
                },
                "systemMessage": {
                    "description": "Used to pass system information.",
                    "type": "string"
                }
            }
        },
        "Error": {
            "description": "As defined in http://api-standards.apps.px-npe01.cf.t-mobile.com/http/status-codes/error-response-format/",
            "type": "object",
            "required": [
                "code",
                "userMessage"
            ],
            "properties": {
                "code": {
                    "description": "A succinct, domain-specific, human-readable text string to identify the type of error for the given status code",
                    "example": "ProductNotFound",
                    "type": "string",
                    "pattern": "^[\\S ]+$"
                },
                "userMessage": {
                    "description": "A human-readable message describing the error.",
                    "example": "Failed to find product.",
                    "type": "string",
                    "pattern": "^[\\S ]+$"
                },
                "systemMessage": {
                    "description": "Text that provides a more detailed technical explanation of the error",
                    "example": "PRODUCT_NOT_FOUND",
                    "type": "string"
                }
            }
        },
        "Payment": {
            "description": "contains list of payment instrument",
            "type": "array",
            "items": {
                "type": "object",
                "required": [
                    "walletSize",
                    "walletCapacity"
                ],
                "properties": {
                    "paymentInstrument": {
                        "$ref": "#/definitions/PaymentInstrument"
                    },
                    "paymentMethodReference": {
                        "$ref": "#/definitions/PaymentMethodReference"
                    },
                    "paymentMethod": {
                        "$ref": "#/definitions/PaymentMethod"
                    },
                    "walletSize": {
                        "description": "wallet size",
                        "example": "3",
                        "type": "integer",
                        "format": "int32",
                        "minimum": -2147483648,
                        "maximum": 2147483647,
                        "pattern": "^[\\-+]?[0-9]+$"
                    },
                    "walletCapacity": {
                        "description": "wallet capacity",
                        "example": "10",
                        "type": "integer",
                        "format": "int32",
                        "minimum": -2147483648,
                        "maximum": 2147483647,
                        "pattern": "^[\\-+]?[0-9]+$"
                    },
                    "verificationIndicator": {
                        "description": "To indicate if the Instrument is verified",
                        "example": "false",
                        "type": "boolean"
                    },
                    "migrationIndicator": {
                        "description": "To indicate if the Instrument is migrated",
                        "example": "false",
                        "type": "boolean"
                    }
                }
            }
        },
        "PaymentCard": {
            "description": "an object contains card detail",
            "type": "object",
            "required": [
                "expirationStatus"
            ],
            "properties": {
                "expirationMonthYear": {
                    "description": "Expiration month and year of the card",
                    "example": "0220",
                    "type": "string",
                    "minLength": 4,
                    "maxLength": 4
                },
                "nickName": {
                    "description": "Nick name for payment card",
                    "type": "string"
                },
                "updateTime": {
                    "description": "Time when the record is last updated.",
                    "type": "string"
                },
                "expirationStatus": {
                    "description": "EXPIRING or EXPIRED. EXPIRING when expiration date of the Card is within 30 days",
                    "example": "EXPIRED,EXPIRING",
                    "type": "string",
                    "pattern": "^[A-Z0-9a-z]$"
                },
                "typeCode": {
                    "description": "Type of payment Card. Examples are Visa, MasterCard, Debit etc",
                    "example": "AMERICANEXPRESS",
                    "type": "string"
                },
                "paymentCardAlias": {
                    "description": "A nickname assigned by the customer as an alternative way to identify a stored payment card.",
                    "type": "string"
                },
                "cardHolderAddress": {
                    "$ref": "#/definitions/CardHolderAddress"
                },
                "cardHolderName": {
                    "description": "Name of the Card Holder",
                    "type": "string"
                }
            }
        },
        "PaymentInstrument": {
            "description": "payment instrument object",
            "type": "object",
            "properties": {
                "paymentCard": {
                    "$ref": "#/definitions/PaymentCard"
                },
                "bankPayment": {
                    "$ref": "#/definitions/BankPayment"
                }
            }
        },
        "PaymentMethod": {
            "type": "object",
            "properties": {
                "paymentMethodStatus": {
                    "description": "Status of payment method, such as VALID, INVALID",
                    "example": "VALID",
                    "type": "string"
                }
            }
        },
        "PaymentMethodReference": {
            "type": "object",
            "properties": {
                "defaultPaymentMethodIndicator": {
                    "description": "To indicate if this payment method is default.",
                    "type": "boolean"
                },
                "autopayEnabledIndicator": {
                    "description": "Indicates whether the payment method is enabled for automatic payment. true/false",
                    "type": "boolean"
                },
                "paymentMethodCode": {
                    "description": "Describes the BIN payment type such as CC - Credit Card,HD - Hybrid Debit,HC - Hybrid Credit,DC - Debit Card,PD - Prepaid Debit or PC - Prepaid Credit.",
                    "example": "CC",
                    "type": "string"
                }
            }
        },
        "ResponseError": {
            "description": "Used to pass error information in a response.",
            "type": "object",
            "properties": {
                "code": {
                    "description": "Used to pass error codes",
                    "type": "string"
                },
                "userMessage": {
                    "description": "Use to pass human friendly information to the user.",
                    "type": "string"
                },
                "systemMessage": {
                    "description": "Used to pass system information.",
                    "type": "string"
                }
            }
        },
        "ValidationAuthRequest": {
            "description": "a collection of ResponseError",
            "type": "object",
            "required": [
                "validationAuthRequest"
            ],
            "properties": {
                "validationAuthRequest": {
                    "description": "cancel transaction payload",
                    "example": {
                        "payload": "payload"
                    },
                    "type": "string",
                    "enum": [
                        "Payload"
                    ]
                }
            }
        },
        "Wallet": {
            "description": "wallet",
            "example": {
                "payment": [
                    {
                        "paymentInstrument": {
                            "bankPayment": {
                                "routingNumber": "042206503",
                                "bankAccountAlias": "99999900001446567564",
                                "accountHolderFirstName": "Rahul",
                                "accountHolderLastName": "Sharma",
                                "updateTime": "2019-03-12T19:58:24Z",
                                "accountHolderNames": [
                                    "Rahul"
                                ],
                                "accountHolderAddress": {
                                    "addressCore": {
                                        "addressLine2": "gateway",
                                        "cityName": "Portland",
                                        "stateCode": "OR",
                                        "zip": "98012"
                                    }
                                }
                            }
                        },
                        "paymentMethod": {
                            "paymentMethodStatus": "VALID"
                        },
                        "paymentMethodReference": {
                            "paymentMethodCode": "CHECK",
                            "defaultPaymentMethodIndicator": false,
                            "autopayEnabledIndicator": false
                        },
                        "walletCapacity": 100,
                        "walletSize": 3,
                        "verificationIndicator": false,
                        "migrationIndicator": false
                    },
                    {
                        "paymentInstrument": {
                            "paymentCard": {
                                "cardHolderName": "RAHUL123",
                                "updateTime": "2019-03-12T20:04:04Z",
                                "typeCode": "VISA",
                                "expirationMonthYear": "0220",
                                "paymentCardAlias": "4000022421709328",
                                "cardHolderAddress": {
                                    "addressCore": {
                                        "addressLine1": "address sw garden pl",
                                        "addressLine2": "gateway",
                                        "cityName": "Portland",
                                        "stateCode": "OR",
                                        "zip": "03112"
                                    }
                                }
                            }
                        },
                        "paymentMethod": {
                            "paymentMethodStatus": "VALID"
                        },
                        "paymentMethodReference": {
                            "paymentMethodCode": "DC",
                            "defaultPaymentMethodIndicator": false,
                            "autopayEnabledIndicator": false
                        },
                        "walletCapacity": 100,
                        "walletSize": 3,
                        "verificationIndicator": false,
                        "migrationIndicator": false
                    }
                ]
            },
            "type": "object",
            "properties": {
                "payment": {
                    "description": "An array of payment objects.",
                    "type": "array",
                    "items": {
                        "$ref": "#/definitions/Payment"
                    }
                }
            }
        },
        "WalletConfig": {
            "description": "wallet config",
            "type": "object",
            "properties": {
                "allowWalletUsage": {
                    "description": "To indicate user has wallet access or not",
                    "example": "false",
                    "type": "boolean"
                },
                "denialTypes": {
                    "description": "An array of denialTypes objects.",
                    "type": "array",
                    "items": {
                        "type": "string",
                        "description": "A single instance of the denialTypes object."
                    }
                }
            }
        },
        "WalletRequest": {
            "description": "Customer wallet seach api request object",
            "type": "object",
            "required": [
                "accountNumber",
                "phoneNumber",
                "walletIdentificationMsisdn"
            ],
            "properties": {
                "accountNumber": {
                    "description": "BAN number",
                    "example": "123456789",
                    "type": "string",
                    "pattern": "^[0-9]$"
                },
                "phoneNumber": {
                    "description": "customer phone number",
                    "example": "9123456780",
                    "type": "string",
                    "pattern": "^[0-9]$"
                },
                "walletIdentificationMsisdn": {
                    "description": "walletId is an Instance Identifier for the wallet object.",
                    "example": "9123456780",
                    "type": "string",
                    "pattern": "^[0-9]$"
                }
            }
        },
        "WalletResponse": {
            "type": "object",
            "properties": {
                "walletConfig": {
                    "$ref": "#/definitions/WalletConfig"
                },
                "wallet": {
                    "$ref": "#/definitions/Wallet"
                }
            }
        }
    },
    "securityDefinitions": {
        "OAuth2": {
            "type": "oauth2",
            "description": "https://oauth.net/2/",
            "tokenUrl": "https://qlab02.core.op.api.t-mobile.com/v1/oauth2/accesstoken?grant_type=client_credentials&transactiontype=POSTPAID",
            "flow": "application",
            "scopes": {}
        }
    }
}