{  
   "swagger":"2.0",
   "basePath":"/paymentapp/v1",
   "schemes":[  
      "http"
   ],
   "info":{  
      "title":"PaymentApp",
      "contact":{  

      },
      "version":"1.1"
   },
   "paths":{  
      "/paymenttransactions/{id}":{  
         "put":{  
            "tags":[  
               "PaymentApp"
            ],
            "consumes":[  
               "application/json",
               "application/xml"
            ],
            "produces":[  
               "application/json",
               "application/xml"
            ],
            "responses":{  
               "503":{  
                  "description":"Service Unavailable",
                  "schema":{  
                     "$ref":"#/definitions/errors"
                  }
               },
               "204":{  
                  "description":"No Content",
                  "headers":{  
                     "Access-Control-Allow-Headers":{  
                        "description":"The Access-Control-Allow-Headers header indicates, as part of a pre-flight request which headers can be used on the actual request.",
                        "type":"string"
                     },
                     "Access-Control-Allow-Methods":{  
                        "description":"The Access-Control-Allow-Methods header indicates, as part of a pre-flight request which methods can be used on the actual request.",
                        "type":"string"
                     },
                     "Access-Control-Allow-Origin":{  
                        "description":"The Access-Control-Allow-Origin header indicates whether a resource can be shared by returning the value of the Origin request header or “*” in the response.",
                        "type":"string"
                     },
                     "Cache-Control":{  
                        "description":"no-cache",
                        "type":"string"
                     },
                     "Content-Length":{  
                        "description":"The Content-Length header specifies the actual length of the returned payload.",
                        "type":"string"
                     },
                     "Content-Type":{  
                        "description":"The Content-Length header specifies the actual length of the returned payload.",
                        "type":"string"
                     },
                     "ETag":{  
                        "description":"The ETag header specifies the unique entity tag value for the returned resource.",
                        "type":"string"
                     },
                     "Expires":{  
                        "description":"The Expires header gives the date-time after which the response is considered stale.",
                        "type":"string"
                     },
                     "Location":{  
                        "description":"The Location header specifies the URI of a created resource, or redirects the API consumer to an alternate resource location.",
                        "type":"string"
                     },
                     "servicetransactionid":{  
                        "description":"Internal identifier for transaction tracking an individual transaction/API request within API platform. Don’t receive/don’t send to downstream",
                        "type":"string"
                     }
                  }
               },
               "404":{  
                  "description":"Not Found",
                  "schema":{  
                     "$ref":"#/definitions/errors"
                  }
               },
               "400":{  
                  "description":"Bad Request",
                  "schema":{  
                     "$ref":"#/definitions/errors"
                  }
               },
               "500":{  
                  "description":"Internal Server Error",
                  "schema":{  
                     "$ref":"#/definitions/errors"
                  }
               }
            },
            "operationId":"updatePaymentTransaction",
            "parameters":[  
               {  
                  "name":"updatePaymentTransactionRequest",
                  "in":"body",
                  "schema":{  
                     "maxItems":1,
                     "$ref":"#/definitions/updatePaymentTransactionRequest"
                  },
                  "description":""
               },
               {  
                  "name":"id",
                  "in":"path",
                  "required":true,
                  "description":"",
                  "type":"string"
               },
               {  
                  "$ref":"#/parameters/AuthorizationParam"
               },
               {  
                  "$ref":"#/parameters/Content-typeParam"
               },
               {  
                  "$ref":"#/parameters/AcceptParam"
               },
               {  
                  "$ref":"#/parameters/applicationuseridParam"
               },
               {  
                  "$ref":"#/parameters/sessionidParam"
               },
               {  
                  "$ref":"#/parameters/interactionidParam"
               },
               {  
                  "$ref":"#/parameters/activityidParam"
               },
               {  
                  "$ref":"#/parameters/workflowidParam"
               },
               {  
                  "$ref":"#/parameters/timestampParam"
               },
               {  
                  "$ref":"#/parameters/storeidParam"
               },
               {  
                  "$ref":"#/parameters/terminalidParam"
               },
               {  
                  "$ref":"#/parameters/tillidParam"
               },
               {  
                  "$ref":"#/parameters/dealercodeParam"
               },
               {  
                  "$ref":"#/parameters/segmentationidParam"
               },
               {  
                  "$ref":"#/parameters/authcustomeridParam"
               },
               {  
                  "$ref":"#/parameters/authfinancialaccountidParam"
               },
               {  
                  "$ref":"#/parameters/authlineofserviceidParam"
               },
               {  
                  "$ref":"#/parameters/Access-Control-Request-HeadersParam"
               },
               {  
                  "$ref":"#/parameters/Access-Control-Request-MethodParam"
               },
               {  
                  "$ref":"#/parameters/If-MatchParam"
               },
               {  
                  "$ref":"#/parameters/If-Modified-SinceParam"
               },
               {  
                  "$ref":"#/parameters/If-None-MatchParam"
               },
               {  
                  "$ref":"#/parameters/OriginParam"
               }
            ],
            "summary":"updatePaymentTransaction"
         }
      },
      "/equipmenttransactions/{id}":{  
         "get":{  
            "tags":[  
               "PaymentApp"
            ],
            "consumes":[  
               "application/json",
               "application/xml"
            ],
            "produces":[  
               "application/json",
               "application/xml"
            ],
            "responses":{  
               "503":{  
                  "description":"Service Unavailable",
                  "schema":{  
                     "$ref":"#/definitions/errors"
                  }
               },
               "404":{  
                  "description":"Not Found",
                  "schema":{  
                     "$ref":"#/definitions/errors"
                  }
               },
               "200":{  
                  "description":"OK",
                  "schema":{  
                     "maxItems":1,
                     "$ref":"#/definitions/getHandoffDataResponse"
                  },
                  "headers":{  
                     "Access-Control-Allow-Headers":{  
                        "description":"The Access-Control-Allow-Headers header indicates, as part of a pre-flight request which headers can be used on the actual request.",
                        "type":"string"
                     },
                     "Access-Control-Allow-Methods":{  
                        "description":"The Access-Control-Allow-Methods header indicates, as part of a pre-flight request which methods can be used on the actual request.",
                        "type":"string"
                     },
                     "Access-Control-Allow-Origin":{  
                        "description":"The Access-Control-Allow-Origin header indicates whether a resource can be shared by returning the value of the Origin request header or “*” in the response.",
                        "type":"string"
                     },
                     "Cache-Control":{  
                        "description":"no-cache",
                        "type":"string"
                     },
                     "Content-Length":{  
                        "description":"The Content-Length header specifies the actual length of the returned payload.",
                        "type":"string"
                     },
                     "Content-Type":{  
                        "description":"The Content-Length header specifies the actual length of the returned payload.",
                        "type":"string"
                     },
                     "ETag":{  
                        "description":"The ETag header specifies the unique entity tag value for the returned resource.",
                        "type":"string"
                     },
                     "Expires":{  
                        "description":"The Expires header gives the date-time after which the response is considered stale.",
                        "type":"string"
                     },
                     "Location":{  
                        "description":"The Location header specifies the URI of a created resource, or redirects the API consumer to an alternate resource location.",
                        "type":"string"
                     },
                     "servicetransactionid":{  
                        "description":"Internal identifier for transaction tracking an individual transaction/API request within API platform. Don’t receive/don’t send to downstream",
                        "type":"string"
                     }
                  }
               },
               "400":{  
                  "description":"Bad Request",
                  "schema":{  
                     "$ref":"#/definitions/errors"
                  }
               },
               "500":{  
                  "description":"Internal Server Error",
                  "schema":{  
                     "$ref":"#/definitions/errors"
                  }
               }
            },
            "operationId":"geHandoffData",
            "parameters":[  
               {  
                  "name":"id",
                  "in":"path",
                  "required":true,
                  "description":"",
                  "type":"string"
               },
               {  
                  "$ref":"#/parameters/AuthorizationParam"
               },
               {  
                  "$ref":"#/parameters/Content-typeParam"
               },
               {  
                  "$ref":"#/parameters/AcceptParam"
               },
               {  
                  "$ref":"#/parameters/applicationuseridParam"
               },
               {  
                  "$ref":"#/parameters/sessionidParam"
               },
               {  
                  "$ref":"#/parameters/interactionidParam"
               },
               {  
                  "$ref":"#/parameters/activityidParam"
               },
               {  
                  "$ref":"#/parameters/workflowidParam"
               },
               {  
                  "$ref":"#/parameters/timestampParam"
               },
               {  
                  "$ref":"#/parameters/storeidParam"
               },
               {  
                  "$ref":"#/parameters/terminalidParam"
               },
               {  
                  "$ref":"#/parameters/tillidParam"
               },
               {  
                  "$ref":"#/parameters/dealercodeParam"
               },
               {  
                  "$ref":"#/parameters/segmentationidParam"
               },
               {  
                  "$ref":"#/parameters/authcustomeridParam"
               },
               {  
                  "$ref":"#/parameters/authfinancialaccountidParam"
               },
               {  
                  "$ref":"#/parameters/authlineofserviceidParam"
               },
               {  
                  "$ref":"#/parameters/Access-Control-Request-HeadersParam"
               },
               {  
                  "$ref":"#/parameters/Access-Control-Request-MethodParam"
               },
               {  
                  "$ref":"#/parameters/If-MatchParam"
               },
               {  
                  "$ref":"#/parameters/If-Modified-SinceParam"
               },
               {  
                  "$ref":"#/parameters/If-None-MatchParam"
               },
               {  
                  "$ref":"#/parameters/OriginParam"
               }
            ],
            "summary":"geHandoffData"
         },
         "put":{  
            "tags":[  
               "PaymentApp"
            ],
            "consumes":[  
               "application/json",
               "application/xml"
            ],
            "produces":[  
               "application/json",
               "application/xml"
            ],
            "responses":{  
               "503":{  
                  "description":"Service Unavailable",
                  "schema":{  
                     "$ref":"#/definitions/errors"
                  }
               },
               "204":{  
                  "description":"No Content",
                  "headers":{  
                     "Access-Control-Allow-Headers":{  
                        "description":"The Access-Control-Allow-Headers header indicates, as part of a pre-flight request which headers can be used on the actual request.",
                        "type":"string"
                     },
                     "Access-Control-Allow-Methods":{  
                        "description":"The Access-Control-Allow-Methods header indicates, as part of a pre-flight request which methods can be used on the actual request.",
                        "type":"string"
                     },
                     "Access-Control-Allow-Origin":{  
                        "description":"The Access-Control-Allow-Origin header indicates whether a resource can be shared by returning the value of the Origin request header or “*” in the response.",
                        "type":"string"
                     },
                     "Cache-Control":{  
                        "description":"no-cache",
                        "type":"string"
                     },
                     "Content-Length":{  
                        "description":"The Content-Length header specifies the actual length of the returned payload.",
                        "type":"string"
                     },
                     "Content-Type":{  
                        "description":"The Content-Length header specifies the actual length of the returned payload.",
                        "type":"string"
                     },
                     "ETag":{  
                        "description":"The ETag header specifies the unique entity tag value for the returned resource.",
                        "type":"string"
                     },
                     "Expires":{  
                        "description":"The Expires header gives the date-time after which the response is considered stale.",
                        "type":"string"
                     },
                     "Location":{  
                        "description":"The Location header specifies the URI of a created resource, or redirects the API consumer to an alternate resource location.",
                        "type":"string"
                     },
                     "servicetransactionid":{  
                        "description":"Internal identifier for transaction tracking an individual transaction/API request within API platform. Don’t receive/don’t send to downstream",
                        "type":"string"
                     }
                  }
               },
               "404":{  
                  "description":"Not Found",
                  "schema":{  
                     "$ref":"#/definitions/errors"
                  }
               },
               "400":{  
                  "description":"Bad Request",
                  "schema":{  
                     "$ref":"#/definitions/errors"
                  }
               },
               "500":{  
                  "description":"Internal Server Error",
                  "schema":{  
                     "$ref":"#/definitions/errors"
                  }
               }
            },
            "operationId":"updateEipInfo",
            "parameters":[  
               {  
                  "name":"updateEipInfoRequest",
                  "in":"body",
                  "schema":{  
                     "maxItems":1,
                     "$ref":"#/definitions/updateEipInfoRequest"
                  },
                  "description":""
               },
               {  
                  "name":"id",
                  "in":"path",
                  "required":true,
                  "description":"",
                  "type":"string"
               },
               {  
                  "$ref":"#/parameters/AuthorizationParam"
               },
               {  
                  "$ref":"#/parameters/Content-typeParam"
               },
               {  
                  "$ref":"#/parameters/AcceptParam"
               },
               {  
                  "$ref":"#/parameters/applicationuseridParam"
               },
               {  
                  "$ref":"#/parameters/sessionidParam"
               },
               {  
                  "$ref":"#/parameters/interactionidParam"
               },
               {  
                  "$ref":"#/parameters/activityidParam"
               },
               {  
                  "$ref":"#/parameters/workflowidParam"
               },
               {  
                  "$ref":"#/parameters/timestampParam"
               },
               {  
                  "$ref":"#/parameters/storeidParam"
               },
               {  
                  "$ref":"#/parameters/terminalidParam"
               },
               {  
                  "$ref":"#/parameters/tillidParam"
               },
               {  
                  "$ref":"#/parameters/dealercodeParam"
               },
               {  
                  "$ref":"#/parameters/segmentationidParam"
               },
               {  
                  "$ref":"#/parameters/authcustomeridParam"
               },
               {  
                  "$ref":"#/parameters/authfinancialaccountidParam"
               },
               {  
                  "$ref":"#/parameters/authlineofserviceidParam"
               },
               {  
                  "$ref":"#/parameters/Access-Control-Request-HeadersParam"
               },
               {  
                  "$ref":"#/parameters/Access-Control-Request-MethodParam"
               },
               {  
                  "$ref":"#/parameters/If-MatchParam"
               },
               {  
                  "$ref":"#/parameters/If-Modified-SinceParam"
               },
               {  
                  "$ref":"#/parameters/If-None-MatchParam"
               },
               {  
                  "$ref":"#/parameters/OriginParam"
               }
            ],
            "summary":"updateEipInfo"
         }
      },
      "/equipmenttransactions":{  
         "get":{  
            "tags":[  
               "PaymentApp"
            ],
            "consumes":[  
               "application/json",
               "application/xml"
            ],
            "produces":[  
               "application/json",
               "application/xml"
            ],
            "responses":{  
               "503":{  
                  "description":"Service Unavailable",
                  "schema":{  
                     "$ref":"#/definitions/errors"
                  }
               },
               "404":{  
                  "description":"Not Found",
                  "schema":{  
                     "$ref":"#/definitions/errors"
                  }
               },
               "200":{  
                  "description":"OK",
                  "schema":{  
                     "maxItems":1,
                     "$ref":"#/definitions/LookupPaymentResponse"
                  },
                  "headers":{  
                     "Access-Control-Allow-Headers":{  
                        "description":"The Access-Control-Allow-Headers header indicates, as part of a pre-flight request which headers can be used on the actual request.",
                        "type":"string"
                     },
                     "Access-Control-Allow-Methods":{  
                        "description":"The Access-Control-Allow-Methods header indicates, as part of a pre-flight request which methods can be used on the actual request.",
                        "type":"string"
                     },
                     "Access-Control-Allow-Origin":{  
                        "description":"The Access-Control-Allow-Origin header indicates whether a resource can be shared by returning the value of the Origin request header or “*” in the response.",
                        "type":"string"
                     },
                     "Cache-Control":{  
                        "description":"no-cache",
                        "type":"string"
                     },
                     "Content-Length":{  
                        "description":"The Content-Length header specifies the actual length of the returned payload.",
                        "type":"string"
                     },
                     "Content-Type":{  
                        "description":"The Content-Length header specifies the actual length of the returned payload.",
                        "type":"string"
                     },
                     "ETag":{  
                        "description":"The ETag header specifies the unique entity tag value for the returned resource.",
                        "type":"string"
                     },
                     "Expires":{  
                        "description":"The Expires header gives the date-time after which the response is considered stale.",
                        "type":"string"
                     },
                     "Location":{  
                        "description":"The Location header specifies the URI of a created resource, or redirects the API consumer to an alternate resource location.",
                        "type":"string"
                     },
                     "servicetransactionid":{  
                        "description":"Internal identifier for transaction tracking an individual transaction/API request within API platform. Don’t receive/don’t send to downstream",
                        "type":"string"
                     }
                  }
               },
               "400":{  
                  "description":"Bad Request",
                  "schema":{  
                     "$ref":"#/definitions/errors"
                  }
               },
               "500":{  
                  "description":"Internal Server Error",
                  "schema":{  
                     "$ref":"#/definitions/errors"
                  }
               }
            },
            "operationId":"LookupPayment",
            "parameters":[  
               {  
                  "name":"phonenumber",
                  "in":"query",
                  "description":"",
                  "type":"string"
               },
               {  
                  "name":"loanid",
                  "in":"query",
                  "description":"",
                  "type":"string"
               },
               {  
                  "$ref":"#/parameters/AuthorizationParam"
               },
               {  
                  "$ref":"#/parameters/Content-typeParam"
               },
               {  
                  "$ref":"#/parameters/AcceptParam"
               },
               {  
                  "$ref":"#/parameters/applicationuseridParam"
               },
               {  
                  "$ref":"#/parameters/sessionidParam"
               },
               {  
                  "$ref":"#/parameters/interactionidParam"
               },
               {  
                  "$ref":"#/parameters/activityidParam"
               },
               {  
                  "$ref":"#/parameters/workflowidParam"
               },
               {  
                  "$ref":"#/parameters/timestampParam"
               },
               {  
                  "$ref":"#/parameters/storeidParam"
               },
               {  
                  "$ref":"#/parameters/terminalidParam"
               },
               {  
                  "$ref":"#/parameters/tillidParam"
               },
               {  
                  "$ref":"#/parameters/dealercodeParam"
               },
               {  
                  "$ref":"#/parameters/segmentationidParam"
               },
               {  
                  "$ref":"#/parameters/authcustomeridParam"
               },
               {  
                  "$ref":"#/parameters/authfinancialaccountidParam"
               },
               {  
                  "$ref":"#/parameters/authlineofserviceidParam"
               },
               {  
                  "$ref":"#/parameters/Access-Control-Request-HeadersParam"
               },
               {  
                  "$ref":"#/parameters/Access-Control-Request-MethodParam"
               },
               {  
                  "$ref":"#/parameters/If-MatchParam"
               },
               {  
                  "$ref":"#/parameters/If-Modified-SinceParam"
               },
               {  
                  "$ref":"#/parameters/If-None-MatchParam"
               },
               {  
                  "$ref":"#/parameters/OriginParam"
               }
            ],
            "summary":"LookupPayment"
         },
         "post":{  
            "tags":[  
               "PaymentApp"
            ],
            "consumes":[  
               "application/json",
               "application/xml"
            ],
            "produces":[  
               "application/json",
               "application/xml"
            ],
            "responses":{  
               "503":{  
                  "description":"Service Unavailable",
                  "schema":{  
                     "$ref":"#/definitions/errors"
                  }
               },
               "404":{  
                  "description":"Not Found",
                  "schema":{  
                     "$ref":"#/definitions/errors"
                  }
               },
               "200":{  
                  "description":"OK",
                  "schema":{  
                     "maxItems":1,
                     "$ref":"#/definitions/InsertHandoffDataResponse"
                  },
                  "headers":{  
                     "Access-Control-Allow-Headers":{  
                        "description":"The Access-Control-Allow-Headers header indicates, as part of a pre-flight request which headers can be used on the actual request.",
                        "type":"string"
                     },
                     "Access-Control-Allow-Methods":{  
                        "description":"The Access-Control-Allow-Methods header indicates, as part of a pre-flight request which methods can be used on the actual request.",
                        "type":"string"
                     },
                     "Access-Control-Allow-Origin":{  
                        "description":"The Access-Control-Allow-Origin header indicates whether a resource can be shared by returning the value of the Origin request header or “*” in the response.",
                        "type":"string"
                     },
                     "Cache-Control":{  
                        "description":"no-cache",
                        "type":"string"
                     },
                     "Content-Length":{  
                        "description":"The Content-Length header specifies the actual length of the returned payload.",
                        "type":"string"
                     },
                     "Content-Type":{  
                        "description":"The Content-Length header specifies the actual length of the returned payload.",
                        "type":"string"
                     },
                     "ETag":{  
                        "description":"The ETag header specifies the unique entity tag value for the returned resource.",
                        "type":"string"
                     },
                     "Expires":{  
                        "description":"The Expires header gives the date-time after which the response is considered stale.",
                        "type":"string"
                     },
                     "Location":{  
                        "description":"The Location header specifies the URI of a created resource, or redirects the API consumer to an alternate resource location.",
                        "type":"string"
                     },
                     "servicetransactionid":{  
                        "description":"Internal identifier for transaction tracking an individual transaction/API request within API platform. Don’t receive/don’t send to downstream",
                        "type":"string"
                     }
                  }
               },
               "400":{  
                  "description":"Bad Request",
                  "schema":{  
                     "$ref":"#/definitions/errors"
                  }
               },
               "500":{  
                  "description":"Internal Server Error",
                  "schema":{  
                     "$ref":"#/definitions/errors"
                  }
               }
            },
            "operationId":"InsertHandoffData",
            "parameters":[  
               {  
                  "name":"InsertHandoffDataRequest",
                  "in":"body",
                  "schema":{  
                     "maxItems":1,
                     "$ref":"#/definitions/InsertHandoffDataRequest"
                  },
                  "description":""
               },
               {  
                  "$ref":"#/parameters/AuthorizationParam"
               },
               {  
                  "$ref":"#/parameters/Content-typeParam"
               },
               {  
                  "$ref":"#/parameters/AcceptParam"
               },
               {  
                  "$ref":"#/parameters/applicationuseridParam"
               },
               {  
                  "$ref":"#/parameters/sessionidParam"
               },
               {  
                  "$ref":"#/parameters/interactionidParam"
               },
               {  
                  "$ref":"#/parameters/activityidParam"
               },
               {  
                  "$ref":"#/parameters/workflowidParam"
               },
               {  
                  "$ref":"#/parameters/timestampParam"
               },
               {  
                  "$ref":"#/parameters/storeidParam"
               },
               {  
                  "$ref":"#/parameters/terminalidParam"
               },
               {  
                  "$ref":"#/parameters/tillidParam"
               },
               {  
                  "$ref":"#/parameters/dealercodeParam"
               },
               {  
                  "$ref":"#/parameters/segmentationidParam"
               },
               {  
                  "$ref":"#/parameters/authcustomeridParam"
               },
               {  
                  "$ref":"#/parameters/authfinancialaccountidParam"
               },
               {  
                  "$ref":"#/parameters/authlineofserviceidParam"
               },
               {  
                  "$ref":"#/parameters/Access-Control-Request-HeadersParam"
               },
               {  
                  "$ref":"#/parameters/Access-Control-Request-MethodParam"
               },
               {  
                  "$ref":"#/parameters/If-MatchParam"
               },
               {  
                  "$ref":"#/parameters/If-Modified-SinceParam"
               },
               {  
                  "$ref":"#/parameters/If-None-MatchParam"
               },
               {  
                  "$ref":"#/parameters/OriginParam"
               }
            ],
            "summary":"InsertHandoffData"
         }
      }
   },
   "tags":[  
      {  
         "name":"PaymentApp"
      }
   ],
   "definitions":{  
      "AccountDetails":{  
         "type":"object",
         "properties":{  
            "PaymentId":{  
               "type":"string"
            }
         }
      },
      "errors":{  
         "description":"a collection of errors",
         "type":"array",
         "items":{  
            "$ref":"#/definitions/responseError"
         }
      },
      "getHandoffDataResponse":{  
         "type":"object",
         "properties":{  
            "transactionType":{  
               "type":"string"
            },
            "transactionSubType":{  
               "type":"string"
            },
		    "dealerCode":{  
               "type":"string"
            },
            "masterDealerCode":{  
               "type":"string"
            },
            "orderId":{  
               "type":"string"
            },
            "channel":{  
               "type":"string"
            },
            "sourceId":{  
               "type":"string"
            },
            "primaryCustomerName":{  
               "type":"string"
            },
            "paymentMethod":{  
               "type":"string"
            },
            "paymentInstrumentType":{  
               "type":"string"
            },
            "paymentInstrumentLast4":{  
               "type":"string"
            },
            "paymenInstrumentAlias":{  
               "type":"string"
            },
            "cardHolderName":{  
               "type":"string"
            },
            "paymentId":{  
               "type":"string"
            },
            "eipPlanId":{  
	           "type":"string"
            },
            "accountNumber":{  
               "type":"string"
            },
            "totalAmount":{  
               "type":"number",
               "format":"double"
            },
            "userId":{  
               "type":"string"
            },
            "captureAutoPayEnrollment":{  
               "type":"string"
            },
            "pushToBillFlag":{  
               "type":"string"
            },
            "waiveProcessingFee":{  
               "type":"string"
            },
            "futureDatedPaymentIndicator":{  
               "type":"string"
            },
            "accountType":{  
               "type":"string"
            },
            "accountSubType":{  
               "type":"string"
            },
	    "creditClass":{  
               "type":"string"
            },
            "primaryPhoneNumber":{  
               "type":"string"
            },
            "quoteId":{  
               "type":"string"
            },
            "pastDueAmount":{  
               "type":"number",
               "format":"double"
            },
            "currentDueAmount":{  
               "type":"number",
               "format":"double"
            },
            "minimumAmountToQualifyForPushToBill":{  
               "type":"number",
               "format":"double"
            },
            "totalMinimumToRestore":{  
               "type":"number",
               "format":"double"
            },
            "totalDue":{  
               "type":"number",
               "format":"double"
            },
            "primaryCustomerBillingZip":{  
               "type":"string"
            },
	    "emailAddress":{  
               "type":"string"
            },
            "togglebackURL":{  
               "type":"string"
            },
            "transactionStatus":{  
               "type":"string"
            },
            "subscriberDetails":{  
               "type":"array",
               "items":{  
                  "$ref":"#/definitions/GetHandoffDataResponseSubscriberDetails"
               }
            }
         }
      },
      "GetHandoffDataResponseItemDetails":{  
         "type":"object",
         "properties":{  
            "loanId":{  
               "type":"string"
            },
			"planId":{  
               "type":"string"
            },
            "itemType":{  
               "type":"string"
            },
            "itemCode":{  
               "type":"string"
            },
            "msrp":{  
               "type":"number",
               "format":"double"
            },
            "imei":{  
               "type":"string"
            },
            "itemDescription":{  
               "type":"string"
            },
            "itemAmount":{  
               "type":"number",
               "format":"double"
            },
            "itemTax":{  
               "type":"string"
            },
            "itemStatus":{  
               "type":"string"
            },
            "returnPaymentId":{  
               "type":"string"
            },
            "effectiveDate":{  
               "type":"string",
               "format":"date"
            }
         }
      },
      "GetHandoffDataResponseSubscriberDetails":{  
         "type":"object",
         "properties":{  
            "phoneNumber":{  
               "type":"string"
            },
            "totalItemAmountWithoutTax":{  
               "type":"number",
               "format":"double"
            },
            "totalTax":{  
               "type":"number",
               "format":"double"
            },
            "totalItemAmountWithTax":{  
               "type":"number",
               "format":"double"
            },
            "itemDetails":{  
               "type":"array",
               "items":{  
                  "$ref":"#/definitions/GetHandoffDataResponseItemDetails"
               }
            }
         }
      },
      "InsertHandoffDataRequest":{  
         "type":"object",
         "properties":{  
            "accountNumber":{  
               "type":"string"
            },
            "totalAmount":{  
               "type":"number",
               "format":"double"
            },
	    "creditClass":{  
               "type":"string"
            },
            "primaryCustomerName":{  
               "type":"string"
            },
            "dealerCode":{  
               "type":"string"
            },
            "dealerName":{  
               "type":"string"
            },
            "emailAddress":{  
               "type":"string"
            },
            "orderId":{  
               "type":"string"
            },
            "transactionSubType":{  
               "type":"string"
            },
            "transactionType":{  
               "type":"string"
            },
            "subscriberDetails":{  
               "type":"array",
               "items":{  
                  "$ref":"#/definitions/SubscriberDetails"
               }
            },
            "togglebackURL":{  
               "type":"string"
            },
	    "primaryCustomerBillingZip":{  
               "type":"string"
            },
            "masterDealerCode":{  
               "type":"string"
            },
            "totalMinimumToRestore":{  
               "type":"number",
               "format":"double"
            },
            "minimumAmountToQualifyForPushToBill":{  
               "type":"number",
               "format":"double"
            },
            "currentDueAmount":{  
               "type":"number",
               "format":"double"
            },
            "pastDueAmount":{  
               "type":"number",
               "format":"double"
            },
            "quoteId":{  
               "type":"string"
            },
            "primaryPhoneNumber":{  
               "type":"string"
            },
            "accountType":{  
               "type":"string"
            },
            "accountSubType":{  
               "type":"string"
            },
            "waiveProcessingFee":{  
               "type":"string"
            },
            "pushToBillFlag":{  
               "type":"string"
            },
            "captureAutoPayEnrollment":{  
               "type":"string"
            },
            "userId":{  
               "type":"string"
            },
            "channel":{  
               "type":"string"
            },
            "sourceOrderId":{  
               "type":"string"
            },
            "sourceId":{  
               "type":"string"
            },
            "futureDatedPaymentIndicator":{  
               "type":"string"
            }
         }
      },
      "InsertHandoffDataResponse":{  
         "type":"object",
         "properties":{  
            "transactionId":{  
               "type":"string"
            },
            "paymentAppURL":{  
               "type":"string"
            },
            "paymentAppReturnUrl":{  
               "type":"string"
            }
         }
      },
      "ItemDetails":{  
         "type":"object",
         "properties":{  
            "itemType":{  
               "type":"string"
            },
            "itemCode":{  
               "type":"string"
            },
            "itemDescription":{  
               "type":"string"
            },
            "itemAmount":{  
               "type":"number",
               "format":"double"
            },
            "itemTax":{  
               "type":"string"
            },
            "msrp":{  
               "type":"number",
               "format":"double"
            },
            "imei":{  
               "type":"string"
            },
			"loanId":{  
               "type":"string"
            },
			"planId":{  
               "type":"string"
            },
            "effectiveDate":{  
               "type":"string",
               "format":"date"
            }
         }
      },
      "Items":{  
         "type":"object",
         "properties":{  
            "loanId":{  
               "type":"string"
            },
            "ItemType":{  
               "type":"string"
            },
            "phoneNumber":{  
               "type":"string"
            }
         }
      },
      "LookupPaymentResponse":{  
         "type":"object",
         "properties":{  
            "transactionId":{  
               "type":"string"
            },
            "paymentID":{  
               "type":"string"
            },
            "itemAmount":{  
               "type":"string"
            },
            "paymentstatus":{  
               "type":"string"
            },
            "paymentAppReturnUrl":{  
               "type":"string"
            },
            "dealerName":{  
               "type":"string"
            }
         }
      },
      "responseError":{  
         "description":"Used to pass error information in a response.",
         "type":"object",
         "properties":{  
            "code":{  
               "description":"Used to pass error codes",
               "type":"string"
            },
            "userMessage":{  
               "description":"Use to pass human friendly information to the user.",
               "type":"string"
            },
            "systemMessage":{  
               "description":"Used to pass system information.",
               "type":"string"
            }
         }
      },
      "SubscriberDetails":{  
         "type":"object",
         "properties":{  
            "phoneNumber":{  
               "type":"string"
            },
            "itemDetails":{  
               "type":"array",
               "items":{  
                  "$ref":"#/definitions/ItemDetails"
               }
            },
            "totalItemAmountWithoutTax":{  
               "type":"number",
               "format":"double"
            },
            "totalTax":{  
               "type":"number",
               "format":"double"
            },
            "totalItemAmountWithTax":{  
               "type":"number",
               "format":"double"
            }
         }
      },
      "updateEipInfoRequest":{  
         "type":"object",
         "properties":{  
            "eipPlanId":{  
               "type":"string"
            },
            "items":{  
               "type":"array",
               "items":{  
                  "$ref":"#/definitions/Items"
               }
            }
         }
      },
      "updatePaymentTransactionRequest":{  
         "type":"object",
         "properties":{  
            "transactionId":{  
               "type":"string"
            },
            "transactionStatusId":{  
               "type":"string"
            },
            "emailAddress":{  
               "type":"string"
            },
            "paymentMethod":{  
               "type":"string"
            },
            "paymentInstrumentType":{  
               "type":"string"
            },
            "paymentInstrumentLast4":{  
               "type":"string"
            },
            "paymenInstrumentAlias":{  
               "type":"string"
            },
            "cardHolderName":{  
               "type":"string"
            },
            "loanId":{  
               "type":"string"
            },
            "paymentStatus":{  
               "type":"string"
            },
            "authorizationId":{  
               "type":"string"
            },
            "cvvResponseCode":{  
               "type":"string"
            },
            "avsResponseCode":{  
               "type":"string"
            },
            "subscriberDetails":{  
               "type":"array",
               "items":{  
                  "$ref":"#/definitions/UpdatePaymentTransactionRequestSubscriberDetails"
               }
            },
            "accountDetails":{  
               "$ref":"#/definitions/AccountDetails"
            }
         }
      },
      "UpdatePaymentTransactionRequestSubscriberDetails":{  
         "type":"object",
         "properties":{  
            "authStatusCode":{  
               "type":"string"
            },
            "authReasonCode":{  
               "type":"string"
            },
            "reasonDescription":{  
               "type":"string"
            },
            "returnPaymentId":{  
               "type":"string"
            }
         }
      }
   },
   "parameters":{  
      "AuthorizationParam":{  
         "name":"Authorization",
         "in":"header",
         "required":true,
         "type":"string"
      },
      "Content-typeParam":{  
         "name":"Content-type",
         "in":"header",
         "required":true,
         "type":"string"
      },
      "AcceptParam":{  
         "name":"Accept",
         "in":"header",
         "required":false,
         "type":"string"
      },
      "applicationuseridParam":{  
         "name":"applicationuserid",
         "in":"header",
         "required":false,
         "type":"string"
      },
      "sessionidParam":{  
         "name":"sessionid",
         "in":"header",
         "required":false,
         "type":"string"
      },
      "interactionidParam":{  
         "name":"interactionid",
         "in":"header",
         "required":false,
         "type":"string"
      },
      "activityidParam":{  
         "name":"activityid",
         "in":"header",
         "required":true,
         "type":"string"
      },
      "workflowidParam":{  
         "name":"workflowid",
         "in":"header",
         "required":false,
         "type":"string"
      },
      "timestampParam":{  
         "name":"timestamp",
         "in":"header",
         "required":false,
         "type":"string",
         "format":"date-time"
      },
      "storeidParam":{  
         "name":"storeid",
         "in":"header",
         "required":false,
         "type":"string"
      },
      "terminalidParam":{  
         "name":"terminalid",
         "in":"header",
         "required":false,
         "type":"string"
      },
      "tillidParam":{  
         "name":"tillid",
         "in":"header",
         "required":false,
         "type":"string"
      },
      "dealercodeParam":{  
         "name":"dealercode",
         "in":"header",
         "required":false,
         "type":"integer",
         "format":"int32"
      },
      "segmentationidParam":{  
         "name":"segmentationid",
         "in":"header",
         "required":false,
         "type":"string"
      },
      "authcustomeridParam":{  
         "name":"authcustomerid",
         "in":"header",
         "required":false,
         "type":"string"
      },
      "authfinancialaccountidParam":{  
         "name":"authfinancialaccountid",
         "in":"header",
         "required":false,
         "type":"string"
      },
      "authlineofserviceidParam":{  
         "name":"authlineofserviceid",
         "in":"header",
         "required":false,
         "type":"string"
      },
      "Access-Control-Request-HeadersParam":{  
         "name":"Access-Control-Request-Headers",
         "in":"header",
         "required":false,
         "type":"string"
      },
      "Access-Control-Request-MethodParam":{  
         "name":"Access-Control-Request-Method",
         "in":"header",
         "required":false,
         "type":"string"
      },
      "If-MatchParam":{  
         "name":"If-Match",
         "in":"header",
         "required":false,
         "type":"string"
      },
      "If-Modified-SinceParam":{  
         "name":"If-Modified-Since",
         "in":"header",
         "required":false,
         "type":"string"
      },
      "If-None-MatchParam":{  
         "name":"If-None-Match",
         "in":"header",
         "required":false,
         "type":"string"
      },
      "OriginParam":{  
         "name":"Origin",
         "in":"header",
         "required":false,
         "type":"string"
      }
   }
}