@startuml

title Shipto Accessory Only Order

Actor Customer
Actor Care_Rep
Control DASH_APP
control WCS

Customer-> Care_Rep: Want to purchase an Accessory

Care_Rep -> DASH_APP: Build Cart with Accessory

WCS --> DASH_APP: package with accessory only
note left: No CreditCheck needed and only FRP purchase

group ExistingCustomer
    Customer -> Care_Rep: [[./DASH_Shipto_CustomerLookup.puml Cusotmerlookup]]
    Care_Rep -> DASH_APP: Start building cart
end

====Cart==

Care_Rep -> DASH_APP: Add Accessory to Cart[FullPrice]
Care_Rep -> DASH_APP: Click on Shopping cart

alt EIP_Accessory_AAL
    Care_Rep -> DASH_APP: Add EIP Accessory
    DASH_APP -> WCS:  [[./Cart.puml BuildCart_EIP]]

end

Care_Rep -> DASH_APP: ApplyPromos
note right: Refer to ./modules/Cart.puml for detailed steps in ShoppingCart
Care_Rep -> DASH_APP: Click on checkout

====Checkout_CustomerInfo_Page==
Care_Rep -> DASH_APP: Provide Customer Info

group#GreenYellow BillingInfo

    group#GreenYellow BillingAddressValidation
        DASH_APP -> APIGEE: validateAddress
        APIGEE -> MW: [[https://servicecatalog.internal.t-mobile.com/servicecat/tibco/2019-11-09/wsdl_api/html/Address.html#validateAddress validateAddress]]
        MW --> APIGEE: Success[address details]
        APIGEE --> DASH_APP: Success[address details]
        DASH_APP -> DASH_APP: UpdateCart with Address details
    end
    group#GreenYellow dealerCode validation
        Care_Rep -> DASH_APP: Enter dealerCode
        note right: Dealer code will display for permissioned reps only
        DASH_APP -> DASH_APP: Click validate
        DASH_APP -> MW: [[https://servicecatalog.internal.t-mobile.com/servicecat/rsp/PROD/wsdl_api/html/ReferenceDataService.html#op.d1e5874 getDealerDetails]]
        MW --> DASH_APP:Success
        DASH_APP --> Care_Rep:Success
    end
end

====Checkout_PayandReview_Page==

Customer -> Care_Rep: Provides Payment details

group#GreenYellow CreditCard Process
    Customer -> Care_Rep: Provide Credit Card details
    Care_Rep -> DASH_APP: Start entering the card
    DASH_APP -> APIGEE: [[https://flows.corporate.t-mobile.com/swagger/cc.dps/CardTypeValidationV4-Swagger_V4.1.3.json CardtypeValidation]]
    APIGEE ->DPS : CardTypeValidationV4
    DPS --> APIGEE: Card Rules
    APIGEE --> DASH_APP: Card Rules
    DASH_APP -> DASH_APP: Apply card length rules, CardImage
    Care_Rep -> DASH_APP: Provide FullCardNumber, CVV and Expiry date
end


Customer -> Care_Rep: Provide CardBillingAdress

alt#red not same as billing address
    Care_Rep -> DASH_APP: Provide new Address
    DASH_APP -> APIGEE: validateAddress
    APIGEE -> MW: [[https://servicecatalog.internal.t-mobile.com/servicecat/tibco/2019-11-09/wsdl_api/html/Address.html#validateAddress validateAddress]]
    MW --> APIGEE: Success[address details]
    APIGEE --> DASH_APP: Success[address details]
    DASH_APP -> DASH_APP: UpdateCart with Address details
end

group#GreenYellow ServiceAgreements
    DASH_APP -> WCS: Load Service Agreement Content
    WCS -> WCS: Build CMC content for Cart
    WCS --> DASH_APP: Display Service agreement
end

group#GreenYellow taxCalculation
    DASH_APP -> WCS: TaxCalculate
    WCS -> MW: [[https://servicecatalog.internal.t-mobile.com/servicecat/tibco/2019-08-24/wsdl_api/html/TaxQuote.html#TaxQuoteRequest taxQuote]]
    MW --> WCS: TaxValues
    WCS --> WCS: update Order with Tax
    WCS --> DASH_APP: CartSummarywithTaxes
end

====OrderSubmit==
group#GreenYellow inventoryCheck
    WCS -> SAP: [[mi_GetAvailabiltiyStatus&interfaceNamespace=http://www.t-mobile.com/services/customers/atp getInvenotryCheck]]
    SAP --> WCS: Returns the inventory status
end

group#GreenYellow Instock/FRP/Payment
    WCS -> APIGEE: [[https://flows.corporate.t-mobile.com/swagger/cc.dps/ProcessPayment_Swagger-v3.4.json ProcessPayment( Full Auth+ Fraudcheck)]]
    APIGEE -> DPS: ProcessPayment( Full Auth+ Fraudcheck)
    DPS --> APIGEE: PyamentResponse
    APIGEE --> WCS: PaymentResponse
end

group#GreenYellow AAL_Instock/EIP/JOD/Payment
    WCS -> APIGEE: [[https://flows.corporate.t-mobile.com/swagger/cc.dps/ManagePaymentsInstrumentsV4.json ManagePayment( $0 Auth+ Fraudcheck)]]
    APIGEE -> DPS: ManagePayment( $0 Auth+ Fraudcheck)
    DPS --> APIGEE: PyamentResponse
    APIGEE --> WCS: PaymentResponse
end

group#GreenYellow tentaiveBAN/NewCustomersOnly
    WCS -> MW: [[https://servicecatalog.internal.t-mobile.com/servicecat/tibco/2019-11-09/wsdl_api/html/AccountManagement.html#CreateTentativeBan CreateTentativeBAN]]
    MW -> Samson: CreateTentativeBAN
    Samson --> MW: Response
    MW --> WCS: TBAN Response
end

group#GreenYellow ServiceAgreements
    WCS -> Customer: Send ServiceAgreements in email
end

group#GreenYellow Create Loan/Lease & Agreements

    WCS -> APIGEE: [[https://bitbucket.service.edp.t-mobile.com/projects/EITCODEDOC/repos/flow-documentation/browse/swagger/ce.cfs.loans.ls/CFS-createLoan.json CreateLoan]]
    APIGEE -> EIP: LoanBundle(CreateLoan)
    EIP --> APIGEE: CreateLoan Response ( LoanID, AgreementID)
    APIGEE --> WCS: CreateLoan Response

    WCS --> WCS: UpdateOrder with Loan Response

    alt#red EIP
        WCS -> MW: [[https://servicecatalog.internal.t-mobile.com/servicecat/rsp/PROD/wsdl_api/html/EquipmentInstallmentProgramService.html#createEIPDisclosure CreateEIPDisclosure(RSP)]]
    end
    MW -> DSG : Create Document and send it to cusotmer
    DSG -> Customer: eip disclosure Agreements

end

group#GreenYellow ProcessOrder
    alt#red FRPOrder
        WCS --> WCS: build Payload with all components
        WCS -> SAP: ProcessOrder
    end

    alt#red EIPOrder
        WCS -> WCS: Build Payload  with all components
        WCS -> SAP: ProcessOrder ( Status= eSignPending, Loan?lease details)
    end
end

SAP --> DASH_APP: SAP OrderNumber
SAP -> Customer: OrderConfirmation email

group EIP/JOD Flow
    Customer --> Customer: [[./postOrderSubmit_EIP_JOD.txt PostOrderSubmit Flow]]
end

@enduml