@startuml

!define MS_SERVICE Activate-Subscriber-V6
!define MS_OPERATION get-quote-online
!define BATCH_NUM Batch 5
!define LAST_UPDATE 06/05/2019 4:59 PM

left header
<font color=blue>MS: MS_SERVICE/MS_OPERATION</font>
endheader

title
 MS: MS_SERVICE/MS_OPERATION
 BATCH_NUM
 Last update: LAST_UPDATE
 
end title

hide footbox
 
center footer
 
 
Copyright (c) 2019 Amdocs.
 
Information Security Level 1 - Confidential
 
CONTAINS RESTRICTED - PROPRIETARY INFORMATION
 
This document is strictly confidential and proprietary; to be used only by authorized persons
on a need to know basis, and must not be distributed without specific permission.
 
In the event of unauthorized use of this document or the confidential information it contains,
violators will be subject to sever disciplinary action, based on Amdocs regulations, as well as
any other sanctions applicable by law.
 
endfooter

participant Channel
participant "Activate-\nSubscriber-V6\nMS" as AS
participant "Tuxedo" as CSM
Channel -> AS: get-quote-online\nToken + JWT
activate AS

alt If input account number is not null and not zero

	AS -> CSM: Request
	activate CSM
	ref over CSM
	Tuxedo::
	csSrchBan
	end
	CSM --> AS:Response
	deactivate CSM
	
	AS -> AS: JWT authentication
end

AS -> CSM: Request
activate CSM
ref over CSM
Tuxedo::
csGtQuotWeb
end
CSM --> AS:Response
deactivate CSM

AS -> CSM: Request
activate CSM
ref over CSM
Tuxedo::
csGtTaxDtls
end
CSM --> AS:Response
deactivate CSM

AS --> Channel : Response
deactivate AS

@enduml