@startuml

!define MS_SERVICE Activate-Subscriber-V6
!define MS_OPERATION reserve-subscriber-on-new-account
!define LAST_UPDATE %date[yyyy.MM.dd 'at' HH:mm]%

!define send(a,b,c) a->b : c
!define response(a,b) a-->b : Response

title
MS: MS_SERVICE/MS_OPERATION
Last update: LAST_UPDATE

end title

hide footbox
 
center footer

 
Copyright (c) 2019 Amdocs.

Information Security Level 1 - Confidential

CONTAINS RESTRICTED - PROPRIETARY INFORMATION

This document is strictly confidential and proprietary; to be used only by authorized persons
on a need to know basis, and must not be distributed without specific permission.

In the event of unauthorized use of this document or the confidential information it contains,
violators will be subject to sever disciplinary action, based on Amdocs regulations, as well as
any other sanctions applicable by law.

endfooter

participant Client
participant "Activate-\nSubscriber-V6\nMS" as AS5
participant "Account-\nManagement-\nService- V3" as AM3
participant "Dealer-\nManagement-V2" as DM2
participant "Number-\nManagement-V1" as NM1
participant "Order-\nManagement-\nServices-V3" as OM1

Client -> AS5 : reserve-subscriber-on-new-account\n

send(AS5,AM3,create-customer-online)
Activate AM3 #lightgreen
response(AM3,AS5)
deactivate AM3

send(AS5,DM2,getSubmarketForZipCode)
Activate DM2 #lightgreen
response(DM2,AS5)
deactivate DM2

send(AS5,NM1,getNpaNxxForSubMarket)
Activate NM1 #lightgreen
response(NM1,AS5)
deactivate NM1

send(AS5,OM1,saveOrder)
Activate OM1 #lightgreen
response(OM1,AS5)
deactivate OM1

Client <-- AS5 : Response
deactivate AS5

@enduml