@startuml
title Join - Experience \n markerIcon \n Loading Scenarios and Key User Flows

skinparam backgroundColor white
skinparam roundcorner 10
skinparam ParticipantBorderColor Black
skinparam ParticipantBackgroundColor White
skinparam ActorBorderColor Magenta
skinparam ActorFontColor Magenta
skinparam ActorBackgroundColor White
skinparam padding 4
skinparam BoundaryBackgroundColor White

actor TMNG
participant access_token [[https://join.t-mobile.com/api/access_token]]
participant getbyodcheck [[https://join.t-mobile.com/api/get_byod_check?imeiNumber=]]
participant CompatibilityCheck [[https://cloud-api.corporate.t-mobile.com/api/csne/tac-lookup/source/hassle_free/]]
participant EligibilityCheckTMobileDevice [[https://tugs-tmo.internal.t-mobile.com:443/genericesp/soap]]
participant EligibilityCheckAppleDevice [[https://union.t-mobile.com/unionthreaded/getAppleDeviceConfig]]
participant CheckEIP [[https://phon.mezzo.eservice.t-mobile.com/ws/phoneservice.wsdl]]

== Initialization/TMNG Web page ==

TMNG -> TMNG : User enters IMEI in [[www.t-mobile.com/resources/bring-your-own-phone]]
TMNG -> access_token : [GET] Requests JWT access_token  [[https://join.t-mobile.com/api/access_token]]
access_token -[#green]> TMNG : Responds with JWT
TMNG -> getbyodcheck : [GET] IMEI is sent in params to get_byod_check Hapi end point [[https://join.t-mobile.com/api/get_byod_check?imeiNumber=]]


== IMEI Verification ==
alt API call

getbyodcheck -> CompatibilityCheck : IMEI's TAC code is sent [[https://cloud-api.corporate.t-mobile.com/api/csne/tac-lookup/source/hassle_free/]]
CompatibilityCheck -[#green]> getbyodcheck : Response contains eligibility status (Fully Compatible, Not compatible)
note left: \"Swagger: http://cloud-api-doc.corporate.t-mobile.com/csne_tac-lookup/prod/swagger.json\n\"**Sample Response**\n\n\"[{"imei":"342424498239834",\n\""Compatibility":"Fully Compatible",\n\""Manufacturer":"Motorola Mobility LLC, a Lenovo Company"},\n\n\"{	"imei":"342424498239838",\n\""Compatibility":"Not Compatible",\n\""Manufacturer":" Apple Inc"}]\n\n\"**Error Response**\n\"{"error": {\n\""errorType": "NotFound",\n\""message": "TAC not found"},\n\""code": 404,\n\""systemMessage": "Not Found",\n\""responseTime": 284,\n\""backendUrl": "https://cloud-api.corporate.t-mobile.com/api/csne/tac-lookup/TAC-MVNO/3518"}
getbyodcheck -> EligibilityCheckTMobileDevice : Sends IMEI for getting the block status of T-Mobile device [[https://tugs-tmo.internal.t-mobile.com:443/genericesp/soap]]
EligibilityCheckTMobileDevice -> getbyodcheck : Response code is sent to the Hapi end point
note left: \"Code 100 - Blocked \n\"Code 101 & subStatusCode="540140" - IMEI is not blocked\n\"Code 101 & subStatusCode="540130" - IMEI is not T-Mobile device\n\"Code 101 & subStatusCode="540120" - IMEI is not valid number
getbyodcheck -> EligibilityCheckAppleDevice : Sends IMEI to REST API to determine Apple device's eligibility [[https://union.t-mobile.com/unionthreaded/getAppleDeviceConfig]]
EligibilityCheckAppleDevice -> getbyodcheck: Response contains unlock status
note left: \""unlockStatus": "unlock"
getbyodcheck -> CheckEIP : Sends the IMEI to SOAP API to check the device's EIP balance paid off status [[https://phon.mezzo.eservice.t-mobile.com/ws/phoneservice.wsdl]]
CheckEIP -> getbyodcheck: Responds with fullyPaidOff, unlockEligible and unlockType values
note left: \"<ns2:fullyPaidOff>false</ns2:fullyPaidOff>\n\"<ns2:unlockEligible>false</ns2:unlockEligible>\n\"<ns2:unlockType>LOCKED</ns2:unlockType>
getbyodcheck -> TMNG :  <font color=green><b> Response contains details of the IMEI compatibility and eligibility
note left: \n**Sample Response**:\n\"Compatibility: "Fully Compatible"\n\"CompatibilityServiceUp: true\n\"EligibilityServiceUp: true\n\"EligibilityStatusFound: true\n\"FullyPaidOff: false\n\"IMEI: "35862109123456"\n\"Manufacturer: "Samsung Korea"\n\"MarketingName: "Galaxy Note 9"\n\"isL700TmoSupported: true\n\"isVoLTETmoSupported: true\n
end
@enduml