{
	"swagger": "2.0",
	"info": {
		"description": "List of APIs for STO Sequencer context",
		"version": "1.0",
		"title": "SOA STO Sequencer context APIs",
		"termsOfService": "https://www.t-mobile.com/Templates/Popup.aspx?PAsset=Ftr_Ftr_TermsOfUse&print=true",
		"contact": {
			"name": "Krishnachaitanya.VelloreMunirathnam1@T-Mobile.com"
		},
		"license": {
			"name": "T-Mobile",
			"url": "https://www.t-mobile.com/Templates/Popup.aspx?PAsset=Ftr_Ftr_TermsOfUse&print=true"
		}
	},
	"host": "localhost:8080",
	"basePath": "/supplychain/stoSequencer/v1",
	"tags": [{
		"name": "sto-multi-sequencer-controller",
		"description": "STO Multi Sequencer Controller"
	},
	{
		"name": "sto-sequencer-controller",
		"description": "STO Sequencer Controller"
	}],
	"paths": {
		"/stoNumber": {
			"get": {
				"tags": ["sto-sequencer-controller"],
				"summary": "Gets the STO number from STO sequencer",
				"operationId": "getSTONumberUsingGET",
				"consumes": ["application/json"],
				"produces": ["application/json"],
				"parameters": [{
					"name": "senderid",
					"in": "header",
					"description": "senderId",
					"required": false,
					"type": "string",
					"pattern": "[A-Za-z0-9]{0,20}",
					"x-example": "TIMO"
				},
				{
					"name": "channelid",
					"in": "header",
					"description": "Identifies the business unit or sales channel, e.g. Retail",
					"required": true,
					"type": "string",
					"pattern": "[A-Za-z0-9]{0,20}",
					"x-example": "TIMO"
				},
				{
					"name": "applicationid",
					"in": "header",
					"description": "Identifies the application, system or platform name that is being used to initiate the transaction  related to this request, e.g. TIMO, QVXP, POS, TMAG",
					"required": true,
					"type": "string",
					"pattern": "[A-Za-z0-9]{0,20}",
					"x-example": "TIMO"
				},
				{
					"name": "applicationuserid",
					"in": "header",
					"description": "NT id of the rep who is managing the transaction from CARE/RETAIL channels. Required for assisted channels, not required for unassisted channels",
					"required": true,
					"type": "string",
					"pattern": "[A-Za-z0-9]{0,20}",
					"minLength": 0,
					"maxLength": 100,
					"x-example": "rkonda3"
				},
				{
					"name": "activityid",
					"in": "header",
					"description": "Unique id alphanumeric value generated and sent by the partner to identify every service request uniquely, e.g. b15fcaf3-fe73-49b7-9ab1-39f2cbd5bf0c",
					"required": true,
					"type": "string",
					"pattern": "[A-Za-z0-9]{0,20}",
					"minLength": 0,
					"maxLength": 100,
					"x-example": "rkonda3"
				},
				{
					"name": "interactionid",
					"in": "header",
					"description": "Alphanumeric value represent a common transaction id across all calls made from UI, while completing all business activity needs of a particular customer",
					"required": true,
					"type": "string",
					"pattern": "[A-Za-z0-9]{0,20}",
					"minLength": 0,
					"maxLength": 100,
					"x-example": "rkonda3"
				},
				{
					"name": "sessionid",
					"in": "header",
					"description": "A value populated by the sender used to track the transactions that occur during a session, a long-lasting interaction, managed by the sender. GUID generated by partner. Within one session (sessionid) for Rep/system can serve  multiple customers(interactionid) and in a given customer interation – multiple API calls (activityid) will be made to serve the customer.",
					"required": true,
					"type": "string",
					"pattern": "[A-Za-z0-9]{0,20}",
					"minLength": 0,
					"maxLength": 100,
					"x-example": "rkonda3"
				},
				{
					"name": "dealercode",
					"in": "header",
					"description": "dealerCode",
					"required": false,
					"type": "string",
					"minLength": 0,
					"maxLength": 100,
					"x-example": "TIMO"
				},
				{
					"name": "masterdealercode",
					"in": "header",
					"description": "masterDealerCode",
					"required": false,
					"type": "string",
					"minLength": 0,
					"maxLength": 100,
					"x-example": "TIMO"
				},
				{
					"name": "workflowid",
					"in": "header",
					"description": "Process or context name",
					"required": false,
					"type": "string",
					"pattern": "[A-Za-z]{0,20}",
					"minLength": 0,
					"maxLength": 100,
					"x-example": "TIMO"
				},
				{
					"name": "storeid",
					"in": "header",
					"description": "Unique identifier for the retail store location",
					"required": false,
					"type": "string",
					"pattern": "[A-Za-z0-9]{0,10}",
					"minLength": 0,
					"maxLength": 100,
					"x-example": "Ab2011"
				},
				{
					"name": "timestamp",
					"in": "header",
					"description": "Timestamp of the call",
					"required": true,
					"type": "string",
					"minLength": 0,
					"maxLength": 100,
					"x-example": "2018-04-23T07:24:46+00:00"
				},
				{
					"name": "Authorization",
					"in": "header",
					"description": "Authorization received from the service Oauth",
					"required": true,
					"type": "string",
					"pattern": "[A-Za-z0-9]{0,35}",
					"minLength": 0,
					"maxLength": 100,
					"x-example": "KKJAemHqsy9TVQ2ljqFxzSLwNzjC"
				},
				{
					"name": "Okta_Access_Token",
					"in": "header",
					"description": "Okta Access Token in IDM",
					"required": false,
					"type": "string",
					"pattern": "[A-Za-z0-9]{0,35}",
					"minLength": 0,
					"maxLength": 100,
					"x-example": "KKJAemHqsy9TVQ2ljqFxzSLwNzjC"
				},
				{
					"name": "Okta_Refresh_Token",
					"in": "header",
					"description": "Okta Refresh Token in IDM",
					"required": false,
					"type": "string",
					"pattern": "[a-zA-Z0-9]{0,35}",
					"minLength": 0,
					"maxLength": 100,
					"x-example": "KKJAemHqsy9TVQ2ljqFxzSLwNzjC"
				},
				{
					"name": "UserGroup",
					"in": "header",
					"description": "T-Mobile User Group in IDM",
					"required": false,
					"type": "string",
					"pattern": "[A-Za-z0-9]{0,35}",
					"minLength": 0,
					"maxLength": 100,
					"x-example": "1ZX4543534543"
				}],
				"responses": {
					"200": {
						"description": "Successfully received STO Number",
						"schema": {
							"$ref": "#/definitions/STOSequence"
						}
					},
					"400": {
						"description": "Status 400"
					},
					"401": {
						"description": "You are not authorized to view the resource"
					},
					"403": {
						"description": "Accessing the resource you were trying to reach is forbidden"
					},
					"404": {
						"description": "The resource you were trying to reach is not found"
					},
					"500": {
						"description": "Status 500"
					},
					"503": {
						"description": "Status 503"
					}
				}
			}
		},
		"/stoNumbers/{stoCount}": {
			"get": {
				"tags": ["sto-multi-sequencer-controller"],
				"summary": "Gets the STO numbers from STO sequencer",
				"operationId": "getSTONumbersUsingGET",
				"consumes": ["application/json"],
				"produces": ["application/json"],
				"parameters": [{
					"name": "senderid",
					"in": "header",
					"description": "senderId",
					"required": false,
					"type": "string",
					"pattern": "[A-Za-z0-9]{0,20}",
					"x-example": "TIMO"
				},
				{
					"name": "channelid",
					"in": "header",
					"description": "Identifies the business unit or sales channel, e.g. Retail",
					"required": true,
					"type": "string",
					"pattern": "[A-Za-z0-9]{0,20}",
					"x-example": "TIMO"
				},
				{
					"name": "applicationid",
					"in": "header",
					"description": "Identifies the application, system or platform name that is being used to initiate the transaction  related to this request, e.g. TIMO, QVXP, POS, TMAG",
					"required": true,
					"type": "string",
					"pattern": "[A-Za-z0-9]{0,20}",
					"x-example": "TIMO"
				},
				{
					"name": "applicationuserid",
					"in": "header",
					"description": "NT id of the rep who is managing the transaction from CARE/RETAIL channels. Required for assisted channels, not required for unassisted channels",
					"required": true,
					"type": "string",
					"pattern": "[A-Za-z0-9]{0,20}",
					"minLength": 0,
					"maxLength": 100,
					"x-example": "rkonda3"
				},
				{
					"name": "activityid",
					"in": "header",
					"description": "Unique id alphanumeric value generated and sent by the partner to identify every service request uniquely, e.g. b15fcaf3-fe73-49b7-9ab1-39f2cbd5bf0c",
					"required": true,
					"type": "string",
					"pattern": "[A-Za-z0-9]{0,20}",
					"minLength": 0,
					"maxLength": 100,
					"x-example": "rkonda3"
				},
				{
					"name": "interactionid",
					"in": "header",
					"description": "Alphanumeric value represent a common transaction id across all calls made from UI, while completing all business activity needs of a particular customer",
					"required": true,
					"type": "string",
					"pattern": "[A-Za-z0-9]{0,20}",
					"minLength": 0,
					"maxLength": 100,
					"x-example": "rkonda3"
				},
				{
					"name": "sessionid",
					"in": "header",
					"description": "A value populated by the sender used to track the transactions that occur during a session, a long-lasting interaction, managed by the sender. GUID generated by partner. Within one session (sessionid) for Rep/system can serve  multiple customers(interactionid) and in a given customer interation – multiple API calls (activityid) will be made to serve the customer.",
					"required": true,
					"type": "string",
					"pattern": "[A-Za-z0-9]{0,20}",
					"minLength": 0,
					"maxLength": 100,
					"x-example": "rkonda3"
				},
				{
					"name": "dealercode",
					"in": "header",
					"description": "dealerCode",
					"required": false,
					"type": "string",
					"minLength": 0,
					"maxLength": 100,
					"x-example": "TIMO"
				},
				{
					"name": "masterdealercode",
					"in": "header",
					"description": "masterDealerCode",
					"required": false,
					"type": "string",
					"minLength": 0,
					"maxLength": 100,
					"x-example": "TIMO"
				},
				{
					"name": "workflowid",
					"in": "header",
					"description": "Process or context name",
					"required": false,
					"type": "string",
					"pattern": "[A-Za-z]{0,20}",
					"minLength": 0,
					"maxLength": 100,
					"x-example": "TIMO"
				},
				{
					"name": "storeid",
					"in": "header",
					"description": "Unique identifier for the retail store location",
					"required": false,
					"type": "string",
					"pattern": "[A-Za-z0-9]{0,10}",
					"minLength": 0,
					"maxLength": 100,
					"x-example": "Ab2011"
				},
				{
					"name": "timestamp",
					"in": "header",
					"description": "Timestamp of the call",
					"required": true,
					"type": "string",
					"minLength": 0,
					"maxLength": 100,
					"x-example": "2018-04-23T07:24:46+00:00"
				},
				{
					"name": "Authorization",
					"in": "header",
					"description": "Authorization received from the service Oauth",
					"required": true,
					"type": "string",
					"pattern": "[A-Za-z0-9]{0,35}",
					"minLength": 0,
					"maxLength": 100,
					"x-example": "KKJAemHqsy9TVQ2ljqFxzSLwNzjC"
				},
				{
					"name": "Okta_Access_Token",
					"in": "header",
					"description": "Okta Access Token in IDM",
					"required": false,
					"type": "string",
					"pattern": "[A-Za-z0-9]{0,35}",
					"minLength": 0,
					"maxLength": 100,
					"x-example": "KKJAemHqsy9TVQ2ljqFxzSLwNzjC"
				},
				{
					"name": "Okta_Refresh_Token",
					"in": "header",
					"description": "Okta Refresh Token in IDM",
					"required": false,
					"type": "string",
					"pattern": "[a-zA-Z0-9]{0,35}",
					"minLength": 0,
					"maxLength": 100,
					"x-example": "KKJAemHqsy9TVQ2ljqFxzSLwNzjC"
				},
				{
					"name": "UserGroup",
					"in": "header",
					"description": "T-Mobile User Group in IDM",
					"required": false,
					"type": "string",
					"pattern": "[A-Za-z0-9]{0,35}",
					"minLength": 0,
					"maxLength": 100,
					"x-example": "1ZX4543534543"
				},
				{
					"name": "stoCount",
					"in": "path",
					"description": "stoCount",
					"required": true,
					"type": "string",
					"pattern": "[0-9]",
					"x-example": "1,2"
				}],
				"responses": {
					"200": {
						"description": "Successfully received STO Numbers",
						"schema": {
							"$ref": "#/definitions/STOMultiSequence"
						}
					},
					"400": {
						"description": "Status 400"
					},
					"401": {
						"description": "You are not authorized to view the resource"
					},
					"403": {
						"description": "Accessing the resource you were trying to reach is forbidden"
					},
					"404": {
						"description": "The resource you were trying to reach is not found"
					},
					"500": {
						"description": "Status 500"
					},
					"503": {
						"description": "Status 503"
					}
				}
			}
		}
	},
	"definitions": {
		"Errors": {
			"properties": {
				"error": {
					"type": "array",
					"items": {
						"$ref": "#/definitions/Error"
					}
				}
			}
		},
		"STOSequence": {
			"required": ["stoNumber"],
			"properties": {
				"stoNumber": {
					"type": "string",
					"description": "STO Number from STO Sequencer Service"
				}
			},
			"description": "Provides the stoNumber from STO Sequencer Service"
		},
		"Error": {
			"properties": {
				"code": {
					"type": "string"
				},
				"fieldName": {
					"type": "string"
				},
				"rejectedValue": {
					"type": "object"
				},
				"systemMessage": {
					"type": "string"
				},
				"userMessage": {
					"type": "string"
				}
			}
		},
		"BaseServiceResponse«STOSequence»": {
			"properties": {
				"errors": {
					"$ref": "#/definitions/Errors"
				},
				"result": {
					"$ref": "#/definitions/STOSequence"
				},
				"status": {
					"type": "string",
					"enum": ["SUCCESS",
					"FAILURE"]
				},
				"statusCode": {
					"type": "string"
				}
			}
		},
		"BaseServiceResponse«STOMultiSequence»": {
			"properties": {
				"errors": {
					"$ref": "#/definitions/Errors"
				},
				"result": {
					"$ref": "#/definitions/STOMultiSequence"
				},
				"status": {
					"type": "string",
					"enum": ["SUCCESS",
					"FAILURE"]
				},
				"statusCode": {
					"type": "string"
				}
			}
		},
		"STOMultiSequence": {
			"required": ["stoNumbers"],
			"properties": {
				"stoNumbers": {
					"type": "array",
					"description": "STO Numbers from STO Sequencer Service",
					"items": {
						"type": "string"
					}
				}
			},
			"description": "Provides the stoNumbers from STO Sequencer Service"
		}
	}
}