@startuml

!define MS_SERVICE Change-Offer-V3
!define MS_OPERATION submitChangeOffer
!define LAST_UPDATE %date[yyyy.MM.dd 'at' HH:mm]%

left header
<font color=blue>MS: MS_SERVICE/MS_OPERATION</font>
endheader

title
 MS: MS_SERVICE/MS_OPERATION
 Last update: LAST_UPDATE
 
end title

/' 
 ' This is our suppression for the footbox (aka. our diagrams box a the bottom of each flow
 ' tower - comment out the next line and regenerate the diagram, to see what I mean)
 '/
hide footbox


/'
 ' The spacing in the following text is important. 
 ' 
 ' Trust me.
 '/ 
center footer
 
 
Copyright (c) 2018 Amdocs.
 
Information Security Level 1 - Confidential
 
CONTAINS RESTRICTED - PROPRIETARY INFORMATION
 
This document is strictly confidential and proprietary; to be used only by authorized persons
on a need to know basis, and must not be distributed without specific permission.
 
In the event of unauthorized use of this document or the confidential information it contains,
violators will be subject to sever disciplinary action, based on Amdocs regulations, as well as
any other sanctions applicable by law.
 
endfooter

participant Client
participant "Change-\nOffer-V3\nMS" as CO
participant "Subscriber-\nManagement-V2\nMS" as SM
participant "Plan-\nManagement-V4\nMS" as PM
participant "TUXEDO/\nCSM" as TUX
participant "Order-\nManager-V3\nMS" as OM
participant "Notification-\nManager-V1\nMS" as NM

Client -> CO : submitChangeOffer\nTOKEN + JWT
activate CO

CO -> SM : getSubscriber\nDetailsBySubID
activate SM
ref over SM
getSubscriberDetailsBySubID
end
CO <-- SM : Response
deactivate SM

CO -> CO : JWT\nauthentication\ncheck

CO -> TUX : arGtBan
activate TUX
CO <-- TUX : Response
deactivate TUX

CO -> PM : getAutocorrectedServices
activate PM
ref over PM
getAutocorrectedServices
end
CO <-- PM : Response
deactivate PM

CO -> OM : saveOrderChangePP
activate OM
ref over OM
saveOrderChangePP
end
CO <-- OM : Order ID
deactivate OM

CO -> TUX : csGtDueAmt
activate TUX
CO <-- TUX : Response
deactivate TUX


CO -> OM : submitOrderChangePP
activate OM
ref over OM
submitOrderChangePP
end
CO <-- OM : Order ID
deactivate OM

CO -> NM : sendEmailVerification
activate NM
ref over NM
sendEmailVerification
end
CO <-- NM : Response
deactivate NM

Client <-- CO : Response
deactivate CO


@enduml

