{
  "swagger": "2.0",
  "info": {
    "title": "collections-scores",
    "description": "This API will be used to retrieve latest Score by BAN(s)",
    "version": "1.0.0",
    "contact": {
      "name": "Ravi Kumar Alagappan",
      "url": "http://www.t-mobile.com",
      "email": "Ravikumar.Alagappan1@T-Mobile.com"
    },
    "license": {
      "name": "Proprietary software",
      "url": "https://en.wikipedia.org/wiki/Proprietary_software"
    },
    "termsOfService": "https://www.t-mobile.com/templates/popup.aspx?PAsset=Ftr_Ftr_TermsAndConditions",
    "x-createdBy": {
      "dateCreated": "Thur Sep  5 22:25:15 2019",
      "createdBy": "RAlagap1",
      "application": "Recite",
      "appVersion": "1.1.1.3017",
      "documentId": "f9369daa-5c44-4977-91ca-8e0f7150fa85",
      "status": "",
      "businessCapabilityModel": "5.0",
      "classification": "5.2.3 Subscriber Debt Collection Mgmt.",
      "profile": "Core Business Capability Service",
      "serviceLayer": "Enterprise - Billing"
    }
  },
  "x-servers": [
    {
      "url": "https://127.0.0.1/",
      "description": "Test Server 1"
    }
  ],
  "tags": [
    {
      "name": "retrievescore",
      "description": "Rretrieves Score by BAN(s)"
    }
  ],
  "host": "dev01.api.t-mobile.com",
  "basePath": "/accounts-receivables/v1/collections",
  "schemes": [
    "https"
  ],
  "paths": {
    "/retrieve-score": {
      "post": {
        "tags": [
          "retrievescore"
        ],
        "x-api-pattern": "CreateInCollection",
        "summary": "A post for the retrieve scores resource using Digital Archecture's  Score pattern.",
        "description": "Rretrieves  Score by BAN",
        "operationId": "retrievescore",
        "consumes": [
          "application/json"
        ],
        "produces": [
          "application/json"
        ],
        "parameters": [
          {
            "name": "retrieveScoreRequest",
            "in": "body",
            "description": "getsScore request for Post Method",
            "required": true,
            "schema": {
              "$ref": "#/definitions/RetrieveScoreRequest"
            }
          },
          {
            "name": "Content-Type",
            "in": "header",
            "description": "The MIME type of this content",
            "x-example": "text/xml",
            "required": true,
            "type": "string",
            "minLength": 1,
            "maxLength": 256
          },
          {
            "name": "Authorization",
            "in": "header",
            "description": "The HTTP Authorization request header contains the credentials to authenticate a user agent with a server.",
            "x-example": "Bearer mF_9.B5f-4.1JqM",
            "required": true,
            "type": "string",
            "minLength": 1,
            "maxLength": 256,
            "pattern": "^[\\S ]+$"
          },
          {
            "name": "application-id",
            "in": "header",
            "description": "Identifies the application, system, or tool that is being used to perform the transaction related to this request. Sample values:ACUI, ESERVICE, REBELLION, WARP",
            "x-example": "REBELLION",
            "required": true,
            "type": "string",
            "minLength": 1,
            "maxLength": 256,
            "pattern": "^[\\S]*$"
          },
          {
            "name": "sender-id",
            "in": "header",
            "description": "The related business partner or T-Mobile organization",
            "x-example": "QVXP",
            "required": true,
            "type": "string",
            "minLength": 1,
            "maxLength": 256,
            "pattern": "^[\\S]*$"
          },
          {
            "name": "channel-id",
            "in": "header",
            "description": "Categorization of access or business stream",
            "x-example": "IVR",
            "required": false,
            "type": "string",
            "minLength": 1,
            "maxLength": 256,
            "pattern": "^[\\S]*$"
          },
          {
            "name": "service-transaction-id",
            "in": "header",
            "description": "Request ID echoed back by server",
            "x-example": "23409209723",
            "required": false,
            "type": "string",
            "minLength": 1,
            "maxLength": 256,
            "pattern": "^[\\S]*$"
          }
        ],
        "responses": {
          "201": {
            "description": "OK",
            "schema": {
              "$ref": "#/definitions/retrieveScoreResponse"
            },
            "examples": {
              "application/json": ""
            },
            "headers": {
              "Cache-Control": {
                "description": "Cache policy supported for the resource by the server",
                "x-example": "no-cache",
                "type": "string",
                "minLength": 1,
                "maxLength": 256,
                "pattern": "^[\\S]*$"
              },
              "Content-Type": {
                "type": "string",
                "minLength": 1,
                "maxLength": 256,
                "pattern": "^[ \\S]+$",
                "description": "The MIME type of this content",
                "x-example": "text/xml"
              },
              "Date": {
                "type": "string",
                "format": "date-time",
                "pattern": "^(Mon|Tue|Wed|Thu|Fri|Sat|Sun), [0-3]{1}[0-9]{1} (Jan|Feb|Mar|Apr|May|Jun|Jul|Aug|Sep|Oct|Nov|Dec) [1-3][0-9]{3} [0-2][0-9]:[0-6][0-9]:[0-6][0-9] GMT$",
                "description": "The Date general HTTP header contains the date and time at which the message was originated.",
                "x-example": "Mon, 05 Mar 2018 16:38:08 GMT"
              },
              "ETag": {
                "type": "string",
                "minLength": 1,
                "maxLength": 256,
                "pattern": "^[\\S]*$",
                "description": "The ETag header specifies the unique entity tag value for the returned resource.",
                "x-example": "*"
              },
              "Location": {
                "type": "string",
                "minLength": 1,
                "maxLength": 65536,
                "pattern": "^[\\S]*$",
                "description": "The Location header specifies the URI of a created resource, or redirects the API consumer to an alternate resource location.",
                "x-example": "http://api.t-mo.com/order-mgmt/v1/orders/123xyz-0/status"
              },
              "Transfer-Encoding": {
                "type": "string",
                "minLength": 1,
                "maxLength": 15,
                "pattern": "^[\\S]*$",
                "description": "The form of encoding used to safely transfer the entity to the user. Currently defined methods are: chunked, compress, deflate, gzip, identity.",
                "x-example": "chunked"
              },
              "service-transaction-id": {
                "type": "string",
                "minLength": 1,
                "maxLength": 256,
                "pattern": "^[\\S]*$",
                "description": "Request ID echoed back by server",
                "x-example": "23409209723"
              }
            }
          },
          "400": {
            "description": "Bad Request",
            "schema": {
              "$ref": "#/definitions/Error"
            },
            "examples": {
              "application/json": {
                "code": "400",
                "userMessage": "Bad Request",
                "systemMessage": "Bad Request",
                "detailLink": "http://www.tmus.com"
              }
            },
            "headers": {}
          },
          "401": {
            "description": "Unauthorized",
            "schema": {
              "$ref": "#/definitions/Error"
            },
            "examples": {
              "application/json": {
                "code": "401",
                "userMessage": "Unauthorized",
                "systemMessage": "Unauthorized",
                "detailLink": "http://www.tmus.com"
              }
            },
            "headers": {}
          },
          "403": {
            "description": "Mismatching data format",
            "schema": {
              "$ref": "#/definitions/Error"
            },
            "examples": {
              "application/json": {
                "code": "403",
                "userMessage": "Mismatching data format",
                "systemMessage": "Mismatching data format",
                "detailLink": "http://www.tmus.com"
              }
            },
            "headers": {}
          },
          "404": {
            "description": "Resource not found",
            "schema": {
              "$ref": "#/definitions/Error"
            },
            "examples": {
              "application/json": {
                "code": "404",
                "userMessage": "Resource not found",
                "systemMessage": "Resource not found",
                "detailLink": "http://www.tmus.com"
              }
            },
            "headers": {}
          },
          "405": {
            "description": "Method Not Allowed",
            "schema": {
              "$ref": "#/definitions/Error"
            },
            "examples": {
              "application/json": {
                "code": "405",
                "userMessage": "Method Not Allowed",
                "systemMessage": "Method Not Allowed",
                "detailLink": "http://www.tmus.com"
              }
            },
            "headers": {
              "Allow": {
                "type": "string",
                "minLength": 1,
                "maxLength": 256,
                "pattern": "^[\\S]*$",
                "description": "list of supported methods for URI",
                "x-example": "GET"
              },
              "service-transaction-id": {
                "type": "string",
                "minLength": 1,
                "maxLength": 256,
                "pattern": "^[\\S]*$",
                "description": "Request ID echoed back by server",
                "x-example": "23409209723"
              }
            }
          },
          "406": {
            "description": "Mismatching data format",
            "schema": {
              "$ref": "#/definitions/Error"
            },
            "examples": {
              "application/json": {
                "code": "406",
                "userMessage": "Mismatching data format",
                "systemMessage": "Mismatching data format",
                "detailLink": "http://www.tmus.com"
              }
            },
            "headers": {}
          },
          "409": {
            "description": "Mismatching data format",
            "schema": {
              "$ref": "#/definitions/Error"
            },
            "examples": {
              "application/json": {
                "code": "409",
                "userMessage": "Mismatching data format",
                "systemMessage": "Mismatching data format",
                "detailLink": "http://www.tmus.com"
              }
            },
            "headers": {}
          },
          "415": {
            "description": "Mismatching data format",
            "schema": {
              "$ref": "#/definitions/Error"
            },
            "examples": {
              "application/json": {
                "code": "415",
                "userMessage": "Mismatching data format",
                "systemMessage": "Mismatching data format",
                "detailLink": "http://www.tmus.com"
              }
            },
            "headers": {}
          },
          "500": {
            "description": "System Error",
            "schema": {
              "$ref": "#/definitions/Error"
            },
            "examples": {
              "application/json": {
                "code": "500",
                "userMessage": "System Error",
                "systemMessage": "System Error",
                "detailLink": "http://www.tmus.com"
              }
            },
            "headers": {}
          },
          "503": {
            "description": "Service unavailable",
            "schema": {
              "$ref": "#/definitions/Error"
            },
            "examples": {
              "application/json": {
                "code": "503",
                "userMessage": "Service unavailable",
                "systemMessage": "Service unavailable",
                "detailLink": "http://www.tmus.com"
              }
            },
            "headers": {}
          }
        },
        "security": [
          {
            "oauth2-application": []
          }
        ]
      }
    }
  },
  "definitions": {
    "Error": {
      "description": "As defined in http://api-standards.apps.px-npe01.cf.t-mobile.com/http/status-codes/error-response-format/",
      "type": "object",
      "required": [
        "code",
        "userMessage"
      ],
      "properties": {
        "code": {
          "type": "string",
          "pattern": "^[\\S ]+$",
          "description": "A succinct, domain-specific, human-readable text string to identify the type of error for the given status code",
          "example": "ProductNotFound"
        },
        "userMessage": {
          "type": "string",
          "pattern": "^[\\S ]+$",
          "description": "A human-readable message describing the error.",
          "example": "Failed to find product."
        },
        "systemMessage": {
          "type": "string",
          "pattern": "^[\\S ]+$",
          "description": "Text that provides a more detailed technical explanation of the error",
          "example": "PRODUCT_NOT_FOUND"
        },
        "detailLink": {
          "type": "string",
          "pattern": "^[\\S ]+$",
          "description": "link to custom information providing greater detail on error or errors",
          "example": "http://aaa.bbb.ccc/"
        }
      }
    },
    "RetrieveScoreRequest": {
      "description": "Retrieve Score Request for Post Method",
      "type": "object",
      "required": [
        "accountSegment"
      ],
      "properties": {
        "accountSegment": {
          "type": "array",
          "items": {
            "$ref": "#/definitions/AccountSegment"
          }
        }
      }
    },
    "retrieveScoreResponse": {
      "description": "Retrieve Score Response",
      "type": "object",
      "properties": {
        "scores": {
          "type": "array",
          "items": {
            "$ref": "#/definitions/ScoresType"
          }
        }
      }
    },
    "AccountSegment": {
      "description": "Account Data which may contain BAN",
      "type": "object",
      "required": [
        "accountNumber"
      ],
      "properties": {
        "accountNumber": {
          "type": "string",
          "minLength": 9,
          "maxLength": 10,
          "description": "account BAN Billing Account Number",
          "pattern": "^[0-9]{9,10}$",
          "example": 959540164
        }
      },
      "example": {
        "accountNumber": 123456789
      }
    },
    "ScoresType": {
      "description": "Account and correcponding score details",
      "type": "object",
      "required": [
        "accountSegment"
      ],
      "properties": {
        "accountSegment": {
          "$ref": "#/definitions/AccountSegment"
        },
        "scoreSegment": {
          "type": "array",
          "items": {
            "$ref": "#/definitions/ScoreSegment"
          }
        },
        "messageSegment": {
          "type": "array",
          "items": {
            "$ref": "#/definitions/MessageSegment"
          }
        }
      }
    },
    "MessageSegment": {
      "description": "User message",
      "type": "object",
      "properties": {
        "code": {
          "type": "string",
          "description": "message code",
          "minLength": 0,
          "maxLength": 100,
          "example": "NO_DATA_FOUND",
          "pattern": "^[\\S ]+$"
        },
        "message": {
          "type": "string",
          "description": "details message description",
          "minLength": 0,
          "maxLength": 5000,
          "example": "No Data Found",
          "pattern": "^[\\S ]+$"
        }
      }
    },
    "ScoreSegment": {
      "description": "Score Segment",
      "type": "object",
      "properties": {
        "scoreType": {
          "type": "string",
          "description": "Score type.",
          "minLength": 0,
          "maxLength": 50,
          "example": "BehaviorScore",
          "enum": [
            "Behavior Score",
            "Vantage Score",
            "Rapid Notify Score"
          ]
        },
        "score": {
          "type": "integer",
          "format": "int32",
          "minimum": 0,
          "maximum": 9999,
          "pattern": "^[0-9][0-9]{0,3}$",
          "description": "Rapid Notify Score number.",
          "example": 670
        },
        "lastUpdatedDate": {
          "type": "string",
          "format": "date-time",
          "description": "Last Updated date for the Score",
          "example": "2017-07-21T17:32:28.000Z"
        },
        "lastPassedDate": {
          "type": "string",
          "format": "date-time",
          "example": "2017-07-21T17:32:28.000Z",
          "description": "Last Passed date for the Score"
        }
      }
    }
  },
  "securityDefinitions": {
    "oauth2-application": {
      "type": "oauth2",
      "description": "When you sign up for an account, you are given your first API key. To do so please follow this link: https://www.t-mobile.com/site/signup/ Also you can generate additional API keys, and delete API keys (as you may need to rotate your keys in the future).",
      "tokenUrl": "https://tmobileb-sb01.apigee.net/v1/oauth2/accesstoken?grant_type=client_credentials",
      "flow": "application",
      "scopes": {}
    }
  }
}
