{
    "swagger": "2.0",
    "info": {
        "title": "Update the shipping info into cart",
        "description": "This API_2141 is to post customer shipping Details",
        "version": "1.0.0",
        "contact": {
            "name": "Postpaid",
            "email": "Postpaid@t-mobile.com"
        }
    },
    "host": "dit01.api.t-mobile.com",
    "schemes": [
        "https"
    ],
    "basePath": "/customer/v1/cart/todoinvalidproxy",
    "produces": [
        "application/json"
    ],
    "paths": {
        "/{cartId}/shippingDetails": {
            "post": {
                "summary": "Update Shipping information",
                "description": "",
                "parameters": [
                    {
                        "name": "sessionId",
                        "in": "header",
                        "required": false,
                        "type": "string",
                        "description": "sessionId",
                        "x-example": {}
                    },
                    {
                        "name": "senderId",
                        "in": "header",
                        "type": "string",
                        "required": true,
                        "description": "senderId",
                        "pattern": ".+",
                        "x-example": {}
                    },
                    {
                        "name": "channelId",
                        "in": "header",
                        "type": "string",
                        "enum": [
                            "WEB",
                            "RETAIL",
                            "CARE",
                            "NA"
                        ],
                        "required": true,
                        "description": "Channel identifier. NA is treated as default.",
                        "x-example": {}
                    },
                    {
                        "name": "applicationId",
                        "in": "header",
                        "type": "string",
                        "enum": [
                            "REBELLION"
                        ],
                        "required": true,
                        "description": "Consuming Application identifier. NA is treated as default. More values will be added to swagger as clients are onboarded.",
                        "x-example": {}
                    },
                    {
                        "name": "storeId",
                        "in": "header",
                        "type": "string",
                        "required": false,
                        "description": ".",
                        "x-example": {}
                    },
                    {
                        "name": "workflowId",
                        "in": "header",
                        "type": "string",
                        "required": false,
                        "description": ".",
                        "x-example": {}
                    },
                    {
                        "name": "activityId",
                        "in": "header",
                        "type": "string",
                        "required": false,
                        "description": ".",
                        "x-example": {}
                    },
                    {
                        "name": "timestamp",
                        "in": "header",
                        "type": "string",
                        "required": false,
                        "description": ".",
                        "x-example": {}
                    },
                    {
                        "name": "dealerCode",
                        "in": "header",
                        "type": "string",
                        "required": false,
                        "description": ".",
                        "x-example": {}
                    },
                    {
                        "name": "interactionId",
                        "in": "header",
                        "type": "string",
                        "required": false,
                        "description": ".",
                        "x-example": {}
                    },
                    {
                        "name": "cartId",
                        "in": "path",
                        "type": "string",
                        "required": true,
                        "description": ".",
                        "pattern": ".+",
                        "x-example": {}
                    },
                    {
                        "name": "body",
                        "in": "body",
                        "description": "request containing the search criteria",
                        "schema": {
                            "$ref": "#/definitions/ShippingInfoRequest"
                        },
                        "required": false,
                        "x-example": {}
                    },
                    {
                        "name": "If-Modified-Since",
                        "in": "header",
                        "description": "The If-Modified-Since header specifies date-related conditions to be placed on the execution of a request.  The request will only be executed if the requested resource has not been modified since the date-time specified.  Because the behavior is complex, the details for usage are provided at http://www.w3.org/Protocols/rfc2616/rfc2616-sec14.html",
                        "x-example": "Wed, 18-Apr-2018 11:34:57 GMT",
                        "required": false,
                        "type": "string"
                    },
                    {
                        "name": "If-None-Match",
                        "in": "header",
                        "description": "The If-None-Match header specifies an ETag-related condition to be placed on the execution of a request.  The request will NOT be executed if the ETag of the requested resource matches one of those specified in the If-None-Match header.  Because the behavior is complex, the details for usage are provided at http://www.w3.org/Protocols/rfc2616/rfc2616-sec14.html",
                        "x-example": "*",
                        "required": false,
                        "type": "string"
                    }
                ],
                "tags": [
                    "Account Owner Info"
                ],
                "responses": {
                    "200": {
                        "description": "Success",
                        "schema": {
                            "$ref": "#/definitions/AddressInfoResponse"
                        },
                        "headers": {
                            "Cache-Control": {
                                "description": "No cache indicators supported at this time. Samples: no-cache",
                                "x-example": "no-cache",
                                "type": "string"
                            },
                            "Content-Encoding": {
                                "description": "The type of encoding used on the data",
                                "x-example": "gzip,deflate",
                                "type": "string"
                            },
                            "Content-Language": {
                                "description": "The natural language or languages of the intended audience for the enclosed content",
                                "x-example": "da",
                                "type": "string"
                            },
                            "Content-Length": {
                                "description": "The Content-Length header specifies the actual length of the returned payload.",
                                "x-example": "1024",
                                "type": "string"
                            },
                            "Content-Type": {
                                "description": "The MIME type of this content",
                                "x-example": "text/xml",
                                "pattern": "^[\\S]*$",
                                "type": "string"
                            },
                            "Date": {
                                "description": "The date and time that the message was originated (in HTTP-date format as defined by RFC 7231 Date/Time Formats).",
                                "x-example": "Wed, 18-Apr-2018 11:34:57 GMT",
                                "type": "string",
                                "format": "date-time"
                            },
                            "ETag": {
                                "description": "The ETag header specifies the unique entity tag value for the returned resource.",
                                "x-example": "*",
                                "type": "string"
                            },
                            "Last-Modified": {
                                "description": "The Last-Modified entity-header field indicates the date and time at which the origin server believes the variant was last modified.",
                                "x-example": "Wed, 18-Apr-2018 11:34:57 GMT",
                                "type": "string",
                                "format": "date-time"
                            },
                            "Transfer-Encoding": {
                                "description": "The form of encoding used to safely transfer the entity to the user. Currently defined methods are: chunked, compress, deflate, gzip, identity.",
                                "x-example": "chunked",
                                "type": "string"
                            },
                            "servicetransactionid": {
                                "description": "Internal identifier for transaction tracking an individual transaction/API request within API platform. Don_t receive/don_t send to downstream",
                                "x-example": "23409209723",
                                "type": "string"
                            },
                            "If-Match": {
                                "description": "the If-Match HTTP request header makes the request conditional. For GET and HEAD methods, the server will send back the requested resource only if it matches one of the listed ETags. For PUT and other non-safe methods, it will only upload the resource in this case.",
                                "x-example": "*",
                                "type": "string"
                            },
                            "If-None-Match": {
                                "description": "the If-Match HTTP request header makes the request conditional. For GET and HEAD methods, the server will send back the requested resource only if it matches one of the listed ETags. For PUT and other non-safe methods, it will only upload the resource in this case.",
                                "x-example": "*",
                                "type": "string"
                            }
                        }
                    },
                    "304": {
                        "description": "Not Modified",
                        "headers": {
                            "Cache-Control": {
                                "description": "No cache indicators supported at this time. Samples: no-cache",
                                "x-example": "no-cache",
                                "type": "string"
                            },
                            "ETag": {
                                "description": "The ETag header specifies the unique entity tag value for the returned resource.",
                                "x-example": "*",
                                "type": "string"
                            }
                        }
                    },
                    "400": {
                        "description": "Bad Request",
                        "schema": {
                            "type": "array",
                            "description": "An array of error objects.",
                            "minItems": 1,
                            "items": {
                                "$ref": "#/definitions/Error"
                            }
                        },
                        "examples": {
                            "application/json": [
                                {
                                    "code": "400",
                                    "userMessage": "Bad Request",
                                    "systemMessage": "Bad Request"
                                }
                            ]
                        },
                        "headers": {}
                    },
                    "401": {
                        "description": "Unauthorized",
                        "schema": {
                            "type": "array",
                            "description": "An array of error objects.",
                            "minItems": 1,
                            "items": {
                                "$ref": "#/definitions/Error"
                            }
                        },
                        "examples": {
                            "application/json": [
                                {
                                    "code": "401",
                                    "userMessage": "Unauthorized",
                                    "systemMessage": "Unauthorized"
                                }
                            ]
                        },
                        "headers": {}
                    },
                    "403": {
                        "description": "Client access denied",
                        "schema": {
                            "type": "array",
                            "description": "An array of error objects.",
                            "minItems": 1,
                            "items": {
                                "$ref": "#/definitions/Error"
                            }
                        },
                        "examples": {
                            "application/json": [
                                {
                                    "code": "403",
                                    "userMessage": "Client access denied",
                                    "systemMessage": "Client access denied"
                                }
                            ]
                        },
                        "headers": {}
                    },
                    "404": {
                        "description": "Resource not found",
                        "schema": {
                            "type": "array",
                            "description": "An array of error objects.",
                            "minItems": 1,
                            "items": {
                                "$ref": "#/definitions/Error"
                            }
                        },
                        "examples": {
                            "application/json": [
                                {
                                    "code": "404",
                                    "userMessage": "Resource not found",
                                    "systemMessage": "Resource not found"
                                }
                            ]
                        },
                        "headers": {}
                    },
                    "405": {
                        "description": "Method Not Allowed",
                        "schema": {
                            "type": "array",
                            "description": "An array of error objects.",
                            "minItems": 1,
                            "items": {
                                "$ref": "#/definitions/Error"
                            }
                        },
                        "examples": {
                            "application/json": [
                                {
                                    "code": "405",
                                    "userMessage": "Method Not Allowed",
                                    "systemMessage": "Method Not Allowed"
                                }
                            ]
                        },
                        "headers": {}
                    },
                    "406": {
                        "description": "Mismatching data format",
                        "schema": {
                            "type": "array",
                            "description": "An array of error objects.",
                            "minItems": 1,
                            "items": {
                                "$ref": "#/definitions/Error"
                            }
                        },
                        "examples": {
                            "application/json": [
                                {
                                    "code": "406",
                                    "userMessage": "Mismatching data format",
                                    "systemMessage": "Mismatching data format"
                                }
                            ]
                        },
                        "headers": {}
                    },
                    "500": {
                        "description": "System Error",
                        "schema": {
                            "type": "array",
                            "description": "An array of error objects.",
                            "minItems": 1,
                            "items": {
                                "$ref": "#/definitions/Error"
                            }
                        },
                        "examples": {
                            "application/json": [
                                {
                                    "code": "500",
                                    "userMessage": "System Error",
                                    "systemMessage": "System Error"
                                }
                            ]
                        },
                        "headers": {}
                    },
                    "503": {
                        "description": "Service unavailable",
                        "schema": {
                            "type": "array",
                            "description": "An array of error objects.",
                            "minItems": 1,
                            "items": {
                                "$ref": "#/definitions/Error"
                            }
                        },
                        "examples": {
                            "application/json": [
                                {
                                    "code": "503",
                                    "userMessage": "Service unavailable",
                                    "systemMessage": "Service unavailable"
                                }
                            ]
                        },
                        "headers": {}
                    }
                },
                "operationId": "/*ToDo*/SomeOpId",
                "security": [
                    {
                        "Oauth": []
                    }
                ]
            }
        }
    },
    "definitions": {
        "Errors": {
            "type": "array",
            "items": {
                "properties": {
                    "code": {
                        "type": "string",
                        "description": "/*ToDo*/ Some description",
                        "x-example": "/*ToDO*/ Some Example",
                        "pattern": ".+"
                    },
                    "userMessage": {
                        "type": "string",
                        "description": "/*ToDo*/ Some description",
                        "x-example": "/*ToDO*/ Some Example",
                        "pattern": ".+"
                    },
                    "systemMessage": {
                        "type": "string",
                        "description": "/*ToDo*/ Some description",
                        "x-example": "/*ToDO*/ Some Example",
                        "pattern": ".+"
                    }
                },
                "type": "object",
                "description": "/*ToDo*/ Some description",
                "x-example": "/*ToDO*/ Some Example"
            },
            "description": "/*ToDo*/ Some description",
            "x-example": "/*ToDO*/ Some Example"
        },
        "ShippingInfoRequest": {
            "type": "object",
            "properties": {
                "freightCarrier": {
                    "type": "string",
                    "description": "Carrier Name",
                    "x-example": "/*ToDO*/ Some Example",
                    "pattern": ".+"
                },
                "serviceLevelCode": {
                    "type": "string",
                    "description": "Express or One day shipping",
                    "x-example": "/*ToDO*/ Some Example",
                    "pattern": ".+"
                },
                "amount": {
                    "type": "string",
                    "description": "amount",
                    "x-example": "/*ToDO*/ Some Example",
                    "pattern": ".+"
                },
                "phoneCommunication": {
                    "type": "string",
                    "description": "Phone number if customer wants shipping notifications by phone",
                    "x-example": "/*ToDO*/ Some Example",
                    "pattern": ".+"
                },
                "emailCommunication": {
                    "type": "string",
                    "description": "Phone number if customer wants shipping notifications by email",
                    "x-example": "/*ToDO*/ Some Example",
                    "pattern": ".+"
                }
            },
            "description": "/*ToDo*/ Some description",
            "x-example": "/*ToDO*/ Some Example"
        },
        "AddressInfoResponse": {
            "type": "object",
            "properties": {
                "frieghtCarrier": {
                    "type": "string",
                    "description": "Carrier Name",
                    "x-example": "/*ToDO*/ Some Example",
                    "pattern": ".+"
                },
                "serviceLevelCode": {
                    "type": "string",
                    "description": "Express or One day shipping",
                    "x-example": "/*ToDO*/ Some Example",
                    "pattern": ".+"
                },
                "amount": {
                    "type": "string",
                    "description": "amount",
                    "x-example": "/*ToDO*/ Some Example",
                    "pattern": ".+"
                },
                "phoneCommunication": {
                    "type": "string",
                    "description": "Phone number if customer wants shipping notifications by phone",
                    "x-example": "/*ToDO*/ Some Example",
                    "pattern": ".+"
                },
                "emailCommunication": {
                    "type": "string",
                    "description": "Phone number if customer wants shipping notifications by email",
                    "x-example": "/*ToDO*/ Some Example",
                    "pattern": ".+"
                },
                "description": {
                    "type": "string",
                    "description": "shipping fee",
                    "x-example": "/*ToDO*/ Some Example",
                    "pattern": ".+"
                },
                "waiverIndicator": {
                    "type": "string",
                    "description": "indicator for waiver ",
                    "x-example": "/*ToDO*/ Some Example",
                    "pattern": ".+"
                }
            },
            "description": "/*ToDo*/ Some description",
            "x-example": "/*ToDO*/ Some Example"
        },
        "ErrorDetails": {
            "type": "object",
            "properties": {
                "status": {
                    "$ref": "#/definitions/Status"
                },
                "errors": {
                    "$ref": "#/definitions/Errors"
                }
            },
            "description": "/*ToDo*/ Some description",
            "x-example": "/*ToDO*/ Some Example"
        },
        "Status": {
            "type": "object",
            "properties": {
                "code": {
                    "type": "string",
                    "description": "/*ToDo*/ Some description",
                    "x-example": "/*ToDO*/ Some Example",
                    "pattern": ".+"
                },
                "message": {
                    "type": "string",
                    "description": "/*ToDo*/ Some description",
                    "x-example": "/*ToDO*/ Some Example",
                    "pattern": ".+"
                }
            },
            "description": "/*ToDo*/ Some description",
            "x-example": "/*ToDO*/ Some Example"
        },
        "Error": {
            "type": "object",
            "description": "As defined in https://tmobileusa.sharepoint.com/teams/EnterpriseServices/ESG%20Standards%20Documents/APIs/T-Mobile%20API%20Design%20Guidelines%20v1.0.docx",
            "properties": {
                "code": {
                    "description": "A succinct, domain-specific, human-readable text string to identify the type of error for the given status code",
                    "type": "string"
                },
                "userMessage": {
                    "description": "A human-readable message describing the error.",
                    "type": "string"
                },
                "systemMessage": {
                    "description": "Text that provides a more detailed technical explanation of the error",
                    "type": "string"
                },
                "errorDetailUrl": {
                    "description": "link to custom information providing greater detail on error or errors",
                    "type": "string"
                }
            }
        }
    },
    "x-servers": [],
    "tags": [],
    "securityDefinitions": {
        "Oauth": {
            "type": "oauth2",
            "description": "When you sign up for an account, you are given your first API key\n",
            "tokenUrl": "https://dlab03.core.op.api.t-mobile.com:443/v2/oauth2/accesstoken?grant_type=client_credentials",
            "flow": "application",
            "scopes": {}
        }
    }
}