{
  "swagger": "2.0",
  "info": {
    "title": "api_2712 postNoSale",
    "description": "(404).The purpose of the API is to register the reason the cash drawer is opened for  NO SALES. The WISL service used is CashDrawer.manageCashDrawer.",
    "version": "1.0.0",
    "contact": {
      "name": "Feroz Ali Khan",
      "email": "ferozkhan44@t-mobile.com"
    }
  },
  "host": "qlab22.op.api.t-mobile.com",
  "schemes": [
    "https"
  ],
  "x-servers": [
    {
      "url": "qlab02.op.api.t-mobile.com"
    },
    {
      "descritpion": "qlab environment"
    }
  ],
  "basePath": "/reb2-retail-store/v1",
  "consumes": [
    "application/json"
  ],
  "produces": [
    "application/json"
  ],
  "paths": {
    "/stores/{storeId}/no-sale": {
      "post": {
        "summary": "noSales",
        "description": "(404).The purpose of the API is to register the reason the cash drawer is opened for  NO SALES",
        "security": [
          {
            "Oauth": []
          }
        ],
        "parameters": [
          {
            "name": "senderId",
            "in": "header",
            "type": "string",
            "required": false,
            "description": "Uniquely identifies an Operation consumer. Used for Tracking and in Business Rules.",
            "x-example": "SOA"
          },
          {
            "name": "channelId",
            "in": "header",
            "type": "string",
            "required": false,
            "description": "Identifies the business unit or sales channel for the Request.Property values relating to the target system are derived using partner, application, and channel information. This value may control business logic and data routing.",
            "x-example": "receive"
          },
          {
            "name": "applicationId",
            "in": "header",
            "type": "string",
            "required": false,
            "description": "Identifies the application, system, or tool that is being used to perform the transaction(s) related to this request. Property values relating to the target system are derived using partner, application, and channel information.",
            "x-example": "4654623324534"
          },
          {
            "name": "origin",
            "in": "header",
            "type": "string",
            "required": false,
            "description": "origin",
            "x-example": "https://retailqa1.rebellion.t-mobile.com"
          },
          {
            "name": "accept-encoding",
            "in": "header",
            "type": "string",
            "required": false,
            "description": "To set encoding",
            "x-example": "gzip, deflate, br"
          },
          {
            "name": "accept-language",
            "in": "header",
            "type": "string",
            "required": false,
            "description": "To set language",
            "x-example": "en-US,en;q=0.9"
          },
          {
            "name": "authorization",
            "in": "header",
            "type": "string",
            "required": false,
            "description": "A user agent that wishes to authenticate itself with a server",
            "x-example": "KKJAemHqsy9TVQ2ljqFxzSLwNzjC"
          },
          {
            "name": "connection",
            "in": "header",
            "type": "string",
            "required": false,
            "description": "connection",
            "x-example": "keep-alive"
          },
          {
            "name": "storeId",
            "in": "path",
            "type": "string",
            "required": true,
            "description": "Required only when ChannelId is RETAIL",
            "x-example": "4683",
            "pattern": ".+"
          },
          {
            "name": "pragma",
            "in": "header",
            "type": "string",
            "required": false,
            "description": "pragma",
            "x-example": "pragma"
          },
          {
            "name": "activityId",
            "in": "header",
            "type": "string",
            "required": false,
            "description": "A value populated by the Sender used to track a unit of work within a workflow. Senders are encouraged to develop a useful scheme. Do not use customer-sensitive information",
            "x-example": "745545345"
          },
          {
            "name": "user-agent",
            "in": "header",
            "type": "string",
            "required": false,
            "description": "The User-Agent request-header field contains information about the user agent originating the request",
            "x-example": "Mozilla/5.0 (Windows NT 10.0; Win64; x64) AppleWebKit/537.36 (KHTML, like Gecko) Chrome/65.0.3325.181 Safari/537.36"
          },
          {
            "name": "content-type",
            "in": "header",
            "type": "string",
            "required": false,
            "description": "The Content-Type entity-header field indicates the media type of the entity-body sent to the recipient or, in the case of the HEAD method, the media type that would have been sent had the request been a GET",
            "x-example": "application/json"
          },
          {
            "name": "accept",
            "in": "header",
            "type": "string",
            "required": false,
            "description": "accept",
            "x-example": "accept"
          },
          {
            "name": "interactionId",
            "in": "header",
            "type": "string",
            "required": false,
            "description": "interactionId",
            "x-example": "68564653454"
          },
          {
            "name": "cache-control",
            "in": "header",
            "type": "string",
            "required": false,
            "description": "The Cache-Control general-header field is used to specify directives that MUST be obeyed by all caching mechanisms along the request/response chain",
            "x-example": "no-cache"
          },
          {
            "name": "referer",
            "in": "header",
            "type": "string",
            "required": false,
            "description": "referer",
            "x-example": "referer"
          },
          {
            "name": "sessionId",
            "in": "header",
            "type": "string",
            "required": false,
            "description": "A value populated by the Sender used to track the transactions that occur during a session, a long-lasting interaction that is maintained by the sender. Senders are encouraged to develop a useful scheme. Do not use customer-sensitive information",
            "x-example": "98657463542342335"
          },
          {
            "name": "applicationUserId",
            "in": "header",
            "type": "string",
            "required": false,
            "description": "applicationUserId",
            "x-example": "Bellarmin"
          },
          {
            "name": "billingType",
            "in": "header",
            "type": "string",
            "required": false,
            "description": "PREPAID/POSTPAID",
            "x-example": "prepaid"
          },
          {
            "name": "transactionId",
            "in": "header",
            "description": "valid transactionId",
            "required": true,
            "type": "number",
            "pattern": ".+",
            "x-example": {}
          },
          {
            "name": "body",
            "in": "body",
            "description": "noSale request",
            "required": true,
            "schema": {
              "$ref": "#/definitions/PostNoSalePayloadItem"
            },
            "x-example": {}
          },
          {
            "name": "If-Modified-Since",
            "in": "header",
            "description": "The If-Modified-Since header specifies date-related conditions to be placed on the execution of a request.  The request will only be executed if the requested resource has not been modified since the date-time specified.  Because the behavior is complex, the details for usage are provided at http://www.w3.org/Protocols/rfc2616/rfc2616-sec14.html",
            "x-example": "Wed, 18-Apr-2018 11:34:57 GMT",
            "required": false,
            "type": "string"
          },
          {
            "name": "If-None-Match",
            "in": "header",
            "description": "The If-None-Match header specifies an ETag-related condition to be placed on the execution of a request.  The request will NOT be executed if the ETag of the requested resource matches one of those specified in the If-None-Match header.  Because the behavior is complex, the details for usage are provided at http://www.w3.org/Protocols/rfc2616/rfc2616-sec14.html",
            "x-example": "*",
            "required": false,
            "type": "string"
          }
        ],
        "tags": [
          "API_2712_postNoSale"
        ],
        "responses": {
          "201": {
            "description": "getRetailStores Response",
            "headers": {
              "Cache-Control": {
                "description": "No cache indicators supported at this time. Samples: no-cache",
                "x-example": "no-cache",
                "type": "string"
              },
              "Content-Encoding": {
                "description": "The type of encoding used on the data",
                "x-example": "gzip,deflate",
                "type": "string"
              },
              "Content-Language": {
                "description": "The natural language or languages of the intended audience for the enclosed content",
                "x-example": "da",
                "type": "string"
              },
              "Content-Length": {
                "description": "The Content-Length header specifies the actual length of the returned payload.",
                "x-example": "1024",
                "type": "string"
              },
              "Content-Type": {
                "description": "The MIME type of this content",
                "x-example": "text/xml",
                "pattern": "^[\\S]*$",
                "type": "string"
              },
              "Date": {
                "description": "The date and time that the message was originated (in HTTP-date format as defined by RFC 7231 Date/Time Formats).",
                "x-example": "Wed, 18-Apr-2018 11:34:57 GMT",
                "type": "string",
                "format": "date-time"
              },
              "ETag": {
                "description": "The ETag header specifies the unique entity tag value for the returned resource.",
                "x-example": "*",
                "type": "string"
              },
              "Last-Modified": {
                "description": "The Last-Modified entity-header field indicates the date and time at which the origin server believes the variant was last modified.",
                "x-example": "Wed, 18-Apr-2018 11:34:57 GMT",
                "type": "string",
                "format": "date-time"
              },
              "Transfer-Encoding": {
                "description": "The form of encoding used to safely transfer the entity to the user. Currently defined methods are: chunked, compress, deflate, gzip, identity.",
                "x-example": "chunked",
                "type": "string"
              },
              "servicetransactionid": {
                "description": "Internal identifier for transaction tracking an individual transaction/API request within API platform. Don_t receive/don_t send to downstream",
                "x-example": "23409209723",
                "type": "string"
              },
              "If-Match": {
                "description": "the If-Match HTTP request header makes the request conditional. For GET and HEAD methods, the server will send back the requested resource only if it matches one of the listed ETags. For PUT and other non-safe methods, it will only upload the resource in this case.",
                "x-example": "*",
                "type": "string"
              },
              "If-None-Match": {
                "description": "the If-Match HTTP request header makes the request conditional. For GET and HEAD methods, the server will send back the requested resource only if it matches one of the listed ETags. For PUT and other non-safe methods, it will only upload the resource in this case.",
                "x-example": "*",
                "type": "string"
              },
              "Location": {
                "description": "The Location header specifies the URI of a created resource, or redirects the API consumer to an alternate resource location.",
                "type": "string"
              }
            },
            "schema": {
              "$ref": "#/definitions/PostNoSaleItem"
            }
          },
          "204": {
            "description": "No Content",
            "headers": {
              "Cache-Control": {
                "description": "No cache indicators supported at this time. Samples: no-cache",
                "x-example": "no-cache",
                "type": "string"
              },
              "Content-Encoding": {
                "description": "The type of encoding used on the data",
                "x-example": "gzip,deflate",
                "type": "string"
              },
              "Content-Language": {
                "description": "The natural language or languages of the intended audience for the enclosed content",
                "x-example": "da",
                "type": "string"
              },
              "Content-Length": {
                "description": "The Content-Length header specifies the actual length of the returned payload.",
                "x-example": "1024",
                "type": "string"
              },
              "Content-Type": {
                "description": "The MIME type of this content",
                "x-example": "text/xml",
                "pattern": "^[\\S]*$",
                "type": "string"
              },
              "Date": {
                "description": "The date and time that the message was originated (in HTTP-date format as defined by RFC 7231 Date/Time Formats).",
                "x-example": "Wed, 18-Apr-2018 11:34:57 GMT",
                "type": "string",
                "format": "date-time"
              },
              "ETag": {
                "description": "The ETag header specifies the unique entity tag value for the returned resource.",
                "x-example": "*",
                "type": "string"
              },
              "Last-Modified": {
                "description": "The Last-Modified entity-header field indicates the date and time at which the origin server believes the variant was last modified.",
                "x-example": "Wed, 18-Apr-2018 11:34:57 GMT",
                "type": "string",
                "format": "date-time"
              },
              "Transfer-Encoding": {
                "description": "The form of encoding used to safely transfer the entity to the user. Currently defined methods are: chunked, compress, deflate, gzip, identity.",
                "x-example": "chunked",
                "type": "string"
              },
              "servicetransactionid": {
                "description": "Internal identifier for transaction tracking an individual transaction/API request within API platform. Don_t receive/don_t send to downstream",
                "x-example": "23409209723",
                "type": "string"
              },
              "If-Match": {
                "description": "the If-Match HTTP request header makes the request conditional. For GET and HEAD methods, the server will send back the requested resource only if it matches one of the listed ETags. For PUT and other non-safe methods, it will only upload the resource in this case.",
                "x-example": "*",
                "type": "string"
              },
              "If-None-Match": {
                "description": "the If-Match HTTP request header makes the request conditional. For GET and HEAD methods, the server will send back the requested resource only if it matches one of the listed ETags. For PUT and other non-safe methods, it will only upload the resource in this case.",
                "x-example": "*",
                "type": "string"
              },
              "Location": {
                "description": "The Location header specifies the URI of a created resource, or redirects the API consumer to an alternate resource location.",
                "type": "string"
              }
            }
          },
          "304": {
            "description": "Not Modified",
            "headers": {
              "Cache-Control": {
                "description": "No cache indicators supported at this time. Samples: no-cache",
                "x-example": "no-cache",
                "type": "string"
              },
              "ETag": {
                "description": "The ETag header specifies the unique entity tag value for the returned resource.",
                "x-example": "*",
                "type": "string"
              }
            }
          },
          "400": {
            "description": "Bad Request",
            "schema": {
              "type": "array",
              "description": "An array of error objects.",
              "minItems": 1,
              "items": {
                "$ref": "#/definitions/Error"
              }
            },
            "examples": {
              "application/json": [
                {
                  "code": "400",
                  "userMessage": "Bad Request",
                  "systemMessage": "Bad Request"
                }
              ]
            },
            "headers": {}
          },
          "401": {
            "description": "Unauthorized",
            "schema": {
              "type": "array",
              "description": "An array of error objects.",
              "minItems": 1,
              "items": {
                "$ref": "#/definitions/Error"
              }
            },
            "examples": {
              "application/json": [
                {
                  "code": "401",
                  "userMessage": "Unauthorized",
                  "systemMessage": "Unauthorized"
                }
              ]
            },
            "headers": {}
          },
          "403": {
            "description": "Client access denied",
            "schema": {
              "type": "array",
              "description": "An array of error objects.",
              "minItems": 1,
              "items": {
                "$ref": "#/definitions/Error"
              }
            },
            "examples": {
              "application/json": [
                {
                  "code": "403",
                  "userMessage": "Client access denied",
                  "systemMessage": "Client access denied"
                }
              ]
            },
            "headers": {}
          },
          "404": {
            "description": "Resource not found",
            "schema": {
              "type": "array",
              "description": "An array of error objects.",
              "minItems": 1,
              "items": {
                "$ref": "#/definitions/Error"
              }
            },
            "examples": {
              "application/json": [
                {
                  "code": "404",
                  "userMessage": "Resource not found",
                  "systemMessage": "Resource not found"
                }
              ]
            },
            "headers": {}
          },
          "405": {
            "description": "Method Not Allowed",
            "schema": {
              "type": "array",
              "description": "An array of error objects.",
              "minItems": 1,
              "items": {
                "$ref": "#/definitions/Error"
              }
            },
            "examples": {
              "application/json": [
                {
                  "code": "405",
                  "userMessage": "Method Not Allowed",
                  "systemMessage": "Method Not Allowed"
                }
              ]
            },
            "headers": {}
          },
          "406": {
            "description": "Mismatching data format",
            "schema": {
              "type": "array",
              "description": "An array of error objects.",
              "minItems": 1,
              "items": {
                "$ref": "#/definitions/Error"
              }
            },
            "examples": {
              "application/json": [
                {
                  "code": "406",
                  "userMessage": "Mismatching data format",
                  "systemMessage": "Mismatching data format"
                }
              ]
            },
            "headers": {}
          },
          "500": {
            "description": "System Error",
            "schema": {
              "type": "array",
              "description": "An array of error objects.",
              "minItems": 1,
              "items": {
                "$ref": "#/definitions/Error"
              }
            },
            "examples": {
              "application/json": [
                {
                  "code": "500",
                  "userMessage": "System Error",
                  "systemMessage": "System Error"
                }
              ]
            },
            "headers": {}
          },
          "503": {
            "description": "Service unavailable",
            "schema": {
              "type": "array",
              "description": "An array of error objects.",
              "minItems": 1,
              "items": {
                "$ref": "#/definitions/Error"
              }
            },
            "examples": {
              "application/json": [
                {
                  "code": "503",
                  "userMessage": "Service unavailable",
                  "systemMessage": "Service unavailable"
                }
              ]
            },
            "headers": {}
          }
        },
        "operationId": "/*ToDo*/SomeOpId"
      }
    }
  },
  "definitions": {
    "Errors": {
      "description": "Describes the collection of error",
      "type": "array",
      "items": {
        "$ref": "#/definitions/Error"
      },
      "x-example": "/*ToDO*/ Some Example"
    },
    "Error": {
      "type": "object",
      "description": "As defined in https://tmobileusa.sharepoint.com/teams/EnterpriseServices/ESG%20Standards%20Documents/APIs/T-Mobile%20API%20Design%20Guidelines%20v1.0.docx",
      "properties": {
        "code": {
          "description": "A succinct, domain-specific, human-readable text string to identify the type of error for the given status code",
          "type": "string"
        },
        "userMessage": {
          "description": "A human-readable message describing the error.",
          "type": "string"
        },
        "systemMessage": {
          "description": "Text that provides a more detailed technical explanation of the error",
          "type": "string"
        },
        "errorDetailUrl": {
          "description": "link to custom information providing greater detail on error or errors",
          "type": "string"
        }
      }
    },
    "ErrorCode": {
      "type": "string",
      "description": "Error Code as per the T-Mobile standards",
      "x-example": "/*ToDO*/ Some Example",
      "pattern": ".+"
    },
    "SystemMessage": {
      "type": "string",
      "description": "Error information from the system",
      "x-example": "/*ToDO*/ Some Example",
      "pattern": ".+"
    },
    "UserMessage": {
      "type": "string",
      "description": "User friendly information for the error",
      "x-example": "/*ToDO*/ Some Example",
      "pattern": ".+"
    },
    "PostNoSalePayloadItem": {
      "required": [
        "currentDateTime"
      ],
      "title": "postNoSale",
      "description": "PostNoSalePayloadItem",
      "properties": {
        "terminalId": {
          "type": "string",
          "description": "terminalId",
          "x-example": "/*ToDO*/ Some Example",
          "pattern": ".+"
        },
        "reason": {
          "$ref": "#/definitions/PostNoSaleRootReasonPayloadItem"
        },
        "tillId": {
          "type": "string",
          "description": "tillId",
          "x-example": "/*ToDO*/ Some Example",
          "pattern": ".+"
        },
        "businessDateTime": {
          "type": "string",
          "description": "businessDateTime",
          "x-example": "/*ToDO*/ Some Example",
          "pattern": ".+"
        },
        "currentDateTime": {
          "type": "string",
          "description": "currentDateTime",
          "x-example": "/*ToDO*/ Some Example",
          "pattern": ".+"
        }
      },
      "type": "object",
      "x-example": "/*ToDO*/ Some Example"
    },
    "PostNoSaleRootReasonPayloadItem": {
      "required": [
        "code"
      ],
      "title": "reason",
      "description": "PostNoSaleRootReasonPayloadItem",
      "properties": {
        "code": {
          "type": "string",
          "description": "code",
          "x-example": "/*ToDO*/ Some Example",
          "pattern": ".+"
        }
      },
      "type": "object",
      "x-example": "/*ToDO*/ Some Example"
    },
    "PostNoSaleItem": {
      "title": "postNoSale",
      "description": "PostNoSaleItem",
      "properties": {
        "status": {
          "type": "string",
          "description": "status",
          "x-example": "/*ToDO*/ Some Example",
          "pattern": ".+"
        }
      },
      "type": "object",
      "x-example": "/*ToDO*/ Some Example"
    }
  },
  "securityDefinitions": {
    "Oauth": {
      "type": "oauth2",
      "description": "When you sign up for an account, you are given your first API key\n",
      "tokenUrl": "https://dlab03.core.op.api.t-mobile.com:443/v2/oauth2/accesstoken?grant_type=client_credentials",
      "flow": "application",
      "scopes": {}
    }
  },
  "tags": []
}