<?xml version="1.0" encoding="UTF-8" standalone="no"?><svg xmlns="http://www.w3.org/2000/svg" xmlns:xlink="http://www.w3.org/1999/xlink" contentScriptType="application/ecmascript" contentStyleType="text/css" height="645px" preserveAspectRatio="none" style="width:456px;height:645px;" version="1.1" viewBox="0 0 456 645" width="456px" zoomAndPan="magnify"><defs><filter height="300%" id="fyxh7zai9e2jr" width="300%" x="-1" y="-1"><feGaussianBlur result="blurOut" stdDeviation="2.0"/><feColorMatrix in="blurOut" result="blurOut2" type="matrix" values="0 0 0 0 0 0 0 0 0 0 0 0 0 0 0 0 0 0 .4 0"/><feOffset dx="4.0" dy="4.0" in="blurOut2" result="blurOut3"/><feBlend in="SourceGraphic" in2="blurOut3" mode="normal"/></filter></defs><g><text fill="#000000" font-family="sans-serif" font-size="14" font-weight="bold" lengthAdjust="spacingAndGlyphs" textLength="337" x="60" y="24.5332">"Customer DEEP Event Generic Flow Overview"</text><rect fill="#FFFFFF" filter="url(#fyxh7zai9e2jr)" height="154.7578" style="stroke: #000000; stroke-width: 2.0;" width="288" x="13" y="148.9219"/><rect fill="#FFFFFF" filter="url(#fyxh7zai9e2jr)" height="61.7031" style="stroke: #000000; stroke-width: 2.0;" width="272" x="23" y="204.625"/><rect fill="#FFFFFF" filter="url(#fyxh7zai9e2jr)" height="48.7031" style="stroke: #000000; stroke-width: 2.0;" width="278" x="23" y="361.0313"/><line style="stroke: #A80036; stroke-width: 1.0; stroke-dasharray: 5.0,5.0;" x1="60" x2="60" y1="71.2188" y2="603.8438"/><line style="stroke: #A80036; stroke-width: 1.0; stroke-dasharray: 5.0,5.0;" x1="217" x2="217" y1="71.2188" y2="603.8438"/><line style="stroke: #A80036; stroke-width: 1.0; stroke-dasharray: 5.0,5.0;" x1="421" x2="421" y1="71.2188" y2="603.8438"/><rect fill="#FEFECE" filter="url(#fyxh7zai9e2jr)" height="31.6094" style="stroke: #A80036; stroke-width: 1.5;" width="51" x="33" y="34.6094"/><text fill="#000000" font-family="sans-serif" font-size="14" lengthAdjust="spacingAndGlyphs" textLength="37" x="40" y="56.1426">DEEP</text><rect fill="#FEFECE" filter="url(#fyxh7zai9e2jr)" height="31.6094" style="stroke: #A80036; stroke-width: 1.5;" width="51" x="33" y="602.8438"/><text fill="#000000" font-family="sans-serif" font-size="14" lengthAdjust="spacingAndGlyphs" textLength="37" x="40" y="624.377">DEEP</text><rect fill="#FEFECE" filter="url(#fyxh7zai9e2jr)" height="31.6094" style="stroke: #A80036; stroke-width: 1.5;" width="143" x="144" y="34.6094"/><text fill="#000000" font-family="sans-serif" font-size="14" lengthAdjust="spacingAndGlyphs" textLength="129" x="151" y="56.1426">CD Event Consumer</text><rect fill="#FEFECE" filter="url(#fyxh7zai9e2jr)" height="31.6094" style="stroke: #A80036; stroke-width: 1.5;" width="143" x="144" y="602.8438"/><text fill="#000000" font-family="sans-serif" font-size="14" lengthAdjust="spacingAndGlyphs" textLength="129" x="151" y="624.377">CD Event Consumer</text><rect fill="#FEFECE" filter="url(#fyxh7zai9e2jr)" height="31.6094" style="stroke: #A80036; stroke-width: 1.5;" width="51" x="394" y="34.6094"/><text fill="#000000" font-family="sans-serif" font-size="14" lengthAdjust="spacingAndGlyphs" textLength="37" x="401" y="56.1426">CHUB</text><rect fill="#FEFECE" filter="url(#fyxh7zai9e2jr)" height="31.6094" style="stroke: #A80036; stroke-width: 1.5;" width="51" x="394" y="602.8438"/><text fill="#000000" font-family="sans-serif" font-size="14" lengthAdjust="spacingAndGlyphs" textLength="37" x="401" y="624.377">CHUB</text><polygon fill="#A80036" points="205.5,99.5703,215.5,103.5703,205.5,107.5703,209.5,103.5703" style="stroke: #A80036; stroke-width: 1.0;"/><line style="stroke: #A80036; stroke-width: 1.0;" x1="60.5" x2="211.5" y1="103.5703" y2="103.5703"/><text fill="#000000" font-family="sans-serif" font-size="13" lengthAdjust="spacingAndGlyphs" textLength="102" x="67.5" y="98.7139">event{eventName}</text><polygon fill="#A80036" points="409.5,129.9219,419.5,133.9219,409.5,137.9219,413.5,133.9219" style="stroke: #A80036; stroke-width: 1.0;"/><line style="stroke: #A80036; stroke-width: 1.0;" x1="217.5" x2="415.5" y1="133.9219" y2="133.9219"/><text fill="#000000" font-family="sans-serif" font-size="13" lengthAdjust="spacingAndGlyphs" textLength="180" x="224.5" y="129.0654">write event to CX_EVENT_LOG</text><path d="M13,148.9219 L74,148.9219 L74,156.9219 L64,166.9219 L13,166.9219 L13,148.9219 " fill="#EEEEEE" style="stroke: #000000; stroke-width: 1.0;"/><rect fill="none" height="154.7578" style="stroke: #000000; stroke-width: 2.0;" width="288" x="13" y="148.9219"/><text fill="#000000" font-family="sans-serif" font-size="13" font-weight="bold" lengthAdjust="spacingAndGlyphs" textLength="16" x="28" y="163.417">alt</text><text fill="#000000" font-family="sans-serif" font-size="11" font-weight="bold" lengthAdjust="spacingAndGlyphs" textLength="133" x="89" y="162.3408">[CHUB connection error]</text><polygon fill="#A80036" points="71.5,185.625,61.5,189.625,71.5,193.625,67.5,189.625" style="stroke: #A80036; stroke-width: 1.0;"/><line style="stroke: #A80036; stroke-width: 1.0; stroke-dasharray: 2.0,2.0;" x1="65.5" x2="216.5" y1="189.625" y2="189.625"/><text fill="#000000" font-family="sans-serif" font-size="13" lengthAdjust="spacingAndGlyphs" textLength="133" x="77.5" y="184.7686">DEEP Retry Exception</text><path d="M23,204.625 L84,204.625 L84,212.625 L74,222.625 L23,222.625 L23,204.625 " fill="#EEEEEE" style="stroke: #000000; stroke-width: 1.0;"/><rect fill="none" height="61.7031" style="stroke: #000000; stroke-width: 2.0;" width="272" x="23" y="204.625"/><text fill="#000000" font-family="sans-serif" font-size="13" font-weight="bold" lengthAdjust="spacingAndGlyphs" textLength="16" x="38" y="219.1201">alt</text><text fill="#000000" font-family="sans-serif" font-size="11" font-weight="bold" lengthAdjust="spacingAndGlyphs" textLength="191" x="99" y="218.0439">[retries == max retries configured]</text><line style="stroke: #A80036; stroke-width: 1.0;" x1="60.5" x2="102.5" y1="245.3281" y2="245.3281"/><line style="stroke: #A80036; stroke-width: 1.0;" x1="102.5" x2="102.5" y1="245.3281" y2="258.3281"/><line style="stroke: #A80036; stroke-width: 1.0;" x1="61.5" x2="102.5" y1="258.3281" y2="258.3281"/><polygon fill="#A80036" points="71.5,254.3281,61.5,258.3281,71.5,262.3281,67.5,258.3281" style="stroke: #A80036; stroke-width: 1.0;"/><text fill="#000000" font-family="sans-serif" font-size="13" lengthAdjust="spacingAndGlyphs" textLength="98" x="67.5" y="240.4717">DEEP Exception</text><polygon fill="#A80036" points="205.5,291.6797,215.5,295.6797,205.5,299.6797,209.5,295.6797" style="stroke: #A80036; stroke-width: 1.0;"/><line style="stroke: #A80036; stroke-width: 1.0;" x1="60.5" x2="211.5" y1="295.6797" y2="295.6797"/><text fill="#000000" font-family="sans-serif" font-size="13" lengthAdjust="spacingAndGlyphs" textLength="132" x="67.5" y="290.8232">retry event{eventName}</text><line style="stroke: #A80036; stroke-width: 1.0;" x1="217.5" x2="259.5" y1="333.0313" y2="333.0313"/><line style="stroke: #A80036; stroke-width: 1.0;" x1="259.5" x2="259.5" y1="333.0313" y2="346.0313"/><line style="stroke: #A80036; stroke-width: 1.0;" x1="218.5" x2="259.5" y1="346.0313" y2="346.0313"/><polygon fill="#A80036" points="228.5,342.0313,218.5,346.0313,228.5,350.0313,224.5,346.0313" style="stroke: #A80036; stroke-width: 1.0;"/><text fill="#000000" font-family="sans-serif" font-size="13" lengthAdjust="spacingAndGlyphs" textLength="132" x="224.5" y="328.1748">validate DEEP payload</text><path d="M23,361.0313 L84,361.0313 L84,369.0313 L74,379.0313 L23,379.0313 L23,361.0313 " fill="#EEEEEE" style="stroke: #000000; stroke-width: 1.0;"/><rect fill="none" height="48.7031" style="stroke: #000000; stroke-width: 2.0;" width="278" x="23" y="361.0313"/><text fill="#000000" font-family="sans-serif" font-size="13" font-weight="bold" lengthAdjust="spacingAndGlyphs" textLength="16" x="38" y="375.5264">alt</text><text fill="#000000" font-family="sans-serif" font-size="11" font-weight="bold" lengthAdjust="spacingAndGlyphs" textLength="136" x="99" y="374.4502">[event playload not valid]</text><polygon fill="#A80036" points="71.5,397.7344,61.5,401.7344,71.5,405.7344,67.5,401.7344" style="stroke: #A80036; stroke-width: 1.0;"/><line style="stroke: #A80036; stroke-width: 1.0; stroke-dasharray: 2.0,2.0;" x1="65.5" x2="216.5" y1="401.7344" y2="401.7344"/><text fill="#000000" font-family="sans-serif" font-size="13" lengthAdjust="spacingAndGlyphs" textLength="98" x="77.5" y="396.8779">DEEP Exception</text><line style="stroke: #A80036; stroke-width: 1.0;" x1="217.5" x2="259.5" y1="439.0859" y2="439.0859"/><line style="stroke: #A80036; stroke-width: 1.0;" x1="259.5" x2="259.5" y1="439.0859" y2="452.0859"/><line style="stroke: #A80036; stroke-width: 1.0;" x1="218.5" x2="259.5" y1="452.0859" y2="452.0859"/><polygon fill="#A80036" points="228.5,448.0859,218.5,452.0859,228.5,456.0859,224.5,452.0859" style="stroke: #A80036; stroke-width: 1.0;"/><text fill="#000000" font-family="sans-serif" font-size="13" lengthAdjust="spacingAndGlyphs" textLength="130" x="224.5" y="434.2295">perform business logic</text><polygon fill="#A80036" points="409.5,478.4375,419.5,482.4375,409.5,486.4375,413.5,482.4375" style="stroke: #A80036; stroke-width: 1.0;"/><line style="stroke: #A80036; stroke-width: 1.0;" x1="217.5" x2="415.5" y1="482.4375" y2="482.4375"/><text fill="#000000" font-family="sans-serif" font-size="13" lengthAdjust="spacingAndGlyphs" textLength="177" x="224.5" y="477.5811">upsert info to customer master</text><path d="M82,495.4375 L82,554.4375 L348,554.4375 L348,505.4375 L338,495.4375 L82,495.4375 " fill="#FBFB77" filter="url(#fyxh7zai9e2jr)" style="stroke: #A80036; stroke-width: 1.0;"/><path d="M338,495.4375 L338,505.4375 L348,505.4375 L338,495.4375 " fill="#FBFB77" style="stroke: #A80036; stroke-width: 1.0;"/><text fill="#000000" font-family="sans-serif" font-size="13" lengthAdjust="spacingAndGlyphs" textLength="224" x="88" y="513.9326">Consumption of all DEEP events in CD</text><text fill="#000000" font-family="sans-serif" font-size="13" lengthAdjust="spacingAndGlyphs" textLength="209" x="88" y="530.2842">follows this pattern.  Business Logic</text><text fill="#000000" font-family="sans-serif" font-size="13" lengthAdjust="spacingAndGlyphs" textLength="245" x="88" y="546.6357">performed varies based on the eventName.</text><polygon fill="#A80036" points="71.5,581.8438,61.5,585.8438,71.5,589.8438,67.5,585.8438" style="stroke: #A80036; stroke-width: 1.0;"/><line style="stroke: #A80036; stroke-width: 1.0; stroke-dasharray: 2.0,2.0;" x1="65.5" x2="216.5" y1="585.8438" y2="585.8438"/><text fill="#000000" font-family="sans-serif" font-size="13" lengthAdjust="spacingAndGlyphs" textLength="49" x="77.5" y="580.9873">success</text><!--
@startuml 
title "Customer DEEP Event Generic Flow Overview"
participant "DEEP" as DEEP
participant "CD Event Consumer" as CDCONS
participant "CHUB" as CHUB


DEEP->CDCONS: event{eventName}
CDCONS->CHUB:  write event to CX_EVENT_LOG

alt CHUB connection error 
    CDCONS- ->DEEP:  DEEP Retry Exception
    alt retries == max retries configured
        DEEP->DEEP: DEEP Exception
    end
    DEEP->CDCONS: retry event{eventName}
end 

CDCONS->CDCONS:  validate DEEP payload
alt event playload not valid 
    CDCONS- ->DEEP: DEEP Exception
end

CDCONS->CDCONS:  perform business logic
CDCONS->CHUB: upsert info to customer master
note over CDCONS
    Consumption of all DEEP events in CD
    follows this pattern.  Business Logic 
    performed varies based on the eventName.
end note

CDCONS- ->DEEP: success

@enduml

PlantUML version 1.2019.09(Mon Aug 26 09:19:51 PDT 2019)
(GPL source distribution)
Java Runtime: Java(TM) SE Runtime Environment
JVM: Java HotSpot(TM) Client VM
Java Version: 1.8.0_221-b11
Operating System: Windows 10
OS Version: 10.0
Default Encoding: Cp1252
Language: en
Country: US
--></g></svg>