@startuml
skinparam SequenceMessageAlign left
participant "Source" as Source
participant "ProvisionService" as ProvisionService
participant "SAMSON" as SAMSON
participant "IN" as IN
participant "REEF" as REEF
participant "PublishEvent" as PublishEvent

	Source -> ProvisionService : Receives request and routes it to ProvisionService handler \n <color:green><B>"ProvisionService.updateSIM"</B></color>
		opt If NEW SIM exists in request
		group SAMSONGetSimDetails
			ProvisionService -> SAMSON : Invoke SAMSON's API <I>"icGtSit00"</I> using Tuxedo call \t\t\t\t\t\t\t\t\t\t\t\t\t
			note right: SB sequence diagram not available in Clearwater for this API
			SAMSON -> ProvisionService : Return the response back
			end
		end	
		opt If OLD SIM exists in request
			group SAMSONGetSimDetails
			ProvisionService -> SAMSON : Invoke SAMSON's API <I>"icGtSit00"</I> using Tuxedo call 
			note right: SB sequence diagram not available in Clearwater for this API
			SAMSON -> ProvisionService : Return the response back
			end
		end	
		group SAMSONGetSubscriberMode 	
		ProvisionService -> SAMSON : Invoke SAMSON's API <I>"evGtSubInfo"</I> using Tuxedo call 
		note right: SB sequence diagram not available in Clearwater for this API
		SAMSON -> ProvisionService : Return the response back
		end
		group SAMSONInsertMPCSSubscriber
		ProvisionService -> SAMSON : Invoke SAMSON's API <I>"evHndlMPCS"</I> using Tuxedo call 
		note right: SB sequence diagram not available in Clearwater for this API
		SAMSON -> ProvisionService : Return the response back		
		end
		alt if TMO/Env/EventManagement/useTIBCOBEEventFramework="true"
			group REEFUpdateSIM
			ProvisionService -> REEF : Initiate [[../REEF/ce.dsg.dice.mpcs.provision.updateSIM.reef.svg UpdateSIMAsync]] flow by Publishing a message to JMS Queue \n 'TMOBILE.',$_globalVariables/pfx3:GlobalVariables/TMO/Env/Env_Name_BE,'.EVENTFRAMEWORK.REQUEST' (REEF)
			REEF -> ProvisionService : Confirm JMS Message
			end
		else else
			group PublishEvent
			ProvisionService -> PublishEvent : Invoke [[../PublishEvent/ce.dsg.dice.mpcs.publishEvent.postEvent.svg PublishEvent.postEvent]] operation by SOAP Call
			PublishEvent -> ProvisionService : Return Response to ProvisionService
			end
		end		
	ProvisionService->Source : Return Response to Source
@end
@enduml