{

  "swagger": "2.0",
  "info": {
    "description": "Tuxedo Rest APIs",
    "version": "1.0",
    "title": "Tuxedo API Swagger 2.0",
    "license": {
      "name": "TMUS"
    }
  },
  "host": "service-samson-customerbilling-npe-qlab03.test.px-01.cf.t-mobile.com",
  "basePath": "/",
  "tags": [
    {
      "name": "Tuxedo-API",
      "description": "cs Rels Sub Controller"
    }
  ],
  "paths": {
    "/tuxedo/api/csRelsSub": {
      "post": {
        "tags": [
          "Tuxedo-API"
        ],
        "summary": "csRelsSub",
        "description": "Invokes csRelsSub Tuxedo Service.",
        "operationId": "invokeUsingPOST",
        "consumes": [
          "application/json"
        ],
        "produces": [
          "application/json",
          "*/*"
        ],
        "parameters": [
          {
            "in": "body",
            "name": "p_csRelsSubInput",
            "description": "p_csRelsSubInput",
            "required": true,
            "schema": {
              "$ref": "#/definitions/csRelsSubInput"
            }
          }
        ],
        "responses": {
          "200": {
            "description": "OK",
            "schema": {
              "$ref": "#/definitions/csRelsSubOutput"
            }
          },
          "201": {
            "description": "Created"
          },
          "401": {
            "description": "Unauthorized"
          },
          "403": {
            "description": "Forbidden"
          },
          "404": {
            "description": "Not Found"
          }
        }
      }
    }
  },
  "definitions": {
    "csRelsSubOutput": {
      "type": "object",
      "properties": {
        "applicationId": {
          "type": "string"
        },
        "channelId": {
          "type": "string"
        },
        "directive": {
          "type": "integer",
          "format": "int32"
        },
        "envCode": {
          "type": "string"
        },
        "firstDirective": {
          "type": "integer",
          "format": "int32"
        },
        "generation": {
          "type": "integer",
          "format": "int32"
        },
        "groupTrxId": {
          "type": "integer",
          "format": "int32"
        },
        "lastUpdateDate": {
          "type": "string"
        },
        "lastUpdateStamp": {
          "type": "integer",
          "format": "int32"
        },
        "marketCode": {
          "type": "string"
        },
        "mcErrorCode": {
          "type": "integer",
          "format": "int32"
        },
        "mcErrorText": {
          "type": "string"
        },
        "mcWarningCnt": {
          "type": "integer",
          "format": "int32"
        },
        "mcWarningCode1": {
          "type": "integer",
          "format": "int32"
        },
        "mcWarningCode2": {
          "type": "integer",
          "format": "int32"
        },
        "mcWarningCode3": {
          "type": "integer",
          "format": "int32"
        },
        "mcWarningCode4": {
          "type": "integer",
          "format": "int32"
        },
        "mcWarningCode5": {
          "type": "integer",
          "format": "int32"
        },
        "mcWarningText1": {
          "type": "string"
        },
        "mcWarningText2": {
          "type": "string"
        },
        "mcWarningText3": {
          "type": "string"
        },
        "mcWarningText4": {
          "type": "string"
        },
        "mcWarningText5": {
          "type": "string"
        },
        "onlineTrxNo": {
          "type": "integer",
          "format": "int32"
        },
        "operatorId": {
          "type": "integer",
          "format": "int32"
        },
        "runDate": {
          "type": "string"
        },
        "secondDirective": {
          "type": "integer",
          "format": "int32"
        },
        "servicePartnerId": {
          "type": "string"
        },
        "sessionId": {
          "type": "integer",
          "format": "int32"
        },
        "svcStatus": {
          "type": "string"
        },
        "transactionMode": {
          "type": "string"
        }
      }
    },
    "csRelsSubInput": {
      "type": "object",
      "properties": {
        "actCode": {
          "type": "string"
        },
        "actReason": {
          "type": "string"
        },
        "actionDirectionCd": {
          "type": "array",
          "items": {
            "type": "string"
          }
        },
        "activateWaiveRsn": {
          "type": "string"
        },
        "actvAmt": {
          "type": "array",
          "items": {
            "type": "number",
            "format": "double"
          }
        },
        "actvBillSeqNo": {
          "type": "array",
          "items": {
            "type": "integer",
            "format": "int32"
          }
        },
        "actvCode": {
          "type": "array",
          "items": {
            "type": "string"
          }
        },
        "actvDate": {
          "type": "array",
          "items": {
            "type": "string"
          }
        },
        "actvReasonCode": {
          "type": "array",
          "items": {
            "type": "string"
          }
        },
        "actvSeqNo": {
          "type": "array",
          "items": {
            "type": "integer",
            "format": "int32"
          }
        },
        "adjApprovalDate": {
          "type": "array",
          "items": {
            "type": "string"
          }
        },
        "adjApprovalInd": {
          "type": "array",
          "items": {
            "type": "string"
          }
        },
        "adjApprovalUid": {
          "type": "array",
          "items": {
            "type": "integer",
            "format": "int32"
          }
        },
        "adjBillSeqNo": {
          "type": "array",
          "items": {
            "type": "integer",
            "format": "int32"
          }
        },
        "adjCreatorUid": {
          "type": "array",
          "items": {
            "type": "integer",
            "format": "int32"
          }
        },
        "adjDuration": {
          "type": "array",
          "items": {
            "type": "number",
            "format": "double"
          }
        },
        "adjFmDuration": {
          "type": "array",
          "items": {
            "type": "number",
            "format": "double"
          }
        },
        "adjFuId": {
          "type": "array",
          "items": {
            "type": "integer",
            "format": "int32"
          }
        },
        "adjGroupId": {
          "type": "array",
          "items": {
            "type": "integer",
            "format": "int32"
          }
        },
        "adjInstallSeqNo": {
          "type": "array",
          "items": {
            "type": "integer",
            "format": "int32"
          }
        },
        "adjLevelCode": {
          "type": "array",
          "items": {
            "type": "string"
          }
        },
        "adjPriodEndDate": {
          "type": "array",
          "items": {
            "type": "string"
          }
        },
        "adjPriodStartDate": {
          "type": "array",
          "items": {
            "type": "string"
          }
        },
        "adjReasonCode": {
          "type": "array",
          "items": {
            "type": "string"
          }
        },
        "adjSocIndArrsocInd": {
          "type": "array",
          "items": {
            "type": "string"
          }
        },
        "adjSocIndBufrowCount": {
          "type": "integer",
          "format": "int32"
        },
        "adjustmentAmount": {
          "type": "array",
          "items": {
            "type": "number",
            "format": "double"
          }
        },
        "adjustmentsBufrowCount": {
          "type": "integer",
          "format": "int32"
        },
        "amtForTax1": {
          "type": "array",
          "items": {
            "type": "number",
            "format": "double"
          }
        },
        "amtForTax10": {
          "type": "array",
          "items": {
            "type": "number",
            "format": "double"
          }
        },
        "amtForTax11": {
          "type": "array",
          "items": {
            "type": "number",
            "format": "double"
          }
        },
        "amtForTax12": {
          "type": "array",
          "items": {
            "type": "number",
            "format": "double"
          }
        },
        "amtForTax13": {
          "type": "array",
          "items": {
            "type": "number",
            "format": "double"
          }
        },
        "amtForTax14": {
          "type": "array",
          "items": {
            "type": "number",
            "format": "double"
          }
        },
        "amtForTax15": {
          "type": "array",
          "items": {
            "type": "number",
            "format": "double"
          }
        },
        "amtForTax16": {
          "type": "array",
          "items": {
            "type": "number",
            "format": "double"
          }
        },
        "amtForTax17": {
          "type": "array",
          "items": {
            "type": "number",
            "format": "double"
          }
        },
        "amtForTax18": {
          "type": "array",
          "items": {
            "type": "number",
            "format": "double"
          }
        },
        "amtForTax19": {
          "type": "array",
          "items": {
            "type": "number",
            "format": "double"
          }
        },
        "amtForTax2": {
          "type": "array",
          "items": {
            "type": "number",
            "format": "double"
          }
        },
        "amtForTax20": {
          "type": "array",
          "items": {
            "type": "number",
            "format": "double"
          }
        },
        "amtForTax3": {
          "type": "array",
          "items": {
            "type": "number",
            "format": "double"
          }
        },
        "amtForTax4": {
          "type": "array",
          "items": {
            "type": "number",
            "format": "double"
          }
        },
        "amtForTax5": {
          "type": "array",
          "items": {
            "type": "number",
            "format": "double"
          }
        },
        "amtForTax6": {
          "type": "array",
          "items": {
            "type": "number",
            "format": "double"
          }
        },
        "amtForTax7": {
          "type": "array",
          "items": {
            "type": "number",
            "format": "double"
          }
        },
        "amtForTax8": {
          "type": "array",
          "items": {
            "type": "number",
            "format": "double"
          }
        },
        "amtForTax9": {
          "type": "array",
          "items": {
            "type": "number",
            "format": "double"
          }
        },
        "applicationId": {
          "type": "string"
        },
        "arActivity": {
          "type": "array",
          "items": {
            "type": "string"
          }
        },
        "asgnToBillApplCd": {
          "type": "array",
          "items": {
            "type": "string"
          }
        },
        "atCallDurRondMin": {
          "type": "array",
          "items": {
            "type": "number",
            "format": "double"
          }
        },
        "atCallEndPeriod": {
          "type": "array",
          "items": {
            "type": "string"
          }
        },
        "atCallStartPeriod": {
          "type": "array",
          "items": {
            "type": "string"
          }
        },
        "auIssueCode": {
          "type": "array",
          "items": {
            "type": "string"
          }
        },
        "auRatingSchemeInd": {
          "type": "array",
          "items": {
            "type": "string"
          }
        },
        "auSeqNo": {
          "type": "array",
          "items": {
            "type": "integer",
            "format": "int32"
          }
        },
        "autoPymInd": {
          "type": "string"
        },
        "balanceImpactCode": {
          "type": "array",
          "items": {
            "type": "string"
          }
        },
        "ban": {
          "type": "array",
          "items": {
            "type": "integer",
            "format": "int32"
          }
        },
        "banExternalId": {
          "type": "integer",
          "format": "int32"
        },
        "banKeyban": {
          "type": "array",
          "items": {
            "type": "integer",
            "format": "int32"
          }
        },
        "banKeyrowid": {
          "type": "array",
          "items": {
            "type": "string"
          }
        },
        "beforeDiscntAmt": {
          "type": "array",
          "items": {
            "type": "number",
            "format": "double"
          }
        },
        "billComment": {
          "type": "array",
          "items": {
            "type": "string"
          }
        },
        "billCtgSumInd": {
          "type": "string"
        },
        "billSeqNo": {
          "type": "array",
          "items": {
            "type": "integer",
            "format": "int32"
          }
        },
        "blAdjDate": {
          "type": "array",
          "items": {
            "type": "string"
          }
        },
        "blIgnoreInd": {
          "type": "array",
          "items": {
            "type": "string"
          }
        },
        "blMonth": {
          "type": "array",
          "items": {
            "type": "integer",
            "format": "int32"
          }
        },
        "blYear": {
          "type": "array",
          "items": {
            "type": "integer",
            "format": "int32"
          }
        },
        "bucketBufrowCount": {
          "type": "integer",
          "format": "int32"
        },
        "bucketSize": {
          "type": "integer",
          "format": "int32"
        },
        "bucketType": {
          "type": "array",
          "items": {
            "type": "string"
          }
        },
        "bucketsoc": {
          "type": "array",
          "items": {
            "type": "string"
          }
        },
        "callTaxType": {
          "type": "array",
          "items": {
            "type": "string"
          }
        },
        "callToCityDesc": {
          "type": "array",
          "items": {
            "type": "string"
          }
        },
        "callToStateCode": {
          "type": "array",
          "items": {
            "type": "string"
          }
        },
        "callToTn": {
          "type": "array",
          "items": {
            "type": "string"
          }
        },
        "ccReasonCode": {
          "type": "array",
          "items": {
            "type": "string"
          }
        },
        "channelId": {
          "type": "string"
        },
        "channelSeizureDate": {
          "type": "array",
          "items": {
            "type": "string"
          }
        },
        "chargeActvSeqNo": {
          "type": "array",
          "items": {
            "type": "integer",
            "format": "int32"
          }
        },
        "chargeHistInd": {
          "type": "array",
          "items": {
            "type": "string"
          }
        },
        "chargeId": {
          "type": "array",
          "items": {
            "type": "integer",
            "format": "int32"
          }
        },
        "chargeType": {
          "type": "array",
          "items": {
            "type": "string"
          }
        },
        "chgCreationDate": {
          "type": "array",
          "items": {
            "type": "string"
          }
        },
        "chgGroupId": {
          "type": "array",
          "items": {
            "type": "integer",
            "format": "int32"
          }
        },
        "chgGroupLevel": {
          "type": "array",
          "items": {
            "type": "string"
          }
        },
        "chgSocIndBufrowCount": {
          "type": "integer",
          "format": "int32"
        },
        "cityExmpSrc": {
          "type": "array",
          "items": {
            "type": "string"
          }
        },
        "cityRate": {
          "type": "array",
          "items": {
            "type": "number",
            "format": "double"
          }
        },
        "cityTaxAuthAmt": {
          "type": "array",
          "items": {
            "type": "number",
            "format": "double"
          }
        },
        "cityTaxCustAmt": {
          "type": "array",
          "items": {
            "type": "number",
            "format": "double"
          }
        },
        "claimId": {
          "type": "array",
          "items": {
            "type": "integer",
            "format": "int32"
          }
        },
        "commitEndDate": {
          "type": "string"
        },
        "commitOrigNoMonth": {
          "type": "integer",
          "format": "int32"
        },
        "commitReasonCode": {
          "type": "string"
        },
        "commitStartDate": {
          "type": "string"
        },
        "contractType": {
          "type": "string"
        },
        "convRunNo": {
          "type": "integer",
          "format": "int32"
        },
        "countOfFees": {
          "type": "array",
          "items": {
            "type": "integer",
            "format": "int32"
          }
        },
        "countyExmpSrc": {
          "type": "array",
          "items": {
            "type": "string"
          }
        },
        "countyRate": {
          "type": "array",
          "items": {
            "type": "number",
            "format": "double"
          }
        },
        "countyTaxAuthAmt": {
          "type": "array",
          "items": {
            "type": "number",
            "format": "double"
          }
        },
        "countyTaxCustAmt": {
          "type": "array",
          "items": {
            "type": "number",
            "format": "double"
          }
        },
        "courtesyStmt": {
          "type": "string"
        },
        "cstExternalId": {
          "type": "integer",
          "format": "int32"
        },
        "ctnSeqNo": {
          "type": "number",
          "format": "double"
        },
        "customerBan": {
          "type": "integer",
          "format": "int32"
        },
        "customerId": {
          "type": "integer",
          "format": "int32"
        },
        "cycleCode": {
          "type": "array",
          "items": {
            "type": "integer",
            "format": "int32"
          }
        },
        "cycleRunMonth": {
          "type": "array",
          "items": {
            "type": "integer",
            "format": "int32"
          }
        },
        "cycleRunYear": {
          "type": "array",
          "items": {
            "type": "integer",
            "format": "int32"
          }
        },
        "dataAdjEntityfeatureCode": {
          "type": "array",
          "items": {
            "type": "string"
          }
        },
        "dataAdjEntitysoc": {
          "type": "array",
          "items": {
            "type": "string"
          }
        },
        "dealerCode": {
          "type": "string"
        },
        "defaultRateInd": {
          "type": "array",
          "items": {
            "type": "string"
          }
        },
        "delta": {
          "type": "array",
          "items": {
            "type": "integer",
            "format": "int32"
          }
        },
        "depositMtd": {
          "type": "string"
        },
        "designation": {
          "type": "array",
          "items": {
            "type": "string"
          }
        },
        "directive": {
          "type": "integer",
          "format": "int32"
        },
        "discountAmt": {
          "type": "array",
          "items": {
            "type": "number",
            "format": "double"
          }
        },
        "discountCode": {
          "type": "array",
          "items": {
            "type": "string"
          }
        },
        "discountPct": {
          "type": "array",
          "items": {
            "type": "number",
            "format": "double"
          }
        },
        "dlServiceCode": {
          "type": "string"
        },
        "dlUpdateStamp": {
          "type": "integer",
          "format": "int32"
        },
        "dlrstoreCd": {
          "type": "string"
        },
        "duration": {
          "type": "array",
          "items": {
            "type": "number",
            "format": "double"
          }
        },
        "earliestActvDate": {
          "type": "string"
        },
        "effectiveDate": {
          "type": "string"
        },
        "eldSeqNo": {
          "type": "array",
          "items": {
            "type": "integer",
            "format": "int32"
          }
        },
        "entSeqNo": {
          "type": "array",
          "items": {
            "type": "integer",
            "format": "int32"
          }
        },
        "envCode": {
          "type": "string"
        },
        "eventId": {
          "type": "array",
          "items": {
            "type": "string"
          }
        },
        "extendedHmAreaInd": {
          "type": "array",
          "items": {
            "type": "string"
          }
        },
        "featureCode": {
          "type": "array",
          "items": {
            "type": "string"
          }
        },
        "federalExmpSrc": {
          "type": "array",
          "items": {
            "type": "string"
          }
        },
        "federalTaxAmt": {
          "type": "array",
          "items": {
            "type": "number",
            "format": "double"
          }
        },
        "feeAmt": {
          "type": "array",
          "items": {
            "type": "number",
            "format": "double"
          }
        },
        "fileSeqNo": {
          "type": "array",
          "items": {
            "type": "integer",
            "format": "int32"
          }
        },
        "financeEffDate": {
          "type": "array",
          "items": {
            "type": "string"
          }
        },
        "firstDirective": {
          "type": "integer",
          "format": "int32"
        },
        "fmDuration": {
          "type": "array",
          "items": {
            "type": "number",
            "format": "double"
          }
        },
        "fraudInd": {
          "type": "string"
        },
        "frwdFmBillSeqNo": {
          "type": "array",
          "items": {
            "type": "integer",
            "format": "int32"
          }
        },
        "ftrRevenueCode": {
          "type": "array",
          "items": {
            "type": "string"
          }
        },
        "generation": {
          "type": "integer",
          "format": "int32"
        },
        "grossAmt": {
          "type": "array",
          "items": {
            "type": "number",
            "format": "double"
          }
        },
        "groupId": {
          "type": "array",
          "items": {
            "type": "integer",
            "format": "int32"
          }
        },
        "groupLevelCode": {
          "type": "array",
          "items": {
            "type": "string"
          }
        },
        "groupTrxId": {
          "type": "integer",
          "format": "int32"
        },
        "hierarchyId": {
          "type": "number",
          "format": "double"
        },
        "initActivationDate": {
          "type": "string"
        },
        "initComDlr": {
          "type": "string"
        },
        "initComSplitDlr": {
          "type": "string"
        },
        "insurClaimsCnt": {
          "type": "integer",
          "format": "int32"
        },
        "invSeqNo": {
          "type": "array",
          "items": {
            "type": "integer",
            "format": "int32"
          }
        },
        "invSettelmentId": {
          "type": "array",
          "items": {
            "type": "string"
          }
        },
        "ixcChgDlrCd": {
          "type": "string"
        },
        "ixcChgDlrSpltCd": {
          "type": "string"
        },
        "ixcCode": {
          "type": "string"
        },
        "ixcEffectiveDate": {
          "type": "string"
        },
        "lastRgRcDate": {
          "type": "array",
          "items": {
            "type": "string"
          }
        },
        "lastUpdateDate": {
          "type": "string"
        },
        "lastUpdateStamp": {
          "type": "integer",
          "format": "int32"
        },
        "lineNumber": {
          "type": "array",
          "items": {
            "type": "integer",
            "format": "int32"
          }
        },
        "lineTp": {
          "type": "string"
        },
        "lstActvDlr": {
          "type": "string"
        },
        "lstComActvCd": {
          "type": "string"
        },
        "lstComActvDate": {
          "type": "string"
        },
        "lstComActvDlr": {
          "type": "string"
        },
        "lstComSpltDlr": {
          "type": "string"
        },
        "lstDlrActvCd": {
          "type": "string"
        },
        "manualOverrideInd": {
          "type": "array",
          "items": {
            "type": "string"
          }
        },
        "marketCode": {
          "type": "string"
        },
        "mcErrorCode": {
          "type": "integer",
          "format": "int32"
        },
        "mcErrorText": {
          "type": "string"
        },
        "mcWarningCnt": {
          "type": "integer",
          "format": "int32"
        },
        "mcWarningCode1": {
          "type": "integer",
          "format": "int32"
        },
        "mcWarningCode2": {
          "type": "integer",
          "format": "int32"
        },
        "mcWarningCode3": {
          "type": "integer",
          "format": "int32"
        },
        "mcWarningCode4": {
          "type": "integer",
          "format": "int32"
        },
        "mcWarningCode5": {
          "type": "integer",
          "format": "int32"
        },
        "mcWarningText1": {
          "type": "string"
        },
        "mcWarningText2": {
          "type": "string"
        },
        "mcWarningText3": {
          "type": "string"
        },
        "mcWarningText4": {
          "type": "string"
        },
        "mcWarningText5": {
          "type": "string"
        },
        "memoAmt": {
          "type": "number",
          "format": "double"
        },
        "memoCtn": {
          "type": "string"
        },
        "memoId": {
          "type": "integer",
          "format": "int32"
        },
        "memoParm": {
          "type": "string"
        },
        "memoProductType": {
          "type": "string"
        },
        "memoSource": {
          "type": "string"
        },
        "messageExistInd": {
          "type": "array",
          "items": {
            "type": "string"
          }
        },
        "messageSwitchId": {
          "type": "array",
          "items": {
            "type": "string"
          }
        },
        "messageType": {
          "type": "array",
          "items": {
            "type": "string"
          }
        },
        "mis1ExmpSrc": {
          "type": "array",
          "items": {
            "type": "string"
          }
        },
        "mis1Rate": {
          "type": "array",
          "items": {
            "type": "number",
            "format": "double"
          }
        },
        "mis2ExmpSrc": {
          "type": "array",
          "items": {
            "type": "string"
          }
        },
        "mis2Rate": {
          "type": "array",
          "items": {
            "type": "number",
            "format": "double"
          }
        },
        "misc1TaxAuthAmt": {
          "type": "array",
          "items": {
            "type": "number",
            "format": "double"
          }
        },
        "misc1TaxCustAmt": {
          "type": "array",
          "items": {
            "type": "number",
            "format": "double"
          }
        },
        "misc2TaxAuthAmt": {
          "type": "array",
          "items": {
            "type": "number",
            "format": "double"
          }
        },
        "misc2TaxCustAmt": {
          "type": "array",
          "items": {
            "type": "number",
            "format": "double"
          }
        },
        "mrcMinutes": {
          "type": "integer",
          "format": "int32"
        },
        "nextBan": {
          "type": "integer",
          "format": "int32"
        },
        "nextBanMoveDate": {
          "type": "string"
        },
        "nextCtn": {
          "type": "string"
        },
        "nextCtnChgDate": {
          "type": "string"
        },
        "noOfInstallFrom": {
          "type": "array",
          "items": {
            "type": "integer",
            "format": "int32"
          }
        },
        "noOfInstallTo": {
          "type": "array",
          "items": {
            "type": "integer",
            "format": "int32"
          }
        },
        "onlineTrxNo": {
          "type": "integer",
          "format": "int32"
        },
        "operatorId": {
          "type": "integer",
          "format": "int32"
        },
        "p1": {
          "type": "string"
        },
        "p10": {
          "type": "string"
        },
        "p2": {
          "type": "string"
        },
        "p3": {
          "type": "string"
        },
        "p4": {
          "type": "string"
        },
        "p5": {
          "type": "string"
        },
        "p6": {
          "type": "string"
        },
        "p7": {
          "type": "string"
        },
        "p8": {
          "type": "string"
        },
        "p9": {
          "type": "string"
        },
        "paperWorkDate": {
          "type": "string"
        },
        "paperWorkRefNo": {
          "type": "string"
        },
        "paperWorkRequired": {
          "type": "string"
        },
        "paperWorkStatus": {
          "type": "string"
        },
        "paperWorkTrnsNo": {
          "type": "string"
        },
        "paramCount": {
          "type": "integer",
          "format": "int32"
        },
        "parentChgEntSeq": {
          "type": "array",
          "items": {
            "type": "integer",
            "format": "int32"
          }
        },
        "pextIdssubExternalId": {
          "type": "integer",
          "format": "int32"
        },
        "piaAdjArrbalanceImpactCode": {
          "type": "array",
          "items": {
            "type": "string"
          }
        },
        "piaAdjArrblIgnoreInd": {
          "type": "array",
          "items": {
            "type": "string"
          }
        },
        "piaAdjArreffectiveDate": {
          "type": "array",
          "items": {
            "type": "string"
          }
        },
        "piaAdjArreldSeqNo": {
          "type": "array",
          "items": {
            "type": "integer",
            "format": "int32"
          }
        },
        "piaAdjArrinvSeqNo": {
          "type": "array",
          "items": {
            "type": "integer",
            "format": "int32"
          }
        },
        "piaAdjArrmemoId": {
          "type": "array",
          "items": {
            "type": "integer",
            "format": "int32"
          }
        },
        "piaAdjArrproductType": {
          "type": "array",
          "items": {
            "type": "string"
          }
        },
        "piaAdjArrrmsInvActvType": {
          "type": "array",
          "items": {
            "type": "string"
          }
        },
        "piaAdjArrrmsInvId": {
          "type": "array",
          "items": {
            "type": "integer",
            "format": "int32"
          }
        },
        "piaAdjArrrmsInvStoreId": {
          "type": "array",
          "items": {
            "type": "string"
          }
        },
        "piaAdjArrsubscriberNo": {
          "type": "array",
          "items": {
            "type": "string"
          }
        },
        "piaAdjArrtaxAddressId": {
          "type": "array",
          "items": {
            "type": "number",
            "format": "double"
          }
        },
        "piaAdjArrtaxCommissionInd": {
          "type": "array",
          "items": {
            "type": "string"
          }
        },
        "piaAdjArrtaxedGeoCode": {
          "type": "array",
          "items": {
            "type": "string"
          }
        },
        "piaAdjArrunitMeasurCode": {
          "type": "array",
          "items": {
            "type": "string"
          }
        },
        "piaChgArrapplicationId": {
          "type": "array",
          "items": {
            "type": "string"
          }
        },
        "piaChgArrconvRunNo": {
          "type": "array",
          "items": {
            "type": "integer",
            "format": "int32"
          }
        },
        "piaChgArrdlServiceCode": {
          "type": "array",
          "items": {
            "type": "string"
          }
        },
        "piaChgArrdlUpdateStamp": {
          "type": "array",
          "items": {
            "type": "integer",
            "format": "int32"
          }
        },
        "piaChgArreffectiveDate": {
          "type": "array",
          "items": {
            "type": "string"
          }
        },
        "piaChgArrmemoId": {
          "type": "array",
          "items": {
            "type": "integer",
            "format": "int32"
          }
        },
        "piaChgArroperatorId": {
          "type": "array",
          "items": {
            "type": "integer",
            "format": "int32"
          }
        },
        "piaChgArrproductType": {
          "type": "array",
          "items": {
            "type": "string"
          }
        },
        "piaChgArrrowid": {
          "type": "array",
          "items": {
            "type": "string"
          }
        },
        "piaChgArrsubscriberNo": {
          "type": "array",
          "items": {
            "type": "string"
          }
        },
        "piaChgArrsysCreationDate": {
          "type": "array",
          "items": {
            "type": "string"
          }
        },
        "piaChgArrsysUpdateDate": {
          "type": "array",
          "items": {
            "type": "string"
          }
        },
        "portInd": {
          "type": "string"
        },
        "primaryInd": {
          "type": "string"
        },
        "priodCvrgNdDate": {
          "type": "array",
          "items": {
            "type": "string"
          }
        },
        "priodCvrgStDate": {
          "type": "array",
          "items": {
            "type": "string"
          }
        },
        "productSubType": {
          "type": "string"
        },
        "productType": {
          "type": "string"
        },
        "prsntOnBill": {
          "type": "array",
          "items": {
            "type": "string"
          }
        },
        "prvBan": {
          "type": "integer",
          "format": "int32"
        },
        "prvBanMoveDate": {
          "type": "string"
        },
        "prvCtn": {
          "type": "string"
        },
        "prvCtnChgDate": {
          "type": "string"
        },
        "psubRecapplicationId": {
          "type": "string"
        },
        "psubRecoperatorId": {
          "type": "integer",
          "format": "int32"
        },
        "quantity": {
          "type": "array",
          "items": {
            "type": "integer",
            "format": "int32"
          }
        },
        "quoteId": {
          "type": "array",
          "items": {
            "type": "string"
          }
        },
        "rateGroup": {
          "type": "array",
          "items": {
            "type": "string"
          }
        },
        "rcFtrPreProrAmt": {
          "type": "array",
          "items": {
            "type": "number",
            "format": "double"
          }
        },
        "reqDepositAmt": {
          "type": "number",
          "format": "double"
        },
        "reqEndGracePeriod": {
          "type": "string"
        },
        "reqStGracePeriod": {
          "type": "string"
        },
        "rmsActCode": {
          "type": "string"
        },
        "rmsInvActvType": {
          "type": "array",
          "items": {
            "type": "string"
          }
        },
        "rmsInvId": {
          "type": "array",
          "items": {
            "type": "integer",
            "format": "int32"
          }
        },
        "rmsInvLineSeq": {
          "type": "array",
          "items": {
            "type": "integer",
            "format": "int32"
          }
        },
        "rmsInvStoreId": {
          "type": "array",
          "items": {
            "type": "string"
          }
        },
        "rmsInvSublnSeq": {
          "type": "array",
          "items": {
            "type": "integer",
            "format": "int32"
          }
        },
        "rmsRefOd": {
          "type": "integer",
          "format": "int32"
        },
        "rmsRefStoreId": {
          "type": "string"
        },
        "rmsRefType": {
          "type": "string"
        },
        "roamExmpSrc": {
          "type": "array",
          "items": {
            "type": "string"
          }
        },
        "roamingTaxAmt": {
          "type": "array",
          "items": {
            "type": "number",
            "format": "double"
          }
        },
        "rowCount": {
          "type": "integer",
          "format": "int32"
        },
        "rowid": {
          "type": "string"
        },
        "rstrFeeQid": {
          "type": "string"
        },
        "runDate": {
          "type": "string"
        },
        "runEstimatorInd": {
          "type": "string"
        },
        "secBillSeqNo": {
          "type": "array",
          "items": {
            "type": "integer",
            "format": "int32"
          }
        },
        "secondDirective": {
          "type": "integer",
          "format": "int32"
        },
        "secondaryFeatureCd": {
          "type": "array",
          "items": {
            "type": "string"
          }
        },
        "serviceEffDate": {
          "type": "array",
          "items": {
            "type": "string"
          }
        },
        "serviceExpDate": {
          "type": "array",
          "items": {
            "type": "string"
          }
        },
        "serviceFtrSeqNo": {
          "type": "array",
          "items": {
            "type": "integer",
            "format": "int32"
          }
        },
        "servicePartnerId": {
          "type": "string"
        },
        "serviceType": {
          "type": "array",
          "items": {
            "type": "string"
          }
        },
        "sessionId": {
          "type": "integer",
          "format": "int32"
        },
        "soc": {
          "type": "array",
          "items": {
            "type": "string"
          }
        },
        "socDate": {
          "type": "array",
          "items": {
            "type": "string"
          }
        },
        "socInd": {
          "type": "array",
          "items": {
            "type": "string"
          }
        },
        "socSeqNo": {
          "type": "array",
          "items": {
            "type": "integer",
            "format": "int32"
          }
        },
        "socVerNo": {
          "type": "array",
          "items": {
            "type": "integer",
            "format": "int32"
          }
        },
        "sourceApplCode": {
          "type": "array",
          "items": {
            "type": "string"
          }
        },
        "sourceApplId": {
          "type": "array",
          "items": {
            "type": "string"
          }
        },
        "sourceBillSeqNo": {
          "type": "array",
          "items": {
            "type": "integer",
            "format": "int32"
          }
        },
        "sourceId": {
          "type": "array",
          "items": {
            "type": "string"
          }
        },
        "sourceType": {
          "type": "array",
          "items": {
            "type": "string"
          }
        },
        "spancCode": {
          "type": "string"
        },
        "stateExmpSrc": {
          "type": "array",
          "items": {
            "type": "string"
          }
        },
        "stateRate": {
          "type": "array",
          "items": {
            "type": "number",
            "format": "double"
          }
        },
        "stateTaxAuthAmt": {
          "type": "array",
          "items": {
            "type": "number",
            "format": "double"
          }
        },
        "stateTaxCustAmt": {
          "type": "array",
          "items": {
            "type": "number",
            "format": "double"
          }
        },
        "subActvLocation": {
          "type": "string"
        },
        "subExternalId": {
          "type": "integer",
          "format": "int32"
        },
        "subGroupNo": {
          "type": "integer",
          "format": "int32"
        },
        "subMarketCd": {
          "type": "array",
          "items": {
            "type": "string"
          }
        },
        "subStatus": {
          "type": "string"
        },
        "subStatusDate": {
          "type": "string"
        },
        "subStatusLastAct": {
          "type": "string"
        },
        "subStatusRsnCode": {
          "type": "string"
        },
        "subStsIssueDate": {
          "type": "string"
        },
        "subscriberNo": {
          "type": "string"
        },
        "suspRcRateType": {
          "type": "string"
        },
        "svcStatus": {
          "type": "string"
        },
        "sysCreationDate": {
          "type": "string"
        },
        "sysUpdateDate": {
          "type": "string"
        },
        "taxAddressId": {
          "type": "array",
          "items": {
            "type": "number",
            "format": "double"
          }
        },
        "taxAdrSourceCd": {
          "type": "array",
          "items": {
            "type": "string"
          }
        },
        "taxAdrSourceCode": {
          "type": "array",
          "items": {
            "type": "string"
          }
        },
        "taxAuth1": {
          "type": "array",
          "items": {
            "type": "integer",
            "format": "int32"
          }
        },
        "taxAuth10": {
          "type": "array",
          "items": {
            "type": "integer",
            "format": "int32"
          }
        },
        "taxAuth11": {
          "type": "array",
          "items": {
            "type": "integer",
            "format": "int32"
          }
        },
        "taxAuth12": {
          "type": "array",
          "items": {
            "type": "integer",
            "format": "int32"
          }
        },
        "taxAuth13": {
          "type": "array",
          "items": {
            "type": "integer",
            "format": "int32"
          }
        },
        "taxAuth14": {
          "type": "array",
          "items": {
            "type": "integer",
            "format": "int32"
          }
        },
        "taxAuth15": {
          "type": "array",
          "items": {
            "type": "integer",
            "format": "int32"
          }
        },
        "taxAuth16": {
          "type": "array",
          "items": {
            "type": "integer",
            "format": "int32"
          }
        },
        "taxAuth17": {
          "type": "array",
          "items": {
            "type": "integer",
            "format": "int32"
          }
        },
        "taxAuth18": {
          "type": "array",
          "items": {
            "type": "integer",
            "format": "int32"
          }
        },
        "taxAuth19": {
          "type": "array",
          "items": {
            "type": "integer",
            "format": "int32"
          }
        },
        "taxAuth2": {
          "type": "array",
          "items": {
            "type": "integer",
            "format": "int32"
          }
        },
        "taxAuth20": {
          "type": "array",
          "items": {
            "type": "integer",
            "format": "int32"
          }
        },
        "taxAuth3": {
          "type": "array",
          "items": {
            "type": "integer",
            "format": "int32"
          }
        },
        "taxAuth4": {
          "type": "array",
          "items": {
            "type": "integer",
            "format": "int32"
          }
        },
        "taxAuth5": {
          "type": "array",
          "items": {
            "type": "integer",
            "format": "int32"
          }
        },
        "taxAuth6": {
          "type": "array",
          "items": {
            "type": "integer",
            "format": "int32"
          }
        },
        "taxAuth7": {
          "type": "array",
          "items": {
            "type": "integer",
            "format": "int32"
          }
        },
        "taxAuth8": {
          "type": "array",
          "items": {
            "type": "integer",
            "format": "int32"
          }
        },
        "taxAuth9": {
          "type": "array",
          "items": {
            "type": "integer",
            "format": "int32"
          }
        },
        "taxAuthAmt1": {
          "type": "array",
          "items": {
            "type": "number",
            "format": "double"
          }
        },
        "taxAuthAmt10": {
          "type": "array",
          "items": {
            "type": "number",
            "format": "double"
          }
        },
        "taxAuthAmt11": {
          "type": "array",
          "items": {
            "type": "number",
            "format": "double"
          }
        },
        "taxAuthAmt12": {
          "type": "array",
          "items": {
            "type": "number",
            "format": "double"
          }
        },
        "taxAuthAmt13": {
          "type": "array",
          "items": {
            "type": "number",
            "format": "double"
          }
        },
        "taxAuthAmt14": {
          "type": "array",
          "items": {
            "type": "number",
            "format": "double"
          }
        },
        "taxAuthAmt15": {
          "type": "array",
          "items": {
            "type": "number",
            "format": "double"
          }
        },
        "taxAuthAmt16": {
          "type": "array",
          "items": {
            "type": "number",
            "format": "double"
          }
        },
        "taxAuthAmt17": {
          "type": "array",
          "items": {
            "type": "number",
            "format": "double"
          }
        },
        "taxAuthAmt18": {
          "type": "array",
          "items": {
            "type": "number",
            "format": "double"
          }
        },
        "taxAuthAmt19": {
          "type": "array",
          "items": {
            "type": "number",
            "format": "double"
          }
        },
        "taxAuthAmt2": {
          "type": "array",
          "items": {
            "type": "number",
            "format": "double"
          }
        },
        "taxAuthAmt20": {
          "type": "array",
          "items": {
            "type": "number",
            "format": "double"
          }
        },
        "taxAuthAmt3": {
          "type": "array",
          "items": {
            "type": "number",
            "format": "double"
          }
        },
        "taxAuthAmt4": {
          "type": "array",
          "items": {
            "type": "number",
            "format": "double"
          }
        },
        "taxAuthAmt5": {
          "type": "array",
          "items": {
            "type": "number",
            "format": "double"
          }
        },
        "taxAuthAmt6": {
          "type": "array",
          "items": {
            "type": "number",
            "format": "double"
          }
        },
        "taxAuthAmt7": {
          "type": "array",
          "items": {
            "type": "number",
            "format": "double"
          }
        },
        "taxAuthAmt8": {
          "type": "array",
          "items": {
            "type": "number",
            "format": "double"
          }
        },
        "taxAuthAmt9": {
          "type": "array",
          "items": {
            "type": "number",
            "format": "double"
          }
        },
        "taxCalculatedInd": {
          "type": "array",
          "items": {
            "type": "string"
          }
        },
        "taxCityAuthAmt": {
          "type": "array",
          "items": {
            "type": "number",
            "format": "double"
          }
        },
        "taxCityCustAmt": {
          "type": "array",
          "items": {
            "type": "number",
            "format": "double"
          }
        },
        "taxCommissionInd": {
          "type": "array",
          "items": {
            "type": "string"
          }
        },
        "taxCountyAuthAmt": {
          "type": "array",
          "items": {
            "type": "number",
            "format": "double"
          }
        },
        "taxCountyCustAmt": {
          "type": "array",
          "items": {
            "type": "number",
            "format": "double"
          }
        },
        "taxCustAmt1": {
          "type": "array",
          "items": {
            "type": "number",
            "format": "double"
          }
        },
        "taxCustAmt10": {
          "type": "array",
          "items": {
            "type": "number",
            "format": "double"
          }
        },
        "taxCustAmt11": {
          "type": "array",
          "items": {
            "type": "number",
            "format": "double"
          }
        },
        "taxCustAmt12": {
          "type": "array",
          "items": {
            "type": "number",
            "format": "double"
          }
        },
        "taxCustAmt13": {
          "type": "array",
          "items": {
            "type": "number",
            "format": "double"
          }
        },
        "taxCustAmt14": {
          "type": "array",
          "items": {
            "type": "number",
            "format": "double"
          }
        },
        "taxCustAmt15": {
          "type": "array",
          "items": {
            "type": "number",
            "format": "double"
          }
        },
        "taxCustAmt16": {
          "type": "array",
          "items": {
            "type": "number",
            "format": "double"
          }
        },
        "taxCustAmt17": {
          "type": "array",
          "items": {
            "type": "number",
            "format": "double"
          }
        },
        "taxCustAmt18": {
          "type": "array",
          "items": {
            "type": "number",
            "format": "double"
          }
        },
        "taxCustAmt19": {
          "type": "array",
          "items": {
            "type": "number",
            "format": "double"
          }
        },
        "taxCustAmt2": {
          "type": "array",
          "items": {
            "type": "number",
            "format": "double"
          }
        },
        "taxCustAmt20": {
          "type": "array",
          "items": {
            "type": "number",
            "format": "double"
          }
        },
        "taxCustAmt3": {
          "type": "array",
          "items": {
            "type": "number",
            "format": "double"
          }
        },
        "taxCustAmt4": {
          "type": "array",
          "items": {
            "type": "number",
            "format": "double"
          }
        },
        "taxCustAmt5": {
          "type": "array",
          "items": {
            "type": "number",
            "format": "double"
          }
        },
        "taxCustAmt6": {
          "type": "array",
          "items": {
            "type": "number",
            "format": "double"
          }
        },
        "taxCustAmt7": {
          "type": "array",
          "items": {
            "type": "number",
            "format": "double"
          }
        },
        "taxCustAmt8": {
          "type": "array",
          "items": {
            "type": "number",
            "format": "double"
          }
        },
        "taxCustAmt9": {
          "type": "array",
          "items": {
            "type": "number",
            "format": "double"
          }
        },
        "taxDatarowid": {
          "type": "array",
          "items": {
            "type": "string"
          }
        },
        "taxDatataxAuth1": {
          "type": "array",
          "items": {
            "type": "integer",
            "format": "int32"
          }
        },
        "taxDatataxAuth10": {
          "type": "array",
          "items": {
            "type": "integer",
            "format": "int32"
          }
        },
        "taxDatataxAuth11": {
          "type": "array",
          "items": {
            "type": "integer",
            "format": "int32"
          }
        },
        "taxDatataxAuth12": {
          "type": "array",
          "items": {
            "type": "integer",
            "format": "int32"
          }
        },
        "taxDatataxAuth13": {
          "type": "array",
          "items": {
            "type": "integer",
            "format": "int32"
          }
        },
        "taxDatataxAuth14": {
          "type": "array",
          "items": {
            "type": "integer",
            "format": "int32"
          }
        },
        "taxDatataxAuth15": {
          "type": "array",
          "items": {
            "type": "integer",
            "format": "int32"
          }
        },
        "taxDatataxAuth16": {
          "type": "array",
          "items": {
            "type": "integer",
            "format": "int32"
          }
        },
        "taxDatataxAuth17": {
          "type": "array",
          "items": {
            "type": "integer",
            "format": "int32"
          }
        },
        "taxDatataxAuth18": {
          "type": "array",
          "items": {
            "type": "integer",
            "format": "int32"
          }
        },
        "taxDatataxAuth19": {
          "type": "array",
          "items": {
            "type": "integer",
            "format": "int32"
          }
        },
        "taxDatataxAuth2": {
          "type": "array",
          "items": {
            "type": "integer",
            "format": "int32"
          }
        },
        "taxDatataxAuth20": {
          "type": "array",
          "items": {
            "type": "integer",
            "format": "int32"
          }
        },
        "taxDatataxAuth3": {
          "type": "array",
          "items": {
            "type": "integer",
            "format": "int32"
          }
        },
        "taxDatataxAuth4": {
          "type": "array",
          "items": {
            "type": "integer",
            "format": "int32"
          }
        },
        "taxDatataxAuth5": {
          "type": "array",
          "items": {
            "type": "integer",
            "format": "int32"
          }
        },
        "taxDatataxAuth6": {
          "type": "array",
          "items": {
            "type": "integer",
            "format": "int32"
          }
        },
        "taxDatataxAuth7": {
          "type": "array",
          "items": {
            "type": "integer",
            "format": "int32"
          }
        },
        "taxDatataxAuth8": {
          "type": "array",
          "items": {
            "type": "integer",
            "format": "int32"
          }
        },
        "taxDatataxAuth9": {
          "type": "array",
          "items": {
            "type": "integer",
            "format": "int32"
          }
        },
        "taxDatataxAuthAmt1": {
          "type": "array",
          "items": {
            "type": "number",
            "format": "double"
          }
        },
        "taxDatataxAuthAmt10": {
          "type": "array",
          "items": {
            "type": "number",
            "format": "double"
          }
        },
        "taxDatataxAuthAmt11": {
          "type": "array",
          "items": {
            "type": "number",
            "format": "double"
          }
        },
        "taxDatataxAuthAmt12": {
          "type": "array",
          "items": {
            "type": "number",
            "format": "double"
          }
        },
        "taxDatataxAuthAmt13": {
          "type": "array",
          "items": {
            "type": "number",
            "format": "double"
          }
        },
        "taxDatataxAuthAmt14": {
          "type": "array",
          "items": {
            "type": "number",
            "format": "double"
          }
        },
        "taxDatataxAuthAmt15": {
          "type": "array",
          "items": {
            "type": "number",
            "format": "double"
          }
        },
        "taxDatataxAuthAmt16": {
          "type": "array",
          "items": {
            "type": "number",
            "format": "double"
          }
        },
        "taxDatataxAuthAmt17": {
          "type": "array",
          "items": {
            "type": "number",
            "format": "double"
          }
        },
        "taxDatataxAuthAmt18": {
          "type": "array",
          "items": {
            "type": "number",
            "format": "double"
          }
        },
        "taxDatataxAuthAmt19": {
          "type": "array",
          "items": {
            "type": "number",
            "format": "double"
          }
        },
        "taxDatataxAuthAmt2": {
          "type": "array",
          "items": {
            "type": "number",
            "format": "double"
          }
        },
        "taxDatataxAuthAmt20": {
          "type": "array",
          "items": {
            "type": "number",
            "format": "double"
          }
        },
        "taxDatataxAuthAmt3": {
          "type": "array",
          "items": {
            "type": "number",
            "format": "double"
          }
        },
        "taxDatataxAuthAmt4": {
          "type": "array",
          "items": {
            "type": "number",
            "format": "double"
          }
        },
        "taxDatataxAuthAmt5": {
          "type": "array",
          "items": {
            "type": "number",
            "format": "double"
          }
        },
        "taxDatataxAuthAmt6": {
          "type": "array",
          "items": {
            "type": "number",
            "format": "double"
          }
        },
        "taxDatataxAuthAmt7": {
          "type": "array",
          "items": {
            "type": "number",
            "format": "double"
          }
        },
        "taxDatataxAuthAmt8": {
          "type": "array",
          "items": {
            "type": "number",
            "format": "double"
          }
        },
        "taxDatataxAuthAmt9": {
          "type": "array",
          "items": {
            "type": "number",
            "format": "double"
          }
        },
        "taxDatataxCustAmt1": {
          "type": "array",
          "items": {
            "type": "number",
            "format": "double"
          }
        },
        "taxDatataxCustAmt10": {
          "type": "array",
          "items": {
            "type": "number",
            "format": "double"
          }
        },
        "taxDatataxCustAmt11": {
          "type": "array",
          "items": {
            "type": "number",
            "format": "double"
          }
        },
        "taxDatataxCustAmt12": {
          "type": "array",
          "items": {
            "type": "number",
            "format": "double"
          }
        },
        "taxDatataxCustAmt13": {
          "type": "array",
          "items": {
            "type": "number",
            "format": "double"
          }
        },
        "taxDatataxCustAmt14": {
          "type": "array",
          "items": {
            "type": "number",
            "format": "double"
          }
        },
        "taxDatataxCustAmt15": {
          "type": "array",
          "items": {
            "type": "number",
            "format": "double"
          }
        },
        "taxDatataxCustAmt16": {
          "type": "array",
          "items": {
            "type": "number",
            "format": "double"
          }
        },
        "taxDatataxCustAmt17": {
          "type": "array",
          "items": {
            "type": "number",
            "format": "double"
          }
        },
        "taxDatataxCustAmt18": {
          "type": "array",
          "items": {
            "type": "number",
            "format": "double"
          }
        },
        "taxDatataxCustAmt19": {
          "type": "array",
          "items": {
            "type": "number",
            "format": "double"
          }
        },
        "taxDatataxCustAmt2": {
          "type": "array",
          "items": {
            "type": "number",
            "format": "double"
          }
        },
        "taxDatataxCustAmt20": {
          "type": "array",
          "items": {
            "type": "number",
            "format": "double"
          }
        },
        "taxDatataxCustAmt3": {
          "type": "array",
          "items": {
            "type": "number",
            "format": "double"
          }
        },
        "taxDatataxCustAmt4": {
          "type": "array",
          "items": {
            "type": "number",
            "format": "double"
          }
        },
        "taxDatataxCustAmt5": {
          "type": "array",
          "items": {
            "type": "number",
            "format": "double"
          }
        },
        "taxDatataxCustAmt6": {
          "type": "array",
          "items": {
            "type": "number",
            "format": "double"
          }
        },
        "taxDatataxCustAmt7": {
          "type": "array",
          "items": {
            "type": "number",
            "format": "double"
          }
        },
        "taxDatataxCustAmt8": {
          "type": "array",
          "items": {
            "type": "number",
            "format": "double"
          }
        },
        "taxDatataxCustAmt9": {
          "type": "array",
          "items": {
            "type": "number",
            "format": "double"
          }
        },
        "taxDatataxGroupType1": {
          "type": "array",
          "items": {
            "type": "string"
          }
        },
        "taxDatataxGroupType10": {
          "type": "array",
          "items": {
            "type": "string"
          }
        },
        "taxDatataxGroupType11": {
          "type": "array",
          "items": {
            "type": "string"
          }
        },
        "taxDatataxGroupType12": {
          "type": "array",
          "items": {
            "type": "string"
          }
        },
        "taxDatataxGroupType13": {
          "type": "array",
          "items": {
            "type": "string"
          }
        },
        "taxDatataxGroupType14": {
          "type": "array",
          "items": {
            "type": "string"
          }
        },
        "taxDatataxGroupType15": {
          "type": "array",
          "items": {
            "type": "string"
          }
        },
        "taxDatataxGroupType16": {
          "type": "array",
          "items": {
            "type": "string"
          }
        },
        "taxDatataxGroupType17": {
          "type": "array",
          "items": {
            "type": "string"
          }
        },
        "taxDatataxGroupType18": {
          "type": "array",
          "items": {
            "type": "string"
          }
        },
        "taxDatataxGroupType19": {
          "type": "array",
          "items": {
            "type": "string"
          }
        },
        "taxDatataxGroupType2": {
          "type": "array",
          "items": {
            "type": "string"
          }
        },
        "taxDatataxGroupType20": {
          "type": "array",
          "items": {
            "type": "string"
          }
        },
        "taxDatataxGroupType3": {
          "type": "array",
          "items": {
            "type": "string"
          }
        },
        "taxDatataxGroupType4": {
          "type": "array",
          "items": {
            "type": "string"
          }
        },
        "taxDatataxGroupType5": {
          "type": "array",
          "items": {
            "type": "string"
          }
        },
        "taxDatataxGroupType6": {
          "type": "array",
          "items": {
            "type": "string"
          }
        },
        "taxDatataxGroupType7": {
          "type": "array",
          "items": {
            "type": "string"
          }
        },
        "taxDatataxGroupType8": {
          "type": "array",
          "items": {
            "type": "string"
          }
        },
        "taxDatataxGroupType9": {
          "type": "array",
          "items": {
            "type": "string"
          }
        },
        "taxDatataxType1": {
          "type": "array",
          "items": {
            "type": "integer",
            "format": "int32"
          }
        },
        "taxDatataxType10": {
          "type": "array",
          "items": {
            "type": "integer",
            "format": "int32"
          }
        },
        "taxDatataxType11": {
          "type": "array",
          "items": {
            "type": "integer",
            "format": "int32"
          }
        },
        "taxDatataxType12": {
          "type": "array",
          "items": {
            "type": "integer",
            "format": "int32"
          }
        },
        "taxDatataxType13": {
          "type": "array",
          "items": {
            "type": "integer",
            "format": "int32"
          }
        },
        "taxDatataxType14": {
          "type": "array",
          "items": {
            "type": "integer",
            "format": "int32"
          }
        },
        "taxDatataxType15": {
          "type": "array",
          "items": {
            "type": "integer",
            "format": "int32"
          }
        },
        "taxDatataxType16": {
          "type": "array",
          "items": {
            "type": "integer",
            "format": "int32"
          }
        },
        "taxDatataxType17": {
          "type": "array",
          "items": {
            "type": "integer",
            "format": "int32"
          }
        },
        "taxDatataxType18": {
          "type": "array",
          "items": {
            "type": "integer",
            "format": "int32"
          }
        },
        "taxDatataxType19": {
          "type": "array",
          "items": {
            "type": "integer",
            "format": "int32"
          }
        },
        "taxDatataxType2": {
          "type": "array",
          "items": {
            "type": "integer",
            "format": "int32"
          }
        },
        "taxDatataxType20": {
          "type": "array",
          "items": {
            "type": "integer",
            "format": "int32"
          }
        },
        "taxDatataxType3": {
          "type": "array",
          "items": {
            "type": "integer",
            "format": "int32"
          }
        },
        "taxDatataxType4": {
          "type": "array",
          "items": {
            "type": "integer",
            "format": "int32"
          }
        },
        "taxDatataxType5": {
          "type": "array",
          "items": {
            "type": "integer",
            "format": "int32"
          }
        },
        "taxDatataxType6": {
          "type": "array",
          "items": {
            "type": "integer",
            "format": "int32"
          }
        },
        "taxDatataxType7": {
          "type": "array",
          "items": {
            "type": "integer",
            "format": "int32"
          }
        },
        "taxDatataxType8": {
          "type": "array",
          "items": {
            "type": "integer",
            "format": "int32"
          }
        },
        "taxDatataxType9": {
          "type": "array",
          "items": {
            "type": "integer",
            "format": "int32"
          }
        },
        "taxExmpAmt1": {
          "type": "array",
          "items": {
            "type": "number",
            "format": "double"
          }
        },
        "taxExmpAmt10": {
          "type": "array",
          "items": {
            "type": "number",
            "format": "double"
          }
        },
        "taxExmpAmt11": {
          "type": "array",
          "items": {
            "type": "number",
            "format": "double"
          }
        },
        "taxExmpAmt12": {
          "type": "array",
          "items": {
            "type": "number",
            "format": "double"
          }
        },
        "taxExmpAmt13": {
          "type": "array",
          "items": {
            "type": "number",
            "format": "double"
          }
        },
        "taxExmpAmt14": {
          "type": "array",
          "items": {
            "type": "number",
            "format": "double"
          }
        },
        "taxExmpAmt15": {
          "type": "array",
          "items": {
            "type": "number",
            "format": "double"
          }
        },
        "taxExmpAmt16": {
          "type": "array",
          "items": {
            "type": "number",
            "format": "double"
          }
        },
        "taxExmpAmt17": {
          "type": "array",
          "items": {
            "type": "number",
            "format": "double"
          }
        },
        "taxExmpAmt18": {
          "type": "array",
          "items": {
            "type": "number",
            "format": "double"
          }
        },
        "taxExmpAmt19": {
          "type": "array",
          "items": {
            "type": "number",
            "format": "double"
          }
        },
        "taxExmpAmt2": {
          "type": "array",
          "items": {
            "type": "number",
            "format": "double"
          }
        },
        "taxExmpAmt20": {
          "type": "array",
          "items": {
            "type": "number",
            "format": "double"
          }
        },
        "taxExmpAmt3": {
          "type": "array",
          "items": {
            "type": "number",
            "format": "double"
          }
        },
        "taxExmpAmt4": {
          "type": "array",
          "items": {
            "type": "number",
            "format": "double"
          }
        },
        "taxExmpAmt5": {
          "type": "array",
          "items": {
            "type": "number",
            "format": "double"
          }
        },
        "taxExmpAmt6": {
          "type": "array",
          "items": {
            "type": "number",
            "format": "double"
          }
        },
        "taxExmpAmt7": {
          "type": "array",
          "items": {
            "type": "number",
            "format": "double"
          }
        },
        "taxExmpAmt8": {
          "type": "array",
          "items": {
            "type": "number",
            "format": "double"
          }
        },
        "taxExmpAmt9": {
          "type": "array",
          "items": {
            "type": "number",
            "format": "double"
          }
        },
        "taxExmpSrc1": {
          "type": "array",
          "items": {
            "type": "string"
          }
        },
        "taxExmpSrc10": {
          "type": "array",
          "items": {
            "type": "string"
          }
        },
        "taxExmpSrc11": {
          "type": "array",
          "items": {
            "type": "string"
          }
        },
        "taxExmpSrc12": {
          "type": "array",
          "items": {
            "type": "string"
          }
        },
        "taxExmpSrc13": {
          "type": "array",
          "items": {
            "type": "string"
          }
        },
        "taxExmpSrc14": {
          "type": "array",
          "items": {
            "type": "string"
          }
        },
        "taxExmpSrc15": {
          "type": "array",
          "items": {
            "type": "string"
          }
        },
        "taxExmpSrc16": {
          "type": "array",
          "items": {
            "type": "string"
          }
        },
        "taxExmpSrc17": {
          "type": "array",
          "items": {
            "type": "string"
          }
        },
        "taxExmpSrc18": {
          "type": "array",
          "items": {
            "type": "string"
          }
        },
        "taxExmpSrc19": {
          "type": "array",
          "items": {
            "type": "string"
          }
        },
        "taxExmpSrc2": {
          "type": "array",
          "items": {
            "type": "string"
          }
        },
        "taxExmpSrc20": {
          "type": "array",
          "items": {
            "type": "string"
          }
        },
        "taxExmpSrc3": {
          "type": "array",
          "items": {
            "type": "string"
          }
        },
        "taxExmpSrc4": {
          "type": "array",
          "items": {
            "type": "string"
          }
        },
        "taxExmpSrc5": {
          "type": "array",
          "items": {
            "type": "string"
          }
        },
        "taxExmpSrc6": {
          "type": "array",
          "items": {
            "type": "string"
          }
        },
        "taxExmpSrc7": {
          "type": "array",
          "items": {
            "type": "string"
          }
        },
        "taxExmpSrc8": {
          "type": "array",
          "items": {
            "type": "string"
          }
        },
        "taxExmpSrc9": {
          "type": "array",
          "items": {
            "type": "string"
          }
        },
        "taxFederalAmt": {
          "type": "array",
          "items": {
            "type": "number",
            "format": "double"
          }
        },
        "taxGroupType1": {
          "type": "array",
          "items": {
            "type": "string"
          }
        },
        "taxGroupType10": {
          "type": "array",
          "items": {
            "type": "string"
          }
        },
        "taxGroupType11": {
          "type": "array",
          "items": {
            "type": "string"
          }
        },
        "taxGroupType12": {
          "type": "array",
          "items": {
            "type": "string"
          }
        },
        "taxGroupType13": {
          "type": "array",
          "items": {
            "type": "string"
          }
        },
        "taxGroupType14": {
          "type": "array",
          "items": {
            "type": "string"
          }
        },
        "taxGroupType15": {
          "type": "array",
          "items": {
            "type": "string"
          }
        },
        "taxGroupType16": {
          "type": "array",
          "items": {
            "type": "string"
          }
        },
        "taxGroupType17": {
          "type": "array",
          "items": {
            "type": "string"
          }
        },
        "taxGroupType18": {
          "type": "array",
          "items": {
            "type": "string"
          }
        },
        "taxGroupType19": {
          "type": "array",
          "items": {
            "type": "string"
          }
        },
        "taxGroupType2": {
          "type": "array",
          "items": {
            "type": "string"
          }
        },
        "taxGroupType20": {
          "type": "array",
          "items": {
            "type": "string"
          }
        },
        "taxGroupType3": {
          "type": "array",
          "items": {
            "type": "string"
          }
        },
        "taxGroupType4": {
          "type": "array",
          "items": {
            "type": "string"
          }
        },
        "taxGroupType5": {
          "type": "array",
          "items": {
            "type": "string"
          }
        },
        "taxGroupType6": {
          "type": "array",
          "items": {
            "type": "string"
          }
        },
        "taxGroupType7": {
          "type": "array",
          "items": {
            "type": "string"
          }
        },
        "taxGroupType8": {
          "type": "array",
          "items": {
            "type": "string"
          }
        },
        "taxGroupType9": {
          "type": "array",
          "items": {
            "type": "string"
          }
        },
        "taxMis1AuthAmt": {
          "type": "array",
          "items": {
            "type": "number",
            "format": "double"
          }
        },
        "taxMis1CustAmt": {
          "type": "array",
          "items": {
            "type": "number",
            "format": "double"
          }
        },
        "taxMis1TxtRsnCd": {
          "type": "array",
          "items": {
            "type": "string"
          }
        },
        "taxMis2AuthAmt": {
          "type": "array",
          "items": {
            "type": "number",
            "format": "double"
          }
        },
        "taxMis2CustAmt": {
          "type": "array",
          "items": {
            "type": "number",
            "format": "double"
          }
        },
        "taxMis2TxtRsnCd": {
          "type": "array",
          "items": {
            "type": "string"
          }
        },
        "taxPackageCode": {
          "type": "array",
          "items": {
            "type": "string"
          }
        },
        "taxRate1": {
          "type": "array",
          "items": {
            "type": "number",
            "format": "double"
          }
        },
        "taxRate10": {
          "type": "array",
          "items": {
            "type": "number",
            "format": "double"
          }
        },
        "taxRate11": {
          "type": "array",
          "items": {
            "type": "number",
            "format": "double"
          }
        },
        "taxRate12": {
          "type": "array",
          "items": {
            "type": "number",
            "format": "double"
          }
        },
        "taxRate13": {
          "type": "array",
          "items": {
            "type": "number",
            "format": "double"
          }
        },
        "taxRate14": {
          "type": "array",
          "items": {
            "type": "number",
            "format": "double"
          }
        },
        "taxRate15": {
          "type": "array",
          "items": {
            "type": "number",
            "format": "double"
          }
        },
        "taxRate16": {
          "type": "array",
          "items": {
            "type": "number",
            "format": "double"
          }
        },
        "taxRate17": {
          "type": "array",
          "items": {
            "type": "number",
            "format": "double"
          }
        },
        "taxRate18": {
          "type": "array",
          "items": {
            "type": "number",
            "format": "double"
          }
        },
        "taxRate19": {
          "type": "array",
          "items": {
            "type": "number",
            "format": "double"
          }
        },
        "taxRate2": {
          "type": "array",
          "items": {
            "type": "number",
            "format": "double"
          }
        },
        "taxRate20": {
          "type": "array",
          "items": {
            "type": "number",
            "format": "double"
          }
        },
        "taxRate3": {
          "type": "array",
          "items": {
            "type": "number",
            "format": "double"
          }
        },
        "taxRate4": {
          "type": "array",
          "items": {
            "type": "number",
            "format": "double"
          }
        },
        "taxRate5": {
          "type": "array",
          "items": {
            "type": "number",
            "format": "double"
          }
        },
        "taxRate6": {
          "type": "array",
          "items": {
            "type": "number",
            "format": "double"
          }
        },
        "taxRate7": {
          "type": "array",
          "items": {
            "type": "number",
            "format": "double"
          }
        },
        "taxRate8": {
          "type": "array",
          "items": {
            "type": "number",
            "format": "double"
          }
        },
        "taxRate9": {
          "type": "array",
          "items": {
            "type": "number",
            "format": "double"
          }
        },
        "taxRoamingAmt": {
          "type": "array",
          "items": {
            "type": "number",
            "format": "double"
          }
        },
        "taxStateAuthAmt": {
          "type": "array",
          "items": {
            "type": "number",
            "format": "double"
          }
        },
        "taxStateCustAmt": {
          "type": "array",
          "items": {
            "type": "number",
            "format": "double"
          }
        },
        "taxType1": {
          "type": "array",
          "items": {
            "type": "integer",
            "format": "int32"
          }
        },
        "taxType10": {
          "type": "array",
          "items": {
            "type": "integer",
            "format": "int32"
          }
        },
        "taxType11": {
          "type": "array",
          "items": {
            "type": "integer",
            "format": "int32"
          }
        },
        "taxType12": {
          "type": "array",
          "items": {
            "type": "integer",
            "format": "int32"
          }
        },
        "taxType13": {
          "type": "array",
          "items": {
            "type": "integer",
            "format": "int32"
          }
        },
        "taxType14": {
          "type": "array",
          "items": {
            "type": "integer",
            "format": "int32"
          }
        },
        "taxType15": {
          "type": "array",
          "items": {
            "type": "integer",
            "format": "int32"
          }
        },
        "taxType16": {
          "type": "array",
          "items": {
            "type": "integer",
            "format": "int32"
          }
        },
        "taxType17": {
          "type": "array",
          "items": {
            "type": "integer",
            "format": "int32"
          }
        },
        "taxType18": {
          "type": "array",
          "items": {
            "type": "integer",
            "format": "int32"
          }
        },
        "taxType19": {
          "type": "array",
          "items": {
            "type": "integer",
            "format": "int32"
          }
        },
        "taxType2": {
          "type": "array",
          "items": {
            "type": "integer",
            "format": "int32"
          }
        },
        "taxType20": {
          "type": "array",
          "items": {
            "type": "integer",
            "format": "int32"
          }
        },
        "taxType3": {
          "type": "array",
          "items": {
            "type": "integer",
            "format": "int32"
          }
        },
        "taxType4": {
          "type": "array",
          "items": {
            "type": "integer",
            "format": "int32"
          }
        },
        "taxType5": {
          "type": "array",
          "items": {
            "type": "integer",
            "format": "int32"
          }
        },
        "taxType6": {
          "type": "array",
          "items": {
            "type": "integer",
            "format": "int32"
          }
        },
        "taxType7": {
          "type": "array",
          "items": {
            "type": "integer",
            "format": "int32"
          }
        },
        "taxType8": {
          "type": "array",
          "items": {
            "type": "integer",
            "format": "int32"
          }
        },
        "taxType9": {
          "type": "array",
          "items": {
            "type": "integer",
            "format": "int32"
          }
        },
        "taxedGeoCode": {
          "type": "array",
          "items": {
            "type": "string"
          }
        },
        "tierLevel": {
          "type": "array",
          "items": {
            "type": "integer",
            "format": "int32"
          }
        },
        "totalAdjInstall": {
          "type": "array",
          "items": {
            "type": "integer",
            "format": "int32"
          }
        },
        "totalExmp": {
          "type": "array",
          "items": {
            "type": "number",
            "format": "double"
          }
        },
        "totalNoOfInstall": {
          "type": "array",
          "items": {
            "type": "integer",
            "format": "int32"
          }
        },
        "totalSize": {
          "type": "array",
          "items": {
            "type": "integer",
            "format": "int32"
          }
        },
        "transactionMode": {
          "type": "string"
        },
        "trxId": {
          "type": "integer",
          "format": "int32"
        },
        "unitEsn": {
          "type": "array",
          "items": {
            "type": "string"
          }
        },
        "unitMeasurCode": {
          "type": "array",
          "items": {
            "type": "string"
          }
        },
        "userComment": {
          "type": "array",
          "items": {
            "type": "string"
          }
        },
        "userText": {
          "type": "string"
        },
        "varianceAmt": {
          "type": "array",
          "items": {
            "type": "number",
            "format": "double"
          }
        },
        "welcomeLetterInd": {
          "type": "string"
        },
        "zeroMsgSumInd": {
          "type": "string"
        },
        "zeroVmSumInd": {
          "type": "string"
        }
      }
    }
  }

}