{
    "swagger": "2.0",
    "info": {
        "title": "Deploy Token Service",
        "description": "This service dispenses ephemeral tokens for deploy jobs.",
        "version": "1.0.0",
        "contact": {
            "name": "ApigeeDevOps",
            "url": "http://www.t-mobile.com",
            "email": "ApigeeDevOps@T-Mobile.com"
        },
        "license": {
            "name": "Proprietary software",
            "url": "https://en.wikipedia.org/wiki/Proprietary_software"
        },
        "termsOfService": "https://www.t-mobile.com/templates/popup.aspx?PAsset=Ftr_Ftr_TermsAndConditions",
        "x-createdBy": {
            "dateCreated": "Mon Mar 02 11:58:02 2020",
            "createdBy": "MPurwar",
            "application": "Recite",
            "appVersion": "0.3.8.2201",
            "documentId": "39e22044-fe01-4396-a35e-228d375900f9",
            "status": "Conceptual - Initial",
            "classification": "16.4.1 Staffing/Sourcing Strategy Mgmt.",
            "profile": "Application Integration Service",
            "serviceLayer": "Resource - Other"
        }
    },
    "x-servers": [
        {
            "url": "https://dev01.api.t-mobile.com/common/v1/deployservice",
            "description": "Sandbox Server"
        },
        {
            "description": "Live Server",
            "url": "https://api.internal.t-mobile.com/common/v1/deployservice"
        }
    ],
    "tags": [
        {
            "name": "Deploy Token Service API",
            "description": "This service dispenses ephemeral tokens for deploy jobs"
        }
    ],
    "host": "env.api.t-mobile.com",
    "basePath": "/common/v1/deployservice",
    "schemes": [
        "https"
    ],
    "paths": {
        "/tokens": {
            "post": {
                "tags": [
                    "IssueDeployToken"
                ],
                "x-api-pattern": "ExecuteFunction",
                "summary": "API to dispense short lived tokens for deploy jobs in gitlab.",
                "description": "Issues an ephemeral token for deploy job",
                "operationId": "IssueDeployToken",
                "consumes": [],
                "produces": [],
                "parameters": [
                    {
                        "name": "Authorization",
                        "in": "header",
                        "description": "The HTTP apikey request header contains a static string to authorize with the server.",
                        "x-example": "zydyrOB9Fjbnw9jfiwjf7knJuzVj4CBtB",
                        "required": true,
                        "type": "string",
                        "minLength": 1,
                        "maxLength": 256,
                        "pattern": "^[\\S]*$"
                    },
                    {
                        "name": "orgname",
                        "in": "header",
                        "description": "Apigee Orgname",
                        "x-example": "tmobileqat",
                        "required": false,
                        "type": "string",
                        "minLength": 1,
                        "maxLength": 256,
                        "pattern": "^[ \\S]+$"
                    },
                    {
                        "name": "orglocation",
                        "in": "header",
                        "description": "Apigee Org Location",
                        "x-example": "saas",
                        "required": false,
                        "type": "string",
                        "minLength": 1,
                        "maxLength": 256,
                        "pattern": "^[ \\S]+$"
                    },
                    {
                        "name": "Accept",
                        "in": "header",
                        "description": "Preferred content type _ default to application/json",
                        "x-example": "application/json",
                        "required": false,
                        "type": "string",
                        "minLength": 1,
                        "maxLength": 256,
                        "pattern": "^[ \\S]+$"
                    },
                    {
                        "name": "Accept-Encoding",
                        "in": "header",
                        "description": "List of acceptable encodings. See HTTP compression.",
                        "x-example": "gzip,deflate",
                        "required": false,
                        "type": "string",
                        "minLength": 1,
                        "maxLength": 256,
                        "pattern": "^[\\S ]*$"
                    },
                    {
                        "name": "Accept-Language",
                        "in": "header",
                        "description": "List of acceptable human languages for response",
                        "x-example": "en-us,en;q=0.5",
                        "required": false,
                        "type": "string",
                        "minLength": 1,
                        "maxLength": 256,
                        "pattern": "^[\\S ]*$"
                    }
                ],
                "responses": {
                    "200": {
                        "description": "OK",
                        "schema": {
                            "$ref": "#/definitions/DeployTokens"
                        },
                        "examples": {
                            "application/json": {
                                "access_token": "eyJhbGciOiJSUzI1NiJ9.eyJqdGkiOiJkOTIwYzg2NS01YTBiLTRjMjQtODA5Yi1kY2ExZWY2NWZkZTciLCJzdWIiOiJjMTk0MzhmMi1mNmFlLTRmNGUtODNhNS04Mzk4MjQzNGE2ZGIiLCJzY29wZSI6WyJzY2ltLm1lIiwib3BlbmlkIiwicGFzc3dvcmQud3JpdGUiLCJhcHByb3ZhbHMubWUiLCJvYXV0aC5hcHByb3ZhbHMiXSwiY2xpZW50X2lkIjoiZWRnZWNsaSIsImNpZCI6ImVkZ2VjbGkiLCJhenAiOiJlZGdlY2xpIiwiZ3JhbnRfdHlwZSI6InBhc3N3b3JkIiwidXNlcl9pZCI6ImMxOTQzOGYyLWY2YWUtNGY0ZS04M2E1LTgzOTgyNDM0YTZkYiIsIm9yaWdpbiI6InVhYSIsInVzZXJfbmFtZSI6ImFwaWdlZW5wQHQtbW9iaWxlLmNvbSIsImVtYWlsIjoiYXBpZ2VlbnBAdC1tb2JpbGUuY29tIiwiYXV0aF90aW1lIjoxNTgzMTk1NTgwLCJhbCI6MCwicmV2X3NpZyI6IjgzNjYyY2Q4IiwiaWF0IjoxNTgzMTk1NTgwLCJleHAiOjE1ODMxOTczODAsImlzcyI6Imh0dHA6Ly9wZWxhcGd3MTA1LnVuaXguZ3NtMTkwMC5vcmc6OTA5OSIsInppZCI6InVhYSIsImF1ZCI6WyJlZGdlY2xpIiwic2NpbSIsIm9wZW5pZCIsInBhc3N3b3JkIiwiYXBwcm92YWxzIiwib2F1dGgiXX0.b94tJjmbPjtvDGt3P_FKqM95C0KHbu9gOEleGrPQabyDn04tEtwubW-ILpsfg7HqRDZK7fKOgYU5B9WT5tmIN-9srjbFn6H2n99eObaox7DYjZXA0JeYQn7F1sjfMw0Js6pXvRT5KBbVGx0x16v5uxvaypXPth1Ih_k9u76dBaiP6Iu0kLhL4rikbfgvkLhpEiLhp8hN5YlpFt6pUH8rafLRX6zEj7vt3otCEiR_-2b8SPXApB5NecMZS2zccaoZpvDC-L6BT9irgDOvwSihMcBerH17Blujmk7Ed4Ew5Wt-oLBzv_kGnrPilohsGBjUb0pPGxQX9suNSYjhYABOXQ",
                                "token_type": "bearer",
                                "refresh_token": "eyJhbGciOiJSUzI1NiJ9.eyJqdGkiOiIzNDhhZmEyMS1jZWQxLTQ0MTgtYWMzMC0wYjkwZTM5ZTU4N2QtciIsInN1YiI6ImMxOTQzOGYyLWY2YWUtNGY0ZS04M2E1LTgzOTgyNDM0YTZkYiIsInNjb3BlIjpbInNjaW0ubWUiLCJvcGVuaWQiLCJwYXNzd29yZC53cml0ZSIsImFwcHJvdmFscy5tZSIsIm9hdXRoLmFwcHJvdmFscyJdLCJpYXQiOjE1ODMxOTU1ODAsImV4cCI6MTU4MzI4MTk4MCwiY2lkIjoiZWRnZWNsaSIsImNsaWVudF9pZCI6ImVkZ2VjbGkiLCJpc3MiOiJodHRwOi8vcGVsYXBndzEwNS51bml4LmdzbTE5MDAub3JnOjkwOTkiLCJ6aWQiOiJ1YWEiLCJncmFudF90eXBlIjoicGFzc3dvcmQiLCJ1c2VyX25hbWUiOiJhcGlnZWVucEB0LW1vYmlsZS5jb20iLCJvcmlnaW4iOiJ1YWEiLCJ1c2VyX2lkIjoiYzE5NDM4ZjItZjZhZS00ZjRlLTgzYTUtODM5ODI0MzRhNmRiIiwiYWwiOjAsInJldl9zaWciOiI4MzY2MmNkOCIsImF1ZCI6WyJlZGdlY2xpIiwic2NpbSIsIm9wZW5pZCIsInBhc3N3b3JkIiwiYXBwcm92YWxzIiwib2F1dGgiXX0.bsPDnYRlVqsdDbRfWoXLRsycBBAvq-7tCjhXlJkxWxom7yxZDd6gpsu1YhBc7PnMdWNblr6L2IF4-pUc-m16rZSxrerosiDmHC9sqiyGEB3-LN38tqiAwuu0F7oW0G3CDkQDBPum2F1V_tnO_P20G8RkVEgwH8sN4nXCUCSKxQXvUjd77NTIGXmtQvRlbnq4jlDGydAUrnH5giOm1I0riTpbruMhIcgQezpAsl4XZQ5ES1sBLYydSpOvxmESN61haX3rbjMQD6dIABiNQQ4Ab2WwV18zK9MCBa6l-M6JcLWuwh8ozY017LLq5WazL0rHUU3gK_X8cGR3edPSLgAvJQ",
                                "expires_in": 1799,
                                "scope": "scim.me openid password.write approvals.me oauth.approvals",
                                "jti": "d920c865-5a0b-4c24-809b-dca1ef65fde7"
                            }
                        },
                        "headers": {
                            "Cache-Control": {
                                "description": "Cache policy supported for the resource by the server",
                                "x-example": "no-cache",
                                "type": "string",
                                "minLength": 1,
                                "maxLength": 256,
                                "pattern": "^[\\S]*$"
                            },
                            "Content-Encoding": {
                                "description": "The type of encoding used on the data",
                                "x-example": "gzip,deflate",
                                "type": "string",
                                "minLength": 1,
                                "maxLength": 15,
                                "pattern": "^[\\S]*$"
                            },
                            "Content-Length": {
                                "description": "Length of the response body in octets; not supported if Transfer-Endoding = chunked",
                                "x-example": "9112300000003",
                                "type": "integer",
                                "format": "int64",
                                "minimum": 0,
                                "pattern": "^[\\d]*$"
                            },
                            "Content-Type": {
                                "description": "The MIME type of this content",
                                "x-example": "text/xml",
                                "type": "string",
                                "minLength": 1,
                                "maxLength": 256,
                                "pattern": "^[ \\S]+$"
                            },
                            "Date": {
                                "description": "The Date general HTTP header contains the date and time at which the message was originated.",
                                "x-example": "Mon, 05 Mar 2018 16:38:08 GMT",
                                "type": "string",
                                "format": "date-time",
                                "pattern": "^(Mon|Tue|Wed|Thu|Fri|Sat|Sun), [0-3]{1}[0-9]{1} (Jan|Feb|Mar|Apr|May|Jun|Jul|Aug|Sep|Oct|Nov|Dec) [1-3][0-9]{3} [0-2][0-9]:[0-6][0-9]:[0-6][0-9] GMT$"
                            }
                        }
                    },
                    "400": {
                        "description": "Bad Request",
                        "schema": {
                            "$ref": "#/definitions/Error"
                        },
                        "examples": {
                            "application/json": {
                                "code": "400",
                                "userMessage": "Bad Request",
                                "systemMessage": "Bad Request",
                                "detailLink": "http://www.tmus.com"
                            }
                        },
                        "headers": {}
                    },
                    "401": {
                        "description": "Unauthorized",
                        "schema": {
                            "$ref": "#/definitions/Error"
                        },
                        "examples": {
                            "application/json": {
                                "code": "401",
                                "userMessage": "Unauthorized",
                                "systemMessage": "Unauthorized",
                                "detailLink": "http://www.tmus.com"
                            }
                        },
                        "headers": {}
                    },
                    "404": {
                        "description": "Resource not found",
                        "schema": {
                            "$ref": "#/definitions/Error"
                        },
                        "examples": {
                            "application/json": {
                                "code": "404",
                                "userMessage": "Resource not found",
                                "systemMessage": "Resource not found",
                                "detailLink": "http://www.tmus.com"
                            }
                        },
                        "headers": {}
                    },
                    "405": {
                        "description": "Method Not Allowed",
                        "schema": {
                            "$ref": "#/definitions/Error"
                        },
                        "examples": {
                            "application/json": {
                                "code": "405",
                                "userMessage": "Method Not Allowed",
                                "systemMessage": "Method Not Allowed",
                                "detailLink": "http://www.tmus.com"
                            }
                        }
                    },
                    "500": {
                        "description": "Internal Server Error",
                        "schema": {
                            "$ref": "#/definitions/Error"
                        },
                        "examples": {
                            "application/json": {
                                "code": "500",
                                "userMessage": "Internal Server Error",
                                "systemMessage": "Internal Server Error",
                                "detailLink": "http://www.tmus.com"
                            }
                        },
                        "headers": {}
                    },
                    "503": {
                        "description": "Service unavailable",
                        "schema": {
                            "$ref": "#/definitions/Error"
                        },
                        "examples": {
                            "application/json": {
                                "code": "503",
                                "userMessage": "Service unavailable",
                                "systemMessage": "Service unavailable",
                                "detailLink": "http://www.tmus.com"
                            }
                        },
                        "headers": {}
                    }
                },
                "security": [
                    {
                        "JWT": [
                            "write:tokens:"
                        ]
                    }
                ]
            }
        }
    },
    "definitions": {
        "DeployTokens": {
            "description": "Deploy Token Issued for deploy job",
            "type": "object",
            "properties": {
                "apiKey": {
                    "description": "Auth key for the token issue API",
                    "example": "fayrOB9Fjbnw9shMpFf7knJuzVj4CBtB",
                    "type": "string"
                },
                "orgName": {
                    "description": "Apigee Org name",
                    "example": "tmobilea",
                    "type": "string",
                    "minLength": 1,
                    "maxLength": 50,
                    "pattern": ".*$"
                },
                "orgLocation": {
                    "description": "Apigee Org Location",
                    "example": "saas",
                    "type": "string",
                    "minLength": 1,
                    "maxLength": 50,
                    "pattern": ".*$"
                }
            }
        },
        "Error": {
            "description": "As defined in http://api-standards.apps.px-npe01.cf.t-mobile.com/http/status-codes/error-response-format/",
            "type": "object",
            "required": [
                "code",
                "userMessage"
            ],
            "properties": {
                "code": {
                    "description": "A succinct, domain-specific, human-readable text string to identify the type of error for the given status code",
                    "example": "ProductNotFound",
                    "type": "string",
                    "pattern": "^[\\S ]+$"
                },
                "userMessage": {
                    "description": "A human-readable message describing the error.",
                    "example": "Failed to find product.",
                    "type": "string",
                    "pattern": "^[\\S ]+$"
                },
                "systemMessage": {
                    "description": "Text that provides a more detailed technical explanation of the error",
                    "example": "PRODUCT_NOT_FOUND",
                    "type": "string"
                },
                "detailLink": {
                    "description": "link to custom information providing greater detail on error or errors",
                    "example": "http://aaa.bbb.ccc/",
                    "type": "string"
                }
            }
        }
    },
    "securityDefinitions": {
        "JWT": {
            "type": "oauth2",
            "description": "Standard security scheme to access the APIs is accessCode, for channels where customer is accessing the UI. Tokens issued are JWT signed tokens (JWE in future) using public/private key pair. PoP JWT are needed for Public APIs. Other flow types like - application may be supported - if reviewed and approved by Security teams at T-Mobile",
            "authorizationUrl": "https://host-env:port/ras/v3/code",
            "tokenUrl": "https://host-env:port/oauth2/v4/tokens",
            "flow": "accessCode",
            "scopes": {
                "write:tokens:": "dispense new token"
            }
        }
    },
    "security": [
        {
            "JWT": [
                "write:tokens:"
            ]
        }
    ]
}