@startuml
actor Sales_Rep
Participant QV
Participant LC
note left of QV: Device Support\nClick on Manage EIP button
Sales_Rep -> QV: Initiates EIP Cancellation
alt   <font size=15><font color=green><b>if device is eligible to return or remorse return
    QV -> QV:<b>choose option to return device and cancel EIP.\nChoose reason of return\nConfirm return device
    QV -> LC : Invoke service to return handset
    LC -> MIDDLEWARE : service to return handset (EquipmentInstallmentProgramService.returnHandset)
    MIDDLEWARE-> LC : Response of EquipmentInstallmentProgramService.returnHandset
    LC -> QV : Response of EquipmentInstallmentProgramService.returnHandset

    alt <font color=green><font size=15><b>Return Handset Success

        alt <font color=blue> If Confirmation document exists
            QV -> LC: generateToken request(maxValidations=4, userDate=ban|eipplanid|dealercode|storeid|repid)
            LC -> MIDDLEWARE: EnterpriseTokenService.generateToken request
            MIDDLEWARE -> LC: EnterpriseTokenService.generateToken response
            LC -> QV: generateToken response

            alt <font color=green><font size=15><b>Generate Token Success
                QV -> BROWSER: Toggle to openTextPDFRetrieval servlet with url http://<domain>/augustusservices/servlet/openTextPDFRetrieval?token="token"&document=EIP_Confirmation
                BROWSER -> LC: Toggle to openTextPDFRetrieval servlet with url http://<domain>/augustusservices/servlet/openTextPDFRetrieval?token="token"&document=EIP_Confirmation
                LC -> MIDDLEWARE: EnterpriseTokenService.validateToken request
                MIDDLEWARE -> LC: EnterpriseTokenService.validateToken response

                alt <font color=green><font size=15><b>Validate Token Success
                LC -> MIDDLEWARE: CustomerDocumentService.queryDocument request
                MIDDLEWARE-> LC: CustomerDocumentService.queryDocument response

                    alt <font color=green><font size=15><b>Query Document Success
                    LC -> BROWSER: send pdf data as response
                    BROWSER -> BROWSER: parse pdf data and show pdf document
                    else <font color=red><font size=15><b>Query Document Failure
                    LC -> BROWSER: send document retrieval failure error message
                    BROWSER -> BROWSER: show document retrieval failure error message
                    end

                else <font color=red><font size=15><b>Validate Token Failure
                LC -> BROWSER: send validation token failure error message
                BROWSER -> BROWSER: show token validation failure error message
                end


            else <font color=red><font size=15><b>Generate Token Failure
                QV -> QV: Show service failure message
            end


        else Show close button
            QV -> QV: close pop up
        end

    else <font color=red><font size=15><b>Return Handset Failure
        QV -> QV: Show return handset failure error message
    end

else <font color=red><font size=15><b>if device is not eligible to return or remorse return
    QV -> QV:Show IMIE does not match error
end

@enduml
