@startuml
actor Sales_Rep
Participant FDP_TOOL
Participant LC
Participant MIDDLEWARE
Sales_Rep -> FDP_TOOL: On Click of FDP Tool
note right of FDP_TOOL: <b>Following services will be triggered to load FDP\nSearchCustomer, GetPaymentArrangement,\nGetSchedulePayment, fdpEnables,\nGetBillSummary,GetBasicAccountDetails\nCancelReasonCode
FDP_TOOL->LC: on click of SetUp Schedule Payment \nFDPWallet Search API service will be invoked
LC->MIDDLEWARE:FDPWallet Search API request
MIDDLEWARE->LC: FDPWallet Search response
LC->FDP_TOOL: Wallet Search with Success Response
note right of FDP_TOOL: <b>Following sections will be\n <b>highlighted in the select box\nExisting saved Card\nExisting saved Bank\nNew Card\nNew Bank\n<b>Options available for selecting\n<b>the payment method based on\n<b>FDPWallet search API
alt if the user selects Existing Saved Card (or) Bank as payment method
FDP_TOOL->LC: on click of submit button MPI-create API(SP) triggered
LC->MIDDLEWARE: MPI-create API(SP) request
MIDDLEWARE->LC: MPI-create API(SP) response
LC->FDP_TOOL:MPI-create API response with Schedule Payment is Successfully done
note right of FDP_TOOL: <b>On Click Of Finish\n<b>button following services\n<b>will be triggered\nGetPaymentArrangement,\nGetSchedulePayment, fdpEnables,\nGetBillSummary,GetBasicAccountDetails\nCancelReasonCode
else if the user selects New Card as payment method
FDP_TOOL->LC: If the entered card number >=6 V3cardTypeValidation API will be invoked
LC->MIDDLEWARE: V3CardTypeValidation Request
MIDDLEWARE->LC: V3CardTypeValidation Response
LC->FDP_TOOL: V3CardTypeValidation with success response
FDP_TOOL->LC:on click of CHECK button GetPublicKey,ValidateV3 API will be invoked
LC->MIDDLEWARE: ValidateV3 Request
MIDDLEWARE->LC: ValidateV3 Response
LC->FDP_TOOL: ValidateV3 with success Response
alt if the user agrees to store the payment method and click the submit button
FDP_TOOL->LC: MPI wallet create API Request
LC->MIDDLEWARE: MPI wallet create API Request
MIDDLEWARE->LC:MPI wallet create API Response
LC->FDP_TOOL:MPI wallet create API success Response
FDP_TOOL->LC: MPI create API(SP) Request
LC->MIDDLEWARE: MPI wallet create API(SP) Request
MIDDLEWARE->LC:MPI wallet create API(SP) Response
LC->FDP_TOOL:Successfully set up SP
else if User agrees to replace the existing card payment method and click the submit button
FDP_TOOL->LC: MPI wallet delete API Request
LC->MIDDLEWARE: MPI wallet delete API Request
MIDDLEWARE->LC:MPI wallet delete API Response
LC->FDP_TOOL:MPI wallet delete API success Response
FDP_TOOL->LC: MPI wallet create API Request
LC->MIDDLEWARE: MPI wallet create API Request
MIDDLEWARE->LC:MPI wallet create API Response
LC->FDP_TOOL:MPI wallet create API success Response
FDP_TOOL->LC: MPI create API(SP) Request
LC->MIDDLEWARE: MPI wallet create API(SP) Request
MIDDLEWARE->LC:MPI wallet create API(SP) Response
LC->FDP_TOOL:Successfully set up SP
else User don't want to store the Payment method and click submit button
FDP_TOOL->LC:MPI-create API(SP) request
LC->MIDDLEWARE: MPI-create API(SP) request
MIDDLEWARE->LC: MPI-create API(SP) response
LC->FDP_TOOL:MPI-create API(SP) response\nSuccessfully set up SP
end
else if the user selects New Bank as payment method
alt After entering all the required field on click of submit button
alt if user agrees to store the payment method
FDP_TOOL->LC: MPI wallet create API Request
LC->MIDDLEWARE: MPI wallet create API Request
MIDDLEWARE->LC: MPI wallet create API Response
LC->FDP_TOOL: MPI wallet create API Success Response
FDP_TOOL->LC: MPI create API(SP) Request
LC->MIDDLEWARE: MPI wallet create API(SP) Request
MIDDLEWARE->LC:MPI wallet create API(SP) Response
LC->FDP_TOOL:Successfully set up SP
else if user agrees to replace the existing saved bank payment method
FDP_TOOL->LC: MPI wallet delete API Request
LC->MIDDLEWARE: MPI wallet delete API Request
MIDDLEWARE->LC:MPI wallet delete API Response
LC->FDP_TOOL:MPI wallet delete API success Response
FDP_TOOL->LC: MPI wallet create API Request
LC->MIDDLEWARE: MPI wallet create API Request
MIDDLEWARE->LC:MPI wallet create API Response
LC->FDP_TOOL:MPI wallet create API success Response
FDP_TOOL->LC: MPI create API(SP) Request
LC->MIDDLEWARE: MPI wallet create API(SP) Request
MIDDLEWARE->LC:MPI wallet create API(SP) Response
LC->FDP_TOOL:Successfully set up SP
else user don't want to save the payment method
FDP_TOOL->LC: MPI create API(SP) Request
LC->MIDDLEWARE: MPI create API(SP) Request
MIDDLEWARE->LC: MPI create API(SP) Response
LC->FDP_TOOL: MPI create API(SP) Response\nSuccessfully set up SP
end
end
end
@enduml
