@startuml

actor QV
Participant LC
Participant MIDDLEWARE
skinparam ParticipantPadding 20
skinparam ParticipantFontName Impact
skinparam FontName Trebuchet MS
skinparam FontSize 16
QV -> QV : Rep Clicks on Search button from Account Search Screen
note over QV #yellow
    Search Parameters can be BAN, MSISDN, SSN, Token, SIM etc
end note
QV -> LC : searchCustomer Request
activate LC
LC -> LC : Determines if USER is authorized to perform customer search
note over LC #yellow
    If user does not have permission, does not proceed to make service call
end note
LC -> MIDDLEWARE : customerLookUpService.searchCustomer request to MW\n[[https://qattbco523.unix.gsm1900.org:4116/eProxy/service/CustomerLookupService_SOAP_V1]]
activate MIDDLEWARE


MIDDLEWARE->LC :response from the service customerLookUpService.searchCustomer\n[[https://qattbco523.unix.gsm1900.org:4116/eProxy/service/CustomerLookupService_SOAP_V1]]
activate LC

LC->QV :searchCustomer response from the service
activate QV

QV->QV :Shows the results in Search Results Panel
activate QV
@enduml
