@startuml

actor QV
Participant LC
Participant MIDDLEWARE
skinparam ParticipantPadding 20
skinparam ParticipantFontName Impact
skinparam FontName Trebuchet MS
skinparam FontSize 16
QV -> LC : Change Customer Name -> Request
activate LC
LC -> MIDDLEWARE : request to accountUpdateService.changeCustomerName \n[[https://qattbco523.unix.gsm1900.org:4116/eProxy/service/AccountUpdateService_SOAP_V1]]
activate MIDDLEWARE


MIDDLEWARE->LC :response from the service accountUpdateService.changeCustomerName\n[[https://qattbco523.unix.gsm1900.org:4116/eProxy/service/AccountUpdateService_SOAP_V1]]
activate LC

LC->QV :response from the service
activate QV

alt <font color=blue>If success response
QV->QV : Show the Success Screen
else  <font color=red> If response doesn't return success code
QV->QV : Show error message on screen
end

activate QV


@enduml
