@startuml
skinparam style strictuml

actor Rep #DarkOlivegreen
participant TMAG #cornflowerblue
database TMAGDB #salmon
participant TIBCO #darkcyan
participant RSP #darkslateblue
participant TESA #darkorange
participant SamsonTux #goldenrod
participant TPOS #hotpink
participant APIGEE #lightslategrey
rnote over Rep : **Tablet**
Rep [#Green]-> TMAG : Personal Activation with SimOnly
===HandOff==
TMAG [#darkslateblue]-> RSP :<color:darkslateblue><b>EnterpriseTokenService:validateToken</b></color>(RSP Service Call)
RSP -[#Green]--> TMAG : Success
TMAG [#salmon]-> TMAGDB :<color:salmon><b>UserValidation(DB call)</b></color>
TMAGDB -[#Green]--> TMAG : Success
TMAG [#darkcyan]-> TIBCO :<color:darkcyan><b>ESIGetStoreLocationsRequest:lookupRetailStore</b></color>(TIBCO Service Call)
TIBCO -[#Green]--> TMAG : Success
TMAG [#darkslateblue]-> RSP :<color:darkslateblue><b>Offer.lookupDecisionValues</b></color>(RSP Service Call)
RSP -[#Green]--> TMAG : Success
TMAG [#hotpink]-> TPOS :<color:hotpink><b>Installment:validateStore</b></color>(POS Service Call)
TPOS -[#Green]--> TMAG : Success
TMAG [#salmon]-> TMAGDB :<color:salmon><b>Security.getusermarkets(Stored Procedure call)</b></color>
TMAGDB -[#Green]--> TMAG : Success
TMAG [#salmon]-> TMAGDB :<color:salmon><b>Security.getUserLocationSrvGdFlag(Stored Procedure call to retrieve PRINTING ENABLED flag)</b></color>
TMAGDB -[#Green]--> TMAG : Success
TMAG [#darkslateblue]-> RSP :<color:darkslateblue><b>DealerAuthenticationService</b></color>(RSP Service Call)
RSP -[#Green]--> TMAG : Success


==Credit Check==
TMAG [#lightslategrey]-> APIGEE :<color:lightslategrey><b>PinValidationService</b></color>(Rest Service Call)
APIGEE -[#Green]--> TMAG : Success
TMAG [#darkslateblue]-> RSP :<color:darkslateblue><b>AddressVerificationService.validateAndClassifyAddress</b></color>(RSP Service Call)
RSP -[#Green]--> TMAG : Success
TMAG [#goldenrod]-> SamsonTux : <color:goldenrod><b>SearchBySsnService</b></color>(csLsBnSsn-Ensemble Service Call)
SamsonTux -[#Green]--> TMAG : Success
TMAG [#goldenrod]-> SamsonTux : <color:goldenrod><b>AddressVerifier</b></color>(gnMatchAdr00-Ensemble Service Call)
SamsonTux -[#Green]--> TMAG : Success
TMAG [#goldenrod]-> SamsonTux : <color:goldenrod><b>GeoCodeService</b></color>(gnGtGeoCd00-Ensemble Service Call)
SamsonTux -[#Green]--> TMAG : Success
TMAG [#darkslateblue]-> RSP : [[https://servicecatalog.internal.t-mobile.com/servicecat/tibco/2018-11-04/wsdl_api/html/AccountLookup.html TIBCO AccountLookup]] <color:darkslateblue><b>CustomerQualificationService.submitCreditApplication</b></color>(RSP Service Call) 
RSP -[#Green]--> TMAG : Success
TMAG [#lightslategrey]-> APIGEE :<color:lightslategrey><b>CreditLimitsResponse</b></color>(Rest Service Call)
APIGEE -[#Green]--> TMAG : Success
TMAG [#salmon]-> TMAGDB :<color:salmon><b>(insertCustomerRecord)Save the customer details to customer and other related tables in DB</b></color>
TMAGDB -[#Green]--> TMAG : Success




==Customer Credit Information==
TMAG [#darkslateblue]-> RSP :<color:darkslateblue><b>CountryGroupDetails</b></color>(RSP Service Call)
RSP -[#Green]--> TMAG : Success
TMAG [#darkslateblue]-> RSP :<color:darkslateblue><b>GetCreditRiskProfileResponse</b></color>(RSP Service Call)
RSP -[#Green]--> TMAG : Success
TMAG [#darkcyan]-> TIBCO : <color:darkcyan><b>getCreditLineSummary</b></color>(TIBCO Service Call) 
TIBCO -[#Green]--> TMAG : Success


==Rate Plan & Device==
TMAG [#hotpink]-> TPOS :<color:hotpink><b>HandsetInformation:getHandsetInfo</b></color>(POS Service Call)
TPOS -[#Green]--> TMAG : Success
TMAG [#goldenrod]-> SamsonTux : <color:goldenrod><b>DepositEstimatorService</b></color>(evCalcDepo-Ensemble Service Call) 
SamsonTux -[#Green]--> TMAG : Success
TMAG [#lightslategrey]-> APIGEE : <color:lightslategrey><b>DevicesSearchView</b></color> (Rest Service Call)
APIGEE -[#Green]--> TMAG : Success
TMAG [#hotpink]-> TPOS :<color:hotpink><b>DeviceStep:getImeiBlockList</b></color>(POS Service Call)
TPOS -[#Green]--> TMAG : Success
TMAG [#lightslategrey]-> APIGEE : <color:lightslategrey><b>ReteriveDeviceStatusResponse</b></color> (Rest Service Call)
APIGEE -[#Green]--> TMAG : Success
TMAG [#darkcyan]-> TIBCO : <color:darkcyan><b>DeviceProfile:getDeviceAttributes</b></color>(TIBCO Service Call) 
TIBCO -[#Green]--> TMAG : Success
TMAG [#lightslategrey]-> APIGEE :<color:lightslategrey><b>validateSerialNumber</b></color>(Rest Service Call)
APIGEE -[#Green]--> TMAG : Success
TMAG [#hotpink]-> TPOS :<color:hotpink><b>SKUDetails:validateSku</b></color>(POS Service Call)
TPOS -[#Green]--> TMAG : Success
TMAG [#darkcyan]-> TIBCO : [[https://servicecatalog.internal.t-mobile.com/servicecat/tibco/2018-11-04/wsdl_api/html/AccountLookup.html TIBCO AccountLookup]]<color:darkcyan> <b>GetSIMDetails</b> </color>
TIBCO -[#Green]--> TMAG : Success


==Features==
TMAG [#darkcyan]-> TIBCO : <color:darkcyan><b>ServiceProductsLookup:GetServiceProductsForDevice:getOMWSOCs</b></color>(TIBCO Service Call) 
TIBCO -[#Green]--> TMAG : Success
TMAG [#darkcyan]-> TIBCO :<color:darkcyan> <b>Installment:getCreditLineSummary</b></color>(TIBCO Service Call) 
TIBCO -[#Green]--> TMAG : Success
TMAG [#lightslategrey]-> APIGEE : <color:lightslategrey><b>RetailProductCatalog:getRatePlanDetailsByDevice</b></color> (Rest Service Call)
APIGEE -[#Green]--> TMAG : Success


==Service Setup==
TMAG [#darkcyan]-> TIBCO : <color:darkcyan><b>RegisterPaperlessBill.CheckPaperlessEligibility</b></color>(TIBCO Service Call) 
TIBCO -[#Green]--> TMAG : Success
TMAG [#goldenrod]-> SamsonTux : <color:goldenrod><b>ChangeCtnStatusService</b></color>(nmChgCtnSts-Ensemble Service Call) 
SamsonTux -[#Green]--> TMAG : Success
TMAG [#goldenrod]-> SamsonTux : <color:goldenrod><b>DiscountEligibilityService</b></color>(evChkDPElgImp-Ensemble Service Call) 
SamsonTux -[#Green]--> TMAG : Success
TMAG [#goldenrod]-> SamsonTux : <color:goldenrod><b>GetCdsEligibilityService</b></color>(rfGtCdsElig00-Ensemble Service Call) 
SamsonTux -[#Green]--> TMAG : Success


==Billing Info with Autopay==
TMAG [#lightslategrey]-> APIGEE :<color:lightslategrey><b>CardTypeValidation</b></color>(Rest Service Call)
APIGEE -[#Green]--> TMAG : Success
TMAG [#darkcyan]-> TIBCO : <color:darkcyan><b>PaymentLookup:LookupCard</b></color>(TIBCO Service Call) 
TIBCO -[#Green]--> TMAG : Success
TMAG [#salmon]-> TMAGDB :<color:salmon><b>Update Transaction Detail in DB</b></color>
TMAGDB -[#Green]--> TMAG : Success

==Activation Summary==
TMAG [#darkcyan]-> TIBCO : <color:darkcyan><b>RegisterPaperlessBilling:RegisterPaperlessBilling</b></color>(TIBCO Service Call) 
TIBCO -[#Green]--> TMAG : Success
TMAG [#goldenrod]-> SamsonTux : <color:goldenrod><b>InsertNewBanService</b></color>(arInCstBan-Ensemble Service Call) 
SamsonTux -[#Green]--> TMAG : Success
TMAG [#goldenrod]-> SamsonTux : <color:goldenrod><b>GetBanService</b></color>(arGtBan-Ensemble Service Call) 
SamsonTux -[#Green]--> TMAG : Success
TMAG [#darkcyan]-> TIBCO : <color:darkcyan><b>PaymentProcess:manageEasyPay</b></color>(TIBCO Service Call) 
TIBCO -[#Green]--> TMAG : Success
TMAG [#lightslategrey]-> APIGEE :<color:lightslategrey><b>PaymentValidationService</b></color>(Rest Service Call)
APIGEE -[#Green]--> TMAG : Success
TMAG [#lightslategrey]-> APIGEE :<color:lightslategrey><b>SavePaymentMethod</b></color>(Rest Service Call)
APIGEE -[#Green]--> TMAG : Success
TMAG [#goldenrod]-> SamsonTux : <color:goldenrod><b>ManualCreditEvaluationService</b></color>(csManCrd-Ensemble Service Call) 
SamsonTux -[#Green]--> TMAG : Success
TMAG [#goldenrod]-> SamsonTux : <color:goldenrod><b>SaveBlSuppEnvService</b></color>(csSvBlSupEnv-Ensemble Service Call) 
SamsonTux -[#Green]--> TMAG : Success
TMAG [#goldenrod]-> SamsonTux : <color:goldenrod><b>UpdateCycleCodeService</b></color>(blUpCycCd-Ensemble Service Call) 
SamsonTux -[#Green]--> TMAG : Success
TMAG [#goldenrod]-> SamsonTux : <color:goldenrod><b>GetCycleCodeService</b></color>(blGtCycle-Ensemble Service Call) 
SamsonTux -[#Green]--> TMAG : Success
TMAG [#goldenrod]-> SamsonTux : <color:goldenrod><b>ManualCreditEvaluationService</b></color>(csManCrd-Ensemble Service Call) 
SamsonTux -[#Green]--> TMAG : Success
TMAG [#goldenrod]-> SamsonTux : <color:goldenrod><b>GeoCodeService</b></color>(gnGtGeoCd-Ensemble Service Call) 
SamsonTux -[#Green]--> TMAG : Success
TMAG [#goldenrod]-> SamsonTux : <color:goldenrod><b>ActivateNewSubscriberService</b></color>(csActvSubEnv-Ensemble Service Call) 
SamsonTux -[#Green]--> TMAG : Success
TMAG [#salmon]-> TMAGDB :<color:salmon><b>Save transaction data in DB.(POS_TRANSFER_DATA)</b></color>
TMAGDB -[#Green]--> TMAG : Success
TMAG [#darkorange]-> TESA :<color:darkorange><b>Toggle to TESA for documentation</b></color>
TESA -[#Green]--> TMAG : Success
TMAG [#hotpink]-> TPOS :<color:hotpink><b>Toggle to POS for payments.</b></color>

====
@enduml