@startuml
skinparam style strictuml

actor Rep

==Customer Search==
Rep -> MPOS2 : Search Customer
MPOS2 -> TIBCO : [[https://servicecatalog.internal.t-mobile.com/servicecat/tibco/2018-11-04/wsdl_api/html/AccountLookup.html TIBCO AccountLookup]] GetAccountDetails 
TIBCO -[#Green]--> MPOS2 : Success
MPOS2 -> TIBCO : [[https://servicecatalog.internal.t-mobile.com/servicecat/tibco/2018-11-04/wsdl_api/wsdl/AccountSearch.wsdl TIBCO AccountSearch]] GetSubscribersForBanv2
TIBCO -[#Green]--> MPOS2 : Success
MPOS2 -> RSP : [[https://servicecatalog.internal.t-mobile.com/servicecat/rsp/2018-08-25/wsdl_api/wsdl/SubscriberDetailService.wsdl RSP SubscriberDetailService]] getSubscriberDetailList
RSP -[#Green]--> MPOS2 : Success
==Item Entry screen==
MPOS2 -> RSP: [[https://servicecatalog.internal.t-mobile.com/servicecat/rsp/2018-08-25/wsdl_api/wsdl/OfferService.wsdl RSP OfferService]] lookupDecisionValues
RSP -[#Green]--> MPOS2 : Success
MPOS2 -> TIBCO : [[https://servicecatalog.internal.t-mobile.com/servicecat/tibco/2018-11-04/wsdl_api/wsdl/Installment.wsdl TIBCO Installment]] GetCreditRiskProfile
TIBCO -[#Green]--> MPOS2 : Success
MPOS2 -> TIBCO : [[https://servicecatalog.internal.t-mobile.com/servicecat/tibco/2018-11-04/wsdl_api/wsdl/Installment.wsdl TIBCO Installment]] GetCreditLineSummary
TIBCO -[#Green]--> MPOS2 : Success
MPOS2 -> TIBCO : [[https://servicecatalog.internal.t-mobile.com/servicecat/tibco/2018-11-04/wsdl_api/wsdl/Installment.wsdl TIBCO Installment]] GetEquipmentInstallmentIndicators
TIBCO -[#Green]--> MPOS2 : Success
==Adding items to cart==
MPOS2 -> RSP : [[https://servicecatalog.internal.t-mobile.com/servicecat/rsp/2018-08-25/wsdl_api/wsdl/SimService.wsdl RSP Sim]] getStarterKitFee
RSP -[#Green]--> MPOS2 : Success
MPOS2 -> TIBCO : [[https://servicecatalog.internal.t-mobile.com/servicecat/tibco/2018-11-04/wsdl_api/wsdl/Installment.wsdl TIBCO Installment]] GetPendingDeposit
TIBCO -[#Green]--> MPOS2 : Success
==Estimate Installments==
MPOS2 -> TIBCO : [[https://servicecatalog.internal.t-mobile.com/servicecat/tibco/2018-11-04/wsdl_api/wsdl/Installment.wsdl TIBCO Installment]] EstimateInstallmentPlan
TIBCO -[#Green]--> MPOS2 : Success
==Trade-In==
alt Instant Trade-In
MPOS2 -> TIBCO : [[https://servicecatalog.internal.t-mobile.com/servicecat/rsp/2018-08-25/wsdl_api/wsdl/EnterpriseTokenService.wsdl RSP EnterpriseTokenService]] generateToken
TIBCO -[#Green]--> MPOS2 : Success
MPOS2 -> QuoteTool : Handoff
QuoteTool -> MPOS2 : Quote Details
else Decline Trade-In
MPOS2 -> MPOS2 : Go to Tender screen
end

==Tender screen==
MPOS2 -> TIBCO : [[https://servicecatalog.internal.t-mobile.com/servicecat/tibco/2018-11-04/wsdl_api/wsdl/TaxQuote.wsdl TIBCO TaxQuote]] /TAX/TAX/QUOTE
TIBCO -[#Green]--> MPOS2 : Success
MPOS2 -> TIBCO : [[https://servicecatalog.internal.t-mobile.com/servicecat/tibco/2018-11-04/wsdl_api/wsdl/Payment.wsdl TIBCO Payment]] ProcessFraudCheck 
TIBCO -[#Green]--> MPOS2 : Success
alt Instant Trade-In
MPOS2 -> TIBCO : [[https://servicecatalog.internal.t-mobile.com/servicecat/tibco/2018-11-04/wsdl_api/wsdl/DeviceTradeInService.wsdl TIBCO DeviceTradeInService]] setQuoteDisposition
TIBCO -[#Green]--> MPOS2 : Success
end

MPOS2 -> TIBCO : [[https://servicecatalog.internal.t-mobile.com/servicecat/tibco/2018-11-04/wsdl_api/wsdl/Installment.wsdl TIBCO Installment]] CreateInstallmentPlan
TIBCO -[#Green]--> MPOS2 : Success
MPOS2 -> TIBCO : POS-PDM XML (posted to tibco queue)
MPOS2 -> RSP : [[https://servicecatalog.internal.t-mobile.com/servicecat/rsp/2018-08-25/wsdl_api/wsdl/CustomerDocumentService.wsdl RSP CustomerDocumentService]] manageDcoument
RSP -> MPOS2 : Success (Document URL)
alt Desktop
MPOS2 -> MPOS2 : Display PDF content (Capture signature via Ingenico)
else Tablet
MPOS2 -> DocuSign : Redirect to Docusign to capture e-signature
DocuSign -> MPOS2 : Redirect back to MPOS2 
end
MPOS2 -> TIBCO : [[https://servicecatalog.internal.t-mobile.com/servicecat/tibco/2018-11-04/wsdl_api/wsdl/PublicInsertMemo.wsdl TIBCO PublicInsertMemo]] /MEMO/INSERT 
TIBCO -[#Green]--> MPOS2 : Success


MPOS2 -> TESA : TesaTransferData
TESA -> MPOS2 : Receipt PDF
@enduml