@startuml
skinparam style strictuml

actor Rep

Rep -> QVXP : Initiate Bill Payment
QVXP -> MPOS2 : Handoff for Bill Payment
MPOS2 -> TIBCO : [[https://servicecatalog.internal.t-mobile.com/servicecat/rsp/2018-08-25/wsdl_api/wsdl/EnterpriseTokenService.wsdl RSP EnterpriseTokenService]] validateToken
TIBCO -> MPOS2 : user data
MPOS2 -> TIBCO : [[https://servicecatalog.internal.t-mobile.com/servicecat/tibco/2018-11-04/wsdl_api/html/AccountLookup.html TIBCO AccountLookup]] GetAccountDetails 
TIBCO -[#Green]--> MPOS2 : Success
MPOS2 -> TIBCO : [[https://servicecatalog.internal.t-mobile.com/servicecat/tibco/2018-11-04/wsdl_api/wsdl/AccountSearch.wsdl TIBCO AccountSearch]] GetSubscribersForBanv2
TIBCO -[#Green]--> MPOS2 : Success
MPOS2 -> RSP : [[https://servicecatalog.internal.t-mobile.com/servicecat/rsp/2018-08-25/wsdl_api/wsdl/SubscriberDetailService.wsdl RSP SubscriberDetailService]] getSubscriberDetailList
RSP -[#Green]--> MPOS2 : Success
MPOS2 -> MPOS2 : Load Item Entry screen with sku/details for Bill Payment
==Item Entry screen==

MPOS2 -> TIBCO : [[https://servicecatalog.internal.t-mobile.com/servicecat/tibco/2018-11-04/wsdl_api/wsdl/Installment.wsdl TIBCO Installment]] GetCreditRiskProfile
TIBCO -[#Green]--> MPOS2 : Success
MPOS2 -> TIBCO : [[https://servicecatalog.internal.t-mobile.com/servicecat/tibco/2018-11-04/wsdl_api/wsdl/Installment.wsdl TIBCO Installment]] GetCreditLineSummary
TIBCO -[#Green]--> MPOS2 : Success
MPOS2 -> TIBCO : [[https://servicecatalog.internal.t-mobile.com/servicecat/tibco/2018-11-04/wsdl_api/wsdl/Installment.wsdl TIBCO Installment]] GetEquipmentInstallmentIndicators
TIBCO -[#Green]--> MPOS2 : Success
MPOS2 -> RSP: [[https://servicecatalog.internal.t-mobile.com/servicecat/rsp/2018-08-25/wsdl_api/wsdl/OfferService.wsdl RSP OfferService]] lookupDecisionValues
RSP -[#Green]--> MPOS2 : Success
==Tender Screen==

MPOS2 -> TIBCO : POS-PDM XML (posted to tibco queue via POS-PDM application)
MPOS2 -> TIBCO : [[https://servicecatalog.internal.t-mobile.com/servicecat/tibco/2018-11-04/wsdl_api/wsdl/PublicInsertMemo.wsdl TIBCO PublicInsertMemo]] /MEMO/INSERT 
MPOS2 -> TESA : TesaTransferData
TESA -> MPOS2 : Receipt PDF
@enduml