@startuml
autonumber

  center header 
          <font size=22 color=magenta>Query Team Assignment</font>
  end header
  
  actor customer
  participant SIVR
  participant "API Gateway\n(Apigee)" as Gateway
  participant "chub-team-assignment-service xAPI" as xAPI
  Participant CHUB
  
  customer->SIVR
  SIVR->Gateway: POST: queryTeamAssignment
  Gateway->xAPI: POST: queryTeamAssignment

note over xAPI: "Request/Response": [[https://bitbucket.service.edp.t-mobile.com/projects/EITCODEDOC/repos/flow-documentation/browse/swagger/ce.dd.fl.sivr/chub-team-assignment-service.yaml Swagger]]


  xAPI->CHUB: TeamAssignmentService.queryTeamAssignment
  CHUB->xAPI: Response with CustSuppLang, teamCode, teamName, agentCode and activeIndicator
  xAPI->Gateway:Success/Failure Response
  Gateway->SIVR:Success/Failure Response
@enduml