@startuml
skinparam style strictuml

actor Rep

==Customer Search==
Rep -> MPOS2 : Search Customer
MPOS2 -> TIBCO : [[https://servicecatalog.internal.t-mobile.com/servicecat/tibco/2018-11-04/wsdl_api/html/AccountLookup.html TIBCO AccountLookup]] GetAccountDetails 
TIBCO -[#Green]--> MPOS2 : Success
MPOS2 -> TIBCO : [[https://servicecatalog.internal.t-mobile.com/servicecat/tibco/2018-11-04/wsdl_api/wsdl/AccountSearch.wsdl TIBCO AccountSearch]] GetSubscribersForBanv2
TIBCO -[#Green]--> MPOS2 : Success
MPOS2 -> RSP : [[https://servicecatalog.internal.t-mobile.com/servicecat/rsp/2018-08-25/wsdl_api/wsdl/SubscriberDetailService.wsdl RSP SubscriberDetailService]] getSubscriberDetailList
RSP -[#Green]--> MPOS2 : Success
==Item Entry screen==
MPOS2 -> RSP: [[https://servicecatalog.internal.t-mobile.com/servicecat/rsp/2018-08-25/wsdl_api/wsdl/OfferService.wsdl RSP OfferService]] lookupDecisionValues
RSP -[#Green]--> MPOS2 : Success
MPOS2 -> TIBCO : [[https://servicecatalog.internal.t-mobile.com/servicecat/tibco/2018-11-04/wsdl_api/wsdl/Installment.wsdl TIBCO Installment]] GetCreditRiskProfile
TIBCO -[#Green]--> MPOS2 : Success
MPOS2 -> TIBCO : [[https://servicecatalog.internal.t-mobile.com/servicecat/tibco/2018-11-04/wsdl_api/wsdl/Installment.wsdl TIBCO Installment]] GetCreditLineSummary
TIBCO -[#Green]--> MPOS2 : Success
MPOS2 -> TIBCO : [[https://servicecatalog.internal.t-mobile.com/servicecat/tibco/2018-11-04/wsdl_api/wsdl/Installment.wsdl TIBCO Installment]] GetEquipmentInstallmentIndicators
TIBCO -[#Green]--> MPOS2 : Success
==Adding items to cart==
MPOS2 -> RSP : [[https://servicecatalog.internal.t-mobile.com/servicecat/rsp/2018-08-25/wsdl_api/wsdl/SimService.wsdl RSP Sim]] getStarterKitFee
RSP -[#Green]--> MPOS2 : Success
MPOS2 -> TIBCO : [[https://servicecatalog.internal.t-mobile.com/servicecat/tibco/2018-11-04/wsdl_api/wsdl/Installment.wsdl TIBCO Installment]] GetPendingDeposit
TIBCO -[#Green]--> MPOS2 : Success
alt non-RIS store
MPOS2 -> APIGEE : getDeviceDetails (Holderplace API)
APIGEE -> MPOS2 : Success
else RIS store
MPOS2 -> SOA :  [[SOA SerialNumber Validation]]ValidateSerialNumber
SOA -[#Green]--> MPOS2 : Success
end
==Trade-In==
alt Deferred Trade-In
MPOS2 -> TIBCO : [[https://servicecatalog.internal.t-mobile.com/servicecat/rsp/2018-08-25/wsdl_api/wsdl/EnterpriseTokenService.wsdl RSP EnterpriseTokenService]] generateToken
TIBCO -[#Green]--> MPOS2 : Success
MPOS2 -> QuoteTool : Handoff
QuoteTool -> MPOS2 : Quote Details
else Instant Trade-In
MPOS2 -> TIBCO : [[https://servicecatalog.internal.t-mobile.com/servicecat/rsp/2018-08-25/wsdl_api/wsdl/EnterpriseTokenService.wsdl RSP EnterpriseTokenService]] generateToken
TIBCO -[#Green]--> MPOS2 : Success
MPOS2 -> QuoteTool : Handoff
QuoteTool -> MPOS2 : Quote Details
else Decline Trade-In
MPOS2 -> MPOS2 : Go to Tender screen
end
==Balance Payment==
MPOS2 -> TIBCO : [[https://servicecatalog.internal.t-mobile.com/servicecat/tibco/2018-11-04/wsdl_api/wsdl/Installment.wsdl TIBCO Installment]] GetInstallmentPlanHistory
TIBCO -[#Green]--> MPOS2 : Success
MPOS2 -> RSP: [[https://servicecatalog.internal.t-mobile.com/servicecat/rsp/2018-08-25/wsdl_api/wsdl/OfferService.wsdl RSP OfferService]] lookupDecisionValues
RSP -[#Green]--> MPOS2 : Success
MPOS2 -> TIBCO : [[https://servicecatalog.internal.t-mobile.com/servicecat/tibco/2018-11-04/wsdl_api/wsdl/Installment.wsdl TIBCO Installment]] GetEquipmentInstallmentIndicators
TIBCO -[#Green]--> MPOS2 : Success
==Tender screen==
MPOS2 -> TIBCO : [[https://servicecatalog.internal.t-mobile.com/servicecat/tibco/2018-11-04/wsdl_api/wsdl/TaxQuote.wsdl TIBCO TaxQuote]] /TAX/TAX/QUOTE
TIBCO -[#Green]--> MPOS2 : Success
MPOS2 -> APIGEE : [[https://qwiki.internal.t-mobile.com/download/attachments/116635581/CardTypeValidationAPI-v2.json?version=1&modificationDate=1518212300000&api=v2 cardtypevalidation]] cardtypevalidation
APIGEE -> MPOS2 : Success
MPOS2 -> APIGEE : [[https://qwiki.internal.t-mobile.com/pages/viewpage.action?title=Swagger+Repository&spaceKey=JCM paymenttxnlookup]] paymenttxnlookup
APIGEE -> MPOS2 : Success
MPOS2 -> APIGEE : [[https://qwiki.internal.t-mobile.com/pages/viewpage.action?title=Swagger+Repository&spaceKey=JCM cpsales]] cpSales
APIGEE -> MPOS2 : Success
alt Deferred Trade-In with priority set for open EIP plans
MPOS2 -> TIBCO : [[https://servicecatalog.internal.t-mobile.com/servicecat/tibco/2018-11-04/wsdl_api/wsdl/DeviceTradeInService.wsdl TIBCO DeviceTradeInService]] setQuoteDisposition
TIBCO -[#Green]--> MPOS2 : Success
MPOS2 -> TIBCO : setPreferences
TIBCO -[#Green]--> MPOS2 : Success
else Instant Trade-In with balance EIP payment
MPOS2 -> TIBCO : [[https://servicecatalog.internal.t-mobile.com/servicecat/tibco/2018-11-04/wsdl_api/wsdl/DeviceTradeInService.wsdl TIBCO DeviceTradeInService]] setQuoteDisposition
TIBCO -[#Green]--> MPOS2 : Success
MPOS2 -> TIBCO : processPayment
TIBCO -[#Green]--> MPOS2 : Success
end
alt RIS store
MPOS2 -> APIGEE : UpdateInventoryWithSaleItems 
APIGEE -[#Green]--> MPOS2 : Success
end
MPOS2 -> TIBCO : POS-PDM XML (posted to tibco queue via POS-PDM application)
MPOS2 -> RSP : postEvent
RSP -> MPOS2 : Success
MPOS2 -> RSP : [[https://servicecatalog.internal.t-mobile.com/servicecat/rsp/2018-08-25/wsdl_api/wsdl/CustomerDocumentService.wsdl RSP CustomerDocumentService]] manageDcoument
RSP -> MPOS2 : Success (Document URL)
alt Desktop
MPOS2 -> MPOS2 : Display PDF content (Capture signature via Ingenico)
MPOS2 -> RSP : [[https://servicecatalog.internal.t-mobile.com/servicecat/rsp/2018-08-25/wsdl_api/wsdl/CustomerDocumentService.wsdl RSP CustomerDocumentService]] manageDcoument (Signature bind data)
RSP -> MPOS2 : Success 
else Tablet
MPOS2 -> DocuSign : Redirect to Docusign to capture e-signature
DocuSign -> MPOS2 : Redirect back to MPOS2 
end
MPOS2 -> RSP : getShippingLabel
RSP -> MPOS2 : Success(ShippingLabelURL)
MPOS2 -> TIBCO : [[https://servicecatalog.internal.t-mobile.com/servicecat/tibco/2018-11-04/wsdl_api/wsdl/PublicInsertMemo.wsdl TIBCO PublicInsertMemo]] /MEMO/INSERT 
TIBCO -[#Green]--> MPOS2 : Success

MPOS2 -> TESA : TesaTransferData
TESA -> MPOS2 : Receipt PDF
@enduml