@startuml
actor Rep #DarkOlivegreen
participant TMAG #cornflowerblue
database TMAGDB #salmon
participant TIBCO #darkcyan
participant RSP #darkslateblue
participant TESA #darkorange
participant SamsonTux #goldenrod
participant TPOS #hotpink
participant APIGEE #lightslategrey

Rep [#Green]-> TMAG : Add A Line for Business Accounts

===Login==
TMAG [#salmon]-> TMAGDB :<color:salmon><b>Security.ValidateWatsonLogin(Stored Procedure call)</b></color>
TMAGDB -[#Green]--> TMAG : Success

TMAG [#salmon]-> TMAGDB :<color:salmon><b>Security.getusermarkets(Stored Procedure call)</b></color>
TMAGDB -[#Green]--> TMAG : Success

TMAG [#salmon]-> TMAGDB :<color:salmon><b>Security.getUserLocationSrvGdFlag(Stored Procedure call to retrieve PRINTING ENABLED flag)</b></color>
TMAGDB -[#Green]--> TMAG : Success

TMAG [#darkslateblue]-> RSP :<color:darkslateblue><b>DealerAuthenticationService</b></color>(RSP Service Call)
RSP -[#Green]--> TMAG : Success

==Acccount Lookup==
alt search type FEIN & Company Name
TMAG -> SamsonTux: <color:goldenrod><b>Search By TaxId (csLsBnTxId00 - Ensemble Service Call)</b></color>
SamsonTux -> TMAG: Success

else search type Personal Guarantor SSN & Company Name
TMAG -> SamsonTux: <color:goldenrod><b>Search By PGSSN (evCstSrch00 - Ensemble Service Call)</b></color>
SamsonTux -> TMAG: Success

else search type Mobile Number and PIN/Passcode
TMAG -> SamsonTux: <color:goldenrod><b>Search By Mobile Number (csSrchSub00 - Ensemble Service Call)</b></color>
SamsonTux -> TMAG: Success

end

TMAG -> SamsonTux: <color:goldenrod><b>GetCtnStatusCountService (csSubStCnt00 - Ensemble Service Call)</b></color>
SamsonTux -> TMAG: Success

TMAG -> SamsonTux: <color:goldenrod><b>List Of Bill Parameter Service (arLsBilPrm00 - Ensemble Service Call)</b></color>
SamsonTux -> TMAG: Success

TMAG -> SamsonTux: <color:goldenrod><b>Get Ban Details (arGtCstBan00 - Ensemble Service Call)</b></color>
SamsonTux -> TMAG: Success

==Credit Summary==
TMAG -> SamsonTux: <color:goldenrod><b>Get Geo Code (gnGtGeoCd00 - Ensemble Service Call)</b></color>
SamsonTux -> TMAG: Success

TMAG -> SamsonTux: <color:goldenrod><b>Match Address Service (gnMatchAdr00 - Ensemble Service Call)</b></color>
SamsonTux -> TMAG: Success

TMAG [#darkcyan]-> TIBCO : <color:darkcyan><b>Get Credit Line Summary</b></color>(TIBCO Service Call)
TIBCO -[#Green]--> TMAG : Success

TMAG [#lightslategrey]-> APIGEE : <color:lightslategrey><b>CreditLimitsResponse</b></color> (Rest Service Call)
APIGEE -[#Green]--> TMAG : Success

TMAG [#darkslateblue]-> RSP :<color:darkslateblue><b>Lookup Decision Values</b></color>(RSP Service Call)
RSP -[#Green]--> TMAG : Success

TMAG -> SamsonTux: <color:goldenrod><b>List of Ban Level Services(arLsBanAgr00 - Ensemble Service Call)</b></color>
SamsonTux -> TMAG: Success

TMAG -> SamsonTux: <color:goldenrod><b>Get Equipment PHP Indicator Service (csGtEqpInd00 - Ensemble Service Call)</b></color>
SamsonTux -> TMAG: Success

TMAG -> SamsonTux: <color:goldenrod><b>GetBlSuppDetailService (csGtBlSupDtl00 - Ensemble Service Call)</b></color>
SamsonTux -> TMAG: Success

TMAG -> SamsonTux: <color:goldenrod><b>List of Default Ban Level Services (arLsDefAgr00 - Ensemble Service Call)</b></color>
SamsonTux -> TMAG: Success

TMAG -> SamsonTux: <color:goldenrod><b>List Of Sub By Ban Service(csLsBanSub00 - Ensemble Service Call)</b></color>
SamsonTux -> TMAG: Success

TMAG [#darkslateblue]-> RSP :<color:darkslateblue><b>GetCreditRiskProfileResponse</b></color>(RSP Service Call)
RSP -[#Green]--> TMAG : Success

loop Selected Multiple Lines
==Rate Plan & Device==
TMAG [#hotpink]-> TPOS :<color:hotpink><b>HandsetInformation:getHandsetInfo</b></color>(POS Service Call)
TPOS -[#Green]--> TMAG : Success

TMAG [#goldenrod]-> SamsonTux : <color:goldenrod><b>DepositEstimatorService</b></color>(evCalcDepo-Ensemble Service Call)
SamsonTux -[#Green]--> TMAG : Success

TMAG [#lightslategrey]-> APIGEE : <color:lightslategrey><b>DevicesSearchView</b></color> (Rest Service Call)
APIGEE -[#Green]--> TMAG : Success

TMAG [#hotpink]-> TPOS :<color:hotpink><b>DeviceStep:getImeiBlockList</b></color>(POS Service Call)
TPOS -[#Green]--> TMAG : Success

TMAG [#lightslategrey]-> APIGEE : <color:lightslategrey><b>ReteriveDeviceStatusResponse</b></color> (Rest Service Call)
APIGEE -[#Green]--> TMAG : Success

TMAG [#darkcyan]-> TIBCO : <color:darkcyan><b>DeviceProfile:getDeviceAttributes</b></color>(TIBCO Service Call)
TIBCO -[#Green]--> TMAG : Success

TMAG [#lightslategrey]-> APIGEE :<color:lightslategrey><b>validateSerialNumber</b></color>(Rest Service Call)
APIGEE -[#Green]--> TMAG : Success

TMAG [#hotpink]-> TPOS :<color:hotpink><b>SKUDetails:validateSku</b></color>(POS Service Call)
TPOS -[#Green]--> TMAG : Success

TMAG [#darkcyan]-> TIBCO : <color:darkcyan> <b>GetSIMDetails</b> </color>
TIBCO -[#Green]--> TMAG : Success

==Features==
TMAG [#darkcyan]-> TIBCO : <color:darkcyan><b>ServiceProductsLookup:GetServiceProductsForDevice:getOMWSOCs</b></color>(TIBCO Service Call)
TIBCO -[#Green]--> TMAG : Success

TMAG [#darkcyan]-> TIBCO :<color:darkcyan> <b>Installment:getCreditLineSummary</b></color>(TIBCO Service Call)
TIBCO -[#Green]--> TMAG : Success

TMAG [#lightslategrey]-> APIGEE : <color:lightslategrey><b>RetailProductCatalog:getRatePlanDetailsByDevice</b></color> (Rest Service Call)
APIGEE -[#Green]--> TMAG : Success

==Service Setup==
TMAG [#darkcyan]-> TIBCO : <color:darkcyan><b>RegisterPaperlessBill.CheckPaperlessEligibility</b></color>(TIBCO Service Call)
TIBCO -[#Green]--> TMAG : Success

TMAG [#goldenrod]-> SamsonTux : <color:goldenrod><b>ChangeCtnStatusService</b></color>(nmChgCtnSts-Ensemble Service Call)
SamsonTux -[#Green]--> TMAG : Success

TMAG [#goldenrod]-> SamsonTux : <color:goldenrod><b>DiscountEligibilityService</b></color>(evChkDPElgImp-Ensemble Service Call)
SamsonTux -[#Green]--> TMAG : Success

TMAG [#goldenrod]-> SamsonTux : <color:goldenrod><b>GetCdsEligibilityService</b></color>(rfGtCdsElig00-Ensemble Service Call)
SamsonTux -[#Green]--> TMAG : Success

end

==Billing Info with Autopay==

alt if user opts for Autopay

TMAG [#lightslategrey]-> APIGEE :<color:lightslategrey><b>CardTypeValidation</b></color>(Rest Service Call)
APIGEE -[#Green]--> TMAG : Success

TMAG [#darkcyan]-> TIBCO : <color:darkcyan><b>PaymentLookup:LookupCard</b></color>(TIBCO Service Call)
TIBCO -[#Green]--> TMAG : Success

TMAG [#salmon]-> TMAGDB :<color:salmon><b>Update Transaction Detail in DB</b></color>
TMAGDB -[#Green]--> TMAG : Success

end

==Activation Summary==
TMAG [#darkcyan]-> TIBCO : <color:darkcyan><b>RegisterPaperlessBilling:RegisterPaperlessBilling</b></color>(TIBCO Service Call)
TIBCO -[#Green]--> TMAG : Success

TMAG [#goldenrod]-> SamsonTux : <color:goldenrod><b>GetBanService</b></color>(arGtBan-Ensemble Service Call)
SamsonTux -[#Green]--> TMAG : Success

alt if user opts for Auto Pay

TMAG [#darkcyan]-> TIBCO : <color:darkcyan><b>PaymentProcess:manageEasyPay</b></color>(TIBCO Service Call)
TIBCO -[#Green]--> TMAG : Success


end

TMAG [#goldenrod]-> SamsonTux : <color:goldenrod><b>ManualCreditEvaluationService</b></color>(csManCrd-Ensemble Service Call)
SamsonTux -[#Green]--> TMAG : Success

TMAG [#goldenrod]-> SamsonTux : <color:goldenrod><b>SaveBlSuppEnvService</b></color>(csSvBlSupEnv-Ensemble Service Call)
SamsonTux -[#Green]--> TMAG : Success

TMAG [#goldenrod]-> SamsonTux : <color:goldenrod><b>UpdateCycleCodeService</b></color>(blUpCycCd-Ensemble Service Call)
SamsonTux -[#Green]--> TMAG : Success

TMAG [#goldenrod]-> SamsonTux : <color:goldenrod><b>GetCycleCodeService</b></color>(blGtCycle-Ensemble Service Call)
SamsonTux -[#Green]--> TMAG : Success

TMAG [#goldenrod]-> SamsonTux : <color:goldenrod><b>ManualCreditEvaluationService</b></color>(csManCrd-Ensemble Service Call)
SamsonTux -[#Green]--> TMAG : Success

TMAG [#goldenrod]-> SamsonTux : <color:goldenrod><b>GeoCodeService</b></color>(gnGtGeoCd-Ensemble Service Call)
SamsonTux -[#Green]--> TMAG : Success

TMAG [#goldenrod]-> SamsonTux : <color:goldenrod><b>ActivateNewSubscriberService</b></color>(csActvSubEnv-Ensemble Service Call)
SamsonTux -[#Green]--> TMAG : Success

TMAG [#salmon]-> TMAGDB :<color:salmon><b>Save transaction data in DB.(POS_TRANSFER_DATA)</b></color>
TMAGDB -[#Green]--> TMAG : Success

TMAG [#darkorange]-> TESA :<color:darkorange><b>Toggle to TESA for documentation</b></color>
TESA -[#Green]--> TMAG : Success

TMAG [#hotpink]-> TPOS :<color:hotpink><b>Toggle to POS for payments.</b></color>



@enduml