@startuml

title Update Shared Number

participant UCCAdmin as Admin
Admin -> Browser: types into browser
participant UCCAdminPortal as UCC
Browser -> UCC: login into the portal
UCC -> UCC:Admin is on the Shared \nNumbers Landing page or\n on the Shared Number Profile page\nand clicks on Edit Shared Number

note left of UCC
Pull the shared number
with its Information
end note
participant APIGEELayer1 as APIGEE
UCC -> APIGEE:Call BIF API getHuntGroup to \nfetch the numbers and users
APIGEE -> APIGEE: Authenticate the request
participant UCCAdminPortalExpSvc as ExpLayer
APIGEE -> ExpLayer: Call BIF API getHuntGroup to \nfetch the numbers and users
ExpLayer -> APIGEELayer2: Call BIF API getHuntGroup to \nfetch the numbers and users
APIGEELayer2 -> APIGEELayer2 : Authenticate the request
APIGEELayer2 -> BIF:Call BIF API getHuntGroup to \nfetch the numbers and users
BIF --> ExpLayer:return the response \nwith information of Shared Number
ExpLayer  --> UCC: return the response \nwith information of Shared

note left of UCC
Update the shared number
end note
participant APIGEELayer1 as APIGEE
UCC -> APIGEE:Call BIF API updateHuntGroup to\ndelete the shared number
APIGEE -> APIGEE: Authenticate the request
participant UCCAdminPortalExpSvc as ExpLayer
APIGEE -> ExpLayer: Call BIF API updateHuntGroup to\nupdate the shared number
ExpLayer -> APIGEELayer2: Call BIF API to updateHuntGroup\nupdate the shared number
APIGEELayer2 -> APIGEELayer2 : Authenticate the request
APIGEELayer2 -> BIF:Call BIF API updateHuntGroup to\nupdate the shared number
BIF --> ExpLayer:return the response \nwith success/error
ExpLayer  --> UCC: return the response \nwith success/error
UCC --> Browser : Shared Number with\nupdated information
Browser --> Admin : Shared Number with\nupdated information

@enduml