{
  "swagger": "2.0",
  "info": {
    "description": "Customer Verification and Fraud",
    "version": "1.0.0",
    "title": "Customer Verification and Fraud",
    "termsOfService": "urn:tos",
    "contact": {
      "name": "T-Mobile",
      "email": "CHUB@t-mobile.com"
    },
    "license": {
      "name": "Apache 2.0",
      "url": "http://www.apache.org/licenses/LICENSE-2.0"
    }
  },
  "schemes": [
    "https"
  ],
  "host": "dit01.api.t-mobile.com",
  "basePath": "/customer/v1",
  "tags": [
    {
      "name": "tmo-customer-verification-controller",
      "description": "Tmo Customer Verification Controller"
    }
  ],
  "paths": {
    "/auth": {
      "post": {
        "tags": [
          "tmo-customer-verification-controller"
        ],
        "summary": "authenticateCustomer",
        "operationId": "authenticateCustomerUsingPOST",
        "consumes": [
          "application/json"
        ],
        "security": [
          {
            "Oauth": []
          }
        ],
        "produces": [
          "application/json"
        ],
        "parameters": [
          {
            "name": "authorization",
            "in": "header",
            "description": "authorization token for service",
            "required": true,
            "type": "string",
            "x-example": "Bearer ewazQl6SuKmQTN5PXCS24uqO7UxX",
            "pattern": "^Bearer [a-zA-Z0-9]*$'"
          },
          {
            "name": "applicationId",
            "in": "header",
            "description": "applicationId of calling application",
            "required": true,
            "type": "string",
            "x-example": "SecureId",
            "pattern": "^[a-zA-Z0-9]*$'"
          },
          {
            "in": "body",
            "name": "authRequest",
            "description": "authRequest",
            "required": true,
            "schema": {
              "$ref": "#/definitions/TmoCustomerAuthenticationRequest"
            }
          }
        ],
        "responses": {
          "200": {
            "description": "Ok",
            "schema": {
              "$ref": "#/definitions/TmoCustomerAuthenticationResponse"
            }
          },
          "400": {
            "description": "Invalid Request-Missing Or Invalid Required Input Params"
          },
          "404": {
            "description": "Customer with the requested Id not Found"
          },
          "500": {
            "description": "Internal Server Error"
          }
        }
      }
    },
    "/authInfo": {
      "post": {
        "tags": [
          "tmo-customer-verification-controller"
        ],
        "summary": "updateAuthenticationInfo",
        "operationId": "updateAuthenticationInfoUsingPOST",
        "consumes": [
          "application/json"
        ],
        "security": [
          {
            "Oauth": []
          }
        ],
        "produces": [
          "application/json"
        ],
        "parameters": [
          {
            "name": "authorization",
            "in": "header",
            "description": "authorization token for service",
            "required": true,
            "type": "string",
            "x-example": "Bearer ewazQl6SuKmQTN5PXCS24uqO7UxX",
            "pattern": "^Bearer [a-zA-Z0-9]*$'"
          },
          {
            "name": "applicationId",
            "in": "header",
            "description": "applicationId of calling application",
            "required": true,
            "type": "string",
            "x-example": "SecureId",
            "pattern": "^[a-zA-Z0-9]*$'"
          },
          {
            "in": "body",
            "name": "unauthorizedCallInfo",
            "description": "unauthorizedCallInfo",
            "required": true,
            "schema": {
              "$ref": "#/definitions/TmoCustomerAuthInfoUpdateRequest"
            }
          }
        ],
        "responses": {
          "204": {
            "description": "No Content",
            "schema": {
              "$ref": "#/definitions/TmoCvBaseBean"
            }
          },
          "400": {
            "description": "Invalid Request-Missing Or Invalid Required Input Params"
          },
          "500": {
            "description": "Customer update Failed  -Internal Server Error"
          }
        }
      }
    },
    "/cpniMaskInfo": {
      "get": {
        "tags": [
          "tmo-customer-verification-controller"
        ],
        "summary": "lookupCPNIMaskedData",
        "operationId": "lookupCPNIMaskedDataUsingGET",
        "consumes": [
          "application/json"
        ],
        "security": [
          {
            "Oauth": []
          }
        ],
        "produces": [
          "application/json"
        ],
        "responses": {
          "200": {
            "description": "OK",
            "schema": {
              "type": "array",
              "items": {
                "$ref": "#/definitions/TmoCpniMaskedData"
              }
            }
          }
        }
      }
    },
    "/customerInfo": {
      "post": {
        "tags": [
          "tmo-customer-verification-controller"
        ],
        "summary": "lookupCVfInfo",
        "operationId": "lookupCVfInfoUsingPOST",
        "consumes": [
          "application/json"
        ],
        "security": [
          {
            "Oauth": []
          }
        ],
        "produces": [
          "application/json"
        ],
        "parameters": [
          {
            "name": "authorization",
            "in": "header",
            "description": "authorization token for service",
            "required": true,
            "type": "string",
            "x-example": "Bearer ewazQl6SuKmQTN5PXCS24uqO7UxX",
            "pattern": "^Bearer [a-zA-Z0-9]*$'"
          },
          {
            "name": "applicationId",
            "in": "header",
            "description": "applicationId of calling application",
            "required": true,
            "type": "string",
            "x-example": "SecureId",
            "pattern": "^[a-zA-Z0-9]*$'"
          },
          {
            "in": "body",
            "name": "input",
            "description": "input",
            "required": true,
            "schema": {
              "$ref": "#/definitions/CvfDataBean"
            }
          }
        ],
        "responses": {
          "200": {
            "description": "Ok",
            "schema": {
              "$ref": "#/definitions/TmoCustomerAuthenticationResponse"
            }
          },
          "400": {
            "description": "Invalid Request-Missing Or Invalid Required Input Params",
            "schema": {
              "$ref": "#/definitions/ApiError"
            }
          },
          "404": {
            "description": "Customer with the requested Id not Found",
            "schema": {
              "$ref": "#/definitions/ApiError"
            }
          },
          "500": {
            "description": "Internal Server Error",
            "schema": {
              "$ref": "#/definitions/ApiError"
            }
          }
        }
      }
    },
    "/otpTransactionTypes": {
      "get": {
        "tags": [
          "tmo-customer-verification-controller"
        ],
        "summary": "lookupOtpTransactionTypes",
        "operationId": "lookupOtpTransactionTypesUsingGET",
        "consumes": [
          "application/json"
        ],
        "security": [
          {
            "Oauth": []
          }
        ],
        "produces": [
          "application/json"
        ],
        "responses": {
          "200": {
            "description": "OK",
            "schema": {
              "type": "array",
              "items": {
                "$ref": "#/definitions/TmoOtpTransactions"
              }
            }
          }
        }
      }
    },
    "/passwordInfo": {
      "post": {
        "tags": [
          "tmo-customer-verification-controller"
        ],
        "summary": "lookupPasswordInfo",
        "operationId": "lookupPasswordInfoUsingPOST",
        "consumes": [
          "application/json"
        ],
        "security": [
          {
            "Oauth": []
          }
        ],
        "produces": [
          "application/json"
        ],
        "parameters": [
          {
            "name": "authorization",
            "in": "header",
            "description": "authorization token for service",
            "required": true,
            "type": "string",
            "x-example": "Bearer ewazQl6SuKmQTN5PXCS24uqO7UxX",
            "pattern": "^Bearer [a-zA-Z0-9]*$'"
          },
          {
            "name": "applicationId",
            "in": "header",
            "description": "applicationId of calling application",
            "required": true,
            "type": "string",
            "x-example": "SecureId",
            "pattern": "^[a-zA-Z0-9]*$'"
          },
          {
            "in": "body",
            "name": "CustomerAccountId",
            "description": "CustomerAccountId/BAN",
            "required": true,
            "schema": {
              "$ref": "#/definitions/CustomerAccountId"
            }
          }
        ],
        "responses": {
          "200": {
            "description": "Ok",
            "schema": {
              "$ref": "#/definitions/TmoCustomerAuthenticationResponse"
            }
          },
          "400": {
            "description": "Invalid Request-Missing Or Invalid Required Input Params"
          },
          "404": {
            "description": "Customer with the requested Id not Found"
          },
          "500": {
            "description": "Internal Server Error"
          }
        }
      }
    },
    "/passwordRules/{accountType}": {
      "get": {
        "tags": [
          "tmo-customer-verification-controller"
        ],
        "summary": "lookupPasswordRules",
        "operationId": "lookupPasswordRulesUsingGET",
        "consumes": [
          "application/json"
        ],
        "security": [
          {
            "Oauth": []
          }
        ],
        "produces": [
          "application/json"
        ],
        "parameters": [
          {
            "name": "accountType",
            "in": "path",
            "description": "accountType",
            "required": true,
            "type": "string"
          }
        ],
        "responses": {
          "200": {
            "description": "OK",
            "schema": {
              "$ref": "#/definitions/TmoPasswordRules"
            }
          }
        }
      }
    },
    "/unAuthCallsInfo": {
      "post": {
        "tags": [
          "tmo-customer-verification-controller"
        ],
        "summary": "lookupUnAuthCallInfo",
        "operationId": "lookupUnAuthCallInfoUsingPOST",
        "consumes": [
          "application/json"
        ],
        "security": [
          {
            "Oauth": []
          }
        ],
        "produces": [
          "application/json"
        ],
        "parameters": [
          {
            "name": "authorization",
            "in": "header",
            "description": "authorization token for service",
            "required": true,
            "type": "string",
            "x-example": "Bearer ewazQl6SuKmQTN5PXCS24uqO7UxX",
            "pattern": "^Bearer [a-zA-Z0-9]*$'"
          },
          {
            "name": "applicationId",
            "in": "header",
            "description": "applicationId of calling application",
            "required": true,
            "type": "string",
            "x-example": "SecureId",
            "pattern": "^[a-zA-Z0-9]*$'"
          },
          {
            "in": "body",
            "name": "CustomerAccountId",
            "description": "CustomerAccountId/BAN",
            "required": true,
            "schema": {
              "$ref": "#/definitions/CustomerAccountId"
            }
          }
        ],
        "responses": {
          "200": {
            "description": "OK",
            "schema": {
              "$ref": "#/definitions/TmoCvBaseBean"
            }
          }
        }
      }
    }
  },
  "definitions": {
    "TmoCustomerAuthenticationResponse": {
      "type": "object",
      "description": "TmoCustomerAuthenticationResponse",
      "properties": {
        "accountSubType": {
          "type": "string",
          "description": "accountSubType"
        },
        "accountType": {
          "type": "string",
          "description": "accountType"
        },
        "authenticationResult": {
          "type": "string",
          "description": "authenticationResult"
        },
        "authenticationType": {
          "type": "string",
          "description": "authenticationType"
        },
        "billingSystem": {
          "type": "string",
          "description": "billingSystem"
        },
        "customerAccountId": {
          "type": "string",
          "description": "customerAccountId"
        },
        "dateTime": {
          "type": "string",
          "description": "dateTime"
        },
        "failureReason": {
          "type": "string",
          "description": "failureReason"
        },
        "fraudFlag": {
          "type": "string",
          "description": "fraudFlag"
        },
        "isPasswordExist": {
          "type": "string",
          "description": "isPasswordExist"
        },
        "passwordType": {
          "type": "string",
          "description": "passwordType"
        },
        "phoneNumber": {
          "type": "string",
          "description": "phoneNumber"
        },
        "thresholdForUnauthorizedCalls": {
          "type": "string",
          "description": "thresholdForUnauthorizedCalls"
        },
        "timeLimit": {
          "type": "string",
          "description": "timeLimit"
        },
        "totalUnAuthorizedIMEACalls": {
          "type": "string",
          "description": "totalUnAuthorizedIMEACalls"
        },
        "totalUnAuthorizedOTPCalls": {
          "type": "string",
          "description": "totalUnAuthorizedIMEACalls"
        },
        "totalUnAuthorized_AccId_TaxId_ActivationDate_Calls": {
          "type": "string",
          "description": "totalUnAuthorized_AccId_TaxId_ActivationDate_Calls"
        },
        "totalUnAuthorized_AccId_TaxId_LastPay_Calls": {
          "type": "string",
          "description": "totalUnAuthorized_AccId_TaxId_LastPay_Calls"
        },
        "totalUnAutorizedSSN4Calls": {
          "type": "string",
          "description": "totalUnAutorizedSSN4Calls"
        },
        "totalUnAutorizedSSNOTPCalls": {
          "type": "string",
          "description": "totalUnAutorizedSSNOTPCalls"
        },
        "totalUnAutorizedTaxId4Calls": {
          "type": "string",
          "description": "totalUnAutorizedTaxId4Calls"
        },
        "totalUnAutorizedTaxIdOTPCalls": {
          "type": "string",
          "description": "totalUnAutorizedTaxIdOTPCalls"
        },
        "totalUnauthorizedCalls": {
          "type": "string",
          "description": "totalUnauthorizedCalls"
        },
        "totalUnauthorizedPostpaidPasswordCalls": {
          "type": "string",
          "description": "totalUnauthorizedPostpaidPasswordCalls"
        },
        "totalUnauthorizedPrepaidPasswordCalls": {
          "type": "string",
          "description": "totalUnauthorizedPrepaidPasswordCalls"
        },
        "totalUnauthorizedPrepaidPinCalls": {
          "type": "string",
          "description": "totalUnauthorizedPrepaidPinCalls"
        }
      }
    },
    "TmoPasswordRules": {
      "type": "object",
      "description": "TmoPasswordRules",
      "properties": {
        "accountType": {
          "type": "string",
          "description": "accountType"
        },
        "dateCreated": {
          "type": "string",
          "description": "dateCreated"
        },
        "dateUpdated": {
          "type": "string",
          "description": "dateUpdated"
        },
        "lettersRequired": {
          "type": "string",
          "description": "lettersRequired"
        },
        "maxLength": {
          "type": "string",
          "description": "maxLength"
        },
        "minLength": {
          "type": "string",
          "description": "minLength"
        },
        "numbersRequired": {
          "type": "string",
          "description": "numbersRequired"
        },
        "specialChar": {
          "type": "string",
          "description": "specialChar"
        },
        "specialCharAllowed": {
          "type": "string",
          "description": "specialCharAllowed"
        }
      }
    },
    "TmoCustomerAuthInfoUpdateRequest": {
      "type": "object",
      "description": "TmoCustomerAuthInfoUpdateRequest",
      "properties": {
        "accessTimeStamp": {
          "type": "string",
          "description": "accessTimeStamp"
        },
        "accountSubType": {
          "type": "string",
          "description": "accountSubType"
        },
        "accountType": {
          "type": "string",
          "description": "accountType"
        },
        "authenticationResult": {
          "type": "string",
          "description": "authenticationResult"
        },
        "authenticationType": {
          "type": "string",
          "description": "authenticationType"
        },
        "billingSystem": {
          "type": "string",
          "description": "billingSystem"
        },
        "billingType": {
          "type": "string",
          "description": "billingType"
        },
        "channel": {
          "type": "string",
          "description": "channel"
        },
        "customerAccountId": {
          "type": "string",
          "description": "customerAccountId"
        },
        "phoneNumber": {
          "type": "string",
          "description": "phoneNumber"
        },
        "repUserNTID": {
          "type": "string",
          "description": "repUserNTID"
        },
        "timeStamp": {
          "type": "string",
          "description": "timeStamp"
        },
        "typeOfCheck": {
          "type": "string",
          "description": "typeOfCheck"
        },
        "userNameSelected": {
          "type": "string",
          "description": "userNameSelected"
        }
      }
    },
    "CvfDataBean": {
      "type": "object",
      "description": "CvfDataBean",
      "properties": {
        "customerAccountId": {
          "type": "string",
          "description": "customerAccountId"
        },
        "phoneNumber": {
          "type": "string",
          "description": "phoneNumber"
        },
        "pin": {
          "type": "string",
          "description": "pin"
        },
        "ssn": {
          "type": "string",
          "description": "ssn"
        },
        "taxId": {
          "type": "string",
          "description": "taxId"
        },
        "typeOfAccount": {
          "type": "string",
          "description": "typeOfAccount"
        }
      }
    },
    "TmoOtpTransactions": {
      "type": "object",
      "description": "TmoOtpTransactions",
      "properties": {
        "otprequired": {
          "type": "string",
          "description": "otprequired"
        },
        "transactionType": {
          "type": "string",
          "description": "transactionType"
        }
      }
    },
    "TmoCustomerAuthenticationRequest": {
      "type": "object",
      "description": "TmoCustomerAuthenticationRequest",
      "properties": {
        "accessTimeStamp": {
          "type": "string",
          "description": "accessTimeStamp"
        },
        "activationDate": {
          "type": "string",
          "description": "activationDate"
        },
        "billingSystem": {
          "type": "string",
          "description": "billingSystem"
        },
        "billingType": {
          "type": "string",
          "description": "billingType"
        },
        "channel": {
          "type": "string",
          "description": "channel"
        },
        "customerAccountId": {
          "type": "string",
          "description": "customerAccountId"
        },
        "imei": {
          "type": "string",
          "description": "imei"
        },
        "lastFaurOfSSN": {
          "type": "string",
          "description": "lastFaurOfSSN"
        },
        "lastFaurOfTaxId": {
          "type": "string",
          "description": "lastFaurOfTaxId"
        },
        "lastPaymentAmount": {
          "type": "string",
          "description": "lastPaymentAmount"
        },
        "otp": {
          "type": "string",
          "description": "otp"
        },
        "otpId": {
          "type": "string",
          "description": "otpId"
        },
        "phoneNumber": {
          "type": "string",
          "description": "phoneNumber"
        },
        "postpaidPinPassword": {
          "type": "string",
          "description": "postpaidPinPassword"
        },
        "prepaidPin": {
          "type": "string",
          "description": "prepaidPin"
        },
        "repUserNTId": {
          "type": "string",
          "description": "repUserNTId"
        },
        "typeOfCheck": {
          "type": "string",
          "description": "typeOfCheck"
        },
        "userName": {
          "type": "string",
          "description": "userName"
        }
      }
    },
    "ApiError": {
      "type": "object",
      "description": "ApiError",
      "properties": {
        "errorCode": {
          "type": "string",
          "description": "errorCode"
        },
        "errorMessage": {
          "type": "string",
          "description": "errorMessage"
        }
      }
    },
    "TmoCpniMaskedData": {
      "type": "object",
      "description": "TmoCpniMaskedData",
      "properties": {
        "dateCreated": {
          "type": "string",
          "description": "dateCreated"
        },
        "dateLastUpdated": {
          "type": "string",
          "description": "dateLastUpdated"
        },
        "field": {
          "type": "string",
          "description": "field"
        },
        "mask": {
          "type": "string",
          "description": "mask"
        },
        "maskFormat": {
          "type": "string",
          "description": "maskFormat"
        }
      }
    },
    "CustomerAccountId": {
      "type": "object",
      "description": "CustomerAccountId",
      "properties": {
        "customerAccountId": {
          "type": "string",
          "description": "customerAccountId"
        }
      }
    },
    "TmoCvBaseBean": {
      "type": "object",
      "description": "TmoCvBaseBean"
    }
  },
  "securityDefinitions": {
    "Oauth": {
      "description": "Oauth",
      "type": "oauth2",
      "tokenUrl": "https://dlab03.core.op.api.t-mobile.com:443/v2/oauth2/accesstoken?grant_type=client_credentials",
      "flow": "application",
      "scopes": {}
    }
  }
}