{
	"swagger": "2.0",
	"info": {
		"description": "Notification Preference Update Service",
		"version": "1",
		"title": "Notification Preferences Update Service"
	},
	"host": "dit01.api.t-mobile.com",
	"basePath": "/customer/v1/customers",
	"tags": [{
		"name": "NotificationPreferencesUpdateService"
	}],
	"schemes": [
		"https"
	],
	"paths": {
		"/notificationPreferences/update": {
			"post": {
				"description": "Update Customer's,FAN's and Line's Notification information and also preferences",
				"tags": [
					"NotificationPreferencesUpdateService"
				],
				"operationId": "update",
				"produces": [
					"application/json"
				],
				"consumes": [
					"application/json"
				],
				"parameters": [{
						"name": "NotificationPreferenceRequest",
						"in": "body",
						"description": "NotificationPreferenceRequest",
						"required": true,
						"schema": {
							"$ref": "#/definitions/UpdateNotificationPreferenceRequest"
						}
					},
					{
						"$ref": "#/parameters/AuthorizationParam"
					},
					{
						"$ref": "#/parameters/Content-typeParam"
					},
					{
						"$ref": "#/parameters/AcceptParam"
					},
					{
						"$ref": "#/parameters/serviceTransactionIdParam"
					},
					{
						"$ref": "#/parameters/applicationuseridParam"
					},
					{
						"$ref": "#/parameters/sessionidParam"
					},
					{
						"$ref": "#/parameters/interactionidParam"
					},
					{
						"$ref": "#/parameters/activityidParam"
					},
					{
						"$ref": "#/parameters/workflowidParam"
					},
					{
						"$ref": "#/parameters/timestampParam"
					},
					{
						"$ref": "#/parameters/segmentationidParam"
					},
					{
						"$ref": "#/parameters/authcustomeridParam"
					},
					{
						"$ref": "#/parameters/authfinancialaccountidParam"
					},
					{
						"$ref": "#/parameters/authlineofserviceidParam"
					},
					{
						"$ref": "#/parameters/OriginParam"
					},
					{
						"$ref": "#/parameters/applicationIdParam"
					},
					{
						"$ref": "#/parameters/senderIdParam"
					},
					{
						"$ref": "#/parameters/channelIdParam"
					}
				],
				"responses": {
					"200": {
						"description": "Success",
						"headers": {
							"ServiceTransactionId": {
								"type": "string"
							},
							"Content-Length": {
								"type": "string"
							},
							"Content-type": {
								"type": "string"
							}
						},
						"schema": {
							"$ref": "#/definitions/UpdateNotificationPreferenceResponse"
						}
					},
					"400": {
						"description": "BAD Request",
						"schema": {
							"$ref": "#/definitions/errors"
						}
					},
					"404": {
						"description": "Service Not found"
					},
					"500": {
						"description": "Internal Service Error",
						"schema": {
							"$ref": "#/definitions/errors"
						}
					},
					"503": {
						"description": "Backend Service error",
						"schema": {
							"$ref": "#/definitions/errors"
						}
					}
				}
			}
		}
	},
	"security": [{
		"Oauth": [

		]
	}],
	"definitions": {
		"UpdateNotificationPreferenceRequest": {
			"type": "object",
			"required": [
				"customer"
			],
			"properties": {
				"customer": {
					"$ref": "#/definitions/Customer"
				}
			}
		},
		"UpdateNotificationPreferenceResponse": {
			"type": "object",
			"properties": {
				"statusCode": {
					"description": "Response Status Code ",
					"type": "string"
				},
				"status": {
					"description": "Response Status Message ",
					"type": "string"
				}
			}
		},
		"Customer": {
			"type": "object",
			"properties": {
				"ccid": {
					"description": "Common Customer Identifier(CCID)",
					"type": "string"
				},
				"accounts": {
					"type": "array",
					"items": {
						"$ref": "#/definitions/Account"
					}
				},
				"lines": {
					"maxItems": 9999,
					"type": "array",
					"items": {
						"$ref": "#/definitions/Line"
					}
				},
				"addresses": {
					"type": "array",
					"items": {
						"$ref": "#/definitions/AddressDetails"
					}
				},
				"emails": {
					"type": "array",
					"items": {
						"$ref": "#/definitions/EmailDetails"
					}
				},
				"phoneNumbers": {
					"type": "array",
					"items": {
						"$ref": "#/definitions/PhoneNumberDetails"
					}
				},
				"privacyPreferences": {
					"type": "array",
					"items": {
						"$ref": "#/definitions/PrivacyPreferenceDetails"
					}
				}
			}
		},
		"AddressDetails": {
			"type": "object",
			"properties": {
				"accountNumber": {
					"description": "Customer Account Number",
					"type": "string"
				},
				"lineId": {
					"description": "Customer Line ID",
					"type": "string"
				},
				"ccid": {
					"description": "Common Customer Identifier(CCID)",
					"type": "string"
				},
				"address1": {
					"description": "Address Line 1",
					"type": "string"
				},
				"address2": {
					"description": "Address Line 2",
					"type": "string"
				},
				"city": {
					"description": "City",
					"type": "string"
				},
				"state": {
					"description": "State",
					"type": "string"
				},
				"zipcode": {
					"description": "ZipCode",
					"type": "string"
				},
				"county": {
					"description": "County",
					"type": "string"
				},
				"country": {
					"description": "Country",
					"type": "string"
				},
				"addressType": {
					"description": "Address Type (LINE, FAN, CONTACT)",
					"type": "string",
					"enum": [
						"LINE",
						"FAN",
						"CONTACT"
					]
				},
				"usage": {
					"description": "Address Usage (BILLING, MAILING, SHIPPING, PRIMARY, HOME, WORK, OTHER, PREPAID)",
					"type": "string",
					"enum": [
						"BILLING",
						"MAILING",
						"SHIPPING",
						"PRIMARY",
						"HOME",
						"OTHER"
					]
				}
			}
		},
		"PhoneNumberDetails": {
			"type": "object",
			"properties": {
				"accountNumber": {
					"description": "Customer Account Number",
					"type": "string"
				},
				"lineId": {
					"description": "Customer Line ID",
					"type": "string"
				},
				"ccid": {
					"description": "Common Customer Identifier(CCID)",
					"type": "string"
				},
				"msisdn": {
					"description": "MSISDN",
					"type": "string"
				},
				"phoneNumber": {
					"description": "Phone Number",
					"type": "string"
				},
				"phoneType": {
					"description": "Phone number Type (LINE, FAN, CONTACT)",
					"type": "string",
					"enum": [
						"LINE",
						"FAN",
						"CONTACT"
					]
				},
				"usage": {
					"description": "Phone Number Usage (BILLING, MAILING, SHIPPING, PRIMARY, HOME, WORK, OTHER, PREPAID)",
					"type": "string",
					"enum": [
						"BILLING",
						"MAILING",
						"SHIPPING",
						"PRIMARY",
						"HOME",
						"OTHER"
					]
				}
			}
		},
		"EmailDetails": {
			"type": "object",
			"properties": {
				"accountNumber": {
					"description": "Customer Account Number",
					"type": "string"
				},
				"lineId": {
					"description": "Customer Line ID",
					"type": "string"
				},
				"ccid": {
					"description": "Common Customer Identifier(CCID)",
					"type": "string"
				},
				"msisdn": {
					"description": "MSISDN",
					"type": "string"
				},
				"email": {
					"description": "Email Address",
					"type": "string"
				},
				"emailVerifiedIndicator": {
					"description": "Email Address verification indicator",
					"type": "string",
					"enum": [
						"Y",
						"N"
					]
				},
				"softBounceIndicator": {
					"description": "Soft Bounce Indicator ( Y or N) ",
					"type": "string",
					"enum": [
						"Y",
						"N"
					]
				},
				"hardBounceIndicator": {
					"description": "Hard Bounce Indicator ( Y or N) ",
					"type": "string",
					"enum": [
						"Y",
						"N"
					]
				},
				"hardBounceCount": {
					"description": "Hard Bounce Count",
					"type": "number"
				},
				"emailType": {
					"description": "Email Type (LINE, FAN, CONTACT)",
					"type": "string",
					"enum": [
						"LINE",
						"FAN",
						"CONTACT"
					]
				},
				"usage": {
					"description": "Email Usage (BILLING, MAILING, SHIPPING, PRIMARY, HOME, WORK, OTHER, PREPAID)",
					"type": "string",
					"enum": [
						"BILLING",
						"MAILING",
						"SHIPPING",
						"PRIMARY",
						"HOME",
						"OTHER"
					]
				}
			}
		},
		"PrivacyPreferenceDetails": {
			"type": "object",
			"properties": {
				"accountNumber": {
					"description": "Customer Account Number",
					"type": "string"
				},
				"ccid": {
					"description": "Common Customer Identifier(CCID)",
					"type": "string"
				},
				"lineId": {
					"description": "Customer Line ID",
					"type": "string"
				},
				"languagePreference": {
					"description": "Language Preference ( English - en , Spanish - es)",
					"type": "string",
					"enum": [
						"en",
						"es"
					]
				},
				"preferredContactMethod": {
					"description": " Preferred Contact method ( i.e. Email, SMS, VoiceMail, Mail, Push App etc.)",
					"type": "string",
					"enum": [
						"EMAIL",
						"SMS",
						"VOICEMAIL",
						"MAIL",
						"APPPUSH",
						"PHONE"
					]
				},
				"preferredContactTimeZone": {
					"description": " Preferred Time Zone( i.e. EST, PST, MST, CST,HAST, AKDT etc.)",
					"type": "string",
					"enum": [
						"EST",
						"CST",
						"MST",
						"PST",
						"HAST",
						"AKDT"
					]
				},
				"billLanguagePreference": {
					"description": "Bill Language Preference",
					"type": "string",
					"enum": [
						"Y",
						"N"
					]
				},
				"mailingPreference": {
					"description": "Mailing Preference Flag (Y, N)",
					"type": "string",
					"enum": [
						"Y",
						"N"
					]
				},
				"emailPreference": {
					"description": "Email Preference Flag (Y, N)",
					"type": "string",
					"enum": [
						"Y",
						"N"
					]
				},
				"phonePreference": {
					"description": "Phone Preference Flag (Y, N)",
					"type": "string",
					"enum": [
						"Y",
						"N"
					]
				},
				"voicemailPreference": {
					"description": "Voicemail Preference Flag (Y, N)",
					"type": "string",
					"enum": [
						"Y",
						"N"
					]
				},
				"SMSPreference": {
					"description": "SMS Preference Flag (Y, N)",
					"type": "string",
					"enum": [
						"Y",
						"N"
					]
				},
				"marketingLanguagePreference": {
					"description": "Marketing Language Preference Flag (Y,N)",
					"type": "string",
					"enum": [
						"Y",
						"N"
					]
				},
				"annualPrivacyNoticePreference": {
					"description": "Annual Privacy Notice Preference Flag (Y, N)",
					"type": "string",
					"enum": [
						"Y",
						"N"
					]
				},
				"appPushPreference": {
					"description": "T-Mobile Application Push Preference Flag (Y, N)",
					"type": "string",
					"enum": [
						"Y",
						"N"
					]
				},
				"dataUsageContentPreference": {
					"description": "Data Usage Content Preference (Y, N)",
					"type": "string",
					"enum": [
						"Y",
						"N"
					]
				},
				"tmobilePromotionsProductsConsent": {
					"description": "Preference for communication about T-Mobile promotions and products to opt-in and opt-out of, that will be delivered through the preferred communication method, as indicated by the customer.",
					"type": "string",
					"enum": [
						"Y",
						"N"
					]
				},
				"thirdPartyPromotionsProductsConsent": {
					"description": "Preference for communication about third party promotions and products to opt-in and opt-out of, that will be delivered through the preferred communication method, as indicated by the customer",
					"type": "string",
					"enum": [
						"Y",
						"N"
					]
				},
				"preferredContactDateTime": {
					"type": "array",
					"items": {
						"$ref": "#/definitions/PreferredDateTimeDetails"
					}
				}
			}
		},
		"PreferredDateTimeDetails": {
			"type": "object",
			"properties": {
				"preferredDay": {
					"description": "Preferred Day of the week (Sunday to Saturday)",
					"type": "string"
				},
				"preferredStartTime": {
					"description": "Preferred Start Time in hh:mm format",
					"type": "string"
				},
				"preferredEndTime": {
					"description": "Preferred End Time in hh:mm format",
					"type": "string"
				},
				"anyDay": {
					"description": "Any Day",
					"type": "boolean"
				},
				"anyTime": {
					"description": "Any Time",
					"type": "boolean"
				}
			}
		},
		"Account": {
			"type": "object",
			"properties": {
				"accountNumber": {
					"description": "Customer Account Number",
					"type": "string"
				},
				"addresses": {
					"type": "array",
					"items": {
						"$ref": "#/definitions/AddressDetails"
					}
				},
				"emails": {
					"type": "array",
					"items": {
						"$ref": "#/definitions/EmailDetails"
					}
				},
				"phoneNumbers": {
					"type": "array",
					"items": {
						"$ref": "#/definitions/PhoneNumberDetails"
					}
				},
				"privacyPreferences": {
					"type": "array",
					"items": {
						"$ref": "#/definitions/PrivacyPreferenceDetails"
					}
				}
			}
		},
		"Line": {
			"type": "object",
			"properties": {
				"lineId": {
					"description": "Customer Line Id",
					"type": "string"
				},
				"msisdn": {
					"description": "Mobile Subscriber ISDN Number",
					"type": "string"
				},
				"addresses": {
					"type": "array",
					"items": {
						"$ref": "#/definitions/AddressDetails"
					}
				},
				"emails": {
					"type": "array",
					"items": {
						"$ref": "#/definitions/EmailDetails"
					}
				},
				"phoneNumbers": {
					"type": "array",
					"items": {
						"$ref": "#/definitions/PhoneNumberDetails"
					}
				},
				"privacyPreferences": {
					"type": "array",
					"items": {
						"$ref": "#/definitions/PrivacyPreferenceDetails"
					}
				}
			}
		},
		"errors": {
			"description": "a collection of errors",
			"type": "array",
			"items": {
				"$ref": "#/definitions/responseError"
			}
		},
		"responseError": {
			"description": "Used to pass error information in a response.",
			"type": "object",
			"properties": {
				"code": {
					"description": "Used to pass error codes",
					"type": "string"
				},
				"userMessage": {
					"description": "Use to pass human friendly information to the user.",
					"type": "string"
				},
				"systemMessage": {
					"description": "Used to pass system information.",
					"type": "string"
				}
			}
		}
	},
	"parameters": {
		"AuthorizationParam": {
			"name": "Authorization",
			"in": "header",
			"required": true,
			"type": "string"
		},
		"Content-typeParam": {
			"name": "Content-type",
			"in": "header",
			"required": true,
			"type": "string"
		},
		"AcceptParam": {
			"name": "Accept",
			"in": "header",
			"required": false,
			"type": "string"
		},
		"applicationuseridParam": {
			"name": "applicationuserid",
			"in": "header",
			"required": false,
			"type": "string"
		},
		"sessionidParam": {
			"name": "sessionid",
			"in": "header",
			"required": false,
			"type": "string"
		},
		"interactionidParam": {
			"name": "interactionid",
			"in": "header",
			"required": false,
			"type": "string"
		},
		"activityidParam": {
			"name": "activityid",
			"in": "header",
			"required": true,
			"type": "string"
		},
		"workflowidParam": {
			"name": "workflowid",
			"in": "header",
			"required": false,
			"type": "string"
		},
		"timestampParam": {
			"name": "timestamp",
			"in": "header",
			"required": false,
			"type": "string",
			"format": "date-time"
		},
		"segmentationidParam": {
			"name": "segmentationid",
			"in": "header",
			"required": false,
			"type": "string"
		},
		"authcustomeridParam": {
			"name": "authcustomerid",
			"in": "header",
			"required": false,
			"type": "string"
		},
		"authfinancialaccountidParam": {
			"name": "authfinancialaccountid",
			"in": "header",
			"required": false,
			"type": "string"
		},
		"authlineofserviceidParam": {
			"name": "authlineofserviceid",
			"in": "header",
			"required": false,
			"type": "string"
		},
		"OriginParam": {
			"name": "Origin",
			"in": "header",
			"required": false,
			"type": "string"
		},
		"serviceTransactionIdParam": {
			"name": "ServiceTransactionId",
			"in": "header",
			"required": false,
			"type": "string"
		},
		"applicationIdParam": {
			"name": "applicationId",
			"in": "header",
			"required": true,
			"type": "string"
		},
		"senderIdParam": {
			"name": "senderId",
			"in": "header",
			"type": "string",
			"required": false
		},
		"channelIdParam": {
			"name": "channelId",
			"in": "header",
			"required": false,
			"type": "string"
		}
	},
	"securityDefinitions": {
		"Oauth": {
			"type": "oauth2",
			"tokenUrl": "https://dlab03.core.op.api.t-mobile.com:443/v2/oauth2/accesstoken?grant_type=client_credentials",
			"flow": "application",
			"scopes": {}
		}
	}
}