{
    "swagger": "2.0",
    "info": {
        "title": "TMMMsisdnChangeEvents",
        "description": "DEEP.io Publish Event API for SubscriberEvents.",
        "version": "1.0.3",
        "contact": {
            "name": "Roger Lee",
            "url": "http://www.t-mobile.com",
            "email": "Roger.Lee69@T-Mobile.com"
        },
        "license": {
            "name": "Proprietary software",
            "url": "https://en.wikipedia.org/wiki/Proprietary_software"
        },
        "termsOfService": "https://www.t-mobile.com/templates/popup.aspx?PAsset=Ftr_Ftr_TermsAndConditions",
        "x-createdBy": {
            "dateCreated": "Wed Jul  3 02:08:24 2019",
            "createdBy": "rlee69",
            "application": "Recite",
            "appVersion": "1.1.1.3017",
            "documentId": "8f506069-a6d2-475d-b598-28f1d1471290",
            "status": "Development - Test",
            "businessCapabilityModel": "5.0",
            "classification": "5.0 Customer Information Management",
            "profile": "Core Business Capability Service",
            "serviceLayer": "Resource - CustomerManagement"
        }
    },
    "x-servers": [
        {
            "url": "http://127.0.0.1/",
            "description": "Test Server 1"
        }
    ],
    "tags": [
        {
            "name": "publishEvent",
            "description": "Provides a method to create an instance of the event resource."
        }
    ],
    "host": "dev01.api.t-mobile.com",
    "basePath": "/deep/v1/events",
    "schemes": [
        "https"
    ],
    "paths": {
        "/{eventType}": {
            "post": {
                "tags": [
                    "publishEvent"
                ],
                "x-api-pattern": "ExecuteFunction",
                "summary": "A put for the event resource using Digital Archecture's CreateByName pattern.",
                "description": "Provides a method to create an instance of the event resource.",
                "operationId": "publishEvent",
                "consumes": [],
                "produces": [],
                "parameters": [
                    {
                        "name": "eventType",
                        "in": "path",
                        "description": "Unique name of the event",
                        "required": true,
                        "type": "string",
                        "pattern": "^[\\S ]+$",
                        "x-example": {
                            "eventType": "SubscriberEvent"
                        }
                    },
                    {
                        "name": "event",
                        "in": "body",
                        "description": "Body that you want to publish",
                        "required": true,
                        "schema": {
                            "$ref": "#/definitions/Event"
                        },
                        "x-example": {
                            "auditInfo": "null",
                            "eventId": "Event-123",
                            "headerReference": "null",
                            "payload": {},
                            "eventVersion": "1.0",
                            "eventTime": "2017-03-27T16:20:11.108Z",
                            "eventType": "Activation",
                            "eventProducerId": "Producer1",
                            "specifications": "null"
                        }
                    },
                    {
                        "name": "Accept",
                        "in": "header",
                        "description": "Preferred content type _ default to application/json",
                        "x-example": "application/json",
                        "required": false,
                        "type": "string",
                        "minLength": 1,
                        "maxLength": 256,
                        "pattern": "^[ \\S]+$"
                    },
                    {
                        "name": "Accept-Encoding",
                        "in": "header",
                        "description": "List of acceptable encodings. See HTTP compression.",
                        "x-example": "gzip,deflate",
                        "required": false,
                        "type": "string",
                        "minLength": 1,
                        "maxLength": 256,
                        "pattern": "^[\\S ]*$"
                    },
                    {
                        "name": "Accept-Language",
                        "in": "header",
                        "description": "List of acceptable human languages for response",
                        "x-example": "en-us,en;q=0.5",
                        "required": false,
                        "type": "string",
                        "minLength": 1,
                        "maxLength": 256,
                        "pattern": "^[\\S ]*$"
                    },
                    {
                        "name": "Authorization",
                        "in": "header",
                        "description": "The HTTP Authorization request header contains the credentials to authenticate a user agent with a server.",
                        "x-example": "Bearer mF_9.B5f-4.1JqM",
                        "required": true,
                        "type": "string",
                        "minLength": 1,
                        "maxLength": 256,
                        "pattern": "^[\\S ]+$"
                    },
                    {
                        "name": "Content-Type",
                        "in": "header",
                        "description": "The MIME type of this content",
                        "x-example": "text/xml",
                        "required": true,
                        "type": "string",
                        "minLength": 1,
                        "maxLength": 256,
                        "pattern": "^[ \\S]+$"
                    },
                    {
                        "name": "Date",
                        "in": "header",
                        "description": "The Date general HTTP header contains the date and time at which the message was originated.",
                        "x-example": "Mon, 05 Mar 2018 16:38:08 GMT",
                        "required": false,
                        "type": "string",
                        "format": "date-time",
                        "pattern": "^(Mon|Tue|Wed|Thu|Fri|Sat|Sun), [0-3]{1}[0-9]{1} (Jan|Feb|Mar|Apr|May|Jun|Jul|Aug|Sep|Oct|Nov|Dec) [1-3][0-9]{3} [0-2][0-9]:[0-6][0-9]:[0-6][0-9] GMT$"
                    },
                    {
                        "name": "activity-id",
                        "in": "header",
                        "description": "Unique id alphanumeric value generated and sent by the partner to identify every the service request uniquely. Sample: XyzA:D1s5s1i-X6AFRvfiPBfs-1234  Pass as is to downstream calls.",
                        "x-example": "c34e7acd-384b-4c22-8b02-ba3963682508",
                        "required": false,
                        "type": "string",
                        "minLength": 1,
                        "maxLength": 256,
                        "pattern": "^[\\S]*$"
                    },
                    {
                        "name": "interaction-id",
                        "in": "header",
                        "description": "Alphanumeric value represent a common transaction id across all calls made from UI, while completing all business activity needs of a particular customer.",
                        "x-example": "cc688d54-50d1-49d4-8c5d-95459d1172e8",
                        "required": false,
                        "type": "string",
                        "minLength": 1,
                        "maxLength": 256,
                        "pattern": "^[\\S]*$"
                    },
                    {
                        "name": "service-transaction-id",
                        "in": "header",
                        "description": "Request ID echoed back by server",
                        "x-example": "23409209723",
                        "required": false,
                        "type": "string",
                        "minLength": 1,
                        "maxLength": 256,
                        "pattern": "^[\\S]*$"
                    },
                    {
                        "name": "session-id",
                        "in": "header",
                        "description": "A value populated by the sender used to track the transactions that occur during a session, a long-lasting interaction that ismaintained by the sender.",
                        "x-example": "350b91ec-4a64-4b10-a3f3-a78c8db3924a",
                        "required": false,
                        "type": "string",
                        "minLength": 1,
                        "maxLength": 256,
                        "pattern": "^[\\S]*$"
                    },
                    {
                        "name": "timestamp",
                        "in": "header",
                        "description": "ms since 1/1/70 adjusted to GMT",
                        "x-example": "1524599536",
                        "required": false,
                        "type": "integer",
                        "format": "int64",
                        "minimum": 0,
                        "maximum": 999999999999,
                        "pattern": "^[\\d]*$"
                    },
                    {
                        "name": "workflow-id",
                        "in": "header",
                        "description": "Business Use Case",
                        "x-example": "ACTIVATION",
                        "required": false,
                        "type": "string",
                        "minLength": 1,
                        "maxLength": 256,
                        "pattern": "^[\\S]*$"
                    },
                    {
                        "name": "x-auth-originator",
                        "in": "header",
                        "description": "API chain initiating callers access token",
                        "x-example": "c34e7acd-384b-4c22-8b02-ba3963682508",
                        "required": false,
                        "type": "string",
                        "minLength": 1,
                        "maxLength": 256,
                        "pattern": "^[\\S]*$"
                    },
                    {
                        "name": "x-authorization",
                        "in": "header",
                        "description": "Contains Proof of Possession token generated by API caller",
                        "x-example": "c34e7acd-384b-4c22-8b02-ba3963682508",
                        "required": false,
                        "type": "string",
                        "minLength": 1,
                        "maxLength": 256,
                        "pattern": "^[\\S ]*$"
                    }
                ],
                "responses": {
                    "200": {
                        "description": "Message Published Successfully.",
                        "schema": {
                            "description": "string is a predefined object from an igniteXml model - cabinet 1001760002 build 1001760247 key 1001760477",
                            "title": "simpleResponse",
                            "type": "string"
                        },
                        "examples": {
                            "string": "OK"
                        },
                        "headers": {
                            "Cache-Control": {
                                "type": "string",
                                "minLength": 1,
                                "maxLength": 256,
                                "pattern": "^[\\S]*$",
                                "description": "Cache policy supported for the resource by the server",
                                "x-example": "no-cache"
                            },
                            "Content-Encoding": {
                                "type": "string",
                                "minLength": 1,
                                "maxLength": 15,
                                "pattern": "^[\\S]*$",
                                "description": "The type of encoding used on the data",
                                "x-example": "gzip,deflate"
                            },
                            "Content-Language": {
                                "type": "string",
                                "minLength": 1,
                                "maxLength": 15,
                                "pattern": "^[\\S ]*$",
                                "description": "The natural language or languages of the intended audience for the enclosed content",
                                "x-example": "da"
                            },
                            "Content-Length": {
                                "type": "integer",
                                "format": "int64",
                                "minimum": 0,
                                "pattern": "^[\\d]*$",
                                "description": "Length of the response body in octets; not supported if Transfer-Endoding = chunked",
                                "x-example": 9112300000003
                            },
                            "Content-Type": {
                                "type": "string",
                                "minLength": 1,
                                "maxLength": 256,
                                "pattern": "^[ \\S]+$",
                                "description": "The MIME type of this content",
                                "x-example": "text/xml"
                            },
                            "Date": {
                                "type": "string",
                                "format": "date-time",
                                "pattern": "^(Mon|Tue|Wed|Thu|Fri|Sat|Sun), [0-3]{1}[0-9]{1} (Jan|Feb|Mar|Apr|May|Jun|Jul|Aug|Sep|Oct|Nov|Dec) [1-3][0-9]{3} [0-2][0-9]:[0-6][0-9]:[0-6][0-9] GMT$",
                                "description": "The Date general HTTP header contains the date and time at which the message was originated.",
                                "x-example": "Mon, 05 Mar 2018 16:38:08 GMT"
                            },
                            "ETag": {
                                "type": "string",
                                "minLength": 1,
                                "maxLength": 256,
                                "pattern": "^[\\S]*$",
                                "description": "The ETag header specifies the unique entity tag value for the returned resource.",
                                "x-example": "*"
                            },
                            "Last-Modified": {
                                "type": "string",
                                "format": "date-time",
                                "pattern": "^(Mon|Tue|Wed|Thu|Fri|Sat|Sun), [0-3]{1}[0-9]{1} (Jan|Feb|Mar|Apr|May|Jun|Jul|Aug|Sep|Oct|Nov|Dec) [1-3][0-9]{3} [0-2][0-9]:[0-6][0-9]:[0-6][0-9] GMT$",
                                "description": "The Last-Modified entity-header field indicates the date and time at which the origin server believes the variant was last modified.",
                                "x-example": "Mon, 05 Mar 2018 16:38:08 GMT"
                            },
                            "Transfer-Encoding": {
                                "type": "string",
                                "minLength": 1,
                                "maxLength": 15,
                                "pattern": "^[\\S]*$",
                                "description": "The form of encoding used to safely transfer the entity to the user. Currently defined methods are: chunked, compress, deflate, gzip, identity.",
                                "x-example": "chunked"
                            },
                            "service-transaction-id": {
                                "type": "string",
                                "minLength": 1,
                                "maxLength": 256,
                                "pattern": "^[\\S]*$",
                                "description": "Request ID echoed back by server",
                                "x-example": "23409209723"
                            }
                        }
                    },
                    "400": {
                        "description": "Not a valid Request",
                        "schema": {
                            "$ref": "#/definitions/Error"
                        },
                        "examples": {
                            "application/json": {
                                "code": "400",
                                "userMessage": "Not a valid Request",
                                "systemMessage": "Not a valid Request",
                                "detailLink": "http://www.tmus.com"
                            }
                        },
                        "headers": {}
                    },
                    "401": {
                        "description": "Unauthorized - Provided token is not a valid token",
                        "schema": {
                            "$ref": "#/definitions/Error"
                        },
                        "examples": {
                            "application/json": {
                                "code": "401",
                                "userMessage": "Unauthorized - Provided token is not a valid token",
                                "systemMessage": "Unauthorized - Provided token is not a valid token",
                                "detailLink": "http://www.tmus.com"
                            }
                        },
                        "headers": {}
                    },
                    "404": {
                        "description": "Resource not found",
                        "schema": {
                            "$ref": "#/definitions/Error"
                        },
                        "examples": {
                            "application/json": {
                                "code": "404",
                                "userMessage": "Resource not found",
                                "systemMessage": "Resource not found",
                                "detailLink": "http://www.tmus.com"
                            }
                        },
                        "headers": {}
                    },
                    "405": {
                        "description": "Method Not Allowed",
                        "schema": {
                            "$ref": "#/definitions/Error"
                        },
                        "examples": {
                            "application/json": {
                                "code": "405",
                                "userMessage": "Method Not Allowed",
                                "systemMessage": "Method Not Allowed",
                                "detailLink": "http://www.tmus.com"
                            }
                        },
                        "headers": {
                            "Allow": {
                                "type": "string",
                                "minLength": 1,
                                "maxLength": 256,
                                "pattern": "^[\\S]*$",
                                "description": "list of supported methods for URI",
                                "x-example": "GET"
                            },
                            "service-transaction-id": {
                                "type": "string",
                                "minLength": 1,
                                "maxLength": 256,
                                "pattern": "^[\\S]*$",
                                "description": "Request ID echoed back by server",
                                "x-example": "23409209723"
                            }
                        }
                    },
                    "409": {
                        "description": "Invalid data",
                        "schema": {
                            "$ref": "#/definitions/Error"
                        },
                        "examples": {
                            "application/json": {
                                "code": "409",
                                "userMessage": "Invalid data",
                                "systemMessage": "Invalid data",
                                "detailLink": "http://www.tmus.com"
                            }
                        },
                        "headers": {}
                    },
                    "415": {
                        "description": "Unsupported Media Type",
                        "schema": {
                            "$ref": "#/definitions/Error"
                        },
                        "examples": {
                            "application/json": {
                                "code": "415",
                                "userMessage": "Unsupported Media Type",
                                "systemMessage": "Unsupported Media Type",
                                "detailLink": "http://www.tmus.com"
                            }
                        },
                        "headers": {}
                    },
                    "500": {
                        "description": "Error while sending message to Queue OR Error happened inside producer",
                        "schema": {
                            "$ref": "#/definitions/Error"
                        },
                        "examples": {
                            "application/json": {
                                "code": "500",
                                "userMessage": "Error while sending message to Queue OR Error happened inside producer",
                                "systemMessage": "Error while sending message to Queue OR Error happened inside producer",
                                "detailLink": "http://www.tmus.com"
                            }
                        },
                        "headers": {}
                    },
                    "503": {
                        "description": "Contract is defined but payload posted is not valid as per uploaded contract",
                        "schema": {
                            "$ref": "#/definitions/Error"
                        },
                        "examples": {
                            "application/json": {
                                "code": "503",
                                "userMessage": "Contract is defined but payload posted is not valid as per uploaded contract",
                                "systemMessage": "Contract is defined but payload posted is not valid as per uploaded contract",
                                "detailLink": "http://www.tmus.com"
                            }
                        },
                        "headers": {}
                    }
                },
                "security": [
                    {
                        "JWT": []
                    }
                ]
            }
        }
    },
    "definitions": {
        "AuditInfo": {
            "description": "Audit information used to search specific event. All elements included in this complex element will be searchable in DEEP.io.",
            "example": "null",
            "type": "object",
            "properties": {
                "accountNumber": {
                    "type": "string",
                    "minLength": 1,
                    "maxLength": 100,
                    "pattern": "^[0-9]*$",
                    "description": "The financial account number.",
                    "example": "123456789"
                },
                "batchId": {
                    "type": "string",
                    "minLength": 1,
                    "maxLength": 100,
                    "pattern": "^[\\S ]+$",
                    "description": "Identifer of batch job.",
                    "example": "batch0"
                },
                "customerId": {
                    "type": "string",
                    "minLength": 1,
                    "maxLength": 15,
                    "pattern": "^[A-Z0-9-]*$",
                    "description": "Uniquely identifies the Customer.",
                    "example": "1-4XXEH"
                },
                "iamUniqueId": {
                    "type": "string",
                    "minLength": 1,
                    "maxLength": 100,
                    "pattern": "^[a-zA-Z\\d\\-]*$",
                    "description": "Unique identifier for Identity and Access Management.",
                    "example": "U-253c25eb-3431-4ae4-b2f3-59fb6fe72bf6"
                },
                "lineId": {
                    "type": "string",
                    "minLength": 1,
                    "maxLength": 100,
                    "pattern": "^[\\S ]+$",
                    "description": "Uniquely identifies a  line of service.",
                    "example": "1234567890"
                },
                "orderId": {
                    "type": "string",
                    "minLength": 1,
                    "maxLength": 100,
                    "pattern": "^[\\S ]+$",
                    "description": "Identifier of order.",
                    "example": "order1"
                },
                "phoneNumber": {
                    "type": "string",
                    "minLength": 1,
                    "maxLength": 100,
                    "pattern": "^[0-9]*$",
                    "description": "The phone number (MSISDN) associated with the line of service.",
                    "example": "1234567890"
                },
                "universalLineId": {
                    "type": "string",
                    "minLength": 1,
                    "maxLength": 100,
                    "pattern": "^[\\S ]+$",
                    "description": "ULID - Universal identifier of the LineofService, as defined in Customer Hub.",
                    "example": "1234567890"
                }
            }
        },
        "Error": {
            "description": "As defined in http://api-standards.apps.px-npe01.cf.t-mobile.com/http/status-codes/error-response-format/",
            "type": "object",
            "required": [
                "code",
                "userMessage"
            ],
            "properties": {
                "code": {
                    "type": "string",
                    "pattern": "^[\\S ]+$",
                    "description": "A succinct, domain-specific, human-readable text string to identify the type of error for the given status code",
                    "example": "ProductNotFound"
                },
                "userMessage": {
                    "type": "string",
                    "pattern": "^[\\S ]+$",
                    "description": "A human-readable message describing the error.",
                    "example": "Failed to find product."
                },
                "systemMessage": {
                    "type": "string",
                    "description": "Text that provides a more detailed technical explanation of the error",
                    "example": "PRODUCT_NOT_FOUND"
                },
                "detailLink": {
                    "type": "string",
                    "description": "link to custom information providing greater detail on error or errors",
                    "example": "http://aaa.bbb.ccc/"
                }
            }
        },
        "Event": {
            "description": "Body that you want to publish",
            "example": {
                "auditInfo": {},
                "eventId": "Event-123",
                "eventProducerId": "Producer1",
                "eventTime": "2017-03-27T16:20:11.108Z",
                "eventType": "SubscriberEvent",
                "eventVersion": "1.0",
                "headerReference": {},
                "payload": {
                    "msisdnChange": {
                        "tmoId": "U-253c25eb-3431-4ae4-b2f3-59fb6fe72bf6",
                        "customerId": "1-4XXEH",
                        "billingAccountNumber": "932932727",
                        "newMsisdn": "2017032555",
                        "oldMsisdn": "2017032777",
                        "effectiveDate": "2017-03-27T16:20:11.108Z"
                    }
                },
                "specifications": "null"
            },
            "type": "object",
            "required": [
                "eventProducerId",
                "eventTime",
                "eventType",
                "payload"
            ],
            "properties": {
                "auditInfo": {
                    "$ref": "#/definitions/AuditInfo"
                },
                "eventId": {
                    "type": "string",
                    "minLength": 1,
                    "maxLength": 100,
                    "pattern": "^[\\S ]+$",
                    "description": "Unique identifier for the event generated by the event producer. This element will be searchable in DEEP.io UI",
                    "example": "Event-123"
                },
                "eventProducerId": {
                    "type": "string",
                    "minLength": 1,
                    "maxLength": 100,
                    "pattern": "^[\\S ]+$",
                    "description": "Unique identifier for the producer of the event.",
                    "example": "Producer1"
                },
                "eventTime": {
                    "type": "string",
                    "format": "date-time",
                    "pattern": "^[\\S ]+$",
                    "description": "The date and time that the event occurred.",
                    "example": "2017-03-27T16:20:11.108Z"
                },
                "eventType": {
                    "type": "string",
                    "minLength": 1,
                    "maxLength": 100,
                    "pattern": "^[\\S ]+$",
                    "description": "Event Name that you want to publish",
                    "example": "Activation"
                },
                "eventVersion": {
                    "type": "string",
                    "minLength": 1,
                    "maxLength": 100,
                    "pattern": "^[\\S ]+$",
                    "description": "version of the event , will be used to distinguish different versions by a consumer",
                    "example": "1.0"
                },
                "headerReference": {
                    "$ref": "#/definitions/HeaderReference"
                },
                "payload": {
                    "$ref": "#/definitions/Payload"
                },
                "specifications": {
                    "type": "array",
                    "description": "Name value pair.",
                    "items": {
                        "$ref": "#/definitions/Specifications"
                    }
                }
            }
        },
        "HeaderReference": {
            "description": "standard HTTP header elements to be able to deliver them to consumer without interruption",
            "example": "null",
            "type": "object",
            "properties": {
                "activityId": {
                    "type": "string",
                    "minLength": 1,
                    "maxLength": 100,
                    "pattern": "^[\\S ]+$",
                    "description": "Unique id alphanumeric value generated and sent by the partner to identify every service request uniquely.",
                    "example": "null"
                },
                "applicationId": {
                    "type": "string",
                    "minLength": 1,
                    "maxLength": 100,
                    "pattern": "^[\\S ]+$",
                    "description": "Identifies the application, system or platform name that is being used to initiate the transaction  related to this request.",
                    "example": "null"
                },
                "applicationUserId": {
                    "type": "string",
                    "minLength": 1,
                    "maxLength": 100,
                    "pattern": "^[\\S ]+$",
                    "description": "NT id of the rep who is managing the transaction from CARE/RETAIL channels. Required for assisted channels, not required for unassisted channels.",
                    "example": "null"
                },
                "authCustomerId": {
                    "type": "string",
                    "minLength": 1,
                    "maxLength": 100,
                    "pattern": "^[\\S ]+$",
                    "description": "Customer Id of Tmo customer that is being served/using the application. (Required for non anonymous flows)",
                    "example": "null"
                },
                "authFinancialAccountId": {
                    "type": "string",
                    "minLength": 1,
                    "maxLength": 100,
                    "pattern": "^[\\S ]+$",
                    "description": "Financial Account Id that the customer that is being served/using the application is working on.  (Required for non anonymous flows)",
                    "example": "null"
                },
                "authLineOfServiceId": {
                    "type": "string",
                    "minLength": 1,
                    "maxLength": 100,
                    "pattern": "^[\\S ]+$",
                    "description": "Line of service Id , within the Financial Account of the customer that is being served/using the application is working on. (Required for non anonymous flows)",
                    "example": "null"
                },
                "channelId": {
                    "type": "string",
                    "minLength": 1,
                    "maxLength": 100,
                    "pattern": "^[\\S ]+$",
                    "description": "Identifies the business unit or sales channel.",
                    "example": "null"
                },
                "dealerCode": {
                    "type": "string",
                    "minLength": 1,
                    "maxLength": 100,
                    "pattern": "^[\\S ]+$",
                    "description": "Uniquely identifies the dealer/rep user.",
                    "example": "null"
                },
                "interactionId": {
                    "type": "string",
                    "minLength": 1,
                    "maxLength": 100,
                    "pattern": "^[\\S ]+$",
                    "description": "Alphanumeric value represent a common transaction id across all calls made from UI, while completing all business activity needs of a particular customer.",
                    "example": "null"
                },
                "masterDealerCode": {
                    "type": "string",
                    "minLength": 1,
                    "maxLength": 100,
                    "pattern": "^[\\S ]+$",
                    "description": "Code that uniquely identifies the master dealer for a large retail partner, such as Apple or Costco. Will not be applicable for TMo channels.",
                    "example": "null"
                },
                "segmentationId": {
                    "type": "string",
                    "minLength": 1,
                    "maxLength": 100,
                    "pattern": "^[\\S ]+$",
                    "description": "Identifier of customers primary data center.",
                    "example": "null"
                },
                "senderId": {
                    "type": "string",
                    "minLength": 1,
                    "maxLength": 100,
                    "pattern": "^[\\S ]+$",
                    "description": "Uniquely identifies an Operation consumerPartner.",
                    "example": "null"
                },
                "sessionId": {
                    "type": "string",
                    "minLength": 1,
                    "maxLength": 100,
                    "pattern": "^[\\S ]+$",
                    "description": "see deep io swagger for detailed description",
                    "example": "null"
                },
                "storeId": {
                    "type": "string",
                    "minLength": 1,
                    "maxLength": 100,
                    "pattern": "^[\\S ]+$",
                    "description": "Unique identifier for the retail store location.",
                    "example": "null"
                },
                "terminalId": {
                    "type": "string",
                    "minLength": 1,
                    "maxLength": 100,
                    "pattern": "^[\\S ]+$",
                    "description": "Unique identifier for the retail store terminal.",
                    "example": "null"
                },
                "tillId": {
                    "type": "string",
                    "minLength": 1,
                    "maxLength": 100,
                    "pattern": "^[\\S ]+$",
                    "description": "Unique identifier for the retail store terminal till number.",
                    "example": "null"
                },
                "timestamp": {
                    "type": "string",
                    "format": "date-time",
                    "pattern": "^[\\S ]+$",
                    "description": "A timestamp provided by sender to track their workflow.",
                    "example": "null"
                },
                "workflowId": {
                    "type": "string",
                    "minLength": 1,
                    "maxLength": 100,
                    "pattern": "^[\\S ]+$",
                    "description": "Name of business purpose/flow, for which the API is being invoked.",
                    "example": "null"
                }
            }
        },
        "MsisdnChange": {
            "description": "TMM MsisdnChange Details",
            "example": {
                "auditInfo": {},
                "eventId": "Event-123",
                "eventProducerId": "Producer1",
                "eventTime": "2017-03-27T16:20:11.108Z",
                "eventType": "SubscriberEvent",
                "eventVersion": "1.0",
                "headerReference": {},
                "payload": {
                    "msisdnChange": {
                        "tmoId": "U-253c25eb-3431-4ae4-b2f3-59fb6fe72bf6",
                        "customerId": "1-4XXEH",
                        "billingAccountNumber": "932932727",
                        "newMsisdn": "2017032555",
                        "oldMsisdn": "2017032777",
                        "effectiveDate": "2017-03-27T16:20:11.108Z"
                    }
                },
                "specifications": "null"
            },
            "type": "object",
            "required": [
                "customerId",
                "billingAccountNumber",
                "newMsisdn",
                "oldMsisdn",
                "effectiveDate"
            ],
            "properties": {
                "customerId": {
                    "type": "string",
                    "minLength": 1,
                    "maxLength": 15,
                    "pattern": "^[A-Z0-9-]*$",
                    "description": "Common Customer Id",
                    "example": "1-4XXEH"
                },
                "billingAccountNumber": {
                    "type": "string",
                    "minLength": 1,
                    "maxLength": 100,
                    "pattern": "^[0-9]*$",
                    "description": "Account Number in Billing System",
                    "example": "123456789"
                },
                "newMsisdn": {
                    "type": "string",
                    "minLength": 1,
                    "maxLength": 100,
                    "pattern": "^[0-9]*$",
                    "description": "Ported in MSISDN",
                    "example": "2017032716"
                },
                "oldMsisdn": {
                    "type": "string",
                    "minLength": 1,
                    "maxLength": 100,
                    "pattern": "^[0-9]*$",
                    "description": "Temp MSISDN",
                    "example": "2017032777"
                },
                "effectiveDate": {
                    "type": "string",
                    "format": "date-time",
                    "description": "The date and time that msisdn change occurred.",
                    "example": "2017-03-27T16:20:11.108Z"
                }
            }
        },
        "Payload": {
            "description": "the payload",
            "example": {
                "msisdnChange": {}
            },
            "type": "object",
            "required": [
                "msisdnChange"
            ],
            "properties": {
                "msisdnChange": {
                    "$ref": "#/definitions/MsisdnChange"
                }
            }
        },
        "Specifications": {
            "description": "Name value pair.",
            "type": "object",
            "properties": {
                "name": {
                    "type": "string",
                    "minLength": 1,
                    "maxLength": 100,
                    "pattern": "^[\\S ]+$",
                    "description": "Name value pair.",
                    "example": "null"
                },
                "value": {
                    "type": "string",
                    "minLength": 1,
                    "maxLength": 256,
                    "pattern": "^[\\S ]+$",
                    "description": "Name value pair.",
                    "example": "null"
                }
            }
        }
    },
    "securityDefinitions": {
        "JWT": {
            "type": "apiKey",
            "description": "JWT is a means of representing claims to be transferred between two parties. The claims in a JWT are encoded as a JSON object that is digitally signed using JSON Web Signature (JWS) and/or encrypted using JSON Web Encryption (JWE).",
            "name": "Authorization",
            "in": "header"
        }
    }
}