{
  "swagger": "2.0",
  "info": {
    "description": "ULID API's",
    "version": "1.0.0",
    "title": "ULID API's",
    "termsOfService": "urn:tos",
    "contact": {
      "name": "SantoshPillai",
      "email": "santosh.pillai2@t-mobile.com"
    },
    "license": {
      "name": "Apache 2.0",
      "url": "http://www.apache.org/licenses/LICENSE-2.0"
    }
  },
  "schemes": [
    "https"
  ],
  "host": "dit01.api.t-mobile.com",
  "basePath": "/customer/v1/subscriber-ulid-search",
  "tags": [
    {
      "name": "subscriber-ULID-search-controller",
      "description": "subscriber-ULID-search-controller"
    }
  ],
  "paths": {
    "/lookup-ulid-by-ban-msisdn": {
      "post": {
        "tags": [
          "lookup-ulid-by-ban-msisdn"
        ],
        "x-api-pattern": "QueryResource",
        "summary": "query for ULID given BAN,MSISDN",
        "description": "This API will query for ULID given BAN,MSISDN",
        "operationId": "lookupULIDbyBanMsisdn",
        "consumes": [
          "application/json"
        ],
        "security": [
          {
            "Oauth": []
          }
        ],
        "produces": [
          "application/json"
        ],
        "parameters": [
          {
            "name": "Authorization",
            "in": "header",
            "description": "authorization token for service",
            "required": true,
            "type": "string",
            "x-example": "Bearer ewazQl6SuKmQTN5PXCS24uqO7UxX",
            "pattern": "^Bearer [a-zA-Z0-9]*$'"
          },
          {
            "name": "Content-Type",
            "in": "header",
            "description": "content-type of request body if exists, application/json expected, except for PATCH",
            "required": true,
            "type": "string",
            "x-example": "application/json; charset=UTF-8",
            "pattern": "^[a-zA-Z0-9-/;]*$"
          },
          {
            "name": "x-authorization",
            "in": "header",
            "description": "PoP token.",
            "required": false,
            "type": "string",
            "format": "string",
            "x-example": "aodsidj9038j203jd203dj230djaSFAfa3",
            "minLength": 1
          },
          {
            "name": "x-auth-originator",
            "in": "header",
            "description": "Id token.",
            "required": false,
            "type": "string",
            "format": "string",
            "x-example": "aasFAFq3fwsdgsw4GTgw442.sdjbfsdjksg2o34t.dsfbhifh9h2wf92f",
            "minLength": 1
          },
          {
            "name": "application-id",
            "in": "header",
            "description": "applicationId of calling application",
            "required": true,
            "type": "string",
            "x-example": "SecureId",
            "pattern": "^[a-zA-Z0-9]*$'"
          },
          {
            "name": "timestamp",
            "in": "header",
            "description": "timestamp",
            "required": false,
            "type": "string",
            "x-example": "1524599536"
          },
          {
            "name": "workflow-id",
            "in": "header",
            "description": "workflow-id",
            "required": false,
            "type": "string",
            "x-example": "ACTIVATION "
          },
          {
            "name": "activity-id",
            "in": "header",
            "description": "activity-id - global GUID of transaction for auditing sent from calling app",
            "required": false,
            "type": "string",
            "x-example": "c34e7acd-384b-4c22-8b02-ba3963682508",
            "pattern": "'^[a-zA-Z0-9-]*$'"
          },
          {
            "name": "application-user-id",
            "in": "header",
            "description": "application-user-id - NTID or user identifier invoking service from UI",
            "required": false,
            "type": "string",
            "x-example": "SPILLAI99"
          },
          {
            "name": "sender-id",
            "in": "header",
            "description": "sender-id - Sender Id of Calling application",
            "required": true,
            "type": "string",
            "x-example": "Care or Retail or Web",
            "pattern": "^[a-zA-Z0-9]*$'"
          },
          {
            "name": "channel-id",
            "in": "header",
            "description": "channel-id - CHANNEL of calling application",
            "required": true,
            "type": "string",
            "x-example": "Care or Retail or Web",
            "pattern": "^[a-zA-Z0-9]*$'"
          },
          {
            "name": "client-id",
            "in": "header",
            "description": "client-id",
            "required": false,
            "type": "string",
            "x-example": "CARE"
          },
          {
            "name": "session-id",
            "in": "header",
            "description": "session-id",
            "required": false,
            "type": "string",
            "x-example": "350b91ec-4a64-4b10-a3f3-a78c8db3924a"
          },
          {
            "name": "interaction-id",
            "in": "header",
            "description": "interaction-id",
            "required": false,
            "type": "string",
            "x-example": "cc688d54-50d1-49d4-8c5d-95459d1172e8"
          },
          {
            "in": "body",
            "name": "BanSubscriberSearchRequest",
            "description": "BanSubscriberSearchRequest",
            "required": true,
            "schema": {
              "$ref": "#/definitions/BanSubscriberSearchRequest"
            }
          }
        ],
        "responses": {
          "200": {
            "description": "OK",
            "schema": {
              "$ref": "#/definitions/SubscriberSearchResponse"
            },
            "headers": {
              "Cache-Control": {
                "description": "No cache indicators supported at this time. Samples: no-cache",
                "type": "string",
                "x-example": "no-cache"
              },
              "Content-Encoding": {
                "description": "The type of encoding used on the data",
                "type": "string",
                "x-example": "gzip"
              },
              "Content-Language": {
                "description": "The natural language or languages of the intended audience for the enclosed content",
                "type": "string",
                "x-example": "en-US"
              },
              "Content-Length": {
                "description": "The Content-Length header specifies the actual length of the returned payload.",
                "type": "string",
                "x-example": "91"
              },
              "Content-Type": {
                "description": "The Content-Length header specifies the actual length of the returned payload.",
                "type": "string",
                "x-example": "application/json;charset=UTF-8"
              },
              "Date": {
                "description": "The date and time that the message was originated (in HTTP-date format as defined by RFC 7231 Date/Time Formats).",
                "type": "string",
                "format": "date-time",
                "x-example": "Mon, 05 Mar 2018 16:38:15 GMT"
              },
              "ETag": {
                "description": "The ETag header specifies the unique entity tag value for the returned resource.",
                "type": "string",
                "x-example": "069dbb7e7b3d7338f3ac7b82da65c22d0"
              },
              "Last-Modified": {
                "description": "The Last-Modified entity-header field indicates the date and time at which the origin server believes the variant was last modified.",
                "type": "string",
                "format": "date-time",
                "x-example": "Mon, 05 Mar 2018 16:38:15 GMT"
              },
              "Transfer-Encoding": {
                "description": "The form of encoding used to safely transfer the entity to the user. Currently defined methods are: chunked, compress, deflate, gzip, identity.",
                "type": "string",
                "x-example": "chunked"
              },
              "service-transaction-id": {
                "description": "Internal identifier for transaction tracking an individual transaction/API request within API platform. Don_t receive/don_t send to downstream",
                "type": "string",
                "x-example": "23409209723"
              },
              "Location": {
                "description": "the URI of the newly created resource",
                "type": "string",
                "x-example": "https://dlab03.core.op.api.t-mobile.com/customer/v1/subscriber-ulid-search/lookup-ulid-by-ban-msisdn"
              }
            }
          },
          "400": {
            "description": "BAD Request",
            "schema": {
              "$ref": "#/definitions/errors"
            }
          },
          "401": {
            "description": "Unauthorized"
          },
          "403": {
            "description": "Forbidden"
          },
          "404": {
            "description": "No Data found for CustomerAccount Id/MSISDN/ULID",
            "schema": {
              "$ref": "#/definitions/errors"
            }
          },
          "500": {
            "description": "Internal Service Error",
            "schema": {
              "$ref": "#/definitions/errors"
            }
          }
        }
      }
    },
    "/lookup-active-msisdn-by-ban-ulid": {
      "post": {
        "tags": [
          "lookup-active-msisdn-by-ban-ulid"
        ],
        "x-api-pattern": "QueryResource",
        "summary": "query for Active Msisdn by given BAN,ULID",
        "description": "This API will query for Active Msisdn by given BAN,ULID",
        "operationId": "lookupActiveMsisdnbyBanUlid",
        "consumes": [
          "application/json"
        ],
        "security": [
          {
            "Oauth": []
          }
        ],
        "produces": [
          "application/json"
        ],
        "parameters": [
          {
            "name": "Authorization",
            "in": "header",
            "description": "authorization token for service",
            "required": true,
            "type": "string",
            "x-example": "Bearer ewazQl6SuKmQTN5PXCS24uqO7UxX",
            "pattern": "^Bearer [a-zA-Z0-9]*$'"
          },
          {
            "name": "Content-Type",
            "in": "header",
            "description": "content-type of request body if exists, application/json expected, except for PATCH",
            "required": true,
            "type": "string",
            "x-example": "application/json; charset=UTF-8",
            "pattern": "^[a-zA-Z0-9-/;]*$"
          },
          {
            "name": "x-authorization",
            "in": "header",
            "description": "PoP token.",
            "required": false,
            "type": "string",
            "format": "string",
            "x-example": "aodsidj9038j203jd203dj230djaSFAfa3",
            "minLength": 1
          },
          {
            "name": "x-auth-originator",
            "in": "header",
            "description": "Id token.",
            "required": false,
            "type": "string",
            "format": "string",
            "x-example": "aasFAFq3fwsdgsw4GTgw442.sdjbfsdjksg2o34t.dsfbhifh9h2wf92f",
            "minLength": 1
          },
          {
            "name": "application-id",
            "in": "header",
            "description": "applicationId of calling application",
            "required": true,
            "type": "string",
            "x-example": "SecureId",
            "pattern": "^[a-zA-Z0-9]*$'"
          },
          {
            "name": "timestamp",
            "in": "header",
            "description": "timestamp",
            "required": false,
            "type": "string",
            "x-example": "1524599536"
          },
          {
            "name": "workflow-id",
            "in": "header",
            "description": "workflow-id",
            "required": false,
            "type": "string",
            "x-example": "ACTIVATION "
          },
          {
            "name": "activity-id",
            "in": "header",
            "description": "activity-id - global GUID of transaction for auditing sent from calling app",
            "required": false,
            "type": "string",
            "x-example": "c34e7acd-384b-4c22-8b02-ba3963682508",
            "pattern": "'^[a-zA-Z0-9-]*$'"
          },
          {
            "name": "application-user-id",
            "in": "header",
            "description": "application-user-id - NTID or user identifier invoking service from UI",
            "required": false,
            "type": "string",
            "x-example": "SPILLAI99"
          },
          {
            "name": "sender-id",
            "in": "header",
            "description": "sender-id - Sender Id of Calling application",
            "required": true,
            "type": "string",
            "x-example": "Care or Retail or Web",
            "pattern": "^[a-zA-Z0-9]*$'"
          },
          {
            "name": "channel-id",
            "in": "header",
            "description": "channel-id - CHANNEL of calling application",
            "required": true,
            "type": "string",
            "x-example": "Care or Retail or Web",
            "pattern": "^[a-zA-Z0-9]*$'"
          },
          {
            "name": "client-id",
            "in": "header",
            "description": "client-id",
            "required": false,
            "type": "string",
            "x-example": "CARE"
          },
          {
            "name": "session-id",
            "in": "header",
            "description": "session-id",
            "required": false,
            "type": "string",
            "x-example": "350b91ec-4a64-4b10-a3f3-a78c8db3924a"
          },
          {
            "name": "interaction-id",
            "in": "header",
            "description": "interaction-id",
            "required": false,
            "type": "string",
            "x-example": "cc688d54-50d1-49d4-8c5d-95459d1172e8"
          },
          {
            "in": "body",
            "name": "BanSubscriberSearchRequest",
            "description": "BanSubscriberSearchRequest",
            "required": true,
            "schema": {
              "$ref": "#/definitions/BanUlidSearchRequest"
            }
          }
        ],
        "responses": {
          "200": {
            "description": "OK",
            "schema": {
              "$ref": "#/definitions/SubscriberSearchResponse"
            },
            "headers": {
              "Cache-Control": {
                "description": "No cache indicators supported at this time. Samples: no-cache",
                "type": "string",
                "x-example": "no-cache"
              },
              "Content-Encoding": {
                "description": "The type of encoding used on the data",
                "type": "string",
                "x-example": "gzip"
              },
              "Content-Language": {
                "description": "The natural language or languages of the intended audience for the enclosed content",
                "type": "string",
                "x-example": "en-US"
              },
              "Content-Length": {
                "description": "The Content-Length header specifies the actual length of the returned payload.",
                "type": "string",
                "x-example": "91"
              },
              "Content-Type": {
                "description": "The Content-Length header specifies the actual length of the returned payload.",
                "type": "string",
                "x-example": "application/json;charset=UTF-8"
              },
              "Date": {
                "description": "The date and time that the message was originated (in HTTP-date format as defined by RFC 7231 Date/Time Formats).",
                "type": "string",
                "format": "date-time",
                "x-example": "Mon, 05 Mar 2018 16:38:15 GMT"
              },
              "ETag": {
                "description": "The ETag header specifies the unique entity tag value for the returned resource.",
                "type": "string",
                "x-example": "069dbb7e7b3d7338f3ac7b82da65c22d0"
              },
              "Last-Modified": {
                "description": "The Last-Modified entity-header field indicates the date and time at which the origin server believes the variant was last modified.",
                "type": "string",
                "format": "date-time",
                "x-example": "Mon, 05 Mar 2018 16:38:15 GMT"
              },
              "Transfer-Encoding": {
                "description": "The form of encoding used to safely transfer the entity to the user. Currently defined methods are: chunked, compress, deflate, gzip, identity.",
                "type": "string",
                "x-example": "chunked"
              },
              "service-transaction-id": {
                "description": "Internal identifier for transaction tracking an individual transaction/API request within API platform. Don_t receive/don_t send to downstream",
                "type": "string",
                "x-example": "23409209723"
              },
              "Location": {
                "description": "the URI of the newly created resource",
                "type": "string",
                "x-example": "https://dlab03.core.op.api.t-mobile.com/customer/v1/subscriber-ulid-search/lookup-ulid-by-ban-msisdn"
              }
            }
          },
          "400": {
            "description": "BAD Request",
            "schema": {
              "$ref": "#/definitions/errors"
            }
          },
          "401": {
            "description": "Unauthorized"
          },
          "403": {
            "description": "Forbidden"
          },
          "404": {
            "description": "No Data found for CustomerAccount Id/MSISDN/ULID",
            "schema": {
              "$ref": "#/definitions/errors"
            }
          },
          "500": {
            "description": "Internal Service Error",
            "schema": {
              "$ref": "#/definitions/errors"
            }
          }
        }
      }
    },
    "/lookup-all-active-msisdn-by-ban": {
      "post": {
        "tags": [
          "lookup-all-active-msisdn-by-ban"
        ],
        "x-api-pattern": "QueryResource",
        "summary": "query for All Active ULID for given BAN",
        "description": "This API will query for All Active ULID for given BAN",
        "operationId": "lookupAllActiveMsisdnbyBan",
        "consumes": [
          "application/json"
        ],
        "security": [
          {
            "Oauth": []
          }
        ],
        "produces": [
          "application/json"
        ],
        "parameters": [
          {
            "name": "Authorization",
            "in": "header",
            "description": "authorization token for service",
            "required": true,
            "type": "string",
            "x-example": "Bearer ewazQl6SuKmQTN5PXCS24uqO7UxX",
            "pattern": "^Bearer [a-zA-Z0-9]*$'"
          },
          {
            "name": "Content-Type",
            "in": "header",
            "description": "content-type of request body if exists, application/json expected, except for PATCH",
            "required": true,
            "type": "string",
            "x-example": "application/json; charset=UTF-8",
            "pattern": "^[a-zA-Z0-9-/;]*$"
          },
          {
            "name": "x-authorization",
            "in": "header",
            "description": "PoP token.",
            "required": false,
            "type": "string",
            "format": "string",
            "x-example": "aodsidj9038j203jd203dj230djaSFAfa3",
            "minLength": 1
          },
          {
            "name": "x-auth-originator",
            "in": "header",
            "description": "Id token.",
            "required": false,
            "type": "string",
            "format": "string",
            "x-example": "aasFAFq3fwsdgsw4GTgw442.sdjbfsdjksg2o34t.dsfbhifh9h2wf92f",
            "minLength": 1
          },
          {
            "name": "application-id",
            "in": "header",
            "description": "applicationId of calling application",
            "required": true,
            "type": "string",
            "x-example": "SecureId",
            "pattern": "^[a-zA-Z0-9]*$'"
          },
          {
            "name": "timestamp",
            "in": "header",
            "description": "timestamp",
            "required": false,
            "type": "string",
            "x-example": "1524599536"
          },
          {
            "name": "workflow-id",
            "in": "header",
            "description": "workflow-id",
            "required": false,
            "type": "string",
            "x-example": "ACTIVATION "
          },
          {
            "name": "activity-id",
            "in": "header",
            "description": "activity-id - global GUID of transaction for auditing sent from calling app",
            "required": false,
            "type": "string",
            "x-example": "c34e7acd-384b-4c22-8b02-ba3963682508",
            "pattern": "'^[a-zA-Z0-9-]*$'"
          },
          {
            "name": "application-user-id",
            "in": "header",
            "description": "application-user-id - NTID or user identifier invoking service from UI",
            "required": false,
            "type": "string",
            "x-example": "SPILLAI99"
          },
          {
            "name": "sender-id",
            "in": "header",
            "description": "sender-id - Sender Id of Calling application",
            "required": true,
            "type": "string",
            "x-example": "Care or Retail or Web",
            "pattern": "^[a-zA-Z0-9]*$'"
          },
          {
            "name": "channel-id",
            "in": "header",
            "description": "channel-id - CHANNEL of calling application",
            "required": true,
            "type": "string",
            "x-example": "Care or Retail or Web",
            "pattern": "^[a-zA-Z0-9]*$'"
          },
          {
            "name": "client-id",
            "in": "header",
            "description": "client-id",
            "required": false,
            "type": "string",
            "x-example": "CARE"
          },
          {
            "name": "session-id",
            "in": "header",
            "description": "session-id",
            "required": false,
            "type": "string",
            "x-example": "350b91ec-4a64-4b10-a3f3-a78c8db3924a"
          },
          {
            "name": "interaction-id",
            "in": "header",
            "description": "interaction-id",
            "required": false,
            "type": "string",
            "x-example": "cc688d54-50d1-49d4-8c5d-95459d1172e8"
          },
          {
            "in": "body",
            "name": "BanSubscriberSearchRequest",
            "description": "BanSubscriberSearchRequest",
            "required": true,
            "schema": {
              "$ref": "#/definitions/BanSearchRequest"
            }
          }
        ],
        "responses": {
          "200": {
            "description": "OK",
            "schema": {
              "$ref": "#/definitions/SubscriberSearchResponse1"
            },
            "headers": {
              "Cache-Control": {
                "description": "No cache indicators supported at this time. Samples: no-cache",
                "type": "string",
                "x-example": "no-cache"
              },
              "Content-Encoding": {
                "description": "The type of encoding used on the data",
                "type": "string",
                "x-example": "gzip"
              },
              "Content-Language": {
                "description": "The natural language or languages of the intended audience for the enclosed content",
                "type": "string",
                "x-example": "en-US"
              },
              "Content-Length": {
                "description": "The Content-Length header specifies the actual length of the returned payload.",
                "type": "string",
                "x-example": "91"
              },
              "Content-Type": {
                "description": "The Content-Length header specifies the actual length of the returned payload.",
                "type": "string",
                "x-example": "application/json;charset=UTF-8"
              },
              "Date": {
                "description": "The date and time that the message was originated (in HTTP-date format as defined by RFC 7231 Date/Time Formats).",
                "type": "string",
                "format": "date-time",
                "x-example": "Mon, 05 Mar 2018 16:38:15 GMT"
              },
              "ETag": {
                "description": "The ETag header specifies the unique entity tag value for the returned resource.",
                "type": "string",
                "x-example": "069dbb7e7b3d7338f3ac7b82da65c22d0"
              },
              "Last-Modified": {
                "description": "The Last-Modified entity-header field indicates the date and time at which the origin server believes the variant was last modified.",
                "type": "string",
                "format": "date-time",
                "x-example": "Mon, 05 Mar 2018 16:38:15 GMT"
              },
              "Transfer-Encoding": {
                "description": "The form of encoding used to safely transfer the entity to the user. Currently defined methods are: chunked, compress, deflate, gzip, identity.",
                "type": "string",
                "x-example": "chunked"
              },
              "service-transaction-id": {
                "description": "Internal identifier for transaction tracking an individual transaction/API request within API platform. Don_t receive/don_t send to downstream",
                "type": "string",
                "x-example": "23409209723"
              },
              "Location": {
                "description": "the URI of the newly created resource",
                "type": "string",
                "x-example": "https://dlab03.core.op.api.t-mobile.com/customer/v1/subscriber-ulid-search/lookup-ulid-by-ban-msisdn"
              }
            }
          },
          "400": {
            "description": "BAD Request",
            "schema": {
              "$ref": "#/definitions/errors"
            }
          },
          "401": {
            "description": "Unauthorized"
          },
          "403": {
            "description": "Forbidden"
          },
          "404": {
            "description": "No Data found for CustomerAccount Id/MSISDN/ULID",
            "schema": {
              "$ref": "#/definitions/errors"
            }
          },
          "500": {
            "description": "Internal Service Error",
            "schema": {
              "$ref": "#/definitions/errors"
            }
          }
        }
      }
    },
    "/lookup-all-active-inactive-msisdn-by-ban": {
      "post": {
        "tags": [
          "lookup-all-active-inactive-msisdn-by-ban"
        ],
        "x-api-pattern": "QueryResource",
        "summary": "query for All Active and Inactive Lines/ULID for given BAN",
        "description": "This API will query for All Active and Inactive Lines/ ULID for given BAN",
        "operationId": "lookupAllActiveInactiveMsisdnbyBan",
        "consumes": [
          "application/json"
        ],
        "security": [
          {
            "Oauth": []
          }
        ],
        "produces": [
          "application/json"
        ],
        "parameters": [
          {
            "name": "Authorization",
            "in": "header",
            "description": "authorization token for service",
            "required": true,
            "type": "string",
            "x-example": "Bearer ewazQl6SuKmQTN5PXCS24uqO7UxX",
            "pattern": "^Bearer [a-zA-Z0-9]*$'"
          },
          {
            "name": "Content-Type",
            "in": "header",
            "description": "content-type of request body if exists, application/json expected, except for PATCH",
            "required": true,
            "type": "string",
            "x-example": "application/json; charset=UTF-8",
            "pattern": "^[a-zA-Z0-9-/;]*$"
          },
          {
            "name": "x-authorization",
            "in": "header",
            "description": "PoP token.",
            "required": false,
            "type": "string",
            "format": "string",
            "x-example": "aodsidj9038j203jd203dj230djaSFAfa3",
            "minLength": 1
          },
          {
            "name": "x-auth-originator",
            "in": "header",
            "description": "Id token.",
            "required": false,
            "type": "string",
            "format": "string",
            "x-example": "aasFAFq3fwsdgsw4GTgw442.sdjbfsdjksg2o34t.dsfbhifh9h2wf92f",
            "minLength": 1
          },
          {
            "name": "application-id",
            "in": "header",
            "description": "applicationId of calling application",
            "required": true,
            "type": "string",
            "x-example": "SecureId",
            "pattern": "^[a-zA-Z0-9]*$'"
          },
          {
            "name": "timestamp",
            "in": "header",
            "description": "timestamp",
            "required": false,
            "type": "string",
            "x-example": "1524599536"
          },
          {
            "name": "workflow-id",
            "in": "header",
            "description": "workflow-id",
            "required": false,
            "type": "string",
            "x-example": "ACTIVATION "
          },
          {
            "name": "activity-id",
            "in": "header",
            "description": "activity-id - global GUID of transaction for auditing sent from calling app",
            "required": false,
            "type": "string",
            "x-example": "c34e7acd-384b-4c22-8b02-ba3963682508",
            "pattern": "'^[a-zA-Z0-9-]*$'"
          },
          {
            "name": "application-user-id",
            "in": "header",
            "description": "application-user-id - NTID or user identifier invoking service from UI",
            "required": false,
            "type": "string",
            "x-example": "SPILLAI99"
          },
          {
            "name": "sender-id",
            "in": "header",
            "description": "sender-id - Sender Id of Calling application",
            "required": true,
            "type": "string",
            "x-example": "Care or Retail or Web",
            "pattern": "^[a-zA-Z0-9]*$'"
          },
          {
            "name": "channel-id",
            "in": "header",
            "description": "channel-id - CHANNEL of calling application",
            "required": true,
            "type": "string",
            "x-example": "Care or Retail or Web",
            "pattern": "^[a-zA-Z0-9]*$'"
          },
          {
            "name": "client-id",
            "in": "header",
            "description": "client-id",
            "required": false,
            "type": "string",
            "x-example": "CARE"
          },
          {
            "name": "session-id",
            "in": "header",
            "description": "session-id",
            "required": false,
            "type": "string",
            "x-example": "350b91ec-4a64-4b10-a3f3-a78c8db3924a"
          },
          {
            "name": "interaction-id",
            "in": "header",
            "description": "interaction-id",
            "required": false,
            "type": "string",
            "x-example": "cc688d54-50d1-49d4-8c5d-95459d1172e8"
          },
          {
            "in": "body",
            "name": "BanSubscriberSearchRequest",
            "description": "BanSubscriberSearchRequest",
            "required": true,
            "schema": {
              "$ref": "#/definitions/BanSearchRequest"
            }
          }
        ],
        "responses": {
          "200": {
            "description": "OK",
            "schema": {
              "$ref": "#/definitions/SubscriberSearchResponse1"
            },
            "headers": {
              "Cache-Control": {
                "description": "No cache indicators supported at this time. Samples: no-cache",
                "type": "string",
                "x-example": "no-cache"
              },
              "Content-Encoding": {
                "description": "The type of encoding used on the data",
                "type": "string",
                "x-example": "gzip"
              },
              "Content-Language": {
                "description": "The natural language or languages of the intended audience for the enclosed content",
                "type": "string",
                "x-example": "en-US"
              },
              "Content-Length": {
                "description": "The Content-Length header specifies the actual length of the returned payload.",
                "type": "string",
                "x-example": "91"
              },
              "Content-Type": {
                "description": "The Content-Length header specifies the actual length of the returned payload.",
                "type": "string",
                "x-example": "application/json;charset=UTF-8"
              },
              "Date": {
                "description": "The date and time that the message was originated (in HTTP-date format as defined by RFC 7231 Date/Time Formats).",
                "type": "string",
                "format": "date-time",
                "x-example": "Mon, 05 Mar 2018 16:38:15 GMT"
              },
              "ETag": {
                "description": "The ETag header specifies the unique entity tag value for the returned resource.",
                "type": "string",
                "x-example": "069dbb7e7b3d7338f3ac7b82da65c22d0"
              },
              "Last-Modified": {
                "description": "The Last-Modified entity-header field indicates the date and time at which the origin server believes the variant was last modified.",
                "type": "string",
                "format": "date-time",
                "x-example": "Mon, 05 Mar 2018 16:38:15 GMT"
              },
              "Transfer-Encoding": {
                "description": "The form of encoding used to safely transfer the entity to the user. Currently defined methods are: chunked, compress, deflate, gzip, identity.",
                "type": "string",
                "x-example": "chunked"
              },
              "service-transaction-id": {
                "description": "Internal identifier for transaction tracking an individual transaction/API request within API platform. Don_t receive/don_t send to downstream",
                "type": "string",
                "x-example": "23409209723"
              },
              "Location": {
                "description": "the URI of the newly created resource",
                "type": "string",
                "x-example": "https://dlab03.core.op.api.t-mobile.com/customer/v1/subscriber-ulid-search/lookup-ulid-by-ban-msisdn"
              }
            }
          },
          "400": {
            "description": "BAD Request",
            "schema": {
              "$ref": "#/definitions/errors"
            }
          },
          "401": {
            "description": "Unauthorized"
          },
          "403": {
            "description": "Forbidden"
          },
          "404": {
            "description": "No Data found for CustomerAccount Id/MSISDN/ULID",
            "schema": {
              "$ref": "#/definitions/errors"
            }
          },
          "500": {
            "description": "Internal Service Error",
            "schema": {
              "$ref": "#/definitions/errors"
            }
          }
        }
      }
    },
    "/lookup-all-msisdns-by-ban-ulid": {
      "post": {
        "tags": [
          "lookup-all-msisdns-by-ban-ulid"
        ],
        "x-api-pattern": "QueryResource",
        "summary": "query for All Lines and ULIDs for given BAN,MSISDN",
        "description": "This API will query for All Lines and ULIDs for given BAN,MSISDN",
        "operationId": "lookupAllMsisdnsbyBanUlid",
        "consumes": [
          "application/json"
        ],
        "security": [
          {
            "Oauth": []
          }
        ],
        "produces": [
          "application/json"
        ],
        "parameters": [
          {
            "name": "Authorization",
            "in": "header",
            "description": "authorization token for service",
            "required": true,
            "type": "string",
            "x-example": "Bearer ewazQl6SuKmQTN5PXCS24uqO7UxX",
            "pattern": "^Bearer [a-zA-Z0-9]*$'"
          },
          {
            "name": "Content-Type",
            "in": "header",
            "description": "content-type of request body if exists, application/json expected, except for PATCH",
            "required": true,
            "type": "string",
            "x-example": "application/json; charset=UTF-8",
            "pattern": "^[a-zA-Z0-9-/;]*$"
          },
          {
            "name": "x-authorization",
            "in": "header",
            "description": "PoP token.",
            "required": false,
            "type": "string",
            "format": "string",
            "x-example": "aodsidj9038j203jd203dj230djaSFAfa3",
            "minLength": 1
          },
          {
            "name": "x-auth-originator",
            "in": "header",
            "description": "Id token.",
            "required": false,
            "type": "string",
            "format": "string",
            "x-example": "aasFAFq3fwsdgsw4GTgw442.sdjbfsdjksg2o34t.dsfbhifh9h2wf92f",
            "minLength": 1
          },
          {
            "name": "application-id",
            "in": "header",
            "description": "applicationId of calling application",
            "required": true,
            "type": "string",
            "x-example": "SecureId",
            "pattern": "^[a-zA-Z0-9]*$'"
          },
          {
            "name": "timestamp",
            "in": "header",
            "description": "timestamp",
            "required": false,
            "type": "string",
            "x-example": "1524599536"
          },
          {
            "name": "workflow-id",
            "in": "header",
            "description": "workflow-id",
            "required": false,
            "type": "string",
            "x-example": "ACTIVATION "
          },
          {
            "name": "activity-id",
            "in": "header",
            "description": "activity-id - global GUID of transaction for auditing sent from calling app",
            "required": false,
            "type": "string",
            "x-example": "c34e7acd-384b-4c22-8b02-ba3963682508",
            "pattern": "'^[a-zA-Z0-9-]*$'"
          },
          {
            "name": "application-user-id",
            "in": "header",
            "description": "application-user-id - NTID or user identifier invoking service from UI",
            "required": false,
            "type": "string",
            "x-example": "SPILLAI99"
          },
          {
            "name": "sender-id",
            "in": "header",
            "description": "sender-id - Sender Id of Calling application",
            "required": true,
            "type": "string",
            "x-example": "Care or Retail or Web",
            "pattern": "^[a-zA-Z0-9]*$'"
          },
          {
            "name": "channel-id",
            "in": "header",
            "description": "channel-id - CHANNEL of calling application",
            "required": true,
            "type": "string",
            "x-example": "Care or Retail or Web",
            "pattern": "^[a-zA-Z0-9]*$'"
          },
          {
            "name": "client-id",
            "in": "header",
            "description": "client-id",
            "required": false,
            "type": "string",
            "x-example": "CARE"
          },
          {
            "name": "session-id",
            "in": "header",
            "description": "session-id",
            "required": false,
            "type": "string",
            "x-example": "350b91ec-4a64-4b10-a3f3-a78c8db3924a"
          },
          {
            "name": "interaction-id",
            "in": "header",
            "description": "interaction-id",
            "required": false,
            "type": "string",
            "x-example": "cc688d54-50d1-49d4-8c5d-95459d1172e8"
          },
          {
            "in": "body",
            "name": "BanSubscriberSearchRequest",
            "description": "BanSubscriberSearchRequest",
            "required": true,
            "schema": {
              "$ref": "#/definitions/BanUlidSearchRequest"
            }
          }
        ],
        "responses": {
          "200": {
            "description": "OK",
            "schema": {
              "$ref": "#/definitions/SubscriberSearchResponse1"
            },
            "headers": {
              "Cache-Control": {
                "description": "No cache indicators supported at this time. Samples: no-cache",
                "type": "string",
                "x-example": "no-cache"
              },
              "Content-Encoding": {
                "description": "The type of encoding used on the data",
                "type": "string",
                "x-example": "gzip"
              },
              "Content-Language": {
                "description": "The natural language or languages of the intended audience for the enclosed content",
                "type": "string",
                "x-example": "en-US"
              },
              "Content-Length": {
                "description": "The Content-Length header specifies the actual length of the returned payload.",
                "type": "string",
                "x-example": "91"
              },
              "Content-Type": {
                "description": "The Content-Length header specifies the actual length of the returned payload.",
                "type": "string",
                "x-example": "application/json;charset=UTF-8"
              },
              "Date": {
                "description": "The date and time that the message was originated (in HTTP-date format as defined by RFC 7231 Date/Time Formats).",
                "type": "string",
                "format": "date-time",
                "x-example": "Mon, 05 Mar 2018 16:38:15 GMT"
              },
              "ETag": {
                "description": "The ETag header specifies the unique entity tag value for the returned resource.",
                "type": "string",
                "x-example": "069dbb7e7b3d7338f3ac7b82da65c22d0"
              },
              "Last-Modified": {
                "description": "The Last-Modified entity-header field indicates the date and time at which the origin server believes the variant was last modified.",
                "type": "string",
                "format": "date-time",
                "x-example": "Mon, 05 Mar 2018 16:38:15 GMT"
              },
              "Transfer-Encoding": {
                "description": "The form of encoding used to safely transfer the entity to the user. Currently defined methods are: chunked, compress, deflate, gzip, identity.",
                "type": "string",
                "x-example": "chunked"
              },
              "service-transaction-id": {
                "description": "Internal identifier for transaction tracking an individual transaction/API request within API platform. Don_t receive/don_t send to downstream",
                "type": "string",
                "x-example": "23409209723"
              },
              "Location": {
                "description": "the URI of the newly created resource",
                "type": "string",
                "x-example": "https://dlab03.core.op.api.t-mobile.com/customer/v1/subscriber-ulid-search/lookup-ulid-by-ban-msisdn"
              }
            }
          },
          "400": {
            "description": "BAD Request",
            "schema": {
              "$ref": "#/definitions/errors"
            }
          },
          "401": {
            "description": "Unauthorized"
          },
          "403": {
            "description": "Forbidden"
          },
          "404": {
            "description": "No Data found for CustomerAccount Id/MSISDN/ULID",
            "schema": {
              "$ref": "#/definitions/errors"
            }
          },
          "500": {
            "description": "Internal Service Error",
            "schema": {
              "$ref": "#/definitions/errors"
            }
          }
        }
      }
    },
    "/create-ulid": {
      "post": {
        "tags": [
          "create-ulid"
        ],
        "summary": "Create ULID for given BAN,MSISDN,OLD MSISDN",
        "description": "This API will Create ULID for given BAN,MSISDN,OLD MSISDN",
        "operationId": "CreateUlid",
        "consumes": [
          "application/json"
        ],
        "security": [
          {
            "Oauth": []
          }
        ],
        "produces": [
          "application/json"
        ],
        "parameters": [
          {
            "name": "Authorization",
            "in": "header",
            "description": "authorization token for service",
            "required": true,
            "type": "string",
            "x-example": "Bearer ewazQl6SuKmQTN5PXCS24uqO7UxX",
            "pattern": "^Bearer [a-zA-Z0-9]*$'"
          },
          {
            "name": "Content-Type",
            "in": "header",
            "description": "content-type of request body if exists, application/json expected, except for PATCH",
            "required": true,
            "type": "string",
            "x-example": "application/json; charset=UTF-8",
            "pattern": "^[a-zA-Z0-9-/;]*$"
          },
          {
            "name": "x-authorization",
            "in": "header",
            "description": "PoP token.",
            "required": false,
            "type": "string",
            "format": "string",
            "x-example": "aodsidj9038j203jd203dj230djaSFAfa3",
            "minLength": 1
          },
          {
            "name": "x-auth-originator",
            "in": "header",
            "description": "Id token.",
            "required": false,
            "type": "string",
            "format": "string",
            "x-example": "aasFAFq3fwsdgsw4GTgw442.sdjbfsdjksg2o34t.dsfbhifh9h2wf92f",
            "minLength": 1
          },
          {
            "name": "application-id",
            "in": "header",
            "description": "applicationId of calling application",
            "required": true,
            "type": "string",
            "x-example": "SecureId",
            "pattern": "^[a-zA-Z0-9]*$'"
          },
          {
            "name": "timestamp",
            "in": "header",
            "description": "timestamp",
            "required": false,
            "type": "string",
            "x-example": "1524599536"
          },
          {
            "name": "workflow-id",
            "in": "header",
            "description": "workflow-id",
            "required": false,
            "type": "string",
            "x-example": "ACTIVATION "
          },
          {
            "name": "activity-id",
            "in": "header",
            "description": "activity-id - global GUID of transaction for auditing sent from calling app",
            "required": false,
            "type": "string",
            "x-example": "c34e7acd-384b-4c22-8b02-ba3963682508",
            "pattern": "'^[a-zA-Z0-9-]*$'"
          },
          {
            "name": "application-user-id",
            "in": "header",
            "description": "application-user-id - NTID or user identifier invoking service from UI",
            "required": false,
            "type": "string",
            "x-example": "SPILLAI99"
          },
          {
            "name": "sender-id",
            "in": "header",
            "description": "sender-id - Sender Id of Calling application",
            "required": true,
            "type": "string",
            "x-example": "Care or Retail or Web",
            "pattern": "^[a-zA-Z0-9]*$'"
          },
          {
            "name": "channel-id",
            "in": "header",
            "description": "channel-id - CHANNEL of calling application",
            "required": true,
            "type": "string",
            "x-example": "Care or Retail or Web",
            "pattern": "^[a-zA-Z0-9]*$'"
          },
          {
            "name": "client-id",
            "in": "header",
            "description": "client-id",
            "required": false,
            "type": "string",
            "x-example": "CARE"
          },
          {
            "name": "session-id",
            "in": "header",
            "description": "session-id",
            "required": false,
            "type": "string",
            "x-example": "350b91ec-4a64-4b10-a3f3-a78c8db3924a"
          },
          {
            "name": "interaction-id",
            "in": "header",
            "description": "interaction-id",
            "required": false,
            "type": "string",
            "x-example": "cc688d54-50d1-49d4-8c5d-95459d1172e8"
          },
          {
            "in": "body",
            "name": "BanSubscriberSearchRequest",
            "description": "BanSubscriberSearchRequest",
            "required": true,
            "schema": {
              "$ref": "#/definitions/BanSubscriberSearchRequest"
            }
          }
        ],
        "responses": {
          "200": {
            "description": "OK",
            "schema": {
              "$ref": "#/definitions/CreateUlidResponse"
            },
            "headers": {
              "Cache-Control": {
                "description": "No cache indicators supported at this time. Samples: no-cache",
                "type": "string",
                "x-example": "no-cache"
              },
              "Content-Encoding": {
                "description": "The type of encoding used on the data",
                "type": "string",
                "x-example": "gzip"
              },
              "Content-Language": {
                "description": "The natural language or languages of the intended audience for the enclosed content",
                "type": "string",
                "x-example": "en-US"
              },
              "Content-Length": {
                "description": "The Content-Length header specifies the actual length of the returned payload.",
                "type": "string",
                "x-example": "91"
              },
              "Content-Type": {
                "description": "The Content-Length header specifies the actual length of the returned payload.",
                "type": "string",
                "x-example": "application/json;charset=UTF-8"
              },
              "Date": {
                "description": "The date and time that the message was originated (in HTTP-date format as defined by RFC 7231 Date/Time Formats).",
                "type": "string",
                "format": "date-time",
                "x-example": "Mon, 05 Mar 2018 16:38:15 GMT"
              },
              "ETag": {
                "description": "The ETag header specifies the unique entity tag value for the returned resource.",
                "type": "string",
                "x-example": "069dbb7e7b3d7338f3ac7b82da65c22d0"
              },
              "Last-Modified": {
                "description": "The Last-Modified entity-header field indicates the date and time at which the origin server believes the variant was last modified.",
                "type": "string",
                "format": "date-time",
                "x-example": "Mon, 05 Mar 2018 16:38:15 GMT"
              },
              "Transfer-Encoding": {
                "description": "The form of encoding used to safely transfer the entity to the user. Currently defined methods are: chunked, compress, deflate, gzip, identity.",
                "type": "string",
                "x-example": "chunked"
              },
              "service-transaction-id": {
                "description": "Internal identifier for transaction tracking an individual transaction/API request within API platform. Don_t receive/don_t send to downstream",
                "type": "string",
                "x-example": "23409209723"
              },
              "Location": {
                "description": "the URI of the newly created resource",
                "type": "string",
                "x-example": "https://dlab03.core.op.api.t-mobile.com/customer/v1/subscriber-ulid-search/lookup-ulid-by-ban-msisdn"
              }
            }
          },
          "400": {
            "description": "BAD Request",
            "schema": {
              "$ref": "#/definitions/errors"
            }
          },
          "401": {
            "description": "Unauthorized"
          },
          "403": {
            "description": "Forbidden"
          },
          "404": {
            "description": "Service Not Found",
            "schema": {
              "$ref": "#/definitions/errors"
            }
          },
          "500": {
            "description": "Internal Service Error",
            "schema": {
              "$ref": "#/definitions/errors"
            }
          }
        }
      }
    }
  },
  "definitions": {
    "CreateUlidResponse": {
      "description": "CreteUlidResponse",
      "type": "object",
      "properties": {
        "customerAccountId": {
          "description": "Ban/Customer Account Id",
          "type": "string",
          "example": "123456789"
        },
        "msisdn": {
          "description": "msisdn",
          "type": "string",
          "x-value": "1234567890"
        },
        "ulid": {
          "description": "ulid",
          "type": "string",
          "x-value": "1-x-1234"
        }
      }
    },
    "SubscriberSearchResponse": {
      "description": "SubscriberSearchResponse",
      "type": "object",
      "properties": {
        "customerAccountId": {
          "description": "Ban/Customer Account Id",
          "type": "string"
        },
        "msisdn": {
          "description": "msisdn",
          "type": "string",
          "x-value": "1234567890"
        },
        "ulid": {
          "description": "ulid",
          "type": "string",
          "x-value": "1-x-1234"
        },
        "banStatus": {
          "description": "banStatus",
          "type": "string"
        },
        "banStatusDate": {
          "description": "banStatusDate",
          "type": "string",
          "x-value": "12/24/2018"
        },
        "msisdnStatus": {
          "description": "msisdnStatus ",
          "type": "string"
        },
        "msisdnStatusDate": {
          "description": "msisdnStatusDate ",
          "type": "string",
          "x-value": "12/24/2018"
        }
      }
    },
    "SubscriberSearchResponse1": {
      "description": "SubscriberSearchResponse",
      "type": "object",
      "properties": {
        "lines": {
          "type": "array",
          "description": "lines Array",
          "items": {
            "$ref": "#/definitions/ListOfLines"
          }
        }
      }
    },
    "BanSubscriberSearchRequest": {
      "description": "SubscriberSearchParamsRequest",
      "type": "object",
      "required": [
        "customerAccountId",
        "msisdn"
      ],
      "properties": {
        "customerAccountId": {
          "description": "Ban/Customer Account Id",
          "type": "string",
          "example": "123456789",
          "pattern": "^[a-zA-Z0-9]*$'"
        },
        "msisdn": {
          "description": "msisdn/Sunscriber Number/PhoneNumber",
          "type": "string",
          "example": "1234567890",
          "pattern": "^[0-9]*$"
        },
        "oldMsisdn": {
          "description": "old dummy msisdn/Sunscriber Number/PhoneNumber",
          "type": "string",
          "example": "1234567890",
          "pattern": "^[0-9]*$"
        }
      }
    },
    "BanUlidSearchRequest": {
      "description": "SubscriberSearchParamsRequest",
      "type": "object",
      "required": [
        "customerAccountId",
        "ulid"
      ],
      "properties": {
        "customerAccountId": {
          "description": "Ban/Customer Account Id",
          "type": "string",
          "example": "123456789",
          "pattern": "^[a-zA-Z0-9]*$'"
        },
        "ulid": {
          "description": "Universal Line Id",
          "type": "string",
          "example": "1-AL-33545",
          "pattern": "^[a-zA-Z0-9-]*$"
        }
      }
    },
    "BanSearchRequest": {
      "description": "SubscriberSearchParamsRequest",
      "type": "object",
      "required": [
        "customerAccountId"
      ],
      "properties": {
        "customerAccountId": {
          "description": "Ban/Customer Account Id",
          "type": "string",
          "example": "123456789",
          "pattern": "^[a-zA-Z0-9]*$'"
        }
      }
    },
    "errors": {
      "type": "object",
      "description": "Error collection",
      "properties": {
        "errors": {
          "type": "array",
          "description": "Error Collection",
          "items": {
            "$ref": "#/definitions/Error"
          }
        }
      }
    },
    "Error": {
      "description": "Used to pass error information in a response.",
      "type": "object",
      "properties": {
        "code": {
          "description": "Used to pass error codes",
          "type": "string"
        },
        "userMessage": {
          "description": "Use to pass human friendly information to the user.",
          "type": "string"
        },
        "systemMessage": {
          "description": "Used to pass system information.",
          "type": "string"
        }
      }
    },
    "ListOfLines": {
      "description": "list of Lines",
      "type": "object",
      "properties": {
        "customerAccountId": {
          "description": "Ban/Customer Account Id",
          "type": "string"
        },
        "msisdn": {
          "description": "msisdn",
          "type": "string",
          "x-value": "1234567890"
        },
        "ulid": {
          "description": "ulid",
          "type": "string",
          "x-value": "1-x-1234"
        },
        "banStatus": {
          "description": "banStatus",
          "type": "string"
        },
        "banStatusDate": {
          "description": "banStatusDate",
          "type": "string",
          "x-value": "12/24/2018"
        },
        "msisdnStatus": {
          "description": "msisdnStatus ",
          "type": "string"
        },
        "msisdnStatusDate": {
          "description": "msisdnStatusDate ",
          "type": "string",
          "x-value": "12/24/2018"
        }
      }
    }
  },
  "securityDefinitions": {
    "Oauth": {
      "description": "Oauth",
      "type": "oauth2",
      "tokenUrl": "https://dlab03.core.op.api.t-mobile.com:443/v2/oauth2/accesstoken?grant_type=client_credentials",
      "flow": "application",
      "scopes": {}
    }
  }
}