{
    "swagger": "2.0",
    "info": {
        "title": "NotificationPreferencesUpdateService",
        "description": "Notification Preferences Update Service",
        "version": "1.0.0",
        "x-createdBy": {
            "dateCreated": "Fri Apr 27 18:06:06 2018",
            "createdBy": "npotuku",
            "application": "Recite",
            "appVersion": "0.3.6.2170",
            "documentId": "4a9c792e-b102-4801-a2b4-eb33a5b05a43",
            "status": "Development - Committed",
            "classification": "5.2.2 Customer Preferences Data Mgmt",
            "profile": "Core Business Capability Service",
            "serviceLayer": "Enterprise - CustomerManagement"
        }
    },
    "host": "dit01.api.t-mobile.com",
    "basePath": "/customer-profile/v1",
    "schemes": [
        "https"
    ],
    "paths": {
        "/customers/customer/notification-preferences": {
            "post": {
                "tags": [
                    "CustomerNotificationPreferencesUpdateService"
                ],
                "description": "Update Customer's Notification information and preferences using CCID",
                "operationId": "updateCustomerrNotificationPreferences",
                "consumes": [
                    "application/json",
                    "application/xml"
                ],
                "produces": [
                    "application/json",
                    "application/xml"
                ],
                "parameters": [
                    {
                        "name": "updateCustomerNotificationPreferenceRequest",
                        "in": "body",
                        "description": "UpdateCustomerNotificationPreferenceRequest",
                        "required": true,
                        "schema": {
                            "$ref": "#/definitions/updateCustomerNotificationPreferenceRequest"
                        }
                    },
                    {
                        "name": "Accept",
                        "in": "header",
                        "description": "Content-Types that are acceptable including application/json or application/xml (default assumed application/json)",
                        "required": false,
                        "type": "string"
                    },
                    {
                        "name": "Accept-Charset",
                        "in": "header",
                        "description": "Character sets that are acceptable.",
                        "required": false,
                        "type": "string"
                    },
                    {
                        "name": "Accept-Encoding",
                        "in": "header",
                        "description": "List of acceptable encodings. See HTTP compression.",
                        "required": false,
                        "type": "string"
                    },
                    {
                        "name": "Accept-Language",
                        "in": "header",
                        "description": "List of acceptable human languages for response",
                        "required": false,
                        "type": "string"
                    },
                    {
                        "name": "Authorization",
                        "in": "header",
                        "description": "OAuth 2.0 access token with the authentication type set as Bearer.",
                        "required": true,
                        "type": "string"
                    },
                    {
                        "name": "Content-Length",
                        "in": "header",
                        "description": "The Content-Length header specifies the actual length of the returned payload.",
                        "required": false,
                        "type": "string"
                    },
                    {
                        "name": "Content-Type",
                        "in": "header",
                        "description": "The Content-Length header specifies the actual length of the returned payload.",
                        "required": true,
                        "type": "string"
                    },
                    {
                        "name": "Date",
                        "in": "header",
                        "description": "The date and time that the message was originated (in HTTP-date format as defined by RFC 7231 Date/Time Formats).",
                        "required": false,
                        "type": "string",
                        "format": "date-time"
                    },
                    {
                        "name": "activityid",
                        "in": "header",
                        "description": "Unique id alphanumeric value generated and sent by the partner to identify every the service request uniquely. Sample: XyzA:D1s5s1i-X6AFRvfiPBfs-1234  Pass as is to downstream calls.",
                        "required": true,
                        "type": "string"
                    },
                    {
                        "name": "applicationid",
                        "in": "header",
                        "description": "Identifies the application, system, or tool that is being used to perform the transaction related to this request. Below are the sample values.ACUI, ESERVICE, REBELLION, WARP",
                        "required": false,
                        "type": "string"
                    },
                    {
                        "name": "applicationuserid",
                        "in": "header",
                        "description": "NT id of the one who is managing the transaction from CARE/RETAIL channels.",
                        "required": false,
                        "type": "string"
                    },
                    {
                        "name": "authcustomerid",
                        "in": "header",
                        "description": "Customer id _ of the person that is interacting with the system.",
                        "required": false,
                        "type": "string"
                    },
                    {
                        "name": "authfinancialaccountid",
                        "in": "header",
                        "description": "Financial account that the customer intends to operate on, while interacting with the system.",
                        "required": false,
                        "type": "string"
                    },
                    {
                        "name": "authlineofserviceid",
                        "in": "header",
                        "description": "Service Line that the customer intends to operate on, while interacting with the system.",
                        "required": false,
                        "type": "string"
                    },
                    {
                        "name": "channelid",
                        "in": "header",
                        "description": "Identifies the business unit or sales channel for the Request.Below are the sample values:            Care            TeleSales            FullService            BusinessDirect            FinancePartners            NonFinancePartners            SelfServiceAuthenticated            SelfServiceAnonymous            InteractiveVoiceResponse",
                        "required": false,
                        "type": "string"
                    },
                    {
                        "name": "dealercode",
                        "in": "header",
                        "description": "Unique code to identify the dealer/rep user.",
                        "required": false,
                        "type": "integer",
                        "format": "int32"
                    },
                    {
                        "name": "interactionid",
                        "in": "header",
                        "description": "Alphanumeric value represent a common transaction id across all calls made from UI, while completing all business activity needs of a particular customer.",
                        "required": false,
                        "type": "string"
                    },
                    {
                        "name": "segmentationid",
                        "in": "header",
                        "description": "Identifier of customers primary data center.Sample: Polaris,Titan",
                        "required": false,
                        "type": "string"
                    },
                    {
                        "name": "senderid",
                        "in": "header",
                        "description": "Uniquely identifies an Operation consumer. Below are the sample values.ACUI, MYTMO, QVXP, REBELLION, WALMARTRETAIL, SAMSCLUBRETAIL.",
                        "required": false,
                        "type": "string"
                    },
                    {
                        "name": "servicetransactionid",
                        "in": "header",
                        "description": "Internal identifier for transaction tracking an individual transaction/API request within API platform. Don_t receive/don_t send to downstream",
                        "required": false,
                        "type": "string"
                    },
                    {
                        "name": "sessionid",
                        "in": "header",
                        "description": "A value populated by the sender used to track the transactions that occur during a session, a long-lasting interaction that ismaintained by the sender.",
                        "required": false,
                        "type": "string"
                    },
                    {
                        "name": "storeid",
                        "in": "header",
                        "description": "Unique identifier for the retail store location.",
                        "required": false,
                        "type": "string"
                    },
                    {
                        "name": "terminalid",
                        "in": "header",
                        "description": "Unique identifier for the retail store terminal. Needed for FullService  (Tmobile RETAIL channel). Need to discuss with T-Mobile business liaison if there is a need for Partner to pass their retail Store Id).",
                        "required": false,
                        "type": "string"
                    },
                    {
                        "name": "tillid",
                        "in": "header",
                        "description": "Unique identifier for the retail register. Needed for FullService  (Tmobile RETAIL channel). Need to discuss with T-Mobile business liaison if there is a need for Partner to pass their retail Store Id).",
                        "required": false,
                        "type": "string"
                    },
                    {
                        "name": "timestamp",
                        "in": "header",
                        "description": "A timestamp provided by sender to track their workflow. If it is empty APIGEE can send current system timestamp.",
                        "required": false,
                        "type": "string",
                        "format": "date-time"
                    },
                    {
                        "name": "workflowid",
                        "in": "header",
                        "description": "Workflow name (NEW/ADD/EXCHANGE/RETURN)/OrderTypes _ ACTIVATION ADDALINE CHANGEDEVICE_JUMP CHANGEDEVICE",
                        "required": false,
                        "type": "string"
                    }
                ],
                "responses": {
                    "200": {
                        "description": "Success",
                        "schema": {
                            "$ref": "#/definitions/updateCustomerNotificationPreferenceResponse"
                        },
                        "headers": {
                            "Cache-Control": {
                                "description": "No cache indicators supported at this time. Samples: no-cache",
                                "type": "string"
                            },
                            "Content-Encoding": {
                                "description": "The type of encoding used on the data",
                                "type": "string"
                            },
                            "Content-Language": {
                                "description": "The natural language or languages of the intended audience for the enclosed content",
                                "type": "string"
                            },
                            "Content-Length": {
                                "description": "The Content-Length header specifies the actual length of the returned payload.",
                                "type": "string"
                            },
                            "Content-Type": {
                                "description": "The Content-Length header specifies the actual length of the returned payload.",
                                "type": "string"
                            },
                            "Date": {
                                "description": "The date and time that the message was originated (in HTTP-date format as defined by RFC 7231 Date/Time Formats).",
                                "type": "string",
                                "format": "date-time"
                            },
                            "ETag": {
                                "description": "The ETag header specifies the unique entity tag value for the returned resource.",
                                "type": "string"
                            },
                            "Last-Modified": {
                                "description": "The Last-Modified entity-header field indicates the date and time at which the origin server believes the variant was last modified.",
                                "type": "string",
                                "format": "date-time"
                            },
                            "Transfer-Encoding": {
                                "description": "The form of encoding used to safely transfer the entity to the user. Currently defined methods are: chunked, compress, deflate, gzip, identity.",
                                "type": "string"
                            },
                            "servicetransactionid": {
                                "description": "Internal identifier for transaction tracking an individual transaction/API request within API platform. Don_t receive/don_t send to downstream",
                                "type": "string"
                            }
                        }
                    },
                    "400": {
                        "description": "BAD Request",
                        "schema": {
                            "$ref": "#/definitions/errorCollection"
                        }
                    },
                    "404": {
                        "description": "Service Not found",
                        "schema": {
                            "$ref": "#/definitions/errorCollection"
                        }
                    },
                    "500": {
                        "description": "Internal Service Error",
                        "schema": {
                            "$ref": "#/definitions/errorCollection"
                        }
                    },
                    "503": {
                        "description": "Backend Service error",
                        "schema": {
                            "$ref": "#/definitions/errorCollection"
                        }
                    }
                },
                "security": []
            }
        },
        "/users/user/notification-preferences": {
            "post": {
                "tags": [
                    "UserNotificationPreferencesUpdateService"
                ],
                "description": "Update User's Notification information and preferences using CCID",
                "operationId": "updateUserNotificationPreferences",
                "consumes": [
                    "application/json",
                    "application/xml"
                ],
                "produces": [
                    "application/json",
                    "application/xml"
                ],
                "parameters": [
                    {
                        "name": "updateUserNotificationPreferenceRequest",
                        "in": "body",
                        "description": "updateUserNotificationPreferenceRequest",
                        "required": true,
                        "schema": {
                            "$ref": "#/definitions/updateUserNotificationPreferenceRequest"
                        }
                    },
                    {
                        "name": "Accept",
                        "in": "header",
                        "description": "Content-Types that are acceptable including application/json or application/xml (default assumed application/json)",
                        "required": false,
                        "type": "string"
                    },
                    {
                        "name": "Accept-Charset",
                        "in": "header",
                        "description": "Character sets that are acceptable.",
                        "required": false,
                        "type": "string"
                    },
                    {
                        "name": "Accept-Encoding",
                        "in": "header",
                        "description": "List of acceptable encodings. See HTTP compression.",
                        "required": false,
                        "type": "string"
                    },
                    {
                        "name": "Accept-Language",
                        "in": "header",
                        "description": "List of acceptable human languages for response",
                        "required": false,
                        "type": "string"
                    },
                    {
                        "name": "Authorization",
                        "in": "header",
                        "description": "OAuth 2.0 access token with the authentication type set as Bearer.",
                        "required": true,
                        "type": "string"
                    },
                    {
                        "name": "Content-Length",
                        "in": "header",
                        "description": "The Content-Length header specifies the actual length of the returned payload.",
                        "required": false,
                        "type": "string"
                    },
                    {
                        "name": "Content-Type",
                        "in": "header",
                        "description": "The Content-Length header specifies the actual length of the returned payload.",
                        "required": true,
                        "type": "string"
                    },
                    {
                        "name": "Date",
                        "in": "header",
                        "description": "The date and time that the message was originated (in HTTP-date format as defined by RFC 7231 Date/Time Formats).",
                        "required": false,
                        "type": "string",
                        "format": "date-time"
                    },
                    {
                        "name": "activityid",
                        "in": "header",
                        "description": "Unique id alphanumeric value generated and sent by the partner to identify every the service request uniquely. Sample: XyzA:D1s5s1i-X6AFRvfiPBfs-1234  Pass as is to downstream calls.",
                        "required": true,
                        "type": "string"
                    },
                    {
                        "name": "applicationid",
                        "in": "header",
                        "description": "Identifies the application, system, or tool that is being used to perform the transaction related to this request. Below are the sample values.ACUI, ESERVICE, REBELLION, WARP",
                        "required": false,
                        "type": "string"
                    },
                    {
                        "name": "applicationuserid",
                        "in": "header",
                        "description": "NT id of the one who is managing the transaction from CARE/RETAIL channels.",
                        "required": false,
                        "type": "string"
                    },
                    {
                        "name": "authcustomerid",
                        "in": "header",
                        "description": "Customer id _ of the person that is interacting with the system.",
                        "required": false,
                        "type": "string"
                    },
                    {
                        "name": "authfinancialaccountid",
                        "in": "header",
                        "description": "Financial account that the customer intends to operate on, while interacting with the system.",
                        "required": false,
                        "type": "string"
                    },
                    {
                        "name": "authlineofserviceid",
                        "in": "header",
                        "description": "Service Line that the customer intends to operate on, while interacting with the system.",
                        "required": false,
                        "type": "string"
                    },
                    {
                        "name": "channelid",
                        "in": "header",
                        "description": "Identifies the business unit or sales channel for the Request.Below are the sample values:            Care            TeleSales            FullService            BusinessDirect            FinancePartners            NonFinancePartners            SelfServiceAuthenticated            SelfServiceAnonymous            InteractiveVoiceResponse",
                        "required": false,
                        "type": "string"
                    },
                    {
                        "name": "dealercode",
                        "in": "header",
                        "description": "Unique code to identify the dealer/rep user.",
                        "required": false,
                        "type": "integer",
                        "format": "int32"
                    },
                    {
                        "name": "interactionid",
                        "in": "header",
                        "description": "Alphanumeric value represent a common transaction id across all calls made from UI, while completing all business activity needs of a particular customer.",
                        "required": false,
                        "type": "string"
                    },
                    {
                        "name": "segmentationid",
                        "in": "header",
                        "description": "Identifier of customers primary data center.Sample: Polaris,Titan",
                        "required": false,
                        "type": "string"
                    },
                    {
                        "name": "senderid",
                        "in": "header",
                        "description": "Uniquely identifies an Operation consumer. Below are the sample values.ACUI, MYTMO, QVXP, REBELLION, WALMARTRETAIL, SAMSCLUBRETAIL.",
                        "required": false,
                        "type": "string"
                    },
                    {
                        "name": "servicetransactionid",
                        "in": "header",
                        "description": "Internal identifier for transaction tracking an individual transaction/API request within API platform. Don_t receive/don_t send to downstream",
                        "required": false,
                        "type": "string"
                    },
                    {
                        "name": "sessionid",
                        "in": "header",
                        "description": "A value populated by the sender used to track the transactions that occur during a session, a long-lasting interaction that ismaintained by the sender.",
                        "required": false,
                        "type": "string"
                    },
                    {
                        "name": "storeid",
                        "in": "header",
                        "description": "Unique identifier for the retail store location.",
                        "required": false,
                        "type": "string"
                    },
                    {
                        "name": "terminalid",
                        "in": "header",
                        "description": "Unique identifier for the retail store terminal. Needed for FullService  (Tmobile RETAIL channel). Need to discuss with T-Mobile business liaison if there is a need for Partner to pass their retail Store Id).",
                        "required": false,
                        "type": "string"
                    },
                    {
                        "name": "tillid",
                        "in": "header",
                        "description": "Unique identifier for the retail register. Needed for FullService  (Tmobile RETAIL channel). Need to discuss with T-Mobile business liaison if there is a need for Partner to pass their retail Store Id).",
                        "required": false,
                        "type": "string"
                    },
                    {
                        "name": "timestamp",
                        "in": "header",
                        "description": "A timestamp provided by sender to track their workflow. If it is empty APIGEE can send current system timestamp.",
                        "required": false,
                        "type": "string",
                        "format": "date-time"
                    },
                    {
                        "name": "workflowid",
                        "in": "header",
                        "description": "Workflow name (NEW/ADD/EXCHANGE/RETURN)/OrderTypes _ ACTIVATION ADDALINE CHANGEDEVICE_JUMP CHANGEDEVICE",
                        "required": false,
                        "type": "string"
                    }
                ],
                "responses": {
                    "200": {
                        "description": "Success",
                        "schema": {
                            "$ref": "#/definitions/updateUserNotificationPreferenceResponse"
                        },
                        "headers": {
                            "Cache-Control": {
                                "description": "No cache indicators supported at this time. Samples: no-cache",
                                "type": "string"
                            },
                            "Content-Encoding": {
                                "description": "The type of encoding used on the data",
                                "type": "string"
                            },
                            "Content-Language": {
                                "description": "The natural language or languages of the intended audience for the enclosed content",
                                "type": "string"
                            },
                            "Content-Length": {
                                "description": "The Content-Length header specifies the actual length of the returned payload.",
                                "type": "string"
                            },
                            "Content-Type": {
                                "description": "The Content-Length header specifies the actual length of the returned payload.",
                                "type": "string"
                            },
                            "Date": {
                                "description": "The date and time that the message was originated (in HTTP-date format as defined by RFC 7231 Date/Time Formats).",
                                "type": "string",
                                "format": "date-time"
                            },
                            "ETag": {
                                "description": "The ETag header specifies the unique entity tag value for the returned resource.",
                                "type": "string"
                            },
                            "Last-Modified": {
                                "description": "The Last-Modified entity-header field indicates the date and time at which the origin server believes the variant was last modified.",
                                "type": "string",
                                "format": "date-time"
                            },
                            "Transfer-Encoding": {
                                "description": "The form of encoding used to safely transfer the entity to the user. Currently defined methods are: chunked, compress, deflate, gzip, identity.",
                                "type": "string"
                            },
                            "servicetransactionid": {
                                "description": "Internal identifier for transaction tracking an individual transaction/API request within API platform. Don_t receive/don_t send to downstream",
                                "type": "string"
                            }
                        }
                    },
                    "400": {
                        "description": "BAD Request",
                        "schema": {
                            "$ref": "#/definitions/errorCollection"
                        }
                    },
                    "404": {
                        "description": "Service Not found",
                        "schema": {
                            "$ref": "#/definitions/errorCollection"
                        }
                    },
                    "500": {
                        "description": "Internal Service Error",
                        "schema": {
                            "$ref": "#/definitions/errorCollection"
                        }
                    },
                    "503": {
                        "description": "Backend Service error",
                        "schema": {
                            "$ref": "#/definitions/errorCollection"
                        }
                    }
                },
                "security": []
            }
        }
    },
    "definitions": {
        "Addresses": {
            "type": "object",
            "description": "Addresses",
            "properties": {
                "accountNumber": {
                    "description": "Customer Account Number",
                    "type": "string"
                },
                "lineId": {
                    "description": "Customer Line ID",
                    "type": "string"
                },
                "ccid": {
                    "description": "Common Customer Identifier(CCID)",
                    "type": "string"
                },
                "address1": {
                    "description": "Address Line 1",
                    "type": "string"
                },
                "address2": {
                    "description": "Address Line 2",
                    "type": "string"
                },
                "city": {
                    "description": "City",
                    "type": "string"
                },
                "state": {
                    "description": "State",
                    "type": "string"
                },
                "zipcode": {
                    "description": "ZipCode",
                    "type": "string"
                },
                "county": {
                    "description": "County",
                    "type": "string"
                },
                "country": {
                    "description": "Country",
                    "type": "string"
                },
                "addressType": {
                    "description": "Address Type (LINE, FAN, CONTACT)",
                    "type": "string"
                },
                "usage": {
                    "description": "Address Usage (BILLING, MAILING, SHIPPING, PRIMARY, HOME, WORK, OTHER, PREPAID)",
                    "type": "string"
                }
            }
        },
        "Customer": {
            "type": "object",
            "description": "Customer Information",
            "properties": {
                "ccid": {
                    "description": "Common Customer Identifier(CCID)",
                    "type": "string"
                },
                "addresses": {
                    "description": "Addresses",
                    "type": "array",
                    "items": {
                        "$ref": "#/definitions/Addresses"
                    }
                },
                "emails": {
                    "description": "Emails",
                    "type": "array",
                    "items": {
                        "$ref": "#/definitions/Emails"
                    }
                },
                "phoneNumbers": {
                    "description": "PhoneNumbers",
                    "type": "array",
                    "items": {
                        "$ref": "#/definitions/PhoneNumbers"
                    }
                },
                "privacyPreferences": {
                    "description": "PrivacyPreferences",
                    "type": "array",
                    "items": {
                        "$ref": "#/definitions/PrivacyPreferences"
                    }
                }
            }
        },
        "Emails": {
            "type": "object",
            "description": "Emails",
            "properties": {
                "accountNumber": {
                    "description": "Customer Account Number",
                    "type": "string"
                },
                "lineId": {
                    "description": "Customer Line ID",
                    "type": "string"
                },
                "ccid": {
                    "description": "Common Customer Identifier(CCID)",
                    "type": "string"
                },
                "msisdn": {
                    "description": "MSISDN",
                    "type": "string"
                },
                "email": {
                    "description": "Email Address",
                    "type": "string"
                },
                "emailVerifiedIndicator": {
                    "description": "Email Address verification indicator",
                    "type": "string"
                },
                "softBounceIndicator": {
                    "description": "Soft Bounce Indicator ( Y or N)",
                    "type": "string"
                },
                "hardBounceIndicator": {
                    "description": "Hard Bounce Indicator ( Y or N)",
                    "type": "string"
                },
                "hardBounceCount": {
                    "description": "Hard Bounce Count",
                    "type": "number",
                    "format": "double"
                },
                "emailType": {
                    "description": "Email Type (LINE, FAN, CONTACT)",
                    "type": "string"
                },
                "usage": {
                    "description": "Email Usage (BILLING, MAILING, SHIPPING, PRIMARY, HOME, WORK, OTHER, PREPAID)",
                    "type": "string"
                }
            }
        },
        "error": {
            "description": "Error object.",
            "type": "object",
            "properties": {
                "code": {
                    "description": "A specific T-Mobile error code.",
                    "type": "string"
                },
                "userMessage": {
                    "description": "A human-readable message describing the error.",
                    "type": "string"
                },
                "systemMessage": {
                    "description": "Backend system error message.",
                    "type": "string"
                }
            }
        },
        "errorCollection": {
            "description": "The array of error objects. As defined in https://tmobileusa.sharepoint.com/teams/EnterpriseServices/ESG%20Standards%20Documents/APIs/T-Mobile%20API%20Design%20Guidelines%20v1.0.docx",
            "type": "object",
            "properties": {
                "errors": {
                    "type": "array",
                    "items": {
                        "$ref": "#/definitions/error"
                    }
                }
            }
        },
        "PhoneNumbers": {
            "type": "object",
            "description": "PhoneNumbers",
            "properties": {
                "accountNumber": {
                    "description": "Customer Account Number",
                    "type": "string"
                },
                "lineId": {
                    "description": "Customer Line ID",
                    "type": "string"
                },
                "ccid": {
                    "description": "Common Customer Identifier(CCID)",
                    "type": "string"
                },
                "msisdn": {
                    "description": "MSISDN",
                    "type": "string"
                },
                "phoneNumber": {
                    "description": "Phone Number",
                    "type": "string"
                },
                "phoneType": {
                    "description": "Phone number Type (LINE, FAN, CONTACT)",
                    "type": "string"
                },
                "usage": {
                    "description": "Phone Number Usage (BILLING, MAILING, SHIPPING, PRIMARY, HOME, WORK, OTHER, PREPAID)",
                    "type": "string"
                }
            }
        },
        "PreferredContactDateTime": {
            "type": "object",
            "description": "Preferred Contact Date and Time",
            "properties": {
                "preferredDay": {
                    "description": "Preferred Day of the week (Sunday to Saturday)",
                    "type": "string"
                },
                "preferredStartTime": {
                    "description": "Preferred Start Time in hh:mm format",
                    "type": "string"
                },
                "preferredEndTime": {
                    "description": "Preferred End Time in hh:mm format",
                    "type": "string"
                },
                "anyDay": {
                    "description": "Any Day",
                    "type": "boolean"
                },
                "anyTime": {
                    "description": "Any Time",
                    "type": "boolean"
                }
            }
        },
        "PrivacyPreferences": {
            "type": "object",
            "description": "PrivacyPreferences",
            "properties": {
                "notificationLanguagePreference": {
                    "description": "Notification Language Preference ( English - en , Spanish - es)",
                    "type": "string"
                },
                "websiteLanguagePreference": {
                    "description": "Website Language Preference ( English - en , Spanish - es)",
                    "type": "string"
                },
                "customerSupportLanguagePreference": {
                    "description": "customer Support Language Preference ( English - en , Spanish - es)",
                    "type": "string"
                },
                "marketingLanguagePreference": {
                    "description": "customer Support Language Preference ( English - en , Spanish - es)",
                    "type": "string"
                },
                "tMobileInsightsIndicator": {
                    "description": "T-Mobile Insights Indicator",
                    "type": "boolean"
                },
                "preferredContactMethod": {
                    "description": "Preferred Contact method ( i.e. Email, SMS, VoiceMail, Mail, Push App etc.)",
                    "type": "string"
                },
                "preferredContactTimeZone": {
                    "description": "Preferred Time Zone( i.e. EST, PST, MST, CST,HAST, AKDT etc.)",
                    "type": "string"
                },
                "marketingOptInAll": {
                    "description": "Marketing Content OptIn All Indicator",
                    "type": "boolean"
                },
                "dealsAndPromotinsOptIn": {
                    "description": "Deals And Promotins OptIn Indicator",
                    "type": "boolean"
                },
                "personalizedOffersOptIn": {
                    "description": "Personalized Offers Opt In Indicator",
                    "type": "boolean"
                },
                "monthlyTmobileNewsLetterOptIn": {
                    "description": "Monthly T-Mobile News Letter OptIn Indicator",
                    "type": "boolean"
                },
                "newtmobilePromotinsAndProductsOptIn": {
                    "description": "New T-Mobile Promotins And Products OptIn Indicator",
                    "type": "boolean"
                },
                "thirdPartyPromotinsAndProductsOptIn": {
                    "description": "Third Party Promotins And Products OptIn Indicator",
                    "type": "boolean"
                },
                "smsMarketingPreference": {
                    "description": "SMS Marketing Preference",
                    "type": "boolean"
                },
                "appPushMarketingPreference": {
                    "description": "App Push Marketing Preference",
                    "type": "boolean"
                },
                "voicemailMarketingPreference": {
                    "description": "Voice Mail Marketing Preference",
                    "type": "boolean"
                },
                "mailMarketingPreference": {
                    "description": "Mail Marketing Preference",
                    "type": "boolean"
                },
                "emailMarketingPreference": {
                    "description": "E-Mail Marketing Preference",
                    "type": "boolean"
                },
                "phoneMarketingPreference": {
                    "description": "Phone Marketing Preference",
                    "type": "boolean"
                },
                "annualPrivacyNoticePreference": {
                    "description": "Annual Privacy Notice Preference",
                    "type": "boolean"
                },
                "dataUsageContentPreference": {
                    "description": "Data Usage Content",
                    "type": "boolean"
                },
                "preferredContactDateTime": {
                    "description": "Preferred Contact Date and Time",
                    "type": "array",
                    "items": {
                        "$ref": "#/definitions/PreferredContactDateTime"
                    }
                }
            }
        },
        "updateCustomerNotificationPreferenceRequest": {
            "type": "object",
            "description": "UpdateCustomerNotificationPreferenceRequest",
            "required": [
                "customer"
            ],
            "properties": {
                "customer": {
                    "$ref": "#/definitions/Customer"
                }
            }
        },
        "updateCustomerNotificationPreferenceResponse": {
            "type": "object",
            "description": "UpdateCustomerNotificationPreferenceResponse",
            "properties": {
                "statusCode": {
                    "description": "Response Status Code",
                    "type": "string"
                },
                "status": {
                    "description": "Response Status Message",
                    "type": "string"
                }
            }
        },
        "updateUserNotificationPreferenceRequest": {
            "type": "object",
            "description": "updateUserNotificationPreferenceRequest",
            "required": [
                "user"
            ],
            "properties": {
                "user": {
                    "$ref": "#/definitions/User"
                }
            }
        },
        "UpdateUserNotificationPreferenceRequestAddresses": {
            "type": "object",
            "description": "Addresses",
            "properties": {
                "accountNumber": {
                    "description": "Customer Account Number",
                    "type": "string"
                },
                "lineId": {
                    "description": "Customer Line ID",
                    "type": "string"
                },
                "ccid": {
                    "description": "Common Customer Identifier(CCID)",
                    "type": "string"
                },
                "address1": {
                    "description": "Address Line 1",
                    "type": "string"
                },
                "address2": {
                    "description": "Address Line 2",
                    "type": "string"
                },
                "city": {
                    "description": "City",
                    "type": "string"
                },
                "state": {
                    "description": "State",
                    "type": "string"
                },
                "zipcode": {
                    "description": "ZipCode",
                    "type": "string"
                },
                "county": {
                    "description": "County",
                    "type": "string"
                },
                "country": {
                    "description": "Country",
                    "type": "string"
                },
                "addressType": {
                    "description": "Address Type (LINE, FAN, CONTACT)",
                    "type": "string"
                },
                "usage": {
                    "description": "Address Usage (BILLING, MAILING, SHIPPING, PRIMARY, HOME, WORK, OTHER, PREPAID)",
                    "type": "string"
                }
            }
        },
        "UpdateUserNotificationPreferenceRequestEmails": {
            "type": "object",
            "description": "Emails",
            "properties": {
                "accountNumber": {
                    "description": "Customer Account Number",
                    "type": "string"
                },
                "lineId": {
                    "description": "Customer Line ID",
                    "type": "string"
                },
                "ccid": {
                    "description": "Common Customer Identifier(CCID)",
                    "type": "string"
                },
                "msisdn": {
                    "description": "MSISDN",
                    "type": "string"
                },
                "email": {
                    "description": "Email Address",
                    "type": "string"
                },
                "emailVerifiedIndicator": {
                    "description": "Email Address verification indicator",
                    "type": "string"
                },
                "softBounceIndicator": {
                    "description": "Soft Bounce Indicator ( Y or N)",
                    "type": "string"
                },
                "hardBounceIndicator": {
                    "description": "Hard Bounce Indicator ( Y or N)",
                    "type": "string"
                },
                "hardBounceCount": {
                    "description": "Hard Bounce Count",
                    "type": "number",
                    "format": "double"
                },
                "emailType": {
                    "description": "Email Type (LINE, FAN, CONTACT)",
                    "type": "string"
                },
                "usage": {
                    "description": "Email Usage (BILLING, MAILING, SHIPPING, PRIMARY, HOME, WORK, OTHER, PREPAID)",
                    "type": "string"
                }
            }
        },
        "UpdateUserNotificationPreferenceRequestPhoneNumbers": {
            "type": "object",
            "description": "PhoneNumbers",
            "properties": {
                "accountNumber": {
                    "description": "Customer Account Number",
                    "type": "string"
                },
                "lineId": {
                    "description": "Customer Line ID",
                    "type": "string"
                },
                "ccid": {
                    "description": "Common Customer Identifier(CCID)",
                    "type": "string"
                },
                "msisdn": {
                    "description": "MSISDN",
                    "type": "string"
                },
                "phoneNumber": {
                    "description": "Phone Number",
                    "type": "string"
                },
                "phoneType": {
                    "description": "Phone number Type (LINE, FAN, CONTACT)",
                    "type": "string"
                },
                "usage": {
                    "description": "Phone Number Usage (BILLING, MAILING, SHIPPING, PRIMARY, HOME, WORK, OTHER, PREPAID)",
                    "type": "string"
                }
            }
        },
        "UpdateUserNotificationPreferenceRequestPreferredContactDateTime": {
            "type": "object",
            "description": "Preferred Contact Date and Time",
            "properties": {
                "preferredDay": {
                    "description": "Preferred Day of the week (Sunday to Saturday)",
                    "type": "string"
                },
                "preferredStartTime": {
                    "description": "Preferred Start Time in hh:mm format",
                    "type": "string"
                },
                "preferredEndTime": {
                    "description": "Preferred End Time in hh:mm format",
                    "type": "string"
                },
                "anyDay": {
                    "description": "Any Day",
                    "type": "boolean"
                },
                "anyTime": {
                    "description": "Any Time",
                    "type": "boolean"
                }
            }
        },
        "UpdateUserNotificationPreferenceRequestPrivacyPreferences": {
            "type": "object",
            "description": "PrivacyPreferences",
            "properties": {
                "notificationLanguagePreference": {
                    "description": "Notification Language Preference ( English - en , Spanish - es)",
                    "type": "string"
                },
                "websiteLanguagePreference": {
                    "description": "Website Language Preference ( English - en , Spanish - es)",
                    "type": "string"
                },
                "customerSupportLanguagePreference": {
                    "description": "customer Support Language Preference ( English - en , Spanish - es)",
                    "type": "string"
                },
                "marketingLanguagePreference": {
                    "description": "customer Support Language Preference ( English - en , Spanish - es)",
                    "type": "string"
                },
                "tMobileInsightsIndicator": {
                    "description": "T-Mobile Insights Indicator",
                    "type": "boolean"
                },
                "preferredContactMethod": {
                    "description": "Preferred Contact method ( i.e. Email, SMS, VoiceMail, Mail, Push App etc.)",
                    "type": "string"
                },
                "preferredContactTimeZone": {
                    "description": "Preferred Time Zone( i.e. EST, PST, MST, CST,HAST, AKDT etc.)",
                    "type": "string"
                },
                "marketingOptInAll": {
                    "description": "Marketing Content OptIn All Indicator",
                    "type": "boolean"
                },
                "dealsAndPromotinsOptIn": {
                    "description": "Deals And Promotins OptIn Indicator",
                    "type": "boolean"
                },
                "personalizedOffersOptIn": {
                    "description": "Personalized Offers Opt In Indicator",
                    "type": "boolean"
                },
                "monthlyTmobileNewsLetterOptIn": {
                    "description": "Monthly T-Mobile News Letter OptIn Indicator",
                    "type": "boolean"
                },
                "newtmobilePromotinsAndProductsOptIn": {
                    "description": "New T-Mobile Promotins And Products OptIn Indicator",
                    "type": "boolean"
                },
                "thirdPartyPromotinsAndProductsOptIn": {
                    "description": "Third Party Promotins And Products OptIn Indicator",
                    "type": "boolean"
                },
                "smsMarketingPreference": {
                    "description": "SMS Marketing Preference",
                    "type": "boolean"
                },
                "appPushMarketingPreference": {
                    "description": "App Push Marketing Preference",
                    "type": "boolean"
                },
                "voicemailMarketingPreference": {
                    "description": "Voice Mail Marketing Preference",
                    "type": "boolean"
                },
                "mailMarketingPreference": {
                    "description": "Mail Marketing Preference",
                    "type": "boolean"
                },
                "emailMarketingPreference": {
                    "description": "E-Mail Marketing Preference",
                    "type": "boolean"
                },
                "phoneMarketingPreference": {
                    "description": "Phone Marketing Preference",
                    "type": "boolean"
                },
                "annualPrivacyNoticePreference": {
                    "description": "Annual Privacy Notice Preference",
                    "type": "boolean"
                },
                "dataUsageContentPreference": {
                    "description": "Data Usage Content",
                    "type": "boolean"
                },
                "preferredContactDateTime": {
                    "description": "Preferred Contact Date and Time",
                    "type": "array",
                    "items": {
                        "$ref": "#/definitions/UpdateUserNotificationPreferenceRequestPreferredContactDateTime"
                    }
                }
            }
        },
        "updateUserNotificationPreferenceResponse": {
            "type": "object",
            "description": "UpdateUserNotificationPreferenceResponse",
            "properties": {
                "statusCode": {
                    "description": "Response Status Code",
                    "type": "string"
                },
                "status": {
                    "description": "Response Status Message",
                    "type": "string"
                }
            }
        },
        "User": {
            "type": "object",
            "description": "User Information",
            "properties": {
                "ccid": {
                    "description": "Common Customer Identifier(CCID)",
                    "type": "string"
                },
                "addresses": {
                    "description": "Addresses",
                    "type": "array",
                    "items": {
                        "$ref": "#/definitions/UpdateUserNotificationPreferenceRequestAddresses"
                    }
                },
                "emails": {
                    "description": "Emails",
                    "type": "array",
                    "items": {
                        "$ref": "#/definitions/UpdateUserNotificationPreferenceRequestEmails"
                    }
                },
                "phoneNumbers": {
                    "description": "PhoneNumbers",
                    "type": "array",
                    "items": {
                        "$ref": "#/definitions/UpdateUserNotificationPreferenceRequestPhoneNumbers"
                    }
                },
                "privacyPreferences": {
                    "description": "PrivacyPreferences",
                    "type": "array",
                    "items": {
                        "$ref": "#/definitions/UpdateUserNotificationPreferenceRequestPrivacyPreferences"
                    }
                }
            }
        }
    },
    "securityDefinitions": {}
}