{
	"swagger": "2.0",
	"info": {
		"description": "See <a href=\"/conducktor/docs/\">Conducktor API documentation</a> for API documentation",
		"version": "1.2.0",
		"title": "Conducktor API",
		"contact": {
			"name": "TODO",
			"url": "https://todo.todo",
			"email": "todo@todo.todo"
		}
	},
	"host": "api.conducktor.t-mobile.com",
	"basePath": "/conducktor/v2",
	"tags": [
		{
			"name": "Applications",
			"description": "Manage applications environments"
		},
		{
			"name": "Deployments",
			"description": "Manage service deployments"
		}
	],
	"schemes": [
		"https"
	],
	"paths": {
		"/applications/{application}/deployments/deploy/config/{release-name}": {
			"put": {
				"tags": [
					"Deployments"
				],
				"summary": "Deploy passing deployment config without translation. The only overwritten property is metadata.releaseName",
				"description": "TODO: US579826",
				"operationId": "deployConfigUsingPUT_1",
				"consumes": [
					"application/json",
					"application/yaml"
				],
				"produces": [
					"*/*"
				],
				"parameters": [
					{
						"name": "Authorization",
						"in": "header",
						"description": "Authorization",
						"required": true,
						"type": "string",
						"maxLength": 2147483647,
						"minLength": 0,
						"x-example": {
							"$ref": "#/securityDefinitions/Bearer/x-example"
						}
					},
					{
						"name": "application",
						"in": "path",
						"description": "application",
						"required": true,
						"type": "string",
						"maxLength": 2147483647,
						"minLength": 1,
						"pattern": "[^\u0000]+",
						"x-example": "css"
					},
					{
						"in": "body",
						"name": "rawConfig",
						"description": "rawConfig",
						"required": true,
						"schema": {
							"$ref": "#/definitions/JsonNode"
						}
					},
					{
						"name": "release-name",
						"in": "path",
						"description": "release-name",
						"required": true,
						"type": "string",
						"maxLength": 2147483647,
						"minLength": 0,
						"pattern": "[^\u0000]+",
						"x-example": "sample-release"
					},
					{
						"name": "service-transaction-id",
						"in": "header",
						"description": "request ID echoed back by server [UUID or string]",
						"required": false,
						"type": "string",
						"pattern": "^[^\u0000]*$"
					}
				],
				"responses": {
					"401": {
						"description": "Unauthorized",
						"headers": {
							"service-transaction-id": {
								"type": "string",
								"format": "uuid",
								"description": "unique id generated by server or echoed back by server if received in request"
							}
						},
						"schema": {
							"$ref": "#/definitions/ConducktorApiException"
						}
					},
					"404": {
						"description": "Not found",
						"headers": {
							"service-transaction-id": {
								"type": "string",
								"format": "uuid",
								"description": "unique id generated by server or echoed back by server if received in request"
							}
						},
						"schema": {
							"$ref": "#/definitions/ConducktorApiException"
						}
					}
				},
				"security": [
					{
						"Bearer": [
							
						]
					}
				],
				"deprecated": false,
				"x-api-pattern": "ReplaceResource"
			}
		},
		"/applications/{application}/environments/{environment}/charts": {
			"get": {
				"tags": [
					"Deployments"
				],
				"summary": "Get chart archive from the repository. Accepts environment name or namespace.",
				"description": "TODO: US579826",
				"operationId": "getHelmChartArchiveFromRepositoryUsingGET_1",
				"produces": [
					"application/json",
					"application/tar+gzip",
					"application/yaml"
				],
				"parameters": [
					{
						"name": "Authorization",
						"in": "header",
						"description": "Authorization",
						"required": true,
						"type": "string",
						"maxLength": 2147483647,
						"minLength": 0,
						"x-example": {
							"$ref": "#/securityDefinitions/Bearer/x-example"
						}
					},
					{
						"name": "application",
						"in": "path",
						"description": "application",
						"required": true,
						"type": "string",
						"maxLength": 2147483647,
						"minLength": 0,
						"pattern": "[^\u0000]+",
						"x-example": "css"
					},
					{
						"name": "chart-name",
						"in": "query",
						"description": "chart-name",
						"required": true,
						"type": "string",
						"maxLength": 2147483647,
						"minLength": 0,
						"pattern": "[^\u0000]+"
					},
					{
						"name": "environment",
						"in": "path",
						"description": "environment",
						"required": true,
						"type": "string",
						"maxLength": 2147483647,
						"minLength": 0,
						"pattern": "[^\u0000]+",
						"x-example": "dev"
					},
					{
						"name": "release-name",
						"in": "query",
						"description": "release-name",
						"required": false,
						"type": "string",
						"maxLength": 2147483647,
						"minLength": 0,
						"pattern": "[^\u0000]+",
						"allowEmptyValue": false,
						"x-example": "sample-release"
					},
					{
						"name": "repo",
						"in": "query",
						"description": "repo",
						"required": false,
						"type": "string",
						"maxLength": 2147483647,
						"minLength": 0,
						"pattern": "[^\u0000]+"
					},
					{
						"name": "revision",
						"in": "query",
						"description": "revision",
						"required": false,
						"type": "integer",
						"format": "int32"
					},
					{
						"name": "service-transaction-id",
						"in": "header",
						"description": "request ID echoed back by server [UUID or string]",
						"required": false,
						"type": "string",
						"pattern": "^[^\u0000]*$"
					}
				],
				"responses": {
					"200": {
						"description": "OK",
						"headers": {
							"service-transaction-id": {
								"type": "string",
								"format": "uuid",
								"description": "unique id generated by server or echoed back by server if received in request"
							}
						}
					},
					"401": {
						"description": "Unauthorized",
						"headers": {
							"service-transaction-id": {
								"type": "string",
								"format": "uuid",
								"description": "unique id generated by server or echoed back by server if received in request"
							}
						},
						"schema": {
							"$ref": "#/definitions/ConducktorApiException"
						}
					},
					"404": {
						"description": "Not found",
						"headers": {
							"service-transaction-id": {
								"type": "string",
								"format": "uuid",
								"description": "unique id generated by server or echoed back by server if received in request"
							}
						},
						"schema": {
							"$ref": "#/definitions/ConducktorApiException"
						}
					}
				},
				"security": [
					{
						"Bearer": [
							
						]
					}
				],
				"deprecated": false,
				"x-api-pattern": "QueryResource"
			}
		},
		"/applications/{application}/environments/{environment}/charts/available": {
			"get": {
				"tags": [
					"Deployments"
				],
				"summary": "Check if chart archive is available in the repository. Accepts environment name or namespace.",
				"description": "TODO: US579826",
				"operationId": "isHelmChartArchiveFromRepositoryAvailableUsingGET_1",
				"produces": [
					"application/json",
					"application/yaml"
				],
				"parameters": [
					{
						"name": "Authorization",
						"in": "header",
						"description": "Authorization",
						"required": true,
						"type": "string",
						"x-example": {
							"$ref": "#/securityDefinitions/Bearer/x-example"
						}
					},
					{
						"name": "application",
						"in": "path",
						"description": "application",
						"required": true,
						"type": "string",
						"maxLength": 2147483647,
						"minLength": 0,
						"pattern": "[^\u0000]+",
						"x-example": "css"
					},
					{
						"name": "chart-name",
						"in": "query",
						"description": "chart-name",
						"required": true,
						"type": "string",
						"maxLength": 2147483647,
						"minLength": 0,
						"pattern": "[^\u0000]+"
					},
					{
						"name": "environment",
						"in": "path",
						"description": "environment",
						"required": true,
						"type": "string",
						"maxLength": 2147483647,
						"minLength": 0,
						"pattern": "[^\u0000]+",
						"x-example": "dev"
					},
					{
						"name": "release-name",
						"in": "query",
						"description": "release-name",
						"required": false,
						"type": "string",
						"maxLength": 2147483647,
						"minLength": 0,
						"pattern": "[^\u0000]+",
						"allowEmptyValue": false,
						"x-example": "sample-release"
					},
					{
						"name": "repo",
						"in": "query",
						"description": "repo",
						"required": false,
						"type": "string",
						"maxLength": 2147483647,
						"minLength": 0,
						"pattern": "[^\u0000]+"
					},
					{
						"name": "revision",
						"in": "query",
						"description": "revision",
						"required": false,
						"type": "integer",
						"format": "int32"
					},
					{
						"name": "service-transaction-id",
						"in": "header",
						"description": "request ID echoed back by server [UUID or string]",
						"required": false,
						"type": "string",
						"pattern": "^[^\u0000]*$"
					}
				],
				"responses": {
					"200": {
						"description": "OK",
						"headers": {
							"service-transaction-id": {
								"type": "string",
								"format": "uuid",
								"description": "unique id generated by server or echoed back by server if received in request"
							}
						}
					},
					"401": {
						"description": "Unauthorized",
						"headers": {
							"service-transaction-id": {
								"type": "string",
								"format": "uuid",
								"description": "unique id generated by server or echoed back by server if received in request"
							}
						},
						"schema": {
							"$ref": "#/definitions/ConducktorApiException"
						}
					},
					"404": {
						"description": "Not found",
						"headers": {
							"service-transaction-id": {
								"type": "string",
								"format": "uuid",
								"description": "unique id generated by server or echoed back by server if received in request"
							}
						},
						"schema": {
							"$ref": "#/definitions/ConducktorApiException"
						}
					}
				},
				"security": [
					{
						"Bearer": [
							
						]
					}
				],
				"deprecated": false,
				"x-api-pattern": "QueryResource"
			}
		},
		"/applications/{application}/environments/{environment}/configmaps": {
			"get": {
				"tags": [
					"Applications"
				],
				"summary": "Get configs for given environment. Accepts environment name or namespace.",
				"description": "TODO: US579826",
				"operationId": "getConfigMapsForEnvironmentUsingGET_3",
				"produces": [
					"application/json",
					"application/yaml"
				],
				"parameters": [
					{
						"name": "Authorization",
						"in": "header",
						"description": "JWT token",
						"required": true,
						"type": "string",
						"pattern": "^(?:Bearer )?[A-Za-z0-9\\-\\._~\\+\\/]+=*$",
						"x-example": {
							"$ref": "#/securityDefinitions/Bearer/x-example"
						}
					},
					{
						"name": "application",
						"in": "path",
						"description": "application",
						"required": true,
						"type": "string",
						"maxLength": 2147483647,
						"minLength": 0,
						"pattern": "[^\u0000]+",
						"x-example": "css"
					},
					{
						"name": "environment",
						"in": "path",
						"description": "environment",
						"required": true,
						"type": "string",
						"maxLength": 2147483647,
						"minLength": 0,
						"pattern": "[^\u0000]+",
						"x-example": "dev"
					},
					{
						"name": "service-transaction-id",
						"in": "header",
						"description": "request ID echoed back by server [UUID or string]",
						"required": false,
						"type": "string",
						"pattern": "^[^\u0000]*$"
					}
				],
				"responses": {
					"200": {
						"description": "OK",
						"headers": {
							"service-transaction-id": {
								"type": "string",
								"format": "uuid",
								"description": "unique id generated by server or echoed back by server if received in request"
							}
						},
						"schema": {
							"$ref": "#/definitions/ResponseEnvelope«List«ConfigMapData»»"
						}
					},
					"401": {
						"description": "Unauthorized",
						"headers": {
							"service-transaction-id": {
								"type": "string",
								"format": "uuid",
								"description": "unique id generated by server or echoed back by server if received in request"
							}
						},
						"schema": {
							"$ref": "#/definitions/ConducktorApiException"
						}
					},
					"404": {
						"description": "Not found",
						"headers": {
							"service-transaction-id": {
								"type": "string",
								"format": "uuid",
								"description": "unique id generated by server or echoed back by server if received in request"
							}
						},
						"schema": {
							"$ref": "#/definitions/ConducktorApiException"
						}
					}
				},
				"security": [
					{
						"Bearer": [
							
						]
					}
				],
				"deprecated": false,
				"x-api-pattern": "QueryResource"
			}
		},
		"/applications/{application}/environments/{environment}/configmaps/{name}": {
			"get": {
				"tags": [
					"Applications"
				],
				"summary": "Get config for given environment providing config's name. Accepts environment name or namespace.",
				"description": "TODO: US579826",
				"operationId": "getConfigMapUsingGET_3",
				"produces": [
					"application/json",
					"application/yaml"
				],
				"parameters": [
					{
						"name": "Authorization",
						"in": "header",
						"description": "JWT token",
						"required": true,
						"type": "string",
						"pattern": "^(?:Bearer )?[A-Za-z0-9\\-\\._~\\+\\/]+=*$",
						"x-example": {
							"$ref": "#/securityDefinitions/Bearer/x-example"
						}
					},
					{
						"name": "application",
						"in": "path",
						"description": "application",
						"required": true,
						"type": "string",
						"maxLength": 2147483647,
						"minLength": 0,
						"pattern": "[^\u0000]+",
						"x-example": "css"
					},
					{
						"name": "environment",
						"in": "path",
						"description": "environment",
						"required": true,
						"type": "string",
						"maxLength": 2147483647,
						"minLength": 0,
						"pattern": "[^\u0000]+",
						"x-example": "dev"
					},
					{
						"name": "name",
						"in": "path",
						"description": "name",
						"required": true,
						"type": "string",
						"maxLength": 2147483647,
						"minLength": 0,
						"pattern": "[^\u0000]+"
					},
					{
						"name": "service-transaction-id",
						"in": "header",
						"description": "request ID echoed back by server [UUID or string]",
						"required": false,
						"type": "string",
						"pattern": "^[^\u0000]*$"
					}
				],
				"responses": {
					"200": {
						"description": "OK",
						"headers": {
							"service-transaction-id": {
								"type": "string",
								"format": "uuid",
								"description": "unique id generated by server or echoed back by server if received in request"
							}
						},
						"schema": {
							"$ref": "#/definitions/ResponseEnvelope«ConfigMapData»"
						}
					},
					"401": {
						"description": "Unauthorized",
						"headers": {
							"service-transaction-id": {
								"type": "string",
								"format": "uuid",
								"description": "unique id generated by server or echoed back by server if received in request"
							}
						},
						"schema": {
							"$ref": "#/definitions/ConducktorApiException"
						}
					},
					"404": {
						"description": "Not found",
						"headers": {
							"service-transaction-id": {
								"type": "string",
								"format": "uuid",
								"description": "unique id generated by server or echoed back by server if received in request"
							}
						},
						"schema": {
							"$ref": "#/definitions/ConducktorApiException"
						}
					}
				},
				"security": [
					{
						"Bearer": [
							
						]
					}
				],
				"deprecated": false,
				"x-api-pattern": "QueryResource"
			},
			"put": {
				"tags": [
					"Applications"
				],
				"summary": "Store config map for an environment. Accepts environment name or namespace.",
				"description": "TODO: US579826",
				"operationId": "storeConfigMapUsingPUT_3",
				"consumes": [
					"application/json",
					"application/yaml"
				],
				"produces": [
					"*/*"
				],
				"parameters": [
					{
						"name": "Authorization",
						"in": "header",
						"description": "JWT token",
						"required": true,
						"type": "string",
						"pattern": "^(?:Bearer )?[A-Za-z0-9\\-\\._~\\+\\/]+=*$",
						"x-example": {
							"$ref": "#/securityDefinitions/Bearer/x-example"
						}
					},
					{
						"name": "application",
						"in": "path",
						"description": "application",
						"required": true,
						"type": "string",
						"maxLength": 2147483647,
						"minLength": 0,
						"pattern": "[^\u0000]+",
						"x-example": "css"
					},
					{
						"in": "body",
						"name": "configMapData",
						"description": "configMapData",
						"required": true,
						"schema": {
							"$ref": "#/definitions/ConfigMapData"
						}
					},
					{
						"name": "environment",
						"in": "path",
						"description": "environment",
						"required": true,
						"type": "string",
						"maxLength": 2147483647,
						"minLength": 0,
						"pattern": "[^\u0000]+",
						"x-example": "dev"
					},
					{
						"name": "name",
						"in": "path",
						"description": "name",
						"required": true,
						"type": "string",
						"maxLength": 2147483647,
						"minLength": 0,
						"pattern": "[^\u0000]+",
						"x-example": "conducktor"
					},
					{
						"name": "service-transaction-id",
						"in": "header",
						"description": "request ID echoed back by server [UUID or string]",
						"required": false,
						"type": "string",
						"pattern": "^[^\u0000]*$"
					}
				],
				"responses": {
					"401": {
						"description": "Unauthorized",
						"headers": {
							"service-transaction-id": {
								"type": "string",
								"format": "uuid",
								"description": "unique id generated by server or echoed back by server if received in request"
							}
						},
						"schema": {
							"$ref": "#/definitions/ConducktorApiException"
						}
					},
					"404": {
						"description": "Not found",
						"headers": {
							"service-transaction-id": {
								"type": "string",
								"format": "uuid",
								"description": "unique id generated by server or echoed back by server if received in request"
							}
						},
						"schema": {
							"$ref": "#/definitions/ConducktorApiException"
						}
					}
				},
				"security": [
					{
						"Bearer": [
							
						]
					}
				],
				"deprecated": false,
				"x-api-pattern": "ReplaceResource"
			}
		},
		"/applications/{application}/environments/{environment}/deployments": {
			"put": {
				"tags": [
					"Deployments"
				],
				"summary": "Deploy the specified Helm chart. Accepts environment name or namespace.",
				"description": "TODO: US579826",
				"operationId": "deployChartUsingPUT_1",
				"consumes": [
					"application/json",
					"application/yaml"
				],
				"produces": [
					"*/*"
				],
				"parameters": [
					{
						"name": "Authorization",
						"in": "header",
						"description": "Authorization",
						"required": true,
						"type": "string",
						"maxLength": 2147483647,
						"minLength": 0,
						"x-example": {
							"$ref": "#/securityDefinitions/Bearer/x-example"
						}
					},
					{
						"name": "application",
						"in": "path",
						"description": "application",
						"required": true,
						"type": "string",
						"maxLength": 2147483647,
						"minLength": 0,
						"pattern": "[^\u0000]+",
						"x-example": "css"
					},
					{
						"name": "environment",
						"in": "path",
						"description": "environment",
						"required": true,
						"type": "string",
						"maxLength": 2147483647,
						"minLength": 0,
						"pattern": "[^\u0000]+",
						"x-example": "dev"
					},
					{
						"in": "body",
						"name": "helmChart",
						"description": "helmChart",
						"required": true,
						"schema": {
							"$ref": "#/definitions/HelmChart"
						}
					},
					{
						"name": "service-transaction-id",
						"in": "header",
						"description": "request ID echoed back by server [UUID or string]",
						"required": false,
						"type": "string",
						"pattern": "^[^\u0000]*$"
					}
				],
				"responses": {
					"201": {
						"description": "Created",
						"headers": {
							"service-transaction-id": {
								"type": "string",
								"format": "uuid",
								"description": "unique id generated by server or echoed back by server if received in request"
							}
						}
					},
					"401": {
						"description": "Unauthorized",
						"headers": {
							"service-transaction-id": {
								"type": "string",
								"format": "uuid",
								"description": "unique id generated by server or echoed back by server if received in request"
							}
						},
						"schema": {
							"$ref": "#/definitions/ConducktorApiException"
						}
					},
					"403": {
						"description": "Forbidden",
						"headers": {
							"service-transaction-id": {
								"type": "string",
								"format": "uuid",
								"description": "unique id generated by server or echoed back by server if received in request"
							}
						},
						"schema": {
							"$ref": "#/definitions/ConducktorApiException"
						}
					},
					"404": {
						"description": "Not found",
						"headers": {
							"service-transaction-id": {
								"type": "string",
								"format": "uuid",
								"description": "unique id generated by server or echoed back by server if received in request"
							}
						},
						"schema": {
							"$ref": "#/definitions/ConducktorApiException"
						}
					}
				},
				"security": [
					{
						"Bearer": [
							
						]
					}
				],
				"deprecated": false,
				"x-api-pattern": "CreateByName"
			}
		},
		"/applications/{application}/environments/{environment}/deployments/samples": {
			"get": {
				"tags": [
					"Deployments"
				],
				"summary": "Get the list of name and readme of sample helm chart. Accepts environment name or namespace.",
				"description": "TODO: US579826",
				"operationId": "getSampleReadmesUsingGET_1",
				"produces": [
					"application/json",
					"application/yaml"
				],
				"parameters": [
					{
						"name": "Authorization",
						"in": "header",
						"description": "JWT token",
						"required": true,
						"type": "string",
						"pattern": "^(?:Bearer )?[A-Za-z0-9\\-\\._~\\+\\/]+=*$",
						"x-example": {
							"$ref": "#/securityDefinitions/Bearer/x-example"
						}
					},
					{
						"name": "application",
						"in": "path",
						"description": "application",
						"required": true,
						"type": "string",
						"maxLength": 2147483647,
						"minLength": 0,
						"pattern": "[^\u0000]+",
						"x-example": "css"
					},
					{
						"name": "environment",
						"in": "path",
						"description": "environment",
						"required": true,
						"type": "string",
						"maxLength": 2147483647,
						"minLength": 0,
						"pattern": "[^\u0000]+",
						"x-example": "dev"
					},
					{
						"name": "service-transaction-id",
						"in": "header",
						"description": "request ID echoed back by server [UUID or string]",
						"required": false,
						"type": "string",
						"pattern": "^[^\u0000]*$"
					}
				],
				"responses": {
					"200": {
						"description": "OK",
						"headers": {
							"service-transaction-id": {
								"type": "string",
								"format": "uuid",
								"description": "unique id generated by server or echoed back by server if received in request"
							}
						},
						"schema": {
							"$ref": "#/definitions/ResponseEnvelope«Set«NameValue»»"
						}
					},
					"401": {
						"description": "Unauthorized",
						"headers": {
							"service-transaction-id": {
								"type": "string",
								"format": "uuid",
								"description": "unique id generated by server or echoed back by server if received in request"
							}
						},
						"schema": {
							"$ref": "#/definitions/ConducktorApiException"
						}
					},
					"404": {
						"description": "Not found",
						"headers": {
							"service-transaction-id": {
								"type": "string",
								"format": "uuid",
								"description": "unique id generated by server or echoed back by server if received in request"
							}
						},
						"schema": {
							"$ref": "#/definitions/ConducktorApiException"
						}
					}
				},
				"security": [
					{
						"Bearer": [
							
						]
					}
				],
				"deprecated": false,
				"x-api-pattern": "QueryResource"
			}
		},
		"/applications/{application}/environments/{environment}/deployments/samples/{sample-name}/{release-name}": {
			"get": {
				"tags": [
					"Deployments"
				],
				"summary": "Get Conducktor sample deployment configuration composed of the system default config. Accepts environment name or namespace.",
				"description": "TODO: US579826",
				"operationId": "getSampleDeploymentConfigurationUsingGET_3",
				"produces": [
					"application/json",
					"application/yaml"
				],
				"parameters": [
					{
						"name": "Authorization",
						"in": "header",
						"description": "JWT token",
						"required": true,
						"type": "string",
						"pattern": "^(?:Bearer )?[A-Za-z0-9\\-\\._~\\+\\/]+=*$",
						"x-example": {
							"$ref": "#/securityDefinitions/Bearer/x-example"
						}
					},
					{
						"name": "application",
						"in": "path",
						"description": "application",
						"required": true,
						"type": "string",
						"maxLength": 2147483647,
						"minLength": 0,
						"pattern": "[^\u0000]+",
						"x-example": "css"
					},
					{
						"name": "environment",
						"in": "path",
						"description": "environment",
						"required": true,
						"type": "string",
						"maxLength": 2147483647,
						"minLength": 0,
						"pattern": "[^\u0000]+",
						"x-example": "dev"
					},
					{
						"name": "release-name",
						"in": "path",
						"description": "release-name",
						"required": true,
						"type": "string",
						"maxLength": 2147483647,
						"minLength": 0,
						"pattern": "[^\u0000]+",
						"x-example": "sample-release"
					},
					{
						"name": "sample-name",
						"in": "path",
						"description": "sample-name",
						"required": true,
						"type": "string",
						"maxLength": 2147483647,
						"minLength": 0,
						"pattern": "[^\u0000]+",
						"x-example": "sample-sample"
					},
					{
						"name": "service-transaction-id",
						"in": "header",
						"description": "request ID echoed back by server [UUID or string]",
						"required": false,
						"type": "string",
						"pattern": "^[^\u0000]*$"
					}
				],
				"responses": {
					"200": {
						"description": "OK",
						"headers": {
							"service-transaction-id": {
								"type": "string",
								"format": "uuid",
								"description": "unique id generated by server or echoed back by server if received in request"
							}
						},
						"schema": {
							"$ref": "#/definitions/ResponseEnvelope«HelmChart»"
						}
					},
					"401": {
						"description": "Unauthorized",
						"headers": {
							"service-transaction-id": {
								"type": "string",
								"format": "uuid",
								"description": "unique id generated by server or echoed back by server if received in request"
							}
						},
						"schema": {
							"$ref": "#/definitions/ConducktorApiException"
						}
					},
					"404": {
						"description": "Not found",
						"headers": {
							"service-transaction-id": {
								"type": "string",
								"format": "uuid",
								"description": "unique id generated by server or echoed back by server if received in request"
							}
						},
						"schema": {
							"$ref": "#/definitions/ConducktorApiException"
						}
					}
				},
				"security": [
					{
						"Bearer": [
							
						]
					}
				],
				"deprecated": false,
				"x-api-pattern": "QueryResource"
			}
		},
		"/applications/{application}/environments/{environment}/deployments/swap": {
			"post": {
				"tags": [
					"Deployments"
				],
				"summary": "Swap deployments. Accepts environment name or namespace.",
				"description": "TODO: US579826",
				"operationId": "swapUsingPOST_1",
				"consumes": [
					"application/json",
					"application/yaml"
				],
				"produces": [
					"*/*"
				],
				"parameters": [
					{
						"name": "Authorization",
						"in": "header",
						"description": "Authorization",
						"required": true,
						"type": "string",
						"maxLength": 2147483647,
						"minLength": 0,
						"x-example": {
							"$ref": "#/securityDefinitions/Bearer/x-example"
						}
					},
					{
						"name": "application",
						"in": "path",
						"description": "application",
						"required": true,
						"type": "string",
						"maxLength": 2147483647,
						"minLength": 0,
						"pattern": "[^\u0000]+",
						"x-example": "css"
					},
					{
						"name": "environment",
						"in": "path",
						"description": "environment",
						"required": true,
						"type": "string",
						"maxLength": 2147483647,
						"minLength": 0,
						"pattern": "[^\u0000]+",
						"x-example": "dev"
					},
					{
						"name": "service-transaction-id",
						"in": "header",
						"description": "request ID echoed back by server [UUID or string]",
						"required": false,
						"type": "string",
						"pattern": "^[^\u0000]*$"
					},
					{
						"in": "body",
						"name": "specs",
						"description": "specs",
						"required": true,
						"schema": {
							"type": "array",
							"items": {
								"$ref": "#/definitions/Spec"
							},
							"description": "A list of the blue/green service swap definitions"
						}
					}
				],
				"responses": {
					"200": {
						"description": "OK",
						"headers": {
							"service-transaction-id": {
								"type": "string",
								"format": "uuid",
								"description": "unique id generated by server or echoed back by server if received in request"
							}
						},
						"schema": {
							"$ref": "#/definitions/ResponseEnvelope«SwapResponse»"
						}
					},
					"401": {
						"description": "Unauthorized",
						"headers": {
							"service-transaction-id": {
								"type": "string",
								"format": "uuid",
								"description": "unique id generated by server or echoed back by server if received in request"
							}
						},
						"schema": {
							"$ref": "#/definitions/ConducktorApiException"
						}
					},
					"404": {
						"description": "Not found",
						"headers": {
							"service-transaction-id": {
								"type": "string",
								"format": "uuid",
								"description": "unique id generated by server or echoed back by server if received in request"
							}
						},
						"schema": {
							"$ref": "#/definitions/ConducktorApiException"
						}
					}
				},
				"security": [
					{
						"Bearer": [
							
						]
					}
				],
				"deprecated": false,
				"x-api-pattern": "ExecuteFunction"
			}
		},
		"/applications/{application}/environments/{environment}/deployments/values/{release-name}": {
			"get": {
				"tags": [
					"Deployments"
				],
				"summary": "Fetch Helm values for deployment config. Accepts environment name or namespace.",
				"description": "TODO: US579826",
				"operationId": "getHelmValuesForReleaseUsingGET_1",
				"consumes": [
					"application/yaml"
				],
				"produces": [
					"*/*"
				],
				"parameters": [
					{
						"name": "Authorization",
						"in": "header",
						"description": "Authorization",
						"required": true,
						"type": "string",
						"maxLength": 2147483647,
						"minLength": 0,
						"x-example": {
							"$ref": "#/securityDefinitions/Bearer/x-example"
						}
					},
					{
						"name": "application",
						"in": "path",
						"description": "application",
						"required": true,
						"type": "string",
						"maxLength": 2147483647,
						"minLength": 0,
						"pattern": "[^\u0000]+",
						"x-example": "css"
					},
					{
						"name": "environment",
						"in": "path",
						"description": "environment",
						"required": true,
						"type": "string",
						"maxLength": 2147483647,
						"minLength": 0,
						"pattern": "[^\u0000]+",
						"x-example": "dev"
					},
					{
						"name": "release-name",
						"in": "path",
						"description": "release-name",
						"required": true,
						"type": "string",
						"maxLength": 2147483647,
						"minLength": 0,
						"pattern": "[^\u0000]+",
						"x-example": "sample-release"
					},
					{
						"name": "service-transaction-id",
						"in": "header",
						"description": "request ID echoed back by server [UUID or string]",
						"required": false,
						"type": "string",
						"pattern": "^[^\u0000]*$"
					}
				],
				"responses": {
					"200": {
						"description": "OK",
						"headers": {
							"service-transaction-id": {
								"type": "string",
								"format": "uuid",
								"description": "unique id generated by server or echoed back by server if received in request"
							}
						},
						"schema": {
							"$ref": "#/definitions/ResponseEnvelope«JsonNode»"
						}
					},
					"401": {
						"description": "Unauthorized",
						"headers": {
							"service-transaction-id": {
								"type": "string",
								"format": "uuid",
								"description": "unique id generated by server or echoed back by server if received in request"
							}
						},
						"schema": {
							"$ref": "#/definitions/ConducktorApiException"
						}
					},
					"404": {
						"description": "Not found",
						"headers": {
							"service-transaction-id": {
								"type": "string",
								"format": "uuid",
								"description": "unique id generated by server or echoed back by server if received in request"
							}
						},
						"schema": {
							"$ref": "#/definitions/ConducktorApiException"
						}
					}
				},
				"security": [
					{
						"Bearer": [
							
						]
					}
				],
				"deprecated": false,
				"x-api-pattern": "QueryResource"
			}
		},
		"/applications/{application}/environments/{environment}/pods/{pod-name}": {
			"delete": {
				"tags": [
					"Deployments"
				],
				"summary": "Delete (restart) a named pod for a specified environment. Accepts environment name or namespace.",
				"description": "TODO: US579826",
				"operationId": "deleteAndRestartPodUsingDELETE_3",
				"produces": [
					"*/*"
				],
				"parameters": [
					{
						"name": "Authorization",
						"in": "header",
						"description": "JWT token",
						"required": true,
						"type": "string",
						"pattern": "^(?:Bearer )?[A-Za-z0-9\\-\\._~\\+\\/]+=*$",
						"x-example": {
							"$ref": "#/securityDefinitions/Bearer/x-example"
						}
					},
					{
						"name": "application",
						"in": "path",
						"description": "application",
						"required": true,
						"type": "string",
						"maxLength": 2147483647,
						"minLength": 0,
						"pattern": "[^\u0000]+",
						"x-example": "css"
					},
					{
						"name": "environment",
						"in": "path",
						"description": "environment",
						"required": true,
						"type": "string",
						"maxLength": 2147483647,
						"minLength": 0,
						"pattern": "[^\u0000]+",
						"x-example": "dev"
					},
					{
						"name": "pod-name",
						"in": "path",
						"description": "pod-name",
						"required": true,
						"type": "string",
						"maxLength": 2147483647,
						"minLength": 0,
						"pattern": "[^\u0000]+",
						"x-example": "sample-pod"
					},
					{
						"name": "service-transaction-id",
						"in": "header",
						"description": "request ID echoed back by server [UUID or string]",
						"required": false,
						"type": "string",
						"pattern": "^[^\u0000]*$"
					}
				],
				"responses": {
					"204": {
						"description": "No Content",
						"headers": {
							"service-transaction-id": {
								"type": "string",
								"format": "uuid",
								"description": "unique id generated by server or echoed back by server if received in request"
							}
						}
					},
					"401": {
						"description": "Unauthorized",
						"headers": {
							"service-transaction-id": {
								"type": "string",
								"format": "uuid",
								"description": "unique id generated by server or echoed back by server if received in request"
							}
						},
						"schema": {
							"$ref": "#/definitions/ConducktorApiException"
						}
					}
				},
				"security": [
					{
						"Bearer": [
							
						]
					}
				],
				"deprecated": false,
				"x-api-pattern": "RemoveResource"
			}
		},
		"/applications/{application}/environments/{environment}/pods/{pod-name}/{container-name}/logs": {
			"get": {
				"tags": [
					"Deployments"
				],
				"summary": "Get kubernetes pod log info by environment. Accepts environment name or namespace.",
				"description": "TODO: US579826",
				"operationId": "logWatchUsingGET_3",
				"produces": [
					"*/*"
				],
				"parameters": [
					{
						"name": "Authorization",
						"in": "header",
						"description": "JWT token",
						"required": true,
						"type": "string",
						"pattern": "^(?:Bearer )?[A-Za-z0-9\\-\\._~\\+\\/]+=*$",
						"x-example": {
							"$ref": "#/securityDefinitions/Bearer/x-example"
						}
					},
					{
						"name": "application",
						"in": "path",
						"description": "application",
						"required": true,
						"type": "string",
						"maxLength": 2147483647,
						"minLength": 0,
						"pattern": "[^\u0000]+",
						"x-example": "css"
					},
					{
						"name": "container-name",
						"in": "path",
						"description": "container-name",
						"required": true,
						"type": "string",
						"maxLength": 2147483647,
						"minLength": 0,
						"pattern": "[^\u0000]+",
						"x-example": "example-container-name"
					},
					{
						"name": "environment",
						"in": "path",
						"description": "environment",
						"required": true,
						"type": "string",
						"maxLength": 2147483647,
						"minLength": 0,
						"pattern": "[^\u0000]+",
						"x-example": "dev"
					},
					{
						"name": "follow",
						"in": "query",
						"description": "follow",
						"required": false,
						"type": "boolean",
						"default": false
					},
					{
						"name": "pod-name",
						"in": "path",
						"description": "pod-name",
						"required": true,
						"type": "string",
						"maxLength": 2147483647,
						"minLength": 0,
						"pattern": "[^\u0000]+",
						"x-example": "example-pod"
					},
					{
						"name": "service-transaction-id",
						"in": "header",
						"description": "request ID echoed back by server [UUID or string]",
						"required": false,
						"type": "string",
						"pattern": "^[^\u0000]*$"
					}
				],
				"responses": {
					"200": {
						"description": "OK",
						"headers": {
							"service-transaction-id": {
								"type": "string",
								"format": "uuid",
								"description": "unique id generated by server or echoed back by server if received in request"
							}
						},
						"schema": {
							"$ref": "#/definitions/StreamingResponseBody"
						}
					},
					"401": {
						"description": "Unauthorized",
						"headers": {
							"service-transaction-id": {
								"type": "string",
								"format": "uuid",
								"description": "unique id generated by server or echoed back by server if received in request"
							}
						},
						"schema": {
							"$ref": "#/definitions/ConducktorApiException"
						}
					},
					"404": {
						"description": "Not found",
						"headers": {
							"service-transaction-id": {
								"type": "string",
								"format": "uuid",
								"description": "unique id generated by server or echoed back by server if received in request"
							}
						},
						"schema": {
							"$ref": "#/definitions/ConducktorApiException"
						}
					}
				},
				"security": [
					{
						"Bearer": [
							
						]
					}
				],
				"deprecated": false,
				"x-api-pattern": "QueryResource"
			}
		}
	},
	"securityDefinitions": {
		"Bearer": {
			"type": "apiKey",
			"name": "Authorization",
			"in": "header",
			"description": "A security token with the property that any party in possession of the token (a \"bearer\") can use the token in any way that any other party in possession of it can. Using a bearer token does not require a bearer to prove possession of cryptographic key material (proof-of-possession).",
			"x-example": "Bearer eyJhbGciOiJIUzI1NiIsInR5cCI6IkpXVCJ9.eyJhcHBzIjpbeyJhcHAiOiJzYngiLCJvd25lciI6IkFDaGFuZHIyIn0seyJhcHAiOiJzdmNhY2N0Iiwib3duZXIiOiJDU3BhbnRvIn0seyJhcHAiOiJjc3MiLCJvd25lciI6Ik5DaGF1ZGgxIn0seyJhcHAiOiJseXIiLCJvd25lciI6IlBEYWx5NSJ9XSwiZXhwIjoxNTU5ODE0MTc5LCJncm91cHMiOlsicl9rOHNfc2J4X2Rldl9hZG1pbiIsInJfZWZrX2x5cl9wcmRfcnciLCJyX2Vma19jc3NfcHJkX3J3Iiwicl9lZmtfY3NzX3N0Z19ydyIsInJfZWZrX2Nzc19kZXZfcnciLCJyX2s4c19jc3NfcHJkX3J3Iiwicl9rOHNfY3NzX3BsYl9ydyIsInJfazhzX2Nzc19zdGdfcnciLCJyX2s4c19jc3NfZGV2X3J3Iiwicl9iaXRidWNrZXRfc2J4X3ByZF9kZXZvcHMiLCJyX2plbmtpbnNfc2J4X3ByZF9kZXZvcHMiLCJyX21hcmF0aG9uX2Nzc19kZXZfYWRtaW4iLCJyX21hcmF0aG9uX2Nzc19wcmRfYWRtaW4iLCJyX2FydGlmYWN0b3J5X2Nzc19wcmRfZGV2b3BzIiwicl9zb25hcnF1YmVfY3NzX3ByZF9kZXZvcHMiLCJyX2JpdGJ1Y2tldF9jc3NfcHJkX2Rldm9wcyIsInJfamVua2luc19jc3NfcHJkX2Rldm9wcyIsInJfYml0YnVja2V0X2Nzc19wcmRfYWRtaW4iLCJyX2FkZHNfc3ZjYWNjdF9zdGFuZGFyZCJdLCJpYXQiOjE1NTk3Mjc3NzksInVpZCI6InN2Y19jc3NfcHJkX2NpY2QiLCJ1c2VybmFtZSI6InN2Y19jc3NfcHJkX2NpY2QifQ.DwulAkuADoghB2CTQKEPcnFqQE0am842FwdGjX3PXkg"
		}
	},
	"definitions": {
		"ConducktorApiException": {
			"type": "object",
			"properties": {
				"code": {
					"type": "string",
					"description": "succinct, domain-specific, human-readable text string to identify the type of error for the given status code",
					"minLength": 0,
					"maxLength": 2147483647,
					"enum": [
						"AUTHORIZATION",
						"FORBIDDEN",
						"NOT_FOUND",
						"BAD_REQUEST",
						"CONFLICT",
						"BUILD_SERVICE_ERROR",
						"BUILD_SERVICE_BAD_REQUEST",
						"BUILD_SERVICE_NOT_FOUND",
						"BUILD_SERVICE_CONFLICT",
						"BUILD_SERVICE_UNKNOWN_ERROR",
						"CICD_ERROR",
						"CICD_BAD_REQUEST",
						"CICD_NOT_FOUND",
						"CICD_CONFLICT",
						"CLUSTER_NOT_FOUND",
						"CLUSTER_MISSING_OPERATIONAL_DATA",
						"CLUSTER_SPLUNK_URL_NOT_SET",
						"CONFIGURATION_OR_DEVELOPER_ERROR",
						"CONFIG_NOT_FOUND",
						"CUSTOM_HELM_CHART_MALFORMED_REQUEST",
						"CUSTOM_HELM_CHART_INVALID_CHART",
						"CUSTOM_HELM_CHART_INVALID_FILE_EXTENSION",
						"CUSTOM_HELM_CHART_INVALID_FILE_NAME",
						"CUSTOM_HELM_CHART_INVALID_FILE_PARAMETER",
						"CUSTOM_HELM_CHART_INVALID_JSON",
						"CUSTOM_HELM_CHART_INVALID_YAML",
						"DEPLOYMENT_CONFIG_MALFORMED_OR_NOT_V1",
						"DEPLOYMENT_BAD_REQUEST",
						"DEPLOYMENT_NOT_FOUND",
						"DEPLOYMENT_UNKNOWN_ERROR",
						"DEPLOYMENT_ALREADY_EXISTS",
						"DEPLOYMENT_UNABLE_TO_PARSE_RESPONSE",
						"NETWORK_READ_TIMEOUT",
						"DEPLOYMENT_DESCRIPTOR_CREATE_INVALID_REQUEST",
						"ENVIRONMENTS_NOT_SPECIFIED",
						"ENVIRONMENT_NOT_FOUND",
						"ENVIRONMENTS_NOT_FOUND",
						"ENVIRONMENT_NAME_FOR_APP_ALREADY_USED",
						"ENVIRONMENT_NAME_AND_NS_EXISTS",
						"ENVIRONMENT_NAMESPACE_ALREADY_EXISTS",
						"DS_UNKNOWN_ERROR",
						"DS_UNABLE_TO_CONNECT",
						"DS_ITEM_NOT_FOUND",
						"DS_SERIALIZATION_ERROR",
						"DS_ITEM_ALREADY_EXISTS",
						"DS_RESPONSE_STATUS_ERROR",
						"DS_INCOMPLETE_RECORD",
						"PIPELINES_NO_DEFAULT_BUILD_JOB_CONFIGURED",
						"POD_NOT_FOUND",
						"PROVISION_NOT_FOUND",
						"PROVISION_UNKNOWN_ERROR",
						"PROVISION_UNABLE_TO_PARSE_RESPONSE",
						"INTAKE_NOT_FOUND",
						"INTAKE_BAD_REQUEST",
						"INTAKE_FORBIDDEN",
						"INTAKE_CONFLICT",
						"INTAKE_UNKNOWN_ERROR",
						"INTAKE_UNABLE_TO_PARSE_RESPONSE",
						"INTAKE_NO_APP_SPECIFIED",
						"INTAKE_NO_PROVISION_INFO",
						"REPO_SERVICE_ERROR",
						"REPO_SERVICE_BAD_REQUEST",
						"REPO_SERVICE_NOT_FOUND",
						"REPO_SERVICE_CONFLICT",
						"REPO_SERVICE_UNKNOWN_ERROR",
						"SECRET_NOT_FOUND",
						"SERVICE_ALREADY_EXISTS",
						"SERVICE_INVALID_TEMPLATE_NAME",
						"SERVICE_CREATE_INVALID_REQUEST",
						"SWAP_BAD_REQUEST",
						"SWAP_NOT_FOUND",
						"SWAP_UNKNOWN_ERROR",
						"TELEMETRY_NOT_FOUND",
						"TELEMETRY_UNKNOWN_ERROR",
						"K8S_SA_SECRET_RETRIEVAL",
						"K8S_SA_SECRET_STORAGE",
						"K8S_ITEM_NOT_FOUND",
						"K8S_ITEM_EXISTS",
						"K8S_UNAUTHORIZED",
						"K8S_UNEXPECTED_STATUS",
						"K8S_UNKNOWN_ERROR0",
						"K8S_CREATE_NAMESPACE_BAD_REQUEST",
						"K8S_CREATE_NAMESPACE_CONFLICT",
						"K8S_CREATE_NAMESPACE_FORBIDDEN",
						"K8S_CREATE_NAMESPACE_UNKNOWN_ERROR",
						"DUCKTALES_IO_ERROR",
						"UNKNOWN_ERROR",
						"VALIDATION_ERROR"
					]
				},
				"data": {
					"description": "data that provides a more detailed technical explanation of the error"
				},
				"developerMessage": {
					"type": "string",
					"description": "human readable text that describes the nature of the error",
					"minLength": 0,
					"maxLength": 2147483647,
					"pattern": "[^\u0000]+"
				},
				"errorCode": {
					"type": "string",
					"description": "succinct, domain-specific, human-readable text string to identify the type of error for the given status code",
					"minLength": 1,
					"maxLength": 30,
					"enum": [
						"AUTHORIZATION",
						"FORBIDDEN",
						"NOT_FOUND",
						"BAD_REQUEST",
						"CONFLICT",
						"BUILD_SERVICE_ERROR",
						"BUILD_SERVICE_BAD_REQUEST",
						"BUILD_SERVICE_NOT_FOUND",
						"BUILD_SERVICE_CONFLICT",
						"BUILD_SERVICE_UNKNOWN_ERROR",
						"CICD_ERROR",
						"CICD_BAD_REQUEST",
						"CICD_NOT_FOUND",
						"CICD_CONFLICT",
						"CLUSTER_NOT_FOUND",
						"CLUSTER_MISSING_OPERATIONAL_DATA",
						"CLUSTER_SPLUNK_URL_NOT_SET",
						"CONFIGURATION_OR_DEVELOPER_ERROR",
						"CONFIG_NOT_FOUND",
						"CUSTOM_HELM_CHART_MALFORMED_REQUEST",
						"CUSTOM_HELM_CHART_INVALID_CHART",
						"CUSTOM_HELM_CHART_INVALID_FILE_EXTENSION",
						"CUSTOM_HELM_CHART_INVALID_FILE_NAME",
						"CUSTOM_HELM_CHART_INVALID_FILE_PARAMETER",
						"CUSTOM_HELM_CHART_INVALID_JSON",
						"CUSTOM_HELM_CHART_INVALID_YAML",
						"DEPLOYMENT_CONFIG_MALFORMED_OR_NOT_V1",
						"DEPLOYMENT_BAD_REQUEST",
						"DEPLOYMENT_NOT_FOUND",
						"DEPLOYMENT_UNKNOWN_ERROR",
						"DEPLOYMENT_ALREADY_EXISTS",
						"DEPLOYMENT_UNABLE_TO_PARSE_RESPONSE",
						"NETWORK_READ_TIMEOUT",
						"DEPLOYMENT_DESCRIPTOR_CREATE_INVALID_REQUEST",
						"ENVIRONMENTS_NOT_SPECIFIED",
						"ENVIRONMENT_NOT_FOUND",
						"ENVIRONMENTS_NOT_FOUND",
						"ENVIRONMENT_NAME_FOR_APP_ALREADY_USED",
						"ENVIRONMENT_NAME_AND_NS_EXISTS",
						"ENVIRONMENT_NAMESPACE_ALREADY_EXISTS",
						"DS_UNKNOWN_ERROR",
						"DS_UNABLE_TO_CONNECT",
						"DS_ITEM_NOT_FOUND",
						"DS_SERIALIZATION_ERROR",
						"DS_ITEM_ALREADY_EXISTS",
						"DS_RESPONSE_STATUS_ERROR",
						"DS_INCOMPLETE_RECORD",
						"PIPELINES_NO_DEFAULT_BUILD_JOB_CONFIGURED",
						"POD_NOT_FOUND",
						"PROVISION_NOT_FOUND",
						"PROVISION_UNKNOWN_ERROR",
						"PROVISION_UNABLE_TO_PARSE_RESPONSE",
						"INTAKE_NOT_FOUND",
						"INTAKE_BAD_REQUEST",
						"INTAKE_FORBIDDEN",
						"INTAKE_CONFLICT",
						"INTAKE_UNKNOWN_ERROR",
						"INTAKE_UNABLE_TO_PARSE_RESPONSE",
						"INTAKE_NO_APP_SPECIFIED",
						"INTAKE_NO_PROVISION_INFO",
						"REPO_SERVICE_ERROR",
						"REPO_SERVICE_BAD_REQUEST",
						"REPO_SERVICE_NOT_FOUND",
						"REPO_SERVICE_CONFLICT",
						"REPO_SERVICE_UNKNOWN_ERROR",
						"SECRET_NOT_FOUND",
						"SERVICE_ALREADY_EXISTS",
						"SERVICE_INVALID_TEMPLATE_NAME",
						"SERVICE_CREATE_INVALID_REQUEST",
						"SWAP_BAD_REQUEST",
						"SWAP_NOT_FOUND",
						"SWAP_UNKNOWN_ERROR",
						"TELEMETRY_NOT_FOUND",
						"TELEMETRY_UNKNOWN_ERROR",
						"K8S_SA_SECRET_RETRIEVAL",
						"K8S_SA_SECRET_STORAGE",
						"K8S_ITEM_NOT_FOUND",
						"K8S_ITEM_EXISTS",
						"K8S_UNAUTHORIZED",
						"K8S_UNEXPECTED_STATUS",
						"K8S_UNKNOWN_ERROR0",
						"K8S_CREATE_NAMESPACE_BAD_REQUEST",
						"K8S_CREATE_NAMESPACE_CONFLICT",
						"K8S_CREATE_NAMESPACE_FORBIDDEN",
						"K8S_CREATE_NAMESPACE_UNKNOWN_ERROR",
						"DUCKTALES_IO_ERROR",
						"UNKNOWN_ERROR",
						"VALIDATION_ERROR"
					]
				},
				"statusCode": {
					"type": "integer",
					"format": "int32",
					"description": "HTTP status code",
					"minimum": 0,
					"maximum": 2147483647
				},
				"userMessage": {
					"type": "string",
					"description": "human readable text that describes the nature of the error",
					"minLength": 0,
					"maxLength": 2147483647,
					"pattern": "[^\u0000]+"
				}
			},
			"title": "ConducktorApiException",
			"description": "A common error response format of the API"
		},
		"ConducktorError": {
			"type": "object",
			"properties": {
				"data": {
					"description": "Detail data of error"
				},
				"details": {
					"type": "string",
					"description": "Error details",
					"minLength": 0,
					"maxLength": 2147483647,
					"pattern": "[^\u0000]+"
				},
				"errorCode": {
					"type": "string",
					"description": "Error code",
					"enum": [
						"AUTHORIZATION",
						"FORBIDDEN",
						"NOT_FOUND",
						"BAD_REQUEST",
						"CONFLICT",
						"BUILD_SERVICE_ERROR",
						"BUILD_SERVICE_BAD_REQUEST",
						"BUILD_SERVICE_NOT_FOUND",
						"BUILD_SERVICE_CONFLICT",
						"BUILD_SERVICE_UNKNOWN_ERROR",
						"CICD_ERROR",
						"CICD_BAD_REQUEST",
						"CICD_NOT_FOUND",
						"CICD_CONFLICT",
						"CLUSTER_NOT_FOUND",
						"CLUSTER_MISSING_OPERATIONAL_DATA",
						"CLUSTER_SPLUNK_URL_NOT_SET",
						"CONFIGURATION_OR_DEVELOPER_ERROR",
						"CONFIG_NOT_FOUND",
						"CUSTOM_HELM_CHART_MALFORMED_REQUEST",
						"CUSTOM_HELM_CHART_INVALID_CHART",
						"CUSTOM_HELM_CHART_INVALID_FILE_EXTENSION",
						"CUSTOM_HELM_CHART_INVALID_FILE_NAME",
						"CUSTOM_HELM_CHART_INVALID_FILE_PARAMETER",
						"CUSTOM_HELM_CHART_INVALID_JSON",
						"CUSTOM_HELM_CHART_INVALID_YAML",
						"DEPLOYMENT_CONFIG_MALFORMED_OR_NOT_V1",
						"DEPLOYMENT_BAD_REQUEST",
						"DEPLOYMENT_NOT_FOUND",
						"DEPLOYMENT_UNKNOWN_ERROR",
						"DEPLOYMENT_ALREADY_EXISTS",
						"DEPLOYMENT_UNABLE_TO_PARSE_RESPONSE",
						"NETWORK_READ_TIMEOUT",
						"DEPLOYMENT_DESCRIPTOR_CREATE_INVALID_REQUEST",
						"ENVIRONMENTS_NOT_SPECIFIED",
						"ENVIRONMENT_NOT_FOUND",
						"ENVIRONMENTS_NOT_FOUND",
						"ENVIRONMENT_NAME_FOR_APP_ALREADY_USED",
						"ENVIRONMENT_NAME_AND_NS_EXISTS",
						"ENVIRONMENT_NAMESPACE_ALREADY_EXISTS",
						"DS_UNKNOWN_ERROR",
						"DS_UNABLE_TO_CONNECT",
						"DS_ITEM_NOT_FOUND",
						"DS_SERIALIZATION_ERROR",
						"DS_ITEM_ALREADY_EXISTS",
						"DS_RESPONSE_STATUS_ERROR",
						"DS_INCOMPLETE_RECORD",
						"PIPELINES_NO_DEFAULT_BUILD_JOB_CONFIGURED",
						"POD_NOT_FOUND",
						"PROVISION_NOT_FOUND",
						"PROVISION_UNKNOWN_ERROR",
						"PROVISION_UNABLE_TO_PARSE_RESPONSE",
						"INTAKE_NOT_FOUND",
						"INTAKE_BAD_REQUEST",
						"INTAKE_FORBIDDEN",
						"INTAKE_CONFLICT",
						"INTAKE_UNKNOWN_ERROR",
						"INTAKE_UNABLE_TO_PARSE_RESPONSE",
						"INTAKE_NO_APP_SPECIFIED",
						"INTAKE_NO_PROVISION_INFO",
						"REPO_SERVICE_ERROR",
						"REPO_SERVICE_BAD_REQUEST",
						"REPO_SERVICE_NOT_FOUND",
						"REPO_SERVICE_CONFLICT",
						"REPO_SERVICE_UNKNOWN_ERROR",
						"SECRET_NOT_FOUND",
						"SERVICE_ALREADY_EXISTS",
						"SERVICE_INVALID_TEMPLATE_NAME",
						"SERVICE_CREATE_INVALID_REQUEST",
						"SWAP_BAD_REQUEST",
						"SWAP_NOT_FOUND",
						"SWAP_UNKNOWN_ERROR",
						"TELEMETRY_NOT_FOUND",
						"TELEMETRY_UNKNOWN_ERROR",
						"K8S_SA_SECRET_RETRIEVAL",
						"K8S_SA_SECRET_STORAGE",
						"K8S_ITEM_NOT_FOUND",
						"K8S_ITEM_EXISTS",
						"K8S_UNAUTHORIZED",
						"K8S_UNEXPECTED_STATUS",
						"K8S_UNKNOWN_ERROR0",
						"K8S_CREATE_NAMESPACE_BAD_REQUEST",
						"K8S_CREATE_NAMESPACE_CONFLICT",
						"K8S_CREATE_NAMESPACE_FORBIDDEN",
						"K8S_CREATE_NAMESPACE_UNKNOWN_ERROR",
						"DUCKTALES_IO_ERROR",
						"UNKNOWN_ERROR",
						"VALIDATION_ERROR"
					]
				},
				"statusCode": {
					"type": "integer",
					"format": "int32",
					"description": "HTTP status code"
				},
				"timestamp": {
					"type": "string",
					"format": "date-time",
					"description": "Timestamp"
				}
			},
			"title": "ConducktorError",
			"description": "Conducktor service error descriptor"
		},
		"ConfigMapData": {
			"type": "object",
			"properties": {
				"app": {
					"type": "string",
					"description": "Application identifier",
					"minLength": 0,
					"maxLength": 2147483647,
					"pattern": "[^\u0000]+"
				},
				"binaryData": {
					"type": "array",
					"description": "To be defined",
					"items": {
						"$ref": "#/definitions/NameValue"
					}
				},
				"data": {
					"type": "array",
					"description": "To be defined",
					"items": {
						"$ref": "#/definitions/NameValue"
					}
				},
				"ipAddress": {
					"type": "string",
					"description": "IP address",
					"minLength": 0,
					"maxLength": 2147483647,
					"pattern": "[^\u0000]+"
				},
				"labels": {
					"type": "array",
					"description": "<https://kubernetes.io/docs/concepts/overview/working-with-objects/labels/>",
					"items": {
						"$ref": "#/definitions/NameValue"
					}
				},
				"name": {
					"type": "string",
					"description": "Release identifier",
					"minLength": 0,
					"maxLength": 2147483647,
					"pattern": "[^\u0000]+"
				},
				"namespace": {
					"type": "string",
					"description": "Namespace identifier",
					"minLength": 0,
					"maxLength": 2147483647,
					"pattern": "[^\u0000]+"
				}
			},
			"title": "ConfigMapData",
			"description": "Helm ConfigMap"
		},
		"HelmChart": {
			"type": "object",
			"properties": {
				"namespace": {
					"type": "string",
					"description": "Namespace",
					"minLength": 0,
					"maxLength": 2147483647,
					"pattern": "[^\u0000]+"
				},
				"releaseName": {
					"type": "string",
					"description": "Release name",
					"minLength": 0,
					"maxLength": 2147483647,
					"pattern": "[^\u0000]+"
				},
				"repository": {
					"type": "string",
					"description": "Repository",
					"minLength": 0,
					"maxLength": 2147483647,
					"pattern": "[^\u0000]+"
				},
				"target": {
					"type": "string",
					"description": "Target context",
					"minLength": 0,
					"maxLength": 2147483647,
					"pattern": "[^\u0000]+"
				},
				"values": {
					"$ref": "#/definitions/JsonNode"
				}
			},
			"title": "HelmChart",
			"description": "Helm Chart descriptor"
		},
		"JsonNode": {
			"title": "JsonNode",
			"description": "Can be anything: string, number, array, object, etc."
		},
		"NameValue": {
			"type": "object",
			"properties": {
				"name": {
					"type": "string",
					"description": "Name data",
					"minLength": 0,
					"maxLength": 2147483647,
					"pattern": "[^\u0000]+"
				},
				"value": {
					"type": "string",
					"description": "Value data",
					"minLength": 0,
					"maxLength": 2147483647,
					"pattern": "[^\u0000]+"
				}
			},
			"title": "NameValue",
			"description": "Name-value pair descriptor"
		},
		"PatchError": {
			"type": "object",
			"properties": {
				"error": {
					"type": "string",
					"description": "Patching error",
					"minLength": 0,
					"maxLength": 2147483647,
					"pattern": "[^\u0000]+"
				},
				"ingressName": {
					"type": "string",
					"description": "Ingress name",
					"pattern": "[^\u0000]+"
				}
			},
			"title": "PatchError",
			"description": "Entity describing the patching failure"
		},
		"Replica": {
			"type": "object",
			"properties": {
				"matchReplicas": {
					"type": "boolean",
					"description": "Should match replicas"
				},
				"replicaCount": {
					"type": "integer",
					"format": "int32",
					"description": "Replica count"
				},
				"schedule": {
					"type": "string",
					"description": "To be defined",
					"minLength": 0,
					"maxLength": 2147483647,
					"pattern": "[^\u0000]+"
				},
				"terminate": {
					"type": "string",
					"description": "To be defined",
					"minLength": 0,
					"maxLength": 2147483647,
					"pattern": "[^\u0000]+"
				}
			},
			"title": "Replica",
			"description": "Replica descriptor"
		},
		"ResponseEnvelope«ConfigMapData»": {
			"type": "object",
			"properties": {
				"data": {
					"$ref": "#/definitions/ConfigMapData"
				},
				"steps": {
					"type": "array",
					"description": "Internal subsequent steps",
					"items": {
						"$ref": "#/definitions/SelfServiceStep"
					}
				}
			},
			"title": "ResponseEnvelope«ConfigMapData»",
			"description": "Response envelope containing the response data and steps"
		},
		"ResponseEnvelope«HelmChart»": {
			"type": "object",
			"properties": {
				"data": {
					"$ref": "#/definitions/HelmChart"
				},
				"steps": {
					"type": "array",
					"description": "Internal subsequent steps",
					"items": {
						"$ref": "#/definitions/SelfServiceStep"
					}
				}
			},
			"title": "ResponseEnvelope«HelmChart»",
			"description": "Response envelope containing the response data and steps"
		},
		"ResponseEnvelope«JsonNode»": {
			"type": "object",
			"properties": {
				"data": {
					"$ref": "#/definitions/JsonNode"
				},
				"steps": {
					"type": "array",
					"description": "Internal subsequent steps",
					"items": {
						"$ref": "#/definitions/SelfServiceStep"
					}
				}
			},
			"title": "ResponseEnvelope«JsonNode»",
			"description": "Response envelope containing the response data and steps"
		},
		"ResponseEnvelope«List«ConfigMapData»»": {
			"type": "object",
			"properties": {
				"data": {
					"type": "array",
					"items": {
						"$ref": "#/definitions/ConfigMapData"
					},
					"description": "List of Helm Configmap data"
				},
				"steps": {
					"type": "array",
					"description": "Internal subsequent steps",
					"items": {
						"$ref": "#/definitions/SelfServiceStep"
					}
				}
			},
			"title": "ResponseEnvelope«List«ConfigMapData»»",
			"description": "Response envelope containing the response data and steps"
		},
		"ResponseEnvelope«RolloutStatus»": {
			"type": "object",
			"properties": {
				"data": {
					"$ref": "#/definitions/RolloutStatus"
				},
				"steps": {
					"type": "array",
					"description": "Internal subsequent steps",
					"items": {
						"$ref": "#/definitions/SelfServiceStep"
					}
				}
			},
			"title": "ResponseEnvelope«RolloutStatus»",
			"description": "Response envelope containing the response data and steps"
		},
		"ResponseEnvelope«Set«NameValue»»": {
			"type": "object",
			"properties": {
				"data": {
					"type": "array",
					"items": {
						"$ref": "#/definitions/NameValue"
					},
					"description": "Set of name-value pairs"
				},
				"steps": {
					"type": "array",
					"description": "Internal subsequent steps",
					"items": {
						"$ref": "#/definitions/SelfServiceStep"
					}
				}
			},
			"title": "ResponseEnvelope«Set«NameValue»»",
			"description": "Response envelope containing the response data and steps"
		},
		"ResponseEnvelope«SwapResponse»": {
			"type": "object",
			"properties": {
				"data": {
					"$ref": "#/definitions/SwapResponse"
				},
				"steps": {
					"type": "array",
					"description": "Internal subsequent steps",
					"items": {
						"$ref": "#/definitions/SelfServiceStep"
					}
				}
			},
			"title": "ResponseEnvelope«SwapResponse»",
			"description": "Response envelope containing the response data and steps"
		},
		"ResponseEnvelope«boolean»": {
			"type": "object",
			"properties": {
				"data": {
					"type": "boolean",
					"description": "True/False"
				},
				"steps": {
					"type": "array",
					"description": "Internal subsequent steps",
					"items": {
						"$ref": "#/definitions/SelfServiceStep"
					}
				}
			},
			"title": "ResponseEnvelope«boolean»",
			"description": "Response envelope containing the response data and steps"
		},
		"ResponseEnvelope«int»": {
			"type": "object",
			"properties": {
				"data": {
					"type": "integer",
					"format": "int32",
					"description": "Integer value"
				},
				"steps": {
					"type": "array",
					"description": "Internal subsequent steps",
					"items": {
						"$ref": "#/definitions/SelfServiceStep"
					}
				}
			},
			"title": "ResponseEnvelope«int»",
			"description": "Response envelope containing the response data and steps"
		},
		"RolloutStatus": {
			"type": "object",
			"properties": {
				"description": {
					"type": "string",
					"description": "Description",
					"minLength": 0,
					"maxLength": 2147483647,
					"pattern": "[^\u0000]+"
				},
				"environment": {
					"type": "string",
					"description": "Environment value",
					"minLength": 0,
					"maxLength": 2147483647,
					"pattern": "[^\u0000]+"
				},
				"firstDeployed": {
					"type": "integer",
					"format": "int64",
					"description": "To be defined"
				},
				"helmRepo": {
					"type": "string",
					"description": "To be defined",
					"minLength": 0,
					"maxLength": 2147483647,
					"pattern": "[^\u0000]+"
				},
				"lastDeployed": {
					"type": "integer",
					"format": "int64",
					"description": "To be defined"
				},
				"name": {
					"type": "string",
					"description": "To be defined",
					"minLength": 0,
					"maxLength": 2147483647,
					"pattern": "[^\u0000]+"
				},
				"namespace": {
					"type": "string",
					"description": "Namespace value",
					"minLength": 0,
					"maxLength": 2147483647,
					"pattern": "[^\u0000]+"
				},
				"notes": {
					"type": "string",
					"description": "Notes",
					"minLength": 0,
					"maxLength": 2147483647,
					"pattern": "[^\u0000]+"
				},
				"resources": {
					"type": "string",
					"description": "Resources",
					"minLength": 0,
					"maxLength": 2147483647,
					"pattern": "[^\u0000]+"
				},
				"status": {
					"type": "integer",
					"format": "int32",
					"description": "HTTP status"
				}
			},
			"title": "RolloutStatus",
			"description": "Rollout status descriptor"
		},
		"SelfServiceStep": {
			"type": "object",
			"properties": {
				"errors": {
					"type": "array",
					"description": "Errors caught during the execution of the step",
					"items": {
						"$ref": "#/definitions/ConducktorError"
					}
				},
				"message": {
					"type": "string",
					"description": "Error message",
					"minLength": 0,
					"maxLength": 2147483647,
					"pattern": "[^\u0000]+"
				},
				"name": {
					"type": "string",
					"description": "Name of the step",
					"minLength": 0,
					"maxLength": 2147483647,
					"enum": [
						"STEP_NAME",
						"CREATE_SERVICE_RECORD",
						"RETRIEVE_SERVICE_RECORD",
						"UPDATE_SERVICE_RECORD",
						"DELETE_SERVICE_RECORD",
						"RETRIEVE_BUILD_JOBS",
						"DEPLOY_SERVICE",
						"RESTART_SERVICE",
						"DEPLOY_SERVICE_RECORD",
						"RETRIEVE_DEPLOYMENT_INFO",
						"RETRIEVE_HELM_VALUES_FOR_RELEASE",
						"RETRIEVE_DEPLOYMENT_RELEASE_INFO",
						"RETRIEVE_ENVIRONMENT_RUNTIME",
						"ROLLBACK_DEPLOYMENT",
						"DELETE_DEPLOYMENT",
						"SCALE_DEPLOYMENT",
						"STORE_ACTIVE_DEPLOYMENT",
						"DEPLOY_SERVICE_WITH_CUSTOM_HELM_CHART",
						"DEPLOY_SERVICE_WITH_HELM_CHART",
						"DEPLOYMENT_DESCRIPTOR_STORE",
						"DEPLOYMENT_DESCRIPTOR_DELETE",
						"DEPLOYMENT_DESCRIPTOR_RETRIEVE",
						"PIPELINE_STORE_SECRET",
						"PIPELINE_DELETE_SECRET",
						"PIPELINE_RETRIEVE_SECRETS",
						"PIPELINE_STORE_CLUSTER",
						"PIPELINE_RETRIEVE_CLUSTERS",
						"PIPELINE_STORE_DEPLOYMENT",
						"PIPELINE_RETRIEVE_DEPLOYMENTS",
						"PIPELINE_STORE_JOB",
						"PIPELINE_DELETE_JOB",
						"PIPELINE_RETRIEVE_JOBS",
						"GIT_REPO_CREATION",
						"GIT_REPO_SEEDING",
						"GIT_REPO_DELETION",
						"BUILD_JOB_CREATION",
						"BUILD_JOB_TRIGGER",
						"BUILD_JOB_DELETION",
						"DNS_RECORD_CREATION",
						"PROVISION_AND_SERVICE",
						"PROVISION_SERVICE",
						"PROVISION_STATUS",
						"DELETE_REPO",
						"DELETE_PROVISION_STATUS",
						"PROVISION_VALIDATE_PROVISION_INFO",
						"CREATE_SERVICE",
						"DELETE_SERVICE",
						"GET_SERVICE",
						"GET_SERVICES",
						"GET_SECRET",
						"GET_SECRETS",
						"STORE_SECRET",
						"DELETE_SECRET",
						"CREATE_CONFIG_MAP",
						"GET_CONFIG_MAP",
						"GET_CONFIG_MAPS",
						"STORE_CONFIG_MAP",
						"DELETE_CONFIG_MAP",
						"INTAKE_CREATE_APP",
						"INTAKE_UPDATE_APP",
						"INTAKE_SUBMIT_APP",
						"INTAKE_GET_APP",
						"INTAKE_GET_APP_LIST",
						"INTAKE_DELETE_APP",
						"INTAKE_VALIDATE_PROVISION_INFO",
						"GET_CLUSTERS",
						"GET_CLUSTER",
						"STORE_CLUSTER",
						"DELETE_CLUSTER",
						"GET_ENVIRONMENT",
						"GET_ENVIRONMENTS",
						"STORE_ENVIRONMENT",
						"DELETE_ENVIRONMENT_K8S",
						"DELETE_ENVIRONMENT_ES",
						"CREATE_NAMESPACE",
						"GET_NAMESPACE",
						"GET_SAMPLE",
						"SWAP",
						"GET_TELEMETRY",
						"GET_CLEARWATER",
						"DELETE_POD",
						"UNKNOWN_STEP"
					]
				},
				"status": {
					"type": "string",
					"description": "Status descriptor",
					"minLength": 0,
					"maxLength": 2147483647,
					"enum": [
						"OK",
						"FAILED",
						"SKIPPED"
					]
				}
			},
			"title": "SelfServiceStep",
			"description": "Conducktor internal service step descriptor"
		},
		"Spec": {
			"type": "object",
			"properties": {
				"blueService": {
					"type": "string",
					"description": "Blue service descriptor",
					"minLength": 0,
					"maxLength": 2147483647,
					"pattern": "[^\u0000]+"
				},
				"greenService": {
					"type": "string",
					"description": "Green service descriptor",
					"minLength": 0,
					"maxLength": 2147483647,
					"pattern": "[^\u0000]+"
				},
				"replicas": {
					"$ref": "#/definitions/Replica"
				}
			},
			"title": "Spec",
			"description": "Blue-Green deployment descriptor"
		},
		"StreamingResponseBody": {
			"title": "StreamingResponseBody",
			"description": "This response is being returned by streaming"
		},
		"SwapResponse": {
			"type": "object",
			"properties": {
				"swappedService": {
					"type": "array",
					"description": "List of swapped services",
					"items": {
						"$ref": "#/definitions/SwappedServices"
					}
				}
			},
			"title": "SwapResponse",
			"description": "Response entity holding information about the results of service swapping"
		},
		"SwappedServices": {
			"type": "object",
			"properties": {
				"patchError": {
					"$ref": "#/definitions/PatchError"
				},
				"services": {
					"type": "string",
					"description": "Swapping target service name",
					"minLength": 0,
					"maxLength": 2147483647,
					"pattern": "[^\u0000]+"
				}
			},
			"title": "SwappedServices",
			"description": "Swapped service result descriptor"
		}
	},
	"x-servers": []
}