{
	"swagger": "2.0",
	"info": {
		"title": "Meta Data Service",
		"description": "Meta data service provides the swagger information and related operations",
		"version": "1.0.0",
		"contact": {
			"name": "Karthik Reddy Kunduru",
			"url": "http://www.t-mobile.com",
			"email": "KarthikReddy.Kunduru@T-Mobile.com"
		},
		"x-createdBy": {
			"dateCreated": "Monday October 15 08:20:02 2018",
			"createdBy": "Venkatesh Gontla",
			"application": "Recite",
			"appVersion": "0.3.8.2201",
			"documentId": "39e22044-fe01-4396-a35e-228d375900f9",
			"status": "Conceptual - Initial",
			"classification": "16.4.1 Staffing/Sourcing Strategy Mgmt.",
			"profile": "Application Integration Service",
			"serviceLayer": "Resource - Other"
		}
	},
	"host": "env.api.t-mobile.com",
	"basePath": "/common/v1/api-metadata",
	"schemes": ["https"],
	"x-servers": [{
		"url": "https://tmobileb-sb01.apigee.net/common/v1/api-metadata",
		"description": "Sandbox Server"
	},
	{
		"url": "https://api.t-mobile.com/common/v1/api-metadata",
		"description": "Live Server"
	}],
	"tags": [{
		"name": "Meta data Information",
		"description": "Swagger meta data related service operations."
	}],
	"consumes": ["application/json"],
	"produces": ["application/json"],
	"paths": {
		"/api-specification-metadata": {
			"post": {
				"x-api-pattern": "CreateInCollection",
				"tags": ["Create the metadata information"],
				"description": "This resource can be used to create the metadata information",
				"operationId": "createMetaData",
				"consumes": ["application/json"],
				"produces": ["application/json"],
				"parameters": [{
					"name": "MetadataRequestPayload",
					"in": "body",
					"description": "The request payload for the creating or updating the Employee.",
					"required": true,
					"schema": {
						"$ref": "#/definitions/MetadataRequestPayload"
					}
				},
				{
					"name": "Authorization",
					"in": "header",
					"description": "Authorization header for the request.",
					"required": true,
					"type": "string",
					"pattern": "Bearer .*$",
					"minLength": 0,
					"maxLength": 50,
					"x-example": "Bearer WoOhe88khLZ3rMVqujG9GGa4PRH2"
				},
				{
					"name": "Date",
					"in": "header",
					"description": "The date and time of the request.",
					"required": false,
					"type": "string",
					"format": "date-time",
					"minLength": 0,
					"maxLength": 50,
					"pattern": ".*$",
					"x-example": "Friday, 24 Aug 2018 16:38:08 GMT"
				},
				{
					"name": "Content-Type",
					"in": "header",
					"description": "The content-type of request body.",
					"required": true,
					"type": "string",
					"pattern": ".*$",
					"minLength": 0,
					"maxLength": 50,
					"x-example": "application/json; charset=UTF-8"
				},
				{
					"name": "Accept",
					"in": "header",
					"description": "The preferred content type.",
					"required": false,
					"type": "string",
					"pattern": ".*$",
					"minLength": 0,
					"maxLength": 50,
					"x-example": "application/json"
				},
				{
					"name": "Accept-Encoding",
					"in": "header",
					"description": "The preferred encoding of response body for better performance.",
					"required": false,
					"type": "string",
					"pattern": ".*$",
					"minLength": 0,
					"maxLength": 50,
					"x-example": "gzip"
				},
				{
					"name": "Accept-Language",
					"in": "header",
					"description": "Represents the list of natural languages preferred in response.",
					"required": false,
					"type": "string",
					"pattern": ".*$",
					"minLength": 0,
					"maxLength": 50,
					"x-example": "en"
				},
				{
					"name": "Content-Length",
					"in": "header",
					"description": "Represents the length of request body in octets.",
					"required": false,
					"type": "string",
					"pattern": ".*$",
					"minLength": 0,
					"maxLength": 50,
					"x-example": "1024"
				},
				{
					"name": "If-None-Match",
					"in": "header",
					"description": "This header is used for conditional GET: success if representation exists with specified ETag.",
					"required": false,
					"type": "string",
					"pattern": ".*$",
					"minLength": 0,
					"maxLength": 50,
					"x-example": "069dbb7e7b3d7338f3ac7b82da65c22d0"
				},
				{
					"name": "If-Modified-Since",
					"in": "header",
					"description": "This header is used for conditional GET: success if representation exists with more recent date than specified.",
					"required": false,
					"type": "string",
					"pattern": ".*$",
					"minLength": 0,
					"maxLength": 50,
					"x-example": "Friday, 24 Aug 2018 16:38:08 GMT"
				},
				{
					"name": "If-Unmodified-Since",
					"in": "header",
					"description": "This header is used for conditional POST, PUT, PATCH, DELETE: success if no representation exists with more recent date than specified.",
					"required": false,
					"type": "string",
					"pattern": ".*$",
					"minLength": 0,
					"maxLength": 50,
					"x-example": "Friday, 24 Aug 2018 16:38:08 GMT"
				},
				{
					"name": "Prefer",
					"in": "header",
					"description": "This header is used to determine whether to return an empty response body after a create or update.",
					"required": false,
					"type": "string",
					"pattern": ".*$",
					"minLength": 0,
					"maxLength": 50,
					"x-example": "return=representation"
				},
				{
					"name": "activity-id",
					"in": "header",
					"description": "The unique identifier of the request.",
					"required": false,
					"type": "string",
					"pattern": ".*$",
					"minLength": 0,
					"maxLength": 50,
					"x-example": "c34e7acd-384b-4c22-8b02-ba3963682508"
				}],
				"responses": {
					"201": {
						"description": "Created",
						"headers": {
							"Content-Encoding": {
								"description": "The type of encoding used on the data.",
								"type": "string",
								"x-example": "gzip",
								"minLength": 0,
								"maxLength": 50,
								"pattern": ".*$"
							},
							"Content-Language": {
								"description": "The natural language or languages of the intended audience for the enclosed content.",
								"type": "string",
								"x-example": "en",
								"minLength": 0,
								"maxLength": 100,
								"pattern": ".*$"
							},
							"service-transaction-id": {
								"description": "unique id generated by server or echoed back by server if received in request",
								"x-example": "23409209723",
								"type": "string",
								"pattern": ".*$",
								"minLength": 0,
								"maxLength": 100
							},
							"Content-Length": {
								"description": "The Content-Length header specifies the actual length of the returned payload.",
								"x-example": "1024",
								"type": "string",
								"minLength": 0,
								"maxLength": 50,
								"pattern": ".*$"
							},
							"Date": {
								"description": "The date and time of the request based on the clock on server side.",
								"x-example": "Date: Mon, 05 Mar 2018 16:38:08 GMT",
								"type": "string",
								"format": "date-time",
								"minLength": 0,
								"maxLength": 50,
								"pattern": ".*$"
							},
							"Transfer-Encoding": {
								"description": "Indicates that data is streamed as a series of chunks with the final zero-length chunk indicating completion.",
								"x-example": "chunked",
								"type": "string",
								"minLength": 0,
								"maxLength": 50,
								"pattern": ".*$"
							},
							"Expires": {
								"description": "The Expires response header contains the date/time after which the response is considered stale.",
								"x-example": "Mon, 05 Mar 2018 16:38:08 GMT",
								"type": "string",
								"minLength": 0,
								"maxLength": 50,
								"pattern": ".*$"
							},
							"Last-Modified": {
								"description": "The last modification date of the resource.",
								"x-example": "Mon, 05 Mar 2018 16:38:08 GMT",
								"type": "string",
								"minLength": 0,
								"maxLength": 50,
								"pattern": ".*$"
							},
							"ETag": {
								"description": "The version of the resource, usually a hash of the representation.",
								"x-example": "069dbb7e7b3d7338f3ac7b82da65c22d0",
								"type": "string",
								"minLength": 0,
								"maxLength": 50,
								"pattern": ".*$"
							},
							"Preference-Applied": {
								"description": "Indicates that the prefer header specified in the request was successfully applied.",
								"x-example": "return=minimal",
								"type": "string",
								"minLength": 0,
								"maxLength": 50,
								"pattern": ".*$"
							},
							"Location": {
								"description": "The URI of the newly created resource",
								"x-example": "http://api.tmo.com/billing/v1/accounts/33c093e9b05",
								"type": "string",
								"minLength": 0,
								"maxLength": 50,
								"pattern": ".*$"
							},
							"Cache-Control": {
								"description": "Cache policy supported for the resource by the server, max-age indicates the number of seconds, x, after which the response is stale, no-cache means the client or intermediate cache must not re-use the representation without checking the ETag with the server: if possible, it is preferable to use a low value for max-age instead, no-store means the client is not allowed to cache the representation.",
								"x-example": "max-age=3600",
								"type": "string",
								"minLength": 0,
								"maxLength": 100,
								"pattern": ".*$"
							}
						}
					},
					"400": {
						"description": "Bad Request",
						"schema": {
							"$ref": "#/definitions/Error"
						},
						"examples": {
							"application/json": {
								"code": "MD-0400",
								"userMessage": "Bad Request",
								"systemMessage": "Bad Request",
								"detailLink": "https://dev01.api.t-mobile.com/hr/v1/errors/21b7c4d3"
							}
						}
					},
					"401": {
						"description": "Unauthorized",
						"schema": {
							"$ref": "#/definitions/Error"
						},
						"examples": {
							"application/json": {
								"code": "MD-0401",
								"userMessage": "Unauthorized",
								"systemMessage": "Unauthorized",
								"detailLink": "https://dev01.api.t-mobile.com/hr/v1/errors/21b7c4d3"
							}
						}
					},
					"403": {
						"description": "Forbidden",
						"schema": {
							"$ref": "#/definitions/Error"
						},
						"examples": {
							"application/json": {
								"code": "MD-0403",
								"userMessage": "Forbidden",
								"systemMessage": "Forbidden",
								"detailLink": "https://dev01.api.t-mobile.com/hr/v1/errors/21b7c4d3"
							}
						}
					},
					"404": {
						"description": "Resource not found",
						"schema": {
							"$ref": "#/definitions/Error"
						},
						"examples": {
							"application/json": {
								"code": "MD-0404",
								"userMessage": "Resource not found",
								"systemMessage": "Resource not found",
								"detailLink": "https://dev01.api.t-mobile.com/hr/v1/errors/21b7c4d3"
							}
						}
					},
					"405": {
						"description": "Method not allowed",
						"schema": {
							"$ref": "#/definitions/Error"
						},
						"headers": {
							"Allow": {
								"description": "List of supported methods for URI.",
								"x-example": "Allow: PUT, GET",
								"type": "string",
								"minLength": 0,
								"maxLength": 50,
								"pattern": ".*$"
							}
						},
						"examples": {
							"application/json": {
								"code": "MD-0405",
								"userMessage": "Method not allowed",
								"systemMessage": "Method not allowed",
								"detailLink": "https://dev01.api.t-mobile.com/hr/v1/errors/21b7c4d3"
							}
						}
					},
					"406": {
						"description": "Not Acceptable",
						"schema": {
							"$ref": "#/definitions/Error"
						},
						"examples": {
							"application/json": {
								"code": "MD-0406",
								"userMessage": "Not Acceptable",
								"systemMessage": "Not Acceptable",
								"detailLink": "https://dev01.api.t-mobile.com/hr/v1/errors/21b7c4d3"
							}
						}
					},
					"409": {
						"description": "Invalid data",
						"schema": {
							"$ref": "#/definitions/Error"
						},
						"examples": {
							"application/json": {
								"code": "MD-0409",
								"userMessage": "Invalid data",
								"systemMessage": "Invalid data",
								"detailLink": "https://dev01.api.t-mobile.com/hr/v1/errors/21b7c4d3"
							}
						}
					},
					"415": {
						"description": "Unsupported media type",
						"schema": {
							"$ref": "#/definitions/Error"
						},
						"examples": {
							"application/json": {
								"code": "MD-0415",
								"userMessage": "Unsupported media type",
								"systemMessage": "Unsupported media type",
								"detailLink": "https://dev01.api.t-mobile.com/hr/v1/errors/21b7c4d3"
							}
						}
					},
					"500": {
						"description": "System Error",
						"schema": {
							"$ref": "#/definitions/Error"
						},
						"examples": {
							"application/json": {
								"code": "MD-0500",
								"userMessage": "System Error",
								"systemMessage": "System Error",
								"detailLink": "https://dev01.api.t-mobile.com/hr/v1/errors/21b7c4d3"
							}
						}
					},
					"503": {
						"description": "Service unavailable",
						"schema": {
							"$ref": "#/definitions/Error"
						},
						"examples": {
							"application/json": {
								"code": "MD-0503",
								"userMessage": "Service unavailable",
								"systemMessage": "Service unavailable",
								"detailLink": "https://dev01.api.t-mobile.com/hr/v1/errors/21b7c4d3"
							}
						}
					}
				},
				"summary": "Create/Update the API Metadata information",
				"security": [{
					"Oauth": ["post:API Meta Data"]
				}]
			}
		},
		"/api-specification-metadata/search": {
			"post": {
				"x-api-pattern": "ExecuteFunction",
				"tags": ["Search metadata information"],
				"description": "This resource can be used to get the metadata information",
				"operationId": "findMetaDataObject",
				"consumes": ["application/json"],
				"produces": ["application/json"],
				"parameters": [{
					"name": "MetadataRequestPayload",
					"in": "body",
					"description": "The request payload for the creating or updating the Employee.",
					"required": true,
					"schema": {
						"$ref": "#/definitions/MetadataRequestPayload"
					}
				},
				{
					"name": "pageNum",
					"in": "query",
					"description": "Page number to retrieve query param  for the request.",
					"required": true,
					"type": "integer",
					"x-example": "1"
				},
				{
					"name": "pageSize",
					"in": "query",
					"description": "Page size to retrieve query param  for the request.",
					"required": true,
					"type": "integer",
					"x-example": "25"
				},
				{
					"name": "Authorization",
					"in": "header",
					"description": "Authorization header for the request.",
					"required": true,
					"type": "string",
					"pattern": "Bearer .*$",
					"minLength": 0,
					"maxLength": 50,
					"x-example": "Bearer WoOhe88khLZ3rMVqujG9GGa4PRH2"
				},
				{
					"name": "Date",
					"in": "header",
					"description": "The date and time of the request.",
					"required": false,
					"type": "string",
					"format": "date-time",
					"minLength": 0,
					"maxLength": 50,
					"x-example": "Friday, 24 Aug 2018 16:38:08 GMT"
				},
				{
					"name": "Content-Type",
					"in": "header",
					"description": "The content-type of request body.",
					"required": true,
					"type": "string",
					"pattern": ".*$",
					"minLength": 0,
					"maxLength": 100,
					"x-example": "application/json; charset=UTF-8"
				},
				{
					"name": "Accept",
					"in": "header",
					"description": "The preferred content type.",
					"required": false,
					"type": "string",
					"minLength": 0,
					"maxLength": 30,
					"pattern": ".*$",
					"x-example": "application/json"
				},
				{
					"name": "Accept-Encoding",
					"in": "header",
					"description": "The preferred encoding of response body for better performance.",
					"required": false,
					"type": "string",
					"x-example": "gzip",
					"minLength": 0,
					"maxLength": 100,
					"pattern": ".*$"
				},
				{
					"name": "Accept-Language",
					"in": "header",
					"description": "Represents the list of natural languages preferred in response.",
					"required": false,
					"type": "string",
					"minLength": 0,
					"maxLength": 50,
					"pattern": ".*$",
					"x-example": "en"
				},
				{
					"name": "Content-Length",
					"in": "header",
					"description": "Represents the length of request body in octets.",
					"required": false,
					"type": "string",
					"x-example": "1024",
					"minLength": 0,
					"maxLength": 50,
					"pattern": ".*$"
				},
				{
					"name": "If-None-Match",
					"in": "header",
					"description": "This header is used for conditional GET: success if representation exists with specified ETag.",
					"required": false,
					"type": "string",
					"x-example": "069dbb7e7b3d7338f3ac7b82da65c22d0",
					"minLength": 0,
					"maxLength": 50,
					"pattern": ".*$"
				},
				{
					"name": "If-Modified-Since",
					"in": "header",
					"description": "This header is used for conditional GET: success if representation exists with more recent date than specified.",
					"required": false,
					"type": "string",
					"x-example": "Friday, 24 Aug 2018 16:38:08 GMT",
					"minLength": 0,
					"maxLength": 50,
					"pattern": ".*$"
				},
				{
					"name": "If-Unmodified-Since",
					"in": "header",
					"description": "This header is used for conditional POST, PUT, PATCH, DELETE: success if no representation exists with more recent date than specified.",
					"required": false,
					"type": "string",
					"x-example": "Friday, 24 Aug 2018 16:38:08 GMT",
					"minLength": 0,
					"maxLength": 50,
					"pattern": ".*$"
				},
				{
					"name": "Prefer",
					"in": "header",
					"description": "This header is used to determine whether to return an empty response body after a create or update.",
					"required": false,
					"type": "string",
					"x-example": "return=representation",
					"minLength": 0,
					"maxLength": 50,
					"pattern": ".*$"
				},
				{
					"name": "activity-id",
					"in": "header",
					"description": "The unique identifier of the request.",
					"required": false,
					"type": "string",
					"x-example": "c34e7acd-384b-4c22-8b02-ba3963682508",
					"minLength": 0,
					"maxLength": 50,
					"pattern": ".*$"
				}],
				"responses": {
					"200": {
						"description": "Ok",
						"schema": {
							"$ref": "#/definitions/MetadataResponsePayload"
						},
						"headers": {
							"Content-Encoding": {
								"description": "The type of encoding used on the data.",
								"type": "string",
								"pattern": ".*$",
								"x-example": "gzip",
								"minLength": 0,
								"maxLength": 500
							},
							"Content-Language": {
								"description": "The natural language or languages of the intended audience for the enclosed content.",
								"type": "string",
								"x-example": "en",
								"pattern": ".*$",
								"minLength": 0,
								"maxLength": 500
							},
							"Content-Type": {
								"description": "Represents the content-type of response body.",
								"x-example": "application/json",
								"type": "string",
								"pattern": ".*$",
								"minLength": 0,
								"maxLength": 500
							},
							"service-transaction-id": {
								"description": "unique id generated by server or echoed back by server if received in request",
								"x-example": "23409209723",
								"type": "string",
								"pattern": ".*$",
								"minLength": 0,
								"maxLength": 100
							},
							"Content-Length": {
								"description": "The Content-Length header specifies the actual length of the returned payload.",
								"x-example": "1024",
								"type": "string",
								"pattern": ".*$",
								"minLength": 0,
								"maxLength": 500
							},
							"Date": {
								"description": "The date and time of the request based on the clock on server side.",
								"x-example": "Date: Mon, 05 Mar 2018 16:38:08 GMT",
								"type": "string",
								"format": "date-time",
								"minLength": 0,
								"maxLength": 20
							},
							"Transfer-Encoding": {
								"description": "Indicates that data is streamed as a series of chunks with the final zero-length chunk indicating completion.",
								"x-example": "chunked",
								"type": "string",
								"pattern": ".*$",
								"minLength": 0,
								"maxLength": 500
							},
							"Expires": {
								"description": "The Expires response header contains the date/time after which the response is considered stale.",
								"x-example": "Mon, 05 Mar 2018 16:38:08 GMT",
								"type": "string",
								"pattern": ".*$",
								"minLength": 0,
								"maxLength": 500
							},
							"Last-Modified": {
								"description": "The last modification date of the resource.",
								"x-example": "Mon, 05 Mar 2018 16:38:08 GMT",
								"type": "string",
								"pattern": ".*$",
								"minLength": 0,
								"maxLength": 100
							},
							"ETag": {
								"description": "The version of the resource, usually a hash of the representation.",
								"x-example": "069dbb7e7b3d7338f3ac7b82da65c22d0",
								"type": "string",
								"pattern": ".*$",
								"minLength": 0,
								"maxLength": 500
							},
							"Preference-Applied": {
								"description": "Indicates that the prefer header specified in the request was successfully applied.",
								"x-example": "return=minimal",
								"type": "string",
								"pattern": ".*$",
								"minLength": 0,
								"maxLength": 500
							},
							"Location": {
								"description": "The URI of the newly created resource",
								"x-example": "http://api.tmo.com/billing/v1/accounts/33c093e9b05",
								"type": "string",
								"pattern": ".*$",
								"minLength": 0,
								"maxLength": 500
							},
							"Cache-Control": {
								"description": "Cache policy supported for the resource by the server, max-age indicates the number of seconds, x, after which the response is stale, no-cache means the client or intermediate cache must not re-use the representation without checking the ETag with the server: if possible, it is preferable to use a low value for max-age instead, no-store means the client is not allowed to cache the representation.",
								"x-example": "max-age=3600",
								"type": "string",
								"pattern": ".*$",
								"minLength": 0,
								"maxLength": 500
							}
						},
						"examples": {
							"totalApiCount": 20,
							"pageNum": 2,
							"pageApiCount": 10,
							"apiArray": [{
								"basePath": "/b2b-experience/v1/billing-accounts",
								"resource": "/{billing-account}/ppu-address",
								"method": "put",
								"operationId": "putPPUAddressChange",
								"xapiPattern": "CreateByName",
								"summary": "B2B PPU Address Details",
								"operationDescription": "\n# Description \n\n  The purpose of this API is to change the primary place of use address (ppu address) of a given BAN. The service receives addressline1 (mandatory), addressline2 (optional), city (mandatory), state (required), zipcode (required) as parameters.\n***\n\n    * The API is designed to allow subscriber line PPU address to be updated. \n  \n    * Once the field constraints are satisfied, the API will validate the address and if found valid will then return success, otherwise will return appropriate error.\n          \n\n# Key Highlights \n\n+ <b>Allow subscriber line PPU address to be updated<\/b>.\n\n\n+ <b>Validates individual address field constraints<\/b>.\n\n\n+ <b>Validates new address as valid and returns success or failure appropriately<\/b>.",
								"security": "basic",
								"schemes": ["https"],
								"swaggerDescription": "These APIs are used for Billing Account services",
								"title": "B2B Billing Accounts service",
								"version": "1.0.0",
								"name": "Apigee/Documentation Support",
								"email": "TFB_DTD_API_DEVOPS@T-Mobile.com",
								"createdBy": "",
								"classification": "",
								"profile": "",
								"serviceLayer": "",
								"swaggerLocation": "https://bitbucket.service.edp.t-mobile.com/projects/DEVPRT/repos/b2bexperience/browse/BillingAccounts/v1/b2b-experience-billing-accounts.json",
								"swaggerFileName": "b2b-experience-billing-accounts.json",
								"swaggerDomain": "B2BExperience",
								"repoName": "DEVPRT",
								"hasCPNIPIIElements": true,
								"hasPCIElements": false,
								"RequestDefinitionsUsed": ["AddressChangePpuRequest"],
								"ResponseDefinitionsUsed": ["AddressChangePpuResponse",
								"ErrorResponse",
								"Error"],
								"RequestFieldsUsed": ["billing-account",
								"address2",
								"city",
								"address1",
								"body",
								"orgid",
								"accept",
								"addressid",
								"authorization",
								"zipcode",
								"linkseqnbr",
								"logonid",
								"addresschangeppurequest",
								"b2b-org",
								"content-type",
								"newppuaddress",
								"state",
								"msisdn",
								"email",
								"b2b-client"],
								"ResponseFieldsUsed": ["code",
								"errorresponse",
								"orderid",
								"usermessage",
								"addresschangeppuresponse",
								"orderitemid",
								"message",
								"msisdn",
								"error",
								"ban",
								"status"]
							}]
						}
					},
					"400": {
						"description": "Bad Request",
						"schema": {
							"$ref": "#/definitions/Error"
						},
						"examples": {
							"application/json": {
								"code": "MD-0400",
								"userMessage": "Bad Request",
								"systemMessage": "Bad Request",
								"detailLink": "https://dev01.api.t-mobile.com/hr/v1/errors/21b7c4d3"
							}
						}
					},
					"401": {
						"description": "Unauthorized",
						"schema": {
							"$ref": "#/definitions/Error"
						},
						"examples": {
							"application/json": {
								"code": "MD-0401",
								"userMessage": "Unauthorized",
								"systemMessage": "Unauthorized",
								"detailLink": "https://dev01.api.t-mobile.com/hr/v1/errors/21b7c4d3"
							}
						}
					},
					"404": {
						"description": "Resource not found",
						"schema": {
							"$ref": "#/definitions/Error"
						},
						"examples": {
							"application/json": {
								"code": "MD-0404",
								"userMessage": "Resource not found",
								"systemMessage": "Resource not found",
								"detailLink": "https://dev01.api.t-mobile.com/hr/v1/errors/21b7c4d3"
							}
						}
					},
					"405": {
						"description": "Method not allowed",
						"schema": {
							"$ref": "#/definitions/Error"
						},
						"headers": {
							"Allow": {
								"description": "List of supported methods for URI.",
								"x-example": "Allow: PUT, GET",
								"type": "string",
								"pattern": ".*$",
								"minLength": 0,
								"maxLength": 100
							}
						},
						"examples": {
							"application/json": {
								"code": "MD-0405",
								"userMessage": "Method not allowed",
								"systemMessage": "Method not allowed",
								"detailLink": "https://dev01.api.t-mobile.com/hr/v1/errors/21b7c4d3"
							}
						}
					},
					"409": {
						"description": "Invalid data",
						"schema": {
							"$ref": "#/definitions/Error"
						},
						"examples": {
							"application/json": {
								"code": "MD-0409",
								"userMessage": "Invalid data",
								"systemMessage": "Invalid data",
								"detailLink": "https://dev01.api.t-mobile.com/hr/v1/errors/21b7c4d3"
							}
						}
					},
					"415": {
						"description": "Unsupported media type",
						"schema": {
							"$ref": "#/definitions/Error"
						},
						"examples": {
							"application/json": {
								"code": "MD-0415",
								"userMessage": "Unsupported media type",
								"systemMessage": "Unsupported media type",
								"detailLink": "https://dev01.api.t-mobile.com/hr/v1/errors/21b7c4d3"
							}
						}
					},
					"500": {
						"description": "System Error",
						"schema": {
							"$ref": "#/definitions/Error"
						},
						"examples": {
							"application/json": {
								"code": "MD-0500",
								"userMessage": "System Error",
								"systemMessage": "System Error",
								"detailLink": "https://dev01.api.t-mobile.com/hr/v1/errors/21b7c4d3"
							}
						}
					},
					"503": {
						"description": "Service unavailable",
						"schema": {
							"$ref": "#/definitions/Error"
						},
						"examples": {
							"application/json": {
								"code": "MD-0503",
								"userMessage": "Service unavailable",
								"systemMessage": "Service unavailable",
								"detailLink": "https://dev01.api.t-mobile.com/hr/v1/errors/21b7c4d3"
							}
						}
					}
				},
				"summary": "Search API Metadata information",
				"security": [{
					"Oauth": ["post:API Meta Data"]
				}]
			}
		},
		"/api-specification-metadata/repo/{repoName}": {
			"get": {
				"x-api-pattern": "QueryResource",
				"tags": ["Get metadata information"],
				"description": "This resource can be used to get the metadata information",
				"operationId": "getMetaData",
				"produces": ["application/json"],
				"parameters": [
				{
					"name": "repoName",
					"in": "path",
					"description": "Name of swagger repository",
					"required": true,
					"type": "string",
					"enum": ["DEVPORTAL",
					"CLEARWATER"],
					"x-example": "DEVPORTAL"
				},
				{
					"name": "pageNum",
					"in": "query",
					"description": "Page number to retrieve query param  for the request.",
					"required": true,
					"type": "integer",
					"x-example": "1"
				},
				{
					"name": "pageSize",
					"in": "query",
					"description": "Page size to retrieve query param  for the request.",
					"required": true,
					"type": "integer",
					"x-example": "25"
				},
				{
					"name": "Authorization",
					"in": "header",
					"description": "Authorization header for the request.",
					"required": true,
					"type": "string",
					"pattern": "Bearer .*$",
					"minLength": 0,
					"maxLength": 50,
					"x-example": "Bearer WoOhe88khLZ3rMVqujG9GGa4PRH2"
				},
				{
					"name": "Date",
					"in": "header",
					"description": "The date and time of the request.",
					"required": false,
					"type": "string",
					"format": "date-time",
					"minLength": 0,
					"maxLength": 50,
					"x-example": "Friday, 24 Aug 2018 16:38:08 GMT"
				},
				{
					"name": "Accept",
					"in": "header",
					"description": "The preferred content type.",
					"required": false,
					"type": "string",
					"minLength": 0,
					"maxLength": 30,
					"pattern": ".*$",
					"x-example": "application/json"
				},
				{
					"name": "Accept-Encoding",
					"in": "header",
					"description": "The preferred encoding of response body for better performance.",
					"required": false,
					"type": "string",
					"x-example": "gzip",
					"minLength": 0,
					"maxLength": 100,
					"pattern": ".*$"
				},
				{
					"name": "Accept-Language",
					"in": "header",
					"description": "Represents the list of natural languages preferred in response.",
					"required": false,
					"type": "string",
					"minLength": 0,
					"maxLength": 50,
					"pattern": ".*$",
					"x-example": "en"
				},
				{
					"name": "If-None-Match",
					"in": "header",
					"description": "This header is used for conditional GET: success if representation exists with specified ETag.",
					"required": false,
					"type": "string",
					"x-example": "069dbb7e7b3d7338f3ac7b82da65c22d0",
					"minLength": 0,
					"maxLength": 50,
					"pattern": ".*$"
				},
				{
					"name": "If-Modified-Since",
					"in": "header",
					"description": "This header is used for conditional GET: success if representation exists with more recent date than specified.",
					"required": false,
					"type": "string",
					"x-example": "Friday, 24 Aug 2018 16:38:08 GMT",
					"minLength": 0,
					"maxLength": 50,
					"pattern": ".*$"
				},
				{
					"name": "activity-id",
					"in": "header",
					"description": "The unique identifier of the request.",
					"required": false,
					"type": "string",
					"x-example": "c34e7acd-384b-4c22-8b02-ba3963682508",
					"minLength": 0,
					"maxLength": 50,
					"pattern": ".*$"
				}],
				"responses": {
					"200": {
						"description": "Ok",
						"schema": {
							"$ref": "#/definitions/MetadataRepoResponsePayload"
						},
						"headers": {
							"Content-Encoding": {
								"description": "The type of encoding used on the data.",
								"type": "string",
								"pattern": ".*$",
								"x-example": "gzip",
								"minLength": 0,
								"maxLength": 500
							},
							"Content-Language": {
								"description": "The natural language or languages of the intended audience for the enclosed content.",
								"type": "string",
								"x-example": "en",
								"pattern": ".*$",
								"minLength": 0,
								"maxLength": 500
							},
							"Content-Type": {
								"description": "Represents the content-type of response body.",
								"x-example": "application/json",
								"type": "string",
								"pattern": ".*$",
								"minLength": 0,
								"maxLength": 500
							},
							"service-transaction-id": {
								"description": "unique id generated by server or echoed back by server if received in request",
								"x-example": "23409209723",
								"type": "string",
								"pattern": ".*$",
								"minLength": 0,
								"maxLength": 100
							},
							"Content-Length": {
								"description": "The Content-Length header specifies the actual length of the returned payload.",
								"x-example": "1024",
								"type": "string",
								"pattern": ".*$",
								"minLength": 0,
								"maxLength": 500
							},
							"Date": {
								"description": "The date and time of the request based on the clock on server side.",
								"x-example": "Date: Mon, 05 Mar 2018 16:38:08 GMT",
								"type": "string",
								"format": "date-time",
								"minLength": 0,
								"maxLength": 20
							},
							"Transfer-Encoding": {
								"description": "Indicates that data is streamed as a series of chunks with the final zero-length chunk indicating completion.",
								"x-example": "chunked",
								"type": "string",
								"pattern": ".*$",
								"minLength": 0,
								"maxLength": 500
							},
							"Last-Modified": {
								"description": "The last modification date of the resource.",
								"x-example": "Mon, 05 Mar 2018 16:38:08 GMT",
								"type": "string",
								"pattern": ".*$",
								"minLength": 0,
								"maxLength": 100
							},
							"ETag": {
								"description": "The version of the resource, usually a hash of the representation.",
								"x-example": "069dbb7e7b3d7338f3ac7b82da65c22d0",
								"type": "string",
								"pattern": ".*$",
								"minLength": 0,
								"maxLength": 500
							},
							"Cache-Control": {
								"description": "Cache policy supported for the resource by the server, max-age indicates the number of seconds, x, after which the response is stale, no-cache means the client or intermediate cache must not re-use the representation without checking the ETag with the server: if possible, it is preferable to use a low value for max-age instead, no-store means the client is not allowed to cache the representation.",
								"x-example": "max-age=3600",
								"type": "string",
								"pattern": ".*$",
								"minLength": 0,
								"maxLength": 500
							}
						},
						"examples": {
							"metadataExtractionDateTime": "2018-11-27T17:51:39.188Z",
							"totalApiCount": 20,
							"pageNum": 2,
							"pageApiCount": 10,
							"apiArray": [{
								"basePath": "/b2b-experience/v1/billing-accounts",
								"resource": "/{billing-account}/ppu-address",
								"method": "put",
								"operationId": "putPPUAddressChange",
								"xapiPattern": "CreateByName",
								"summary": "B2B PPU Address Details",
								"operationDescription": "\n# Description \n\n  The purpose of this API is to change the primary place of use address (ppu address) of a given BAN. The service receives addressline1 (mandatory), addressline2 (optional), city (mandatory), state (required), zipcode (required) as parameters.\n***\n\n    * The API is designed to allow subscriber line PPU address to be updated. \n  \n    * Once the field constraints are satisfied, the API will validate the address and if found valid will then return success, otherwise will return appropriate error.\n          \n\n# Key Highlights \n\n+ <b>Allow subscriber line PPU address to be updated<\/b>.\n\n\n+ <b>Validates individual address field constraints<\/b>.\n\n\n+ <b>Validates new address as valid and returns success or failure appropriately<\/b>.",
								"security": "basic",
								"schemes": ["https"],
								"swaggerDescription": "These APIs are used for Billing Account services",
								"title": "B2B Billing Accounts service",
								"version": "1.0.0",
								"name": "Apigee/Documentation Support",
								"email": "TFB_DTD_API_DEVOPS@T-Mobile.com",
								"createdBy": "",
								"classification": "",
								"profile": "",
								"serviceLayer": "",
								"swaggerLocation": "https://bitbucket.service.edp.t-mobile.com/projects/DEVPRT/repos/b2bexperience/browse/BillingAccounts/v1/b2b-experience-billing-accounts.json",
								"swaggerFileName": "b2b-experience-billing-accounts.json",
								"swaggerDomain": "B2BExperience",
								"repoName": "DEVPRT",
								"hasCPNIPIIElements": true,
								"hasPCIElements": false,
								"RequestDefinitionsUsed": ["AddressChangePpuRequest"],
								"ResponseDefinitionsUsed": ["AddressChangePpuResponse",
								"ErrorResponse",
								"Error"],
								"RequestFieldsUsed": ["billing-account",
								"address2",
								"city",
								"address1",
								"body",
								"orgid",
								"accept",
								"addressid",
								"authorization",
								"zipcode",
								"linkseqnbr",
								"logonid",
								"addresschangeppurequest",
								"b2b-org",
								"content-type",
								"newppuaddress",
								"state",
								"msisdn",
								"email",
								"b2b-client"],
								"ResponseFieldsUsed": ["code",
								"errorresponse",
								"orderid",
								"usermessage",
								"addresschangeppuresponse",
								"orderitemid",
								"message",
								"msisdn",
								"error",
								"ban",
								"status"]
							}]
						}
					},
					"400": {
						"description": "Bad Request",
						"schema": {
							"$ref": "#/definitions/Error"
						},
						"examples": {
							"application/json": {
								"code": "MD-0400",
								"userMessage": "Bad Request",
								"systemMessage": "Bad Request",
								"detailLink": "https://dev01.api.t-mobile.com/hr/v1/errors/21b7c4d3"
							}
						}
					},
					"401": {
						"description": "Unauthorized",
						"schema": {
							"$ref": "#/definitions/Error"
						},
						"examples": {
							"application/json": {
								"code": "MD-0401",
								"userMessage": "Unauthorized",
								"systemMessage": "Unauthorized",
								"detailLink": "https://dev01.api.t-mobile.com/hr/v1/errors/21b7c4d3"
							}
						}
					},
					"404": {
						"description": "Resource not found",
						"schema": {
							"$ref": "#/definitions/Error"
						},
						"examples": {
							"application/json": {
								"code": "MD-0404",
								"userMessage": "Resource not found",
								"systemMessage": "Resource not found",
								"detailLink": "https://dev01.api.t-mobile.com/hr/v1/errors/21b7c4d3"
							}
						}
					},
					"405": {
						"description": "Method not allowed",
						"schema": {
							"$ref": "#/definitions/Error"
						},
						"headers": {
							"Allow": {
								"description": "List of supported methods for URI.",
								"x-example": "Allow: PUT, GET",
								"type": "string",
								"pattern": ".*$",
								"minLength": 0,
								"maxLength": 100
							}
						},
						"examples": {
							"application/json": {
								"code": "MD-0405",
								"userMessage": "Method not allowed",
								"systemMessage": "Method not allowed",
								"detailLink": "https://dev01.api.t-mobile.com/hr/v1/errors/21b7c4d3"
							}
						}
					},
					"406": {
						"description": "Not Acceptable",
						"schema": {
							"$ref": "#/definitions/Error"
						},
						"examples": {
							"application/json": {
								"code": "MD-0406",
								"userMessage": "Not Acceptable",
								"systemMessage": "Not Acceptable",
								"detailLink": "https://dev01.api.t-mobile.com/hr/v1/errors/21b7c4d3"
							}
						}
					},
					"500": {
						"description": "System Error",
						"schema": {
							"$ref": "#/definitions/Error"
						},
						"examples": {
							"application/json": {
								"code": "MD-0500",
								"userMessage": "System Error",
								"systemMessage": "System Error",
								"detailLink": "https://dev01.api.t-mobile.com/hr/v1/errors/21b7c4d3"
							}
						}
					},
					"503": {
						"description": "Service unavailable",
						"schema": {
							"$ref": "#/definitions/Error"
						},
						"examples": {
							"application/json": {
								"code": "MD-0503",
								"userMessage": "Service unavailable",
								"systemMessage": "Service unavailable",
								"detailLink": "https://dev01.api.t-mobile.com/hr/v1/errors/21b7c4d3"
							}
						}
					}
				},
				"summary": "Search API Metadata information",
				"security": [{
					"Oauth": ["post:API Meta Data"]
				}]
			}
		}
		
	},
	"definitions": {
		"MetadataRequestPayload": {
			"type": "object",
			"description": "Represents the request payload for API Meta Data",
			"required": ["basePath"],
			"properties": {
				"basePath": {
					"$ref": "#/definitions/BasePath"
				},
				"resource": {
					"$ref": "#/definitions/Resource"
				},
				"method": {
					"$ref": "#/definitions/Method"
				},
				"operationId": {
					"$ref": "#/definitions/OperationId"
				},
				"xApiPattern": {
					"$ref": "#/definitions/XapiPattern"
				},
				"summary": {
					"$ref": "#/definitions/Summary"
				},
				"operationDescription": {
					"$ref": "#/definitions/OperationDescription"
				},
				"consumes": {
					"$ref": "#/definitions/Consumes"
				},
				"produces": {
					"$ref": "#/definitions/Produces"
				},
				"security": {
					"$ref": "#/definitions/Security"
				},
				"schemes": {
					"$ref": "#/definitions/Schemes"
				},
				"swaggerDescription": {
					"$ref": "#/definitions/SwaggerDescription"
				},
				"title": {
					"$ref": "#/definitions/Title"
				},
				"version": {
					"$ref": "#/definitions/Version"
				},
				"name": {
					"$ref": "#/definitions/Name"
				},
				"email": {
					"$ref": "#/definitions/Email"
				},
				"createdBy": {
					"$ref": "#/definitions/CreatedBy"
				},
				"classification": {
					"$ref": "#/definitions/Classification"
				},
				"profile": {
					"$ref": "#/definitions/Profile"
				},
				"serviceLayer": {
					"$ref": "#/definitions/ServiceLayer"
				},
				"swaggerLocation": {
					"$ref": "#/definitions/SwaggerLocation"
				},
				"swaggerFileName": {
					"$ref": "#/definitions/SwaggerFileName"
				},
				"swaggerDomain": {
					"$ref": "#/definitions/SwaggerDomain"
				},
				"rePoName": {
					"$ref": "#/definitions/RePoName"
				},
				"hasCpniPiiElements": {
					"$ref": "#/definitions/HasCpniPiiElements"
				},
				"hasPciElements": {
					"$ref": "#/definitions/HasPciElements"
				},
				"requestDefinitionsUsed": {
					"$ref": "#/definitions/RequestDefinitionsUsed"
				},
				"responseDefinitionsUsed": {
					"$ref": "#/definitions/ResponseDefinitionsUsed"
				},
				"RequestFieldsUsed": {
					"$ref": "#/definitions/RequestFieldsUsed"
				},
				"ResponseFieldsUsed": {
					"$ref": "#/definitions/ResponseFieldsUsed"
				}
			},
			"example": {
				"basePath": "/b2b-experience/v1/billing-accounts",
				"resource": "/{billing-account}",
				"method": "GET",
				"operationId": "getBanIdStatus",
				"x-api-pattern": "QueryResource or ModifyResource",
				"summary": "B2B Organizaion Ban Details",
				"operationDescription": "The purpose of this API is to provide details for a particular BAN.",
				"consumes": "application/json",
				"produces": "application/json",
				"security": "Oauth",
				"schemes": ["https"],
				"swaggerDescription": "These APIs are used for Billing Account services",
				"title": "B2B Billing Accounts service",
				"version": "1.0.0",
				"name": "Apigee/Documentation Support",
				"email": "TFB_DTD_API_DEVOPS@T-Mobile.com",
				"createdBy": "B2B Team",
				"classification": "B2B Billing Accounts",
				"profile": "TEQ",
				"serviceLayer": "B2B Experience",
				"swaggerLocation": "https://bitbucket.service.edp.t-mobile.com/projects/DEVPRT/b2b-experience-billing-accounts.json",
				"swaggerFileName": "b2b-experience-billing-accounts.json",
				"swaggerDomain": "B2B Experience",
				"repoName": "DEVPRT",
				"hasCPNIPIIElements": "TRUE",
				"hasPCIElements": "TRUE",
				"requestDefinitionsUsed": ["BanStatusResponse",
				"ErrorResponse",
				"Error"],
				"responseDefinitionsUsed": ["BanStatusResponse",
				"ErrorResponse",
				"Error"],
				"RequestFieldsUsed": ["billing-account",
				"address2",
				"city",
				"address1",
				"body",
				"orgid",
				"accept",
				"addressid",
				"authorization",
				"zipcode",
				"newe911address",
				"addresschangee911request",
				"linkseqnbr",
				"logonid",
				"b2b-org",
				"content-type",
				"state",
				"msisdn",
				"email",
				"b2b-client"],
				"ResponseFieldsUsed": ["code",
				"errorresponse",
				"orderid",
				"usermessage",
				"orderitemid",
				"message",
				"msisdn",
				"error",
				"addresschangee911response",
				"ban",
				"status"]
			}
		},
		"MetadataResponsePayload": {
			"type": "object",
			"description": "Represents the response payload for API Meta Data search",
			"properties": {
				"totalApiCount": {
					"type": "integer",
					"description": "Total apis found in search result"
				},
				"pageNum": {
					"type": "integer",
					"description": "Page number from search result"
				},
				"pageApiCount": {
					"type": "integer",
					"description": "Api count in this page numer from search result"
				},
				"apiArray": {
					"type": "array",
					"description": "Represents the array of api metadata objects",
					"items": {
						"$ref": "#/definitions/MetadataRequestPayload"
					}
				}
			}
		},
		"MetadataRepoResponsePayload": {
			"type": "object",
			"description": "Represents the response payload for API Meta Data read",
			"properties": {
				"metadataExtractionDateTime": {
					"type": "string",
					"description": "Represents date and time when api metadata was extracted from repo swaggers",
					"minLength": 1,
					"maxLength": 50,
					"pattern": ".*$",
					"x-example": "2018-11-27T17:51:39.188Z"
				},
				"totalApiCount": {
					"type": "integer",
					"description": "Total apis found in search result"
				},
				"pageNum": {
					"type": "integer",
					"description": "Page number from search result"
				},
				"pageApiCount": {
					"type": "integer",
					"description": "Api count in this page numer from search result"
				},
				"apiArray": {
					"type": "array",
					"description": "Represents the array of api metadata objects",
					"items": {
						"$ref": "#/definitions/MetadataRequestPayload"
					}
				}
			}
		},
		"BasePath": {
			"type": "string",
			"description": "Represents the URL prefix for all API paths",
			"minLength": 1,
			"maxLength": 75,
			"pattern": ".*$",
			"x-example": "/b2b-experience/v1/billing-accounts"
		},
		"Resource": {
			"type": "string",
			"description": "Describes a resource API endpoint in the application",
			"minLength": 1,
			"maxLength": 50,
			"pattern": ".*$",
			"x-example": "/user"
		},
		"Method": {
			"type": "string",
			"description": "HTTP method is used to access the resources",
			"minLength": 0,
			"maxLength": 10,
			"enum": ["GET",
			"POST",
			"PUT",
			"DELETE",
			"PATCH",
			"OPTIONS"]
		},
		"OperationId": {
			"type": "string",
			"description": "OperationId is an optional unique string used to identify an operation",
			"minLength": 1,
			"maxLength": 50,
			"pattern": ".*$",
			"x-example": "get-orders-byId"
		},
		"XapiPattern": {
			"type": "string",
			"description": "To identify which pattern a given API is implementing",
			"maxLength": 40,
			"minLength": 10,
			"pattern": ".*$",
			"x-example": "QueryResource"
		},
		"Summary": {
			"type": "string",
			"description": "A short summary of what the operation does.",
			"minLength": 1,
			"maxLength": 75,
			"pattern": ".*$",
			"x-example": "B2B Organizaion Ban Details"
		},
		"OperationDescription": {
			"type": "string",
			"description": "Represents the description of operation",
			"minLength": 0,
			"maxLength": 75,
			"pattern": ".*$",
			"x-example": "The purpose of this API is to provide details for a particular BAN."
		},
		"Consumes": {
			"type": "string",
			"description": "A list of MIME types the APIs on this resource can consume. This is global to all APIs but can be overridden on specific API calls.",
			"minLength": 0,
			"maxLength": 75,
			"pattern": ".*$",
			"x-example": "application/json"
		},
		"Produces": {
			"type": "string",
			"description": "A list of MIME types the APIs on this resource can produce. This is global to all APIs but can be overridden on specific API calls.",
			"minLength": 0,
			"maxLength": 75,
			"pattern": ".*$",
			"x-example": "application/json"
		},
		"Security": {
			"type": "string",
			"description": "Security is used to describe the authentication methods",
			"minLength": 0,
			"maxLength": 20,
			"pattern": ".*$",
			"x-example": "Oauth"
		},
		"Schemes": {
			"type": "array",
			"description": "Describes the objects data format",
			"items": {
				"type": "string",
				"description": "Provides details description about the string objects",
				"minLength": 0,
				"maxLength": 100,
				"pattern": ".*$"
			}
		},
		"SwaggerDescription": {
			"type": "string",
			"description": "Provides detail information about the swagger",
			"minLength": 0,
			"maxLength": 500,
			"pattern": ".*$",
			"x-example": "These APIs are used for Billing Account services"
		},
		"Title": {
			"type": "string",
			"description": "Represents the API name",
			"minLength": 0,
			"maxLength": 100,
			"pattern": ".*$",
			"x-example": "B2B Billing Accounts service"
		},
		"Version": {
			"type": "string",
			"description": "Version is a string that specifies version of your API.",
			"minLength": 1,
			"maxLength": 20,
			"pattern": ".*$",
			"x-example": "5.1.0"
		},
		"Name": {
			"type": "string",
			"description": "Represents the user Name",
			"minLength": 0,
			"maxLength": 100,
			"pattern": ".*$",
			"x-example": "Apigee/Documentation Support"
		},
		"Email": {
			"type": "string",
			"description": "Represents the user EMail",
			"minLength": 1,
			"maxLength": 100,
			"pattern": ".*$",
			"x-example": "API_COE@t-Mobile.com"
		},
		"CreatedBy": {
			"type": "string",
			"description": "Provides the swagger created user information",
			"minLength": 1,
			"maxLength": 100,
			"pattern": ".*$",
			"x-example": "B2B Team"
		},
		"Classification": {
			"type": "string",
			"description": "Provides the classification information",
			"minLength": 1,
			"maxLength": 100,
			"pattern": ".*$",
			"x-example": "B2B Billing Accounts"
		},
		"Profile": {
			"type": "string",
			"description": "Represents the profile information",
			"minLength": 1,
			"maxLength": 100,
			"pattern": ".*$",
			"x-example": "TEQ"
		},
		"ServiceLayer": {
			"type": "string",
			"description": "Provides the service information",
			"minLength": 1,
			"maxLength": 500,
			"pattern": ".*$",
			"x-example": "B2B Experience"
		},
		"SwaggerLocation": {
			"type": "string",
			"description": "Reprsents the swagger location",
			"minLength": 1,
			"maxLength": 500,
			"pattern": ".*$",
			"x-example": "https://bitbucket.service.edp.t-mobile.com/projects/DEVPRT/b2b-experience-billing-accounts.json"
		},
		"SwaggerFileName": {
			"type": "string",
			"description": "Represents the name swagger name",
			"minLength": 1,
			"maxLength": 500,
			"pattern": ".*$",
			"x-example": "b2b-experience-billing-accounts.json"
		},
		"SwaggerDomain": {
			"type": "string",
			"description": "Represents the business domain",
			"minLength": 1,
			"maxLength": 500,
			"pattern": ".*$",
			"x-example": "B2B Experience"
		},
		"RePoName": {
			"type": "string",
			"description": "Represents the swagger repositry location",
			"minLength": 1,
			"maxLength": 500,
			"pattern": ".*$",
			"x-example": "DEVPRT"
		},
		"HasCpniPiiElements": {
			"type": "boolean",
			"description": "HasCpniPiiElements.",
			"minLength": 0,
			"maxLength": 10,
			"pattern": "true | false | 0 | null",
			"x-example": "true"
		},
		"HasPciElements": {
			"type": "boolean",
			"description": "HasPciElements",
			"minLength": 0,
			"maxLength": 10,
			"pattern": "true | false | 0 | null",
			"x-example": "true"
		},
		"RequestDefinitionsUsed": {
			"type": "array",
			"description": "Represents the definitions in request",
			"items": {
				"type": "string",
				"description": "Definitions used in Request",
				"minLength": 0,
				"maxLength": 100,
				"pattern": ".*$"
			}
		},
		"ResponseDefinitionsUsed": {
			"type": "array",
			"description": "Represents the definitions in response",
			"items": {
				"type": "string",
				"description": "Definitions used in Response",
				"minLength": 0,
				"maxLength": 100,
				"pattern": ".*$"
			}
		},
		"RequestFieldsUsed": {
			"type": "array",
			"description": "Represents the fields in request",
			"items": {
				"type": "string",
				"description": "Fields used in Request",
				"minLength": 0,
				"maxLength": 100,
				"pattern": ".*$"
			}
		},
		"ResponseFieldsUsed": {
			"type": "array",
			"description": "Represents the fields in response",
			"items": {
				"type": "string",
				"description": "Fields used in Response",
				"minLength": 0,
				"maxLength": 100,
				"pattern": ".*$"
			}
		},
		"Error": {
			"description": "Used to pass error information in a response. As defined in https://tmobileusa.sharepoint.com/teams/EnterpriseServices/ESG%20Standards%20Documents/APIs/T-Mobile%20API%20Design%20Guidelines%20v1.0.docx",
			"type": "object",
			"properties": {
				"code": {
					"type": "string",
					"description": "Represents the error code.",
					"minLength": 0,
					"maxLength": 20,
					"pattern": ".*$"
				},
				"userMessage": {
					"description": "Represents the human readable error message.",
					"type": "string",
					"minLength": 0,
					"maxLength": 500,
					"pattern": ".*$"
				},
				"systemMessage": {
					"description": "Represents the system error message.",
					"type": "string",
					"minLength": 0,
					"maxLength": 500,
					"pattern": ".*$"
				},
				"detailLink": {
					"description": "Represents the custom information providing greater detail on error",
					"type": "string",
					"minLength": 0,
					"maxLength": 500,
					"pattern": ".*$"
				}
			}
		}
	},
	"securityDefinitions": {
		"Oauth": {
			"type": "oauth2",
			"description": "When you sign up for an account, you are given your first API key.\nTo do so please follow this link: https://www.t-mobile.com/site/signup/\nAlso you can generate additional API keys, and delete API keys (as you may\nneed to rotate your keys in the future).\nToken can change to a JwT and ID and PoP tokens.\n",
			"tokenUrl": "https://host:env/v1/oauth2/accesstoken?grant_type=client_credentials",
			"flow": "application",
			"scopes": {
				"post:API Meta Data": "API Meta Data"
			}
		}
	}
}
