@startuml
TITLE # MPM Design stageEnv
autonumber

MPM -> Deep.io : Stage events
note right: EventID, EnterpriseID, StageTime, ActivationTime

MPM_EVENTHandler-> Deep.io: Listen to events
MPM_EVENTHandler -> WCS_DB: Load events
WCS_DB -> TM_MPMEVENT: Write events[EventStatus=Created]
TM_MPMEVENT -> TM_MPMEVENT: EventID, EventStatus
MPM_BatchHandler -> TM_MPMEVENT: Pick events and create batch
note left: WCS_BacthScheduler will pick unprocessed events for every 5 mins

MPM_BatchHandler -> TM_MPMBATCH: Write Batch[BatchStatus=Created]
TM_MPMBATCH -> TM_MPMBATCH: BatchID, List of events, EnterpriseIDs, AsOfTime
MPM_BatchHandler -> TM_MPMEVENT: Change status[EventStatus=Processed]


group /processBatch

    processBatch -> TM_MPMBATCH : read the batch
    processBatch -> processBatch: Split the EventBatch to rateplan,Device,Accessory,features file
    processBatch -> MPM: Get the data for each enterpriseID[With asOfNow=activationTime]
    MPM -> processBatch: Data specific to enterpriseID
    processBatch -> processBatch: create BCP files and zip them
    processBatch -> AWS_S3: upload BCP.zip to S3
    AWS_Lambda -> AWS_S3: Monitor S3 upload activity
    AWS_Lambda -> TM_MPMBATCH: Write the S3 batch URL[batchid/bcps.zip]
    AWS_Lambda -> TM_MPMBATCH: Change batch status[BatchStatus=Ready]
end


group /dataload

    dataload -> TM_MPMBATCH: Read the first ready batch in Order
    TM_MPMBATCH -> TM_MPMBATCH: [BatchStatus=Processing]
    dataload -> WCS_DB: Load the catalog data
    WCS_DB -> dataload: catalog load output[completed.0,completed.1,2..Failure]

    dataload -> AWS_S3: write the batch process status[batchid/completed.0]


    alt dataloadfailure(completed.1,....)
        dataload -> AWS_S3: write the batch process status[batchid/completed.1,2...failure]
        note left: Manually need to correct the batch and reprocess the file

    end

    AWS_Lambda -> AWS_S3: Check AWS S3 activity for completed.0 batches
    AWS_Lambda -> RedisCache: Load the data to RedisCache


    dataload -> TM_MPMBATCH: Update the batch as Closed.
    TM_MPMBATCH -> TM_MPMBATCH: BatchStatus = Closed

end


====MPM Design ProdEnv==

autonumber

MPM -> Deep.io : Activation events
note right: EventID, EnterpriseID, ActivationTime

MPM_EVENTHandler-> Deep.io: Listen to events
MPM_EVENTHandler -> WCS_DB: Load events
WCS_DB -> TM_MPMEVENT: Write events[EventStatus=Created]
TM_MPMEVENT -> TM_MPMEVENT: EventID, EventStatus
MPM_BatchHandler -> TM_MPMEVENT: Pick events and create batch
note left: WCS_BacthScheduler will pick unprocessed events for every 5 mins

MPM_BatchHandler -> TM_MPMBATCH: Write Batch[BatchStatus=Created]
TM_MPMBATCH -> TM_MPMBATCH: BatchID, List of events, EnterpriseIDs, ActivationTime
MPM_BatchHandler -> TM_MPMEVENT: Change status[EventStatus=Processed]


group /processBatch

    processBatch -> TM_MPMBATCH : read the batch
    processBatch -> processBatch: Split the EventBatch to rateplan,Device,Accessory,features file
    processBatch -> MPM: Get the data for each enterpriseID[With asOfNow=activationTime]
    MPM -> processBatch: Data specific to enterpriseID
    processBatch -> processBatch: create BCP files and zip them
    processBatch -> AWS_S3: upload BCP.zip to S3
    AWS_Lambda -> AWS_S3: Monitor S3 upload activity
    AWS_Lambda -> TM_MPMBATCH: Write the S3 batch URL[batchid/bcps.zip]
    AWS_Lambda -> TM_MPMBATCH: Change batch status[BatchStatus=Ready]
end


group /dataload

    dataload -> TM_MPMBATCH: Read the first ready batch in Order
    TM_MPMBATCH -> TM_MPMBATCH: [BatchStatus=Processing]
    dataload -> WCS_DB: Load the catalog data
    WCS_DB -> dataload: catalog load output[completed.0,completed.1,2..Failure]

    dataload -> AWS_S3: write the batch process status[batchid/completed.0]


    alt dataloadfailure(completed.1,...)
        dataload -> AWS_S3: write the batch process status[batchid/completed.1,2...failure]
        note left: Manually need to correct the batch and reprocess the file

    end

    AWS_Lambda -> AWS_S3: Check AWS S3 activity for completed.0 batches
    AWS_Lambda -> RedisCache: Load the data to RedisCache

    dataload -> TM_MPMBATCH: Update the batch as Closed.
    TM_MPMBATCH -> TM_MPMBATCH: BatchStatus = Closed

end


@enduml
