@startuml

title equipmentInstallmentProgram.createFinancialAgreement - Inline Flows for Web & SelfCare - Sequence Diagram - notifyDisclosureAcceptance\n\n\n

participant "Client" as a
participant "RSP" as b
Participant "CFAM" as c
participant "Docusign" as d
participant "OTSS" as e
participant "OTCS" as f

==Success==

activate a
a->a:\n docusign link
a->b:\n equipmentInstallmentProgram.notifyDisclosureAcceptance

Note left of b #DFDFFF
	[[https://servicecatalog.internal.t-mobile.com/servicecat/rsp/2018-03-24/wsdl_api/html/EquipmentInstallmentProgramService.html#notifyDisclosureAcceptance Link for Notify]]
end note

activate b
b->b:\n Retrieve all financeIds 
b->c:\n  ~ Status = RESERVED
deactivate b
activate c
c->a:\n  Success response 
deactivate c
deactivate a

b->d:\n RequestEnvelopeWithDocumentFields  
activate b
activate d
d->b:\n to retireve PDFs and upload into document_store table
deactivate d
deactivate b

e->f:\n PDF bytes and meta data
activate e
activate f
f->e:\n retrieve ingestDocumentId & update in document_trx table
deactivate f
deactivate e

f->b:\n IngestDocumentId
b->a:\n End Process


==Faliure==

c->a:\n  "SIGNATURE NOT ACCEPTED AS CREDIT RESERVATION STATUS IS INVALID”; 
a->b:\n equipmentInstallmentProgram.cancelEipOrder

Note left of b #DFDFFF
	[[https://servicecatalog.internal.t-mobile.com/servicecat/rsp/2018-03-24/wsdl_api/html/EquipmentInstallmentProgramService.html#notifyDisclosureDecline Link for Disclosure Decline]]
end note

activate a
activate b
b->a:\n Sucess message
deactivate b
deactivate a
a->c:\n Order Canceled in data grid
@enduml
