{
  "swagger": "2.0",
  "info": {
    "description": "Sorting Hat configuration service",
    "version": "1.0.0",
    "title": "sortinghat",
    "contact": {
      "name": "T-Mobile Home & Entertainment - Back End",
      "email": "TMO_HE_BackEnd@T-Mobile.com"
    }
  },
  "host": "v.api.yodux.com",
  "basePath": "/tv/sortinghat/v1",
  "schemes": [
    "https"
  ],
  "paths": {
    "/config": {
      "get": {
        "summary": "Returns configuration for a device",
        "description": "Returns configuration for a device",
        "x-api-pattern": "QueryCollection",
        "operationId": "getConfig",
        "security": [],
        "produces": [
          "application/json"
        ],
        "parameters": [
          {
            "in": "query",
            "name": "platform",
            "type": "string",
            "description": "The platform of the device. Each platform will have specific configuration settings",
            "pattern": ".+",
            "x-example": "a",
            "required": true
          },
          {
            "in": "query",
            "name": "device",
            "type": "string",
            "description": "The device id to retrieve a configuration for",
            "pattern": ".+",
            "x-example": "b",
            "required": true
          },
          {
            "in": "query",
            "name": "preferred",
            "type": "string",
            "description": "Special users (i.e. employees) will have a way to override the environment that they point to. For example, view staging on a production device",
            "pattern": ".+",
            "x-example": "c",
            "required": false
          }
        ],
        "responses": {
          "200": {
            "description": "OK",
            "schema": {
              "type": "object",
              "properties": {
                "assignment": {
                  "type": "string",
                  "description": "Assignment",
                  "pattern": ".+",
                  "example": "c"
                },
                "latest_version": {
                  "type": "string",
                  "description": "Assignment",
                  "pattern": ".+",
                  "example": "0.0"
                },
                "updates": {
                  "type": "object",
                  "description": "A key/value object of the download url for each version available for the given platform. It will ALWAYS also include the latest version.",
                  "properties": {
                    "latest": {
                      "type": "string",
                      "description": "Latest",
                      "example": "http://foo.bar",
                      "pattern": ".+"
                    }
                  },
                  "additionalProperties": {
                    "type": "string"
                  },
                  "example": {
                    "latest": null,
                    "0.0": null
                  }
                },
                "config": {
                  "type": "object",
                  "description": "A multi-nested object serving numerous configuration settings",
                  "properties": {
                    "servers": {
                      "type": "object",
                      "description": "A key/value object listing the URL for each application server for the given environment",
                      "additionalProperties": {
                        "type": "string"
                      },
                      "example": {
                        "foo": "http://foo.com",
                        "bar": "http://bar.com",
                        "baz": "http://baz.com"
                      }
                    },
                    "apps": {
                      "type": "object",
                      "description": "A key/value object listing the URL for each app for the given environment",
                      "additionalProperties": {
                        "type": "string"
                      },
                      "example": {
                        "pandora": "https://tv.pandora.com",
                        "hsn": "https://tivo.hsn.com/home.aspx",
                        "youtube": "https://youtube.com/tv"
                      }
                    },
                    "platform_settings": {
                      "type": "object",
                      "description": "A key/value object listing all parameters specific to the client platform specified",
                      "additionalProperties": {
                        "type": "string"
                      },
                      "example": {
                        "VCDRMPort": 80,
                        "VCReprovision": true,
                        "VCLogging": true,
                        "GATrackExceptions": true,
                        "GADispatchInterval": 60,
                        "GALogLevel": "kGAILogLevelWarning",
                        "VCDRMServer": "foo.com",
                        "GoogleAnalyticsKey": "UA-11111111-1",
                        "CrashlyticsAPIKey": "111111111111111111111111111"
                      }
                    }
                  },
                  "additionalProperties": {
                    "type": "object",
                    "additionalProperties": {
                      "type": "string"
                    }
                  }
                }
              },
              "example": {
                "assignment": "c",
                "latest_version": "0.0",
                "updates": {
                  "latest": null,
                  "0.0": null
                },
                "config": {
                  "servers": {
                    "foo": "http://foo.com",
                    "bar": "http://bar.com",
                    "baz": "http://baz.com"
                  },
                  "apps": {
                    "pandora": "https://tv.pandora.com",
                    "hsn": "https://tivo.hsn.com/home.aspx",
                    "youtube": "https://youtube.com/tv"
                  },
                  "ping_servers": {
                    "linear": "foo.com",
                    "vod": "bar.com",
                    "cloud": "baz.com"
                  },
                  "ga": {
                    "key": "UA-11111111-2",
                    "tracker": "staging2"
                  },
                  "piwik": {
                    "sites": {
                      "ux": 1
                    }
                  },
                  "platform_settings": {
                    "VCDRMPort": 80,
                    "VCReprovision": true,
                    "VCLogging": true,
                    "GATrackExceptions": true,
                    "GADispatchInterval": 60,
                    "GALogLevel": "kGAILogLevelWarning",
                    "VCDRMServer": "foo.com",
                    "GoogleAnalyticsKey": "UA-111111111-1",
                    "CrashlyticsAPIKey": "11111111111111111111111111111111"
                  },
                  "stbBundle": false,
                  "group": false
                }
              }
            }
          },
          "400": {
            "description": "Bad request. Missing required parameters",
            "schema": {
              "type": "object",
              "properties": {
                "error": {
                  "type": "string",
                  "description": "Error type",
                  "pattern": ".+",
                  "example": "MISSING_PARAMETER"
                },
                "code": {
                  "type": "string",
                  "description": "Error code",
                  "pattern": ".+",
                  "example": "BadRequestError"
                },
                "message": {
                  "type": "string",
                  "description": "Error message",
                  "pattern": ".+",
                  "example": "The request was missing a required parameter"
                },
                "parameter": {
                  "type": "string",
                  "description": "Parameter name",
                  "pattern": ".+",
                  "example": "platform"
                }
              }
            }
          }
        }
      }
    },
    "/godric/assignments": {
      "get": {
        "summary": "Get assignments",
        "description": "Get assignments",
        "operationId": "getGodricAssignments",
        "x-api-pattern": "QueryCollection",
        "security": [
          {
            "Bearer": []
          }
        ],
        "produces": [
          "application/json"
        ],
        "responses": {
          "200": {
            "description": "OK",
            "schema": {
              "type": "array",
              "items": {
                "type": "object",
                "properties": {
                  "device": {
                    "type": "string",
                    "description": "Device",
                    "pattern": ".+",
                    "example": "111A11111AD"
                  },
                  "environment": {
                    "type": "string",
                    "description": "Environment",
                    "pattern": ".+",
                    "example": "staging2"
                  },
                  "alias": {
                    "type": "string",
                    "description": "Alias",
                    "pattern": ".+",
                    "example": "foo-bar"
                  }
                }
              }
            }
          },
          "400": {
            "description": "Bad Request",
            "schema": {
              "type": "object",
              "properties": {
                "error": {
                  "type": "string",
                  "pattern": ".+",
                  "description": "error string",
                  "example": "MISSING_PARAMETER"
                },
                "code": {
                  "type": "string",
                  "pattern": ".+",
                  "description": "Error code",
                  "example": "016"
                },
                "message": {
                  "type": "string",
                  "pattern": ".+",
                  "description": "Error message",
                  "example": "The request was missing a required parameter"
                },
                "parameter": {
                  "type": "string",
                  "pattern": ".+",
                  "description": "Name of missing parameter",
                  "example": "token"
                }
              }
            }
          },
          "401": {
            "description": "Unauthorized",
            "schema": {
              "type": "object",
              "properties": {
                "error": {
                  "type": "string",
                  "pattern": ".+",
                  "description": "error string",
                  "example": "COULD_NOT_DECODE_MAUTH_TOKEN"
                },
                "code": {
                  "type": "string",
                  "pattern": ".+",
                  "description": "Error code",
                  "example": "001"
                },
                "message": {
                  "type": "string",
                  "pattern": ".+",
                  "description": "Error message",
                  "example": "An invalid MAuth token was passed and could not be decoded"
                }
              }
            }
          }
        }
      },
      "post": {
        "summary": "Create assignment",
        "description": "Create assignment",
        "operationId": "postGodricAssignments",
        "x-api-pattern": "ExecuteFunction",
        "security": [
          {
            "Bearer": []
          }
        ],
        "consumes": [
          "application/json"
        ],
        "produces": [
          "application/json"
        ],
        "parameters": [
          {
            "in": "body",
            "name": "assignment",
            "description": "Assignment",
            "schema": {
              "type": "object",
              "required": [
                "device",
                "environment"
              ],
              "properties": {
                "device": {
                  "type": "string",
                  "description": "Device ID",
                  "pattern": ".+",
                  "example": "test-device"
                },
                "environment": {
                  "type": "string",
                  "description": "Environment",
                  "pattern": ".+",
                  "example": "staging2"
                },
                "alias": {
                  "type": "string",
                  "description": "Alias",
                  "pattern": ".+",
                  "example": "test-device-alias"
                }
              }
            }
          }
        ],
        "responses": {
          "200": {
            "description": "OK",
            "schema": {
              "type": "string",
              "pattern": ".+",
              "description": "Message",
              "example": "Success"
            }
          },
          "400": {
            "description": "Bad Request",
            "schema": {
              "type": "object",
              "properties": {
                "error": {
                  "type": "string",
                  "pattern": ".+",
                  "description": "error string",
                  "example": "MISSING_PARAMETER"
                },
                "code": {
                  "type": "string",
                  "pattern": ".+",
                  "description": "Error code",
                  "example": "016"
                },
                "message": {
                  "type": "string",
                  "pattern": ".+",
                  "description": "Error message",
                  "example": "The request was missing a required parameter"
                },
                "parameter": {
                  "type": "string",
                  "pattern": ".+",
                  "description": "Name of missing parameter",
                  "example": "device"
                }
              }
            }
          },
          "401": {
            "description": "Unauthorized",
            "schema": {
              "type": "object",
              "properties": {
                "error": {
                  "type": "string",
                  "pattern": ".+",
                  "description": "error string",
                  "example": "COULD_NOT_DECODE_MAUTH_TOKEN"
                },
                "code": {
                  "type": "string",
                  "pattern": ".+",
                  "description": "Error code",
                  "example": "001"
                },
                "message": {
                  "type": "string",
                  "pattern": ".+",
                  "description": "Error message",
                  "example": "An invalid MAuth token was passed and could not be decoded"
                }
              }
            }
          }
        }
      },
      "put": {
        "summary": "Update assignment",
        "description": "Update assignment",
        "operationId": "putGodricAssignments",
        "x-api-pattern": "ExecuteFunction",
        "security": [
          {
            "Bearer": []
          }
        ],
        "consumes": [
          "application/json"
        ],
        "produces": [
          "application/json"
        ],
        "parameters": [
          {
            "in": "body",
            "name": "assignment",
            "description": "Assignment",
            "schema": {
              "type": "object",
              "required": [
                "device",
                "environment"
              ],
              "properties": {
                "device": {
                  "type": "string",
                  "description": "Device ID",
                  "pattern": ".+",
                  "example": "test-device"
                },
                "environment": {
                  "type": "string",
                  "description": "Environment",
                  "pattern": ".+",
                  "example": "staging2"
                },
                "alias": {
                  "type": "string",
                  "description": "Alias",
                  "pattern": ".+",
                  "example": "test-device-alias"
                }
              }
            }
          }
        ],
        "responses": {
          "200": {
            "description": "OK",
            "schema": {
              "type": "string",
              "pattern": ".+",
              "description": "Message",
              "example": "Success"
            }
          },
          "400": {
            "description": "Bad Request",
            "schema": {
              "type": "object",
              "properties": {
                "error": {
                  "type": "string",
                  "pattern": ".+",
                  "description": "error string",
                  "example": "MISSING_PARAMETER"
                },
                "code": {
                  "type": "string",
                  "pattern": ".+",
                  "description": "Error code",
                  "example": "016"
                },
                "message": {
                  "type": "string",
                  "pattern": ".+",
                  "description": "Error message",
                  "example": "The request was missing a required parameter"
                },
                "parameter": {
                  "type": "string",
                  "pattern": ".+",
                  "description": "Name of missing parameter",
                  "example": "device"
                }
              }
            }
          },
          "401": {
            "description": "Unauthorized",
            "schema": {
              "type": "object",
              "properties": {
                "error": {
                  "type": "string",
                  "pattern": ".+",
                  "description": "error string",
                  "example": "COULD_NOT_DECODE_MAUTH_TOKEN"
                },
                "code": {
                  "type": "string",
                  "pattern": ".+",
                  "description": "Error code",
                  "example": "001"
                },
                "message": {
                  "type": "string",
                  "pattern": ".+",
                  "description": "Error message",
                  "example": "An invalid MAuth token was passed and could not be decoded"
                }
              }
            }
          }
        }
      }
    },
    "/godric/assignments/delete": {
      "post": {
        "summary": "Delete assignment",
        "description": "Delete assignment",
        "operationId": "postGodricAssignmentsDelete",
        "x-api-pattern": "ExecuteFunction",
        "security": [
          {
            "Bearer": []
          }
        ],
        "consumes": [
          "application/json"
        ],
        "produces": [
          "application/json"
        ],
        "parameters": [
          {
            "in": "body",
            "name": "assignment",
            "description": "Assignment",
            "schema": {
              "type": "object",
              "required": [
                "device"
              ],
              "properties": {
                "device": {
                  "type": "string",
                  "description": "Device ID",
                  "pattern": ".+",
                  "example": "test-device"
                }
              }
            }
          }
        ],
        "responses": {
          "200": {
            "description": "OK",
            "schema": {
              "type": "string",
              "pattern": ".+",
              "description": "Message",
              "example": "Success"
            }
          },
          "400": {
            "description": "Bad Request",
            "schema": {
              "type": "object",
              "properties": {
                "error": {
                  "type": "string",
                  "pattern": ".+",
                  "description": "error string",
                  "example": "MISSING_PARAMETER"
                },
                "code": {
                  "type": "string",
                  "pattern": ".+",
                  "description": "Error code",
                  "example": "016"
                },
                "message": {
                  "type": "string",
                  "pattern": ".+",
                  "description": "Error message",
                  "example": "The request was missing a required parameter"
                },
                "parameter": {
                  "type": "string",
                  "pattern": ".+",
                  "description": "Name of missing parameter",
                  "example": "device"
                }
              }
            }
          },
          "401": {
            "description": "Unauthorized",
            "schema": {
              "type": "object",
              "properties": {
                "error": {
                  "type": "string",
                  "pattern": ".+",
                  "description": "error string",
                  "example": "COULD_NOT_DECODE_MAUTH_TOKEN"
                },
                "code": {
                  "type": "string",
                  "pattern": ".+",
                  "description": "Error code",
                  "example": "001"
                },
                "message": {
                  "type": "string",
                  "pattern": ".+",
                  "description": "Error message",
                  "example": "An invalid MAuth token was passed and could not be decoded"
                }
              }
            }
          }
        }
      }
    },
    "/godric/assignment": {
      "get": {
        "summary": "Get assignment by device id",
        "description": "Get assignment by device id",
        "operationId": "getGodricAssignment",
        "x-api-pattern": "QueryCollection",
        "security": [
          {
            "Bearer": []
          }
        ],
        "produces": [
          "application/json"
        ],
        "parameters": [
          {
            "in": "query",
            "name": "device",
            "type": "string",
            "description": "Device ID",
            "pattern": ".+",
            "x-example": "1111111111",
            "required": true
          }
        ],
        "responses": {
          "200": {
            "description": "OK",
            "schema": {
              "type": "object",
              "description": "Assignment",
              "properties": {
                "device": {
                  "type": "string",
                  "description": "Device",
                  "pattern": ".+",
                  "example": "111A11111AD"
                },
                "environment": {
                  "type": "string",
                  "description": "Environment",
                  "pattern": ".+",
                  "example": "staging2"
                },
                "alias": {
                  "type": "string",
                  "description": "Alias",
                  "pattern": ".+",
                  "example": "foo-bar"
                }
              }
            }
          },
          "400": {
            "description": "Bad Request",
            "schema": {
              "type": "object",
              "properties": {
                "error": {
                  "type": "string",
                  "pattern": ".+",
                  "description": "error string",
                  "example": "MISSING_PARAMETER"
                },
                "code": {
                  "type": "string",
                  "pattern": ".+",
                  "description": "Error code",
                  "example": "016"
                },
                "message": {
                  "type": "string",
                  "pattern": ".+",
                  "description": "Error message",
                  "example": "The request was missing a required parameter"
                },
                "parameter": {
                  "type": "string",
                  "pattern": ".+",
                  "description": "Name of missing parameter",
                  "example": "token"
                }
              }
            }
          },
          "401": {
            "description": "Unauthorized",
            "schema": {
              "type": "object",
              "properties": {
                "error": {
                  "type": "string",
                  "pattern": ".+",
                  "description": "error string",
                  "example": "COULD_NOT_DECODE_MAUTH_TOKEN"
                },
                "code": {
                  "type": "string",
                  "pattern": ".+",
                  "description": "Error code",
                  "example": "001"
                },
                "message": {
                  "type": "string",
                  "pattern": ".+",
                  "description": "Error message",
                  "example": "An invalid MAuth token was passed and could not be decoded"
                }
              }
            }
          }
        }
      },
      "delete": {
        "summary": "Delete assignment",
        "description": "Delete assignment",
        "operationId": "deleteGodricAssignment",
        "x-api-pattern": "ExecuteFunction",
        "security": [
          {
            "Bearer": []
          }
        ],
        "consumes": [
          "application/json"
        ],
        "produces": [
          "application/json"
        ],
        "parameters": [
          {
            "in": "body",
            "name": "assignment",
            "description": "Assignment",
            "schema": {
              "type": "object",
              "required": [
                "device"
              ],
              "properties": {
                "device": {
                  "type": "string",
                  "description": "Device ID",
                  "pattern": ".+",
                  "example": "test-device"
                }
              }
            }
          }
        ],
        "responses": {
          "200": {
            "description": "OK",
            "schema": {
              "type": "string",
              "pattern": ".+",
              "description": "Message",
              "example": "Success"
            }
          },
          "400": {
            "description": "Bad Request",
            "schema": {
              "type": "object",
              "properties": {
                "error": {
                  "type": "string",
                  "pattern": ".+",
                  "description": "error string",
                  "example": "MISSING_PARAMETER"
                },
                "code": {
                  "type": "string",
                  "pattern": ".+",
                  "description": "Error code",
                  "example": "016"
                },
                "message": {
                  "type": "string",
                  "pattern": ".+",
                  "description": "Error message",
                  "example": "The request was missing a required parameter"
                },
                "parameter": {
                  "type": "string",
                  "pattern": ".+",
                  "description": "Name of missing parameter",
                  "example": "device"
                }
              }
            }
          },
          "401": {
            "description": "Unauthorized",
            "schema": {
              "type": "object",
              "properties": {
                "error": {
                  "type": "string",
                  "pattern": ".+",
                  "description": "error string",
                  "example": "COULD_NOT_DECODE_MAUTH_TOKEN"
                },
                "code": {
                  "type": "string",
                  "pattern": ".+",
                  "description": "Error code",
                  "example": "001"
                },
                "message": {
                  "type": "string",
                  "pattern": ".+",
                  "description": "Error message",
                  "example": "An invalid MAuth token was passed and could not be decoded"
                }
              }
            }
          }
        }
      }
    },
    "/godric/environments": {
      "get": {
        "summary": "Get environments",
        "description": "Get environments",
        "operationId": "getGodricEnvironments",
        "x-api-pattern": "QueryCollection",
        "security": [
          {
            "Bearer": []
          }
        ],
        "produces": [
          "application/json"
        ],
        "responses": {
          "200": {
            "description": "OK",
            "schema": {
              "type": "array",
              "description": "Environments",
              "items": {
                "type": "string",
                "description": "Environment",
                "pattern": ".+",
                "example": "staging2"
              }
            }
          },
          "400": {
            "description": "Bad Request",
            "schema": {
              "type": "object",
              "properties": {
                "error": {
                  "type": "string",
                  "pattern": ".+",
                  "description": "error string",
                  "example": "MISSING_PARAMETER"
                },
                "code": {
                  "type": "string",
                  "pattern": ".+",
                  "description": "Error code",
                  "example": "016"
                },
                "message": {
                  "type": "string",
                  "pattern": ".+",
                  "description": "Error message",
                  "example": "The request was missing a required parameter"
                },
                "parameter": {
                  "type": "string",
                  "pattern": ".+",
                  "description": "Name of missing parameter",
                  "example": "token"
                }
              }
            }
          },
          "401": {
            "description": "Unauthorized",
            "schema": {
              "type": "object",
              "properties": {
                "error": {
                  "type": "string",
                  "pattern": ".+",
                  "description": "error string",
                  "example": "COULD_NOT_DECODE_MAUTH_TOKEN"
                },
                "code": {
                  "type": "string",
                  "pattern": ".+",
                  "description": "Error code",
                  "example": "001"
                },
                "message": {
                  "type": "string",
                  "pattern": ".+",
                  "description": "Error message",
                  "example": "An invalid MAuth token was passed and could not be decoded"
                }
              }
            }
          }
        }
      }
    },
    "/env": {
      "get": {
        "summary": "Get environment by device id",
        "description": "Get environment by device id",
        "operationId": "getEnv",
        "x-api-pattern": "QueryCollection",
        "security": [],
        "parameters": [
          {
            "in": "query",
            "name": "device_id",
            "type": "string",
            "description": "Device ID",
            "pattern": ".+",
            "x-example": "1111111111",
            "required": true
          }
        ],
        "produces": [
          "application/json"
        ],
        "responses": {
          "200": {
            "description": "OK",
            "schema": {
              "type": "object",
              "description": "Environment",
              "properties": {
                "environment": {
                  "type": "string",
                  "description": "Environment",
                  "pattern": ".+",
                  "example": "staging2"
                },
                "config_uri": {
                  "type": "string",
                  "description": "Configuration URL",
                  "pattern": ".+",
                  "example": "https://foo.bar/config"
                }
              }
            }
          },
          "400": {
            "description": "Bad Request",
            "schema": {
              "type": "object",
              "properties": {
                "error": {
                  "type": "string",
                  "pattern": ".+",
                  "description": "error string",
                  "example": "MISSING_PARAMETER"
                },
                "code": {
                  "type": "string",
                  "pattern": ".+",
                  "description": "Error code",
                  "example": "016"
                },
                "message": {
                  "type": "string",
                  "pattern": ".+",
                  "description": "Error message",
                  "example": "The request was missing a required parameter"
                },
                "parameter": {
                  "type": "string",
                  "pattern": ".+",
                  "description": "Name of missing parameter",
                  "example": "device_id"
                }
              }
            }
          },
          "401": {
            "description": "Unauthorized",
            "schema": {
              "type": "object",
              "properties": {
                "error": {
                  "type": "string",
                  "pattern": ".+",
                  "description": "error string",
                  "example": "COULD_NOT_DECODE_MAUTH_TOKEN"
                },
                "code": {
                  "type": "string",
                  "pattern": ".+",
                  "description": "Error code",
                  "example": "001"
                },
                "message": {
                  "type": "string",
                  "pattern": ".+",
                  "description": "Error message",
                  "example": "An invalid MAuth token was passed and could not be decoded"
                }
              }
            }
          }
        }
      }
    },
    "/dri": {
      "post": {
        "summary": "Returns disaster recovery url",
        "description": "Returns disaster recovery url",
        "x-api-pattern": "ExecuteFunction",
        "operationId": "postDri",
        "security": [],
        "consumes": [
          "application/json"
        ],
        "produces": [
          "application/json"
        ],
        "parameters": [
          {
            "in": "body",
            "name": "dri",
            "description": "Disaster recovery params",
            "schema": {
              "type": "object",
              "required": [
                "hw_rev",
                "model"
              ],
              "properties": {
                "model": {
                  "type": "string",
                  "description": "Model number. When a specific model is not found the default gateway binary is returned. If the auxbox model (CI2516) is passed in then the auxbox binary is returned",
                  "pattern": ".+",
                  "example": "test-mode"
                },
                "hw_rev": {
                  "type": "string",
                  "description": "Hardware version",
                  "pattern": ".+",
                  "example": "1.2.3"
                },
                "cm_image": {
                  "type": "string",
                  "description": "Indicate whether to download the cable modem image in lieu of the gateway image. For cable modem image set cm_image===Yes. This does not affect auxbox download.",
                  "pattern": ".+",
                  "example": "NO"
                },
                "serial": {
                  "type": "string",
                  "description": "Serial number",
                  "pattern": ".+",
                  "example": "4.5.6"
                }
              }
            }
          }
        ],
        "responses": {
          "200": {
            "description": "OK",
            "schema": {
              "type": "object",
              "properties": {
                "firmwareDownloadProtocol": {
                  "type": "string",
                  "description": "Protocol",
                  "pattern": ".+",
                  "example": "https"
                },
                "firmwareFilename": {
                  "type": "string",
                  "description": "Filename",
                  "pattern": ".+",
                  "example": "foo.bin"
                },
                "firmwareLocation": {
                  "type": "string",
                  "description": "Location",
                  "pattern": ".+",
                  "example": "foo.bin/dri/download"
                },
                "firmwareVersion": {
                  "type": "string",
                  "description": "Version",
                  "pattern": ".+",
                  "example": "foo.bin"
                },
                "upgradeDelay": {
                  "type": "string",
                  "description": "Upgrade delay",
                  "pattern": ".+",
                  "example": "foo"
                }
              }
            }
          },
          "400": {
            "description": "Bad Request",
            "schema": {
              "type": "object",
              "properties": {
                "error": {
                  "type": "string",
                  "pattern": ".+",
                  "description": "error string",
                  "example": "MISSING_PARAMETER"
                },
                "code": {
                  "type": "string",
                  "pattern": ".+",
                  "description": "Error code",
                  "example": "016"
                },
                "message": {
                  "type": "string",
                  "pattern": ".+",
                  "description": "Error message",
                  "example": "The request was missing a required parameter"
                },
                "parameter": {
                  "type": "string",
                  "pattern": ".+",
                  "description": "Name of missing parameter",
                  "example": "hw_rev"
                }
              }
            }
          }
        }
      }
    },
    "/dri/download": {
      "get": {
        "summary": "Download disaster recovery file",
        "description": "Download disaster recovery file",
        "x-api-pattern": "QueryCollection",
        "operationId": "getDriDownload",
        "security": [],
        "produces": [
          "application/octet-stream"
        ],
        "parameters": [
          {
            "in": "query",
            "name": "firmwareFilename",
            "type": "string",
            "description": "Firmware filename",
            "pattern": ".+",
            "required": true
          }
        ],
        "responses": {
          "200": {
            "description": "OK",
            "schema": {
              "type": "file"
            }
          },
          "400": {
            "description": "Bad Request",
            "schema": {
              "type": "object",
              "properties": {
                "error": {
                  "type": "string",
                  "pattern": ".+",
                  "description": "error string",
                  "example": "MISSING_PARAMETER"
                },
                "code": {
                  "type": "string",
                  "pattern": ".+",
                  "description": "Error code",
                  "example": "016"
                },
                "message": {
                  "type": "string",
                  "pattern": ".+",
                  "description": "Error message",
                  "example": "The request was missing a required parameter"
                },
                "parameter": {
                  "type": "string",
                  "pattern": ".+",
                  "description": "Name of missing parameter",
                  "example": "firmwareFilename"
                }
              }
            }
          }
        }
      }
    },
    "/godric/downloadurl": {
      "post": {
        "summary": "Create download url",
        "description": "Create download url",
        "operationId": "postGodricDownloadUrl",
        "x-api-pattern": "ExecuteFunction",
        "security": [
          {
            "Bearer": []
          }
        ],
        "consumes": [
          "application/json"
        ],
        "produces": [
          "application/json"
        ],
        "parameters": [
          {
            "in": "body",
            "name": "assignment",
            "description": "Assignment",
            "schema": {
              "type": "object",
              "required": [
                "platform",
                "version",
                "url"
              ],
              "properties": {
                "platform": {
                  "type": "string",
                  "description": "Platform",
                  "pattern": ".+",
                  "example": "test-platform"
                },
                "version": {
                  "type": "string",
                  "description": "Version",
                  "pattern": ".+",
                  "example": "test-1.2.3"
                },
                "url": {
                  "type": "string",
                  "description": "URL",
                  "pattern": ".+",
                  "example": "foo@bar.com"
                }
              }
            }
          }
        ],
        "responses": {
          "200": {
            "description": "OK",
            "schema": {
              "type": "string",
              "pattern": ".+",
              "description": "Message",
              "example": "Success"
            }
          },
          "400": {
            "description": "Bad Request",
            "schema": {
              "type": "object",
              "properties": {
                "error": {
                  "type": "string",
                  "pattern": ".+",
                  "description": "error string",
                  "example": "MISSING_PARAMETER"
                },
                "code": {
                  "type": "string",
                  "pattern": ".+",
                  "description": "Error code",
                  "example": "016"
                },
                "message": {
                  "type": "string",
                  "pattern": ".+",
                  "description": "Error message",
                  "example": "The request was missing a required parameter"
                },
                "parameter": {
                  "type": "string",
                  "pattern": ".+",
                  "description": "Name of missing parameter",
                  "example": "device"
                }
              }
            }
          },
          "401": {
            "description": "Unauthorized",
            "schema": {
              "type": "object",
              "properties": {
                "error": {
                  "type": "string",
                  "pattern": ".+",
                  "description": "error string",
                  "example": "COULD_NOT_DECODE_MAUTH_TOKEN"
                },
                "code": {
                  "type": "string",
                  "pattern": ".+",
                  "description": "Error code",
                  "example": "001"
                },
                "message": {
                  "type": "string",
                  "pattern": ".+",
                  "description": "Error message",
                  "example": "An invalid MAuth token was passed and could not be decoded"
                }
              }
            }
          }
        }
      },
      "delete": {
        "summary": "Delete download url",
        "description": "Delete download url",
        "operationId": "deleteGodricDownloadUrl",
        "x-api-pattern": "ExecuteFunction",
        "security": [
          {
            "Bearer": []
          }
        ],
        "consumes": [
          "application/json"
        ],
        "produces": [
          "application/json"
        ],
        "parameters": [
          {
            "in": "body",
            "name": "assignment",
            "description": "Assignment",
            "schema": {
              "type": "object",
              "required": [
                "platform",
                "version"
              ],
              "properties": {
                "platform": {
                  "type": "string",
                  "description": "Platform",
                  "pattern": ".+",
                  "example": "test-platform"
                },
                "version": {
                  "type": "string",
                  "description": "Version",
                  "pattern": ".+",
                  "example": "test-1.2.3"
                }
              }
            }
          }
        ],
        "responses": {
          "200": {
            "description": "OK",
            "schema": {
              "type": "string",
              "pattern": ".+",
              "description": "Message",
              "example": "Success"
            }
          },
          "400": {
            "description": "Bad Request",
            "schema": {
              "type": "object",
              "properties": {
                "error": {
                  "type": "string",
                  "pattern": ".+",
                  "description": "error string",
                  "example": "MISSING_PARAMETER"
                },
                "code": {
                  "type": "string",
                  "pattern": ".+",
                  "description": "Error code",
                  "example": "016"
                },
                "message": {
                  "type": "string",
                  "pattern": ".+",
                  "description": "Error message",
                  "example": "The request was missing a required parameter"
                },
                "parameter": {
                  "type": "string",
                  "pattern": ".+",
                  "description": "Name of missing parameter",
                  "example": "platform"
                }
              }
            }
          },
          "401": {
            "description": "Unauthorized",
            "schema": {
              "type": "object",
              "properties": {
                "error": {
                  "type": "string",
                  "pattern": ".+",
                  "description": "error string",
                  "example": "COULD_NOT_DECODE_MAUTH_TOKEN"
                },
                "code": {
                  "type": "string",
                  "pattern": ".+",
                  "description": "Error code",
                  "example": "001"
                },
                "message": {
                  "type": "string",
                  "pattern": ".+",
                  "description": "Error message",
                  "example": "An invalid MAuth token was passed and could not be decoded"
                }
              }
            }
          }
        }
      }
    },
    "/health": {
      "get": {
        "summary": "Check health of the service",
        "description": "Check health of the service",
        "x-api-pattern": "QueryResource",
        "operationId": "getHealth",
        "security": [],
        "responses": {
          "200": {
            "description": "OK",
            "schema": {
              "type": "object",
              "properties": {
                "status": {
                  "type": "string",
                  "description": "Health indicator",
                  "pattern": ".+",
                  "example": "OK"
                }
              }
            }
          }
        }
      }
    },
    "/readiness": {
      "get": {
        "summary": "Check readiness the service",
        "description": "Check readiness the service",
        "x-api-pattern": "QueryResource",
        "operationId": "getReadiness",
        "security": [],
        "responses": {
          "200": {
            "description": "OK",
            "schema": {
              "type": "object",
              "properties": {
                "status": {
                  "type": "string",
                  "description": "Readiness indicator",
                  "pattern": ".+",
                  "example": "OK"
                }
              }
            }
          }
        }
      }
    }
  },
  "securityDefinitions": {
    "Bearer": {
      "type": "apiKey",
      "name": "Authorization",
      "in": "header"
    }
  }
}
