{  
   "swagger":"2.0",
   "info":{  
      "description":"This document describes  APIs that support Usage Query for BAN and Subscriber levels.",
      "version":"1.0",
      "title":"At-Work SSP - Design Package 4"
   },
   "basePath":"/usage/v1/lines-of-service",
   "tags":[  
      {  
         "name":"Usage Query",
         "description":"Retrieve Usage  totals, summary and  details for a given financial account or Subscriber."
      }
   ],
   "paths":{  
      "/usage/v1/financial-accounts/{financialAccountId}/unbilled-total":{  
         "get":{  
            "tags":[  
               "usage-res"
            ],
            "summary":"Get usages for a specified financial account Id",
            "operationId":"retrieveUnbilledUsagesByfinancialAccount",
            "produces":[  
               "application/json"
            ],
            "parameters":[  
               {  
                  "$ref":"#/parameters/header-activityid"
               },
               {  
                  "$ref":"#/parameters/header-authorization"
               },
               {  
                  "$ref":"#/parameters/header-dealercode"
               },
               {  
                  "$ref":"#/parameters/header-applicationuserid"
               },
               {  
                  "$ref":"#/parameters/header-application-id"
               },
               {  
                  "$ref":"#/parameters/header-channel-id"
               },
               {  
                  "$ref":"#/parameters/header-operator-id"
               },
               {  
                  "$ref":"#/parameters/header-service-partner-id"
               },
               {  
                  "$ref":"#/parameters/path-financial-account-id"
               },
               {  
                  "$ref":"#/parameters/query-msisdn"
               },
               {  
                  "$ref":"#/parameters/query-bill-sequence-number"
               }
            ],
            "responses":{  
               "200":{  
                  "description":"OK",
                  "schema":{  
                     "$ref":"#/definitions/TotalUsagefinancialAccountResponse"
                  }
               },
               "400":{  
                  "description":"Bad request error",
                  "schema":{  
                     "$ref":"#/definitions/ErrorResponse"
                  }
               },
               "500":{  
                  "description":"The Tuxedo Service is failed",
                  "schema":{  
                     "$ref":"#/definitions/ErrorResponse"
                  }
               }
            }
         }
      },
      "/usage/v1/financial-accounts/{financialAccountId}/summary":{  
         "get":{  
            "tags":[  
               "usage-res"
            ],
            "summary":"Get financial account Level Usages list for a specified financial account Id",
            "operationId":"retrieveUsagesfinancialAccountLevel",
            "produces":[  
               "application/json"
            ],
            "parameters":[  
               {  
                  "$ref":"#/parameters/header-activityid"
               },
               {  
                  "$ref":"#/parameters/header-authorization"
               },
               {  
                  "$ref":"#/parameters/header-dealercode"
               },
               {  
                  "$ref":"#/parameters/header-applicationuserid"
               },
               {  
                  "$ref":"#/parameters/header-application-id"
               },
               {  
                  "$ref":"#/parameters/header-channel-id"
               },
               {  
                  "$ref":"#/parameters/header-operator-id"
               },
               {  
                  "$ref":"#/parameters/header-service-partner-id"
               },
               {  
                  "$ref":"#/parameters/path-financial-account-id"
               },
               {  
                  "$ref":"#/parameters/query-bill-sequence-number"
               },
               {  
                  "$ref":"#/parameters/query-filter-category-level"
               },
               {  
                  "$ref":"#/parameters/query-sort-by"
               },
               {  
                  "$ref":"#/parameters/query-sort-call-type"
               },
               {  
                  "$ref":"#/parameters/query-sort-data-type"
               },
               {  
                  "$ref":"#/parameters/query-sort-ind"
               },
               {  
                  "$ref":"#/parameters/query-pagenumber"
               },
               {  
                  "$ref":"#/parameters/query-pagesize"
               }
            ],
            "responses":{  
               "200":{  
                  "description":"OK",
                  "schema":{  
                     "$ref":"#/definitions/UsageSummaryfinancialAccountLevelResponse"
                  }
               },
               "400":{  
                  "description":"Bad request error",
                  "schema":{  
                     "$ref":"#/definitions/ErrorResponse"
                  }
               },
               "500":{  
                  "description":"The Tuxedo Service is failed",
                  "schema":{  
                     "$ref":"#/definitions/ErrorResponse"
                  }
               }
            }
         }
      },
      "/usage/v1/lines-of-service/{msisdn}/unbilled-total":{  
         "get":{  
            "tags":[  
               "usage-res"
            ],
            "summary":"Get usages for a specified Subscriber",
            "operationId":"retrieveUnbilledUsagesBySubscriber",
            "produces":[  
               "application/json"
            ],
            "parameters":[  
               {  
                  "$ref":"#/parameters/header-activityid"
               },
               {  
                  "$ref":"#/parameters/header-authorization"
               },
               {  
                  "$ref":"#/parameters/header-dealercode"
               },
               {  
                  "$ref":"#/parameters/header-applicationuserid"
               },
               {  
                  "$ref":"#/parameters/header-application-id"
               },
               {  
                  "$ref":"#/parameters/header-channel-id"
               },
               {  
                  "$ref":"#/parameters/header-operator-id"
               },
               {  
                  "$ref":"#/parameters/header-service-partner-id"
               },
               {  
                  "$ref":"#/parameters/path-msisdn"
               },
               {  
                  "$ref":"#/parameters/query-financial-account-id"
               },
               {  
                  "$ref":"#/parameters/query-bill-sequence-number"
               }
            ],
            "responses":{  
               "200":{  
                  "description":"OK",
                  "schema":{  
                     "$ref":"#/definitions/TotalUsageSubscriberResponse"
                  }
               },
               "400":{  
                  "description":"Bad request error",
                  "schema":{  
                     "$ref":"#/definitions/ErrorResponse"
                  }
               },
               "500":{  
                  "description":"The Tuxedo Service is failed",
                  "schema":{  
                     "$ref":"#/definitions/ErrorResponse"
                  }
               }
            }
         }
      },
      "/usage/v1/lines-of-service/summary":{  
         "get":{  
            "tags":[  
               "usage-res"
            ],
            "summary":"Get Line Level Usage List for a specified financial account Id",
            "operationId":"retrieveUsagesLineLevel",
            "produces":[  
               "application/json"
            ],
            "parameters":[  
               {  
                  "$ref":"#/parameters/header-activityid"
               },
               {  
                  "$ref":"#/parameters/header-authorization"
               },
               {  
                  "$ref":"#/parameters/header-dealercode"
               },
               {  
                  "$ref":"#/parameters/header-applicationuserid"
               },
               {  
                  "$ref":"#/parameters/header-application-id"
               },
               {  
                  "$ref":"#/parameters/header-channel-id"
               },
               {  
                  "$ref":"#/parameters/header-operator-id"
               },
               {  
                  "$ref":"#/parameters/header-service-partner-id"
               },
               {  
                  "$ref":"#/parameters/path-financial-account-id"
               },
               {  
                  "$ref":"#/parameters/query-bill-sequence-number"
               },
               {  
                  "$ref":"#/parameters/query-filter-category-level"
               },
               {  
                  "$ref":"#/parameters/query-sort-by"
               },
               {  
                  "$ref":"#/parameters/query-sort-call-type"
               },
               {  
                  "$ref":"#/parameters/query-sort-data-type"
               },
               {  
                  "$ref":"#/parameters/query-sort-ind"
               },
               {  
                  "$ref":"#/parameters/query-pagenumber"
               },
               {  
                  "$ref":"#/parameters/query-pagesize"
               }
            ],
            "responses":{  
               "200":{  
                  "description":"OK",
                  "schema":{  
                     "$ref":"#/definitions/UsageSummaryLineLevelResponse"
                  }
               },
               "400":{  
                  "description":"Bad request error",
                  "schema":{  
                     "$ref":"#/definitions/ErrorResponse"
                  }
               },
               "500":{  
                  "description":"The Tuxedo Service is failed",
                  "schema":{  
                     "$ref":"#/definitions/ErrorResponse"
                  }
               }
            }
         }
      },
      "/usage/v1/lines-of-service/{mobileNumber}/usage-details":{  
         "get":{  
            "tags":[  
               "usage-res"
            ],
            "summary":"Get usages for a specified subscriber",
            "operationId":"retrievedUsage",
            "produces":[  
               "application/json"
            ],
            "parameters":[  
               {  
                  "$ref":"#/parameters/header-activityid"
               },
               {  
                  "$ref":"#/parameters/header-authorization"
               },
               {  
                  "$ref":"#/parameters/header-dealercode"
               },
               {  
                  "$ref":"#/parameters/header-applicationuserid"
               },
               {  
                  "$ref":"#/parameters/header-application-id"
               },
               {  
                  "$ref":"#/parameters/header-channel-id"
               },
               {  
                  "$ref":"#/parameters/header-operator-id"
               },
               {  
                  "$ref":"#/parameters/header-service-partner-id"
               },
               {  
                  "$ref":"#/parameters/path-mobileNumber"
               },
               {  
                  "$ref":"#/parameters/query-financial-account-number"
               },
               {  
                  "$ref":"#/parameters/query-bill-sequence-number"
               },
               {  
                  "$ref":"#/parameters/query-from-date"
               },
               {  
                  "$ref":"#/parameters/query-until-date"
               },
               {  
                  "$ref":"#/parameters/query-filter-category-level"
               },
               {  
                  "$ref":"#/parameters/query-premuim-category-level"
               },
               {  
                  "$ref":"#/parameters/query-pagenumber"
               },
               {  
                  "$ref":"#/parameters/query-pagesize-optional"
               },
               {  
                  "$ref":"#/parameters/query-last-channel-seizure-date"
               }
            ],
            "responses":{  
               "200":{  
                  "description":"OK",
                  "schema":{  
                     "$ref":"#/definitions/UsageDetailsResponse"
                  },
                  "headers":{  

                  }
               },
               "400":{  
                  "description":"Bad request error",
                  "schema":{  
                     "$ref":"#/definitions/errorCollection"
                  }
               },
               "401":{  
                  "description":"Unauthorized",
                  "schema":{  
                     "$ref":"#/definitions/errorCollection"
                  }
               },
               "404":{  
                  "description":"Resource not found",
                  "schema":{  
                     "$ref":"#/definitions/errorCollection"
                  }
               },
               "500":{  
                  "description":"The Tuxedo Service is failed",
                  "schema":{  
                     "$ref":"#/definitions/errorCollection"
                  }
               },
               "503":{  
                  "description":"Service unavailable",
                  "schema":{  
                     "$ref":"#/definitions/errorCollection"
                  }
               }
            }
         }
      }
   },
   "parameters":{  
      "header-activityid":{  
         "in":"header",
         "name":"activityid",
         "description":"activity id",
         "required":true,
         "type":"string"
      },
      "header-authorization":{  
         "in":"header",
         "name":"authorization",
         "description":"authorization header",
         "required":false,
         "type":"string"
      },
      "header-dealercode":{  
         "in":"header",
         "name":"dealercode",
         "description":"dealer code",
         "required":false,
         "type":"string"
      },
      "header-applicationuserid":{  
         "in":"header",
         "name":"applicationuserid",
         "description":"application user id",
         "required":false,
         "type":"string"
      },
      "header-application-id":{  
         "in":"header",
         "name":"applicationid",
         "description":"application id",
         "required":false,
         "type":"string"
      },
      "header-channel-id":{  
         "in":"header",
         "name":"channelid",
         "description":"channel id",
         "required":false,
         "type":"string"
      },
      "header-operator-id":{  
         "in":"header",
         "name":"operatorid",
         "description":"operator id",
         "required":false,
         "type":"integer",
         "format":"int32"
      },
      "header-service-partner-id":{  
         "in":"header",
         "name":"servicepartnerid",
         "description":"service partner id",
         "required":false,
         "type":"string"
      },
      "path-msisdn":{  
         "in":"path",
         "name":"msisdn",
         "description":"subscriber number",
         "required":true,
         "type":"string"
      },
      "path-mobileNumber":{  
         "in":"path",
         "name":"mobileNumber",
         "description":"subscriber number",
         "required":true,
         "type":"string"
      },
      "path-financial-account-id":{  
         "in":"path",
         "name":"financialAccountId",
         "description":"financial account id",
         "required":true,
         "type":"string"
      },
      "query-financial-account-id":{  
         "in":"query",
         "name":"financialAccountId",
         "description":"financial account id",
         "required":false,
         "type":"string"
      },
      "query-financial-account-number":{  
         "in":"query",
         "name":"financialAccountNumber",
         "description":"financial account number",
         "required":true,
         "type":"string"
      },
      "query-msisdn":{  
         "in":"query",
         "name":"msisdn",
         "description":"subscriber number",
         "required":false,
         "type":"string"
      },
      "query-bill-sequence-number":{  
         "in":"query",
         "name":"billSequenceNumber",
         "description":"bill sequence number",
         "required":false,
         "type":"integer",
         "format":"int32"
      },
      "query-from-date":{  
         "in":"query",
         "name":"fromDate",
         "description":"from date",
         "required":false,
         "type":"string"
      },
      "query-until-date":{  
         "in":"query",
         "name":"untilDate",
         "description":"until date",
         "required":false,
         "type":"string"
      },
      "query-filter-category-level":{  
         "name":"filterCategoryLevel",
         "in":"query",
         "required":true,
         "type":"string",
         "enum":[  
            "VOICE",
            "DATA",
            "TEXT",
            "VOICE_DATA",
            "DATA_TEXT",
            "VOICE_TEXT",
            "VOICE_DATA_TEXT",
            "PREMIUM",
            "VOICE_PREMIUM",
            "DATA_PREMIUM",
            "TEXT_PREMIUM",
            "VOICE_DATA_PREMIUM",
            "DATA_TEXT_PREMIUM",
            "VOICE_TEXT_PREMIUM",
            "VOICE_DATA_TEXT_PREMIUM"
         ]
      },
      "query-premuim-category-level":{  
         "name":"premiumServiceCategoryLevel",
         "in":"query",
         "required":false,
         "type":"string",
         "enum":[  
            "THIRD_PARTY_OTC",
            "THIRD_PARTY_RC",
            "TMO_OTC",
            "TMO_RC",
            "THIRD_PARTY_OTC_THIRD_PARTY_RC",
            "TMO_OTC_TMO_RC",
            "ALL"
         ]
      },
      "query-sort-by":{  
         "in":"query",
         "name":"sortBy",
         "required":false,
         "type":"string",
         "enum":[  
            "ASCENDING",
            "DESCENDING"
         ]
      },
      "query-sort-call-type":{  
         "in":"query",
         "name":"sortCallType",
         "required":false,
         "type":"string",
         "enum":[  
            "INTERNATIONAL_ROAM",
            "DOMESTIC_HOME",
            "DOMESTIC_ROAM",
            "STASH_USED",
            "DOMESTIC_HOME_SENT",
            "DOMESTIC_HOME_RECEIVED",
            "DOMESTIC_ROAM_SENT",
            "DOMESTIC_ROAM_RECEIVED",
            "INTERNATIONAL_ROAM_SENT",
            "INTERNATIONAL_ROAM_RECEIVED",
            "DOMESTIC_ALLOWED",
            "TOTAL_RECEIVED",
            "TOTAL_SENT",
            "TOTAL_USED"
         ]
      },
      "query-sort-data-type":{  
         "in":"query",
         "name":"sortDataType",
         "required":false,
         "type":"string",
         "enum":[  
            "VOICE",
            "DATA",
            "TEXT"
         ]
      },
      "query-sort-ind":{  
         "in":"query",
         "name":"sortInd",
         "required":false,
         "type":"string",
         "enum":[  
            "Y",
            "N"
         ]
      },
      "query-pagenumber":{  
         "in":"query",
         "name":"pagenumber",
         "required":false,
         "type":"integer"
      },
      "query-pagesize":{  
         "in":"query",
         "name":"pagesize",
         "required":true,
         "type":"integer"
      },
      "query-pagesize-optional":{  
         "in":"query",
         "name":"pagesize",
         "required":false,
         "type":"integer"
      },
      "query-last-channel-seizure-date":{  
         "in":"query",
         "name":"lastChannelSeizureDate",
         "description":"last Channel Seizure Date",
         "required":false,
         "type":"string"
      }
   },
   "definitions":{  
      "FilterCategoryLevelEnum":{  
         "type":"string",
         "enum":[  
            "VOICE",
            "DATA",
            "TEXT",
            "VOICE_DATA",
            "DATA_TEXT",
            "VOICE_TEXT",
            "VOICE_DATA_TEXT",
            "PREMIUM",
            "VOICE_PREMIUM",
            "DATA_PREMIUM",
            "TEXT_PREMIUM",
            "VOICE_DATA_PREMIUM",
            "DATA_TEXT_PREMIUM",
            "VOICE_TEXT_PREMIUM",
            "VOICE_DATA_TEXT_PREMIUM"
         ]
      },
      "PremiumServiceCategoryLevelEnum":{  
         "type":"string",
         "enum":[  
            "THIRD_PARTY_OTC",
            "THIRD_PARTY_RC",
            "TMO_OTC",
            "TMO_RC",
            "THIRD_PARTY_OTC_THIRD_PARTY_RC",
            "TMO_OTC_TMO_RC",
            "ALL"
         ]
      },
      "BucketItem":{  
         "type":"object",
         "properties":{  
            "bucketService":{  
               "type":"string"
            },
            "bucketFeature":{  
               "type":"string"
            }
         }
      },
      "Bucket":{  
         "type":"array",
         "items":{  
            "$ref":"#/definitions/BucketItem"
         }
      },
      "error":{  
         "description":"Error object.",
         "type":"object",
         "properties":{  
            "code":{  
               "description":"A specific  T-Mobile error code.",
               "type":"string"
            },
            "userMessage":{  
               "description":"A human-readable  message describing the error.",
               "type":"string"
            },
            "systemMessage":{  
               "description":"Backend system error message.",
               "type":"string"
            }
         }
      },
      "errorCollection":{  
         "description":"The array of error objects. As defined in https://tmobileusa.sharepoint.com/teams/EnterpriseServices/ESG%20Standards%20Documents/APIs/T-Mobile%20API%20Design%20Guidelines%20v1.0.docx",
         "type":"object",
         "properties":{  
            "errors":{  
               "type":"array",
               "items":{  
                  "$ref":"#/definitions/error"
               }
            }
         }
      },
      "Data":{  
         "type":"object",
         "properties":{  
            "channelSeizureDate":{  
               "type":"string",
               "description":"The date and time of   the call From Usage Table.",
               "x-example":"20171101010003"
            },
            "callType":{  
               "$ref":"#/definitions/FilterCategoryLevelEnum",
               "description":"Usage type for which to pull the usage records."
            },
            "bucket":{  
               "$ref":"#/definitions/Bucket",
               "description":"Array includes bucket_soc and bucket_ftr_cd."
            },
            "origin":{  
               "type":"string",
               "description":"This will be origin of Data usage. This will be provided if Applicable for data usage session. Samson will populate this field from PLMN_SETTLEMENT table field PLMN_NAME and will be passed in output as SID_DESC",
               "x-example":"Brazil (Vivo)"
            },
            "datausageIndicator":{  
               "type":"string",
               "description":"If Data usage is from PASS or STASH.",
               "x-example":"P"
            },
            "passCategory":{  
               "type":"string",
               "description":"Which type of Pass the Consumer is using.",
               "x-example":"passCategory"
            },
            "ratedAmount":{  
               "type":"number",
               "format":"double",
               "description":"ratedAmount",
               "x-example":"0.0"
            },
            "callVolume":{  
               "type":"number",
               "format":"double",
               "description":"Rounded volume of data calls.",
               "x-example":"0.0"
            },
            "billLegend":{  
               "type":"string",
               "description":"Bill Legend",
               "x-example":"P"
            },
            "messageType":{  
               "type":"string",
               "description":"This field indicates whether the message is considered as Home, Incollect, or Outcollect.",
               "x-example":"0"
            },
            "roamingIndicator":{  
               "type":"string",
               "description":"Roam/Home indication based on the RATE_GROUP in USAGE table. Valid values: H - Home - Home call, E - EHA - Extended Home Area call, R - Roam - Roaming call.",
               "x-example":"H"
            },
            "unitOfMeasure":{  
               "type":"string",
               "description":"Unit of measurement to rate the call.",
               "x-example":"M"
            },
            "usageCategory":{  
               "type":"string",
               "description":"Usage category similar to ones specified in usage summary API. Valid values: A - DOM HOME - Domestic Home call, B - DOM ROAM - Domestic Roaming call, C - INTRNTNL ROAM - International Roaming call, D - DOM PASS - Domestic Pass, E - ROAM PASS - Domestic Roaming Pass, F - INT PASS - International Pass,  G - STAST - Stash.",
               "x-example":"A"
            }
         }
      },
      "Voice":{  
         "type":"object",
         "properties":{  
            "callDuration":{  
               "type":"number",
               "format":"double",
               "description":"AirTime Call Duration in Rounded minutes. The time, in rounded minutes, between channel seizure and call termination. This field includes free minutes, if included in the scheme.",
               "x-example":"0.0"
            },
            "callType":{  
               "$ref":"#/definitions/FilterCategoryLevelEnum",
               "description":"Field will depict the type of call."
            },
            "carrier":{  
               "type":"string",
               "description":"A code representing the InterExchange carrier that served the interLATA portion of this call.",
               "x-example":"a"
            },
            "channelSeizureDate":{  
               "type":"string",
               "description":"The date and time of the call From Usage Table.",
               "x-example":"2017-08-05T07:00:00.000Z"
            },
            "destinationCity":{  
               "type":"string",
               "description":"City Destination Description .",
               "x-example":"SEATTLE SR"
            },
            "destinationNumber":{  
               "type":"string",
               "description":"The dialed number that is displayed in the detailed usage section of the bill.",
               "x-example":"1"
            },
            "destinationState":{  
               "type":"string",
               "description":"State Destination Code.",
               "x-example":"WA"
            },
            "originCity":{  
               "type":"string",
               "description":"SID City.",
               "x-example":"abc"
            },
            "originState":{  
               "type":"string",
               "description":"SID State.",
               "x-example":"ab"
            },
            "bucket":{  
               "$ref":"#/definitions/Bucket",
               "description":"Array includes bucket_soc and bucket_ftr_cd.."
            },
            "ratedAmount":{  
               "type":"number",
               "format":"double",
               "description":"ratedAmount.",
               "x-example":"0.0"
            },
            "billLegend":{  
               "type":"string",
               "description":"Bill Legend",
               "x-example":"P"
            },
            "messageType":{  
               "type":"string",
               "description":"This field indicates whether the message is considered as Home, Incollect, or Outcollect.",
               "x-example":"0"
            },
            "direction":{  
               "type":"string",
               "description":"Indicate whether the call is “incoming” or “outgoing",
               "x-example":"1"
            },
            "origin":{  
               "type":"string",
               "description":"This will be origin of Data usage. This will be provided if Applicable for data usage session. Samson will populate this field from PLMN_SETTLEMENT table field PLMN_NAME and will be passed in output as SID_DESC",
               "x-example":"Brazil (Vivo)"
            },
            "roamingIndicator":{  
               "type":"string",
               "description":"Roam/Home indication based on the RATE_GROUP in USAGE table. Valid values: H - Home - Home call, E - EHA - Extended Home Area call, R - Roam - Roaming call.",
               "x-example":"H"
            },
            "unitOfMeasure":{  
               "type":"string",
               "description":"Unit of measurement to rate the call.",
               "x-example":"M"
            },
            "usageCategory":{  
               "type":"string",
               "description":"Usage category similar to ones specified in usage summary API. Valid values: A - DOM HOME - Domestic Home call, B - DOM ROAM - Domestic Roaming call, C - INTRNTNL ROAM - International Roaming call.",
               "x-example":"A"
            }
         }
      },
      "Purchase":{  
         "type":"object",
         "properties":{  
            "featureCode":{  
               "type":"string",
               "description":"featureCode.",
               "x-example":"GNDATA"
            },
            "featureDecription":{  
               "type":"string",
               "description":"featureDecription.",
               "x-example":"Internet Access"
            },
            "provider":{  
               "type":"string",
               "description":"The charge provider name",
               "x-example":"abc"
            },
            "providerDescription":{  
               "type":"string",
               "description":"The charge provider description.",
               "x-example":"abc"
            },
            "channelSeizureDate":{  
               "type":"string",
               "description":"The date and time of the call From Usage Table.",
               "x-example":"20171101010003"
            },
            "chargeAmount":{  
               "type":"number",
               "format":"double",
               "description":"chargeAmount.",
               "x-example":"0.0"
            },
            "featureDescriptionSpanish":{  
               "type":"string",
               "description":"Feature Description Spanish.",
               "x-example":"Acceso a Internet"
            },
            "chargeType":{  
               "type":"string",
               "description":"One Time  Charge or Recurring Charge.",
               "x-example":"Y"
            },
            "billLegend":{  
               "type":"string",
               "description":"Bill Legend",
               "x-example":"P"
            },
            "roamingIndicator":{  
               "type":"string",
               "description":"Roam/Home indication based on the RATE_GROUP in USAGE table. Valid values: H - Home - Home call, E - EHA - Extended Home Area call, R - Roam - Roaming call.",
               "x-example":"H"
            },
            "unitOfMeasure":{  
               "type":"string",
               "description":"Unit of measurement to rate the call.",
               "x-example":"M"
            },
            "usageCategory":{  
               "type":"string",
               "description":"Usage category similar to ones specified in usage summary API. Valid values: H - PREMIUM TMORC - Premium TMO recurring charge, I - PREMIUM TMOOTC - Premium TMO one time charge, J - PREMIUM 3RDPTRC - Premium 3rd party recurring charge, K - PREMIUM 3RDPTOTC - Premium 3rd party one time charge.",
               "x-example":"H"
            }
         }
      },
      "Text":{  
         "type":"object",
         "properties":{  
            "callType":{  
               "$ref":"#/definitions/FilterCategoryLevelEnum",
               "description":"Usage type for which to pull the usage records."
            },
            "channelSeizureDate":{  
               "type":"string",
               "description":"The date and time of the  call From Usage Table.",
               "x-example":"20171101010003"
            },
            "destinationCity":{  
               "type":"string",
               "description":"City Destination Description.",
               "x-example":"SEATTLE SR"
            },
            "destinationNumber":{  
               "type":"string",
               "description":"The dialed number that is displayed in the detailed usage section of the bill.",
               "x-example":"1"
            },
            "destinationState":{  
               "type":"string",
               "description":"State Destination Code.",
               "x-example":"WA"
            },
            "direction":{  
               "type":"string",
               "description":"Indicate whether the call is “incoming” or “outgoing.",
               "x-example":"abc"
            },
            "bucket":{  
               "$ref":"#/definitions/Bucket",
               "description":"Array includes bucket_soc and bucket_ftr_cd."
            },
            "ratedAmount":{  
               "type":"number",
               "format":"double",
               "description":"ratedAmount.",
               "x-example":"0.0"
            },
            "messageType":{  
               "type":"string",
               "description":"This field indicates whether the message is considered as Home, Incollect, or Outcollect.",
               "x-example":"0"
            },
            "billLegend":{  
               "type":"string",
               "description":"Bill Legend",
               "x-example":"P"
            },
            "origin":{  
               "type":"string",
               "description":"This will be origin of Data usage. This will be provided if Applicable for data usage session. Samson will populate this field from PLMN_SETTLEMENT table field PLMN_NAME and will be passed in output as SID_DESC",
               "x-example":"Brazil (Vivo)"
            },
            "roamingIndicator":{  
               "type":"string",
               "description":"Roam/Home indication based on the RATE_GROUP in USAGE table. Valid values: H - Home - Home call, E - EHA - Extended Home Area call, R - Roam - Roaming call.",
               "x-example":"H"
            },
            "unitOfMeasure":{  
               "type":"string",
               "description":"Unit of measurement to rate the call.",
               "x-example":"M"
            },
            "usageCategory":{  
               "type":"string",
               "description":"Usage category similar to ones specified in usage summary API. Valid values: A - DOM HOME - Domestic Home call, B - DOM ROAM - Domestic Roaming call, C - INTRNTNL ROAM - International Roaming call.",
               "x-example":"A"
            }
         }
      },
      "TotalUsagefinancialAccountResponse":{  
         "type":"object",
         "properties":{  
            "dataUsed":{  
               "type":"string"
            },
            "textSent":{  
               "type":"string"
            },
            "voiceUsed":{  
               "type":"string"
            }
         }
      },
      "ErrorResponse":{  
         "type":"object",
         "properties":{  
            "code":{  
               "type":"string"
            },
            "systemMessage":{  
               "type":"string"
            },
            "requestURI":{  
               "type":"string"
            }
         }
      },
      "financialAccountUsageDataResponse":{  
         "type":"object",
         "properties":{  
            "dataDomHome":{  
               "type":"string"
            },
            "dataDomRoam":{  
               "type":"string"
            },
            "dataDomStashUsed":{  
               "type":"string"
            },
            "dataDomStashAllow":{  
               "type":"string"
            },
            "dataIntRoam":{  
               "type":"string"
            },
            "dataTotalAllow":{  
               "type":"string"
            },
            "smsIntRoamSent":{  
               "type":"string"
            },
            "totalDataUsed":{  
               "type":"string"
            },
            "totalSmsUsed":{  
               "type":"string"
            },
            "totalVoiceUsed":{  
               "type":"string"
            },
            "voiceDomRoam":{  
               "type":"string"
            },
            "voiceIntRoam":{  
               "type":"string"
            },
            "smsDomRoam":{  
               "type":"string"
            }
         }
      },
      "TotalUsageSubscriberResponse":{  
         "type":"object",
         "properties":{  
            "dataAvailable":{  
               "type":"string"
            },
            "dataUsed":{  
               "type":"string"
            },
            "messageAvailable":{  
               "type":"string"
            },
            "textSent":{  
               "type":"string"
            },
            "voiceAvailable":{  
               "type":"string"
            },
            "voiceUsed":{  
               "type":"string"
            }
         }
      },
      "SubscriberUsageDataResponse":{  
         "type":"object",
         "properties":{  
            "dataDomHome":{  
               "type":"string"
            },
            "dataDomRoam":{  
               "type":"string"
            },
            "dataDomStashUsed":{  
               "type":"string"
            },
            "dataDomStashAllow":{  
               "type":"string"
            },
            "dataIntRoam":{  
               "type":"string"
            },
            "dataTotalAllow":{  
               "type":"string"
            },
            "smsIntRoamSent":{  
               "type":"string"
            },
            "subscriberNo":{  
               "type":"string"
            },
            "totalDataUsed":{  
               "type":"string"
            },
            "totalSmsUsed":{  
               "type":"string"
            },
            "totalVoiceUsed":{  
               "type":"string"
            },
            "voiceDomRoam":{  
               "type":"string"
            },
            "voiceIntRoam":{  
               "type":"string"
            },
            "smsDomRoam":{  
               "type":"string"
            },
            "productType":{  
               "type":"string"
            },
            "lineType":{  
               "type":"string"
            }
         }
      },
      "IdRef":{  
         "type":"object",
         "description":"Array of hyperlinks to pages Next Previous and current",
         "properties":{  
            "rel":{  
               "type":"string",
               "description":"Type of Link",
               "enum":[  
                  "CURRENT",
                  "NEXT",
                  "PREVIOUS"
               ]
            },
            "href":{  
               "description":"Actual URI of the page",
               "type":"string"
            }
         }
      },
      "UsageSummaryfinancialAccountLevelResponse":{  
         "type":"object",
         "properties":{  
            "UsageSummaryOutputRecord":{  
               "type":"array",
               "items":{  
                  "$ref":"#/definitions/financialAccountUsageDataResponse"
               }
            },
            "moreRows":{  
               "type":"boolean"
            },
            "pageSize":{  
               "type":"integer",
               "format":"int32"
            }
         }
      },
      "UsageSummaryLineLevelResponse":{  
         "type":"object",
         "properties":{  
            "UsageSummaryOutputRecord":{  
               "type":"array",
               "items":{  
                  "$ref":"#/definitions/SubscriberUsageDataResponse"
               }
            },
            "moreRows":{  
               "type":"boolean"
            },
            "pageSize":{  
               "type":"integer",
               "format":"int32"
            }
         }
      },
      "UsageDetailsOutputRecord":{  
         "type":"object",
         "properties":{  
            "financialAccountNumber":{  
               "type":"string",
               "description":"financialAccountNumber.",
               "x-example":"abc"
            },
            "data":{  
               "type":"array",
               "description":"Data.",
               "items":{  
                  "$ref":"#/definitions/Data"
               }
            },
            "text":{  
               "type":"array",
               "description":"Text",
               "items":{  
                  "$ref":"#/definitions/Text"
               }
            },
            "purchase":{  
               "type":"array",
               "description":"Purchase",
               "items":{  
                  "$ref":"#/definitions/Purchase"
               }
            },
            "voice":{  
               "type":"array",
               "description":"Voice",
               "items":{  
                  "$ref":"#/definitions/Voice"
               }
            }
         }
      },
      "UsageDetailsResponse":{  
         "type":"object",
         "properties":{  
            "UsageDetailsOutputRecord":{  
               "$ref":"#/definitions/UsageDetailsOutputRecord"
            },
            "pagination":{  
               "$ref":"#/definitions/PageDetails"
            }
         }
      },
      "PageDetails":{  
         "type":"object",
         "properties":{  
            "pageNumber":{  
               "description":"Current Page Number",
               "type":"number",
               "format":"int32"
            },
            "totalRecordCount":{  
               "description":"Total Records present for the resuest",
               "type":"number",
               "format":"int32"
            },
            "totalPages":{  
               "description":"Total Number of pages",
               "type":"number",
               "format":"int32"
            },
            "pageSize":{  
               "description":"Records on current Page",
               "type":"number",
               "format":"int32"
            },
            "currentPageItems":{  
               "description":"Number of items return in payload",
               "type":"number",
               "format":"int32"
            },
            "_links":{  
               "type":"array",
               "description":"Array of links to different pages",
               "items":{  
                  "$ref":"#/definitions/IdRef"
               }
            }
         }
      }
   }
}