{
	"swagger": "2.0",
	"info": {
		"title": "BusinessOrder",
		"description": "This service support the use of the payload resource. an user defined resource",
		"version": "1.0.0",
		"contact": {
			"name": "dsg-charge",
			"url": "http://www.t-mobile.com",
			"email": "dsg-charge@t-mobile.com"
		},
		"termsOfService": "https://www.t-mobile.com/templates/popup.aspx?PAsset=Ftr_Ftr_TermsAndConditions",
		"x-createdBy": {
			"dateCreated": "Mon Aug 26 17:59:12 2019",
			"createdBy": "spradha3",
			"application": "Recite",
			"appVersion": "1.2.1.3071",
			"documentId": "247178a2-87dc-457a-893a-fb3ec7698922",
			"status": "Conceptual - Initial",
			"businessCapabilityModel": "5.0",
			"classification": "4.5 Order Fulfillment Mgmt.",
			"profile": "Application Integration Service",
			"serviceLayer": "Enterprise - OrderManagement"
		}
	},
	"x-servers": [{
		"url": "http://127.0.0.1/",
		"description": "Test Server 1"
	}],
	"tags": [{
		"name": "cancelOrder",
		"description": "Order is cancelled for the provided order id."
	}],
	"host": "dev01.api.t-mobile.com",
	"basePath": "/eai/v1/business-order",
	"schemes": ["https"],
	"definitions": {
		"CancelRequest": {
			"description": "The request contains order id and reason code",
			"type": "object",
			"required": ["orderId","reasonCode"],
			"properties": {
				"orderId": {
					"type": "string",
					"minLength": 1,
					"maxLength": 50,
					"pattern": "^[a-zA-Z\\d\\-]*$",
					"description": "The order id",
					"example": "This is cancel orderid"
				},
				"reasonCode": {
					"type": "string",
					"pattern": "^[\\S ]+$",
					"minLength": 1,
					"maxLength": 50,
					"description": "Reason code is required when cancel the order, for e.g. Bad Credit,Change to RA - Quantity,Change to RA - SAP Number,Change to RA - SKU Number"
				}
			}
		},
		"Error": {
			"description": "As defined in http://api-standards.apps.px-npe01.cf.t-mobile.com/http/status-codes/error-response-format/",
			"type": "object",
			"required": ["code", "userMessage"],
			"properties": {
				"code": {
					"type": "string",
					"minLength": 0,
					"maxLength": 50,
					"pattern": "^[\\S ]+$",
					"description": "A succinct, domain-specific, human-readable text string to identify the type of error for the given status code",
					"example": "ProductNotFound"
				},
				"userMessage": {
					"type": "string",
					"minLength": 0,
					"maxLength": 500,
					"pattern": "^[\\S ]+$",
					"description": "A human-readable message describing the error.",
					"example": "Failed to find product."
				},
				"systemMessage": {
					"type": "string",
					"minLength": 0,
					"maxLength": 500,
					"pattern": "^[\\S ]+$",
					"description": "Text that provides a more detailed technical explanation of the error",
					"example": "PRODUCT_NOT_FOUND"
				},
				"detailLink": {
					"type": "string",
					"minLength": 0,
					"maxLength": 500,
					"pattern": "^[\\S ]+$",
					"description": "link to custom information providing greater detail on error or errors",
					"example": "http://aaa.bbb.ccc/"
				}
			}
		}
	},
	"paths": {
		"/cancel": {
			"put": {
				"tags": ["cancelOrder"],
				"x-api-pattern": "ReplaceResource",
				"summary": "A put for the error resource using Digital Archecture's ReplaceResource pattern.",
				"description": "cancel the order for rquested order id",
				"operationId": "cancelOrder",
				"consumes": [],
				"produces": [],
				"parameters": [{
					"name": "cancelRequest",
					"in": "body",
					"description": "The request contains order id and reason code.",
					"required": true,
					"schema": {
						"$ref": "#/definitions/CancelRequest"
					},
					"x-example": {
						"orderId": "sdd1234",
						"reasonCode": "missing information"
					}
				}, {
					"name": "Authorization",
					"in": "header",
					"description": "The HTTP Authorization request header contains the credentials to authenticate a user agent with a server.",
					"x-example": "Bearer mF_9.B5f-4.1JqM",
					"required": true,
					"type": "string",
					"minLength": 1,
					"maxLength": 256,
					"pattern": "^[\\S ]+$"
				}, {
					"name": "Content-Type",
					"in": "header",
					"description": "The MIME type of this content",
					"x-example": "text/xml",
					"required": true,
					"type": "string",
					"minLength": 1,
					"maxLength": 256,
					"pattern": "^[ \\S]+$"
				}, {
					"name": "Date",
					"in": "header",
					"description": "The Date general HTTP header contains the date and time at which the message was originated.",
					"x-example": "Mon, 05 Mar 2018 16:38:08 GMT",
					"required": false,
					"type": "string",
					"format": "date-time",
					"pattern": "^(Mon|Tue|Wed|Thu|Fri|Sat|Sun), [0-3]{1}[0-9]{1} (Jan|Feb|Mar|Apr|May|Jun|Jul|Aug|Sep|Oct|Nov|Dec) [1-3][0-9]{3} [0-2][0-9]:[0-6][0-9]:[0-6][0-9] GMT$"
				}, {
					"name": "If-Match",
					"in": "header",
					"description": "The If-Match header specifies an ETag-related condition to be placed on the execution of a request. The request will only be executed if the ETag of the requested resource matches one of those specified in the If-Match header. Because the behavior is complex, the details for usage are provided at http://www.w3.org/Protocols/rfc2616/rfc2616-sec14.html .",
					"x-example": "*",
					"required": false,
					"type": "string",
					"minLength": 1,
					"maxLength": 256,
					"pattern": "^[\\S]*$"
				}, {
					"name": "If-Unmodified-Since",
					"in": "header",
					"description": "The If-Unmodified-Since request-header field is used with a method to make it conditional. If the requested resource has not been modified since the time specified in this field, the server SHOULD perform the requested operation as if the If-Unmodified-Since header were not present.If the requested variant has been modified since the specified time, the server MUST NOT perform the requested operation, and MUST return a 412 (Precondition Failed).",
					"x-example": "Mon, 05 Mar 2018 16:38:08 GMT",
					"required": false,
					"type": "string",
					"format": "date-time",
					"pattern": "^(Mon|Tue|Wed|Thu|Fri|Sat|Sun), [0-3]{1}[0-9]{1} (Jan|Feb|Mar|Apr|May|Jun|Jul|Aug|Sep|Oct|Nov|Dec) [1-3][0-9]{3} [0-2][0-9]:[0-6][0-9]:[0-6][0-9] GMT$"
				}, {
					"name": "activity-id",
					"in": "header",
					"description": "Unique id alphanumeric value generated and sent by the partner to identify every the service request uniquely. Sample: XyzA:D1s5s1i-X6AFRvfiPBfs-1234 Pass as is to downstream calls.",
					"x-example": "c34e7acd-384b-4c22-8b02-ba3963682508",
					"required": false,
					"type": "string",
					"minLength": 1,
					"maxLength": 256,
					"pattern": "^[\\S]*$"
				}, {
					"name": "interaction-id",
					"in": "header",
					"description": "Alphanumeric value represent a common transaction id across all calls made from UI, while completing all business activity needs of a particular customer.",
					"x-example": "cc688d54-50d1-49d4-8c5d-95459d1172e8",
					"required": false,
					"type": "string",
					"minLength": 1,
					"maxLength": 256,
					"pattern": "^[\\S]*$"
				}, {
					"name": "service-transaction-id",
					"in": "header",
					"description": "Request ID echoed back by server",
					"x-example": "23409209723",
					"required": false,
					"type": "string",
					"minLength": 1,
					"maxLength": 256,
					"pattern": "^[\\S]*$"
				}, {
					"name": "session-id",
					"in": "header",
					"description": "A value populated by the sender used to track the transactions that occur during a session, a long-lasting interaction that ismaintained by the sender.",
					"x-example": "350b91ec-4a64-4b10-a3f3-a78c8db3924a",
					"required": false,
					"type": "string",
					"minLength": 1,
					"maxLength": 256,
					"pattern": "^[\\S]*$"
				}, {
					"name": "timestamp",
					"in": "header",
					"description": "ms since 1/1/70 adjusted to GMT",
					"x-example": "1524599536",
					"required": false,
					"type": "integer",
					"format": "int64",
					"minimum": 0,
					"maximum": 999999999999,
					"pattern": "^[\\d]*$"
				}, {
					"name": "workflow-id",
					"in": "header",
					"description": "Business Use Case",
					"x-example": "ACTIVATION",
					"required": false,
					"type": "string",
					"minLength": 1,
					"maxLength": 256,
					"pattern": "^[\\S]*$"
				}, {
					"name": "x-auth-originator",
					"in": "header",
					"description": "API chain initiating callers access token",
					"x-example": "c34e7acd-384b-4c22-8b02-ba3963682508",
					"required": false,
					"type": "string",
					"minLength": 1,
					"maxLength": 256,
					"pattern": "^[\\S]*$"
				}, {
					"name": "x-authorization",
					"in": "header",
					"description": "Contains Proof of Possession token generated by API caller",
					"x-example": "c34e7acd-384b-4c22-8b02-ba3963682508",
					"required": false,
					"type": "string",
					"minLength": 1,
					"maxLength": 256,
					"pattern": "^[\\S ]*$"
				}],
				"responses": {
					"204": {
						"description": "No Content",
						"headers": {
							"Date": {
								"type": "string",
								"format": "date-time",
								"pattern": "^(Mon|Tue|Wed|Thu|Fri|Sat|Sun), [0-3]{1}[0-9]{1} (Jan|Feb|Mar|Apr|May|Jun|Jul|Aug|Sep|Oct|Nov|Dec) [1-3][0-9]{3} [0-2][0-9]:[0-6][0-9]:[0-6][0-9] GMT$",
								"description": "The Date general HTTP header contains the date and time at which the message was originated.",
								"x-example": "Mon, 05 Mar 2018 16:38:08 GMT"
							},
							"service-transaction-id": {
								"type": "string",
								"minLength": 1,
								"maxLength": 256,
								"pattern": "^[\\S]*$",
								"description": "Request ID echoed back by server",
								"x-example": "23409209723"
							}
						}
					},
					"400": {
						"description": "Bad Request",
						"schema": {
							"$ref": "#/definitions/Error"
						},
						"examples": {
							"application/json": {
								"code": "400",
								"userMessage": "Bad Request",
								"systemMessage": "Bad Request",
								"detailLink": "http://www.tmus.com"
							}
						}
					},
					"401": {
						"description": "Unauthorized",
						"schema": {
							"$ref": "#/definitions/Error"
						},
						"examples": {
							"application/json": {
								"code": "401",
								"userMessage": "Unauthorized",
								"systemMessage": "Unauthorized",
								"detailLink": "http://www.tmus.com"
							}
						}
					},
					"403": {
						"description": "Client access denied",
						"schema": {
							"$ref": "#/definitions/Error"
						},
						"examples": {
							"application/json": {
								"code": "403",
								"userMessage": "Client access denied",
								"systemMessage": "Client access denied",
								"detailLink": "http://www.tmus.com"
							}
						}
					},
					"404": {
						"description": "Resource not found",
						"schema": {
							"$ref": "#/definitions/Error"
						},
						"examples": {
							"application/json": {
								"code": "404",
								"userMessage": "Resource not found",
								"systemMessage": "Resource not found",
								"detailLink": "http://www.tmus.com"
							}
						}
					},
					"405": {
						"description": "Method Not Allowed",
						"schema": {
							"$ref": "#/definitions/Error"
						},
						"examples": {
							"application/json": {
								"code": "405",
								"userMessage": "Method Not Allowed",
								"systemMessage": "Method Not Allowed",
								"detailLink": "http://www.tmus.com"
							}
						},
						"headers": {
							"Allow": {
								"type": "string",
								"minLength": 1,
								"maxLength": 256,
								"pattern": "^[\\S]*$",
								"description": "list of supported methods for URI",
								"x-example": "GET"
							},
							"service-transaction-id": {
								"type": "string",
								"minLength": 1,
								"maxLength": 256,
								"pattern": "^[\\S]*$",
								"description": "Request ID echoed back by server",
								"x-example": "23409209723"
							}
						}
					},
					"409": {
						"description": "Invalid data",
						"schema": {
							"$ref": "#/definitions/Error"
						},
						"examples": {
							"application/json": {
								"code": "409",
								"userMessage": "Invalid data",
								"systemMessage": "Invalid data",
								"detailLink": "http://www.tmus.com"
							}
						}
					},
					"412": {
						"description": "Stale data",
						"schema": {
							"$ref": "#/definitions/Error"
						},
						"examples": {
							"application/json": {
								"code": "412",
								"userMessage": "Stale data",
								"systemMessage": "Stale data",
								"detailLink": "http://www.tmus.com"
							}
						}
					},
					"415": {
						"description": "Unsupported Media Type",
						"schema": {
							"$ref": "#/definitions/Error"
						},
						"examples": {
							"application/json": {
								"code": "415",
								"userMessage": "Unsupported Media Type",
								"systemMessage": "Unsupported Media Type",
								"detailLink": "http://www.tmus.com"
							}
						}
					},
					"500": {
						"description": "System Error",
						"schema": {
							"$ref": "#/definitions/Error"
						},
						"examples": {
							"application/json": {
								"code": "500",
								"userMessage": "System Error",
								"systemMessage": "System Error",
								"detailLink": "http://www.tmus.com"
							}
						}
					},
					"503": {
						"description": "Service unavailable",
						"schema": {
							"$ref": "#/definitions/Error"
						},
						"examples": {
							"application/json": {
								"code": "503",
								"userMessage": "Service unavailable",
								"systemMessage": "Service unavailable",
								"detailLink": "http://www.tmus.com"
							}
						}
					}
				},
				"security": [{
					"JWT": []
				}]
			}
		}
	},
	"securityDefinitions": {
		"JWT": {
			"type": "apiKey",
			"description": "JWT is a means of representing claims to be transferred between two parties. The claims in a JWT are encoded as a JSON object that is digitally signed using JSON Web Signature (JWS) and/or encrypted using JSON Web Encryption (JWE).",
			"name": "Authorization",
			"in": "header"
		}
	},
	"security": [{
		"JWT": []
	}]
}
