@startuml
autonumber
title _ AutoPay_Wallet_Migration_For_PAH_

actor primaryAccountHolder

box "IAM" #FFFFFF
    participant IAM
end box
 
participant DEEP.IO

box "DPS" #FFFFFF
  participant DPSEventConsumer
  participant DPSAutoPayAPI
  participant StoredPaymentMethodAPI
  database StorePaymentMethodRepositoryV4
end box

box "Samson" #FFFFFF
    participant SamsonAutoPayAPI
end box

customer -> IAM : TMOID Registration
IAM -> DEEP.IO : publish RegistrationCompleted Event
note right
    Customer Claimed PAH Status
    TMOID
    BAN
    MSISDN
end note

DPSEventConsumer -> DEEP.IO : consume Registration Completed Event
DPSEventConsumer -> DPSAutoPayAPI : payments/v3/autopay/search
DPSAutoPayAPI -> SamsonAutoPayAPI : searchAutoPay
SamsonAutoPayAPI --> DPSAutoPayAPI : AutoPayResponse
DPSAutoPayAPI --> DPSEventConsumer : AutoPayInfo
DPSEventConsumer -> StoredPaymentMethodAPI : payments/v4/spi POST
StoredPaymentMethodAPI -> StorePaymentMethodRepositoryV4 : Create TMOID Wallet
@enduml