{
    "swagger": "2.0",
    "info": {
        "title": "creditclassoverridereasons",
        "description": "This reference data API will return the list of override reason codes for credit class override.",
        "version": "1.0",
        "x-createdBy": {
            "dateCreated": "02/08/18 20:59:18",
            "createdBy": "svanama2",
            "application": "Recite",
            "appVersion": "0.1.4.1201",
            "documentId": "22a69d86-1aa4-467a-83fc-794c4d1b73c9"
        }
    },
    "host": "dev01.api.t-mobile.com",
    "basePath": "/customer-credit/v1/override-reasons",
    "schemes": [
        "https"
    ],
    "paths": {
        "/": {
            "get": {
                "tags": [
                    "GET- CreditClassOverridReasons"
                ],
                "operationId": "getcreditclassoverridereasons",
                "consumes": [
                    "application/json",
                    "application/xml"
                ],
                "produces": [
                    "application/json",
                    "application/xml"
                ],
                "parameters": [
                    {
                        "$ref": "#/parameters/AuthorizationParam"
                    },
                    {
                        "$ref": "#/parameters/Content-typeParam"
                    },
                    {
                        "$ref": "#/parameters/AcceptParam"
                    },
                    {
                        "$ref": "#/parameters/senderidParam"
                    },
                    {
                        "$ref": "#/parameters/channelidParam"
                    },
                    {
                        "$ref": "#/parameters/applicationidParam"
                    },
                    {
                        "$ref": "#/parameters/applicationuseridParam"
                    },
                    {
                        "$ref": "#/parameters/sessionidParam"
                    },
                    {
                        "$ref": "#/parameters/interactionidParam"
                    },
                    {
                        "$ref": "#/parameters/activityidParam"
                    },
                    {
                        "$ref": "#/parameters/workflowidParam"
                    },
                    {
                        "$ref": "#/parameters/timestampParam"
                    },
                    {
                        "$ref": "#/parameters/storeidParam"
                    },
                    {
                        "$ref": "#/parameters/terminalidParam"
                    },
                    {
                        "$ref": "#/parameters/tillidParam"
                    },
                    {
                        "$ref": "#/parameters/dealercodeParam"
                    },
                    {
                        "$ref": "#/parameters/segmentationidParam"
                    },
                    {
                        "$ref": "#/parameters/authcustomeridParam"
                    },
                    {
                        "$ref": "#/parameters/authfinancialaccountidParam"
                    },
                    {
                        "$ref": "#/parameters/authlineofserviceidParam"
                    },
                    {
                        "$ref": "#/parameters/Access-Control-Request-HeadersParam"
                    },
                    {
                        "$ref": "#/parameters/Access-Control-Request-MethodParam"
                    },
                    {
                        "$ref": "#/parameters/If-MatchParam"
                    },
                    {
                        "$ref": "#/parameters/If-Modified-SinceParam"
                    },
                    {
                        "$ref": "#/parameters/If-None-MatchParam"
                    },
                    {
                        "$ref": "#/parameters/OriginParam"
                    },
                    {
                        "$ref": "#/parameters/Cache-ControlParam"
                    },
                    {
                        "$ref": "#/parameters/servicetransactionidParam"
                    }
                ],
                "responses": {
                    "200": {
                        "description": "Ok",
                        "schema": {
                            "$ref": "#/definitions/creditClassOverrideReasonsResponse"
                        },
                        "headers": {
                            "Access-Control-Allow-Headers": {
                                "description": "The Access-Control-Allow-Headers header indicates, as part of a pre-flight request which headers can be used on the actual request.",
                                "type": "string"
                            },
                            "Access-Control-Allow-Methods": {
                                "description": "The Access-Control-Allow-Methods header indicates, as part of a pre-flight request which methods can be used on the actual request.",
                                "type": "string"
                            },
                            "Access-Control-Allow-Origin": {
                                "description": "The Access-Control-Allow-Origin header indicates whether a resource can be shared by returning the value of the Origin request header or _*_ in the response.",
                                "type": "string"
                            },
                            "Cache-Control": {
                                "description": "No cache indicators supported at this time. Samples: no-cache",
                                "type": "string"
                            },
                            "Content-Length": {
                                "description": "The Content-Length header specifies the actual length of the returned payload.",
                                "type": "string"
                            },
                            "Content-Type": {
                                "description": "The Content-Length header specifies the actual length of the returned payload.",
                                "type": "string"
                            },
                            "ETag": {
                                "description": "The ETag header specifies the unique entity tag value for the returned resource.",
                                "type": "string"
                            },
                            "Expires": {
                                "description": "The Expires header gives the date-time after which the response is considered stale.",
                                "type": "string"
                            },
                            "Location": {
                                "description": "The Location header specifies the URI of a created resource, or redirects the API consumer to an alternate resource location.",
                                "type": "string"
                            },
                            "servicetransactionid": {
                                "description": "Internal identifier for transaction tracking an individual transaction/API request within API platform. Don_t receive/don_t send to downstream",
                                "type": "string"
                            }
                        }
                    },
                    "401": {
                        "description": "Client not authorized",
                        "schema": {
                            "$ref": "#/definitions/errors"
                        }
                    },
                    "403": {
                        "description": "Client access denied",
                        "schema": {
                            "$ref": "#/definitions/errors"
                        }
                    },
                    "404": {
                        "description": "Resource not found",
                        "schema": {
                            "$ref": "#/definitions/errors"
                        }
                    },
                    "500": {
                        "description": "System Error",
                        "schema": {
                            "$ref": "#/definitions/errors"
                        }
                    },
                    "502": {
                        "description": "Backend system problem",
                        "schema": {
                            "$ref": "#/definitions/errors"
                        }
                    },
                    "503": {
                        "description": "Service unavailable",
                        "schema": {
                            "$ref": "#/definitions/errors"
                        }
                    }
                },
                "description": "This is a reference data API returns list of override reason codes for credit class override, calling client will call this api once a day and cache the response from their end.",
                "security": []
            }
        }
    },
    "definitions": {
        "creditClassOverrideReasonsResponse": {
            "type": "object",
            "description": "response object",
            "properties": {
                "overrideReasons": {
                    "description": "object",
                    "type": "array",
                    "items": {
                        "$ref": "#/definitions/OverrideReasons"
                    }
                }
            }
        },
        "error": {
            "description": "Error object.",
            "type": "object",
            "properties": {
                "code": {
                    "description": "A specific T-Mobile error code.",
                    "type": "string"
                },
                "userMessage": {
                    "description": "A human-readable message describing the error.",
                    "type": "string"
                },
                "systemMessage": {
                    "description": "Backend system error message.",
                    "type": "string"
                }
            }
        },
        "errors": {
            "description": "The array of error objects. As defined in https://tmobileusa.sharepoint.com/teams/EnterpriseServices/ESG%20Standards%20Documents/APIs/T-Mobile%20API%20Design%20Guidelines%20v1.0.docx",
            "type": "object",
            "properties": {
                "errors": {
                    "type": "array",
                    "items": {
                        "$ref": "#/definitions/error"
                    }
                }
            }
        },
        "OverrideReasons": {
            "type": "object",
            "description": "object",
            "required": [
                "reasonCode",
                "description"
            ],
            "properties": {
                "reasonCode": {
                    "description": "Reason Code, Enum[Bankruptcy,Employee Conversion,  System Error,  Underwriting Review,  Manual Review Response].",
                    "type": "string"
                },
                "description": {
                    "description": "Description",
                    "type": "string"
                }
            }
        }
    },
    "securityDefinitions": {},
    "parameters": {
        "AuthorizationParam": {
            "name": "Authorization",
            "in": "header",
            "description": "OAuth 2.0 access token with the authentication type set as Bearer.",
            "required": true,
            "type": "string"
        },
        "Content-typeParam": {
            "name": "Content-type",
            "in": "header",
            "description": "application/jsonapplication/xml",
            "required": true,
            "type": "string"
        },
        "AcceptParam": {
            "name": "Accept",
            "in": "header",
            "description": "Content-Types that are acceptable including application/json or application/xml (default assumed application/json)",
            "required": false,
            "type": "string"
        },
        "senderidParam": {
            "name": "senderid",
            "in": "header",
            "description": "Uniquely identifies an Operation consumer. Below are the sample values.ACUI, MYTMO, QVXP, REBELLION, WALMARTRETAIL, SAMSCLUBRETAIL.",
            "required": false,
            "type": "string"
        },
        "channelidParam": {
            "name": "channelid",
            "in": "header",
            "description": "Identifies the business unit or sales channel for the Request.Below are the sample values:            Care            TeleSales            FullService            BusinessDirect            FinancePartners            NonFinancePartners            SelfServiceAuthenticated            SelfServiceAnonymous            InteractiveVoiceResponse",
            "required": false,
            "type": "string"
        },
        "applicationidParam": {
            "name": "applicationid",
            "in": "header",
            "description": "Identifies the application, system, or tool that is being used to perform the transaction related to this request. Below are the sample values.ACUI, ESERVICE, REBELLION, WARP",
            "required": false,
            "type": "string"
        },
        "applicationuseridParam": {
            "name": "applicationuserid",
            "in": "header",
            "description": "NT id of the one who is managing the transaction from CARE/RETAIL channels.",
            "required": false,
            "type": "string"
        },
        "sessionidParam": {
            "name": "sessionid",
            "in": "header",
            "description": "A value populated by the sender used to track the transactions that occur during a session, a long-lasting interaction that ismaintained by the sender.",
            "required": false,
            "type": "string"
        },
        "interactionidParam": {
            "name": "interactionid",
            "in": "header",
            "description": "Alphanumeric value represent a common transaction id across all calls made from UI, while completing all business activity needs of a particular customer.",
            "required": false,
            "type": "string"
        },
        "activityidParam": {
            "name": "activityid",
            "in": "header",
            "description": "Unique id alphanumeric value generated and sent by the partner to identify every the service request uniquely. Sample: XyzA:D1s5s1i-X6AFRvfiPBfs-1234  Pass as is to downstream calls.",
            "required": true,
            "type": "string"
        },
        "workflowidParam": {
            "name": "workflowid",
            "in": "header",
            "description": "Workflow name (NEW/ADD/EXCHANGE/RETURN)/OrderTypes _ ACTIVATION ADDALINE CHANGEDEVICE_JUMP CHANGEDEVICE",
            "required": false,
            "type": "string"
        },
        "timestampParam": {
            "name": "timestamp",
            "in": "header",
            "description": "A timestamp provided by sender to track their workflow. If it is empty APIGEE can send current system timestamp.",
            "required": false,
            "type": "string",
            "format": "date-time"
        },
        "storeidParam": {
            "name": "storeid",
            "in": "header",
            "description": "Unique identifier for the retail store location.",
            "required": false,
            "type": "string"
        },
        "terminalidParam": {
            "name": "terminalid",
            "in": "header",
            "description": "Unique identifier for the retail store terminal. Needed for FullService  (Tmobile RETAIL channel). Need to discuss with T-Mobile business liaison if there is a need for Partner to pass their retail Store Id).",
            "required": false,
            "type": "string"
        },
        "tillidParam": {
            "name": "tillid",
            "in": "header",
            "description": "Unique identifier for the retail register. Needed for FullService  (Tmobile RETAIL channel). Need to discuss with T-Mobile business liaison if there is a need for Partner to pass their retail Store Id).",
            "required": false,
            "type": "string"
        },
        "dealercodeParam": {
            "name": "dealercode",
            "in": "header",
            "description": "Unique code to identify the dealer/rep user.",
            "required": false,
            "type": "integer",
            "format": "int32"
        },
        "segmentationidParam": {
            "name": "segmentationid",
            "in": "header",
            "description": "Identifier of customers primary data center.Sample: Polaris,Titan",
            "required": false,
            "type": "string"
        },
        "authcustomeridParam": {
            "name": "authcustomerid",
            "in": "header",
            "description": "Customer id _ of the person that is interacting with the system.",
            "required": false,
            "type": "string"
        },
        "authfinancialaccountidParam": {
            "name": "authfinancialaccountid",
            "in": "header",
            "description": "Financial account that the customer intends to operate on, while interacting with the system.",
            "required": false,
            "type": "string"
        },
        "authlineofserviceidParam": {
            "name": "authlineofserviceid",
            "in": "header",
            "description": "Service Line that the customer intends to operate on, while interacting with the system.",
            "required": false,
            "type": "string"
        },
        "Access-Control-Request-HeadersParam": {
            "name": "Access-Control-Request-Headers",
            "in": "header",
            "description": "In CORS, the Access-Control-Request-Headers header indicates which headers will be used in the actual request as part of a preflight request.",
            "required": false,
            "type": "string"
        },
        "Access-Control-Request-MethodParam": {
            "name": "Access-Control-Request-Method",
            "in": "header",
            "description": "In CORS, the Access-Control-Request-Method header indicates which method will be used in the actual request as part of a preflight request.",
            "required": false,
            "type": "string"
        },
        "If-MatchParam": {
            "name": "If-Match",
            "in": "header",
            "description": "The If-Match header specifies an ETag-related condition to be placed on the execution of a request.  The request will only be executed if the ETag of the requested resource matches one of those specified in the If-Match header.  Because the behavior is complex, the details for usage are provided at http://www.w3.org/Protocols/rfc2616/rfc2616-sec14.html .",
            "required": false,
            "type": "string"
        },
        "If-Modified-SinceParam": {
            "name": "If-Modified-Since",
            "in": "header",
            "description": "The If-Modified-Since header specifies date-related conditions to be placed on the execution of a request.  The request will only be executed if the requested resource has not been modified since the date-time specified.  Because the behavior is complex, the details for usage are provided at http://www.w3.org/Protocols/rfc2616/rfc2616-sec14.html",
            "required": false,
            "type": "string"
        },
        "If-None-MatchParam": {
            "name": "If-None-Match",
            "in": "header",
            "description": "The If-None-Match header specifies an ETag-related condition to be placed on the execution of a request.  The request will NOT be executed if the ETag of the requested resource matches one of those specified in the If-None-Match header.  Because the behavior is complex, the details for usage are provided at http://www.w3.org/Protocols/rfc2616/rfc2616-sec14.html",
            "required": false,
            "type": "string"
        },
        "OriginParam": {
            "name": "Origin",
            "in": "header",
            "description": "The Origin header indicates where a cross-origin resource or pre-flight request originates from.  The header is required in all requests that require CORS",
            "required": false,
            "type": "string"
        },
        "Cache-ControlParam": {
            "name": "Cache-Control",
            "in": "header",
            "description": "No cache indicators supported at this time. Samples: no-cache",
            "required": false,
            "type": "string"
        },
        "servicetransactionidParam": {
            "name": "servicetransactionid",
            "in": "header",
            "description": "Internal identifier for transaction tracking an individual transaction/API request within API platform. Don_t receive/don_t send to downstream",
            "required": false,
            "type": "string"
        }
    }
}