{
    "swagger": "2.0",
    "info": {
        "title": "creditAttributes_V4.0",
        "description": "API returns credit class based eligibility of  line/deposit amount of the customer",
        "version": "1.0.0",
        "contact": {
            "name": "CreditOriginationQC",
            "email": "CreditOriginationQC@T-Mobile.com"
        },
        "x-createdBy": {
            "dateCreated": "Fri Jun  7 07:51:47 2019",
            "createdBy": "jchaval1",
            "application": "Recite",
            "appVersion": "1.0.0.2891",
            "documentId": "c10af231-79f6-42ce-8089-f8f2e3342061",
            "status": "Conceptual - Initial",
            "classification": "6.2 Customer Credit Risk Mgmt.",
            "profile": "Core Business Capability Service",
            "serviceLayer": "Enterprise - RevenueManagement"
        }
    },
    "tags": [
        {
            "name": "GET-CreditAttributes",
            "description": ""
        }
    ],
    "host": "services.t-mobile.com",
    "basePath": "/customer-credit/v4/credit-attributes",
    "schemes": [
        "https"
    ],
    "paths": {
        "/": {
            "get": {
                "tags": [
                    "GET-CreditAttributes"
                ],
                "x-api-pattern": "QueryResource",
                "summary": "This is a reference data retrieval API that returns the credit class based eligibility of  line/deposit amount. 1. If credit class included in request, it should return eligible parameters for given credit class. 2. If creditgroup = 'DEFAULT', It should return eligible parameters for only credit classes which are assigned with any default group such as 'EXCELLENT' or 'GOOD' etc..",
                "description": "This is a reference data retrieval API that returns the credit class based eligibility of  line/deposit amount. 1. If credit class included in request, it should return eligible parameters for given credit class. 2. If creditgroup = 'DEFAULT', It should return eligible parameters for only credit classes which are assigned with any default group such as 'EXCELLENT' or 'GOOD' etc..",
                "operationId": "getcreditattributes",
                "consumes": [
                    "application/json"
                ],
                "produces": [],
                "parameters": [
                    {
                        "name": "credit-class",
                        "in": "query",
                        "description": "An User Defined Object",
                        "required": false,
                        "type": "string",
                        "x-example": "A"
                    },
                    {
                        "name": "credit-group",
                        "in": "query",
                        "description": "Possible values are 'DEFAULT' (to return credit calsses which are marked as default credit classes) & 'ALL' (to return all credit classes)",
                        "required": false,
                        "type": "string",
                        "x-example": "ALL, EXCELLENT, GOOD"
                    },
                    {
                        "name": "account-type",
                        "in": "query",
                        "description": "accountType of the customer",
                        "required": false,
                        "type": "string",
                        "x-example": "I"
                    },
                    {
                        "name": "account-sub-type",
                        "in": "query",
                        "description": "accountSubType of the customer",
                        "required": false,
                        "type": "string",
                        "x-example": "R"
                    },
                    {
                        "name": "credit-class-type",
                        "in": "query",
                        "description": "Retrives data if personal is passed retrieves creditClassfor [A-Z] or if business is passed retirves creditClass for [0-9].",
                        "required": false,
                        "type": "string",
                        "x-example": "PERSONAL/BUSINESS"
                    },
                    {
                        "name": "product-type",
                        "in": "query",
                        "description": "Retrieves attributes for the given product type (i.e. voice or data lines).  Defaults to all products.",
                        "required": false,
                        "type": "string",
                        "x-example": "VOICE, DATA"
                    },
                    {
                        "name": "Accept",
                        "in": "header",
                        "description": "Preferred content type _ default to application/json",
                        "x-example": "application/json",
                        "required": false,
                        "type": "string",
                        "minLength": 1,
                        "maxLength": 256,
                        "pattern": "^[ \\S]+$"
                    },
                    {
                        "name": "Access-Control-Request-Headers",
                        "in": "header",
                        "description": "For CORS pre-flight OPTIONS requests sent by a browser, headers to be used.",
                        "x-example": "Authorization, Content-Type",
                        "required": false,
                        "type": "string",
                        "minLength": 1,
                        "maxLength": 256,
                        "pattern": "^[\\S ]*$"
                    },
                    {
                        "name": "Access-Control-Request-Method",
                        "in": "header",
                        "description": "In CORS, the Access-Control-Request-Method header indicates which method will be used in the actual request as part of a preflight request.",
                        "x-example": "POST",
                        "required": false,
                        "type": "string",
                        "minLength": 1,
                        "maxLength": 256,
                        "enum": [
                            "GET",
                            "HEAD",
                            "POST",
                            "PUT",
                            "DELETE",
                            "CONNECT",
                            "OPTIONS",
                            "TRACE"
                        ],
                        "pattern": "^[\\S]*$"
                    },
                    {
                        "name": "Authorization",
                        "in": "header",
                        "description": "The HTTP Authorization request header contains the credentials to authenticate a user agent with a server.",
                        "x-example": "Bearer mF_9.B5f-4.1JqM",
                        "required": true,
                        "type": "string",
                        "minLength": 1,
                        "maxLength": 256,
                        "pattern": "^[\\S ]+$"
                    },
                    {
                        "name": "If-Match",
                        "in": "header",
                        "description": "The If-Match header specifies an ETag-related condition to be placed on the execution of a request.  The request will only be executed if the ETag of the requested resource matches one of those specified in the If-Match header.  Because the behavior is complex, the details for usage are provided at http://www.w3.org/Protocols/rfc2616/rfc2616-sec14.html .",
                        "x-example": "*",
                        "required": false,
                        "type": "string",
                        "minLength": 1,
                        "maxLength": 256,
                        "pattern": "^[\\S]*$"
                    },
                    {
                        "name": "If-Modified-Since",
                        "in": "header",
                        "description": "The If-Modified-Since header specifies date-related conditions to be placed on the execution of a request.  The request will only be executed if the requested resource has not been modified since the date-time specified.  Because the behavior is complex, the details for usage are provided at http://www.w3.org/Protocols/rfc2616/rfc2616-sec14.html",
                        "x-example": "Mon, 05 Mar 2018 16:38:08 GMT",
                        "required": false,
                        "type": "string",
                        "format": "date-time",
                        "pattern": "^(Mon|Tue|Wed|Thu|Fri|Sat|Sun), [0-3]{1}[0-9]{1} (Jan|Feb|Mar|Apr|May|Jun|Jul|Aug|Sep|Oct|Nov|Dec) [1-3][0-9]{3} [0-2][0-9]:[0-6][0-9]:[0-6][0-9] GMT$"
                    },
                    {
                        "name": "If-None-Match",
                        "in": "header",
                        "description": "The If-None-Match header specifies an ETag-related condition to be placed on the execution of a request.  The request will NOT be executed if the ETag of the requested resource matches one of those specified in the If-None-Match header.  Because the behavior is complex, the details for usage are provided at http://www.w3.org/Protocols/rfc2616/rfc2616-sec14.html",
                        "x-example": "*",
                        "required": false,
                        "type": "string",
                        "minLength": 1,
                        "maxLength": 256,
                        "pattern": "^[\\S]*$"
                    },
                    {
                        "name": "Origin",
                        "in": "header",
                        "description": "For simple CORS requests, the host from which the request originated",
                        "x-example": "https://www.t-mobile.com",
                        "required": false,
                        "type": "string",
                        "minLength": 1,
                        "maxLength": 65536,
                        "pattern": "^[\\S]*$"
                    },
                    {
                        "name": "activity-id",
                        "in": "header",
                        "description": "Unique id alphanumeric value generated and sent by the partner to identify every the service request uniquely. Sample: XyzA:D1s5s1i-X6AFRvfiPBfs-1234  Pass as is to downstream calls.",
                        "x-example": "c34e7acd-384b-4c22-8b02-ba3963682508",
                        "required": false,
                        "type": "string",
                        "minLength": 1,
                        "maxLength": 256,
                        "pattern": "^[\\S]*$"
                    },
                    {
                        "name": "timestamp",
                        "in": "header",
                        "description": "ms since 1/1/70 adjusted to GMT",
                        "x-example": "1524599536",
                        "required": false,
                        "type": "integer",
                        "format": "int64",
                        "minimum": 0,
                        "maximum": 999999999999,
                        "pattern": "^[\\d]*$"
                    }
                ],
                "responses": {
                    "200": {
                        "description": "Ok",
                        "schema": {
                            "$ref": "#/definitions/CreditAttributesDataResponse"
                        },
                        "examples": {
                            "application/json": {
                                "creditAttributes": [
                                    {
                                        "creditClass": "B",
                                        "productType": "B",
                                        "regularLinesWithoutDeposit": 5,
                                        "regularLinesWithDeposit": 15,
                                        "maxAllowedLines": 20,
                                        "accountType": "R",
                                        "accountSubType": "R",
                                        "depositDetails": [
                                            {
                                                "lineStartRange": 1,
                                                "lineEndRange": 5,
                                                "regularDeposit": 0,
                                                "simOnlyDeposit": 0
                                            },
                                            {
                                                "lineStartRange": 6,
                                                "lineEndRange": 7,
                                                "regularDeposit": 25,
                                                "simOnlyDeposit": 25
                                            },
                                            {
                                                "lineStartRange": 8,
                                                "lineEndRange": 20,
                                                "regularDeposit": 250,
                                                "simOnlyDeposit": 250
                                            }
                                        ],
                                        "simOnlyLinesWithoutDeposit": 5,
                                        "simOnlyLinesWithDeposit": 15
                                    }
                                ]
                            }
                        },
                        "headers": {
                            "Access-Control-Allow-Headers": {
                                "description": "For CORS pre-flight OPTIONS requests, used by the browser to block disallowed requests",
                                "x-example": "Authorization, Content-Type",
                                "type": "string",
                                "minLength": 1,
                                "maxLength": 256,
                                "pattern": "^[\\S ]+$"
                            },
                            "Access-Control-Allow-Methods": {
                                "description": "For CORS pre-flight OPTIONS requests, used by the browser to block disallowed requests.",
                                "x-example": "POST, PUT, GET. OPTIONS",
                                "type": "string",
                                "minLength": 1,
                                "maxLength": 256,
                                "pattern": "^[\\S ]*$"
                            },
                            "Access-Control-Allow-Origin": {
                                "description": "For CORS, an allowed origin, used by the browser to block disallowed requests",
                                "x-example": "https://www.t-mobile.com",
                                "type": "string",
                                "minLength": 1,
                                "maxLength": 65536,
                                "pattern": "^[\\S]*$"
                            },
                            "Cache-Control": {
                                "description": "Cache policy supported for the resource by the server",
                                "x-example": "no-cache",
                                "type": "string",
                                "minLength": 1,
                                "maxLength": 256,
                                "pattern": "^[\\S]*$"
                            },
                            "Content-Length": {
                                "description": "Length of the response body in octets; not supported if Transfer-Endoding = chunked",
                                "x-example": "9112300000003",
                                "type": "integer",
                                "format": "int64",
                                "minimum": 0,
                                "pattern": "^[\\d]*$"
                            },
                            "Content-Type": {
                                "description": "The MIME type of this content",
                                "x-example": "text/xml",
                                "type": "string",
                                "minLength": 1,
                                "maxLength": 256,
                                "pattern": "^[ \\S]+$"
                            },
                            "Date": {
                                "description": "The Date general HTTP header contains the date and time at which the message was originated.",
                                "x-example": "Mon, 05 Mar 2018 16:38:08 GMT",
                                "type": "string",
                                "format": "date-time",
                                "pattern": "^(Mon|Tue|Wed|Thu|Fri|Sat|Sun), [0-3]{1}[0-9]{1} (Jan|Feb|Mar|Apr|May|Jun|Jul|Aug|Sep|Oct|Nov|Dec) [1-3][0-9]{3} [0-2][0-9]:[0-6][0-9]:[0-6][0-9] GMT$"
                            },
                            "ETag": {
                                "description": "The ETag header specifies the unique entity tag value for the returned resource.",
                                "x-example": "*",
                                "type": "string",
                                "minLength": 1,
                                "maxLength": 256,
                                "pattern": "^[\\S]*$"
                            },
                            "Expires": {
                                "description": "The Expires header gives the date-time after which the response is considered stale.",
                                "x-example": "Mon, 05 Mar 2018 16:38:08 GMT",
                                "type": "string",
                                "format": "date-time",
                                "pattern": "^(Mon|Tue|Wed|Thu|Fri|Sat|Sun), [0-3]{1}[0-9]{1} (Jan|Feb|Mar|Apr|May|Jun|Jul|Aug|Sep|Oct|Nov|Dec) [1-3][0-9]{3} [0-2][0-9]:[0-6][0-9]:[0-6][0-9] GMT$"
                            },
                            "Location": {
                                "description": "The Location header specifies the URI of a created resource, or redirects the API consumer to an alternate resource location.",
                                "x-example": "http://api.t-mo.com/order-mgmt/v1/orders/123xyz-0/status",
                                "type": "string",
                                "minLength": 1,
                                "maxLength": 65536,
                                "pattern": "^[\\S]*$"
                            }
                        }
                    },
                    "400": {
                        "description": "Bad Request",
                        "schema": {
                            "$ref": "#/definitions/Error"
                        },
                        "examples": {
                            "application/json": {
                                "code": "400",
                                "userMessage": "Bad Request",
                                "systemMessage": "Bad Request",
                                "detailLink": "http://www.tmus.com"
                            }
                        },
                        "headers": {}
                    },
                    "401": {
                        "description": "Client not authorized",
                        "schema": {
                            "$ref": "#/definitions/Error"
                        },
                        "examples": {
                            "application/json": {
                                "code": "401",
                                "userMessage": "Client not authorized",
                                "systemMessage": "Client not authorized",
                                "detailLink": "http://www.tmus.com"
                            }
                        },
                        "headers": {}
                    },
                    "404": {
                        "description": "Resource not found",
                        "schema": {
                            "$ref": "#/definitions/Error"
                        },
                        "examples": {
                            "application/json": {
                                "code": "404",
                                "userMessage": "Resource not found",
                                "systemMessage": "Resource not found",
                                "detailLink": "http://www.tmus.com"
                            }
                        },
                        "headers": {}
                    },
                    "405": {
                        "description": "Method Not Allowed",
                        "schema": {
                            "$ref": "#/definitions/Error"
                        },
                        "examples": {
                            "application/json": {
                                "code": "405",
                                "userMessage": "Method Not Allowed",
                                "systemMessage": "Method Not Allowed",
                                "detailLink": "http://www.tmus.com"
                            }
                        },
                        "headers": {
                            "Allow": {
                                "description": "list of supported methods for URI",
                                "x-example": "GET",
                                "type": "string",
                                "minLength": 1,
                                "maxLength": 256,
                                "pattern": "^[\\S]*$"
                            }
                        }
                    },
                    "406": {
                        "description": "Mismatching data format",
                        "schema": {
                            "$ref": "#/definitions/Error"
                        },
                        "examples": {
                            "application/json": {
                                "code": "406",
                                "userMessage": "Mismatching data format",
                                "systemMessage": "Mismatching data format",
                                "detailLink": "http://www.tmus.com"
                            }
                        },
                        "headers": {}
                    },
                    "500": {
                        "description": "System Error",
                        "schema": {
                            "$ref": "#/definitions/Error"
                        },
                        "examples": {
                            "application/json": {
                                "code": "500",
                                "userMessage": "System Error",
                                "systemMessage": "System Error",
                                "detailLink": "http://www.tmus.com"
                            }
                        },
                        "headers": {}
                    },
                    "503": {
                        "description": "Service unavailable",
                        "schema": {
                            "$ref": "#/definitions/Error"
                        },
                        "examples": {
                            "application/json": {
                                "code": "503",
                                "userMessage": "Service unavailable",
                                "systemMessage": "Service unavailable",
                                "detailLink": "http://www.tmus.com"
                            }
                        },
                        "headers": {}
                    }
                },
                "security": [
                    {
                        "oauth2-accessCode": [
                            "user",
                            "financial",
                            "read:customer",
                            ""
                        ]
                    }
                ]
            }
        }
    },
    "definitions": {
        "CreditAttributes": {
            "description": "An User Defined Object",
            "type": "object",
            "properties": {
                "creditClass": {
                    "description": "customer credit class",
                    "example": "A",
                    "type": "string"
                },
                "productType": {
                    "description": "possible values are GSM or MBB",
                    "type": "string"
                },
                "creditQualificationGroup": {
                    "description": "customer credit qualification group",
                    "type": "string"
                },
                "regularLinesWithoutDeposit": {
                    "description": "No of new EIP lines allowed without deposit",
                    "type": "integer",
                    "format": "int32",
                    "minimum": -2147483648,
                    "maximum": 2147483647,
                    "pattern": "^[\\-+]?[0-9]+$"
                },
                "regularLinesWithDeposit": {
                    "description": "No of new EIP lines allowed with deposit",
                    "type": "integer",
                    "format": "int32",
                    "minimum": -2147483648,
                    "maximum": 2147483647,
                    "pattern": "^[\\-+]?[0-9]+$"
                },
                "maxAllowedLines": {
                    "description": "Maximum no of lines allowed",
                    "type": "integer",
                    "format": "int32",
                    "minimum": -2147483648,
                    "maximum": 2147483647,
                    "pattern": "^[\\-+]?[0-9]+$"
                },
                "accountType": {
                    "description": "An user defined object",
                    "type": "string"
                },
                "accountSubtype": {
                    "description": "An user defined object",
                    "type": "string"
                },
                "depositDetails": {
                    "description": "An array of depositDetails objects.",
                    "type": "array",
                    "items": {
                        "$ref": "#/definitions/DepositDetails"
                    }
                },
                "simOnlyLinesWithoutDeposit": {
                    "description": "No of Sim Only lines without deposit",
                    "type": "integer",
                    "format": "int32",
                    "minimum": -2147483648,
                    "maximum": 2147483647,
                    "pattern": "^[\\-+]?[0-9]+$"
                },
                "simOnlyLinesWithDeposit": {
                    "description": "No of Sim Only lines with deposit",
                    "type": "integer",
                    "format": "int32",
                    "minimum": -2147483648,
                    "maximum": 2147483647,
                    "pattern": "^[\\-+]?[0-9]+$"
                }
            }
        },
        "CreditAttributesDataResponse": {
            "description": "An User Defined Object",
            "type": "object",
            "properties": {
                "creditAttributes": {
                    "description": "An array of creditAttributes objects.",
                    "type": "array",
                    "items": {
                        "$ref": "#/definitions/CreditAttributes"
                    }
                }
            }
        },
        "DepositDetails": {
            "description": "An User Defined Object",
            "type": "object",
            "required": [
                "regularDeposit",
                "simOnlyDeposit"
            ],
            "properties": {
                "lineStartRange": {
                    "description": "Line Start number for given deposit amount",
                    "type": "integer",
                    "format": "int32",
                    "minimum": -2147483648,
                    "maximum": 2147483647,
                    "pattern": "^[\\-+]?[0-9]+$"
                },
                "lineEndRange": {
                    "description": "Line End number for given deposit amount",
                    "type": "integer",
                    "format": "int32",
                    "minimum": -2147483648,
                    "maximum": 2147483647,
                    "pattern": "^[\\-+]?[0-9]+$"
                },
                "regularDeposit": {
                    "description": "Deposit amount for each EIP line activation",
                    "example": "10",
                    "type": "number",
                    "format": "double",
                    "minimum": 0.0,
                    "maximum": 9999.0
                },
                "simOnlyDeposit": {
                    "description": "Deposit amount for Sim Only Activation",
                    "example": "10",
                    "type": "number",
                    "format": "double",
                    "minimum": 0.0,
                    "maximum": 9999.0
                }
            }
        },
        "Error": {
            "description": "As defined in http://api-standards.apps.px-npe01.cf.t-mobile.com/http/status-codes/error-response-format/",
            "type": "object",
            "required": [
                "code",
                "userMessage"
            ],
            "properties": {
                "code": {
                    "description": "A succinct, domain-specific, human-readable text string to identify the type of error for the given status code",
                    "example": "ProductNotFound",
                    "type": "string",
                    "pattern": "^[\\S ]+$"
                },
                "userMessage": {
                    "description": "A human-readable message describing the error.",
                    "example": "Failed to find product.",
                    "type": "string",
                    "pattern": "^[\\S ]+$"
                },
                "systemMessage": {
                    "description": "Text that provides a more detailed technical explanation of the error",
                    "example": "PRODUCT_NOT_FOUND",
                    "type": "string"
                },
                "detailLink": {
                    "description": "link to custom information providing greater detail on error or errors",
                    "example": "http://aaa.bbb.ccc/",
                    "type": "string"
                }
            }
        }
    },
    "securityDefinitions": {
        "oauth2-accessCode": {
            "type": "oauth2",
            "description": "The most common flow, mostly used for server-side and mobile web applications. This flow is similar to how users sign up into a web application using their Facebook or Google account.",
            "authorizationUrl": "https://example.com/oauth/authorize",
            "tokenUrl": "https://tmobileb-sb01.apigee.net/v1/oauth2/accesstoken?grant_type=client_credentials",
            "flow": "accessCode",
            "scopes": {
                "user": "Grants read/write access to profile info only",
                "financial": "Grants read/write access to financial transactions",
                "read:customer": "read only access to customer information",
                "": ""
            }
        }
    }
}