{
    "swagger": "2.0",
    "info": {
        "title": "credithistory",
        "description": "This service support the use of the creduthistory resource. This  API is used to  store credit information in credit History db.",
        "version": "1.0.0",
        "x-createdBy": {
            "dateCreated": "Thu Mar 21 19:02:39 2019",
            "createdBy": "svanama2",
            "application": "Recite",
            "appVersion": "1.0.0.2891",
            "documentId": "b2a0f6b2-f1e2-47e0-a539-7167d4874c16",
            "status": "Conceptual - Initial",
            "classification": "6.1 Credit Decisioning",
            "profile": "Core Business Capability Service",
            "serviceLayer": "Enterprise - RevenueManagement"
        }
    },
    "tags": [
        {
            "name": "GET-CreditHistory",
            "description": ""
        },
        {
            "name": "POST-CreditHistory",
            "description": ""
        },
        {
            "name": "PUT-updatecreditHistory",
            "description": ""
        }
    ],
    "host": "dev01.api.t-mobile.com",
    "basePath": "/customer-credit/v1/credit-history",
    "schemes": [
        "https"
    ],
    "paths": {
        "/": {
            "post": {
                "tags": [
                    "POST-CreditHistory"
                ],
                "x-api-pattern": "CreateInCollection",
                "summary": "This  API is used to  store credit information in credit History db.",
                "description": "This  API is used to  store credit information in credit History db.",
                "operationId": "postCreditHistory",
                "consumes": [
                    "application/json",
                    "application/xml"
                ],
                "produces": [
                    "application/json",
                    "application/xml"
                ],
                "parameters": [
                    {
                        "name": "creditHistoryRequest",
                        "in": "body",
                        "description": "This  API is used to  store credit information in credit History db.",
                        "required": true,
                        "schema": {
                            "$ref": "#/definitions/CreditHistoryRequest"
                        }
                    },
                    {
                        "name": "Accept",
                        "in": "header",
                        "description": "Preferred content type _ default to application/json",
                        "x-example": "application/json",
                        "required": false,
                        "type": "string",
                        "minLength": 1,
                        "maxLength": 256,
                        "pattern": "^[ \\S]+$"
                    },
                    {
                        "name": "Authorization",
                        "in": "header",
                        "description": "The HTTP Authorization request header contains the credentials to authenticate a user agent with a server.",
                        "x-example": "Bearer mF_9.B5f-4.1JqM",
                        "required": true,
                        "type": "string",
                        "minLength": 1,
                        "maxLength": 256,
                        "pattern": "^[\\S ]+$"
                    },
                    {
                        "name": "Content-Type",
                        "in": "header",
                        "description": "The MIME type of this content",
                        "x-example": "text/xml",
                        "required": true,
                        "type": "string",
                        "minLength": 1,
                        "maxLength": 256,
                        "pattern": "^[ \\S]+$"
                    },
                    {
                        "name": "Date",
                        "in": "header",
                        "description": "The Date general HTTP header contains the date and time at which the message was originated.",
                        "x-example": "Mon, 05 Mar 2018 16:38:08 GMT",
                        "required": false,
                        "type": "string",
                        "format": "date-time",
                        "pattern": "^(Mon|Tue|Wed|Thu|Fri|Sat|Sun), [0-3]{1}[0-9]{1} (Jan|Feb|Mar|Apr|May|Jun|Jul|Aug|Sep|Oct|Nov|Dec) [1-3][0-9]{3} [0-2][0-9]:[0-6][0-9]:[0-6][0-9] GMT$"
                    },
                    {
                        "name": "If-None-Match",
                        "in": "header",
                        "description": "The If-None-Match header specifies an ETag-related condition to be placed on the execution of a request.  The request will NOT be executed if the ETag of the requested resource matches one of those specified in the If-None-Match header.  Because the behavior is complex, the details for usage are provided at http://www.w3.org/Protocols/rfc2616/rfc2616-sec14.html",
                        "x-example": "*",
                        "required": false,
                        "type": "string",
                        "minLength": 1,
                        "maxLength": 256,
                        "pattern": "^[\\S]*$"
                    },
                    {
                        "name": "activity-id",
                        "in": "header",
                        "description": "Unique id alphanumeric value generated and sent by the partner to identify every the service request uniquely. Sample: XyzA:D1s5s1i-X6AFRvfiPBfs-1234  Pass as is to downstream calls.",
                        "x-example": "c34e7acd-384b-4c22-8b02-ba3963682508",
                        "required": false,
                        "type": "string",
                        "minLength": 1,
                        "maxLength": 256,
                        "pattern": "^[\\S]*$"
                    },
                    {
                        "name": "application-id",
                        "in": "header",
                        "description": "Identifies the application, system, or tool that is being used to perform the transaction related to this request. Sample values:ACUI, ESERVICE, REBELLION, WARP",
                        "x-example": "REBELLION",
                        "required": false,
                        "type": "string",
                        "minLength": 1,
                        "maxLength": 256,
                        "pattern": "^[\\S]*$"
                    },
                    {
                        "name": "channel-id",
                        "in": "header",
                        "description": "Categorization of access or business stream",
                        "x-example": "IVR",
                        "required": false,
                        "type": "string",
                        "minLength": 1,
                        "maxLength": 256,
                        "pattern": "^[\\S]*$"
                    },
                    {
                        "name": "interaction-id",
                        "in": "header",
                        "description": "Alphanumeric value represent a common transaction id across all calls made from UI, while completing all business activity needs of a particular customer.",
                        "x-example": "cc688d54-50d1-49d4-8c5d-95459d1172e8",
                        "required": false,
                        "type": "string",
                        "minLength": 1,
                        "maxLength": 256,
                        "pattern": "^[\\S]*$"
                    },
                    {
                        "name": "sender-id",
                        "in": "header",
                        "description": "The related business partner or T-Mobile organization",
                        "x-example": "QVXP",
                        "required": false,
                        "type": "string",
                        "minLength": 1,
                        "maxLength": 256,
                        "pattern": "^[\\S]*$"
                    },
                    {
                        "name": "service-transaction-id",
                        "in": "header",
                        "description": "Request ID echoed back by server",
                        "x-example": "23409209723",
                        "required": false,
                        "type": "string",
                        "minLength": 1,
                        "maxLength": 256,
                        "pattern": "^[\\S]*$"
                    },
                    {
                        "name": "session-id",
                        "in": "header",
                        "description": "A value populated by the sender used to track the transactions that occur during a session, a long-lasting interaction that ismaintained by the sender.",
                        "x-example": "350b91ec-4a64-4b10-a3f3-a78c8db3924a",
                        "required": false,
                        "type": "string",
                        "minLength": 1,
                        "maxLength": 256,
                        "pattern": "^[\\S]*$"
                    },
                    {
                        "name": "timestamp",
                        "in": "header",
                        "description": "ms since 1/1/70 adjusted to GMT",
                        "x-example": "1524599536",
                        "required": false,
                        "type": "integer",
                        "format": "int64",
                        "minimum": 0,
                        "maximum": 999999999999,
                        "pattern": "^[\\d]*$"
                    },
                    {
                        "name": "workflow-id",
                        "in": "header",
                        "description": "Business Use Case",
                        "x-example": "ACTIVATION",
                        "required": false,
                        "type": "string",
                        "minLength": 1,
                        "maxLength": 256,
                        "pattern": "^[\\S]*$"
                    },
                    {
                        "name": "x-auth-originator",
                        "in": "header",
                        "description": "API chain initiating callers access token",
                        "x-example": "c34e7acd-384b-4c22-8b02-ba3963682508",
                        "required": false,
                        "type": "string",
                        "minLength": 1,
                        "maxLength": 256,
                        "pattern": "^[\\S]*$"
                    },
                    {
                        "name": "x-authorization",
                        "in": "header",
                        "description": "Contains Proof of Possession token generated by API caller",
                        "x-example": "c34e7acd-384b-4c22-8b02-ba3963682508",
                        "required": false,
                        "type": "string",
                        "minLength": 1,
                        "maxLength": 256,
                        "pattern": "^[\\S ]*$"
                    }
                ],
                "responses": {
                    "204": {
                        "description": "The server successfully processed the request and is not returning any content",
                        "headers": {
                            "Date": {
                                "description": "The Date general HTTP header contains the date and time at which the message was originated.",
                                "x-example": "Mon, 05 Mar 2018 16:38:08 GMT",
                                "type": "string",
                                "format": "date-time",
                                "pattern": "^(Mon|Tue|Wed|Thu|Fri|Sat|Sun), [0-3]{1}[0-9]{1} (Jan|Feb|Mar|Apr|May|Jun|Jul|Aug|Sep|Oct|Nov|Dec) [1-3][0-9]{3} [0-2][0-9]:[0-6][0-9]:[0-6][0-9] GMT$"
                            },
                            "Location": {
                                "description": "The Location header specifies the URI of a created resource, or redirects the API consumer to an alternate resource location.",
                                "x-example": "http://api.t-mo.com/order-mgmt/v1/orders/123xyz-0/status",
                                "type": "string",
                                "minLength": 1,
                                "maxLength": 65536,
                                "pattern": "^[\\S]*$"
                            },
                            "service-transaction-id": {
                                "description": "Request ID echoed back by server",
                                "x-example": "23409209723",
                                "type": "string",
                                "minLength": 1,
                                "maxLength": 256,
                                "pattern": "^[\\S]*$"
                            }
                        }
                    },
                    "400": {
                        "description": "Bad Request",
                        "schema": {
                            "$ref": "#/definitions/errors"
                        }
                    },
                    "401": {
                        "description": "Client not authorized",
                        "schema": {
                            "$ref": "#/definitions/errors"
                        }
                    },
                    "403": {
                        "description": "Client access denied",
                        "schema": {
                            "$ref": "#/definitions/errors"
                        }
                    },
                    "404": {
                        "description": "Resource not found",
                        "schema": {
                            "$ref": "#/definitions/errors"
                        }
                    },
                    "500": {
                        "description": "System Error",
                        "schema": {
                            "$ref": "#/definitions/errors"
                        }
                    },
                    "502": {
                        "description": "Backend system problem",
                        "schema": {
                            "$ref": "#/definitions/errors"
                        }
                    },
                    "503": {
                        "description": "Service unavailable",
                        "schema": {
                            "$ref": "#/definitions/errors"
                        }
                    }
                },
                "security": []
            },
            "get": {
                "tags": [
                    "GET-CreditHistory"
                ],
                "x-api-pattern": "QueryCollection",
                "summary": "This API is used to return customer credit details.",
                "description": "This API is used to return customer credit details.",
                "operationId": "getCreditHistory",
                "consumes": [
                    "application/json",
                    "application/xml"
                ],
                "produces": [
                    "application/json",
                    "application/xml"
                ],
                "parameters": [
                    {
                        "name": "commonCustomerId",
                        "in": "query",
                        "description": "Universal identifier of the customer, as defined in Customer Hub.",
                        "required": false,
                        "type": "string"
                    },
                    {
                        "name": "creditReferenceNumber",
                        "in": "query",
                        "description": "Credit system reference number",
                        "required": false,
                        "type": "string"
                    },
                    {
                        "name": "Accept",
                        "in": "header",
                        "description": "Preferred content type _ default to application/json",
                        "x-example": "application/json",
                        "required": false,
                        "type": "string",
                        "minLength": 1,
                        "maxLength": 256,
                        "pattern": "^[ \\S]+$"
                    },
                    {
                        "name": "Accept-Encoding",
                        "in": "header",
                        "description": "List of acceptable encodings. See HTTP compression.",
                        "x-example": "gzip,deflate",
                        "required": false,
                        "type": "string",
                        "minLength": 1,
                        "maxLength": 256,
                        "pattern": "^[\\S ]*$"
                    },
                    {
                        "name": "Accept-Language",
                        "in": "header",
                        "description": "List of acceptable human languages for response",
                        "x-example": "en-us,en;q=0.5",
                        "required": false,
                        "type": "string",
                        "minLength": 1,
                        "maxLength": 256,
                        "pattern": "^[\\S ]*$"
                    },
                    {
                        "name": "Authorization",
                        "in": "header",
                        "description": "The HTTP Authorization request header contains the credentials to authenticate a user agent with a server.",
                        "x-example": "Bearer mF_9.B5f-4.1JqM",
                        "required": true,
                        "type": "string",
                        "minLength": 1,
                        "maxLength": 256,
                        "pattern": "^[\\S ]+$"
                    },
                    {
                        "name": "Date",
                        "in": "header",
                        "description": "The Date general HTTP header contains the date and time at which the message was originated.",
                        "x-example": "Mon, 05 Mar 2018 16:38:08 GMT",
                        "required": false,
                        "type": "string",
                        "format": "date-time",
                        "pattern": "^(Mon|Tue|Wed|Thu|Fri|Sat|Sun), [0-3]{1}[0-9]{1} (Jan|Feb|Mar|Apr|May|Jun|Jul|Aug|Sep|Oct|Nov|Dec) [1-3][0-9]{3} [0-2][0-9]:[0-6][0-9]:[0-6][0-9] GMT$"
                    },
                    {
                        "name": "activity-id",
                        "in": "header",
                        "description": "Unique id alphanumeric value generated and sent by the partner to identify every the service request uniquely. Sample: XyzA:D1s5s1i-X6AFRvfiPBfs-1234  Pass as is to downstream calls.",
                        "x-example": "c34e7acd-384b-4c22-8b02-ba3963682508",
                        "required": false,
                        "type": "string",
                        "minLength": 1,
                        "maxLength": 256,
                        "pattern": "^[\\S]*$"
                    },
                    {
                        "name": "application-id",
                        "in": "header",
                        "description": "Identifies the application, system, or tool that is being used to perform the transaction related to this request. Sample values:ACUI, ESERVICE, REBELLION, WARP",
                        "x-example": "REBELLION",
                        "required": false,
                        "type": "string",
                        "minLength": 1,
                        "maxLength": 256,
                        "pattern": "^[\\S]*$"
                    },
                    {
                        "name": "channel-id",
                        "in": "header",
                        "description": "Categorization of access or business stream",
                        "x-example": "IVR",
                        "required": false,
                        "type": "string",
                        "minLength": 1,
                        "maxLength": 256,
                        "pattern": "^[\\S]*$"
                    },
                    {
                        "name": "interaction-id",
                        "in": "header",
                        "description": "Alphanumeric value represent a common transaction id across all calls made from UI, while completing all business activity needs of a particular customer.",
                        "x-example": "cc688d54-50d1-49d4-8c5d-95459d1172e8",
                        "required": false,
                        "type": "string",
                        "minLength": 1,
                        "maxLength": 256,
                        "pattern": "^[\\S]*$"
                    },
                    {
                        "name": "sender-id",
                        "in": "header",
                        "description": "The related business partner or T-Mobile organization",
                        "x-example": "QVXP",
                        "required": false,
                        "type": "string",
                        "minLength": 1,
                        "maxLength": 256,
                        "pattern": "^[\\S]*$"
                    },
                    {
                        "name": "service-transaction-id",
                        "in": "header",
                        "description": "Request ID echoed back by server",
                        "x-example": "23409209723",
                        "required": false,
                        "type": "string",
                        "minLength": 1,
                        "maxLength": 256,
                        "pattern": "^[\\S]*$"
                    },
                    {
                        "name": "session-id",
                        "in": "header",
                        "description": "A value populated by the sender used to track the transactions that occur during a session, a long-lasting interaction that ismaintained by the sender.",
                        "x-example": "350b91ec-4a64-4b10-a3f3-a78c8db3924a",
                        "required": false,
                        "type": "string",
                        "minLength": 1,
                        "maxLength": 256,
                        "pattern": "^[\\S]*$"
                    },
                    {
                        "name": "timestamp",
                        "in": "header",
                        "description": "ms since 1/1/70 adjusted to GMT",
                        "x-example": "1524599536",
                        "required": false,
                        "type": "integer",
                        "format": "int64",
                        "minimum": 0,
                        "maximum": 999999999999,
                        "pattern": "^[\\d]*$"
                    },
                    {
                        "name": "workflow-id",
                        "in": "header",
                        "description": "Business Use Case",
                        "x-example": "ACTIVATION",
                        "required": false,
                        "type": "string",
                        "minLength": 1,
                        "maxLength": 256,
                        "pattern": "^[\\S]*$"
                    },
                    {
                        "name": "x-auth-originator",
                        "in": "header",
                        "description": "API chain initiating callers access token",
                        "x-example": "c34e7acd-384b-4c22-8b02-ba3963682508",
                        "required": false,
                        "type": "string",
                        "minLength": 1,
                        "maxLength": 256,
                        "pattern": "^[\\S]*$"
                    },
                    {
                        "name": "x-authorization",
                        "in": "header",
                        "description": "Contains Proof of Possession token generated by API caller",
                        "x-example": "c34e7acd-384b-4c22-8b02-ba3963682508",
                        "required": false,
                        "type": "string",
                        "minLength": 1,
                        "maxLength": 256,
                        "pattern": "^[\\S ]*$"
                    }
                ],
                "responses": {
                    "200": {
                        "description": "OK",
                        "schema": {
                            "$ref": "#/definitions/CreditHistoryResponse"
                        },
                        "headers": {
                            "Cache-Control": {
                                "description": "Cache policy supported for the resource by the server",
                                "x-example": "no-cache",
                                "type": "string",
                                "minLength": 1,
                                "maxLength": 256,
                                "pattern": "^[\\S]*$"
                            },
                            "Content-Encoding": {
                                "description": "The type of encoding used on the data",
                                "x-example": "gzip,deflate",
                                "type": "string",
                                "minLength": 1,
                                "maxLength": 15,
                                "pattern": "^[\\S]*$"
                            },
                            "Content-Length": {
                                "description": "Length of the response body in octets; not supported if Transfer-Endoding = chunked",
                                "x-example": "9112300000003",
                                "type": "integer",
                                "format": "int64",
                                "minimum": 0,
                                "pattern": "^[\\d]*$"
                            },
                            "Content-Type": {
                                "description": "The MIME type of this content",
                                "x-example": "text/xml",
                                "type": "string",
                                "minLength": 1,
                                "maxLength": 256,
                                "pattern": "^[ \\S]+$"
                            },
                            "Date": {
                                "description": "The Date general HTTP header contains the date and time at which the message was originated.",
                                "x-example": "Mon, 05 Mar 2018 16:38:08 GMT",
                                "type": "string",
                                "format": "date-time",
                                "pattern": "^(Mon|Tue|Wed|Thu|Fri|Sat|Sun), [0-3]{1}[0-9]{1} (Jan|Feb|Mar|Apr|May|Jun|Jul|Aug|Sep|Oct|Nov|Dec) [1-3][0-9]{3} [0-2][0-9]:[0-6][0-9]:[0-6][0-9] GMT$"
                            },
                            "ETag": {
                                "description": "The ETag header specifies the unique entity tag value for the returned resource.",
                                "x-example": "*",
                                "type": "string",
                                "minLength": 1,
                                "maxLength": 256,
                                "pattern": "^[\\S]*$"
                            },
                            "Transfer-Encoding": {
                                "description": "The form of encoding used to safely transfer the entity to the user. Currently defined methods are: chunked, compress, deflate, gzip, identity.",
                                "x-example": "chunked",
                                "type": "string",
                                "minLength": 1,
                                "maxLength": 15,
                                "pattern": "^[\\S]*$"
                            },
                            "service-transaction-id": {
                                "description": "Request ID echoed back by server",
                                "x-example": "23409209723",
                                "type": "string",
                                "minLength": 1,
                                "maxLength": 256,
                                "pattern": "^[\\S]*$"
                            }
                        }
                    },
                    "400": {
                        "description": "Bad Request",
                        "schema": {
                            "$ref": "#/definitions/errors"
                        }
                    },
                    "401": {
                        "description": "Client not authorized",
                        "schema": {
                            "$ref": "#/definitions/errors"
                        }
                    },
                    "403": {
                        "description": "Client access denied",
                        "schema": {
                            "$ref": "#/definitions/errors"
                        }
                    },
                    "404": {
                        "description": "Resource not found",
                        "schema": {
                            "$ref": "#/definitions/errors"
                        }
                    },
                    "500": {
                        "description": "System Error",
                        "schema": {
                            "$ref": "#/definitions/errors"
                        }
                    },
                    "502": {
                        "description": "Backend system problem",
                        "schema": {
                            "$ref": "#/definitions/errors"
                        }
                    },
                    "503": {
                        "description": "Service unavailable",
                        "schema": {
                            "$ref": "#/definitions/errors"
                        }
                    }
                },
                "security": []
            },
            "put": {
                "tags": [
                    "PUT-updatecreditHistory"
                ],
                "x-api-pattern": "ModifyResource",
                "summary": "This  API is used to store/update creditReferenceNumber and BAN in Credit History DB.",
                "description": "This  API is used to  store/update creditReferenceNumber and BAN in Credit History DB.",
                "operationId": "updateCreditHistory",
                "consumes": [
                    "application/json",
                    "application/xml"
                ],
                "produces": [
                    "application/json",
                    "application/xml"
                ],
                "parameters": [
                    {
                        "name": "updateCreditHistoryRequest",
                        "in": "body",
                        "description": "An User Defined Object",
                        "required": true,
                        "schema": {
                            "$ref": "#/definitions/UpdateCreditHistoryRequest"
                        }
                    },
                    {
                        "name": "Accept",
                        "in": "header",
                        "description": "Preferred content type _ default to application/json",
                        "x-example": "application/json",
                        "required": false,
                        "type": "string",
                        "minLength": 1,
                        "maxLength": 256,
                        "pattern": "^[ \\S]+$"
                    },
                    {
                        "name": "Authorization",
                        "in": "header",
                        "description": "The HTTP Authorization request header contains the credentials to authenticate a user agent with a server.",
                        "x-example": "Bearer mF_9.B5f-4.1JqM",
                        "required": true,
                        "type": "string",
                        "minLength": 1,
                        "maxLength": 256,
                        "pattern": "^[\\S ]+$"
                    },
                    {
                        "name": "Content-Type",
                        "in": "header",
                        "description": "The MIME type of this content",
                        "x-example": "text/xml",
                        "required": true,
                        "type": "string",
                        "minLength": 1,
                        "maxLength": 256,
                        "pattern": "^[ \\S]+$"
                    },
                    {
                        "name": "Date",
                        "in": "header",
                        "description": "The Date general HTTP header contains the date and time at which the message was originated.",
                        "x-example": "Mon, 05 Mar 2018 16:38:08 GMT",
                        "required": false,
                        "type": "string",
                        "format": "date-time",
                        "pattern": "^(Mon|Tue|Wed|Thu|Fri|Sat|Sun), [0-3]{1}[0-9]{1} (Jan|Feb|Mar|Apr|May|Jun|Jul|Aug|Sep|Oct|Nov|Dec) [1-3][0-9]{3} [0-2][0-9]:[0-6][0-9]:[0-6][0-9] GMT$"
                    },
                    {
                        "name": "activity-id",
                        "in": "header",
                        "description": "Unique id alphanumeric value generated and sent by the partner to identify every the service request uniquely. Sample: XyzA:D1s5s1i-X6AFRvfiPBfs-1234  Pass as is to downstream calls.",
                        "x-example": "c34e7acd-384b-4c22-8b02-ba3963682508",
                        "required": false,
                        "type": "string",
                        "minLength": 1,
                        "maxLength": 256,
                        "pattern": "^[\\S]*$"
                    },
                    {
                        "name": "application-id",
                        "in": "header",
                        "description": "Identifies the application, system, or tool that is being used to perform the transaction related to this request. Sample values:ACUI, ESERVICE, REBELLION, WARP",
                        "x-example": "REBELLION",
                        "required": false,
                        "type": "string",
                        "minLength": 1,
                        "maxLength": 256,
                        "pattern": "^[\\S]*$"
                    },
                    {
                        "name": "channel-id",
                        "in": "header",
                        "description": "Categorization of access or business stream",
                        "x-example": "IVR",
                        "required": false,
                        "type": "string",
                        "minLength": 1,
                        "maxLength": 256,
                        "pattern": "^[\\S]*$"
                    },
                    {
                        "name": "interaction-id",
                        "in": "header",
                        "description": "Alphanumeric value represent a common transaction id across all calls made from UI, while completing all business activity needs of a particular customer.",
                        "x-example": "cc688d54-50d1-49d4-8c5d-95459d1172e8",
                        "required": false,
                        "type": "string",
                        "minLength": 1,
                        "maxLength": 256,
                        "pattern": "^[\\S]*$"
                    },
                    {
                        "name": "sender-id",
                        "in": "header",
                        "description": "The related business partner or T-Mobile organization",
                        "x-example": "QVXP",
                        "required": false,
                        "type": "string",
                        "minLength": 1,
                        "maxLength": 256,
                        "pattern": "^[\\S]*$"
                    },
                    {
                        "name": "service-transaction-id",
                        "in": "header",
                        "description": "Request ID echoed back by server",
                        "x-example": "23409209723",
                        "required": false,
                        "type": "string",
                        "minLength": 1,
                        "maxLength": 256,
                        "pattern": "^[\\S]*$"
                    },
                    {
                        "name": "session-id",
                        "in": "header",
                        "description": "A value populated by the sender used to track the transactions that occur during a session, a long-lasting interaction that ismaintained by the sender.",
                        "x-example": "350b91ec-4a64-4b10-a3f3-a78c8db3924a",
                        "required": false,
                        "type": "string",
                        "minLength": 1,
                        "maxLength": 256,
                        "pattern": "^[\\S]*$"
                    },
                    {
                        "name": "timestamp",
                        "in": "header",
                        "description": "ms since 1/1/70 adjusted to GMT",
                        "x-example": "1524599536",
                        "required": false,
                        "type": "integer",
                        "format": "int64",
                        "minimum": 0,
                        "maximum": 999999999999,
                        "pattern": "^[\\d]*$"
                    },
                    {
                        "name": "workflow-id",
                        "in": "header",
                        "description": "Business Use Case",
                        "x-example": "ACTIVATION",
                        "required": false,
                        "type": "string",
                        "minLength": 1,
                        "maxLength": 256,
                        "pattern": "^[\\S]*$"
                    },
                    {
                        "name": "x-auth-originator",
                        "in": "header",
                        "description": "API chain initiating callers access token",
                        "x-example": "c34e7acd-384b-4c22-8b02-ba3963682508",
                        "required": false,
                        "type": "string",
                        "minLength": 1,
                        "maxLength": 256,
                        "pattern": "^[\\S]*$"
                    },
                    {
                        "name": "x-authorization",
                        "in": "header",
                        "description": "Contains Proof of Possession token generated by API caller",
                        "x-example": "c34e7acd-384b-4c22-8b02-ba3963682508",
                        "required": false,
                        "type": "string",
                        "minLength": 1,
                        "maxLength": 256,
                        "pattern": "^[\\S ]*$"
                    }
                ],
                "responses": {
                    "204": {
                        "description": "The server successfully processed the request and is not returning any content.",
                        "headers": {
                            "Date": {
                                "description": "The Date general HTTP header contains the date and time at which the message was originated.",
                                "x-example": "Mon, 05 Mar 2018 16:38:08 GMT",
                                "type": "string",
                                "format": "date-time",
                                "pattern": "^(Mon|Tue|Wed|Thu|Fri|Sat|Sun), [0-3]{1}[0-9]{1} (Jan|Feb|Mar|Apr|May|Jun|Jul|Aug|Sep|Oct|Nov|Dec) [1-3][0-9]{3} [0-2][0-9]:[0-6][0-9]:[0-6][0-9] GMT$"
                            },
                            "ETag": {
                                "description": "The ETag header specifies the unique entity tag value for the returned resource.",
                                "x-example": "*",
                                "type": "string",
                                "minLength": 1,
                                "maxLength": 256,
                                "pattern": "^[\\S]*$"
                            },
                            "Location": {
                                "description": "The Location header specifies the URI of a created resource, or redirects the API consumer to an alternate resource location.",
                                "x-example": "http://api.t-mo.com/order-mgmt/v1/orders/123xyz-0/status",
                                "type": "string",
                                "minLength": 1,
                                "maxLength": 65536,
                                "pattern": "^[\\S]*$"
                            },
                            "Transfer-Encoding": {
                                "description": "The form of encoding used to safely transfer the entity to the user. Currently defined methods are: chunked, compress, deflate, gzip, identity.",
                                "x-example": "chunked",
                                "type": "string",
                                "minLength": 1,
                                "maxLength": 15,
                                "pattern": "^[\\S]*$"
                            },
                            "service-transaction-id": {
                                "description": "Request ID echoed back by server",
                                "x-example": "23409209723",
                                "type": "string",
                                "minLength": 1,
                                "maxLength": 256,
                                "pattern": "^[\\S]*$"
                            }
                        }
                    },
                    "400": {
                        "description": "Bad Request",
                        "schema": {
                            "$ref": "#/definitions/errors"
                        }
                    },
                    "401": {
                        "description": "Client not authorized",
                        "schema": {
                            "$ref": "#/definitions/errors"
                        }
                    },
                    "403": {
                        "description": "Client access denied",
                        "schema": {
                            "$ref": "#/definitions/errors"
                        }
                    },
                    "404": {
                        "description": "Resource not found",
                        "schema": {
                            "$ref": "#/definitions/errors"
                        }
                    },
                    "500": {
                        "description": "System Error",
                        "schema": {
                            "$ref": "#/definitions/errors"
                        }
                    },
                    "502": {
                        "description": "Backend system problem",
                        "schema": {
                            "$ref": "#/definitions/errors"
                        }
                    },
                    "503": {
                        "description": "Service unavailable",
                        "schema": {
                            "$ref": "#/definitions/errors"
                        }
                    }
                },
                "security": []
            }
        }
    },
    "definitions": {
        "CreditHistoryRequest": {
            "description": "An user defined object.",
            "type": "object",
            "properties": {
                "creditInformation": {
                    "description": "An array of creditInformation objects.",
                    "type": "array",
                    "items": {
                        "$ref": "#/definitions/CreditInformation"
                    }
                }
            }
        },
        "CreditHistoryResponse": {
            "description": "An User Defined Object",
            "type": "object",
            "properties": {
                "creditInformation": {
                    "description": "An array of creditInformation objects.",
                    "type": "array",
                    "items": {
                        "$ref": "#/definitions/CreditInformation"
                    }
                }
            }
        },
        "CreditInformation": {
            "description": "An User Defined Object",
            "type": "object",
            "required": [
                "creditReferenceNumber",
                "creditClass",
                "creditRunDate",
                "commonCustomerId"
            ],
            "properties": {
                "creditReferenceNumber": {
                    "description": "Credit system reference number",
                    "type": "string"
                },
                "creditClass": {
                    "description": "Credit class of the customer when the account is active",
                    "type": "string"
                },
                "creditRunDate": {
                    "description": "credit run date of the customer",
                    "type": "string",
                    "format": "date-time"
                },
                "commonCustomerId": {
                    "description": "Universal identifier of the customer, as defined in Customer Hub.",
                    "type": "string"
                },
                "applicationStatus": {
                    "description": "An User Defined Element",
                    "type": "string"
                }
            }
        },
        "error": {
            "description": "Error object.",
            "type": "object",
            "properties": {
                "code": {
                    "description": "A specific T-Mobile error code.",
                    "type": "string"
                },
                "userMessage": {
                    "description": "A human-readable message describing the error.",
                    "type": "string"
                },
                "systemMessage": {
                    "description": "Backend system error message.",
                    "type": "string"
                }
            }
        },
        "errors": {
            "description": "The array of error objects. As defined in https://tmobileusa.sharepoint.com/teams/EnterpriseServices/ESG%20Standards%20Documents/APIs/T-Mobile%20API%20Design%20Guidelines%20v1.0.docx",
            "type": "object",
            "properties": {
                "errors": {
                    "type": "array",
                    "items": {
                        "$ref": "#/definitions/error"
                    }
                }
            }
        },
        "UpdateCreditHistoryRequest": {
            "description": "An User Defined Object",
            "type": "object",
            "properties": {
                "creditReferenceNumber": {
                    "description": "Credit system reference number",
                    "type": "string"
                },
                "accountNumber": {
                    "description": "The financial account number that identifies the account.",
                    "type": "string"
                }
            }
        }
    },
    "securityDefinitions": {}
}