{
  "swagger": "2.0",
  "info": {
    "title": "equipmentCreditBalance",
    "description": "This API is used to return the credit balance for given BAN.",
    "version": "1.0.0",
    "contact": {
      "name": "CreditOriginationQC",
      "email": "CreditOriginationQC@T-Mobile.com"
    },
    "x-createdBy": {
      "dateCreated": "Tue Apr 30 22:19:17 2019",
      "createdBy": "svanama2",
      "application": "Recite",
      "appVersion": "1.0.0.2891",
      "documentId": "4ecfa3e2-82a4-4975-856d-70e5374df880",
      "status": "Conceptual - Initial",
      "classification": "6.1 Credit Decisioning",
      "profile": "Core Business Capability Service",
      "serviceLayer": "Enterprise - RevenueManagement"
    }
  },
  "tags": [
    {
      "name": "POST-EquipmentCreditBalance",
      "description": ""
    }
  ],
  "host": "dev01.api.t-mobile.com",
  "basePath": "/customer-credit/v1/equipment-credit-balance",
  "schemes": [
    "https"
  ],
  "paths": {
    "/": {
      "post": {
        "tags": [
          "POST-EquipmentCreditBalance"
        ],
        "x-api-pattern": "CreateByName",
        "summary": "This API is used to return the credit balance for given BAN.",
        "description": "This API is used to return the credit balance for given BAN.",
        "operationId": "equipmentCreditBalance",
        "consumes": [
          "application/json",
          "application/xml"
        ],
        "produces": [
          "application/json",
          "application/xml"
        ],
        "parameters": [
          {
            "name": "equipmentCreditBalanceRequest",
            "in": "body",
            "description": "An User Defined Object",
            "required": true,
            "schema": {
              "$ref": "#/definitions/EquipmentCreditBalanceRequest"
            }
          },
          {
            "name": "Accept",
            "in": "header",
            "description": "Preferred content type _ default to application/json",
            "x-example": "application/json",
            "required": false,
            "type": "string",
            "minLength": 1,
            "maxLength": 256,
            "pattern": "^[ \\S]+$"
          },
          {
            "name": "Authorization",
            "in": "header",
            "description": "The HTTP Authorization request header contains the credentials to authenticate a user agent with a server.",
            "x-example": "Bearer mF_9.B5f-4.1JqM",
            "required": true,
            "type": "string",
            "minLength": 1,
            "maxLength": 256,
            "pattern": "^[\\S ]+$"
          },
          {
            "name": "Content-Type",
            "in": "header",
            "description": "The MIME type of this content",
            "x-example": "text/xml",
            "required": true,
            "type": "string",
            "minLength": 1,
            "maxLength": 256,
            "pattern": "^[ \\S]+$"
          },
          {
            "name": "Date",
            "in": "header",
            "description": "The Date general HTTP header contains the date and time at which the message was originated.",
            "x-example": "Mon, 05 Mar 2018 16:38:08 GMT",
            "required": false,
            "type": "string",
            "format": "date-time",
            "pattern": "^(Mon|Tue|Wed|Thu|Fri|Sat|Sun), [0-3]{1}[0-9]{1} (Jan|Feb|Mar|Apr|May|Jun|Jul|Aug|Sep|Oct|Nov|Dec) [1-3][0-9]{3} [0-2][0-9]:[0-6][0-9]:[0-6][0-9] GMT$"
          },
          {
            "name": "If-None-Match",
            "in": "header",
            "description": "The If-None-Match header specifies an ETag-related condition to be placed on the execution of a request.  The request will NOT be executed if the ETag of the requested resource matches one of those specified in the If-None-Match header.  Because the behavior is complex, the details for usage are provided at http://www.w3.org/Protocols/rfc2616/rfc2616-sec14.html",
            "x-example": "*",
            "required": false,
            "type": "string",
            "minLength": 1,
            "maxLength": 256,
            "pattern": "^[\\S]*$"
          },
          {
            "name": "activity-id",
            "in": "header",
            "description": "Unique id alphanumeric value generated and sent by the partner to identify every the service request uniquely. Sample: XyzA:D1s5s1i-X6AFRvfiPBfs-1234  Pass as is to downstream calls.",
            "x-example": "c34e7acd-384b-4c22-8b02-ba3963682508",
            "required": false,
            "type": "string",
            "minLength": 1,
            "maxLength": 256,
            "pattern": "^[\\S]*$"
          },
          {
            "name": "application-id",
            "in": "header",
            "description": "Identifies the application, system, or tool that is being used to perform the transaction related to this request. Sample values:ACUI, ESERVICE, REBELLION, WARP",
            "x-example": "REBELLION",
            "required": true,
            "type": "string",
            "minLength": 1,
            "maxLength": 256,
            "pattern": "^[\\S]*$"
          },
          {
            "name": "channel-id",
            "in": "header",
            "description": "Categorization of access or business stream",
            "x-example": "IVR",
            "required": true,
            "type": "string",
            "minLength": 1,
            "maxLength": 256,
            "pattern": "^[\\S]*$"
          },
          {
            "name": "interaction-id",
            "in": "header",
            "description": "Alphanumeric value represent a common transaction id across all calls made from UI, while completing all business activity needs of a particular customer.",
            "x-example": "cc688d54-50d1-49d4-8c5d-95459d1172e8",
            "required": false,
            "type": "string",
            "minLength": 1,
            "maxLength": 256,
            "pattern": "^[\\S]*$"
          },
          {
            "name": "sender-id",
            "in": "header",
            "description": "The related business partner or T-Mobile organization",
            "x-example": "QVXP",
            "required": true,
            "type": "string",
            "minLength": 1,
            "maxLength": 256,
            "pattern": "^[\\S]*$"
          },
          {
            "name": "service-transaction-id",
            "in": "header",
            "description": "Request ID echoed back by server",
            "x-example": "23409209723",
            "required": true,
            "type": "string",
            "minLength": 1,
            "maxLength": 256,
            "pattern": "^[\\S]*$"
          },
          {
            "name": "session-id",
            "in": "header",
            "description": "A value populated by the sender used to track the transactions that occur during a session, a long-lasting interaction that ismaintained by the sender.",
            "x-example": "350b91ec-4a64-4b10-a3f3-a78c8db3924a",
            "required": false,
            "type": "string",
            "minLength": 1,
            "maxLength": 256,
            "pattern": "^[\\S]*$"
          },
          {
            "name": "timestamp",
            "in": "header",
            "description": "ms since 1/1/70 adjusted to GMT",
            "x-example": "1524599536",
            "required": false,
            "type": "integer",
            "format": "int64",
            "minimum": 0,
            "maximum": 999999999999,
            "pattern": "^[\\d]*$"
          },
          {
            "name": "workflow-id",
            "in": "header",
            "description": "Business Use Case",
            "x-example": "ACTIVATION",
            "required": false,
            "type": "string",
            "minLength": 1,
            "maxLength": 256,
            "pattern": "^[\\S]*$"
          },
          {
            "name": "x-auth-originator",
            "in": "header",
            "description": "API chain initiating callers access token",
            "x-example": "c34e7acd-384b-4c22-8b02-ba3963682508",
            "required": false,
            "type": "string",
            "minLength": 1,
            "maxLength": 256,
            "pattern": "^[\\S]*$"
          },
          {
            "name": "x-authorization",
            "in": "header",
            "description": "Contains Proof of Possession token generated by API caller",
            "x-example": "c34e7acd-384b-4c22-8b02-ba3963682508",
            "required": false,
            "type": "string",
            "minLength": 1,
            "maxLength": 256,
            "pattern": "^[\\S ]*$"
          }
        ],
        "responses": {
          "200": {
            "description": "Success",
            "schema": {
              "$ref": "#/definitions/EquipmentCreditBalanceResponse"
            },
            "headers": {
              "Cache-Control": {
                "description": "Cache policy supported for the resource by the server",
                "x-example": "no-cache",
                "type": "string",
                "minLength": 1,
                "maxLength": 256,
                "pattern": "^[\\S]*$"
              },
              "Date": {
                "description": "The Date general HTTP header contains the date and time at which the message was originated.",
                "x-example": "Mon, 05 Mar 2018 16:38:08 GMT",
                "type": "string",
                "format": "date-time",
                "pattern": "^(Mon|Tue|Wed|Thu|Fri|Sat|Sun), [0-3]{1}[0-9]{1} (Jan|Feb|Mar|Apr|May|Jun|Jul|Aug|Sep|Oct|Nov|Dec) [1-3][0-9]{3} [0-2][0-9]:[0-6][0-9]:[0-6][0-9] GMT$"
              },
              "ETag": {
                "description": "The ETag header specifies the unique entity tag value for the returned resource.",
                "x-example": "*",
                "type": "string",
                "minLength": 1,
                "maxLength": 256,
                "pattern": "^[\\S]*$"
              },
              "Location": {
                "description": "The Location header specifies the URI of a created resource, or redirects the API consumer to an alternate resource location.",
                "x-example": "http://api.t-mo.com/order-mgmt/v1/orders/123xyz-0/status",
                "type": "string",
                "minLength": 1,
                "maxLength": 65536,
                "pattern": "^[\\S]*$"
              },
              "service-transaction-id": {
                "description": "Request ID echoed back by server",
                "x-example": "23409209723",
                "type": "string",
                "minLength": 1,
                "maxLength": 256,
                "pattern": "^[\\S]*$"
              }
            }
          },
          "400": {
            "description": "Bad Request",
            "schema": {
              "$ref": "#/definitions/Error"
            },
            "examples": {
              "application/json": {
                "code": "400",
                "userMessage": "Bad Request",
                "systemMessage": "Bad Request",
                "detailLink": "http://www.tmus.com"
              }
            },
            "headers": {}
          },
          "404": {
            "description": "Resource not found",
            "schema": {
              "$ref": "#/definitions/Error"
            },
            "examples": {
              "application/json": {
                "code": "404",
                "userMessage": "Resource not found",
                "systemMessage": "Resource not found",
                "detailLink": "http://www.tmus.com"
              }
            },
            "headers": {}
          },
          "409": {
            "description": "Invalid data",
            "schema": {
              "$ref": "#/definitions/Error"
            },
            "examples": {
              "application/json": {
                "code": "409",
                "userMessage": "Invalid data",
                "systemMessage": "Invalid data",
                "detailLink": "http://www.tmus.com"
              }
            },
            "headers": {}
          },
          "500": {
            "description": "System Error",
            "schema": {
              "$ref": "#/definitions/Error"
            },
            "examples": {
              "application/json": {
                "code": "500",
                "userMessage": "System Error",
                "systemMessage": "System Error",
                "detailLink": "http://www.tmus.com"
              }
            },
            "headers": {}
          },
          "503": {
            "description": "Service unavailable",
            "schema": {
              "$ref": "#/definitions/Error"
            },
            "examples": {
              "application/json": {
                "code": "503",
                "userMessage": "Service unavailable",
                "systemMessage": "Service unavailable",
                "detailLink": "http://www.tmus.com"
              }
            },
            "headers": {}
          }
        },
        "security": []
      }
    }
  },
  "definitions": {
    "EquipmentCreditBalanceRequest": {
      "description": "An User Defined Object",
      "type": "object",
      "properties": {
        "accountNumber": {
          "description": "The financial account number that identifies the account.",
          "type": "string"
        },
        "creditReservationIds": {
          "description": "List of device exchange reservation ids ",
          "type": "array",
          "items": {
            "description": "The credit reservation ID for which balance has be to calculated.",
            "type": "string"
          }
        }
      }
    },
    "EquipmentCreditBalanceResponse": {
      "description": "An User Defined Object",
      "type": "object",
      "properties": {
        "equipmentCreditBalance": {
          "description": "credit balance",
          "type": "number",
          "format": "double"
        }
      }
    },
    "Error": {
      "description": "As defined in http://api-standards.apps.px-npe01.cf.t-mobile.com/http/status-codes/error-response-format/",
      "type": "object",
      "required": [
        "code",
        "userMessage"
      ],
      "properties": {
        "code": {
          "description": "A succinct, domain-specific, human-readable text string to identify the type of error for the given status code",
          "example": "ProductNotFound",
          "type": "string",
          "pattern": "^[\\S ]+$"
        },
        "userMessage": {
          "description": "A human-readable message describing the error.",
          "example": "Failed to find product.",
          "type": "string",
          "pattern": "^[\\S ]+$"
        },
        "systemMessage": {
          "description": "Text that provides a more detailed technical explanation of the error",
          "example": "PRODUCT_NOT_FOUND",
          "type": "string"
        },
        "detailLink": {
          "description": "link to custom information providing greater detail on error or errors",
          "example": "http://aaa.bbb.ccc/",
          "type": "string"
        }
      }
    }
  },
  "securityDefinitions": {}
}