{
	"swagger": "2.0",
	"info": {
		"title": "GraduatedCreditEligibilityResourceService",
		"description": "This service support the use of the GraduatedCreditEligibility resource. This API provides eligibility details for a prepaid customer to migrate/convert to postpaid account",
		"version": "1.0.0",
		"contact": {
			"name": "CreditOriginationQC",
			"email": "CreditOriginationQC@T-Mobile.com"
		},
		"x-createdBy": {
			"dateCreated": "Tue Jul 10 05:27:00 2018",
			"createdBy": "PKuncha2",
			"application": "Recite",
			"appVersion": "0.3.11.2301",
			"documentId": "e44fb026-c8c8-4c9c-a387-40ec10cdc7ab",
			"status": "Conceptual - Initial",
			"classification": "6.6 Customer Credit Check",
			"profile": "Core Business Capability Service",
			"serviceLayer": "Enterprise - RevenueManagement"
		}
	},
	"tags": [
	{
		"name": "queryGraduatedCreditEligibility",
		"description": "Retrieves a single instance of the GraduatedCreditEligibility resource."
	}],
	"host": "dev01.api.t-mobile.com",
	"basePath": "/customer-credit/v1/graduated-credit-eligibilities",
	"schemes": ["https"],
	"paths": {
		"/": {
			"post": {
				"tags": ["queryGraduatedCreditEligibility"],
				"summary": "A get for the GraduatedCreditEligibility resource using Digital Archecture's QueryResource pattern.",
				"description": "Retrieves a single instance of the GraduatedCreditEligibility resource.",
				"operationId": "queryGraduatedCreditEligibility",
				"consumes": ["application/json",
				"application/xml"],
				"produces": ["application/json",
				"application/xml"],
				"parameters": [{
					"name": "graduatedCreditEligibilityRequest",
					"in": "body",
					"description": "This API provides eligibility details for a prepaid customer to migrate/convert to postpaid account",
					"required": true,
					"schema": {
						"$ref": "#/definitions/GraduatedCreditEligibilityRequest"
					}
				},
				{
					"name": "Accept",
					"in": "header",
					"description": "Content-Types that are acceptable including application/json or application/xml (default assumed application/json)",
					"x-example": "application/json,text/html,application/xhtml+xml,application/xml;q=0.9,*/*;q=0.8",
					"required": false,
					"type": "string"
				},
				{
					"name": "Accept-Charset",
					"in": "header",
					"description": "Character sets that are acceptable.",
					"x-example": "ISO-8859-1,utf-8;q=0.7,*;q=0.7",
					"required": false,
					"type": "string"
				},
				{
					"name": "Accept-Encoding",
					"in": "header",
					"description": "List of acceptable encodings. See HTTP compression.",
					"x-example": "gzip,deflate",
					"required": false,
					"type": "string"
				},
				{
					"name": "Accept-Language",
					"in": "header",
					"description": "List of acceptable human languages for response",
					"x-example": "en-us,en;q=0.5",
					"required": false,
					"type": "string"
				},
				{
					"name": "Authorization",
					"in": "header",
					"description": "OAuth 2.0 access token with the authentication type set as Bearer.",
					"x-example": "Basic YUFSbFZHQ1p5dE5KMzV6RVAzOVFneXFUS0tRM1VONHM6QmtYN0c5RmQxTnNEaHRsWg==",
					"required": true,
					"pattern": "^[\\S]*$",
					"type": "string"
				},
				{
					"name": "Content-Type",
					"in": "header",
					"description": "The MIME type of this content",
					"x-example": "text/xml",
					"required": true,
					"pattern": "^[\\S]*$",
					"type": "string"
				},
				{
					"name": "Date",
					"in": "header",
					"description": "The date and time that the message was originated (in HTTP-date format as defined by RFC 7231 Date/Time Formats).",
					"x-example": "Wed, 18-Apr-2018 11:34:57 GMT",
					"required": false,
					"type": "string",
					"format": "date-time"
				},
				{
					"name": "If-Modified-Since",
					"in": "header",
					"description": "The If-Modified-Since header specifies date-related conditions to be placed on the execution of a request. The request will only be executed if the requested resource has not been modified since the date-time specified. Because the behavior is complex, the details for usage are provided at http://www.w3.org/Protocols/rfc2616/rfc2616-sec14.html",
					"x-example": "Wed, 18-Apr-2018 11:34:57 GMT",
					"required": false,
					"type": "string"
				},
				{
					"name": "If-None-Match",
					"in": "header",
					"description": "The If-None-Match header specifies an ETag-related condition to be placed on the execution of a request. The request will NOT be executed if the ETag of the requested resource matches one of those specified in the If-None-Match header. Because the behavior is complex, the details for usage are provided at http://www.w3.org/Protocols/rfc2616/rfc2616-sec14.html",
					"x-example": "*",
					"required": false,
					"type": "string"
				},
				{
					"name": "activityid",
					"in": "header",
					"description": "Unique id alphanumeric value generated and sent by the partner to identify every the service request uniquely. Sample: XyzA:D1s5s1i-X6AFRvfiPBfs-1234 Pass as is to downstream calls.",
					"x-example": "c34e7acd-384b-4c22-8b02-ba3963682508",
					"required": true,
					"pattern": "^[\\S]*$",
					"type": "string"
				},
				{
					"name": "applicationid",
					"in": "header",
					"description": "Identifies the application, system, or tool that is being used to perform the transaction related to this request. Below are the sample values.ACUI, ESERVICE, REBELLION, WARP",
					"x-example": "TBD",
					"required": true,
					"type": "string"
				},
				{
					"name": "applicationuserid",
					"in": "header",
					"description": "NT id of the one who is managing the transaction from CARE/RETAIL channels.",
					"x-example": "TBD",
					"required": false,
					"type": "string"
				},
				{
					"name": "authcustomerid",
					"in": "header",
					"description": "Customer id _ of the person that is interacting with the system.",
					"x-example": "TBD",
					"required": false,
					"type": "string"
				},
				{
					"name": "authfinancialaccountid",
					"in": "header",
					"description": "Financial account that the customer intends to operate on, while interacting with the system.",
					"x-example": "TBD",
					"required": false,
					"type": "string"
				},
				{
					"name": "authlineofserviceid",
					"in": "header",
					"description": "Service Line that the customer intends to operate on, while interacting with the system.",
					"x-example": "TBD",
					"required": false,
					"type": "string"
				},
				{
					"name": "channelid",
					"in": "header",
					"description": "Identifies the business unit or sales channel for the Request.Below are the sample values: Care TeleSales FullService BusinessDirect FinancePartners NonFinancePartners SelfServiceAuthenticated SelfServiceAnonymous InteractiveVoiceResponse",
					"x-example": "TBD",
					"required": true,
					"type": "string"
				},
				{
					"name": "dealercode",
					"in": "header",
					"description": "Unique code to identify the dealer/rep user.",
					"x-example": "TBD",
					"required": true,
					"type": "string"
				},
				{
					"name": "interactionid",
					"in": "header",
					"description": "Alphanumeric value represent a common transaction id across all calls made from UI, while completing all business activity needs of a particular customer.",
					"x-example": "cc688d54-50d1-49d4-8c5d-95459d1172e8",
					"required": false,
					"type": "string"
				},
				{
					"name": "segmentationid",
					"in": "header",
					"description": "Identifier of customers primary data center.Sample: Polaris,Titan",
					"x-example": "TBD",
					"required": false,
					"type": "string"
				},
				{
					"name": "senderid",
					"in": "header",
					"description": "Uniquely identifies an Operation consumer. Below are the sample values.ACUI, MYTMO, QVXP, REBELLION, WALMARTRETAIL, SAMSCLUBRETAIL.",
					"x-example": "TBD",
					"required": true,
					"type": "string"
				},
				{
					"name": "servicetransactionid",
					"in": "header",
					"description": "Internal identifier for transaction tracking an individual transaction/API request within API platform. Don_t receive/don_t send to downstream",
					"x-example": "23409209723",
					"required": true,
					"type": "string"
				},
				{
					"name": "sessionid",
					"in": "header",
					"description": "A value populated by the sender used to track the transactions that occur during a session, a long-lasting interaction that ismaintained by the sender.",
					"x-example": "350b91ec-4a64-4b10-a3f3-a78c8db3924a",
					"required": false,
					"type": "string"
				},
				{
					"name": "storeid",
					"in": "header",
					"description": "Unique identifier for the retail store location.",
					"x-example": "TBD",
					"required": false,
					"type": "string"
				},
				{
					"name": "terminalid",
					"in": "header",
					"description": "Unique identifier for the retail store terminal. Needed for FullService (Tmobile RETAIL channel). Need to discuss with T-Mobile business liaison if there is a need for Partner to pass their retail Store Id).",
					"x-example": "TBD",
					"required": false,
					"type": "string"
				},
				{
					"name": "tillid",
					"in": "header",
					"description": "Unique identifier for the retail register. Needed for FullService (Tmobile RETAIL channel). Need to discuss with T-Mobile business liaison if there is a need for Partner to pass their retail Store Id).",
					"x-example": "TBD",
					"required": false,
					"type": "string"
				},
				{
					"name": "timestamp",
					"in": "header",
					"description": "A timestamp provided by sender to track their workflow. If it is empty APIGEE can send current system timestamp.",
					"x-example": "TBD",
					"required": false,
					"type": "string",
					"format": "date-time"
				},
				{
					"name": "workflowid",
					"in": "header",
					"description": "Workflow name (NEW/ADD/EXCHANGE/RETURN)/OrderTypes _ ACTIVATION ADDALINE CHANGEDEVICE_JUMP CHANGEDEVICE",
					"x-example": "ACTIVATION",
					"required": false,
					"type": "string"
				}],
				"responses": {
					"200": {
						"description": "The GraduatedCreditEligibility resource has been found. Returning the GraduatedCreditEligibility.",
						"schema": {
							"$ref": "#/definitions/GraduatedCreditEligibilityResponse"
						},
						"headers": {
							"Cache-Control": {
								"description": "No cache indicators supported at this time. Samples: no-cache",
								"x-example": "no-cache",
								"type": "string"
							},
							"Content-Encoding": {
								"description": "The type of encoding used on the data",
								"x-example": "gzip,deflate",
								"type": "string"
							},
							"Content-Language": {
								"description": "The natural language or languages of the intended audience for the enclosed content",
								"x-example": "da",
								"type": "string"
							},
							"Content-Length": {
								"description": "The Content-Length header specifies the actual length of the returned payload.",
								"x-example": "1024",
								"type": "string"
							},
							"Content-Type": {
								"description": "The MIME type of this content",
								"x-example": "text/xml",
								"type": "string",
								"pattern": "^[\\S]*$"
							},
							"Date": {
								"description": "The date and time that the message was originated (in HTTP-date format as defined by RFC 7231 Date/Time Formats).",
								"x-example": "Wed, 18-Apr-2018 11:34:57 GMT",
								"type": "string",
								"format": "date-time"
							},
							"ETag": {
								"description": "The ETag header specifies the unique entity tag value for the returned resource.",
								"x-example": "*",
								"type": "string"
							},
							"Last-Modified": {
								"description": "The Last-Modified entity-header field indicates the date and time at which the origin server believes the variant was last modified.",
								"x-example": "Wed, 18-Apr-2018 11:34:57 GMT",
								"type": "string",
								"format": "date-time"
							},
							"Transfer-Encoding": {
								"description": "The form of encoding used to safely transfer the entity to the user. Currently defined methods are: chunked, compress, deflate, gzip, identity.",
								"x-example": "chunked",
								"type": "string"
							},
							"servicetransactionid": {
								"description": "Internal identifier for transaction tracking an individual transaction/API request within API platform. Don_t receive/don_t send to downstream",
								"x-example": "23409209723",
								"type": "string"
							}
						}
					},
					"304": {
						"description": "Not Modified",
						"headers": {
							"Cache-Control": {
								"description": "No cache indicators supported at this time. Samples: no-cache",
								"x-example": "no-cache",
								"type": "string"
							}
						}
					},
					"400": {
						"description": "Bad Request",
						"schema": {
							"type": "array",
							"description": "An array of error objects.",
							"minItems": 1,
							"items": {
								"$ref": "#/definitions/Error"
							}
						},
						"examples": {
							"application/json": [{
								"code": "400",
								"userMessage": "Bad Request",
								"systemMessage": "Bad Request"
							}]
						},
						"headers": {
							
						}
					},
					"401": {
						"description": "Unauthorized",
						"schema": {
							"type": "array",
							"description": "An array of error objects.",
							"minItems": 1,
							"items": {
								"$ref": "#/definitions/Error"
							}
						},
						"examples": {
							"application/json": [{
								"code": "401",
								"userMessage": "Unauthorized",
								"systemMessage": "Unauthorized"
							}]
						},
						"headers": {
							
						}
					},
					"403": {
						"description": "Client access denied",
						"schema": {
							"type": "array",
							"description": "An array of error objects.",
							"minItems": 1,
							"items": {
								"$ref": "#/definitions/Error"
							}
						},
						"examples": {
							"application/json": [{
								"code": "403",
								"userMessage": "Client access denied",
								"systemMessage": "Client access denied"
							}]
						},
						"headers": {
							
						}
					},
					"404": {
						"description": "Resource not found",
						"schema": {
							"type": "array",
							"description": "An array of error objects.",
							"minItems": 1,
							"items": {
								"$ref": "#/definitions/Error"
							}
						},
						"examples": {
							"application/json": [{
								"code": "404",
								"userMessage": "Resource not found",
								"systemMessage": "Resource not found"
							}]
						},
						"headers": {
							
						}
					},
					"405": {
						"description": "Method Not Allowed",
						"schema": {
							"type": "array",
							"description": "An array of error objects.",
							"minItems": 1,
							"items": {
								"$ref": "#/definitions/Error"
							}
						},
						"examples": {
							"application/json": [{
								"code": "405",
								"userMessage": "Method Not Allowed",
								"systemMessage": "Method Not Allowed"
							}]
						},
						"headers": {
							
						}
					},
					"406": {
						"description": "Mismatching data format",
						"schema": {
							"type": "array",
							"description": "An array of error objects.",
							"minItems": 1,
							"items": {
								"$ref": "#/definitions/Error"
							}
						},
						"examples": {
							"application/json": [{
								"code": "406",
								"userMessage": "Mismatching data format",
								"systemMessage": "Mismatching data format"
							}]
						},
						"headers": {
							
						}
					},
					"500": {
						"description": "System Error",
						"schema": {
							"type": "array",
							"description": "An array of error objects.",
							"minItems": 1,
							"items": {
								"$ref": "#/definitions/Error"
							}
						},
						"examples": {
							"application/json": [{
								"code": "500",
								"userMessage": "System Error",
								"systemMessage": "System Error"
							}]
						},
						"headers": {
							
						}
					},
					"503": {
						"description": "Service unavailable",
						"schema": {
							"type": "array",
							"description": "An array of error objects.",
							"minItems": 1,
							"items": {
								"$ref": "#/definitions/Error"
							}
						},
						"examples": {
							"application/json": [{
								"code": "503",
								"userMessage": "Service unavailable",
								"systemMessage": "Service unavailable"
							}]
						},
						"headers": {
							
						}
					}
				},
				"security": []
			}
		}
	},
	"definitions": {
		"CreditEvaluation": {
			"type": "object",
			"description": "This object represents an evaluation of a subscriber account for Graduated Credit Eligibility. The eligibility evaluation is only applicable to this system. It is potentially possible that the eligibility combined with other system could qualify the customer.",
			"properties": {
				"accountType": {
					"description": "Indicates if the subscriber is POSTPAID, PREPAID.RPX, PREPAID.SCNC.",
					"type": "string"
				},
				"accountNumber": {
					"description": "Financial Account Number associated with the subscriber.",
					"type": "string"
				},
				"subscriberNumber": {
					"description": "Subscriber number for whom the evaluation was completed.",
					"type": "string"
				},
				"ineligibilityReason": {
					"description": "An array of ineligibilityReason objects.",
					"type": "array",
					"items": {
						"$ref": "#/definitions/IneligibilityReason"
					}
				},
				"currentRatePlan": {
					"description": "Indicates the current rate plan of the subscriber",
					"type": "string"
				},
				"creditClass": {
					"description": "Indicates the current credit class of the customer. This is applicable to only specific account types such as POSTPAID.",
					"type": "string"
				},
				"creditClassDate": {
					"description": "The date on which the credit class was assigned to the customer. This may not be applicable for certain account types.",
					"type": "string",
					"format": "date"
				},
				"eligibilityData": {
					"$ref": "#/definitions/EligibilityData"
				}
			}
		},
		"Customer": {
			"type": "object",
			"description": "Customer Details",
			"properties": {
				"accountType": {
					"description": "Account Type of Customer",
					"type": "string"
				},
				"accountNumber": {
					"description": "Account Number",
					"type": "string"
				},
				"subscriberNumber": {
					"description": "Subscriber Number",
					"type": "string"
				},
				"pin": {
					"description": "Pin number customer account",
					"type": "string"
				}
			}
		},
		"EligibilityData": {
			"type": "object",
			"description": "Customer Eligibility Details for conversion",
			"properties": {
				"evaluationStartDate": {
					"description": "Date from which the evaluation data was collected. This is basically todays date going back X months per the requirements from the business.",
					"type": "string",
					"format": "date"
				},
				"activationDate": {
					"description": "Date when the customer activated their account.",
					"type": "string",
					"format": "date"
				},
				"ratePlanEligibilityDate": {
					"description": "The date on when the Rate plan is Eligible for credit Eligibility",
					"type": "string",
					"format": "date"
				},
				"paymentEligibilityDate": {
					"description": "Earliest date in which the customer made payment in full and on time consecutively.",
					"type": "string",
					"format": "date"
				},
				"qualificationStartDate": {
					"description": "Date from which the customer was considered to be qualified. This date is the higher of the following: Activation Date, Eligible Rate Plan Event Date, Payment Qualification Date (date after the last missed payment date).",
					"type": "string",
					"format": "date"
				},
				"consecutivePaymentCount": {
					"description": "Indicates the number of consecutive payments made by the customer with full payment and without missing due date, gap in service",
					"type": "integer",
					"format": "int32",
					"minimum": 0.0
				},
				"latePaymentCount": {
					"description": "Number of payments that was late.",
					"type": "integer",
					"format": "int32",
					"minimum": 0.0
				},
				"remainingPaymentsCount": {
					"description": "no of Payments remaining",
					"type": "integer",
					"format": "int32",
					"minimum": 0.0
				},
				"nextEligibilityDate": {
					"description": "Indicates the potential date that the customer would be eligible for the graduated credit ASSUMING that customer keeps up with the requirements in the future. If the customer meets all requirements for the graduated credit, this value will be the date on which the customer already qualified. If the customer does not currently meet the requirements, this date will represent the next possible date when they may qualify.",
					"type": "string",
					"format": "date"
				},
				"events": {
					"description": "An array of events objects.",
					"type": "array",
					"items": {
						"$ref": "#/definitions/Events"
					}
				}
			}
		},
		"Error": {
			"type": "object",
			"description": "As defined in https://tmobileusa.sharepoint.com/teams/EnterpriseServices/ESG%20Standards%20Documents/APIs/T-Mobile%20API%20Design%20Guidelines%20v1.0.docx",
			"properties": {
				"code": {
					"description": "A succinct, domain-specific, human-readable text string to identify the type of error for the given status code",
					"type": "string"
				},
				"userMessage": {
					"description": "A human-readable message describing the error.",
					"type": "string"
				},
				"systemMessage": {
					"description": "Text that provides a more detailed technical explanation of the error",
					"type": "string"
				},
				"errorDetailUrl": {
					"description": "link to custom information providing greater detail on error or errors",
					"type": "string"
				}
			}
		},
		"Events": {
			"type": "object",
			"description": "List of events detailing the payments and rate plan qualifications.",
			"properties": {
				"eventType": {
					"type": "string"
				},
				"paymentDate": {
					"type": "string",
					"format": "date"
				},
				"dueDate": {
					"type": "string",
					"format": "date"
				},
				"amount": {
					"type": "integer",
					"format": "int32",
					"minimum": 0.0
				}
			}
		},
		"GraduatedCreditEligibilityRequest": {
			"type": "object",
			"description": "This API provides eligibility details for a prepaid customer to migrate/convert to postpaid account",
			"required": ["returnEligibilityData"],
			"properties": {
				"customer": {
					"description": "An array of customer objects.",
					"type": "array",
					"minItems": 1,
					"items": {
						"$ref": "#/definitions/Customer"
					}
				},
				"returnEligibilityData": {
					"description": "Indicate if the data on which eligibility was based should be returned as part of the response. Default behavior is false to minimize data.",
					"type": "boolean"
				}
			}
		},
		"GraduatedCreditEligibilityResponse": {
			"type": "object",
			"description": "Response Object",
			"properties": {
				"creditEvaluation": {
					"description": "An array of creditEvaluation objects.",
					"type": "array",
					"items": {
						"$ref": "#/definitions/CreditEvaluation"
					}
				},
				"overallEligibility": {
					"description": "Overall evaluation result - combination of the data from multiple systems.",
					"type": "boolean"
				}
			}
		},
		"IneligibilityReason": {
			"type": "object",
			"description": "InEligibility Reason Details",
			"properties": {
				"code": {
					"description": "Reasons as to why the customer does not qualify for graduated credit. Clients should translate the below as needed for their purpose using the CODE. CODE: GRAD | Already on Graduated Credit CODE: RPNE | Rate Plan Not Eligible CODE: HISTORY | Insufficient history with T-Mobile CODE: SVCGAP | Service gap CODE: PYMT | Ineligible payment history CODE: EXIST | Invalid subscriber for the system CODE: RPXLNKD | RPX number is already linked to account: Account Number CODE: SCNCLNKD | Number is already linked to account: Account Number (NOT APPLICABLE)Indentity Maturity Date not reached (NOT APPLICABLE) Subscriber Identity Match Failed",
					"type": "string"
				},
				"description": {
					"description": "ineligibility reason description",
					"type": "string"
				}
			}
		}
	},
	"securityDefinitions": {
		"password": {
			"type": "oauth2",
			"tokenUrl": "https://ilab02.core.op.api.t-mobile.com/v1/oauth2/accesstoken?grant_type=client_credentials",
			"flow": "password",
			"scopes": {
				"financial": "Grants read/write access to financial transa",
				"read:customer": "read only access to customer",
				"user": "Grants read/write access to profile info only."
			}
		}
	}
}