{
  "swagger": "2.0",
  "basePath": "/reb2-customer-billing/v1",
  "host": "qlab22.op.api.t-mobile.com",
  "x-servers": [
    {
      "url": "qlab02.op.api.t-mobile.com"
    },
    {
      "descritpion": "qlab environment"
    }
  ],
  "info": {
    "description": "The purpose of this API is to get the Line level billing details for given lineOfServiceid  passed. The details returned are line level plans, services and discounts. The WISL service used is LineOfServiceDetailsWSIL_GetLineOfServiceDetails",
    "version": "3.0.1",
    "title": "API_2040_Line Details",
    "contact": {
      "name": "Aradhana Mantha",
      "email": "aradhana.mantha1@t-mobile.com"
    }
  },
  "schemes": [
    "https"
  ],
  "tags": [
    {
      "name": "LineDetails"
    }
  ],
  "paths": {
    "/account/line-details": {
      "post": {
        "summary": "Get Line Details ",
        "description": "",
        "tags": [
          "LineDetails"
        ],
        "operationId": "getLineDetails",
        "security": [
          {
            "Oauth": []
          }
        ],
        "consumes": [
          "application/json",
          "application/xml"
        ],
        "produces": [
          "application/json"
        ],
        "parameters": [
          {
            "name": "content-type",
            "in": "header",
            "description": "content type",
            "required": false,
            "type": "string",
            "x-example": "application/json"
          },
          {
            "name": "cache-control",
            "in": "header",
            "description": "cache control param",
            "required": false,
            "type": "string",
            "x-example": "no-cache"
          },
          {
            "name": "senderid",
            "in": "header",
            "description": "senderid",
            "required": false,
            "type": "string",
            "x-example": "SOA"
          },
          {
            "name": "channelid",
            "in": "header",
            "description": "channelid",
            "required": false,
            "type": "string",
            "x-example": "receive"
          },
          {
            "name": "applicationid",
            "in": "header",
            "description": "applicationid",
            "required": false,
            "type": "string",
            "x-example": "4654623324534"
          },
          {
            "name": "applicationuserid",
            "in": "header",
            "description": "applicationuserid",
            "required": false,
            "type": "string",
            "x-example": "Bellarmin"
          },
          {
            "name": "activityid",
            "in": "header",
            "description": "activityid",
            "required": false,
            "type": "string",
            "x-example": "745545345"
          },
          {
            "name": "interactionid",
            "in": "header",
            "description": "interactionid",
            "required": false,
            "type": "string",
            "x-example": "68564653454"
          },
          {
            "name": "sessionid",
            "in": "header",
            "description": "sessionid",
            "required": false,
            "type": "string",
            "x-example": "98657463542342335"
          },
          {
            "name": "dealercode",
            "in": "header",
            "description": "dealercode",
            "required": false,
            "type": "string",
            "x-example": "SOA"
          },
          {
            "name": "masterdealercode",
            "in": "header",
            "description": "masterdealercode",
            "required": false,
            "type": "string",
            "x-example": "SOA"
          },
          {
            "name": "workflowid",
            "in": "header",
            "description": "workflowid",
            "required": false,
            "type": "string",
            "x-example": "SOA"
          },
          {
            "name": "storeid",
            "in": "header",
            "description": "storeid",
            "required": false,
            "type": "string",
            "x-example": "2011"
          },
          {
            "name": "timestamp",
            "in": "header",
            "description": "timestamp",
            "required": false,
            "type": "string",
            "x-example": "2018-04-23T07:24:46+00:00"
          },
          {
            "name": "Authorization",
            "in": "header",
            "description": "Authorization",
            "required": false,
            "type": "string",
            "x-example": "KKJAemHqsy9TVQ2ljqFxzSLwNzjC"
          },
          {
            "name": "body",
            "in": "body",
            "description": "Line Details Request",
            "required": true,
            "schema": {
              "$ref": "#/definitions/BodyParams"
            },
            "x-example": {}
          },
          {
            "name": "If-Modified-Since",
            "in": "header",
            "description": "The If-Modified-Since header specifies date-related conditions to be placed on the execution of a request.  The request will only be executed if the requested resource has not been modified since the date-time specified.  Because the behavior is complex, the details for usage are provided at http://www.w3.org/Protocols/rfc2616/rfc2616-sec14.html",
            "x-example": "Wed, 18-Apr-2018 11:34:57 GMT",
            "required": false,
            "type": "string"
          },
          {
            "name": "If-None-Match",
            "in": "header",
            "description": "The If-None-Match header specifies an ETag-related condition to be placed on the execution of a request.  The request will NOT be executed if the ETag of the requested resource matches one of those specified in the If-None-Match header.  Because the behavior is complex, the details for usage are provided at http://www.w3.org/Protocols/rfc2616/rfc2616-sec14.html",
            "x-example": "*",
            "required": false,
            "type": "string"
          }
        ],
        "responses": {
          "200": {
            "description": "Successful response, WISL Service:getCharges",
            "headers": {
              "Cache-Control": {
                "description": "No cache indicators supported at this time. Samples: no-cache",
                "x-example": "no-cache",
                "type": "string"
              },
              "Content-Encoding": {
                "description": "The type of encoding used on the data",
                "x-example": "gzip,deflate",
                "type": "string"
              },
              "Content-Language": {
                "description": "The natural language or languages of the intended audience for the enclosed content",
                "x-example": "da",
                "type": "string"
              },
              "Content-Length": {
                "description": "The Content-Length header specifies the actual length of the returned payload.",
                "x-example": "1024",
                "type": "string"
              },
              "Content-Type": {
                "description": "The MIME type of this content",
                "x-example": "text/xml",
                "pattern": "^[\\S]*$",
                "type": "string"
              },
              "Date": {
                "description": "The date and time that the message was originated (in HTTP-date format as defined by RFC 7231 Date/Time Formats).",
                "x-example": "Wed, 18-Apr-2018 11:34:57 GMT",
                "type": "string",
                "format": "date-time"
              },
              "ETag": {
                "description": "The ETag header specifies the unique entity tag value for the returned resource.",
                "x-example": "*",
                "type": "string"
              },
              "Last-Modified": {
                "description": "The Last-Modified entity-header field indicates the date and time at which the origin server believes the variant was last modified.",
                "x-example": "Wed, 18-Apr-2018 11:34:57 GMT",
                "type": "string",
                "format": "date-time"
              },
              "Transfer-Encoding": {
                "description": "The form of encoding used to safely transfer the entity to the user. Currently defined methods are: chunked, compress, deflate, gzip, identity.",
                "x-example": "chunked",
                "type": "string"
              },
              "servicetransactionid": {
                "description": "Internal identifier for transaction tracking an individual transaction/API request within API platform. Don_t receive/don_t send to downstream",
                "x-example": "23409209723",
                "type": "string"
              },
              "If-Match": {
                "description": "the If-Match HTTP request header makes the request conditional. For GET and HEAD methods, the server will send back the requested resource only if it matches one of the listed ETags. For PUT and other non-safe methods, it will only upload the resource in this case.",
                "x-example": "*",
                "type": "string"
              },
              "If-None-Match": {
                "description": "the If-Match HTTP request header makes the request conditional. For GET and HEAD methods, the server will send back the requested resource only if it matches one of the listed ETags. For PUT and other non-safe methods, it will only upload the resource in this case.",
                "x-example": "*",
                "type": "string"
              },
              "Location": {
                "description": "Success Response.",
                "type": "string",
                "x-example": ""
              }
            },
            "schema": {
              "$ref": "#/definitions/CustomerLineBillingDetails"
            }
          },
          "204": {
            "description": "No Content",
            "headers": {
              "Cache-Control": {
                "description": "No cache indicators supported at this time. Samples: no-cache",
                "x-example": "no-cache",
                "type": "string"
              },
              "Content-Encoding": {
                "description": "The type of encoding used on the data",
                "x-example": "gzip,deflate",
                "type": "string"
              },
              "Content-Language": {
                "description": "The natural language or languages of the intended audience for the enclosed content",
                "x-example": "da",
                "type": "string"
              },
              "Content-Length": {
                "description": "The Content-Length header specifies the actual length of the returned payload.",
                "x-example": "1024",
                "type": "string"
              },
              "Content-Type": {
                "description": "The MIME type of this content",
                "x-example": "text/xml",
                "pattern": "^[\\S]*$",
                "type": "string"
              },
              "Date": {
                "description": "The date and time that the message was originated (in HTTP-date format as defined by RFC 7231 Date/Time Formats).",
                "x-example": "Wed, 18-Apr-2018 11:34:57 GMT",
                "type": "string",
                "format": "date-time"
              },
              "ETag": {
                "description": "The ETag header specifies the unique entity tag value for the returned resource.",
                "x-example": "*",
                "type": "string"
              },
              "Last-Modified": {
                "description": "The Last-Modified entity-header field indicates the date and time at which the origin server believes the variant was last modified.",
                "x-example": "Wed, 18-Apr-2018 11:34:57 GMT",
                "type": "string",
                "format": "date-time"
              },
              "Transfer-Encoding": {
                "description": "The form of encoding used to safely transfer the entity to the user. Currently defined methods are: chunked, compress, deflate, gzip, identity.",
                "x-example": "chunked",
                "type": "string"
              },
              "servicetransactionid": {
                "description": "Internal identifier for transaction tracking an individual transaction/API request within API platform. Don_t receive/don_t send to downstream",
                "x-example": "23409209723",
                "type": "string"
              },
              "If-Match": {
                "description": "the If-Match HTTP request header makes the request conditional. For GET and HEAD methods, the server will send back the requested resource only if it matches one of the listed ETags. For PUT and other non-safe methods, it will only upload the resource in this case.",
                "x-example": "*",
                "type": "string"
              },
              "If-None-Match": {
                "description": "the If-Match HTTP request header makes the request conditional. For GET and HEAD methods, the server will send back the requested resource only if it matches one of the listed ETags. For PUT and other non-safe methods, it will only upload the resource in this case.",
                "x-example": "*",
                "type": "string"
              },
              "Location": {
                "description": "Success Response.",
                "type": "string",
                "x-example": ""
              }
            }
          },
          "304": {
            "description": "Not Modified",
            "headers": {
              "Cache-Control": {
                "description": "No cache indicators supported at this time. Samples: no-cache",
                "x-example": "no-cache",
                "type": "string"
              },
              "ETag": {
                "description": "The ETag header specifies the unique entity tag value for the returned resource.",
                "x-example": "*",
                "type": "string"
              }
            }
          },
          "400": {
            "description": "Bad Request",
            "schema": {
              "type": "array",
              "description": "An array of error objects.",
              "minItems": 1,
              "items": {
                "$ref": "#/definitions/Error"
              }
            },
            "examples": {
              "application/json": [
                {
                  "code": "400",
                  "userMessage": "Bad Request",
                  "systemMessage": "Bad Request"
                }
              ]
            },
            "headers": {}
          },
          "401": {
            "description": "Unauthorized",
            "schema": {
              "type": "array",
              "description": "An array of error objects.",
              "minItems": 1,
              "items": {
                "$ref": "#/definitions/Error"
              }
            },
            "examples": {
              "application/json": [
                {
                  "code": "401",
                  "userMessage": "Unauthorized",
                  "systemMessage": "Unauthorized"
                }
              ]
            },
            "headers": {}
          },
          "403": {
            "description": "Client access denied",
            "schema": {
              "type": "array",
              "description": "An array of error objects.",
              "minItems": 1,
              "items": {
                "$ref": "#/definitions/Error"
              }
            },
            "examples": {
              "application/json": [
                {
                  "code": "403",
                  "userMessage": "Client access denied",
                  "systemMessage": "Client access denied"
                }
              ]
            },
            "headers": {}
          },
          "404": {
            "description": "Resource not found",
            "schema": {
              "type": "array",
              "description": "An array of error objects.",
              "minItems": 1,
              "items": {
                "$ref": "#/definitions/Error"
              }
            },
            "examples": {
              "application/json": [
                {
                  "code": "404",
                  "userMessage": "Resource not found",
                  "systemMessage": "Resource not found"
                }
              ]
            },
            "headers": {}
          },
          "405": {
            "description": "Method Not Allowed",
            "schema": {
              "type": "array",
              "description": "An array of error objects.",
              "minItems": 1,
              "items": {
                "$ref": "#/definitions/Error"
              }
            },
            "examples": {
              "application/json": [
                {
                  "code": "405",
                  "userMessage": "Method Not Allowed",
                  "systemMessage": "Method Not Allowed"
                }
              ]
            },
            "headers": {}
          },
          "406": {
            "description": "Mismatching data format",
            "schema": {
              "type": "array",
              "description": "An array of error objects.",
              "minItems": 1,
              "items": {
                "$ref": "#/definitions/Error"
              }
            },
            "examples": {
              "application/json": [
                {
                  "code": "406",
                  "userMessage": "Mismatching data format",
                  "systemMessage": "Mismatching data format"
                }
              ]
            },
            "headers": {}
          },
          "500": {
            "description": "System Error",
            "schema": {
              "type": "array",
              "description": "An array of error objects.",
              "minItems": 1,
              "items": {
                "$ref": "#/definitions/Error"
              }
            },
            "examples": {
              "application/json": [
                {
                  "code": "500",
                  "userMessage": "System Error",
                  "systemMessage": "System Error"
                }
              ]
            },
            "headers": {}
          },
          "503": {
            "description": "Service unavailable",
            "schema": {
              "type": "array",
              "description": "An array of error objects.",
              "minItems": 1,
              "items": {
                "$ref": "#/definitions/Error"
              }
            },
            "examples": {
              "application/json": [
                {
                  "code": "503",
                  "userMessage": "Service unavailable",
                  "systemMessage": "Service unavailable"
                }
              ]
            },
            "headers": {}
          }
        }
      }
    }
  },
  "definitions": {
    "Errors": {
      "description": "Describes the collection of error",
      "type": "array",
      "items": {
        "$ref": "#/definitions/Error"
      },
      "x-example": "/*ToDO*/ Some Example"
    },
    "Error": {
      "type": "object",
      "description": "As defined in https://tmobileusa.sharepoint.com/teams/EnterpriseServices/ESG%20Standards%20Documents/APIs/T-Mobile%20API%20Design%20Guidelines%20v1.0.docx",
      "properties": {
        "code": {
          "description": "A succinct, domain-specific, human-readable text string to identify the type of error for the given status code",
          "type": "string"
        },
        "userMessage": {
          "description": "A human-readable message describing the error.",
          "type": "string"
        },
        "systemMessage": {
          "description": "Text that provides a more detailed technical explanation of the error",
          "type": "string"
        },
        "errorDetailUrl": {
          "description": "link to custom information providing greater detail on error or errors",
          "type": "string"
        }
      }
    },
    "ErrorCode": {
      "type": "string",
      "description": "Error Code as per the T-Mobile standards",
      "x-example": "/*ToDO*/ Some Example",
      "pattern": ".+"
    },
    "SystemMessage": {
      "type": "string",
      "description": "Error information from the system",
      "x-example": "/*ToDO*/ Some Example",
      "pattern": ".+"
    },
    "UserMessage": {
      "type": "string",
      "description": "User friendly information for the error",
      "x-example": "/*ToDO*/ Some Example",
      "pattern": ".+"
    },
    "BodyParams": {
      "type": "object",
      "description": "Request parameters",
      "properties": {
        "accountNumber": {
          "type": "string",
          "description": "Required;Customer Account Number",
          "x-example": "/*ToDO*/ Some Example",
          "pattern": ".+"
        },
        "ccid": {
          "type": "string",
          "description": "CCID -Common Customer Identifier",
          "x-example": "/*ToDO*/ Some Example",
          "pattern": ".+"
        },
        "lineOfServiceID": {
          "type": "string",
          "description": "Required;The number on the line",
          "x-example": "/*ToDO*/ Some Example",
          "pattern": ".+"
        },
        "currentBillCycleEndDate": {
          "type": "string",
          "description": "required; This date is used to identify if the discounts is active or futuredated",
          "x-example": "/*ToDO*/ Some Example",
          "pattern": ".+"
        }
      },
      "title": "bodyRequestParameters",
      "x-example": "/*ToDO*/ Some Example"
    },
    "CustomerLineBillingDetails": {
      "type": "object",
      "properties": {
        "lineDetails": {
          "type": "object",
          "properties": {
            "accountNumber": {
              "type": "string",
              "description": "account number for the lineofserviceid details returned",
              "x-example": "/*ToDO*/ Some Example",
              "pattern": ".+"
            },
            "currentRecurringAmount": {
              "type": "string",
              "description": "MRC after discount..Sum of plan and services minus the discounts.",
              "x-example": "45.00",
              "pattern": ".+"
            },
            "msisdn": {
              "type": "string",
              "description": "Subscriber Number",
              "x-example": "/*ToDO*/ Some Example",
              "pattern": ".+"
            },
            "productType": {
              "type": "string",
              "description": "Product Type",
              "x-example": "/*ToDO*/ Some Example",
              "pattern": ".+"
            },
            "lineOfServiceID": {
              "type": "string",
              "description": "The number on the line",
              "x-example": "/*ToDO*/ Some Example",
              "pattern": ".+"
            },
            "lineStatus": {
              "type": "string",
              "description": "Provide the current status of the line.",
              "x-example": "/*ToDO*/ Some Example",
              "pattern": ".+"
            },
            "lineSubStatus": {
              "type": "string",
              "description": "Provide the current substatus for a line.",
              "x-example": "/*ToDO*/ Some Example",
              "pattern": ".+"
            },
            "lineNickname": {
              "type": "string",
              "description": "Nick name on the line. Integated to backend services for prepaid only. Data received for prepaid only.",
              "x-example": "/*ToDO*/ Some Example",
              "pattern": ".+"
            },
            "lineFirstName": {
              "type": "string",
              "description": "First Name on line. Integrated to backend services for prepaid only. Data received for prepaid only.",
              "x-example": "/*ToDO*/ Some Example",
              "pattern": ".+"
            },
            "lineLastName": {
              "type": "string",
              "description": "Last name of line. Integrated to backend services for prepaid only. Data received for prepaid only.",
              "x-example": "/*ToDO*/ Some Example",
              "pattern": ".+"
            },
            "lineCancellationDate": {
              "type": "string",
              "description": "Date when the date was cancelled.",
              "x-example": "/*ToDO*/ Some Example",
              "pattern": ".+"
            },
            "bingeOnStatus": {
              "type": "boolean",
              "description": "Provide the status about the binge On active or not on a line.This is a duplicate for blockingControls.bingeOn.status .",
              "x-example": "/*ToDO*/ Some Example",
              "enum": [
                true,
                false
              ]
            },
            "simType": {
              "type": "string",
              "description": "simType of the line.",
              "x-example": "/*ToDO*/ Some Example",
              "pattern": ".+"
            },
            "simNumber": {
              "type": "string",
              "description": "simNumber of the line.",
              "x-example": "/*ToDO*/ Some Example",
              "pattern": ".+"
            },
            "dataStashCapFeatureStatus": {
              "type": "string",
              "description": "Gives the idea about whether the data stash has been capped or not.",
              "x-example": "/*ToDO*/ Some Example",
              "pattern": ".+"
            },
            "activationDate": {
              "type": "string",
              "description": "The date line was activated- /lineOfService/activationDate.",
              "x-example": "/*ToDO*/ Some Example",
              "pattern": ".+"
            },
            "tenure": {
              "type": "string",
              "description": "This is the value calcualted in ES and is a difference between current date and activationDate. Formated in years, monthd and days",
              "x-example": "/*ToDO*/ Some Example",
              "pattern": ".+"
            },
            "plan": {
              "$ref": "#/definitions/PlanDetails"
            },
            "services": {
              "type": "array",
              "description": "address information",
              "items": {
                "$ref": "#/definitions/ServiceDetails"
              },
              "x-example": "/*ToDO*/ Some Example"
            },
            "discounts": {
              "type": "array",
              "description": "address information",
              "items": {
                "$ref": "#/definitions/DiscountsDetails"
              },
              "x-example": "/*ToDO*/ Some Example"
            },
            "addresses": {
              "type": "array",
              "description": "address information; reterives only 'PPU' and 'E911' adrress setup on the line",
              "items": {
                "$ref": "#/definitions/AddressDetails"
              },
              "x-example": "/*ToDO*/ Some Example"
            },
            "blockingControls": {
              "$ref": "#/definitions/BlockingControls"
            },
            "familyControls": {
              "$ref": "#/definitions/FamilyControls"
            }
          },
          "description": "/*ToDo*/ Some description",
          "x-example": "/*ToDO*/ Some Example"
        }
      },
      "description": "/*ToDo*/ Some description",
      "x-example": "/*ToDO*/ Some Example"
    },
    "AddressDetails": {
      "type": "object",
      "properties": {
        "type": {
          "type": "string",
          "description": "address type, such as PPU, e911, etc.",
          "x-example": "/*ToDO*/ Some Example",
          "pattern": ".+"
        },
        "addressLine1": {
          "type": "string",
          "description": "street address or Address Line 1",
          "x-example": "/*ToDO*/ Some Example",
          "pattern": ".+"
        },
        "addressLine2": {
          "type": "string",
          "description": "extended address or Address Line 2. ex. Apt/Unit etc.",
          "x-example": "/*ToDO*/ Some Example",
          "pattern": ".+"
        },
        "cityName": {
          "type": "string",
          "description": "city name",
          "x-example": "/*ToDO*/ Some Example",
          "pattern": ".+"
        },
        "stateCode": {
          "type": "string",
          "description": "state",
          "x-example": "/*ToDO*/ Some Example",
          "pattern": ".+"
        },
        "zip": {
          "type": "string",
          "description": "postal code",
          "x-example": "/*ToDO*/ Some Example",
          "pattern": ".+"
        },
        "zipExt": {
          "type": "string",
          "description": "4 digit postal code extension",
          "x-example": "/*ToDO*/ Some Example",
          "pattern": ".+"
        },
        "sequenceNo": {
          "type": "string",
          "description": "sequence number",
          "x-example": "/*ToDO*/ Some Example",
          "pattern": ".+"
        },
        "characteristicsId": {
          "type": "string",
          "description": "sequence number",
          "x-example": "/*ToDO*/ Some Example",
          "pattern": ".+"
        }
      },
      "description": "/*ToDo*/ Some description",
      "x-example": "/*ToDO*/ Some Example"
    },
    "DiscountsDetails": {
      "type": "object",
      "properties": {
        "recurringDiscount": {
          "type": "boolean",
          "description": " set to true for recurring discount",
          "x-example": "/*ToDO*/ Some Example",
          "enum": [
            true,
            false
          ]
        },
        "code": {
          "type": "string",
          "description": "Discount plan code",
          "x-example": "/*ToDO*/ Some Example",
          "pattern": ".+"
        },
        "description": {
          "type": "string",
          "description": "discount description",
          "x-example": "/*ToDO*/ Some Example",
          "pattern": ".+"
        },
        "amount": {
          "type": "string",
          "description": "A number of monetary units specified in a currency where the unit of the currency is explicit or implied",
          "x-example": "/*ToDO*/ Some Example",
          "pattern": ".+"
        },
        "effectiveDate": {
          "type": "string",
          "description": "The Date Format is MM-DD-YYYY. Date when the discount becomes effective",
          "x-example": "/*ToDO*/ Some Example",
          "pattern": ".+"
        },
        "expirationDate": {
          "type": "string",
          "description": "The Date Format is MM-DD-YYYY. Date when the discount expires",
          "x-example": "/*ToDO*/ Some Example",
          "pattern": ".+"
        }
      },
      "description": "/*ToDo*/ Some description",
      "x-example": "/*ToDO*/ Some Example"
    },
    "ServiceDetails": {
      "type": "object",
      "properties": {
        "effectiveDate": {
          "type": "string",
          "description": "  From the service used, active services are servies where the backend services has the status = ACTIVE and the product Type = Service",
          "x-example": "/*ToDO*/ Some Example",
          "pattern": ".+"
        },
        "code": {
          "type": "string",
          "description": "Code associated with the feature",
          "x-example": "/*ToDO*/ Some Example",
          "pattern": ".+"
        },
        "description": {
          "type": "string",
          "description": "Short Description of the feature",
          "x-example": "/*ToDO*/ Some Example",
          "pattern": ".+"
        },
        "name": {
          "type": "string",
          "description": "Name of the feature",
          "x-example": "/*ToDO*/ Some Example",
          "pattern": ".+"
        },
        "type": {
          "type": "string",
          "description": "For postpaid value retuend = REGULAR",
          "x-example": "/*ToDO*/ Some Example",
          "pattern": ".+"
        },
        "price": {
          "type": "string",
          "description": "price of the service",
          "x-example": "/*ToDO*/ Some Example",
          "pattern": ".+"
        },
        "thirdPartyService": {
          "type": "boolean",
          "description": "This value is set to TRUE for a thirdparty service. For prepiad mapped to backend service. For post paid TBD",
          "x-example": "/*ToDO*/ Some Example",
          "enum": [
            true,
            false
          ]
        },
        "activeServicelink": {
          "type": "string",
          "description": "Applicable for prepaid only. When available,returns the URL for additional details for the service. Not Mapped ",
          "x-example": "/*ToDO*/ Some Example",
          "pattern": ".+"
        }
      },
      "description": "/*ToDo*/ Some description",
      "x-example": "/*ToDO*/ Some Example"
    },
    "PlanDetails": {
      "type": "object",
      "properties": {
        "effectiveDate": {
          "type": "string",
          "description": "From the service used, active services are servies where the the product Type = PLAN has the status = ACTIVE",
          "x-example": "/*ToDO*/ Some Example",
          "pattern": ".+"
        },
        "code": {
          "type": "string",
          "description": "Code associated with the plan",
          "x-example": "SO_SP_10GB_PRE_V2_50",
          "pattern": ".+"
        },
        "description": {
          "type": "string",
          "description": "Short Description of the plan",
          "x-example": "All the nationwide Talk, Text &amp; Data you can handle, with up to 10GB of 4G LTE for only $50/month, giving you high speed access when you need it most.  Comes with Music Unlimited so you can Jam all day without using your data on included services.",
          "pattern": ".+"
        },
        "name": {
          "type": "string",
          "description": "Name of the plan",
          "x-example": "$50 Simply Prepaid UNL. Talk, Text &amp; 10GB 4G LTE",
          "pattern": ".+"
        },
        "coreOfferFamilyName": {
          "type": "string",
          "description": "Core name of the plan",
          "x-example": "SIMPLYPREPAIDV2",
          "pattern": ".+"
        },
        "type": {
          "type": "string",
          "description": "Postpaid value retuened = PRICE_PLAN",
          "x-example": "/*ToDO*/ Some Example",
          "pattern": ".+"
        },
        "price": {
          "type": "string",
          "description": "Price",
          "x-example": "/*ToDO*/ Some Example",
          "pattern": ".+"
        }
      },
      "description": "/*ToDo*/ Some description",
      "x-example": "/*ToDO*/ Some Example"
    },
    "Settings": {
      "type": "object",
      "properties": {
        "id": {
          "type": "string",
          "description": "UI friendly generic name for specificationID, When the feature_Status==ON then the value is set to true ",
          "x-example": "/*ToDO*/ Some Example",
          "pattern": ".+"
        },
        "status": {
          "type": "boolean",
          "description": "Status on the specificationID, When the feature_Status==ON then the value is set to true ",
          "x-example": "/*ToDO*/ Some Example",
          "enum": [
            true,
            false
          ]
        }
      },
      "description": "/*ToDo*/ Some description",
      "x-example": "/*ToDO*/ Some Example"
    },
    "BlockingControls": {
      "type": "object",
      "properties": {
        "dataControl": {
          "type": "array",
          "description": "The 3 options for data control are 1. allDataBlock - block all data including whitelist[productSpecificationId=FTOnDeviceDataBlocked] 2. partialDataBlock-block all data except whiteList[productSpecificationId=FTOnlyWhiteList]. 3.  When both Options 1 & 2 are set to FALSE then noDataBlock is set to True.  ",
          "items": {
            "$ref": "#/definitions/Settings"
          },
          "x-example": "/*ToDO*/ Some Example"
        },
        "bingeOn": {
          "type": "object",
          "description": "binge on and data maximizer are interchangeably used. Based on the plan type UI displays the feature name as binge-on or Data Maximizer",
          "properties": {
            "status": {
              "type": "boolean",
              "description": "when TRUE this feature is Enabled ",
              "x-example": "/*ToDO*/ Some Example",
              "enum": [
                true,
                false
              ]
            },
            "bingeOnEligibility": {
              "type": "boolean",
              "description": "when this is TURE then the plan on this line is eligible for the bing-on / data maximizer feature",
              "x-example": "/*ToDO*/ Some Example",
              "enum": [
                true,
                false
              ]
            }
          },
          "x-example": "/*ToDO*/ Some Example"
        },
        "roaming": {
          "type": "array",
          "description": "The other blocking control options are 1. raoming - Block usage while traveling internationally [FT$VoiceBlocked]",
          "items": {
            "$ref": "#/definitions/Settings"
          },
          "x-example": "/*ToDO*/ Some Example"
        },
        "internationalCalling": {
          "type": "array",
          "description": "The other blocking control options are 1. raoming - Block usage while traveling internationally [FT$VoiceBlocked]",
          "items": {
            "$ref": "#/definitions/Settings"
          },
          "x-example": "/*ToDO*/ Some Example"
        },
        "blockOtherControls": {
          "type": "array",
          "description": "sMSAndMms - Block sending and receving SMS/MMS[] 4. voiceMail[]",
          "items": {
            "$ref": "#/definitions/Settings"
          },
          "x-example": "/*ToDO*/ Some Example"
        }
      },
      "description": "/*ToDo*/ Some description",
      "x-example": "/*ToDO*/ Some Example"
    },
    "FamilyControls": {
      "type": "array",
      "description": "The options under Family Controls are 1. child = [productSpecificationId=FTWebGuardChild], 2. teen = [productSpecificationId=FTWebGuardTeen],3. youngAdult = [productSpecificationId=FTWebGuardTeen], 4.adult= = [productSpecificationId=FTWebGuardAdult]",
      "items": {
        "$ref": "#/definitions/Settings"
      },
      "x-example": "/*ToDO*/ Some Example"
    }
  },
  "securityDefinitions": {
    "Oauth": {
      "type": "oauth2",
      "description": "When you sign up for an account, you are given your first API key\n",
      "tokenUrl": "https://dlab03.core.op.api.t-mobile.com:443/v2/oauth2/accesstoken?grant_type=client_credentials",
      "flow": "application",
      "scopes": {}
    }
  }
}