@startuml
box "Products and Services"
database "MPM"
database "Elastic Search"
participant "International Calling\nAPI"
end box
participant "Apigee"
participant "T-Mobile.com"
"MPM" -> "Elastic Search": REST Adapter
"Elastic Search" -> "International Calling\nAPI": Rabbit MQ
group Get List of International Regions
"T-Mobile.com" -> "Apigee": /international-calling-regions
Note right
The region type Country-Destination is implied
Regions with a region.status of inactive are not returned
end note
"Apigee" -> "International Calling\nAPI"
"International Calling\nAPI" -> "Apigee"
"Apigee" -> "T-Mobile.com": Returns array of international calling regions 
Note right
For each region: aliases, regionCode and regionName
end note
end
group Get Calling Rates for a Region
"T-Mobile.com" -> "Apigee": /international-calling-regions/<regionCode>
"Apigee" -> "International Calling\nAPI"
"International Calling\nAPI" -> "Apigee"
"Apigee" -> "T-Mobile.com": Returns calling rates for region

end
@enduml
