@startuml
actor "Retail User"
box "Device Comparison Tool"
participant "Web UI"
database "Backend"
end box
box MPM APIs
participant "Devices API"
end box

group Render details to UI
"Retail User" -> "Web UI": Launch Tool
"Web UI" -> "Backend": Fetch Device Model List
"Backend" -> "Web UI": Return Device Models
else Compare Devices
"Retail User"-> "Web UI": Select devices to compare
"Web UI" -> "Backend": Fetch Device Details
"Backend"->"Web UI": Return Device Details
end
group Update Device Comparison Tool Cache
"Backend"-> "Backend": Every 15 minutes
"Backend" -> "Devices API": filter=SellableOnly&channel=Retail&start=1&limit=1000\nif-modified-since
note over "Devices API"
deviceModelSpecs
 -identifier[deviceModelSpecId]
 -name
 -review
 -manufacturers
 -battery
 -dataConnectivityOptions
 -protocols
 -technicalSpecification
 -ports
 -cameras
 -classification
deviceVariantSpecs
 -displayBadges
 -identifier[sku]
 -technicalSpecification
 -colorSpecification
 -fullRetailPrice
 -boxContents
 -physicalDimension
 -screen
 -deviceTier
 -images
end note
else Cache Hit
"Devices API" -> "Backend": 304 (Empty Payload)
else Cache Miss
"Devices API" -> "Backend": 200 - Return Devices\nnew last-modified
"Backend" -> "Backend": Update cache\nupdate last-modified
end



@enduml
