{
  "swagger": "2.0",
  "info": {
    "description": "This Swagger lists the definition of 2 system APIs that constitute the SOA system capability in TETRA. These APIs will individually provide the Vendor Details, Location Details & TAC Details.",
    "version": "1.0.0",
    "title": "TETRA - SOA System APIs",
    "termsOfService": "https://www.t-mobile.com/Templates/Popup.aspx?PAsset=Ftr_Ftr_TermsOfUse&print=true",
    "contact": {
      "name": "SOA Team",
      "email": "SOATEAM@t-mobile.com",
      "url": "http://"
    },
    "license": {
      "name": "T-Mobile",
      "url": "https://www.t-mobile.com/Templates/Popup.aspx?PAsset=Ftr_Ftr_TermsOfUse&print=true"
    }
  },
  "host": "tmobileb-sb01.apigee.net",
  "basePath": "/supplychain-sys/v1",
  "x-servers": [
    {
      "url": "https://tmobileb-sb01.apigee.net/supplychain-assessment/v1",
      "description": "Sandbox Server"
    },
    {
      "url": "https://api.t-mobile.com/supplychain-assessment/v1",
      "description": "Live Server"
    }
  ],
  "tags": [
    {
      "name": "vendor-details-view",
      "description": "Access to Vendor Details"
    },
    {
      "name": "location-details-view",
      "description": "Access to Location Details"
    },
    {
      "name": "tac-details-view",
      "description": "Access to TAC Details"
    }
  ],
  "schemes": [
    "https"
  ],
  "paths": {
      "/sys/vendor-details-view": {
        "post": {
          "tags": [
            "vendor-details-view"
          ],
          "x-api-pattern": "CreateInCollection",
          "summary": "Get Vendor Details By Vendor Code",
          "description": "This system API will return Vendor details for given Vendor Code",
          "operationId": "getVendorDetailsPostUsingPOST",
          "consumes": [
            "application/json"
          ],
          "produces": [
            "application/json"
          ],
          "security": [
            {
              "Oauth": [
                "read:Sys"
              ]
            }
          ],
          "parameters": [
            {
              "in": "body",
              "name": "vendor-details-view",
              "description": "Request with Vendor Code to find Vendor Details.",
              "schema": {
                "type": "object",
                "properties": {
                  "vendorCode": {
                    "type": "string",
                    "maxLength": 10,
                    "pattern": "[a-zA-Z0-9]{1,10}",
                    "x-required": true,
                    "example": "510E",
                    "description": "This field will accept valid Vendor Code to fetch Vendor Details."
                  }
                },
                "example": {
                  "vendorCode": "510E"
                }
              }
            },
            {
              "name": "Authorization",
              "in": "header",
              "description": "OAuth 2.0 access token with the authentication type set as Bearer.",
              "x-example": "Basic 123123123",
              "enum": [
                "Basic",
                "High"
              ],
              "required": true,
              "type": "string"
            },
            {
              "name": "Content-Type",
              "in": "header",
              "description": "The Content-Length header specifies the actual length of the returned payload.",
              "enum": [
                "text/html",
                "application/json"
              ],
              "x-example": "text/xml",
              "required": true,
              "type": "string"
            },
            {
              "name": "If-Match",
              "in": "header",
              "description": "The If-Match header specifies an ETag-related condition to be placed on the execution of a request.  The request will only be executed if the ETag of the requested resource matches one of those specified in the If-Match header.  Because the behavior is complex, the details for usage are provided at http://www.w3.org/Protocols/rfc2616/rfc2616-sec14.html .",
              "required": false,
              "type": "string",
              "x-example": "xxyyzz"
            },
            {
              "name": "If-None-Match",
              "in": "header",
              "description": "The If-None-Match header specifies an ETag-related condition to be placed on the execution of a request.  The request will NOT be executed if the ETag of the requested resource matches one of those specified in the If-None-Match header.  Because the behavior is complex, the details for usage are provided at http://www.w3.org/Protocols/rfc2616/rfc2616-sec14.html",
              "required": false,
              "type": "string",
              "x-example": "xxyyzz"
            }
          ],
          "responses": {
            "201": {
              "description": "Success",
              "headers": {
                "ETag": {
                  "description": "The ETag header specifies the unique entity tag value for the returned resource.",
                  "type": "string",
                  "x-example": "Unique entity tag"
                },
                "Cache-Control": {
                  "description": "no-cache",
                  "type": "string",
                  "x-example": "no-cache"
                },
                "Content-Type": {
                  "description": "The Content-Type header specifies the actual type of the returned payload.",
                  "x-example": "text/xml",
                  "type": "string"
                },
                "Location": {
                  "description": "The Location header specifies the URI of a created resource, or redirects the API consumer to an alternate resource location.",
                  "x-example": "http://api.t-mo.com/order-mgmt/v1/orders/123xyz-0/status",
                  "type": "string"
                },
                "Date": {
                  "description": "The Date header specifies the actual date of the returned payload.",
                  "x-example": "yyyymmdd 20160623",
                  "type": "string"
                }
              },
              "schema": {
                "$ref": "#/definitions/VendorDetailsViewResponse"
              },
              "examples": {
                "application/json": {
                  "vendorCode": "510E",
                  "vendorName": "Grant Ave & McIntosh Dr",
                  "vendorLocations": [
                    {
                      "buildingNumberCode": "Fifth",
                      "buildingFloor": "Second",
                      "region": "NY",
                      "poBox": "",
                      "poBoxPostalCode": "13021-1403",
                      "countryKey": "US"
                    }
                  ],
                  "vendorContactDetails": [
                    {
                      "firstName": "Marcy",
                      "numberOfContactPerson": "2025550162",
                      "firstTelephoneNumber": "(910)392-3014",
                      "primaryTelephoneNumber": "(910)392-3014",
                      "emailAddress": "RetailStore510E@T-Mobile.com",
                      "faxNumber": "1-408-999 8888"
                    }
                  ],
                  "repairValidityDays": 1,
                  "purchasingOrganization": "GAM",
                  "vendorAccountGroup": "BUSN",
                  "companyCode": "E510",
                  "tmoAccountNumber": "TMO510E",
                  "vendorStatusPostingBlock": "C",
                  "vendorStatusPurchBlock": "C",
                  "vendorStatusFunctionBlocked": "04",
                  "vendorStatusFunctionBlockDesc": "Block Function 04",
                  "vendorStatusCentralFlagForMaster": "N",
                  "vendorStatusCentralBlockForMaster": "N",
                  "typeOfVendor": "",
                  "vendorTerms": "115"
                }
              }
            },
            "204": {
              "description": "No content found for the provided input(s) – Vendor Code: XXXXXXXXXX"
            },
            "400": {
              "description": "Bad Request",
              "schema": {
                "$ref": "#/definitions/Errors"
              },
              "examples": {
                "application/json": [
                  {
                    "statusCode": "400",
                    "userMessage": "Bad Request",
                    "systemMessage": "Bad Request"
                  }
                ]
              }
            },
            "401": {
              "description": "Unauthorized",
              "schema": {
                "$ref": "#/definitions/Errors"
              },
              "examples": {
                "application/json": [
                  {
                    "statusCode": "401",
                    "userMessage": "Unauthorised Access",
                    "systemMessage": "Unauthorised Access"
                  }
                ]
              }
            },
            "403": {
              "description": "Forbidden",
              "schema": {
                "$ref": "#/definitions/Errors"
              },
              "examples": {
                "application/json": [
                  {
                    "statusCode": "403",
                    "userMessage": "Access Denied",
                    "systemMessage": "Forbidden"
                  }
                ]
              }
            },
            "404": {
              "description": "The resource not found",
              "schema": {
                "$ref": "#/definitions/Errors"
              },
              "examples": {
                "application/json": [
                  {
                    "statusCode": "404",
                    "userMessage": "The resource not found",
                    "systemMessage": "The resource not found"
                  }
                ]
              }
            },
            "405": {
              "description": "Method Not Allowed",
              "headers": {
                "Allow": {
                  "description": "Allow header containing a list of valid methods for the requested resource.",
                  "type": "string",
                  "x-example": "GET,POST"
                }
              },
              "schema": {
                "$ref": "#/definitions/Errors"
              },
              "examples": {
                "application/json": [
                  {
                    "statusCode": "405",
                    "userMessage": "Method Not Allowed",
                    "systemMessage": "Method Not Allowed"
                  }
                ]
              }
            },
            "406": {
              "description": "Not Acceptable",
              "schema": {
                "$ref": "#/definitions/Errors"
              },
              "examples": {
                "application/json": [
                  {
                    "statusCode": "406",
                    "userMessage": "Not Acceptable",
                    "systemMessage": "Not Acceptable"
                  }
                ]
              }
            },
            "409": {
              "description": "Vendor Code [ XXXXXXXXXX ] is invalid. Correct Vendor Code can be of 1 to 10 character alphanumeric ",
              "schema": {
                "$ref": "#/definitions/Errors"
              },
              "examples": {
                "application/json": [
                  {
                    "statusCode": "409",
                    "userMessage": "Conflict - Invalid Input",
                    "systemMessage": "Conflict - Invalid Input"
                  }
                ]
              }
            },
            "415": {
              "description": "Unsupported Media Type",
              "schema": {
                "$ref": "#/definitions/Errors"
              },
              "examples": {
                "application/json": [
                  {
                    "statusCode": "415",
                    "userMessage": "Unsupported Media Type",
                    "systemMessage": "Unsupported Media Type"
                  }
                ]
              }
            },
            "500": {
              "description": "Internal Server Error",
              "schema": {
                "$ref": "#/definitions/Errors"
              },
              "examples": {
                "application/json": [
                  {
                    "code": "500",
                    "userMessage": "Internal Server Error",
                    "systemMessage": "Internal Server Error"
                  }
                ]
              }
            },
            "503": {
              "description": "Service Unavailable",
              "schema": {
                "$ref": "#/definitions/Errors"
              },
              "examples": {
                "application/json": [
                  {
                    "statusCode": "503",
                    "userMessage": "Service Unavailable",
                    "systemMessage": "Service Unavailable"
                  }
                ]
              }
            }
          }
        }
      },
      "/sys/location-details-view": {
        "post": {
          "tags": [
            "location-details-view"
          ],
          "x-api-pattern": "CreateInCollection",
          "summary": "Get Location Details By Location ID",
          "description": "This system API will return Location details for given Location ID",
          "operationId": "getLocationDetailsUsingPOST",
          "consumes": [
            "application/json"
          ],
          "produces": [
            "application/json"
          ],
          "security": [
            {
              "Oauth": [
                "read:Sys"
              ]
            }
          ],
          "parameters": [
            {
              "in": "body",
              "name": "location-details-view",
              "description": "Request with Location ID to find Location Details.",
              "schema": {
                "type": "object",
                "properties": {
                  "locationId": {
                    "type": "string",
                    "maxLength": 4,
                    "pattern": "[a-zA-Z0-9]{1,4}",
                    "x-required": true,
                    "example": "2140",
                    "description": "This field will accept valid LocationID to fetch Location Details."
                  }
                },
                "example": {
                  "locationId": "2140"
                }
              }
            },
            {
              "name": "Authorization",
              "in": "header",
              "description": "OAuth 2.0 access token with the authentication type set as Bearer.",
              "x-example": "Basic 123123123",
              "enum": [
                "Basic",
                "High"
              ],
              "required": true,
              "type": "string"
            },
            {
              "name": "Content-Type",
              "in": "header",
              "description": "The Content-Length header specifies the actual length of the returned payload.",
              "enum": [
                "text/html",
                "application/json"
              ],
              "x-example": "text/xml",
              "required": true,
              "type": "string"
            },
            {
              "name": "If-Match",
              "in": "header",
              "description": "The If-Match header specifies an ETag-related condition to be placed on the execution of a request.  The request will only be executed if the ETag of the requested resource matches one of those specified in the If-Match header.  Because the behavior is complex, the details for usage are provided at http://www.w3.org/Protocols/rfc2616/rfc2616-sec14.html .",
              "required": false,
              "type": "string",
              "x-example": "xxyyzz"
            },
            {
              "name": "If-None-Match",
              "in": "header",
              "description": "The If-None-Match header specifies an ETag-related condition to be placed on the execution of a request.  The request will NOT be executed if the ETag of the requested resource matches one of those specified in the If-None-Match header.  Because the behavior is complex, the details for usage are provided at http://www.w3.org/Protocols/rfc2616/rfc2616-sec14.html",
              "required": false,
              "type": "string",
              "x-example": "xxyyzz"
            }
          ],
          "responses": {
            "201": {
              "description": "Success",
              "headers": {
                "ETag": {
                  "description": "The ETag header specifies the unique entity tag value for the returned resource.",
                  "type": "string",
                  "x-example": "Unique entity tag"
                },
                "Cache-Control": {
                  "description": "no-cache",
                  "type": "string",
                  "x-example": "no-cache"
                },
                "Content-Type": {
                  "description": "The Content-Type header specifies the actual type of the returned payload.",
                  "x-example": "text/xml",
                  "type": "string"
                },
                "Location": {
                  "description": "The Location header specifies the URI of a created resource, or redirects the API consumer to an alternate resource location.",
                  "x-example": "http://api.t-mo.com/order-mgmt/v1/orders/123xyz-0/status",
                  "type": "string"
                },
                "Date": {
                  "description": "The Date header specifies the actual date of the returned payload.",
                  "x-example": "yyyymmdd 20160623",
                  "type": "string"
                }
              },
              "schema": {
                "$ref": "#/definitions/LocationDetailsViewResponse"
              },
              "examples": {
                "application/json": {
                  "locationType": "Store",
                  "locationId": "9510",
                  "Address": {
                    "street": "1908 N IL RTE 83",
                    "city": "ROUND LAKE BEACH",
                    "state": "IL",
                    "zip": "60073",
                    "country": "US"
                  },
                  "area": "North Central",
                  "district": "Illinois North",
                  "region": "Illinois North/Wisconsin",
                  "category": "Corporate",
                  "channel": "Retail",
                  "closeDate": "yyyymmdd  ",
                  "companyCode": "V041",
                  "email": [
                    {
                      "emailId": "RetailStore9510@T-Mobile.com",
                      "isDefault": "true"
                    }
                  ],
                  "openDate": "yyyymmdd 20081201",
                  "partner": "T-MOBILE",
                  "reLocationDate": "yyyymmdd ",
                  "shortName": "T-MOBILE 9510",
                  "storeLocationIdentifier": "0001",
                  "storeStatus": "Open",
                  "storeManager": "Oswaldo Marin",
                  "storeModel": "GDC Evolution",
                  "storeName": "RT 83 & ROLLINS RD",
                  "storeType": "STRIP IN-LINE",
                  "subCategory": "NONE",
                  "timeZone": "CST",
                  "costCenter": "V041-61410020-1359510"
                }
              }
            },
            "204": {
              "description": "No content found for the provided input(s) – Location ID: XXXX"
            },
            "400": {
              "description": "Bad Request",
              "schema": {
                "$ref": "#/definitions/Errors"
              },
              "examples": {
                "application/json": [
                  {
                    "statusCode": "400",
                    "userMessage": "Bad Request",
                    "systemMessage": "Bad Request"
                  }
                ]
              }
            },
            "401": {
              "description": "Unauthorized",
              "schema": {
                "$ref": "#/definitions/Errors"
              },
              "examples": {
                "application/json": [
                  {
                    "statusCode": "401",
                    "userMessage": "Unauthorised Access",
                    "systemMessage": "Unauthorised Access"
                  }
                ]
              }
            },
            "403": {
              "description": "Forbidden",
              "schema": {
                "$ref": "#/definitions/Errors"
              },
              "examples": {
                "application/json": [
                  {
                    "statusCode": "403",
                    "userMessage": "Access Denied",
                    "systemMessage": "Forbidden"
                  }
                ]
              }
            },
            "404": {
              "description": "The resource not found",
              "schema": {
                "$ref": "#/definitions/Errors"
              },
              "examples": {
                "application/json": [
                  {
                    "statusCode": "404",
                    "userMessage": "The resource not found",
                    "systemMessage": "The resource not found"
                  }
                ]
              }
            },
            "405": {
              "description": "Method Not Allowed",
              "headers": {
                "Allow": {
                  "description": "Allow header containing a list of valid methods for the requested resource.",
                  "type": "string",
                  "x-example": "GET,POST"
                }
              },
              "schema": {
                "$ref": "#/definitions/Errors"
              },
              "examples": {
                "application/json": [
                  {
                    "statusCode": "405",
                    "userMessage": "Method Not Allowed",
                    "systemMessage": "Method Not Allowed"
                  }
                ]
              }
            },
            "406": {
              "description": "Not Acceptable",
              "schema": {
                "$ref": "#/definitions/Errors"
              },
              "examples": {
                "application/json": [
                  {
                    "statusCode": "406",
                    "userMessage": "Not Acceptable",
                    "systemMessage": "Not Acceptable"
                  }
                ]
              }
            },
            "409": {
              "description": "Location ID [ XXXX ] is invalid. Correct Location ID can be of 1 to 4 character alphanumeric ",
              "schema": {
                "$ref": "#/definitions/Errors"
              },
              "examples": {
                "application/json": [
                  {
                    "statusCode": "409",
                    "userMessage": "Conflict - Invalid Input",
                    "systemMessage": "Conflict - Invalid Input"
                  }
                ]
              }
            },
            "415": {
              "description": "Unsupported Media Type",
              "schema": {
                "$ref": "#/definitions/Errors"
              },
              "examples": {
                "application/json": [
                  {
                    "statusCode": "415",
                    "userMessage": "Unsupported Media Type",
                    "systemMessage": "Unsupported Media Type"
                  }
                ]
              }
            },
            "500": {
              "description": "Internal Server Error",
              "schema": {
                "$ref": "#/definitions/Errors"
              },
              "examples": {
                "application/json": [
                  {
                    "code": "500",
                    "userMessage": "Internal Server Error",
                    "systemMessage": "Internal Server Error"
                  }
                ]
              }
            },
            "503": {
              "description": "Service Unavailable",
              "schema": {
                "$ref": "#/definitions/Errors"
              },
              "examples": {
                "application/json": [
                  {
                    "statusCode": "503",
                    "userMessage": "Service Unavailable",
                    "systemMessage": "Service Unavailable"
                  }
                ]
              }
            }
          }
        }
      },
      "/sys/tac-details-view": {
        "post": {
          "tags": [
            "tac-details-view"
          ],
          "x-api-pattern": "CreateInCollection",
          "summary": "Get TAC Details By tac code",
          "description": "This system API will return TAC details for given tac code",
          "operationId": "getTacDetailsUsingPOST",
          "consumes": [
            "application/json"
          ],
          "produces": [
            "application/json"
          ],
          "security": [
            {
              "Oauth": [
                "read:Sys"
              ]
            }
          ],
          "parameters": [
            {
              "in": "body",
              "name": "tac-details-view",
              "description": "Request with tac code to find TAC Details.",
              "schema": {
    				  "type": "object",
    				  "properties": {
    					"tac": {
                  "type": "string",
                  "maxLength": 30,
                  "example": "11066842",
                  "description": "This field will return TAC value."
                },
      				  },
      				  "example": {
      					  "tac": "11066842"
      				  }
      				}
            },
            {
              "name": "Authorization",
              "in": "header",
              "description": "OAuth 2.0 access token with the authentication type set as Bearer.",
              "x-example": "Basic 123123123",
              "enum": [
                "Basic",
                "High"
              ],
              "required": true,
              "type": "string"
            },
            {
              "name": "Content-Type",
              "in": "header",
              "description": "The Content-Length header specifies the actual length of the returned payload.",
              "enum": [
                "text/html",
                "application/json"
              ],
              "x-example": "text/xml",
              "required": true,
              "type": "string"
            },
            {
              "name": "If-Match",
              "in": "header",
              "description": "The If-Match header specifies an ETag-related condition to be placed on the execution of a request.  The request will only be executed if the ETag of the requested resource matches one of those specified in the If-Match header.  Because the behavior is complex, the details for usage are provided at http://www.w3.org/Protocols/rfc2616/rfc2616-sec14.html .",
              "required": false,
              "type": "string",
              "x-example": "xxyyzz"
            },
            {
              "name": "If-None-Match",
              "in": "header",
              "description": "The If-None-Match header specifies an ETag-related condition to be placed on the execution of a request.  The request will NOT be executed if the ETag of the requested resource matches one of those specified in the If-None-Match header.  Because the behavior is complex, the details for usage are provided at http://www.w3.org/Protocols/rfc2616/rfc2616-sec14.html",
              "required": false,
              "type": "string",
              "x-example": "xxyyzz"
            }
          ],
          "responses": {
            "201": {
              "description": "Success",
              "headers": {
                "ETag": {
                  "description": "The ETag header specifies the unique entity tag value for the returned resource.",
                  "type": "string",
                  "x-example": "Unique entity tag"
                },
                "Cache-Control": {
                  "description": "no-cache",
                  "type": "string",
                  "x-example": "no-cache"
                },
                "Content-Type": {
                  "description": "The Content-Type header specifies the actual type of the returned payload.",
                  "x-example": "text/xml",
                  "type": "string"
                },
                "Location": {
                  "description": "The Location header specifies the URI of a created resource, or redirects the API consumer to an alternate resource location.",
                  "x-example": "http://api.t-mo.com/order-mgmt/v1/orders/123xyz-0/status",
                  "type": "string"
                },
                "Date": {
                  "description": "The Date header specifies the actual date of the returned payload.",
                  "x-example": "yyyymmdd 20160623",
                  "type": "string"
                }
              },
              "schema": {
                "$ref": "#/definitions/TacDetailsViewResponse"
              },
              "examples": {
                "application/json": {
                "result": {
                    "tac": "11066842",
                    "tmoApprovedTac": "tmoapproved",
                    "model": "Galaxy S7",
                    "manufacturer": "Samsung",
                    "issuedDate": "2017-04-02",
                    "is1900Comp": "4g",
                    "is1800Comp": "4glte",
                    "is900Comp": "2g",
                    "is850Comp": "2g",
                    "ampsComp": "enabled",
                    "gprsEnabled": true,
                    "tmoShipped": "In-Transit",
                    "tmoFirstShipDate": "2017-04-03"
                },
                "errors": null,
                "status": "SUCCESS",
                "statusCode": "200"
            }
            }
          },
          "204": {
            "description": "No content found for the provided input(s) – tac: XXXX"
          },
          "400": {
            "description": "Bad Request",
            "schema": {
              "$ref": "#/definitions/Errors"
            },
            "examples": {
              "application/json": [
                {
                  "statusCode": "400",
                  "userMessage": "Bad Request",
                  "systemMessage": "Bad Request"
                }
              ]
            }
          },
          "401": {
            "description": "Unauthorized",
            "schema": {
              "$ref": "#/definitions/Errors"
            },
            "examples": {
              "application/json": [
                {
                  "statusCode": "401",
                  "userMessage": "Unauthorised Access",
                  "systemMessage": "Unauthorised Access"
                }
              ]
            }
          },
          "403": {
            "description": "Forbidden",
            "schema": {
              "$ref": "#/definitions/Errors"
            },
            "examples": {
              "application/json": [
                {
                  "statusCode": "403",
                  "userMessage": "Access Denied",
                  "systemMessage": "Forbidden"
                }
              ]
            }
          },
          "404": {
            "description": "The resource not found",
            "schema": {
              "$ref": "#/definitions/Errors"
            },
            "examples": {
              "application/json": [
                {
                  "statusCode": "404",
                  "userMessage": "The resource not found",
                  "systemMessage": "The resource not found"
                }
              ]
            }
          },
          "405": {
            "description": "Method Not Allowed",
            "headers": {
              "Allow": {
                "description": "Allow header containing a list of valid methods for the requested resource.",
                "type": "string",
                "x-example": "GET,POST"
              }
            },
            "schema": {
              "$ref": "#/definitions/Errors"
            },
            "examples": {
              "application/json": [
                {
                  "statusCode": "405",
                  "userMessage": "Method Not Allowed",
                  "systemMessage": "Method Not Allowed"
                }
              ]
            }
          },
          "406": {
            "description": "Not Acceptable",
            "schema": {
              "$ref": "#/definitions/Errors"
            },
            "examples": {
              "application/json": [
                {
                  "statusCode": "406",
                  "userMessage": "Not Acceptable",
                  "systemMessage": "Not Acceptable"
                }
              ]
            }
          },
          "409": {
            "description": "TAC [ XXXX ] is invalid. TAC [1106   1189] is invalid. Correct TAC can be 8 digits with correct check digit ",
            "schema": {
              "$ref": "#/definitions/Errors"
            },
            "examples": {
              "application/json": [
                {
                  "statusCode": "409",
                  "userMessage": "Conflict - Invalid Input",
                  "systemMessage": "Conflict - Invalid Input"
                }
              ]
            }
          },
          "415": {
            "description": "Unsupported Media Type",
            "schema": {
              "$ref": "#/definitions/Errors"
            },
            "examples": {
              "application/json": [
                {
                  "statusCode": "415",
                  "userMessage": "Unsupported Media Type",
                  "systemMessage": "Unsupported Media Type"
                }
              ]
            }
          },
          "500": {
            "description": "Internal Server Error",
            "schema": {
              "$ref": "#/definitions/Errors"
            },
            "examples": {
              "application/json": [
                {
                  "code": "500",
                  "userMessage": "Internal Server Error",
                  "systemMessage": "Internal Server Error"
                }
              ]
            }
          },
          "503": {
            "description": "Service Unavailable",
            "schema": {
              "$ref": "#/definitions/Errors"
            },
            "examples": {
              "application/json": [
                {
                  "statusCode": "503",
                  "userMessage": "Service Unavailable",
                  "systemMessage": "Service Unavailable"
                }
              ]
            }
          }
        }
      }
      
    }
  },
  "definitions": {
    "VendorDetailsView": {
      "type": "object",
      "description": "Request for vendor-details-view API",
      "properties": {
        "vendorCode": {
          "type": "string",
          "maxLength": 10,
          "pattern": "[a-zA-Z0-9]{1,10}",
          "x-required": true,
          "example": "510E",
          "description": "This field will accept valid Vendor Code to fetch Vendor Details."
        }
      }
    },
    "VendorDetailsViewResponse": {
      "type": "object",
      "description": "Response of vendor-details-view API",
      "properties": {
        "vendorCode": {
          "type": "string",
          "maxLength": 10,
          "example": "510E",
          "description": "This field will return valid Vendor Code for the vendor."
        },
        "vendorName": {
          "type": "string",
          "maxLength": 50,
          "example": "Grant Ave & McIntosh Dr",
          "description": "This field will return name of the vendor."
        },
        "vendorLocations": {
          "type": "array",
          "description": "Vendor Locations",
          "items": {
            "type": "object",
            "description": "Vendor location record",
            "properties": {
              "buildingCode": {
                "type": "string",
                "maxLength": 100,
                "example": "Fifth",
                "description": "This field will return building number for the vendor location."
              },
              "buildingFloor": {
                "type": "string",
                "maxLength": 10,
                "example": "Second",
                "description": "This field will return the floor in building at vendor location."
              },
              "region": {
                "type": "string",
                "maxLength": 50,
                "example": "NY",
                "description": "This field will return the region of the vendor location."
              },
              "countryKey": {
                "type": "string",
                "maxLength": 10,
                "example": "US",
                "description": "This field will return the country key for the vendor location."
              },
              "poBox": {
                "type": "string",
                "maxLength": 20,
                "example": "",
                "description": "This field will return the PO Box for the vendor location."
              },
              "poBoxPostalCode": {
                "type": "string",
                "maxLength": 10,
                "example": "13021-1403",
                "description": "This field will return the postal code for the vendor location."
              }
            }
          }
        },
        "vendorContactDetails": {
          "type": "array",
          "description": "Vendor Contact Details",
          "items": {
            "type": "object",
            "description": "Vendor contact record",
            "properties": {
              "firstName": {
                "type": "string",
                "maxLength": 50,
                "example": "Marcy",
                "description": "This field will return the first name of the contct person for vendor."
              },
              "numberOfContactPerson": {
                "type": "string",
                "maxLength": 15,
                "example": "2025550162",
                "description": "This field will return the number of the contact person for the vendor."
              },
              "firstTelephoneNumber": {
                "type": "string",
                "maxLength": 15,
                "example": "(910)392-3014",
                "description": "This field will return the first telephone number of the contact person for the vendor."
              },
              "primaryTelephoneNumber": {
                "type": "string",
                "maxLength": 15,
                "example": "(910)392-3014",
                "description": "This field will return the primary telephone number of the contact person for the vendor."
              },
              "emailAddress": {
                "type": "string",
                "maxLength": 50,
                "example": "RetailStore510E@T-Mobile.com",
                "description": "This field will return the e-mail id of the contact person for the vendor."
              },
              "faxNumber": {
                "type": "string",
                "maxLength": 15,
                "example": "1-408-999 8888",
                "description": "This field will return the fax number of the contact person for the vendor."
              }
            }
          }
        },
        "vendorStatusPostingBlock": {
          "type": "string",
          "maxLength": 1,
          "example": "C",
          "description": "This field will return the posting block status of the vendor."
        },
        "vendorStatusPurchBlock": {
          "type": "string",
          "maxLength": 1,
          "example": "C",
          "description": "This field will return the purchasing block status of the vendor."
        },
        "vendorStatusFunctionBlocked": {
          "type": "string",
          "maxLength": 10,
          "example": "04",
          "description": "This field will return the functional block status of the vendor."
        },
        "vendorStatusFunctionBlockDesc": {
          "type": "string",
          "maxLength": 100,
          "example": "Block Function 04",
          "description": "This field will return the description for functional block status for the vendor."
        },
        "vendorStatusCentralFlagForMaster": {
          "type": "string",
          "maxLength": 1,
          "example": "N",
          "description": "This field will return the central flag for master for the vendor."
        },
        "vendorStatusCentralBlockForMaster": {
          "type": "string",
          "maxLength": 1,
          "example": "N",
          "description": "This field will return the central block for master status for the vendor."
        },
        "typeOfVendor": {
          "type": "string",
          "maxLength": 50,
          "example": "",
          "description": "This field will return the type of the vendor."
        },
        "vendorTerms": {
          "type": "string",
          "maxLength": 50,
          "example": "115",
          "description": "This field will return the vendor terms."
        },
        "purchasingOrganization": {
          "type": "string",
          "maxLength": 100,
          "example": "GAM",
          "description": "This field will return the purchasing organization for the vendor."
        },
        "vendorAccountGroup": {
          "type": "string",
          "maxLength": 4,
          "example": "BUSN",
          "description": "This field will return the vendor account group."
        },
        "companyCode": {
          "type": "string",
          "maxLength": 50,
          "example": "E510",
          "description": "This field will return the company code for the vendor."
        },
        "tmoAccountNumber": {
          "type": "string",
          "maxLength": 50,
          "example": "TMO510E",
          "description": "This field will return the t-mobile account number for the vendor."
        },
        "repairValidityDays": {
          "type": "integer",
          "format": "int64",
          "minimum": 1,
          "maximum": 999999999,
          "example": 10,
          "description": "This field will return value of Repair Validity Days.             "
        }
      }
    },
    "LocationDetailsView": {
      "type": "object",
      "description": "Request for location-details-view API",
      "properties": {
        "locationId": {
          "type": "string",
          "maxLength": 4,
          "pattern": "[a-zA-Z0-9]{1,4}",
          "x-required": true,
          "example": "2140",
          "description": "This field will accept valid LocationId to fetch Location Details."
        }
      }
    },
    "LocationDetailsViewResponse": {
      "type": "object",
      "description": "Response of location-details-view API",
      "properties": {
        "locationType": {
          "type": "string",
          "maxLength": 150,
          "example": "store",
          "description": "This field will return type of Location.  "
        },
        "locationId": {
          "type": "string",
          "maxLength": 4,
          "example": "2140",
          "description": "This field will return valid Locarion ID to fetch Location Details."
        },
        "address": {
          "type": "object",
          "description": "Store Location record",
          "properties": {
            "street": {
              "type": "string",
              "maxLength": 200,
              "example": "925 BLOSSOM HILL RD",
              "description": "This field will return street address of the location."
            },
            "city": {
              "type": "string",
              "maxLength": 50,
              "example": "SAN JOSE",
              "description": "This field will return city of the location."
            },
            "state": {
              "type": "string",
              "maxLength": 50,
              "example": "CA",
              "description": "This field will return the state of the location."
            },
            "zip": {
              "type": "string",
              "maxLength": 20,
              "example": "95123-1230",
              "description": "This field will return the zip code of the location."
            },
            "country": {
              "type": "string",
              "maxLength": 50,
              "example": "USA",
              "description": "This field will return the country name of the location."
            }
          }
        },
        "area": {
          "type": "string",
          "maxLength": 150,
          "example": "Northwest",
          "description": "This field will return ths area of the location."
        },
        "district": {
          "type": "string",
          "maxLength": 150,
          "example": "TPR NorCal Bay Central",
          "description": "This field will return the district of the location."
        },
        "region": {
          "type": "string",
          "maxLength": 100,
          "example": "Bay Area",
          "description": "This field will return region name of the location."
        },
        "category": {
          "type": "string",
          "maxLength": 150,
          "example": "TPR",
          "description": "This field will return category of the location."
        },
        "channel": {
          "type": "string",
          "maxLength": 150,
          "example": "TPR",
          "description": "This field will return channel of the location."
        },
        "openDate": {
          "type": "string",
          "maxLength": 10,
          "example": "yyyymmdd 20111202",
          "description": "This field will return store open date."
        },
        "closeDate": {
          "type": "string",
          "maxLength": 10,
          "example": "yyyymmdd 20130224",
          "description": "This field will return store close date."
        },
        "reLocationDate": {
          "type": "string",
          "maxLength": 10,
          "example": "yyyymmdd 20120621",
          "description": "This field will return store relocation date."
        },
        "companyCode": {
          "type": "string",
          "maxLength": 50,
          "example": "831",
          "description": "This field will return company code."
        },
        "email": {
          "type": "array",
          "description": "Email",
          "items": {
            "type": "object",
            "description": "Email Record",
            "properties": {
              "emailId": {
                "type": "string",
                "maxLength": 100,
                "example": "RetailStore@T-Mobile.com",
                "description": "This field will return email ID of the Location."
              },
              "isDefault": {
                "type": "boolean",
                "maxLength": 10,
                "example": "true",
                "description": "This field will return whether the email ID is the default email ID."
              }
            }
          }
        },
        "partner": {
          "type": "string",
          "maxLength": 100,
          "example": "MobileOne LLC",
          "description": "This field will return partner name."
        },
        "shortName": {
          "type": "string",
          "maxLength": 100,
          "example": "T-MOBILE 2140",
          "description": "This field will return short name of the location."
        },
        "storeLocationIdentifier": {
          "type": "string",
          "maxLength": 50,
          "example": "",
          "description": "This field will return store location identifier."
        },
        "storeStatus": {
          "type": "string",
          "maxLength": 50,
          "example": "Closed",
          "description": "This field will return status of the store."
        },
        "storeManager": {
          "type": "string",
          "maxLength": 100,
          "example": "",
          "description": "This field will return store manager name."
        },
        "storeModel": {
          "type": "string",
          "maxLength": 100,
          "example": "Classic",
          "description": "This field will return store model."
        },
        "storeName": {
          "type": "string",
          "maxLength": 100,
          "example": "OAKRIDGE 2 - KIOSK",
          "description": "This field will return store name."
        },
        "storeType": {
          "type": "string",
          "maxLength": 100,
          "example": "MALL KIOSK",
          "description": "This field will return store type."
        },
        "subCategory": {
          "type": "string",
          "maxLength": 100,
          "example": "",
          "description": "This field will return sub category of the store."
        },
        "timeZone": {
          "type": "string",
          "maxLength": 100,
          "example": "PST",
          "description": "This field will return timezone of the store."
        },
        "costCenter": {
          "type": "string",
          "maxLength": 100,
          "example": "831-614100",
          "description": "This field will return cost center of the store."
        }
      }
    },
    "TacDetailsView": {
      "type": "object",
      "description": "Request for tac-details-view API",
      "properties": {
        "tac": {
  		  "type": "string",
  		  "maxLength": 30,
  		  "x-required": true,
  		  "example": "11066842",
  		  "description": "This field will accept valid tac code to fetch TAC Details."
        }
      }
    },
    "TacDetailsViewResponse": {
        "type": "object",
        "description": "Response of tac-details-view API",
        "properties": {
		    "tac": {
          "type": "string",
          "maxLength": 30,
          "example": "11066842",
          "description": "This field will return TAC value."
        },
        "tmoApprovedTac": {
    		  "type": "string",
    		  "maxLength": 20,
    		  "example": "tmoapproved",
    		  "description": "This field will return TMO Approved TAC."
    		},
        "model": {
    		  "type": "string",
    		  "maxLength": 100,
    		  "example": "Galaxy S7",
    		  "description": "This field will return name of the model."
    		},
        "manufacturer": {
    		  "type": "string",
    		  "maxLength": 90,
    		  "example": "Samsung",
    		  "description": "This field will return name of the manufacturer."
    		},
        "issuedDate": {
    		  "type": "string",
    		  "maxLength": 10,
    		  "example": "2017-04-02",
    		  "description": "This field will return issued date in YYYY-MM-DD format."
    		},
        "is1900Comp": {
    		  "type": "string",
    		  "maxLength": 20,
    		  "example": "4g",
    		  "description": "This field will return IS1900COMP value."
    		},
        "is1800Comp": {
    		  "type": "string",
    		  "maxLength": 20,
    		  "example": "4glte",
    		  "description": "This field will return IS1800COMP value."
    		},
        "is900Comp": {
    		  "type": "string",
    		  "maxLength": 20,
    		  "example": "2g",
    		  "description": "This field will return IS900COMP value."
    		},
        "is850Comp": {
    		  "type": "string",
    		  "maxLength": 20,
    		  "example": "2g",
    		  "description": "This field will return IS850COMP value."
    		},
        "ampsComp": {
    		  "type": "string",
    		  "maxLength": 20,
    		  "example": "enabled",
    		  "description": "This field will return Amps comp value."
    		},
        "gprsEnabled": {
    		  "type": "string",
    		  "maxLength": 20,
    		  "example": "true",
    		  "description": "This field will return GPRS Enabled status."
    		},
        "tmoShipped": {
    		  "type": "string",
    		  "maxLength": 20,
    		  "example": "In-Transit",
    		  "description": "This field will return TMO shipped value."
    		},
        "tmoFirstShipDate": {
    		  "type": "string",
    		  "maxLength": 10,
    		  "example": "2017-04-03",
    		  "description": "This field will return TMO first ship date in YYYY-MM-DD format."
    		}
      }
    },
    "Errors": {
      "description": "a collection of errors",
      "type": "array",
      "items": {
        "description": "Used to pass error information in a response.",
        "type": "object",
        "properties": {
          "statusCode": {
            "description": "Used to pass error codes",
            "type": "string"
          },
          "userMessage": {
            "description": "Used to pass human friendly information to the user.",
            "type": "string"
          },
          "systemMessage": {
            "description": "Used to pass system information.",
            "type": "string"
          }
        }
      }
    },
    "ResponseError": {
      "description": "Used to pass error information in a response.",
      "type": "object",
      "properties": {
        "statusCode": {
          "description": "Used to pass error codes",
          "type": "string"
        },
        "userMessage": {
          "description": "Used to pass human friendly information to the user.",
          "type": "string"
        },
        "systemMessage": {
          "description": "Used to pass system information.",
          "type": "string"
        }
      }
    }
  },
  "parameters": {
    "If-MatchParam": {
      "name": "If-Match",
      "in": "header",
      "description": "The If-Match header specifies an ETag-related condition to be placed on the execution of a request.  The request will only be executed if the ETag of the requested resource matches one of those specified in the If-Match header.  Because the behavior is complex, the details for usage are provided at http://www.w3.org/Protocols/rfc2616/rfc2616-sec14.html .",
      "required": false,
      "type": "string",
      "x-example": "xxyyzz"
    },
    "If-None-MatchParam": {
      "name": "If-None-Match",
      "in": "header",
      "description": "The If-None-Match header specifies an ETag-related condition to be placed on the execution of a request.  The request will NOT be executed if the ETag of the requested resource matches one of those specified in the If-None-Match header.  Because the behavior is complex, the details for usage are provided at http://www.w3.org/Protocols/rfc2616/rfc2616-sec14.html",
      "required": false,
      "type": "string",
      "x-example": "xxyyzz"
    }
  },
  "securityDefinitions": {
    "Oauth": {
      "type": "oauth2",
      "description": "When you sign up for an account, you are given your first API key.\nTo do so please follow this link: https://www.t-mobile.com/site/signup/\nAlso you can generate additional API keys, and delete API keys (as you may\nneed to rotate your keys in the future).\n",
      "tokenUrl": "https://tmobileb-sb01.apigee.net/v1/oauth2/accesstoken?grant_type=client_credentials",
      "flow": "application",
      "scopes": {
        "read:Sys": "Vendor Details, Location Details"
      }
    }
  }
}