﻿{
  "swagger": "2.0",
  "info": {
    "description": "This Swagger lists the definition of Facade API that constitute the DEVA capability in TETRA. These API will provide the composite responses of Device Disposition info, Serialized details, Usage details, Warranty details, Vendor details & sku master.",
    "version": "1.0.0",
    "title": "TETRA - Facade API",
    "termsOfService": "https://www.t-mobile.com/Templates/Popup.aspx?PAsset=Ftr_Ftr_TermsOfUse&print=true",
    "contact": {
      "name": "Created by - Vishwas Meghare, Reviewed by -",
      "email": "vishwas.meghare1@t-mobile.com",
      "url": "http://"
    },
    "license": {
      "name": "T-Mobile",
      "url": "https://www.t-mobile.com/Templates/Popup.aspx?PAsset=Ftr_Ftr_TermsOfUse&print=true"
    }
  },
  "host": "tmobileb-sb01.apigee.net",
  "basePath": "/supplychain-tetra/v2/",
  "x-servers": [
		{
			"url": "https://tmobileb-sb01.apigee.net/supplychain-assessment/v1",
			"description": "Sandbox Server"
		},
		{
			"url": "https://api.t-mobile.com/supplychain-assessment/v1",
			"description": "Live Server"
		}
	],
  "tags": [
    {
      "name": "device-details-view",
      "description": "Get device details "
    }
  ],
  "schemes": [
    "https"
  ],
  "paths": { 
	"/deva/device-details-view": {
      "post": {
        "tags": [
          "device-details-view"
        ],
		"x-api-pattern": "CreateInCollection",
        "summary": "A real time call will be triggered to get disposition code,   disposition reason, scenario and, inventory type. Through this FEDX API, user will able to get details of a device. One of the following 5 curated APIs will be called Device Disposition, Device Usage, Device Repairs, Device Returns & Device Warranty data.",
		"description": "This API will get Device details.",
        "operationId": "getDeviceDetailsUsingPOST",
        "consumes": [
          "application/json"
        ],
        "produces": [
          "application/json"
        ],
        "security": [
          {
            "Oauth": [
              "read:Deva"
            ]
          }
        ],
        "parameters": [
          {
            "in": "body",
            "name": "device-details-view",
            "description": "Request with Serial Number to find Device Details",
            "schema": {
              "$ref": "#/definitions/DeviceDetailsView"
            }
          },
          {
            "$ref": "#/parameters/If-MatchParam"
          },
          {
            "$ref": "#/parameters/If-None-MatchParam"
          },
		  {
			"name": "Authorization",
			"in": "header",
			"description": "OAuth 2.0 access token with the authentication type set as Bearer.",
			"x-example": "Basic 123123123",
			"enum": [
				"Basic",
				"High"
				],
			"required": true,
			"type": "string"
			},
		  {
			"name": "Content-Type",
			"in": "header",
			"description": "The Content-Length header specifies the actual length of the returned payload.",
			"enum": [
				"text/html",
				"application/json"
				],
			"x-example": "text/xml",
			"required": true,
			"type": "string"
		  },			
        ],
        "responses": {
          "200": {
            "description": "Success",
            "headers": {
              "ETag": {
                "description": "The ETag header specifies the unique entity tag value for the returned resource.",
                "type": "string",
                "x-example": "Unique entity tag"
              },
              "Cache-Control": {
                "description": "no-cache",
                "type": "string",
                "x-example": "no-cache"
              },
			  "Content-Type": {
				"description": "The Content-Type header specifies the actual type of the returned payload.",
				"x-example": "text/xml",
				"type": "string"
			  },
			  "Location": {
				"description": "The Location header specifies the URI of a created resource, or redirects the API consumer to an alternate resource location.",
				"x-example": "http://api.t-mo.com/order-mgmt/v1/orders/123xyz-0/status",
				"type": "string"
			  },
			  "Date": {
				"description": "The Date header specifies the actual date of the returned payload.",
				"x-example": "yyyymmdd 20160623",
				"type": "string"
			  },
            },
            "schema": {
			    "$ref": "#/definitions/DeviceDetailsViewResponse"
            }
          },
		  "201": {
            "description": "Success",
            "headers": {
              "ETag": {
                "description": "The ETag header specifies the unique entity tag value for the returned resource.",
                "type": "string",
                "x-example": "Unique entity tag"
              },
              "Cache-Control": {
                "description": "no-cache",
                "type": "string",
                "x-example": "no-cache"
              },
			  "Content-Type": {
				"description": "The Content-Type header specifies the actual type of the returned payload.",
				"x-example": "text/xml",
				"type": "string"
			  },
			  "Location": {
				"description": "The Location header specifies the URI of a created resource, or redirects the API consumer to an alternate resource location.",
				"x-example": "http://api.t-mo.com/order-mgmt/v1/orders/123xyz-0/status",
				"type": "string"
			  },
			  "Date": {
				"description": "The Date header specifies the actual date of the returned payload.",
				"x-example": "yyyymmdd 20160623",
				"type": "string"
			  },
            },
            "schema": {
              "$ref": "#/definitions/DeviceDetailsViewResponse"
            },
			"examples": {
				"application/json": {
				"code": "201",
				"userMessage": "Success",
				"systemMessage": "Success"
					}
			}
          },
          "204": {
            "description": "No content found for the provided input(s) – Serial Number: 123456789012345"
          },
          "400": {
            "description": "Bad Request",
            "schema": {			  
              "$ref": "#/definitions/errors"
            },
            "examples": {
              "application/json": [
                {
                  "statusCode": "400",
                  "userMessage": "Bad Request",
                  "systemMessage": "Bad Request"
                }
              ]
            }
          },
          "401": {
            "description": "Unauthorised Access",
            "schema": {
              "$ref": "#/definitions/errors"
            },
            "examples": {
				"application/json": {
					"code": "401",
					"userMessage": "Unauthorised Access",
					"systemMessage": "Unauthorised Access"
				}
            }
          },
          "403": {
            "description": "Forbidden",
            "schema": {
              "$ref": "#/definitions/errors"
            },
            "examples": {
              "application/json": 
                {
                  "statusCode": "403",
                  "userMessage": "Access Denied",
                  "systemMessage": "Forbidden"
                }
              
            }
          },
          "404": {
            "description": "The resource not found",
            "schema": {
              "$ref": "#/definitions/errors"
            },
            "examples": {
              "application/json": 
                {
                  "statusCode": "404",
                  "userMessage": "The resource not found",
                  "systemMessage": "The resource not found"
                }
              
            }
          },
		    "405": {
            "description": "Method Not Allowed",
			"headers": {
              "Allow": {
                "description": "Allow header containing a list of valid methods for the requested resource.",
                "type": "string",
                "x-example": "GET,POST"
              },
			},
            "schema": {
				"$ref": "#/definitions/errors"
            },
            "examples": {
              "application/json": [
                {
                  "statusCode": "405",
                  "userMessage": "Method Not Allowed",
                  "systemMessage": "Method Not Allowed"
                }
              ]
            }
          },
		  "406": {
            "description": "Not Acceptable",
            "schema": {
              "$ref": "#/definitions/errors"
            },
            "examples": {
              "application/json": [
                {
                  "statusCode": "406",
                  "userMessage": "Not Acceptable",
                  "systemMessage": "Not Acceptable"
                }
              ]
            }
          },
		  "415": {
            "description": "Unsupported Media Type",
            "schema": {
				"$ref": "#/definitions/errors"
            },
            "examples": {
              "application/json": [
                {
                  "statusCode": "415",
                  "userMessage": "Unsupported Media Type",
                  "systemMessage": "Unsupported Media Type"
                }
              ]
            }
          },
          "409": {
            "description": "Serial Number is invalid. Correct Serial Number can be of one of the following formats: IMEI - 15 digit with correct check digit; Signal booster & Wifi router - 15 digit; Smallcell device - 18 character alphanumeric",
            "schema": {
              "$ref": "#/definitions/errors"
            },
            "examples": {
              "application/json": 
                {
                  "statusCode": "409",
                  "userMessage": "Conflict - Invalid Input",
                  "systemMessage": "Conflict - Invalid Input"
                }
              
            }
          },
          "500": {
            "description": "Internal Server Error",
            "schema": {
              "$ref": "#/definitions/errors"
            },
            "examples": {
              "application/json": 
                {
                  "code": "500",
                  "userMessage": "Internal Server Error",
                  "systemMessage": "Internal Server Error"
                }
              
            }
          },
          "503": {
            "description": "Service Unavailable",
            "schema": {
              "$ref": "#/definitions/errors"
            },
            "examples": {
              "application/json": 
                {
                  "statusCode": "503",
                  "userMessage": "Service Unavailable",
                  "systemMessage": "Service Unavailable"
                }
              
            }
          }
        }
      }
    },
    
  },
  "definitions": {
	  "DeviceDetailsView": {
      "type": "object",
      "description": "Request for device-details-view API",
      "properties": {
        "serialNumber": {
          "type": "string",
          "maxLength": 30,
          "pattern": "[a-z0-9]{0,29}",
          "x-required": true,
          "example": 123456789012345,
          "description": "This field should contain unique Serial Number. Serial number can be of one of the following formats - IMEI - 15 digit with correct check digit; Signal booster & Wifi router - 15 digit; Smallcell device - 18 character alphanumeric"
        }
      }
    },
    "DeviceDetailsViewResponse": {
      "type": "object",
      "description": "Response of device-details-view API",
      "properties": {
	    "serialNumber": {
          "type": "string",
          "maxLength": 30,
		      "pattern": "[a-z0-9]{0,34}",
          "example": 123456789012345,
          "description": "This field should contain unique Serial Number(s) for which the return data is requested. It can be of one of the following formats - IMEI - 15 digit with correct check digit; Signal booster & Wifi router - 15 digit; Smallcell device - 18 character alphanumeric"
        },	  
        "scenario": {
          "type": "string",
          "maxLength": 20,
          "example": "TMISTO",
          "description": "This field will return unique Scenario describing the type of receipt of device"
        },
        "dispositionCode": {
          "type": "string",
          "maxLength": 2,
          "example": 7,
          "description": "This field will return unique disposition code"
        },
        "dispositionReason": {
          "type": "string",
          "maxLength": 260,
          "example": "SKU in exception list",
          "description": "This field will return the reason why this disposition code was returned."
        },
        "skuId": {
          "type": "string",
          "maxLength": 18,
          "example": 190198459183,
          "description": "This field will return the device SKU ID."
        },
		  "make": {
        "type": "string",
        "maxLength": 50,
        "example": "Apple",
        "description": "This field will return name of the make."
      },
      "model": {
  		  "type": "string",
  		  "maxLength": 100,
  		  "example": "s7",
  		  "description": "This field will return name of the model."
  		},
      "color": {
  		  "type": "string",
  		  "maxLength": 50,
  		  "example": "white",
  		  "description": "This field will return name of the color."
  		},
		  "deliveryNumber": {
  		  "type": "string",
  		  "maxLength": 20,
  		  "pattern": "[a-zA-Z0-9]{0,19}",
  		  "description": "This field will return the delivery number of the device."
  		},
  		"deliveryItemNum": {
  		  "type": "string",
  		  "maxLength": 20,
  		  "pattern": "[a-zA-Z0-9]{0,19}",
  		  "description": "This field will return the delivery item number of the device."
  		},
		  "supplyingLocation": {
  		  "type": "string",
  		  "maxLength": 100,
  		  "example": "13155 Noel Road, Suite 1600",
  		  "description": "This field will return the physical address of the supply location."
     	},
		  "returnAuthNumber": {
          "type": "string",
          "maxLength": 10,
          "example": "8273827237",
          "description": "This field will return number when customer orders the device."
        },
		  "returnDistributionChannel": {
          "type": "string",
          "maxLength": 2,
          "example": "RA",
          "description": "This field will return the distribution channel through which order is placed."
        },
		  "returnProgramCode": {
          "type": "string",
          "maxLength": 40,
          "example": "JUMP",
          "description": "This field will return the program under which T-Mobile sold or return the device."
        },
		  "returnShipmentTrackingNumber": {
          "type": "string",
          "maxLength": 10,
          "example": "8273827237",
          "description": "This field will return unique transaction number provided by logistics provider for tracking the shipment."
        },
  		"returnedById": {
  		  "type": "string",
  		  "maxLength": 20,
  		  "example": 10020345,
  		  "description": "This field will return the unique ID/Number of customer/store etc. returning the device."
  		},
		  "returnByLocation": {
        "type": "string",
        "maxLength": 50,
        "example": "B1 STORE, E STREET, US",
        "description": "This field will return returning store location or address."
      },
		  "returnedByType": {
  		  "type": "string",
  		  "maxLength": 20,
  		  "example": "Customer",
  		  "description": "This field will provide the information on who returned the device."
		  },
	    "originalSku": {
          "type": "string",
          "maxLength": 18,
          "example": 190198459183,
          "description": "This field will return the device original SKU ID."
        },
  		"rmaNumber": {
  		  "type": "string",
  		  "maxLength": 17,
  		  "pattern": "[a-zA-Z0-9]{0,16}",
  		  "description": "This field will return the RMA number of the device",
  		  "example": "JMP55350004107655"
  		},
		  "repairOrderNumber": {
          "type": "string",
          "maxLength": 35,
          "example": "R12324534553453342",
          "description": "This field will return the repair order number."
        },
		    "lastRepairVendor": {
          "type": "string",
          "maxLength": 10,
          "example": "3519380414",
          "description": "This field will return Subcontract repair vedor ID who did last repair."
        },
		    "repairDate": {
          "type": "string",
          "maxLength": 10,
          "example": "2018-06-21",
          "description": "This field will return the repair date."
        },
		    "replacementSerialNumber": {
          "type": "string",
          "maxLength": 15,
          "example": "351938041474236",
          "description": "This field will return valid swapped Serial Number."
        },
		    "totalUsageDays": {
          "type": "string",
          "maxLength": 5,
          "example": 205,
          "description": "This field will return the total usage days."
        },
		    "inventoryType": {
          "type": "string",
          "maxLength": 20,
          "example": 7,
          "description": "This field will return the inventory type device falls under"
        },
		    "oemWarrantyEndDate": {
          "type": "string",
          "maxLength": 10,
          "example": "2018-06-21",
          "description": "This field will return the OEM warranty end date."
        },
		    "customerWarrantyEndDate": {
          "type": "string",
          "maxLength": 10,
          "example": "2018-06-21",
          "description": "This field will return the Customer warranty end date."
        },
		    "repairWarrantyEndDate": {
          "type": "string",
          "maxLength": 10,
          "example": "2018-06-21",
          "description": "This field will return the repair warranty end date."
        },
        "repairCount": {
          "type": "string",
          "maxLength": 10,
          "example": "2",
          "description": "This field will return count of repairs."
        },
		    "returnCount": {
          "type": "string",
          "maxLength": 10,
          "example": "2",
          "description": "This field will return count of returns to return center."
        },		
		    "carrier": {
          "type": "string",
          "maxLength": 50,
          "example": "FedEx",
          "description": "This field will return carrier of device"
        },
		    "equipid": {
          "type": "string",
          "maxLength": 20,
          "example": 190198459183,
          "description": "This field will return the device Equipment ID."
        },
        "firstUsedDate": {
          "type": "string",
          "maxLength": 10,
          "example": "yyyy-MM-dd 2018-06-21",
          "description": "This field will return device first used date."
        },
        "lastUsedDate": {
          "type": "string",
          "maxLength": 10,
          "example": "yyyy-MM-dd 2018-06-21",
          "description": "This field will return device last used date."
        },
        "memory": {
          "type": "string",
    		  "maxLength": 20,
    		  "example": "32gb",
    		  "description": "This field will return memory configured for device."
        }
      }
    },
    "errors": {
      "description": "a collection of errors",
       "type": "object",      
        "properties": {
          "code": {
            "description": "Used to pass error codes",
            "type": "string"
          },
          "userMessage": {
            "description": "Used to pass human friendly information to the user.",
            "type": "string"
          },
          "systemMessage": {
            "description": "Used to pass system information.",
            "type": "string"
          }
        }         
    },
    "ResponseError": {
      "description": "Used to pass error information in a response.",
      "type": "object",
      "properties": {
        "statusCode": {
          "description": "Used to pass error codes",
          "type": "string"
        },
        "userMessage": {
          "description": "Used to pass human friendly information to the user.",
          "type": "string"
        },
        "systemMessage": {
          "description": "Used to pass system information.",
          "type": "string"
        }
      }
    }
  },
  "parameters": {
    "If-MatchParam": {
      "name": "If-Match",
      "in": "header",
      "description": "The If-Match header specifies an ETag-related condition to be placed on the execution of a request.  The request will only be executed if the ETag of the requested resource matches one of those specified in the If-Match header.  Because the behavior is complex, the details for usage are provided at http://www.w3.org/Protocols/rfc2616/rfc2616-sec14.html .",
      "required": false,
      "type": "string",
      "x-example": "xxyyzz"
    },
    "If-None-MatchParam": {
      "name": "If-None-Match",
      "in": "header",
      "description": "The If-None-Match header specifies an ETag-related condition to be placed on the execution of a request.  The request will NOT be executed if the ETag of the requested resource matches one of those specified in the If-None-Match header.  Because the behavior is complex, the details for usage are provided at http://www.w3.org/Protocols/rfc2616/rfc2616-sec14.html",
      "required": false,
      "type": "string",
      "x-example": "xxyyzz"
    }
  },
  "securityDefinitions": {
    "Oauth": {
      "type": "oauth2",
      "description": "When you sign up for an account, you are given your first API key.\nTo do so please follow this link: https://www.t-mobile.com/site/signup/\nAlso you can generate additional API keys, and delete API keys (as you may\nneed to rotate your keys in the future).\n",
      "tokenUrl": "https://tmobileb-sb01.apigee.net/v1/oauth2/accesstoken?grant_type=client_credentials",
      "flow": "application",
      "scopes": {
        "read:Deva": "Device Disposition info, Serialized details, Usage details, Warranty details, Vendor details & sku master."
      }
    }
  }
}