@startuml
skinparam SequenceMessageAlign left
Actor "REEF" as REEF
participant "Order Fulfillment (OF)" as OF
	group Receives payload from <color:blue><B> [[../EDA_Provision/ce.dsg.dice.mpcs.eda.provision.updateIMEI.svg UpdateIMEI Sync]] </B></color> and routes to OF handlers in Steps listed below
		group STEP 1: UpdateIMEIHandler
			REEF -> OF: Invoke <color:green><B>"UpdateIMEIHandler"</B></color> operation by publishing message to JMSQueue<color:blue><B>'TMOBILE.%%TMO/Env/Env_Name_REEF_CRITICAL%%.EVENTFRAMEWORK.EDAUPDATEIMEI.SERVICE.REQUEST'</B></color>
			note right: SB sequence diagram not available in Clearwater for this API
			OF-> REEF : Send <color:IndianRed><B>"UpdateIMEIOFCallbackFlow"</B></color> Event to REEF
			OF-> REEF : Confirm to JMSQueue
		end
		group STEP 2: AsyncResponseESPHandler
			REEF -> OF : Initiate <color:IndianRed><B>"UpdateIMEIOFCallbackFlow"</B></color> to invoke <color:green><B>"AsyncResponseESPHandler"</B></color> OF operation by publishing message to JMSQueue<color:blue><B>'TMOBILE.%%TMO/Env/Env_Name_REEF_CRITICAL%%.EVENTFRAMEWORK.AAMV2.SERVICE.REQUEST'</B></color>
			note right: SB sequence diagram not available in Clearwater for this API
			OF -> REEF : Confirm to JMSQueue
		end
		group STEP 2: InventoryUpdateHandler
			REEF -> OF : Initiate <color:IndianRed><B>"UpdateIMEIOFCallbackFlow"</B></color> invoke <color:green><B>"InventoryUpdateHandler"</B></color> OF operation by publishing message to JMSQueue<color:blue><B>'TMOBILE.%%TMO/Env/Env_Name_REEF_CRITICAL%%.EVENTFRAMEWORK.QPAYV2.SERVICE.REQUEST'</B></color> 
			note right: SB sequence diagram not available in Clearwater for this API
			OF -> REEF : Confirm to JMSQueue
		end
	end	
@enduml