{
  "swagger": "2.0",
  "info": {
    "description": "Inventory Availability Capability - This capability will provide available inventory details. As a part of inventory details, it will share Available Quantity, respective Inventory Status and  Configured  store & SKU level’s values in Inventory Management Tool",
    "version": "1.0.0",
    "title": "Digital to Retail APIs – Inventory Availability",
    "termsOfService": "https://www.t-mobile.com/Templates/Popup.aspx?PAsset=Ftr_Ftr_TermsOfUse&print=true",
    "contact": {
      "name": "Created by - Maitray Modi Reviewed by - Madhav Muppa (Muppa.Madhav@T-Mobile.com)",
      "email": "Maitray.Modi4@T-Mobile.com"
    },
    "license": {
      "name": "T-Mobile",
      "url": "https://www.t-mobile.com/Templates/Popup.aspx?PAsset=Ftr_Ftr_TermsOfUse&print=true"
    }
  },
  "host": "tmobileb-sb01.apigee.net",
  "basePath": "/supplychain-inventoryavailability/v1",
  "x-servers": [
    {
      "url": "https://tmobileb-sb01.apigee.net/supplychain/v1/inventoryavailability",
      "description": "Sandbox Server"
    },
    {
      "url": "https://api.t-mobile.com/supplychain/v1/inventoryavailability",
      "description": "Live Server"
    }
  ],
  "tags": [
    {
      "name": "Inventory Details",
      "description": "Access to Available Inventory and Get Invenotry Availability Details By Product And Location"
    },
    {
      "name": "Inventory Quantities",
      "description": "This Microservice will get Inventory Quantity Details for Given Store's given SKU and to find Inventory Quantity details,request with LocationIDs and ProductIDs "
    },
    {
      "name": "Inventory Status",
      "description": "This Microservice will get Inventory Status Details for Given Store's given SKU and Get Inventory Status By Product And Location"
    },
    {
      "name": "Inventory Configured Values",
      "description": "This Microservice will get Inventory Configured Values for Given Store's given SKU and Get Invenotry Status By Product And Location"
    }
  ],
  "schemes": [
    "https"
  ],
  "paths": {
    "/inventory/search/inventory-details-view": {
      "post": {
        "tags": [
          "Inventory Details"
        ],
        "consumes": [
          "application/json"
        ],
        "produces": [
          "application/json"
        ],
        "security": [
          {
            "Oauth": [
              "read:InventoryAvailability"
            ]
          }
        ],
        "summary": "Get Inventory Availability By Product And Location",
        "description": "Multiple values can provided in form of array",
        "operationId": "inventory-details-view",
        "parameters": [
          {
            "name": "InventoryDetailsRequest",
            "in": "body",
            "required": true,
            "description": "Request with LocationIDs and ProductIDs to find Inventory Details",
            "schema": {
              "$ref": "#/definitions/InventoryDetailsRequest"
            }
          },
          {
            "$ref": "#/parameters/If-MatchParam"
          },
          {
            "$ref": "#/parameters/If-None-MatchParam"
          },
          {
            "name": "Accept",
            "in": "header",
            "description": "Content-Types that are acceptable including application/json or application/xml (default assumed application/json)",
            "x-example": "application/json,text/html,application/xhtml+xml,application/xml;q=0.9,*/*;q=0.8",
            "required": false,
            "type": "string"
          },
          {
            "name": "Accept-Charset",
            "in": "header",
            "description": "Character sets that are acceptable.",
            "x-example": "ISO-8859-1,utf-8;q=0.7,*;q=0.7",
            "required": false,
            "type": "string"
          },
          {
            "name": "Accept-Encoding",
            "in": "header",
            "description": "List of acceptable encodings. See HTTP compression.",
            "x-example": "gzip,deflate",
            "required": false,
            "type": "string"
          },
          {
            "name": "Accept-Language",
            "in": "header",
            "description": "List of acceptable human languages for response",
            "x-example": "en-us,en;q=0.5",
            "required": false,
            "type": "string"
          },
          {
            "name": "Authorization",
            "in": "header",
            "description": "OAuth 2.0 access token with the authentication type set as Bearer.",
            "x-example": "Basic YUFSbFZHQ1p5dE5KMzV6RVAzOVFneXFUS0tRM1VONHM6QmtYN0c5RmQxTnNEaHRsWg==",
            "enum": [
              "Basic",
              "High"
            ],
            "required": true,
            "type": "string"
          },
          {
            "name": "Content-Length",
            "in": "header",
            "description": "The Content-Length header specifies the actual length of the returned payload.",
            "x-example": "1024",
            "required": false,
            "type": "string"
          },
          {
            "name": "Content-Type",
            "in": "header",
            "description": "The Content-Length header specifies the actual length of the returned payload.",
            "enum": [
              "text/html",
              "application/json"
            ],
            "x-example": "text/xml",
            "required": true,
            "type": "string"
          },
          {
            "name": "activityid",
            "in": "header",
            "description": "Unique id alphanumeric value generated and sent by the partner to identify every the service request uniquely. Sample: XyzA:D1s5s1i-X6AFRvfiPBfs-1234  Pass as is to downstream calls.",
            "enum": [
              "xyas-1234"
            ],
            "x-example": "TBD",
            "required": true,
            "type": "string"
          },
          {
            "name": "applicationid",
            "in": "header",
            "description": "Identifies the application, system, or tool that is being used to perform the transaction related to this request. Below are the sample values.ACUI, ESERVICE, REBELLION, WARP",
            "x-example": "TBD",
            "required": false,
            "type": "string"
          },
          {
            "name": "applicationuserid",
            "in": "header",
            "description": "NT id of the one who is managing the transaction from CARE/RETAIL channels.",
            "x-example": "TBD",
            "required": false,
            "type": "string"
          },
          {
            "name": "interactionid",
            "in": "header",
            "description": "Alphanumeric value represent a common transaction id across all calls made from UI, while completing all business activity needs of a particular customer.",
            "x-example": "TBD",
            "required": false,
            "type": "string"
          },
          {
            "name": "senderid",
            "in": "header",
            "description": "Uniquely identifies an Operation consumer. Below are the sample values.ACUI, MYTMO, QVXP, REBELLION, WALMARTRETAIL, SAMSCLUBRETAIL.",
            "x-example": "TBD",
            "required": false,
            "type": "string"
          },
          {
            "name": "sessionid",
            "in": "header",
            "description": "A value populated by the sender used to track the transactions that occur during a session, a long-lasting interaction that ismaintained by the sender.",
            "x-example": "TBD",
            "required": false,
            "type": "string"
          },
          {
            "name": "timestamp",
            "in": "header",
            "description": "A timestamp provided by sender to track their workflow. If it is empty APIGEE can send current system timestamp.",
            "x-example": "TBD",
            "required": false,
            "type": "string",
            "format": "date-time"
          }
        ],
        "responses": {
          "200": {
            "description": "Success",
            "headers": {
              "ETag": {
                "description": "The ETag header specifies the unique entity tag value for the returned resource.",
                "type": "string",
                "x-example": "Unique entity tag"
              },
              "Cache-Control": {
                "description": "no-cache",
                "type": "string",
                "x-example": "no-cache"
              },
              "sessionId": {
                "type": "string",
                "maxLength": 50,
                "x-example": "08ecc72e-83b6-462e-a8bc-f43ddd4b89ea",
                "description": "This field will return unique ID for session from which it consumed.It will be used for audit trail purpose."
              },
              "interfaceName": {
                "type": "string",
                "maxLength": 100,
                "x-example": "inventorydetails",
                "description": "This field will return interface name which was consumed. It will be used for audit trail purpose. "
              },
              "Content-Length": {
                "description": "The Content-Length header specifies the actual length of the returned payload.",
                "x-example": "1024",
                "type": "string"
              },
              "Content-Type": {
                "description": "The Content-Length header specifies the actual length of the returned payload.",
                "x-example": "text/xml",
                "type": "string"
              },
              "Location": {
                "description": "The Location header specifies the URI of a created resource, or redirects the API consumer to an alternate resource location.",
                "x-example": "http://api.t-mo.com/order-mgmt/v1/orders/123xyz-0/status",
                "type": "string"
              },
              "servicetransactionid": {
                "description": "Internal identifier for transaction tracking an individual transaction/API request within API platform. Don_t receive/don_t send to downstream",
                "x-example": "111111111111111111111111",
                "type": "string"
              }
            },
            "schema": {
              "$ref": "#/definitions/InventoryDetailsResponse"
            }
          },
          "300": {
            "description": "Incorrect Endpoint",
            "schema": {
              "$ref": "#/definitions/Errors"
            },
            "examples": {
              "application/json": [
                {
                  "code": "300",
                  "userMessage": "Incorrect Endpoint",
                  "systemMessage": "Incorrect Endpoint"
                }
              ]
            }
          },
          "400": {
            "description": "Bad Request",
            "schema": {
              "$ref": "#/definitions/Errors"
            },
            "examples": {
              "application/json": [
                {
                  "code": "400",
                  "userMessage": "Bad Request",
                  "systemMessage": "Bad Request"
                }
              ]
            }
          },
          "401": {
            "description": "Unauthorised Access",
            "schema": {
              "$ref": "#/definitions/Errors"
            },
            "examples": {
              "application/json": [
                {
                  "code": "401",
                  "userMessage": "Unauthorised Access",
                  "systemMessage": "Unauthorised Access"
                }
              ]
            }
          },
          "403": {
            "description": "Forbidden",
            "schema": {
              "$ref": "#/definitions/Errors"
            },
            "examples": {
              "application/json": [
                {
                  "code": "403",
                  "userMessage": "Forbidden",
                  "systemMessage": "Forbidden"
                }
              ]
            }
          },
          "404": {
            "description": "The resource not found",
            "schema": {
              "$ref": "#/definitions/Errors"
            },
            "examples": {
              "application/json": [
                {
                  "code": "404",
                  "userMessage": "The resource not found",
                  "systemMessage": "The resource not found"
                }
              ]
            }
          },
          "500": {
            "description": "Internal Server Error",
            "schema": {
              "$ref": "#/definitions/Errors"
            },
            "examples": {
              "application/json": [
                {
                  "code": "500",
                  "userMessage": "Internal Server Error",
                  "systemMessage": "Internal Server Error"
                }
              ]
            }
          },
          "503": {
            "description": "Service Unavailable",
            "schema": {
              "$ref": "#/definitions/Errors"
            },
            "examples": {
              "application/json": [
                {
                  "code": "503",
                  "userMessage": "Service Unavailable",
                  "systemMessage": "Service Unavailable"
                }
              ]
            }
          }
        }
      }
    },
    "/inventory/search/inventory-quantities-view": {
      "post": {
        "tags": [
          "Inventory Quantities"
        ],
        "summary": "Get Inventory Quantity By Product And Location",
        "description": "Multiple values can provided in form of array",
        "operationId": "inventory-quantities-view",
        "consumes": [
          "application/json"
        ],
        "produces": [
          "application/json"
        ],
        "security": [
          {
            "Oauth": [
              "read:InventoryAvailability"
            ]
          }
        ],
        "parameters": [
          {
            "in": "body",
            "name": "InventoryQuantitiesRequest",
            "description": "Request with LocationIDs and ProductIDs to find Inventory Quantity",
            "schema": {
              "$ref": "#/definitions/InventoryQuantitiesRequest"
            }
          },
          {
            "$ref": "#/parameters/If-MatchParam"
          },
          {
            "$ref": "#/parameters/If-None-MatchParam"
          },
          {
            "name": "Accept",
            "in": "header",
            "description": "Content-Types that are acceptable including application/json or application/xml (default assumed application/json)",
            "x-example": "application/json,text/html,application/xhtml+xml,application/xml;q=0.9,*/*;q=0.8",
            "required": false,
            "type": "string"
          },
          {
            "name": "Accept-Charset",
            "in": "header",
            "description": "Character sets that are acceptable.",
            "x-example": "ISO-8859-1,utf-8;q=0.7,*;q=0.7",
            "required": false,
            "type": "string"
          },
          {
            "name": "Accept-Encoding",
            "in": "header",
            "description": "List of acceptable encodings. See HTTP compression.",
            "x-example": "gzip,deflate",
            "required": false,
            "type": "string"
          },
          {
            "name": "Accept-Language",
            "in": "header",
            "description": "List of acceptable human languages for response",
            "x-example": "en-us,en;q=0.5",
            "required": false,
            "type": "string"
          },
          {
            "name": "Authorization",
            "in": "header",
            "description": "OAuth 2.0 access token with the authentication type set as Bearer.",
            "x-example": "Basic YUFSbFZHQ1p5dE5KMzV6RVAzOVFneXFUS0tRM1VONHM6QmtYN0c5RmQxTnNEaHRsWg==",
            "enum": [
              "Basic",
              "High"
            ],
            "required": true,
            "type": "string"
          },
          {
            "name": "Content-Length",
            "in": "header",
            "description": "The Content-Length header specifies the actual length of the returned payload.",
            "x-example": "1024",
            "required": false,
            "type": "string"
          },
          {
            "name": "Content-Type",
            "in": "header",
            "description": "The Content-Length header specifies the actual length of the returned payload.",
            "enum": [
              "text/html",
              "application/json"
            ],
            "x-example": "text/xml",
            "required": true,
            "type": "string"
          },
          {
            "name": "activityid",
            "in": "header",
            "description": "Unique id alphanumeric value generated and sent by the partner to identify every the service request uniquely. Sample: XyzA:D1s5s1i-X6AFRvfiPBfs-1234  Pass as is to downstream calls.",
            "enum": [
              "xyas-1234"
            ],
            "x-example": "TBD",
            "required": true,
            "type": "string"
          },
          {
            "name": "applicationid",
            "in": "header",
            "description": "Identifies the application, system, or tool that is being used to perform the transaction related to this request. Below are the sample values.ACUI, ESERVICE, REBELLION, WARP",
            "x-example": "TBD",
            "required": false,
            "type": "string"
          },
          {
            "name": "applicationuserid",
            "in": "header",
            "description": "NT id of the one who is managing the transaction from CARE/RETAIL channels.",
            "x-example": "TBD",
            "required": false,
            "type": "string"
          },
          {
            "name": "interactionid",
            "in": "header",
            "description": "Alphanumeric value represent a common transaction id across all calls made from UI, while completing all business activity needs of a particular customer.",
            "x-example": "TBD",
            "required": false,
            "type": "string"
          },
          {
            "name": "senderid",
            "in": "header",
            "description": "Uniquely identifies an Operation consumer. Below are the sample values.ACUI, MYTMO, QVXP, REBELLION, WALMARTRETAIL, SAMSCLUBRETAIL.",
            "x-example": "TBD",
            "required": false,
            "type": "string"
          },
          {
            "name": "sessionid",
            "in": "header",
            "description": "A value populated by the sender used to track the transactions that occur during a session, a long-lasting interaction that ismaintained by the sender.",
            "x-example": "TBD",
            "required": false,
            "type": "string"
          },
          {
            "name": "timestamp",
            "in": "header",
            "description": "A timestamp provided by sender to track their workflow. If it is empty APIGEE can send current system timestamp.",
            "x-example": "TBD",
            "required": false,
            "type": "string",
            "format": "date-time"
          }
        ],
        "responses": {
          "200": {
            "description": "Success",
            "headers": {
              "ETag": {
                "description": "The ETag header specifies the unique entity tag value for the returned resource.",
                "type": "string",
                "x-example": "Unique entity tag"
              },
              "Cache-Control": {
                "description": "no-cache",
                "type": "string",
                "x-example": "no-cache"
              },
              "sessionId": {
                "type": "string",
                "maxLength": 50,
                "x-example": "08ecc72e-83b6-462e-a8bc-f43ddd4b89ea",
                "description": "This field will return unique ID for session from which it consumed.It will be used for audit trail purpose."
              },
              "interfaceName": {
                "type": "string",
                "maxLength": 100,
                "x-example": "inventoryquantities",
                "description": "This field will return interface name which was consumed. It will be used for audit trail purpose."
              },
              "Content-Length": {
                "description": "The Content-Length header specifies the actual length of the returned payload.",
                "x-example": "1024",
                "type": "string"
              },
              "Content-Type": {
                "description": "The Content-Length header specifies the actual length of the returned payload.",
                "x-example": "text/xml",
                "type": "string"
              },
              "Location": {
                "description": "The Location header specifies the URI of a created resource, or redirects the API consumer to an alternate resource location.",
                "x-example": "http://api.t-mo.com/order-mgmt/v1/orders/123xyz-0/status",
                "type": "string"
              },
              "servicetransactionid": {
                "description": "Internal identifier for transaction tracking an individual transaction/API request within API platform. Don_t receive/don_t send to downstream",
                "x-example": "111111111111111111111111",
                "type": "string"
              }
            },
            "schema": {
              "$ref": "#/definitions/InventoryQuantitiesResponse"
            }
          },
          "300": {
            "description": "Incorrect Endpoint",
            "schema": {
              "$ref": "#/definitions/Errors"
            },
            "examples": {
              "application/json": [
                {
                  "code": "300",
                  "userMessage": "Incorrect Endpoint",
                  "systemMessage": "Incorrect Endpoint"
                }
              ]
            }
          },
          "400": {
            "description": "Bad Request",
            "schema": {
              "$ref": "#/definitions/Errors"
            },
            "examples": {
              "application/json": [
                {
                  "code": "400",
                  "userMessage": "Bad Request",
                  "systemMessage": "Bad Request"
                }
              ]
            }
          },
          "401": {
            "description": "Unauthorised Access",
            "schema": {
              "$ref": "#/definitions/Errors"
            },
            "examples": {
              "application/json": [
                {
                  "code": "401",
                  "userMessage": "Unauthorised Access",
                  "systemMessage": "Unauthorised Access"
                }
              ]
            }
          },
          "403": {
            "description": "Forbidden",
            "schema": {
              "$ref": "#/definitions/Errors"
            },
            "examples": {
              "application/json": [
                {
                  "code": "403",
                  "userMessage": "Forbidden",
                  "systemMessage": "Forbidden"
                }
              ]
            }
          },
          "404": {
            "description": "The resource not found",
            "schema": {
              "$ref": "#/definitions/Errors"
            },
            "examples": {
              "application/json": [
                {
                  "code": "404",
                  "userMessage": "The resource not found",
                  "systemMessage": "The resource not found"
                }
              ]
            }
          },
          "500": {
            "description": "Internal Server Error",
            "schema": {
              "$ref": "#/definitions/Errors"
            },
            "examples": {
              "application/json": [
                {
                  "code": "500",
                  "userMessage": "Internal Server Error",
                  "systemMessage": "Internal Server Error"
                }
              ]
            }
          },
          "503": {
            "description": "Service Unavailable",
            "schema": {
              "$ref": "#/definitions/Errors"
            },
            "examples": {
              "application/json": [
                {
                  "code": "503",
                  "userMessage": "Service Unavailable",
                  "systemMessage": "Service Unavailable"
                }
              ]
            }
          }
        }
      }
    },
    "/inventory/search/inventory-status-view": {
      "post": {
        "tags": [
          "Inventory Status"
        ],
        "summary": "Get Invenotry Status By Product And Location",
        "description": "Multiple values can provided in form of array",
        "operationId": "inventory-status-view",
        "consumes": [
          "application/json"
        ],
        "produces": [
          "application/json"
        ],
        "security": [
          {
            "Oauth": [
              "read:InventoryAvailability"
            ]
          }
        ],
        "parameters": [
          {
            "in": "body",
            "name": "InventoryStatusRequest",
            "description": "Request with LocationIDs and ProductIDs to find Inventory Details",
            "schema": {
              "$ref": "#/definitions/InventoryStatusRequest"
            }
          },
          {
            "$ref": "#/parameters/If-MatchParam"
          },
          {
            "$ref": "#/parameters/If-None-MatchParam"
          },
          {
            "name": "Accept",
            "in": "header",
            "description": "Content-Types that are acceptable including application/json or application/xml (default assumed application/json)",
            "x-example": "application/json,text/html,application/xhtml+xml,application/xml;q=0.9,*/*;q=0.8",
            "required": false,
            "type": "string"
          },
          {
            "name": "Accept-Charset",
            "in": "header",
            "description": "Character sets that are acceptable.",
            "x-example": "ISO-8859-1,utf-8;q=0.7,*;q=0.7",
            "required": false,
            "type": "string"
          },
          {
            "name": "Accept-Encoding",
            "in": "header",
            "description": "List of acceptable encodings. See HTTP compression.",
            "x-example": "gzip,deflate",
            "required": false,
            "type": "string"
          },
          {
            "name": "Accept-Language",
            "in": "header",
            "description": "List of acceptable human languages for response",
            "x-example": "en-us,en;q=0.5",
            "required": false,
            "type": "string"
          },
          {
            "name": "Authorization",
            "in": "header",
            "description": "OAuth 2.0 access token with the authentication type set as Bearer.",
            "x-example": "Basic YUFSbFZHQ1p5dE5KMzV6RVAzOVFneXFUS0tRM1VONHM6QmtYN0c5RmQxTnNEaHRsWg==",
            "enum": [
              "Basic",
              "High"
            ],
            "required": true,
            "type": "string"
          },
          {
            "name": "Content-Length",
            "in": "header",
            "description": "The Content-Length header specifies the actual length of the returned payload.",
            "x-example": "1024",
            "required": false,
            "type": "string"
          },
          {
            "name": "Content-Type",
            "in": "header",
            "description": "The Content-Length header specifies the actual length of the returned payload.",
            "enum": [
              "text/html",
              "application/json"
            ],
            "x-example": "text/xml",
            "required": true,
            "type": "string"
          },
          {
            "name": "activityid",
            "in": "header",
            "description": "Unique id alphanumeric value generated and sent by the partner to identify every the service request uniquely. Sample: XyzA:D1s5s1i-X6AFRvfiPBfs-1234  Pass as is to downstream calls.",
            "enum": [
              "xyas-1234"
            ],
            "x-example": "TBD",
            "required": true,
            "type": "string"
          },
          {
            "name": "applicationid",
            "in": "header",
            "description": "Identifies the application, system, or tool that is being used to perform the transaction related to this request. Below are the sample values.ACUI, ESERVICE, REBELLION, WARP",
            "x-example": "TBD",
            "required": false,
            "type": "string"
          },
          {
            "name": "applicationuserid",
            "in": "header",
            "description": "NT id of the one who is managing the transaction from CARE/RETAIL channels.",
            "x-example": "TBD",
            "required": false,
            "type": "string"
          },
          {
            "name": "interactionid",
            "in": "header",
            "description": "Alphanumeric value represent a common transaction id across all calls made from UI, while completing all business activity needs of a particular customer.",
            "x-example": "TBD",
            "required": false,
            "type": "string"
          },
          {
            "name": "senderid",
            "in": "header",
            "description": "Uniquely identifies an Operation consumer. Below are the sample values.ACUI, MYTMO, QVXP, REBELLION, WALMARTRETAIL, SAMSCLUBRETAIL.",
            "x-example": "TBD",
            "required": false,
            "type": "string"
          },
          {
            "name": "sessionid",
            "in": "header",
            "description": "A value populated by the sender used to track the transactions that occur during a session, a long-lasting interaction that ismaintained by the sender.",
            "x-example": "TBD",
            "required": false,
            "type": "string"
          },
          {
            "name": "timestamp",
            "in": "header",
            "description": "A timestamp provided by sender to track their workflow. If it is empty APIGEE can send current system timestamp.",
            "x-example": "TBD",
            "required": false,
            "type": "string",
            "format": "date-time"
          }
        ],
        "responses": {
          "200": {
            "description": "Success",
            "headers": {
              "ETag": {
                "description": "The ETag header specifies the unique entity tag value for the returned resource.",
                "type": "string",
                "x-example": "Unique entity tag"
              },
              "Cache-Control": {
                "description": "no-cache",
                "type": "string",
                "x-example": "no-cache"
              },
              "sessionId": {
                "type": "string",
                "maxLength": 50,
                "x-example": "08ecc72e-83b6-462e-a8bc-f43ddd4b89ea",
                "description": "This field will return unique ID for session from which it consumed.It will be used for audit trail purpose."
              },
              "interfaceName": {
                "type": "string",
                "maxLength": 100,
                "x-example": "inventorystatus",
                "description": "This field will return interface name which was consumed. It will be used for audit trail purpose.    "
              },
              "Content-Length": {
                "description": "The Content-Length header specifies the actual length of the returned payload.",
                "x-example": "1024",
                "type": "string"
              },
              "Content-Type": {
                "description": "The Content-Length header specifies the actual length of the returned payload.",
                "x-example": "text/xml",
                "type": "string"
              },
              "Location": {
                "description": "The Location header specifies the URI of a created resource, or redirects the API consumer to an alternate resource location.",
                "x-example": "http://api.t-mo.com/order-mgmt/v1/orders/123xyz-0/status",
                "type": "string"
              },
              "servicetransactionid": {
                "description": "Internal identifier for transaction tracking an individual transaction/API request within API platform. Don_t receive/don_t send to downstream",
                "x-example": "111111111111111111111111",
                "type": "string"
              }
            },
            "schema": {
              "$ref": "#/definitions/InventoryStatusResponse"
            }
          },
          "300": {
            "description": "Incorrect Endpoint",
            "schema": {
              "$ref": "#/definitions/Errors"
            },
            "examples": {
              "application/json": [
                {
                  "code": "300",
                  "userMessage": "Incorrect Endpoint",
                  "systemMessage": "Incorrect Endpoint"
                }
              ]
            }
          },
          "400": {
            "description": "Bad Request",
            "schema": {
              "$ref": "#/definitions/Errors"
            },
            "examples": {
              "application/json": [
                {
                  "code": "400",
                  "userMessage": "Bad Request",
                  "systemMessage": "Bad Request"
                }
              ]
            }
          },
          "401": {
            "description": "Unauthorised Access",
            "schema": {
              "$ref": "#/definitions/Errors"
            },
            "examples": {
              "application/json": [
                {
                  "code": "401",
                  "userMessage": "Unauthorised Access",
                  "systemMessage": "Unauthorised Access"
                }
              ]
            }
          },
          "403": {
            "description": "Forbidden",
            "schema": {
              "$ref": "#/definitions/Errors"
            },
            "examples": {
              "application/json": [
                {
                  "code": "403",
                  "userMessage": "Forbidden",
                  "systemMessage": "Forbidden"
                }
              ]
            }
          },
          "404": {
            "description": "The resource not found",
            "schema": {
              "$ref": "#/definitions/Errors"
            },
            "examples": {
              "application/json": [
                {
                  "code": "404",
                  "userMessage": "Bad Request",
                  "systemMessage": "Bad Request"
                }
              ]
            }
          },
          "500": {
            "description": "Internal Server Error",
            "schema": {
              "$ref": "#/definitions/Errors"
            },
            "examples": {
              "application/json": [
                {
                  "code": "500",
                  "userMessage": "Internal Server Error",
                  "systemMessage": "Internal Server Error"
                }
              ]
            }
          },
          "503": {
            "description": "Service Unavailable",
            "schema": {
              "$ref": "#/definitions/Errors"
            },
            "examples": {
              "application/json": [
                {
                  "code": "503",
                  "userMessage": "Service Unavailable",
                  "systemMessage": "Service Unavailable"
                }
              ]
            }
          }
        }
      }
    },
    "/inventory/search/inventory-config-view": {
      "post": {
        "tags": [
          "Inventory Configured Values"
        ],
        "summary": "Get Invenotry Configured Values By Product And Location",
        "description": "Multiple values can provided in form of array",
        "operationId": "inventory-config-view",
        "consumes": [
          "application/json"
        ],
        "produces": [
          "application/json"
        ],
        "security": [
          {
            "Oauth": [
              "read:InventoryAvailability"
            ]
          }
        ],
        "parameters": [
          {
            "in": "body",
            "name": "InventoryConfigRequest",
            "description": "Request with LocationIDs and ProductIDs to find Inventory Details.",
            "schema": {
              "$ref": "#/definitions/InventoryConfigRequest"
            }
          },
          {
            "$ref": "#/parameters/If-MatchParam"
          },
          {
            "$ref": "#/parameters/If-None-MatchParam"
          },
          {
            "name": "Accept",
            "in": "header",
            "description": "Content-Types that are acceptable including application/json or application/xml (default assumed application/json)",
            "x-example": "application/json,text/html,application/xhtml+xml,application/xml;q=0.9,*/*;q=0.8",
            "required": false,
            "type": "string"
          },
          {
            "name": "Accept-Charset",
            "in": "header",
            "description": "Character sets that are acceptable.",
            "x-example": "ISO-8859-1,utf-8;q=0.7,*;q=0.7",
            "required": false,
            "type": "string"
          },
          {
            "name": "Accept-Encoding",
            "in": "header",
            "description": "List of acceptable encodings. See HTTP compression.",
            "x-example": "gzip,deflate",
            "required": false,
            "type": "string"
          },
          {
            "name": "Accept-Language",
            "in": "header",
            "description": "List of acceptable human languages for response",
            "x-example": "en-us,en;q=0.5",
            "required": false,
            "type": "string"
          },
          {
            "name": "Authorization",
            "in": "header",
            "description": "OAuth 2.0 access token with the authentication type set as Bearer.",
            "x-example": "Basic YUFSbFZHQ1p5dE5KMzV6RVAzOVFneXFUS0tRM1VONHM6QmtYN0c5RmQxTnNEaHRsWg==",
            "enum": [
              "Basic",
              "High"
            ],
            "required": true,
            "type": "string"
          },
          {
            "name": "Content-Length",
            "in": "header",
            "description": "The Content-Length header specifies the actual length of the returned payload.",
            "x-example": "1024",
            "required": false,
            "type": "string"
          },
          {
            "name": "Content-Type",
            "in": "header",
            "description": "The Content-Length header specifies the actual length of the returned payload.",
            "enum": [
              "text/html",
              "application/json"
            ],
            "x-example": "text/xml",
            "required": true,
            "type": "string"
          },
          {
            "name": "activityid",
            "in": "header",
            "description": "Unique id alphanumeric value generated and sent by the partner to identify every the service request uniquely. Sample: XyzA:D1s5s1i-X6AFRvfiPBfs-1234  Pass as is to downstream calls.",
            "enum": [
              "xyas-1234"
            ],
            "x-example": "TBD",
            "required": true,
            "type": "string"
          },
          {
            "name": "applicationid",
            "in": "header",
            "description": "Identifies the application, system, or tool that is being used to perform the transaction related to this request. Below are the sample values.ACUI, ESERVICE, REBELLION, WARP",
            "x-example": "TBD",
            "required": false,
            "type": "string"
          },
          {
            "name": "applicationuserid",
            "in": "header",
            "description": "NT id of the one who is managing the transaction from CARE/RETAIL channels.",
            "x-example": "TBD",
            "required": false,
            "type": "string"
          },
          {
            "name": "interactionid",
            "in": "header",
            "description": "Alphanumeric value represent a common transaction id across all calls made from UI, while completing all business activity needs of a particular customer.",
            "x-example": "TBD",
            "required": false,
            "type": "string"
          },
          {
            "name": "senderid",
            "in": "header",
            "description": "Uniquely identifies an Operation consumer. Below are the sample values.ACUI, MYTMO, QVXP, REBELLION, WALMARTRETAIL, SAMSCLUBRETAIL.",
            "x-example": "TBD",
            "required": false,
            "type": "string"
          },
          {
            "name": "sessionid",
            "in": "header",
            "description": "A value populated by the sender used to track the transactions that occur during a session, a long-lasting interaction that ismaintained by the sender.",
            "x-example": "TBD",
            "required": false,
            "type": "string"
          },
          {
            "name": "timestamp",
            "in": "header",
            "description": "A timestamp provided by sender to track their workflow. If it is empty APIGEE can send current system timestamp.",
            "x-example": "TBD",
            "required": false,
            "type": "string",
            "format": "date-time"
          }
        ],
        "responses": {
          "200": {
            "description": "Success",
            "headers": {
              "ETag": {
                "description": "The ETag header specifies the unique entity tag value for the returned resource.",
                "type": "string",
                "x-example": "Unique entity tag"
              },
              "Cache-Control": {
                "description": "no-cache",
                "type": "string",
                "x-example": "no-cache"
              },
              "sessionId": {
                "type": "string",
                "maxLength": 50,
                "x-example": "08ecc72e-83b6-462e-a8bc-f43ddd4b89ea",
                "description": "This field will return unique ID for session from which it consumed.It will be used for audit trail purpose."
              },
              "interfaceName": {
                "type": "string",
                "maxLength": 100,
                "x-example": "inventoryconfiguredvalues",
                "description": "This field will return interface name which was consumed. It will be used for audit trail purpose.    "
              },
              "Content-Length": {
                "description": "The Content-Length header specifies the actual length of the returned payload.",
                "x-example": "1024",
                "type": "string"
              },
              "Content-Type": {
                "description": "The Content-Length header specifies the actual length of the returned payload.",
                "x-example": "text/xml",
                "type": "string"
              },
              "Location": {
                "description": "The Location header specifies the URI of a created resource, or redirects the API consumer to an alternate resource location.",
                "x-example": "http://api.t-mo.com/order-mgmt/v1/orders/123xyz-0/status",
                "type": "string"
              },
              "servicetransactionid": {
                "description": "Internal identifier for transaction tracking an individual transaction/API request within API platform. Don_t receive/don_t send to downstream",
                "x-example": "111111111111111111111111",
                "type": "string"
              }
            },
            "schema": {
              "$ref": "#/definitions/InventoryConfigResponse"
            }
          },
          "300": {
            "description": "Incorrect Endpoint",
            "schema": {
              "$ref": "#/definitions/Errors"
            },
            "examples": {
              "application/json": [
                {
                  "code": "300",
                  "userMessage": "Incorrect Endpoint",
                  "systemMessage": "Incorrect Endpoint"
                }
              ]
            }
          },
          "400": {
            "description": "Bad Request",
            "schema": {
              "$ref": "#/definitions/Errors"
            },
            "examples": {
              "application/json": [
                {
                  "code": "400",
                  "userMessage": "Bad Request",
                  "systemMessage": "Bad Request"
                }
              ]
            }
          },
          "401": {
            "description": "Unauthorised Access",
            "schema": {
              "$ref": "#/definitions/Errors"
            },
            "examples": {
              "application/json": [
                {
                  "code": "401",
                  "userMessage": "Unauthorised Access",
                  "systemMessage": "Unauthorised Access"
                }
              ]
            }
          },
          "403": {
            "description": "Forbidden",
            "schema": {
              "$ref": "#/definitions/Errors"
            },
            "examples": {
              "application/json": [
                {
                  "code": "403",
                  "userMessage": "Forbidden",
                  "systemMessage": "Forbidden"
                }
              ]
            }
          },
          "404": {
            "description": "The resource not found",
            "schema": {
              "$ref": "#/definitions/Errors"
            },
            "examples": {
              "application/json": [
                {
                  "code": "404",
                  "userMessage": "The resource not found",
                  "systemMessage": "The resource not found"
                }
              ]
            }
          },
          "500": {
            "description": "Internal Server Error",
            "schema": {
              "$ref": "#/definitions/Errors"
            },
            "examples": {
              "application/json": [
                {
                  "code": "500",
                  "userMessage": "Internal Server Error",
                  "systemMessage": "Internal Server Error"
                }
              ]
            }
          },
          "503": {
            "description": "Service Unavailable",
            "schema": {
              "$ref": "#/definitions/Errors"
            },
            "examples": {
              "application/json": [
                {
                  "code": "503",
                  "userMessage": "Service Unavailable",
                  "systemMessage": "Service Unavailable"
                }
              ]
            }
          }
        }
      }
    }
  },
  "definitions": {
    "InventoryDetailsRequest": {
      "type": "object",
      "description": "Details about ProductAndLocationDetails",
      "properties": {
        "locations": {
          "type": "array",
          "description": "Details about location",
          "items": {
            "type": "object",
            "description": "Details about locationid",
            "properties": {
              "locationId": {
                "type": "string",
                "maxLength": 15,
                "minLength": 15,
                "pattern": "^[a-zA-Z0-9]+$",
                "x-required": true,
                "example": [
                  "201F0436",
                  "896A",
                  "436",
                  "2011"
                ],
                "description": "Data Field Validation - This field contain unique LocationID (storeID in case of  - Supply Chain). Multiple values can be passed in form of Array. This is collection of 1 or more store IDs"
              }
            }
          }
        },
        "products": {
          "type": "array",
          "description": "Details about products",
          "items": {
            "type": "object",
            "description": "Details about product items",
            "properties": {
              "productId": {
                "type": "string",
                "maxLength": 18,
                "minLength": 18,
                "pattern": "^[a-zA-Z0-9]+$",
                "x-required": true,
                "example": [
                  "190198157355",
                  "SUP3M92801"
                ],
                "description": "Data Field Validation - This field contain unique  ProductID (SKUID in case of  - Supply Chain). Multiple values can be passed in form of Array. This is collection of 1 of more SKUs   "
              }
            }
          }
        },
        "requestingChannel": {
          "type": "string",
          "maxLength": 50,
          "x-required": true,
          "default": "Web",
          "enum": [
            "Web",
            "SupplyChain"
          ],
          "example": "Web",
          "description": "Input Control - This field will capture detail of calling channel. This field will be used only for Audit Trail (Tracking) purpose and response will NOT change based on  passed channel.            "
        }
      }
    },
    "InventoryDetailsResponse": {
      "type": "object",
      "description": "Details about ProductLocationInventoryDetails-response",
      "properties": {
        "inventoryDetails": {
          "type": "array",
          "description": "Details about inventory  ",
          "items": {
            "type": "object",
            "description": "Details about inventory items",
            "properties": {
              "locationId": {
                "type": "string",
                "maxLength": 15,
                "minLength": 15,
                "pattern": "^[a-zA-Z0-9]+$",
                "x-required": true,
                "example": [
                  "201F0436",
                  "896A",
                  "436",
                  "2011"
                ],
                "description": "Data Field Validation - This field contain unique LocationID (storeID in case of  - Supply Chain). Multiple values can be passed in form of Array."
              },
              "storeParticipantFlag": {
                "type": "string",
                "maxLength": 5,
                "default": "True",
                "enum": [
                  "True",
                  "False"
                ],
                "example": "True",
                "description": "This field will return value for Store participation in form of True or False. "
              },
              "configuredShowQuantityFlag": {
                "type": "string",
                "maxLength": 50,
                "default": "Quantity",
                "enum": [
                  "Quantity",
                  "Statuses"
                ],
                "example": "Quantity",
                "description": "This field will return configured inventory availability status.                        "
              },
              "skuDetails": {
                "type": "array",
                "description": "Details about SKU ",
                "items": {
                  "type": "object",
                  "description": "Details about SKU items",
                  "properties": {
                    "productId": {
                      "type": "string",
                      "maxLength": 18,
                      "minLength": 18,
                      "pattern": "^[a-zA-Z0-9]+$",
                      "x-required": true,
                      "example": "190198157355",
                      "description": "Data Field Validation - This field contain unique ProductID (SKUID in case of  - Supply Chain)."
                    },
                    "quantities": {
                      "type": "array",
                      "description": "Details about quantities",
                      "maxLength": 1,
                      "items": {
                        "type": "object",
                        "description": "Details about quantity items",
                        "properties": {
                          "availableQuantity": {
                            "type": "integer",
                            "format": "int64",
                            "minimum": 1,
                            "maximum": 9999999999,
                            "example": 10,
                            "description": "This field will return available quantity for given store's given SKU"
                          },
                          "inTransitQuantity": {
                            "type": "integer",
                            "format": "int64",
                            "minimum": 1,
                            "maximum": 9999999999,
                            "example": 10,
                            "description": "This field will return InTransit quantity for given store's given SKU  "
                          },
                          "totalQuantity": {
                            "type": "integer",
                            "format": "int64",
                            "minimum": 1,
                            "maximum": 9999999999,
                            "example": 10,
                            "description": "This field will return Total quantity for given store's given SKU"
                          }
                        }
                      }
                    },
                    "availabilityStatus": {
                      "type": "integer",
                      "format": "int64",
                      "minimum": 1,
                      "maximum": 9999999999,
                      "default": 101,
                      "enum": [
                        101,
                        102,
                        103
                      ],
                      "example": 101,
                      "description": "This field will return inventory availability in form of status.     "
                    },
                    "skuParticipantFlag": {
                      "type": "string",
                      "maxLength": 10,
                      "default": "True",
                      "enum": [
                        "True",
                        "False"
                      ],
                      "example": "True",
                      "description": "This field will return value for SKU participation form of True or False."
                    }
                  }
                }
              }
            }
          }
        },
        "status": {
          "type": "string",
          "maxLength": 10,
          "default": "Success",
          "enum": [
            "Success",
            "Fail"
          ],
          "example": "Success",
          "description": "This field will return success or fail. It conveys whether API consumed successfully or got any error in consumption?"
        },
        "statusCode": {
          "type": "string",
          "maxLength": 5,
          "default": 200,
          "enum": [
            200,
            300,
            400,
            401,
            403,
            404,
            405,
            406,
            500,
            503
          ],
          "example": 200,
          "description": "This field will return code for success or failure. "
        }
      }
    },
    "InventoryQuantitiesRequest": {
      "type": "object",
      "description": "Details about AvailableQuantityProductAndLocation",
      "properties": {
        "locations": {
          "type": "array",
          "description": "Details about locations ",
          "items": {
            "type": "object",
            "description": "Details about location items",
            "properties": {
              "locationId": {
                "type": "string",
                "maxLength": 15,
                "minLength": 15,
                "pattern": "^[a-zA-Z0-9]+$",
                "x-required": true,
                "example": [
                  "201F0436",
                  "896A",
                  "436",
                  "2011"
                ],
                "description": "Data Field Validation - This field contain unique LocationID (storeID in case of  - Supply Chain). Multiple values can be passed in form of Array. This is collection of 1 or more store IDs"
              }
            }
          }
        },
        "products": {
          "type": "array",
          "description": "Details about products",
          "items": {
            "type": "object",
            "description": "Details about product items ",
            "properties": {
              "productId": {
                "type": "string",
                "maxLength": 18,
                "minLength": 18,
                "pattern": "^[a-zA-Z0-9]+$",
                "x-required": true,
                "example": [
                  "190198157355",
                  "SUP3M92801"
                ],
                "description": "Data Field Validation - This field contain unique  ProductID (SKUID in case of  - Supply Chain). Multiple values can be passed in form of Array. This is collection of 1 of more SKUs   "
              }
            }
          }
        }
      }
    },
    "InventoryQuantitiesResponse": {
      "type": "object",
      "description": "Details about inventory response",
      "properties": {
        "inventoryDetails": {
          "type": "array",
          "description": "Details about inventory ",
          "items": {
            "type": "object",
            "description": "Details about inventory items ",
            "properties": {
              "locationId": {
                "type": "string",
                "maxLength": 15,
                "minLength": 15,
                "pattern": "^[a-zA-Z0-9]+$",
                "x-required": true,
                "example": "201F0436",
                "description": "Data Field Validation - This field contain unique LocationID (storeID in case of  - Supply Chain). Multiple values can be passed in form of Array."
              },
              "skuDetails": {
                "type": "array",
                "description": "Details about SKU ",
                "items": {
                  "type": "object",
                  "description": "Details about SKU items",
                  "properties": {
                    "productId": {
                      "type": "string",
                      "maxLength": 18,
                      "minLength": 18,
                      "pattern": "^[a-zA-Z0-9]+$",
                      "x-required": true,
                      "example": "190198157355",
                      "description": "Data Field Validation - This field contain unique  ProductID (SKUID in case of  - Supply Chain)."
                    },
                    "quantities": {
                      "type": "array",
                      "description": "Details about quantities",
                      "maxLength": 1,
                      "items": {
                        "type": "object",
                        "description": "Details about quantity items",
                        "properties": {
                          "availableQuantity": {
                            "type": "integer",
                            "format": "int64",
                            "minimum": 1,
                            "maximum": 9999999999,
                            "example": 10,
                            "description": "This field will return available quantity for given store's given SKU"
                          },
                          "inTransitQuantity": {
                            "type": "integer",
                            "format": "int64",
                            "minimum": 1,
                            "maximum": 9999999999,
                            "example": 10,
                            "description": "This field will return InTransit quantity for given store's given SKU  "
                          },
                          "totalQuantity": {
                            "type": "integer",
                            "format": "int64",
                            "minimum": 1,
                            "maximum": 9999999999,
                            "example": 10,
                            "description": "This field will return Total quantity for given store's given SKU"
                          }
                        }
                      }
                    }
                  }
                }
              }
            }
          }
        },
        "status": {
          "type": "string",
          "maxLength": 10,
          "default": "Success",
          "enum": [
            "Success",
            "Fail"
          ],
          "example": "Success",
          "description": "This field will return success or fail. It conveys whether API consumed successfully or got any error in consumption?"
        },
        "statusCode": {
          "type": "string",
          "maxLength": 5,
          "default": 200,
          "enum": [
            200,
            300,
            400,
            401,
            403,
            404,
            405,
            406,
            500,
            503
          ],
          "example": 200,
          "description": "This field will return code for success or failure. "
        }
      }
    },
    "InventoryStatusRequest": {
      "type": "object",
      "description": "Details about StatusProductAndLocation",
      "properties": {
        "locations": {
          "type": "array",
          "description": "Details about location",
          "items": {
            "type": "object",
            "description": "Details about location items",
            "properties": {
              "locationId": {
                "type": "string",
                "maxLength": 15,
                "minLength": 15,
                "pattern": "^[a-zA-Z0-9]+$",
                "x-required": true,
                "example": [
                  "201F0436",
                  "896A",
                  "436",
                  "2011"
                ],
                "description": "Data Field Validation - This field contain unique LocationID (storeID in case of  - Supply Chain). Multiple values can be passed in form of Array. This is collection of 1 or more store IDs"
              }
            }
          }
        },
        "products": {
          "type": "array",
          "description": "Details about products",
          "items": {
            "type": "object",
            "description": "Details about product id",
            "properties": {
              "productId": {
                "type": "string",
                "maxLength": 18,
                "minLength": 18,
                "pattern": "^[a-zA-Z0-9]+$",
                "x-required": true,
                "example": [
                  "190198157355",
                  "SUP3M92801"
                ],
                "description": "Data Field Validation - This field contain unique  ProductID (SKUID in case of  - Supply Chain). Multiple values can be passed in form of Array. This is collection of 1 of more SKUs   "
              }
            }
          }
        },
        "availableQuantity": {
          "type": "integer",
          "format": "int64",
          "minimum": 1,
          "maximum": 9999999999,
          "example": 10,
          "description": "This field will accept AvailableQuantity of given SKU to find status based on it"
        }
      }
    },
    "InventoryStatusResponse": {
      "type": "object",
      "description": "Details about ProductLocationInventoryAvailabilityStatusDetails-response ",
      "properties": {
        "inventoryDetails": {
          "type": "array",
          "description": "Details about inventory",
          "items": {
            "type": "object",
            "description": "Details about inventory items ",
            "properties": {
              "locationId": {
                "type": "string",
                "maxLength": 15,
                "minLength": 15,
                "pattern": "^[a-zA-Z0-9]+$",
                "x-required": true,
                "example": "201F0436",
                "description": "Data Field Validation - This field contain unique LocationID (storeID in case of  - Supply Chain). Multiple values can be passed in form of Array."
              },
              "skuDetails": {
                "type": "array",
                "description": "Details about SKU",
                "items": {
                  "type": "object",
                  "description": "Details about SKU items",
                  "properties": {
                    "productId": {
                      "type": "string",
                      "maxLength": 18,
                      "minLength": 18,
                      "pattern": "^[a-zA-Z0-9]+$",
                      "x-required": true,
                      "example": "190198157355",
                      "description": "Data Field Validation - This field contain unique  ProductID (FP in case of  - Supply Chain)."
                    },
                    "quantities": {
                      "type": "array",
                      "description": "Details about quantities",
                      "maxLength": 1,
                      "items": {
                        "type": "object",
                        "description": "Details about quantity items",
                        "properties": {
                          "availableQuantity": {
                            "type": "integer",
                            "format": "int64",
                            "minimum": 1,
                            "maximum": 9999999999,
                            "example": 10,
                            "description": "This field will return available quantity for given store's given SKU"
                          },
                          "inTransitQuantity": {
                            "type": "integer",
                            "format": "int64",
                            "minimum": 1,
                            "maximum": 9999999999,
                            "example": 10,
                            "description": "This field will return InTransit quantity for given store's given SKU  "
                          },
                          "totalQuantity": {
                            "type": "integer",
                            "format": "int64",
                            "minimum": 1,
                            "maximum": 9999999999,
                            "example": 10,
                            "description": "This field will return Total quantity for given store's given SKU    "
                          }
                        }
                      }
                    },
                    "availabilityStatus": {
                      "type": "integer",
                      "format": "int64",
                      "minimum": 1,
                      "maximum": 9999999999,
                      "default": 101,
                      "enum": [
                        101,
                        102,
                        103
                      ],
                      "example": 101,
                      "description": "This field will return inventory availability in form of status.     "
                    }
                  }
                }
              }
            }
          }
        },
        "status": {
          "type": "string",
          "maxLength": 10,
          "default": "Success",
          "enum": [
            "Success",
            "Fail"
          ],
          "example": "Success",
          "description": "This field will return success or fail. It conveys whether MicroService consumed successfully or got any error in consumption?"
        },
        "statusCode": {
          "type": "string",
          "maxLength": 5,
          "default": 200,
          "enum": [
            200,
            300,
            400,
            401,
            403,
            404,
            405,
            406,
            500,
            503
          ],
          "example": 200,
          "description": "This field will return code for success or failure. "
        }
      }
    },
    "InventoryConfigRequest": {
      "type": "object",
      "description": "Details about ConfiguredValuesByProductAndLocationDetails",
      "properties": {
        "locations": {
          "type": "array",
          "description": "Details about locations",
          "items": {
            "type": "object",
            "description": "Details about location items",
            "properties": {
              "locationId": {
                "type": "string",
                "maxLength": 15,
                "minLength": 15,
                "pattern": "^[a-zA-Z0-9]+$",
                "x-required": true,
                "example": [
                  "201F0436",
                  "896A",
                  "436",
                  "2011"
                ],
                "description": "Data Field Validation - This field contain unique LocationID (storeID in case of  - Supply Chain). Multiple values can be passed in form of Array. This is collection of 1 or more store IDs"
              }
            }
          }
        },
        "products": {
          "type": "array",
          "description": "Details about products",
          "items": {
            "type": "object",
            "description": "Details about product items",
            "properties": {
              "productId": {
                "type": "string",
                "maxLength": 18,
                "minLength": 18,
                "pattern": "^[a-zA-Z0-9]+$",
                "x-required": true,
                "example": [
                  "190198157355",
                  "SUP3M92801"
                ],
                "description": "Data Field Validation - This field contain unique  ProductID (SKUID in case of  - Supply Chain). Multiple values can be passed in form of Array. This is collection of 1 of more SKUs   "
              }
            }
          }
        }
      }
    },
    "InventoryConfigResponse": {
      "type": "object",
      "description": "Details about ProductLocationInventoryConfiguredValueStatusDetails-response",
      "properties": {
        "inventoryDetails": {
          "type": "array",
          "description": "Details about inventoryDetails ",
          "items": {
            "type": "object",
            "description": "Details about product items",
            "properties": {
              "locationId": {
                "type": "string",
                "maxLength": 15,
                "minLength": 15,
                "pattern": "^[a-zA-Z0-9]+$",
                "x-required": true,
                "example": "201F0436",
                "description": "Control: Data Field Validation - This field contain unique LocationID (storeID in case of  - Supply Chain). Multiple values can be passed in form of Array."
              },
              "storeParticipantFlag": {
                "type": "string",
                "maxLength": 5,
                "default": "True",
                "enum": [
                  "True",
                  "False"
                ],
                "example": "True",
                "description": "This field will return value for Store participation in form of True or False. "
              },
              "configuredShowQuantityFlag": {
                "type": "string",
                "maxLength": 50,
                "default": "Quantity",
                "enum": [
                  "Quantity",
                  "Statuses"
                ],
                "example": "Quantity",
                "description": "This field will return configured inventory availability status."
              },
              "skuDetails": {
                "type": "array",
                "description": "Details about SKU ",
                "items": {
                  "type": "object",
                  "description": "Details about productId",
                  "properties": {
                    "productId": {
                      "type": "string",
                      "maxLength": 18,
                      "minLength": 18,
                      "pattern": "^[a-zA-Z0-9]+$",
                      "x-required": true,
                      "example": "190198157355",
                      "description": "Data Field Validation - This field contain unique  ProductID (SKUID in case of  - Supply Chain)."
                    },
                    "skuParticipantFlag": {
                      "type": "string",
                      "maxLength": 10,
                      "default": "True",
                      "enum": [
                        "True",
                        "False"
                      ],
                      "example": "True",
                      "description": "This field will return value for SKU participation in form"
                    }
                  }
                }
              }
            }
          }
        },
        "status": {
          "type": "string",
          "maxLength": 10,
          "default": "Success",
          "enum": [
            "Success",
            "Fail"
          ],
          "example": "Success",
          "description": "This field will return success or fail. It conveys whether MicroService consumed successfully or got any error in consumption?"
        },
        "statusCode": {
          "type": "string",
          "maxLength": 5,
          "default": 200,
          "enum": [
            200,
            300,
            400,
            401,
            403,
            404,
            405,
            406,
            500,
            503
          ],
          "example": 200,
          "description": "This field will return code for success or failure. "
        }
      }
    },
    "Errors": {
      "description": "a collection of errors",
      "type": "array",
      "items": {
        "$ref": "#/definitions/Responseerror"
      }
    },
    "Responseerror": {
      "description": "Used to pass error information in a response.",
      "type": "object",
      "properties": {
        "code": {
          "description": "Used to pass error codes",
          "type": "string"
        },
        "userMessage": {
          "description": "Use to pass human friendly information to the user.",
          "type": "string"
        },
        "systemMessage": {
          "description": "Used to pass system information.",
          "type": "string"
        }
      }
    }
  },
  "parameters": {
    "If-MatchParam": {
      "name": "If-Match",
      "in": "header",
      "description": "The If-Match header specifies an ETag-related condition to be placed on the execution of a request.  The request will only be executed if the ETag of the requested resource matches one of those specified in the If-Match header.  Because the behavior is complex, the details for usage are provided at http://www.w3.org/Protocols/rfc2616/rfc2616-sec14.html .",
      "required": false,
      "type": "string",
      "x-example": "xxyyzz"
    },
    "If-None-MatchParam": {
      "name": "If-None-Match",
      "in": "header",
      "description": "The If-None-Match header specifies an ETag-related condition to be placed on the execution of a request.  The request will NOT be executed if the ETag of the requested resource matches one of those specified in the If-None-Match header.  Because the behavior is complex, the details for usage are provided at http://www.w3.org/Protocols/rfc2616/rfc2616-sec14.html",
      "required": false,
      "type": "string",
      "x-example": "xxyyzz"
    }
  },
  "securityDefinitions": {
    "Oauth": {
      "type": "oauth2",
      "description": "When you sign up for an account, you are given your first API key.\nTo do so please follow this link: https://www.t-mobile.com/site/signup/\nAlso you can generate additional API keys, and delete API keys (as you may\nneed to rotate your keys in the future).\n",
      "tokenUrl": "https://tmobileb-sb01.apigee.net/v1/oauth2/accesstoken?grant_type=client_credentials",
      "flow": "application",
      "scopes": {
        "read:InventoryAvailability": "Inventory Availabiliy information "
      }
    }
  }
}