{
  "swagger": "2.0",
  "info": {
    "title": "QE Intake",
    "version": "1.0.0",
    "contact": {
      "name": "Swapna Ankem",
      "url": "http://www.t-mobile.com",
      "email": "Swapna.Ankem1@t-mobile.com"
    },
    "x-createdBy": {
      "dateCreated": "Tue Sep 18 16:28:56 2018",
      "createdBy": "Swapna Ankem",
      "application": "Recite",
      "appVersion": "0.3.6.2170",
      "documentId": "7fa49405-7af2-4da6-8951-934fae78bfa6",
      "status": "Conceptual - Initial",
      "classification": "Technology/AssetManagement",
      "profile": "TEQ",
      "serviceLayer": "Technology and Information Management"
    }
  },
  "host": "tmobileh-sb06.apigee.net",
  "basePath": "/v5/qeintake",
  "schemes": [
    "https"
  ],
  "x-tryOut": "yes",
  "x-servers": [
    {
      "url": "https://tmobileh-sb06.apigee.net/v5/qeintake",
      "description": "Sandbox Server"
    }
  ],
  "consumes": [
    "application/json"
  ],
  "produces": [
    "application/json"
  ],
  "paths": {
    "/filters": {
      "get": {
        "x-api-pattern": "QueryResource",
        "tags": [
          "QualityEngineering"
        ],
        "summary": "get All Quality Engineering Intakes",
        "description": "This service provides a detailed view of VP names with NTID and profile images. ",
        "consumes": [
          "application/json"
        ],
        "produces": [
          "application/json"
        ],
        "operationId": "getAllQEIntakes",
        "parameters": [
          {
            "name": "id",
            "in": "query",
            "description": "ID",
            "type": "string",
            "required": false,
            "x-example": 13
          },
          {
            "name": "projectName",
            "in": "query",
            "description": "projectName",
            "type": "string",
            "required": false,
            "x-example": "SCM Enhancements -Assurant Migration to Oracle"
          },
          {
            "name": "projectType",
            "in": "query",
            "description": "projectType",
            "type": "string",
            "required": false,
            "x-example": "Project"
          },
          {
            "name": "projectManager",
            "in": "query",
            "description": "projectManager",
            "type": "string",
            "required": false,
            "x-example": "Shahpurwala, Fatema"
          },
          {
            "name": "prNumber",
            "in": "query",
            "description": "prNumber",
            "type": "string",
            "required": false,
            "x-example": "PR209454"
          },
          {
            "name": "fundingType",
            "in": "query",
            "description": "fundingType",
            "type": "string",
            "required": false,
            "x-example": "OPEX"
          },
          {
            "name": "sapCode",
            "in": "query",
            "description": "sapCode",
            "type": "string",
            "required": false,
            "x-example": "null"
          },
          {
            "name": "targetReleaseDate",
            "in": "query",
            "description": "targetReleaseDate",
            "type": "string",
            "required": false,
            "x-example": "2018-07-02T07:00:00.000+0000"
          },
          {
            "name": "multiPhase",
            "in": "query",
            "description": "multiPhase",
            "type": "string",
            "required": false,
            "x-example": "Yes"
          },
          {
            "name": "impactedApplications",
            "in": "query",
            "description": "impactedApplications",
            "type": "string",
            "required": false,
            "x-example": 18
          },
          {
            "name": "requirementType",
            "in": "query",
            "description": "requirementType",
            "type": "string",
            "required": false,
            "x-example": "System Requirements"
          },
          {
            "name": "requirements",
            "in": "query",
            "description": "requirements",
            "type": "string",
            "required": false,
            "x-example": 1
          },
          {
            "name": "projectDocumentLink",
            "in": "query",
            "description": "projectDocumentLink",
            "type": "string",
            "required": false,
            "x-example": "null"
          },
          {
            "name": "testEstimator",
            "in": "query",
            "description": "testEstimator",
            "type": "string",
            "required": false,
            "x-example": "Bandla, Neelima"
          },
          {
            "name": "primaryTestLead",
            "in": "query",
            "description": "primaryTestLead",
            "type": "string",
            "required": false,
            "x-example": "null"
          },
          {
            "name": "assessmentDate",
            "in": "query",
            "description": "assessmentDate",
            "type": "string",
            "required": false,
            "x-example": "null"
          },
          {
            "name": "assessmentValue",
            "in": "query",
            "description": "assessmentValue",
            "type": "string",
            "required": false,
            "x-example": "null"
          },
          {
            "name": "assessmentComments",
            "in": "query",
            "description": "assessmentComments",
            "type": "string",
            "required": false,
            "x-example": "null"
          },
          {
            "name": "testPM",
            "in": "query",
            "description": "testPM",
            "type": "string",
            "required": false,
            "x-example": "null"
          },
          {
            "name": "performanceRequired",
            "in": "query",
            "description": "performanceRequired",
            "type": "string",
            "required": false,
            "x-example": "null"
          },
          {
            "name": "status",
            "in": "query",
            "description": "status",
            "type": "string",
            "required": false,
            "x-example": "Assigned"
          },
          {
            "name": "applicationList",
            "in": "query",
            "description": "applicationList",
            "type": "string",
            "required": false,
            "x-example": "Test: Assurant Brightpoint Centivia Connect Enterprise Customer Hub Enterprise Data Warehouse Equipment Installment Plan F-EMM Hadoop IDW IDW_FADS Quote Repository SAP_BODS SAP_BW_PCD SAP_BW_PDM SAP_OER SCOps BI wHub, expectedCompletionDate: 2018-07-09T07:00:00.000+0000"
          },
          {
            "name": "sponsoringDdomainDirectorOTD",
            "in": "query",
            "description": "sponsoringDdomainDirectorOTD",
            "type": "string",
            "required": false,
            "x-example": "Schmidt, Kasey"
          },
          {
            "name": "Authorization",
            "in": "header",
            "required": true,
            "type": "string",
            "pattern": ".*$",
            "description": "Oauth 2.0 Bearer Token",
            "x-example": "Bearer YWMtHNa3Okb6EeemCisoFv6"
          },
          {
            "name": "Accept",
            "in": "header",
            "required": true,
            "type": "string",
            "pattern": ".*$",
            "description": "The Accept request-header field can be used to specify certain media types which are acceptable for the response.",
            "x-example": "application/json"
          }
        ],
        "security": [
          {
            "Oauth": [
              "read:EmployeeData"
            ]
          }
        ],
        "responses": {
          "200": {
            "description": "Ok",
            "schema": {
              "$ref": "#/definitions/QE"
            },
            "headers": {
              "Content-Type": {
                "description": "Represents the content-type of response body.",
                "x-example": "application/json",
                "type": "string"
              },
              "Date": {
                "description": "The date and time of the request based on the clock on server side.",
                "x-example": "Date: Mon, 05 Mar 2018 16:38:08 GMT",
                "type": "string",
                "format": "date-time"
              },
              "Cache-Control": {
                "description": "Cache policy supported for the resource by the server, max-age indicates the number of seconds, x, after which the response is stale, no-cache means the client or intermediate cache must not re-use the representation without checking the ETag with the server: if possible, it is preferable to use a low value for max-age instead, no-store means the client is not allowed to cache the representation.",
                "x-example": "max-age=3600",
                "type": "string"
              }
            },
            "examples": {
              "application/json": {
                "content": {
                  "ID": 75,
                  "ProjectName": "\t2017 DT Retail Inventory Serialization",
                  "ProjectType": "Project",
                  "ProjectManager": "Alemann, Martin",
                  "SponsoringDomainDirectorOtd": "LaValle, Erik",
                  "PRNumber": "PR208984",
                  "FundingType": "CAPEX",
                  "SAPCode": null,
                  "TargetReleaseDate": "2018-08-25T07:00:00.000+0000",
                  "MultiPhase": "Yes",
                  "ImpactedApplications": 1,
                  "RequirementType": "System Requirements",
                  "Requirements": 10,
                  "ApplicationList": "Code: TMAG - 07/09",
                  "ExpectedCompletionDate": "2018-09-01T07:00:00.000+0000",
                  "ProjectDocumentLink": "https://tmobileusa.sharepoint.com/teams/da/DM/2017DTRetailInventorySerialization/default.aspx",
                  "TestEstimator": "Bandla, Neelima",
                  "PrimaryTestLead": null,
                  "AssessmentDate": null,
                  "AssessmentValue": null,
                  "AssessmentComments": null,
                  "TestPM/TestArchitect": null,
                  "PerformanceRequired": null,
                  "Status": "Assigned",
                  "RCMID": null,
                  "CreatedBy": "Jin, Jiao (Vivian)",
                  "Created": "2018-08-08T18:16:32.000+0000",
                  "UpdatedEstimator": "Yes",
                  "UpdatedArchitect": null,
                  "ItemType": "Item",
                  "Path": "teams/EQRE/Intake/Lists/Architecht Intake",
                  "UpdatedPTL": null
                }
              }
            }
          },
          "400": {
            "description": "Bad Request",
            "schema": {
              "$ref": "#/definitions/Error"
            },
            "examples": {
              "application/json": {
                "code": "technology-0400",
                "userMessage": "Bad Request",
                "systemMessage": "Bad Request"
              }
            }
          },
          "401": {
            "description": "Unauthorized",
            "schema": {
              "$ref": "#/definitions/Error"
            },
            "examples": {
              "application/json": {
                "code": "technology-0401",
                "userMessage": "Unauthorized",
                "systemMessage": "Unauthorized"
              }
            }
          },
          "404": {
            "description": "Resource not found",
            "schema": {
              "$ref": "#/definitions/Error"
            },
            "examples": {
              "application/json": {
                "code": "technology-0404",
                "userMessage": "Resource not found",
                "systemMessage": "Resource not found"
              }
            }
          },
          "405": {
            "description": "Method not allowed",
            "schema": {
              "$ref": "#/definitions/Error"
            },
            "headers": {
              "Allow": {
                "description": "List of supported methods for URI.",
                "x-example": "Allow: PUT, GET",
                "type": "string"
              }
            },
            "examples": {
              "application/json": {
                "code": "technology-0405",
                "userMessage": "Method not allowed",
                "systemMessage": "Method not allowed"
              }
            }
          },
          "406": {
            "description": "Not Acceptable",
            "schema": {
              "$ref": "#/definitions/Error"
            },
            "examples": {
              "application/json": {
                "code": "technology-0406",
                "userMessage": "Not Acceptable",
                "systemMessage": "Not Acceptable"
              }
            }
          },
          "500": {
            "description": "Internal Server Error",
            "schema": {
              "$ref": "#/definitions/Error"
            },
            "examples": {
              "application/json": {
                "code": "technology-500",
                "userMessage": "Internal Server Error",
                "systemMessage": "Internal Server Error"
              }
            }
          },
          "503": {
            "description": "Service Unavailable",
            "schema": {
              "$ref": "#/definitions/Error"
            },
            "examples": {
              "application/json": {
                "code": "technology-503",
                "userMessage": "Service Unavailable",
                "systemMessage": "Service Unavailable"
              }
            }
          }
        }
      }
    },
    "/findByQEIntakeDetails": {
      "get": {
        "x-api-pattern": "QueryResource",
        "tags": [
          "QualityEngineering"
        ],
        "summary": "find By QE Intake Details",
        "description": "This service provides a detailed view of VP names with NTID and profile images. ",
        "consumes": [
          "application/json"
        ],
        "produces": [
          "application/json"
        ],
        "operationId": "findByQEIntkesDetails",
        "parameters": [
          {
            "name": "searchString",
            "in": "query",
            "description": "searchString",
            "type": "string",
            "required": true,
            "x-example": 10
          },
          {
            "name": "id",
            "in": "query",
            "description": "ID",
            "type": "string",
            "required": true,
            "x-example": 13
          },
          {
            "name": "projectName",
            "in": "query",
            "description": "projectName",
            "type": "string",
            "required": false,
            "x-example": "SCM Enhancements -Assurant Migration to Oracle"
          },
          {
            "name": "projectType",
            "in": "query",
            "description": "projectType",
            "type": "string",
            "required": false,
            "x-example": "Project"
          },
          {
            "name": "projectManager",
            "in": "query",
            "description": "projectManager",
            "type": "string",
            "required": false,
            "x-example": "Shahpurwala, Fatema"
          },
          {
            "name": "prNumber",
            "in": "query",
            "description": "prNumber",
            "type": "string",
            "required": false,
            "x-example": "PR209454"
          },
          {
            "name": "fundingType",
            "in": "query",
            "description": "fundingType",
            "type": "string",
            "required": false,
            "x-example": "OPEX"
          },
          {
            "name": "sapCode",
            "in": "query",
            "description": "sapCode",
            "type": "string",
            "required": false,
            "x-example": "null"
          },
          {
            "name": "targetReleaseDate",
            "in": "query",
            "description": "targetReleaseDate",
            "type": "string",
            "required": false,
            "x-example": "2018-07-02T07:00:00.000+0000"
          },
          {
            "name": "multiPhase",
            "in": "query",
            "description": "multiPhase",
            "type": "string",
            "required": false,
            "x-example": "Yes"
          },
          {
            "name": "impactedApplications",
            "in": "query",
            "description": "impactedApplications",
            "type": "string",
            "required": false,
            "x-example": 18
          },
          {
            "name": "requirementType",
            "in": "query",
            "description": "requirementType",
            "type": "string",
            "required": false,
            "x-example": "System Requirements"
          },
          {
            "name": "requirements",
            "in": "query",
            "description": "requirements",
            "type": "string",
            "required": false,
            "x-example": 1
          },
          {
            "name": "projectDocumentLink",
            "in": "query",
            "description": "projectDocumentLink",
            "type": "string",
            "required": false,
            "x-example": "null"
          },
          {
            "name": "testEstimator",
            "in": "query",
            "description": "testEstimator",
            "type": "string",
            "required": false,
            "x-example": "Bandla, Neelima"
          },
          {
            "name": "primaryTestLead",
            "in": "query",
            "description": "primaryTestLead",
            "type": "string",
            "required": false,
            "x-example": "null"
          },
          {
            "name": "assessmentDate",
            "in": "query",
            "description": "assessmentDate",
            "type": "string",
            "required": false,
            "x-example": "null"
          },
          {
            "name": "assessmentValue",
            "in": "query",
            "description": "assessmentValue",
            "type": "string",
            "required": false,
            "x-example": "null"
          },
          {
            "name": "assessmentComments",
            "in": "query",
            "description": "assessmentComments",
            "type": "string",
            "required": false,
            "x-example": "null"
          },
          {
            "name": "testPM",
            "in": "query",
            "description": "testPM",
            "type": "string",
            "required": false,
            "x-example": "null"
          },
          {
            "name": "performanceRequired",
            "in": "query",
            "description": "performanceRequired",
            "type": "string",
            "required": false,
            "x-example": "null"
          },
          {
            "name": "status",
            "in": "query",
            "description": "status",
            "type": "string",
            "required": false,
            "x-example": "Assigned"
          },
          {
            "name": "applicationList",
            "in": "query",
            "description": "applicationList",
            "type": "string",
            "required": false,
            "x-example": "Test: Assurant Brightpoint Centivia Connect Enterprise Customer Hub Enterprise Data Warehouse Equipment Installment Plan F-EMM Hadoop IDW IDW_FADS Quote Repository SAP_BODS SAP_BW_PCD SAP_BW_PDM SAP_OER SCOps BI wHub, expectedCompletionDate: 2018-07-09T07:00:00.000+0000"
          },
          {
            "name": "sponsoringDdomainDirectorOTD",
            "in": "query",
            "description": "sponsoringDdomainDirectorOTD",
            "type": "string",
            "required": false,
            "x-example": "Schmidt, Kasey"
          },
          {
            "name": "Authorization",
            "in": "header",
            "required": true,
            "type": "string",
            "pattern": ".*$",
            "description": "Oauth 2.0 Bearer Token",
            "x-example": "Bearer YWMtHNa3Okb6EeemCisoFv6"
          },
          {
            "name": "Accept",
            "in": "header",
            "required": true,
            "type": "string",
            "pattern": ".*$",
            "description": "The Accept request-header field can be used to specify certain media types which are acceptable for the response.",
            "x-example": "application/json"
          }
        ],
        "security": [
          {
            "Oauth": [
              "read:EmployeeData"
            ]
          }
        ],
        "responses": {
          "200": {
            "description": "Ok",
            "schema": {
              "$ref": "#/definitions/QE"
            },
            "headers": {
              "Content-Type": {
                "description": "Represents the content-type of response body.",
                "x-example": "application/json",
                "type": "string"
              },
              "Date": {
                "description": "The date and time of the request based on the clock on server side.",
                "x-example": "Date: Mon, 05 Mar 2018 16:38:08 GMT",
                "type": "string",
                "format": "date-time"
              },
              "Cache-Control": {
                "description": "Cache policy supported for the resource by the server, max-age indicates the number of seconds, x, after which the response is stale, no-cache means the client or intermediate cache must not re-use the representation without checking the ETag with the server: if possible, it is preferable to use a low value for max-age instead, no-store means the client is not allowed to cache the representation.",
                "x-example": "max-age=3600",
                "type": "string"
              }
            },
            "examples": {
              "application/json": {
                "content": {
                  "ID": 75,
                  "ProjectName": "\t2017 DT Retail Inventory Serialization",
                  "ProjectType": "Project",
                  "ProjectManager": "Alemann, Martin",
                  "SponsoringDomainDirectorOtd": "LaValle, Erik",
                  "PRNumber": "PR208984",
                  "FundingType": "CAPEX",
                  "SAPCode": null,
                  "TargetReleaseDate": "2018-08-25T07:00:00.000+0000",
                  "MultiPhase": "Yes",
                  "ImpactedApplications": 1,
                  "RequirementType": "System Requirements",
                  "Requirements": 10,
                  "ApplicationList": "Code: TMAG - 07/09",
                  "ExpectedCompletionDate": "2018-09-01T07:00:00.000+0000",
                  "ProjectDocumentLink": "https://tmobileusa.sharepoint.com/teams/da/DM/2017DTRetailInventorySerialization/default.aspx",
                  "TestEstimator": "Bandla, Neelima",
                  "PrimaryTestLead": null,
                  "AssessmentDate": null,
                  "AssessmentValue": null,
                  "AssessmentComments": null,
                  "TestPM/TestArchitect": null,
                  "PerformanceRequired": null,
                  "Status": "Assigned",
                  "RCMID": null,
                  "CreatedBy": "Jin, Jiao (Vivian)",
                  "Created": "2018-08-08T18:16:32.000+0000",
                  "UpdatedEstimator": "Yes",
                  "UpdatedArchitect": null,
                  "ItemType": "Item",
                  "Path": "teams/EQRE/Intake/Lists/Architecht Intake",
                  "UpdatedPTL": null
                }
              }
            }
          },
          "400": {
            "description": "Bad Request",
            "schema": {
              "$ref": "#/definitions/Error"
            },
            "examples": {
              "application/json": {
                "code": "technology-0400",
                "userMessage": "Bad Request",
                "systemMessage": "Bad Request"
              }
            }
          },
          "401": {
            "description": "Unauthorized",
            "schema": {
              "$ref": "#/definitions/Error"
            },
            "examples": {
              "application/json": {
                "code": "technology-0401",
                "userMessage": "Unauthorized",
                "systemMessage": "Unauthorized"
              }
            }
          },
          "404": {
            "description": "Resource not found",
            "schema": {
              "$ref": "#/definitions/Error"
            },
            "examples": {
              "application/json": {
                "code": "technology-0404",
                "userMessage": "Resource not found",
                "systemMessage": "Resource not found"
              }
            }
          },
          "405": {
            "description": "Method not allowed",
            "schema": {
              "$ref": "#/definitions/Error"
            },
            "headers": {
              "Allow": {
                "description": "List of supported methods for URI.",
                "x-example": "Allow: PUT, GET",
                "type": "string"
              }
            },
            "examples": {
              "application/json": {
                "code": "technology-0405",
                "userMessage": "Method not allowed",
                "systemMessage": "Method not allowed"
              }
            }
          },
          "406": {
            "description": "Not Acceptable",
            "schema": {
              "$ref": "#/definitions/Error"
            },
            "examples": {
              "application/json": {
                "code": "technology-0406",
                "userMessage": "Not Acceptable",
                "systemMessage": "Not Acceptable"
              }
            }
          },
          "500": {
            "description": "Internal Server Error",
            "schema": {
              "$ref": "#/definitions/Error"
            },
            "examples": {
              "application/json": {
                "code": "technology-500",
                "userMessage": "Internal Server Error",
                "systemMessage": "Internal Server Error"
              }
            }
          },
          "503": {
            "description": "Service Unavailable",
            "schema": {
              "$ref": "#/definitions/Error"
            },
            "examples": {
              "application/json": {
                "code": "technology-503",
                "userMessage": "Service Unavailable",
                "systemMessage": "Service Unavailable"
              }
            }
          }
        }
      }
    },
    "/uniqueFiltersForQE": {
      "get": {
        "x-api-pattern": "QueryResource",
        "tags": [
          "QualityEngineering"
        ],
        "summary": "get Unique QE Details",
        "description": "This service provides a detailed view of VP names with NTID and profile images. ",
        "consumes": [
          "application/json"
        ],
        "produces": [
          "application/json"
        ],
        "operationId": "getUniqueQEDetails",
        "parameters": [
          {
            "name": "id",
            "in": "query",
            "description": "ID",
            "type": "string",
            "required": false,
            "x-example": 13
          },
          {
            "name": "projectName",
            "in": "query",
            "description": "projectName",
            "type": "string",
            "required": false,
            "x-example": "SCM Enhancements -Assurant Migration to Oracle"
          },
          {
            "name": "projectType",
            "in": "query",
            "description": "projectType",
            "type": "string",
            "required": false,
            "x-example": "Project"
          },
          {
            "name": "projectManager",
            "in": "query",
            "description": "projectManager",
            "type": "string",
            "required": false,
            "x-example": "Shahpurwala, Fatema"
          },
          {
            "name": "prNumber",
            "in": "query",
            "description": "prNumber",
            "type": "string",
            "required": false,
            "x-example": "PR209454"
          },
          {
            "name": "fundingType",
            "in": "query",
            "description": "fundingType",
            "type": "string",
            "required": false,
            "x-example": "OPEX"
          },
          {
            "name": "sapCode",
            "in": "query",
            "description": "sapCode",
            "type": "string",
            "required": false,
            "x-example": "null"
          },
          {
            "name": "targetReleaseDate",
            "in": "query",
            "description": "targetReleaseDate",
            "type": "string",
            "required": false,
            "x-example": "2018-07-02T07:00:00.000+0000"
          },
          {
            "name": "multiPhase",
            "in": "query",
            "description": "multiPhase",
            "type": "string",
            "required": false,
            "x-example": "Yes"
          },
          {
            "name": "impactedApplications",
            "in": "query",
            "description": "impactedApplications",
            "type": "string",
            "required": false,
            "x-example": 18
          },
          {
            "name": "requirementType",
            "in": "query",
            "description": "requirementType",
            "type": "string",
            "required": false,
            "x-example": "System Requirements"
          },
          {
            "name": "requirements",
            "in": "query",
            "description": "requirements",
            "type": "string",
            "required": false,
            "x-example": 1
          },
          {
            "name": "projectDocumentLink",
            "in": "query",
            "description": "projectDocumentLink",
            "type": "string",
            "required": false,
            "x-example": "null"
          },
          {
            "name": "testEstimator",
            "in": "query",
            "description": "testEstimator",
            "type": "string",
            "required": false,
            "x-example": "Bandla, Neelima"
          },
          {
            "name": "primaryTestLead",
            "in": "query",
            "description": "primaryTestLead",
            "type": "string",
            "required": false,
            "x-example": "null"
          },
          {
            "name": "assessmentDate",
            "in": "query",
            "description": "assessmentDate",
            "type": "string",
            "required": false,
            "x-example": "null"
          },
          {
            "name": "assessmentValue",
            "in": "query",
            "description": "assessmentValue",
            "type": "string",
            "required": false,
            "x-example": "null"
          },
          {
            "name": "assessmentComments",
            "in": "query",
            "description": "assessmentComments",
            "type": "string",
            "required": false,
            "x-example": "null"
          },
          {
            "name": "testPM",
            "in": "query",
            "description": "testPM",
            "type": "string",
            "required": false,
            "x-example": "null"
          },
          {
            "name": "performanceRequired",
            "in": "query",
            "description": "performanceRequired",
            "type": "string",
            "required": false,
            "x-example": "null"
          },
          {
            "name": "status",
            "in": "query",
            "description": "status",
            "type": "string",
            "required": false,
            "x-example": "Assigned"
          },
          {
            "name": "applicationList",
            "in": "query",
            "description": "applicationList",
            "type": "string",
            "required": false,
            "x-example": "Test: Assurant Brightpoint Centivia Connect Enterprise Customer Hub Enterprise Data Warehouse Equipment Installment Plan F-EMM Hadoop IDW IDW_FADS Quote Repository SAP_BODS SAP_BW_PCD SAP_BW_PDM SAP_OER SCOps BI wHub, expectedCompletionDate: 2018-07-09T07:00:00.000+0000"
          },
          {
            "name": "sponsoringDdomainDirectorOTD",
            "in": "query",
            "description": "sponsoringDdomainDirectorOTD",
            "type": "string",
            "required": false,
            "x-example": "Schmidt, Kasey"
          },
          {
            "name": "Authorization",
            "in": "header",
            "required": true,
            "type": "string",
            "pattern": ".*$",
            "description": "Oauth 2.0 Bearer Token",
            "x-example": "Bearer YWMtHNa3Okb6EeemCisoFv6"
          },
          {
            "name": "Accept",
            "in": "header",
            "required": true,
            "type": "string",
            "pattern": ".*$",
            "description": "The Accept request-header field can be used to specify certain media types which are acceptable for the response.",
            "x-example": "application/json"
          }
        ],
        "security": [
          {
            "Oauth": [
              "read:EmployeeData"
            ]
          }
        ],
        "responses": {
          "200": {
            "description": "Ok",
            "schema": {
              "$ref": "#/definitions/QE"
            },
            "headers": {
              "Content-Type": {
                "description": "Represents the content-type of response body.",
                "x-example": "application/json",
                "type": "string"
              },
              "Date": {
                "description": "The date and time of the request based on the clock on server side.",
                "x-example": "Date: Mon, 05 Mar 2018 16:38:08 GMT",
                "type": "string",
                "format": "date-time"
              },
              "Cache-Control": {
                "description": "Cache policy supported for the resource by the server, max-age indicates the number of seconds, x, after which the response is stale, no-cache means the client or intermediate cache must not re-use the representation without checking the ETag with the server: if possible, it is preferable to use a low value for max-age instead, no-store means the client is not allowed to cache the representation.",
                "x-example": "max-age=3600",
                "type": "string"
              }
            },
            "examples": {
              "application/json": {
                "content": {
                  "ID": 75,
                  "ProjectName": "\t2017 DT Retail Inventory Serialization",
                  "ProjectType": "Project",
                  "ProjectManager": "Alemann, Martin",
                  "SponsoringDomainDirectorOtd": "LaValle, Erik",
                  "PRNumber": "PR208984",
                  "FundingType": "CAPEX",
                  "SAPCode": null,
                  "TargetReleaseDate": "2018-08-25T07:00:00.000+0000",
                  "MultiPhase": "Yes",
                  "ImpactedApplications": 1,
                  "RequirementType": "System Requirements",
                  "Requirements": 10,
                  "ApplicationList": "Code: TMAG - 07/09",
                  "ExpectedCompletionDate": "2018-09-01T07:00:00.000+0000",
                  "ProjectDocumentLink": "https://tmobileusa.sharepoint.com/teams/da/DM/2017DTRetailInventorySerialization/default.aspx",
                  "TestEstimator": "Bandla, Neelima",
                  "PrimaryTestLead": null,
                  "AssessmentDate": null,
                  "AssessmentValue": null,
                  "AssessmentComments": null,
                  "TestPM/TestArchitect": null,
                  "PerformanceRequired": null,
                  "Status": "Assigned",
                  "RCMID": null,
                  "CreatedBy": "Jin, Jiao (Vivian)",
                  "Created": "2018-08-08T18:16:32.000+0000",
                  "UpdatedEstimator": "Yes",
                  "UpdatedArchitect": null,
                  "ItemType": "Item",
                  "Path": "teams/EQRE/Intake/Lists/Architecht Intake",
                  "UpdatedPTL": null
                }
              }
            }
          },
          "400": {
            "description": "Bad Request",
            "schema": {
              "$ref": "#/definitions/Error"
            },
            "examples": {
              "application/json": {
                "code": "technology-0400",
                "userMessage": "Bad Request",
                "systemMessage": "Bad Request"
              }
            }
          },
          "401": {
            "description": "Unauthorized",
            "schema": {
              "$ref": "#/definitions/Error"
            },
            "examples": {
              "application/json": {
                "code": "technology-0401",
                "userMessage": "Unauthorized",
                "systemMessage": "Unauthorized"
              }
            }
          },
          "404": {
            "description": "Resource not found",
            "schema": {
              "$ref": "#/definitions/Error"
            },
            "examples": {
              "application/json": {
                "code": "technology-0404",
                "userMessage": "Resource not found",
                "systemMessage": "Resource not found"
              }
            }
          },
          "405": {
            "description": "Method not allowed",
            "schema": {
              "$ref": "#/definitions/Error"
            },
            "headers": {
              "Allow": {
                "description": "List of supported methods for URI.",
                "x-example": "Allow: PUT, GET",
                "type": "string"
              }
            },
            "examples": {
              "application/json": {
                "code": "technology-0405",
                "userMessage": "Method not allowed",
                "systemMessage": "Method not allowed"
              }
            }
          },
          "406": {
            "description": "Not Acceptable",
            "schema": {
              "$ref": "#/definitions/Error"
            },
            "examples": {
              "application/json": {
                "code": "technology-0406",
                "userMessage": "Not Acceptable",
                "systemMessage": "Not Acceptable"
              }
            }
          },
          "500": {
            "description": "Internal Server Error",
            "schema": {
              "$ref": "#/definitions/Error"
            },
            "examples": {
              "application/json": {
                "code": "technology-500",
                "userMessage": "Internal Server Error",
                "systemMessage": "Internal Server Error"
              }
            }
          },
          "503": {
            "description": "Service Unavailable",
            "schema": {
              "$ref": "#/definitions/Error"
            },
            "examples": {
              "application/json": {
                "code": "technology-503",
                "userMessage": "Service Unavailable",
                "systemMessage": "Service Unavailable"
              }
            }
          }
        }
      }
    },
    "/downloadQEIntake": {
      "get": {
        "x-api-pattern": "QueryResource",
        "tags": [
          "QualityEngineering"
        ],
        "summary": "download Excel for QE Intake Details",
        "description": "This service provides a detailed view of VP names with NTID and profile images. ",
        "consumes": [
          "application/json"
        ],
        "produces": [
          "application/json"
        ],
        "operationId": "downloadExcel",
        "parameters": [
          {
            "name": "Requirements",
            "in": "query",
            "description": "Requirements",
            "type": "string",
            "required": false,
            "x-example": 10
          },
          {
            "name": "ProjectType",
            "in": "query",
            "description": "ProjectType",
            "type": "string",
            "required": false,
            "pattern": ".*$",
            "x-example": "Project"
          },
          {
            "name": "Authorization",
            "in": "header",
            "required": true,
            "type": "string",
            "pattern": ".*$",
            "description": "Oauth 2.0 Bearer Token",
            "x-example": "Bearer YWMtHNa3Okb6EeemCisoFv6"
          },
          {
            "name": "Accept",
            "in": "header",
            "required": true,
            "type": "string",
            "pattern": ".*$",
            "description": "The Accept request-header field can be used to specify certain media types which are acceptable for the response.",
            "x-example": "application/json"
          }
        ],
        "security": [
          {
            "Oauth": [
              "read:EmployeeData"
            ]
          }
        ],
        "responses": {
          "200": {
            "description": "Ok",
            "schema": {
              "$ref": "#/definitions/QE"
            },
            "headers": {
              "Content-Type": {
                "description": "Represents the content-type of response body.",
                "x-example": "application/json",
                "type": "string"
              },
              "Date": {
                "description": "The date and time of the request based on the clock on server side.",
                "x-example": "Date: Mon, 05 Mar 2018 16:38:08 GMT",
                "type": "string",
                "format": "date-time"
              },
              "Cache-Control": {
                "description": "Cache policy supported for the resource by the server, max-age indicates the number of seconds, x, after which the response is stale, no-cache means the client or intermediate cache must not re-use the representation without checking the ETag with the server: if possible, it is preferable to use a low value for max-age instead, no-store means the client is not allowed to cache the representation.",
                "x-example": "max-age=3600",
                "type": "string"
              }
            },
            "examples": {
              "application/json": {
                "content": {
                  "ID": 75,
                  "ProjectName": "\t2017 DT Retail Inventory Serialization",
                  "ProjectType": "Project",
                  "ProjectManager": "Alemann, Martin",
                  "SponsoringDomainDirectorOtd": "LaValle, Erik",
                  "PRNumber": "PR208984",
                  "FundingType": "CAPEX",
                  "SAPCode": null,
                  "TargetReleaseDate": "2018-08-25T07:00:00.000+0000",
                  "MultiPhase": "Yes",
                  "ImpactedApplications": 1,
                  "RequirementType": "System Requirements",
                  "Requirements": 10,
                  "ApplicationList": "Code: TMAG - 07/09",
                  "ExpectedCompletionDate": "2018-09-01T07:00:00.000+0000",
                  "ProjectDocumentLink": "https://tmobileusa.sharepoint.com/teams/da/DM/2017DTRetailInventorySerialization/default.aspx",
                  "TestEstimator": "Bandla, Neelima",
                  "PrimaryTestLead": null,
                  "AssessmentDate": null,
                  "AssessmentValue": null,
                  "AssessmentComments": null,
                  "TestPM/TestArchitect": null,
                  "PerformanceRequired": null,
                  "Status": "Assigned",
                  "RCMID": null,
                  "CreatedBy": "Jin, Jiao (Vivian)",
                  "Created": "2018-08-08T18:16:32.000+0000",
                  "UpdatedEstimator": "Yes",
                  "UpdatedArchitect": null,
                  "ItemType": "Item",
                  "Path": "teams/EQRE/Intake/Lists/Architecht Intake",
                  "UpdatedPTL": null
                }
              }
            }
          },
          "400": {
            "description": "Bad Request",
            "schema": {
              "$ref": "#/definitions/Error"
            },
            "examples": {
              "application/json": {
                "code": "technology-0400",
                "userMessage": "Bad Request",
                "systemMessage": "Bad Request"
              }
            }
          },
          "401": {
            "description": "Unauthorized",
            "schema": {
              "$ref": "#/definitions/Error"
            },
            "examples": {
              "application/json": {
                "code": "technology-0401",
                "userMessage": "Unauthorized",
                "systemMessage": "Unauthorized"
              }
            }
          },
          "404": {
            "description": "Resource not found",
            "schema": {
              "$ref": "#/definitions/Error"
            },
            "examples": {
              "application/json": {
                "code": "technology-0404",
                "userMessage": "Resource not found",
                "systemMessage": "Resource not found"
              }
            }
          },
          "405": {
            "description": "Method not allowed",
            "schema": {
              "$ref": "#/definitions/Error"
            },
            "headers": {
              "Allow": {
                "description": "List of supported methods for URI.",
                "x-example": "Allow: PUT, GET",
                "type": "string"
              }
            },
            "examples": {
              "application/json": {
                "code": "technology-0405",
                "userMessage": "Method not allowed",
                "systemMessage": "Method not allowed"
              }
            }
          },
          "406": {
            "description": "Not Acceptable",
            "schema": {
              "$ref": "#/definitions/Error"
            },
            "examples": {
              "application/json": {
                "code": "technology-0406",
                "userMessage": "Not Acceptable",
                "systemMessage": "Not Acceptable"
              }
            }
          },
          "500": {
            "description": "Internal Server Error",
            "schema": {
              "$ref": "#/definitions/Error"
            },
            "examples": {
              "application/json": {
                "code": "technology-500",
                "userMessage": "Internal Server Error",
                "systemMessage": "Internal Server Error"
              }
            }
          },
          "503": {
            "description": "Service Unavailable",
            "schema": {
              "$ref": "#/definitions/Error"
            },
            "examples": {
              "application/json": {
                "code": "technology-503",
                "userMessage": "Service Unavailable",
                "systemMessage": "Service Unavailable"
              }
            }
          }
        }
      }
    },
    "/byId/{id}": {
      "get": {
        "x-api-pattern": "QueryResource",
        "tags": [
          "QualityEngineering"
        ],
        "summary": "get QE Intake By ID",
        "description": "This service provides a detailed view of VP names with NTID and profile images. ",
        "consumes": [
          "application/json"
        ],
        "produces": [
          "application/json"
        ],
        "operationId": "getQEIntakeByID",
        "parameters": [
          {
            "name": "id",
            "in": "path",
            "description": "Requirements",
            "type": "string",
            "required": true,
            "x-example": 10
          },
          {
            "name": "Authorization",
            "in": "header",
            "required": true,
            "type": "string",
            "pattern": ".*$",
            "description": "Oauth 2.0 Bearer Token",
            "x-example": "Bearer YWMtHNa3Okb6EeemCisoFv6"
          },
          {
            "name": "Accept",
            "in": "header",
            "required": true,
            "type": "string",
            "pattern": ".*$",
            "description": "The Accept request-header field can be used to specify certain media types which are acceptable for the response.",
            "x-example": "application/json"
          }
        ],
        "security": [
          {
            "Oauth": [
              "read:EmployeeData"
            ]
          }
        ],
        "responses": {
          "200": {
            "description": "Ok",
            "schema": {
              "$ref": "#/definitions/QE"
            },
            "headers": {
              "Content-Type": {
                "description": "Represents the content-type of response body.",
                "x-example": "application/json",
                "type": "string"
              },
              "Date": {
                "description": "The date and time of the request based on the clock on server side.",
                "x-example": "Date: Mon, 05 Mar 2018 16:38:08 GMT",
                "type": "string",
                "format": "date-time"
              },
              "Cache-Control": {
                "description": "Cache policy supported for the resource by the server, max-age indicates the number of seconds, x, after which the response is stale, no-cache means the client or intermediate cache must not re-use the representation without checking the ETag with the server: if possible, it is preferable to use a low value for max-age instead, no-store means the client is not allowed to cache the representation.",
                "x-example": "max-age=3600",
                "type": "string"
              }
            },
            "examples": {
              "application/json": {
                "content": {
                  "ID": 75,
                  "ProjectName": "\t2017 DT Retail Inventory Serialization",
                  "ProjectType": "Project",
                  "ProjectManager": "Alemann, Martin",
                  "SponsoringDomainDirectorOtd": "LaValle, Erik",
                  "PRNumber": "PR208984",
                  "FundingType": "CAPEX",
                  "SAPCode": null,
                  "TargetReleaseDate": "2018-08-25T07:00:00.000+0000",
                  "MultiPhase": "Yes",
                  "ImpactedApplications": 1,
                  "RequirementType": "System Requirements",
                  "Requirements": 10,
                  "ApplicationList": "Code: TMAG - 07/09",
                  "ExpectedCompletionDate": "2018-09-01T07:00:00.000+0000",
                  "ProjectDocumentLink": "https://tmobileusa.sharepoint.com/teams/da/DM/2017DTRetailInventorySerialization/default.aspx",
                  "TestEstimator": "Bandla, Neelima",
                  "PrimaryTestLead": null,
                  "AssessmentDate": null,
                  "AssessmentValue": null,
                  "AssessmentComments": null,
                  "TestPM/TestArchitect": null,
                  "PerformanceRequired": null,
                  "Status": "Assigned",
                  "RCMID": null,
                  "CreatedBy": "Jin, Jiao (Vivian)",
                  "Created": "2018-08-08T18:16:32.000+0000",
                  "UpdatedEstimator": "Yes",
                  "UpdatedArchitect": null,
                  "ItemType": "Item",
                  "Path": "teams/EQRE/Intake/Lists/Architecht Intake",
                  "UpdatedPTL": null
                }
              }
            }
          },
          "400": {
            "description": "Bad Request",
            "schema": {
              "$ref": "#/definitions/Error"
            },
            "examples": {
              "application/json": {
                "code": "technology-0400",
                "userMessage": "Bad Request",
                "systemMessage": "Bad Request"
              }
            }
          },
          "401": {
            "description": "Unauthorized",
            "schema": {
              "$ref": "#/definitions/Error"
            },
            "examples": {
              "application/json": {
                "code": "technology-0401",
                "userMessage": "Unauthorized",
                "systemMessage": "Unauthorized"
              }
            }
          },
          "404": {
            "description": "Resource not found",
            "schema": {
              "$ref": "#/definitions/Error"
            },
            "examples": {
              "application/json": {
                "code": "technology-0404",
                "userMessage": "Resource not found",
                "systemMessage": "Resource not found"
              }
            }
          },
          "405": {
            "description": "Method not allowed",
            "schema": {
              "$ref": "#/definitions/Error"
            },
            "headers": {
              "Allow": {
                "description": "List of supported methods for URI.",
                "x-example": "Allow: PUT, GET",
                "type": "string"
              }
            },
            "examples": {
              "application/json": {
                "code": "technology-0405",
                "userMessage": "Method not allowed",
                "systemMessage": "Method not allowed"
              }
            }
          },
          "406": {
            "description": "Not Acceptable",
            "schema": {
              "$ref": "#/definitions/Error"
            },
            "examples": {
              "application/json": {
                "code": "technology-0406",
                "userMessage": "Not Acceptable",
                "systemMessage": "Not Acceptable"
              }
            }
          },
          "500": {
            "description": "Internal Server Error",
            "schema": {
              "$ref": "#/definitions/Error"
            },
            "examples": {
              "application/json": {
                "code": "technology-500",
                "userMessage": "Internal Server Error",
                "systemMessage": "Internal Server Error"
              }
            }
          },
          "503": {
            "description": "Service Unavailable",
            "schema": {
              "$ref": "#/definitions/Error"
            },
            "examples": {
              "application/json": {
                "code": "technology-503",
                "userMessage": "Service Unavailable",
                "systemMessage": "Service Unavailable"
              }
            }
          }
        }
      }
    }
  },
  "definitions": {
    "QE": {
      "type": "object",
      "properties": {
        "ID": {
          "description": "ID",
          "type": "integer",
          "x-example": 75
        },
        "ProjectName": {
          "description": "Name of the VP",
          "type": "string",
          "x-example": "2017 DT Retail Inventory Serialization"
        },
        "ProjectType": {
          "description": "designation of the VP",
          "type": "string",
          "x-example": "Project"
        },
        "ProjectManager": {
          "description": "email address of a VP",
          "type": "string",
          "x-example": "Alemann, Martin"
        },
        "SponsoringDomainDirectorOtd": {
          "description": "Name of the Supervisor",
          "type": "string",
          "x-example": "LaValle, Erik"
        },
        "PRNumber": {
          "description": "role of an employee",
          "type": "string",
          "x-example": "PR208984"
        },
        "FundingType": {
          "description": "Name of the Supervisor",
          "type": "string",
          "x-example": "CAPEX"
        },
        "SAPCode": {
          "description": "ID",
          "type": "integer",
          "x-example": null
        },
        "TargetReleaseDate": {
          "description": "Name of the VP",
          "type": "string",
          "x-example": "2018-08-25T07:00:00.000+0000"
        },
        "MultiPhase": {
          "description": "designation of the VP",
          "type": "string",
          "x-example": "Yes"
        },
        "ImpactedApplications": {
          "description": "email address of a VP",
          "type": "string",
          "x-example": 1
        },
        "RequirementType": {
          "description": "Name of the Supervisor",
          "type": "string",
          "x-example": "System Requirements"
        },
        "Requirements": {
          "description": "role of an employee",
          "type": "string",
          "x-example": 10
        },
        "ApplicationList": {
          "description": "Name of the Supervisor",
          "type": "string",
          "x-example": "Code: TMAG - 07/09"
        },
        "ExpectedCompletionDate": {
          "description": "ID",
          "type": "integer",
          "x-example": "2018-09-01T07:00:00.000+0000"
        },
        "ProjectDocumentLink": {
          "description": "Name of the VP",
          "type": "string",
          "x-example": "https://tmobileusa.sharepoint.com/teams/da/DM/2017DTRetailInventorySerialization/default.aspx"
        },
        "TestEstimator": {
          "description": "designation of the VP",
          "type": "string",
          "x-example": "Bandla, Neelima"
        },
        "PrimaryTestLead": {
          "description": "email address of a VP",
          "type": "string",
          "x-example": "null"
        },
        "AssessmentDate": {
          "description": "Name of the Supervisor",
          "type": "string",
          "x-example": "null"
        },
        "AssessmentValue": {
          "description": "role of an employee",
          "type": "string",
          "x-example": "null"
        },
        "AssessmentComments": {
          "description": "Name of the Supervisor",
          "type": "string",
          "x-example": "null"
        },
        "TestPM/TestArchitect": {
          "description": "role of an employee",
          "type": "string",
          "x-example": "null"
        },
        "PerformanceRequired": {
          "description": "Name of the Supervisor",
          "type": "string",
          "x-example": "null"
        },
        "Status": {
          "description": "ID",
          "type": "integer",
          "x-example": "Assigned"
        },
        "RCMID": {
          "description": "Name of the VP",
          "type": "string",
          "x-example": "null"
        },
        "CreatedBy": {
          "description": "designation of the VP",
          "type": "string",
          "x-example": "Jin, Jiao (Vivian)"
        },
        "Created": {
          "description": "email address of a VP",
          "type": "string",
          "x-example": "2018-08-08T18:16:32.000+0000"
        },
        "UpdatedEstimator": {
          "description": "Name of the Supervisor",
          "type": "string",
          "x-example": "Yes"
        },
        "UpdatedArchitect": {
          "description": "role of an employee",
          "type": "string",
          "x-example": "null"
        },
        "ItemType": {
          "description": "Name of the Supervisor",
          "type": "string",
          "x-example": "Item"
        },
        "Path": {
          "description": "Name of the Supervisor",
          "type": "string",
          "x-example": "teams/EQRE/Intake/Lists/Architecht Intake"
        },
        "UpdatedPTL": {
          "description": "role of an employee",
          "type": "string",
          "x-example": "null"
        }
      }
    },
    "Error": {
      "description": "Used to pass error information in a response. As defined in https://tmobileusa.sharepoint.com/teams/EnterpriseServices/ESG%20Standards%20Documents/APIs/T-Mobile%20API%20Design%20Guidelines%20v1.0.docx",
      "type": "object",
      "properties": {
        "code": {
          "type": "string",
          "description": "Represents the error code."
        },
        "userMessage": {
          "description": "Represents the human readable error message.",
          "type": "string"
        },
        "systemMessage": {
          "description": "Represents the system error message.",
          "type": "string"
        },
        "detailLink": {
          "description": "Represents the custom information providing greater detail on error",
          "type": "string"
        }
      }
    }
  },
  "securityDefinitions": {
    "Oauth": {
      "type": "oauth2",
      "description": "When you sign up for an account, you are given your first API key.\nTo do so please follow this link: https://www.t-mobile.com/site/signup/\nAlso you can generate additional API keys, and delete API keys (as you may\nneed to rotate your keys in the future).\nToken can change to a JwT and ID and PoP tokens.\n",
      "tokenUrl": "https://tmobileh-sb06.apigee.net/v1/oauth2/accesstoken?grant_type=client_credentials",
      "flow": "application",
      "scopes": {
        "read:EmployeeData": "Employee Data"
      }
    }
  }
}