@startuml
skinparam titleBorderRoundCorner 15
skinparam titleBorderThickness 2
skinparam titleBorderColor red
skinparam titleBackgroundColor  LightGreen
title Account Ordering - Get order history
actor APIInvoker
'comment: actor boundary control entity
note over APIInvoker, APIGEEProxy
OAuth 2.0 Token Based Authentication
end note
APIInvoker -> APIGEEProxy:[[https://bitbucket.service.edp.t-mobile.com/users/mpatel58/repos/flow-documentation/browse/swagger/ce.dd.tfb/b2b-experience-products.json {Swagger Link} /account-orders-history]]
|||
APIGEEProxy->AccountOrderService: Get Account order history
AccountOrderService->TBC: Get CR order history
TBC-[#0000FF]>AccountOrderService:  Return account order history details
AccountOrderService-[#0000FF]>APIGEEProxy: Return account order history details 
APIGEEProxy-[#0000FF]>APIInvoker: Success or Failure
|||
note over APIInvoker, AccountOrderService
Error Response On Any Call Will Terminate The Transaction
end note
@enduml