@startuml
autonumber 1 "<font color=red>(<u>##</u>)"


SchedularService -> BulkProcessV2Service: /v2/force/ondemand
note over SchedularService
Cron Job by 0 */2 * * * *
(every 2 mins)
end note

box "BulkProcessV2Service Flows" #LightBlue
    participant BulkProcessV2Service
    participant PreValidationListener <<IQueueListener>>
	participant OrchestrationScheduler
	participant IBulkOrchestratorService
	participant ITEABackendInterface
	participant RSPBackendInterface
	participant IBulkRequestStatusRepository
	participant Bulk_Database
	participant IQueueManager
end box

collections "KafkaValidationTopic" as PreValidationQueue <<PreValidationQueue>>
collections "KafkaTopic" as PartnerBANQueue <<Queue_BAN_X / Queue_BAN_Default>>


autonumber 2

group @Async("asyncTaskExecutor")
BulkProcessV2Service -> OrchestrationScheduler : scheduleBulkRequestProcessing(heaers)
OrchestrationScheduler -> IBulkOrchestratorService : processBulkRequests(schedulerSource)
create IBulkRequestStatusRepository
IBulkOrchestratorService -> IBulkRequestStatusRepository : findByRequestStatusAndHasOrder(SUBMITTED)

note over IBulkRequestStatusRepository #FFAAAA
application properties
---
target.service.names=sim-swap,change-msisdn,change-imei,change-msdn-portin,restore-service,suspend-service,change-service,retry-queue
---
select * from bulk_request_status where request_status=:request_status and
cr_order_id is not null and
(target_service_name=sim-swap or
target_service_name=restore-service or
target_service_name=suspend-service or
target_service_name=change-msisdn or
. . .
target_service_name=change-service)
end note

create Bulk_Database
IBulkRequestStatusRepository -> Bulk_Database : bulk_request_status.get
Bulk_Database --> IBulkRequestStatusRepository : List<BulkRequestStatus>
IBulkRequestStatusRepository --> IBulkOrchestratorService: List<BulkRequestStatus>

create IQueueManager
    group for loop List<BulkRequestStatus>

        IBulkOrchestratorService -> IQueueManager : executePreValidQueuePush(BulkRequestStatus) using @Async
        IQueueManager --> PreValidationQueue : pushToQueue(targetServiceName, \n BulkRequestStatus)
        PreValidationQueue --> IQueueManager : void
        IQueueManager --> IBulkOrchestratorService : void
    end
    IBulkOrchestratorService --> OrchestrationScheduler: void
    OrchestrationScheduler --> BulkProcessV2Service: void
end
BulkProcessV2Service --> SchedularService : Response.OK

== Pre validation Process ==
create PreValidationListener

PreValidationListener <- PreValidationQueue : onMessage(List<ConsumerRecord<String, BulkRequestStatus>> request
group for loop List<BulkRequestStatus> @Async
    PreValidationListener -> PreValidationListener : extractMsisdn(BulkRequestStatus)
    create ITEABackendInterface
    PreValidationListener -> ITEABackendInterface : invokedTEAByBAN(msisdn) : BAN
    ITEABackendInterface --> PreValidationListener : BAN
    alt If No BAN ,invoking with RSP endpoint for Individual type
        create RSPBackendInterface
        PreValidationListener -> RSPBackendInterface : MSISDN
        RSPBackendInterface --> PreValidationListener : BAN
        note right PreValidationListener
         If No BAN, then skip the calculatedQueuebyModuler(BAN)
         Set Queue topic : Queue_BAN_Default
         Process saveAndPushRequest() as BAU process with Queue_BAN_Default
        end note
    end

    PreValidationListener -> PreValidationListener : calculatedQueuebyModuler(BAN) : target_service_name (Partner_BAN_0, Parnter_BAN_1,...)
    note over PreValidationListener
        BAN mod 10 = remainder ( 0, 1,2, ...9)
        Set Queue topic  = Queue_BAN_<remainer>
    end note
    group saveAndPushRequests() as BAU #22 ~ #38
        PreValidationListener -> PreValidationListener : createEntityAndMessageList()
        PreValidationListener -> IBulkRequestStatusRepository: saveRequestDetails(QUEUED)
        IBulkRequestStatusRepository -> Bulk_Database : request_details.save
        Bulk_Database --> IBulkRequestStatusRepository : List<RequestDetails>
        IBulkRequestStatusRepository --> PreValidationListener : List<RequestDetails>
        PreValidationListener -> IQueueManager : executeQueuePush() using new Thread().start()
        IQueueManager --> PartnerBANQueue : pushToQueueByTopic(queueTopic, \n List<RequestMessage>, \n failedRequestMessage)
        PartnerBANQueue --> IQueueManager : void
        IQueueManager --> PreValidationListener : void
        alt if failed Request Messages
            PreValidationListener  -> IBulkRequestStatusRepository: resetRequestStatus(failedRequestMessages, RETRY_LATER)
            IBulkRequestStatusRepository -> Bulk_Database : request_details.save
            Bulk_Database --> IBulkRequestStatusRepository : void
            IBulkRequestStatusRepository --> PreValidationListener: void
        end
    end
    PreValidationListener -> IBulkRequestStatusRepository : updateBulkRequestStatus(QUEUED)
    IBulkRequestStatusRepository -> Bulk_Database: bulk_request_status.save
    Bulk_Database --> IBulkRequestStatusRepository : void
    IBulkRequestStatusRepository --> PreValidationListener: void
end




@enduml