@startuml
autonumber 1


skinparam titleBorderRoundCorner 15
skinparam titleBorderThickness 2
skinparam titleBorderColor red
skinparam titleBackgroundColor  Lightgreen
title CreditCheck Business with TAAP validation
actor Salesforce
'comment: actor boundary control entity

box "APIGEE SaaS Internal Policies" #LightBlue
    participant APIGEE_Proxy
	participant TAAP_Security_v1_ShareFlows
end box


== manual pre-assessment to register public keys ==

note over Salesforce
Generate private_key_sf & public_key_sf by RSA256
Keep the private_key_sf in safe place
end note


Salesforce -> APIGEE_Proxy : register public_key_sf
APIGEE_Proxy -> APIGEE_Proxy : create clientId/secretId for DevApp
APIGEE_Proxy --> Salesforce : send (clientId/secretId)
== manual pre-assessment to register public keys ==


note over Salesforce
Required Headers
---
Authorization Basic <clientId:secretId>
end note

Salesforce -> APIGEE_Proxy : GET /oauth2/v4/access-token
APIGEE_Proxy -> APIGEE_Proxy : binding public_key_sf for access token \n Id_token
APIGEE_Proxy --> Salesforce : response {$.access_token}, {$id_token}


Salesforce -> APIGEE_Proxy : POST /b2b-experience/credit-check/v1/business

note left
Pop token generated by TAAP lib
{$.pop_token} = poptoken-builder.js
---
Required Headers
---
Authorization : Bearer {$.access_token}
X-Auth-Originator : {$.id_token}
X-Authorization : {$.pop_token}
---
{
  "creditApplication": {
    "contactFirstName": "string",
    "contactLastName": "string",
    "billingAddress": {
      "addressLine1": "123 New York",
      "cityName": "New York"
    },
    "phoneDetails": {
      "phoneNumber": "1234567890",
      "phoneType": "HOME"
    },
    "emailAddress": "string",
    "taxId": "111111111",
    "businessName": "test",
    "dunsNumber": "dunsNumber",
    "numberOfLines": "2",
    "offerId": "offer id of the customer"
  }
}
end note


APIGEE_Proxy -> TAAP_Security_v1_ShareFlows : validate access_token
APIGEE_Proxy <-- TAAP_Security_v1_ShareFlows : success
APIGEE_Proxy -> TAAP_Security_v1_ShareFlows : validate id_token
APIGEE_Proxy <-- TAAP_Security_v1_ShareFlows : success
APIGEE_Proxy -> TAAP_Security_v1_ShareFlows : validate pop_token
APIGEE_Proxy <-- TAAP_Security_v1_ShareFlows : success

note over APIGEE_Proxy
Headers
---
Authorization Bearer {$.access_token}
X-Auth-Originator : {$.id_token}
---
<same request payload>
end note
APIGEE_Proxy -> TFB_CreditCheck_MS : POST /credit-check/v1/business
TFB_CreditCheck_MS -> TFB_CreditCheck_MS : validate access_token
TFB_CreditCheck_MS -> TFB_CreditCheck_MS : validate id_token
TFB_CreditCheck_MS -> TFB_CreditCheck_MS : invoke Apigee On Premise for CreditCheck backends
TFB_CreditCheck_MS --> APIGEE_Proxy : response
APIGEE_Proxy --> Salesforce : response

note over Salesforce
{
  "creditReferenceNumber": "string",
  "commonCustomerId": "string",
  "isExistingCustomer": true,
  "applicationStatus": "string",
  "creditClass": "string",
  "creditDate": "2019-09-13",
  "existingAccountDetails": [
    {
      "accountType": "string",
      "billingApplication": "string",
      "financialAccountNumber": "string"
    }
  ]
}
end note

note over Salesforce
TAAP Javascript lib
---
https://bitbucket.service.edp.t-mobile.com/projects/DIAPIC/repos/js-lib-tmobile-poptoken-builder/browse
---
TAAP Java lib
---
https://bitbucket.service.edp.t-mobile.com/projects/DIAPIC/repos/lib-tmobile-jwt-validator/browse
end note
@enduml