@startuml
actor APIInvoker
'comment: actor boundary control entity
APIInvoker -> APIGEEProxy:[[https://bitbucket.service.edp.t-mobile.com/users/mpatel58/repos/flow-documentation/browse/swagger/ce.dd.tfb/b2b-experience-lines-of-service.json {Swagger Link} B2B-Experience-Line-Of-Business ]] 
note over APIInvoker, APIGEEProxy
OAuth 2.0 Token Based Authentication
end note
APIGEEProxy -> ChangeMSISDNService: Call Single/Multi Line Change MSISDN 
APIInvoker -> APIGEEProxy:[[https://bitbucket.service.edp.t-mobile.com/users/mpatel58/repos/flow-documentation/browse/swagger/ce.dd.tfb/b2b-experience-lines-of-service.json {Swagger Link} /mobile-number-change-eligibility]]
ChangeMSISDNService-> TBC: Validate Organization   
TBC-[#0000FF]> ChangeMSISDNService: Success Message
alt Single Line
APIInvoker -> APIGEEProxy:[[https://bitbucket.service.edp.t-mobile.com/users/mpatel58/repos/flow-documentation/browse/swagger/ce.dd.tfb/b2b-experience-lines-of-service.json {Swagger Link} /mobile-number-change]]
APIGEEProxy->ChangeMSISDNService: MSISDN Processing 
ChangeMSISDNService->RSP: Retrieve Available Mobile Numbers
RSP-[#0000FF]>ChangeMSISDNService : Valid Number List
ChangeMSISDNService-> TBC : Create New Order
TBC-[#0000FF]>ChangeMSISDNService : Return Order Response
ChangeMSISDNService-> Tibco : Send Change MSISDN Details
Tibco-[#0000FF]>ChangeMSISDNService : Return MSISDN Change Response
ChangeMSISDNService-> TBC : Update Order
TBC-[#0000FF]>ChangeMSISDNService : Return Order Response
else MultiLine 
APIInvoker -> BulkService : Submit Bulk Request
note right 
	Bulk Request Is Processed As 
	Multi Sinqle Line Change 
	MSISDN Request
end note
BulkService -[#0000FF]> APIGEEProxy: Success or Failure
end
APIGEEProxy -[#0000FF]> APIInvoker: Success or Failure
note over APIInvoker, ChangeMSISDNService
	Error Response On Any Call Will Terminate The Transaction
end note
@enduml