@startuml
skinparam titleBorderRoundCorner 15
skinparam titleBorderThickness 2
skinparam titleBorderColor red
skinparam titleBackgroundColor  LightGreen
title Account Details - Password Change
actor APIInvoker
'comment: actor boundary control entity
note over APIInvoker, APIGEEProxy
OAuth 2.0 Token Based Authentication
end note
APIInvoker -> APIGEEProxy:[[https://bitbucket.service.edp.t-mobile.com/users/mpatel58/repos/flow-documentation/browse/swagger/ce.dd.tfb/b2b-experience-billing-accounts.json {Swagger Link} //{billing-account}/password-change]]
APIGEEProxy -> AccountDetailService: Initiate Change Password
group Change Password
AccountDetailService->TBC : Validate Organization   
TBC-[#0000FF]> AccountDetailService: Success or Failure
|||
AccountDetailService->RSP : Account verify data
RSP-[#0000FF]> AccountDetailService: Success or Failure
|||
AccountDetailService->TBC : Create  Order  
TBC-[#0000FF]> AccountDetailService: Success or Failure
|||
AccountDetailService->RSP : Change Password call
RSP-[#0000FF]> AccountDetailService: Success or Failure
|||
AccountDetailService->TBC : Update Order 
TBC-[#0000FF]> AccountDetailService: Success or Failure
|||
note over APIInvoker, AccountDetailService
	Error Response On Any Call Will Terminate The Transaction
end note
@enduml