@startuml
autonumber 1


skinparam titleBorderRoundCorner 15
skinparam titleBorderThickness 2
skinparam titleBorderColor red
skinparam titleBackgroundColor  Lightgreen
title Restore Service Part 1
actor API_Partner
'comment: actor boundary control entity
note over API_Partner, APIGEE_Proxy
OAuth 2.0 Token Based Authentication
end note

note over API_Partner
required headers for all APIs
----
Content-Type : application/json
B2b-client : TEST
B2b-org : 7000000999999911111
Authorization : <OAuth2 access_token>
end note

note over API_Partner
(1) Get Suspend reason code API
end note

API_Partner->APIGEE_Proxy :  GET /b2b-experience/v1/service-suspension-reasons



APIGEE_Proxy-[#0000FF]>API_Partner: Response {$.suspendReasons[].code}

note over APIGEE_Proxy
{
    "status": "SUCCESS",
    "message": "Suspend reasons",
    "suspendReasons": [
        {
            "code": "TMPS",
            "description": "Temporary Suspend"
        },
        {
            "code": "RSQ",
            "description": "Reseller Suspend without charges"
        }
        ...
    ]
}
end note


note over API_Partner
(2) Get Approval Type API for Restore
---
required query parameters
---
org=7000000999999911111
reason-code={$.suspendReasons[].code}
end note

API_Partner -> APIGEE_Proxy : GET /b2b-experience/v1/service-suspension-approval-type?orgId=7000000999999911111&reason-code=RSS

APIGEE_Proxy-[#0000FF]>API_Partner: Response {$.approverTypes[].code}
note over APIGEE_Proxy
{
    "status": "SUCCESS",
    "message": "Approval Types",
    "approverTypes": [
        {
            "code": "SALES_REP_INITIATED",
            "description": "SALES REP INITIATED"
        },
        {
            "code": "B2B_MARKETING_MANAGER",
            "description": "B2B MARKETING MANAGER"
        },
        ...
        {
            "code": "CUSTOMER_INITIATED",
            "description": "CUSTOMER INITIATED"
        }
    ]
}
end note

note over API_Partner
(3) Validate Restore Eligibility API
---
required Path URI
---
mobile-number=ODEzNDg1MzE4Nw==
---
required query parameters
---
org=7000000999999911111
reason-code={$.suspendReasons[].code}
validator-type={$.approverTypes[].code}
suspend-start-date=2019-08-25
restore-date=2019-08-29
end note

API_Partner -> APIGEE_Proxy : GET /b2b-experience/v1/lines-of-service/{mobile-number}/service-restoration-eligibility?org=7000000999999911111 \n &reason-code=RSS&&validator-type=CUSTOMER_INITIATED&suspend-start-date=2019-08-25&restore-date=2019-08-29

APIGEE_Proxy-[#0000FF]>API_Partner: Response {$.ban}, {$.reasonCode}, {$.dealerCode}, {$.restoreDate}
note over APIGEE_Proxy
{
    "status": "SUCCESS",
    "message": "Successfully validated Suspend request",
    "ban": "966660999",
    "msisdn": "8134853999",
    "reasonCode": "RSS",
    "suspendStartDate": "2019-08-25",
    "restoreDate": "2019-08-29",
    "dealerCode": "0000999",
    "commitEndDate": "2019-05-15-07:00"
}
end note

note over API_Partner, APIGEE_Proxy
	Error Response On Any Call Will Terminate The Transaction
end note
@enduml