@startuml
skinparam titleBorderRoundCorner 15
skinparam titleBorderThickness 2
skinparam titleBorderColor red
skinparam titleBackgroundColor  LightGreen
title Account Details - Account Info 
actor APIInvoker
'comment: actor boundary control entity
note over APIInvoker, APIGEEProxy
OAuth 2.0 Token Based Authentication
end note
APIInvoker -> APIGEEProxy:[[https://bitbucket.service.edp.t-mobile.com/users/mpatel58/repos/flow-documentation/browse/swagger/ce.dd.tfb/b2b-experience-billing-accounts.json {Swagger Link} //{billing-account}/account-info]]
APIGEEProxy -> AccountDetailService: Call accountdetail based on OrgId and BAN
AccountDetailService->TBC : Validate Organization   
TBC-[#0000FF]> AccountDetailService: Success or Failure
|||
AccountDetailService->Samson: Check account details/account info   
Samson-[#0000FF]> AccountDetailService: Success Message with subscriber lines,\n status and monthly recurring charge on those lines.
AccountDetailService-[#0000FF]> APIGEEProxy: Success or Failure
APIGEEProxy -[#0000FF]> APIInvoker: Success or Failure
|||
note over APIInvoker, AccountDetailService
	Error Response On Any Call Will Terminate The Transaction
end note
@enduml