{
	"swagger": "2.0",
	"basePath": "/reb2-order/v1",
	"schemes": ["https"],
	"info": {
		"title": "API 2818- updateMileStone",
		"description": "This API is used to activate the sim on order Summary page",
		"version": "1.0.2"
	},
	"host": "dit01.api.t-mobile.com",
	"produces": ["application/json"],
	"definitions": {
		"updateMileStonePayloadItem": {
			"title": "updateMileStone",
			"properties": {
				"orderLines": {
					"type": "array",
					"items": {
						"properties": {
							"orderLineId": {
								"type": "string"
							},
							"imsi": {
								"type": "string"
							},
							"imei": {
								"type": "string"
							},
							"reasoncode": {
								"type": "string"
							},
							"actioncode": {
								"type": "string"
							}
						}
					}
				}
			}
		},
		"postUpdateMileStone": {
			"title": "postCancelOrder",
			"properties": {
				"success": {
					"type": "boolean"
				}
			}
		},
		"errors": {
			"type": "array",
			"items": {
				"properties": {
					"Code": {
						"type": "string"
					},
					"userMessage": {
						"type": "string"
					},
					"systemMessage": {
						"type": "string"
					}
				}
			}
		}
	},
	"paths": {
		"/orders/{orderId}/update-milestone": {
			"post": {
				"summary": "updateMileStone",
				"description": "API:2818:updateMileStone",
				"operationId": "updateMileStone",
				"parameters": [{
					"name": "senderId",
					"in": "header",
					"type": "string",
					"required": true,
					"description": "Uniquely identifies an Operation consumer. Used for Tracking and in Business Rules."
				},
				{
					"name": "channelId",
					"in": "header",
					"type": "string",
					"required": true,
					"description": "Identifies the business unit or sales channel for the Request.Property values relating to the target system are derived using partner, application, and channel information. This value may control business logic and data routing."
				},
				{
					"name": "applicationId",
					"in": "header",
					"type": "string",
					"required": true,
					"description": "Identifies the application, system, or tool that is being used to perform the transaction(s) related to this request. Property values relating to the target system are derived using partner, application, and channel information."
				},
				{
					"name": "accept-encoding",
					"in": "header",
					"type": "string",
					"required": false
				},
				{
					"name": "accept-language",
					"in": "header",
					"type": "string",
					"required": false
				},
				{
					"name": "authorization",
					"in": "header",
					"type": "string",
					"required": false,
					"description": "A user agent that wishes to authenticate itself with a server"
				},
				{
					"name": "storeId",
					"in": "header",
					"type": "string",
					"required": false,
					"description": "Required only when ChannelId is RETAIL"
				},
				{
					"name": "activityId",
					"in": "header",
					"type": "string",
					"required": true,
					"description": "A value populated by the Sender used to track a unit of work within a workflow. Senders are encouraged to develop a useful scheme. Do not use customer-sensitive information"
				},
				{
					"name": "content-type",
					"in": "header",
					"type": "string",
					"required": false,
					"description": "The Content-Type entity-header field indicates the media type of the entity-body sent to the recipient or, in the case of the HEAD method, the media type that would have been sent had the request been a GET"
				},
				{
					"name": "accept",
					"in": "header",
					"type": "string",
					"required": false
				},
				{
					"name": "interactionId",
					"in": "header",
					"type": "string",
					"required": true
				},
				{
					"name": "sessionId",
					"in": "header",
					"type": "string",
					"required": false,
					"description": "A value populated by the Sender used to track the transactions that occur during a session, a long-lasting interaction that is maintained by the sender. Senders are encouraged to develop a useful scheme. Do not use customer-sensitive information"
				},
				{
					"name": "applicationUserId",
					"in": "header",
					"type": "string",
					"required": true
				},
				{
					"name": "terminalId",
					"in": "header",
					"type": "number",
					"required": false
				},
				{
					"name": "terminalType",
					"in": "header",
					"type": "string",
					"required": false
				},
				{
					"name": "updateMileStone",
					"in": "body",
					"description": "valid updateMileStone",
					"required": true,
					"schema": {
						"$ref": "#/definitions/updateMileStonePayloadItem"
					}
				},
				{
					"name": "orderId",
					"in": "path",
					"description": "valid orderId",
					"required": true,
					"type": "number"
				}],
				"tags": ["purchase-path-order"],
				"responses": {
					"200": {
						"description": "API updateMileStone",
						"schema": {
							"type": "object",
							"$ref": "#/definitions/postUpdateMileStone"
						}
					},
					"400": {
						"description": "Bad Request",
						"schema": {
							"$ref": "#/definitions/errors"
						}
					},
					"401": {
						"description": "Unauthorized",
						"schema": {
							"$ref": "#/definitions/errors"
						}
					},
					"403": {
						"description": "Forbidden",
						"schema": {
							"$ref": "#/definitions/errors"
						}
					},
					"405": {
						"description": "Method Not Allowed",
						"schema": {
							"$ref": "#/definitions/errors"
						}
					},
					"500": {
						"description": "Internal Server Error",
						"schema": {
							"$ref": "#/definitions/errors"
						}
					},
					"503": {
						"description": "Service Unavailable",
						"schema": {
							"$ref": "#/definitions/errors"
						}
					}
				}
			}
		}
	}
}