@startuml

!define MS_SERVICE Digitization-Managemenet-V2
!define MS_OPERATION update-billing-pin-of-sos
!define LAST_UPDATE %date[yyyy.MM.dd 'at' HH:mm]%
!define module(x) component x <<module>> 
!define send(a,b,c) a->b : c
!define response(a,b) a-->b : Response

left header
<font color=blue>MS: MS_SERVICE/MS_OPERATION</font>
endheader

title
MS: MS_SERVICE/MS_OPERATION
Last update: LAST_UPDATE
end title

/' 
 ' This is our suppression for the footbox (aka. our diagrams box a the bottom of each flow
' tower - comment out the next line and regenerate the diagram, to see what I mean)
'/
hide footbox


/'
' The spacing in the following text is important. 
 ' 
 ' Trust me.
'/ 

center footer

Copyright (c) 2019 Amdocs.
 
Information Security Level 1 - Confidential
 
CONTAINS RESTRICTED - PROPRIETARY INFORMATION
 
This document is strictly confidential and proprietary; to be used only by authorized persons
on a need to know basis, and must not be distributed without specific permission.
 
In the event of unauthorized use of this document or the confidential information it contains,
violators will be subject to sever disciplinary action, based on Amdocs regulations, as well as
any other sanctions applicable by law.
 
endfooter

participant Channel
participant "Digitization-\nManagement-V2\n-MS" as DM
participant "DB" as DB
participant "Tuxedo" as CSM
participant "File Server" as FS

skinparam sequenceArrowThickness 2
skinparam ArrowColor  #blue 


Channel -> DM:  update-billing-pin-of-sos
activate DM#lightgreen

send(DM,CSM,arApiBanDtl)
activate CSM#lightgreen

ref over CSM
arApiBanDtl
end

response(CSM,DM)
deactivate CSM

send(DM,DB,retrieveSosFormInfoQuery)
activate DB#lightgreen

ref over DB
retrieveSosFormInfoQuery
end

response(DB,DM)
deactivate DB



send(DM,FS,readfile)
activate FS#lightgreen

ref over FS
readfile
end

response(FS,DM)
deactivate FS

send(DM,DM,AES-128\n Encryption)

send(DM,FS,writefile)
activate FS#lightgreen

ref over FS
writeFile
end

response(FS,DM)
deactivate FS

response(DM,Channel)
deactivate DM

@enduml