@startuml
title "End User Registration"
participant "User" as A
participant "WCS" as B
participant "DSPA" as C


B->C:Register User
activate C
alt Sucessful Registration
C->C: MSISDN is valid and does not exist
C->C: User is valid and does not exist
C-->A: Send Mail with PIN
end
alt MSISDN Check
C->C: MSISDN Exists already
C-->A: Fail the Registration
end

alt USER Check
C->C: User Exists already
C-->A: Fail the Registration
deactivate C
end
@enduml