@startuml
title "BOSS User Registration"
actor "User" as A
participant "WCS" as B
participant "Approval Queue" as C

A->B:Register User
activate B
B->B: Check NTID/Password
B->C: Email sent for Approval
activate C
C-->A: Registration Successful
deactivate C
deactivate B
alt Registration Unsucesful
B->B: Incorrect NTID/Password
hnote over B #red : failure
B-->A: Registration Unscuccesful
end
@enduml