{
    "swagger": "2.0",
    "info": {
        "description": "ITSM - Change Record Action API",
        "version": "2",
        "title": "ITSM - Change Record Action API",
        "contact": {
            "name": "Enterprise Solution Delivery - DevOps Team",
            "url": "https://techportal.t-mobile.com",
            "email": "maheshkannan.sellamuthu@t-mobile.com"
        }
    },
    "host": "craction-api-v1.dev.px-npe01b.cf.t-mobile.com",
    "basePath": "/",
    "tags": [
        {
            "name": "change-controller",
            "description": "Change API"
        }
    ],
    "paths": {
        "/itsm/change/v2/create/{activity_name}": {
            "post": {
                "tags": [
                    "change-controller"
                ],
                "summary": "Adds new CR",
                "operationId": "createChangeEntityUsingPOST",
                "consumes": [
                    "application/json"
                ],
                "produces": [
                    "application/json"
                ],
                "parameters": [
                    {
                        "name": "activity_name",
                        "in": "path",
                        "description": "activity_name",
                        "required": true,
                        "type": "string"
                    },
                    {
                        "in": "body",
                        "name": "createChangeEntity",
                        "description": "createChangeEntity",
                        "required": true,
                        "schema": {
                            "$ref": "#/definitions/CreateChangeEntity"
                        }
                    },
                    {
                        "name": "user-id",
                        "in": "header",
                        "description": "user-id",
                        "required": true,
                        "type": "string"
                    }
                ],
                "responses": {
                    "200": {
                        "description": "OK",
                        "schema": {
                            "$ref": "#/definitions/ResponseEntity"
                        }
                    },
                    "201": {
                        "description": "Created"
                    },
                    "401": {
                        "description": "Unauthorized"
                    },
                    "403": {
                        "description": "Forbidden"
                    },
                    "404": {
                        "description": "Not Found"
                    }
                },
                "deprecated": false
            }
        },
        "/itsm/change/v2/{cr_id}/{action_name}": {
            "put": {
                "tags": [
                    "change-controller"
                ],
                "summary": "Update CR status with multiple action",
                "operationId": "crActionUsingPUT",
                "consumes": [
                    "application/json"
                ],
                "produces": [
                    "application/json;charset=UTF-8",
                    "application/atom+xml"
                ],
                "parameters": [
                    {
                        "name": "action_name",
                        "in": "path",
                        "description": "Select Action Name",
                        "required": false,
                        "type": "string",
                        "enum": [
                            "start",
                            "stop",
                            "save",
                            "close",
                            "approve",
                            "request-change",
                            "request-approval"
                        ]
                    },
                    {
                        "name": "cr_id",
                        "in": "path",
                        "description": "cr_id",
                        "required": true,
                        "type": "string"
                    },
                    {
                        "in": "body",
                        "name": "updateChangeEntity",
                        "description": "updateChangeEntity",
                        "required": true,
                        "schema": {
                            "$ref": "#/definitions/UpdateChangeEntity"
                        }
                    },
                    {
                        "name": "user-id",
                        "in": "header",
                        "description": "user-id",
                        "required": false,
                        "type": "string"
                    }
                ],
                "responses": {
                    "200": {
                        "description": "OK",
                        "schema": {
                            "$ref": "#/definitions/ResponseEntity"
                        }
                    },
                    "201": {
                        "description": "Created"
                    },
                    "401": {
                        "description": "Unauthorized"
                    },
                    "403": {
                        "description": "Forbidden"
                    },
                    "404": {
                        "description": "Not Found"
                    }
                },
                "deprecated": false
            }
        }
    },
    "definitions": {
        "CreateChangeEntity": {
            "type": "object",
            "properties": {
                "affected_cis": {
                    "type": "array",
                    "items": {
                        "type": "string"
                    }
                },
                "change_cis": {
                    "type": "array",
                    "items": {
                        "type": "string"
                    }
                },
                "change_type_id": {
                    "type": "string"
                },
                "cr_description": {
                    "type": "string"
                },
                "cr_short_description": {
                    "type": "string"
                },
                "external_reference_id": {
                    "type": "string"
                },
                "impact": {
                    "type": "string"
                },
                "label": {
                    "type": "string"
                },
                "outage_duration": {
                    "type": "string"
                },
                "planned_end": {
                    "type": "string",
                    "format": "date-time"
                },
                "planned_start": {
                    "type": "string",
                    "format": "date-time"
                },
                "requestor": {
                    "type": "string"
                },
                "sub_status": {
                    "type": "string"
                },
                "tech_review_status": {
                    "type": "string"
                }
            },
            "title": "CreateChangeEntity"
        },
        "ResponseEntity": {
            "type": "object",
            "properties": {
                "body": {
                    "type": "object"
                },
                "statusCode": {
                    "type": "string",
                    "enum": [
                        "100",
                        "101",
                        "102",
                        "103",
                        "200",
                        "201",
                        "202",
                        "203",
                        "204",
                        "205",
                        "206",
                        "207",
                        "208",
                        "226",
                        "300",
                        "301",
                        "302",
                        "303",
                        "304",
                        "305",
                        "307",
                        "308",
                        "400",
                        "401",
                        "402",
                        "403",
                        "404",
                        "405",
                        "406",
                        "407",
                        "408",
                        "409",
                        "410",
                        "411",
                        "412",
                        "413",
                        "414",
                        "415",
                        "416",
                        "417",
                        "418",
                        "419",
                        "420",
                        "421",
                        "422",
                        "423",
                        "424",
                        "426",
                        "428",
                        "429",
                        "431",
                        "451",
                        "500",
                        "501",
                        "502",
                        "503",
                        "504",
                        "505",
                        "506",
                        "507",
                        "508",
                        "509",
                        "510",
                        "511"
                    ]
                },
                "statusCodeValue": {
                    "type": "integer",
                    "format": "int32"
                }
            },
            "title": "ResponseEntity"
        },
        "UpdateChangeEntity": {
            "type": "object",
            "properties": {
                "close_comment": {
                    "type": "string"
                },
                "cr_id": {
                    "type": "string"
                },
                "status_reason": {
                    "type": "string"
                }
            },
            "title": "UpdateChangeEntity"
        }
    }
}