{
    "swagger": "2.0",
    "info": {
        "title": "DowntimeForms",
        "description": "This service support the use of the legalDocumentsMessage resource. Object for Document generation",
        "version": "1.0.0",
        "x-createdBy": {
            "dateCreated": "Tue Feb 26 23:54:28 2019",
            "createdBy": "nethra.h",
            "application": "Recite",
            "appVersion": "0.4.1.2721",
            "documentId": "8a4e9c56-dfcb-420e-b9c2-6546919faf70",
            "status": "Conceptual - Initial",
            "classification": "17.4.6 Legal Document Review Mgmt.",
            "profile": "Core Business Capability Service",
            "serviceLayer": "Resource - Other"
        }
    },
    "x-servers": [
		{
			"url": "https://qlab02.core.op.api.t-mobile.com/legal/v1/agreements/downtime-forms",
			"description": "downtime-forms"
		}
	],
    "tags": [],
    "host": "dev01.api.t-mobile.com",
    "basePath": "/legal/v1/agreements/downtime-forms",
    "x-tryOut":"yes",
    "schemes": [
        "https"
    ],
    "paths": {
        "/": {
            "post": {
                "x-api-pattern": "CreateInCollection",
                "summary": "Details of all the agreements on the request",
                "description": "Details of all the agreements on the request",
                "operationId": "generateagreements",
                "consumes": [
                    "application/json",
                    "application/xml"
                ],
                "produces": [
                    "application/json",
                    "application/xml"
                ],
                "parameters": [
                    {
                        "name": "DowntimeRequest",
                        "in": "body",
                        "description": "Object for Document generation, presentment, saving and retrieval ",
                        "required": true,
                        "schema": {
                            "$ref": "#/definitions/DowntimeRequest"
                        }
                    },
                    {
                        "name": "Accept-Language",
                        "in": "header",
                        "description": "List of acceptable human languages for response",
                        "x-example": "en-us,en;q=0.5",
                        "required": true,
                        "type": "string",
                        "minLength": 1,
                        "maxLength": 256,
                        "pattern": "^[\\S ]*$"
                    },
                    {
                        "name": "Authorization",
                        "in": "header",
                        "description": "The HTTP Authorization request header contains the credentials to authenticate a user agent with a server.",
                        "x-example": "Bearer mF_9.B5f-4.1JqM",
                        "required": true,
                        "type": "string",
                        "minLength": 1,
                        "maxLength": 256,
                        "pattern": "^[\\S ]+$"
                    },
                    {
                        "name": "Content-Type",
                        "in": "header",
                        "description": "The MIME type of this content",
                        "x-example": "text/xml",
                        "required": true,
                        "type": "string",
                        "minLength": 1,
                        "maxLength": 256,
                        "pattern": "^[ \\S]+$"
                    },
                    {
                        "name": "Date",
                        "in": "header",
                        "description": "The Date general HTTP header contains the date and time at which the message was originated.",
                        "x-example": "Mon, 05 Mar 2018 16:38:08 GMT",
                        "required": false,
                        "type": "string",
                        "format": "date-time",
                        "pattern": "^(Mon|Tue|Wed|Thu|Fri|Sat|Sun), [0-3]{1}[0-9]{1} (Jan|Feb|Mar|Apr|May|Jun|Jul|Aug|Sep|Oct|Nov|Dec) [1-3][0-9]{3} [0-2][0-9]:[0-6][0-9]:[0-6][0-9] GMT$"
                    },
                    {
                        "name": "activity-id",
                        "in": "header",
                        "description": "Unique id alphanumeric value generated and sent by the partner to identify every the service request uniquely. Sample: XyzA:D1s5s1i-X6AFRvfiPBfs-1234  Pass as is to downstream calls.",
                        "x-example": "c34e7acd-384b-4c22-8b02-ba3963682508",
                        "required": true,
                        "type": "string",
                        "minLength": 1,
                        "maxLength": 256,
                        "pattern": "^[\\S]*$"
                    },
                    {
                        "name": "application-id",
                        "in": "header",
                        "description": "Identifies the application, system, or tool that is being used to perform the transaction related to this request. Sample values:ACUI, ESERVICE, REBELLION, WARP",
                        "x-example": "REBELLION",
                        "required": false,
                        "type": "string",
                        "minLength": 1,
                        "maxLength": 256,
                        "pattern": "^[\\S]*$"
                    },
                    {
                        "name": "channel-id",
                        "in": "header",
                        "description": "Categorization of access or business stream",
                        "x-example": "IVR",
                        "required": false,
                        "type": "string",
                        "minLength": 1,
                        "maxLength": 256,
                        "pattern": "^[\\S]*$"
                    },
                    {
                        "name": "interaction-id",
                        "in": "header",
                        "description": "Alphanumeric value represent a common transaction id across all calls made from UI, while completing all business activity needs of a particular customer.",
                        "x-example": "cc688d54-50d1-49d4-8c5d-95459d1172e8",
                        "required": true,
                        "type": "string",
                        "minLength": 1,
                        "maxLength": 256,
                        "pattern": "^[\\S]*$"
                    },
                    {
                        "name": "timestamp",
                        "in": "header",
                        "description": "ms since 1/1/70 adjusted to GMT",
                        "x-example": "1524599536",
                        "required": false,
                        "type": "integer",
                        "format": "int64",
                        "minimum": 0,
                        "maximum": 999999999999,
                        "pattern": "^[\\d]*$"
                    },
                    {
                        "name": "x-auth-originator",
                        "in": "header",
                        "description": "API chain initiating callers access token",
                        "x-example": "c34e7acd-384b-4c22-8b02-ba3963682508",
                        "required": false,
                        "type": "string",
                        "minLength": 1,
                        "maxLength": 256,
                        "pattern": "^[\\S]*$"
                    }
                ],
                "responses": {
                    "400": {
                        "description": "Bad Request",
                        "schema": {
                            "$ref": "#/definitions/Error"
                        },
                        "examples": {
                            "application/json": [
                                {
                                    "code": "400",
                                    "userMessage": "Bad Request",
                                    "systemMessage": "Bad Request"
                                }
                            ]
                        },
                        "headers": {
                            "Content-Length": {
                                "description": "Length of the response body in octets; not supported if Transfer-Endoding = chunked",
                                "x-example": "9112300000003",
                                "type": "integer",
                                "format": "int64",
                                "minimum": 0,
                                "pattern": "^[\\d]*$"
                            },
                            "Content-Type": {
                                "description": "The MIME type of this content",
                                "x-example": "text/xml",
                                "type": "string",
                                "minLength": 1,
                                "maxLength": 256,
                                "pattern": "^[ \\S]+$"
                            },
                            "Date": {
                                "description": "The Date general HTTP header contains the date and time at which the message was originated.",
                                "x-example": "Mon, 05 Mar 2018 16:38:08 GMT",
                                "type": "string",
                                "format": "date-time",
                                "pattern": "^(Mon|Tue|Wed|Thu|Fri|Sat|Sun), [0-3]{1}[0-9]{1} (Jan|Feb|Mar|Apr|May|Jun|Jul|Aug|Sep|Oct|Nov|Dec) [1-3][0-9]{3} [0-2][0-9]:[0-6][0-9]:[0-6][0-9] GMT$"
                            },
                            "Location": {
                                "description": "The Location header specifies the URI of a created resource, or redirects the API consumer to an alternate resource location.",
                                "x-example": "http://api.t-mo.com/order-mgmt/v1/orders/123xyz-0/status",
                                "type": "string",
                                "minLength": 1,
                                "maxLength": 65536,
                                "pattern": "^[\\S]*$"
                            },
                            "Transfer-Encoding": {
                                "description": "The form of encoding used to safely transfer the entity to the user. Currently defined methods are: chunked, compress, deflate, gzip, identity.",
                                "x-example": "chunked",
                                "type": "string",
                                "minLength": 1,
                                "maxLength": 15,
                                "pattern": "^[\\S]*$"
                            }
                        }
                    },
                    "401": {
                        "description": "Unauthorized",
                        "schema": {
                            "$ref": "#/definitions/Error"
                        },
                        "examples": {
                            "application/json": [
                                {
                                    "code": "401",
                                    "userMessage": "Unauthorized",
                                    "systemMessage": "Unauthorized"
                                }
                            ]
                        },
                        "headers": {}
                    },
                    "403": {
                        "description": "Client access denied",
                        "schema": {
                            "$ref": "#/definitions/Error"
                        },
                        "examples": {
                            "application/json": [
                                {
                                    "code": "403",
                                    "userMessage": "Client access denied",
                                    "systemMessage": "Client access denied"
                                }
                            ]
                        },
                        "headers": {}
                    },
                    "404": {
                        "description": "Resource not found",
                        "schema": {
                            "$ref": "#/definitions/Error"
                        },
                        "examples": {
                            "application/json": [
                                {
                                    "code": "404",
                                    "userMessage": "Resource not found",
                                    "systemMessage": "Resource not found"
                                }
                            ]
                        },
                        "headers": {}
                    },
                    "405": {
                        "description": "Method Not Allowed",
                        "schema": {
                            "$ref": "#/definitions/Error"
                        },
                        "examples": {
                            "application/json": [
                                {
                                    "code": "405",
                                    "userMessage": "Method Not Allowed",
                                    "systemMessage": "Method Not Allowed"
                                }
                            ]
                        },
                        "headers": {
                            "Access-Control-Allow-Headers": {
                                "description": "For CORS pre-flight OPTIONS requests, used by the browser to block disallowed requests",
                                "x-example": "Authorization, Content-Type",
                                "type": "string",
                                "minLength": 1,
                                "maxLength": 256,
                                "pattern": "^[\\S ]+$"
                            },
                            "Allow": {
                                "description": "list of supported methods for URI",
                                "x-example": "GET",
                                "type": "string",
                                "minLength": 1,
                                "maxLength": 256,
                                "pattern": "^[\\S]*$"
                            },
                            "service-transaction-id": {
                                "description": "Request ID echoed back by server",
                                "x-example": "23409209723",
                                "type": "string",
                                "minLength": 1,
                                "maxLength": 256,
                                "pattern": "^[\\S]*$"
                            }
                        }
                    },
                    "406": {
                        "description": "Mismatching data format",
                        "schema": {
                            "$ref": "#/definitions/Error"
                        },
                        "examples": {
                            "application/json": [
                                {
                                    "code": "406",
                                    "userMessage": "Mismatching data format",
                                    "systemMessage": "Mismatching data format"
                                }
                            ]
                        },
                        "headers": {}
                    },
                    "409": {
                        "description": "Invalid data",
                        "schema": {
                            "$ref": "#/definitions/Error"
                        },
                        "examples": {
                            "application/json": [
                                {
                                    "code": "409",
                                    "userMessage": "Invalid data",
                                    "systemMessage": "Invalid data"
                                }
                            ]
                        },
                        "headers": {}
                    },
                    "415": {
                        "description": "Unsupported Media Type",
                        "schema": {
                            "$ref": "#/definitions/Error"
                        },
                        "examples": {
                            "application/json": [
                                {
                                    "code": "415",
                                    "userMessage": "Unsupported Media Type",
                                    "systemMessage": "Unsupported Media Type"
                                }
                            ]
                        },
                        "headers": {}
                    },
                    "500": {
                        "description": "System Error",
                        "schema": {
                            "$ref": "#/definitions/Error"
                        },
                        "examples": {
                            "application/json": [
                                {
                                    "code": "500",
                                    "userMessage": "System Error",
                                    "systemMessage": "System Error"
                                }
                            ]
                        },
                        "headers": {}
                    },
                    "503": {
                        "description": "Service unavailable",
                        "schema": {
                            "$ref": "#/definitions/Error"
                        },
                        "examples": {
                            "application/json": [
                                {
                                    "code": "503",
                                    "userMessage": "Service unavailable",
                                    "systemMessage": "Service unavailable"
                                }
                            ]
                        },
                        "headers": {}
                    },
                    "200": {
                        "description": "Success",
                        "schema": {
                            "$ref": "#/definitions/DowntimeResponse"
                        },
                        "headers": {
                            "Cache-Control": {
                                "description": "Cache policy supported for the resource by the server",
                                "x-example": "no-cache",
                                "type": "string",
                                "minLength": 1,
                                "maxLength": 256,
                                "pattern": "^[\\S]*$"
                            },
                            "Content-Length": {
                                "description": "Length of the response body in octets; not supported if Transfer-Endoding = chunked",
                                "x-example": "9112300000003",
                                "type": "integer",
                                "format": "int64",
                                "minimum": 0,
                                "pattern": "^[\\d]*$"
                            },
                            "Content-Type": {
                                "description": "The MIME type of this content",
                                "x-example": "text/xml",
                                "type": "string",
                                "minLength": 1,
                                "maxLength": 256,
                                "pattern": "^[ \\S]+$"
                            },
                            "Date": {
                                "description": "The Date general HTTP header contains the date and time at which the message was originated.",
                                "x-example": "Mon, 05 Mar 2018 16:38:08 GMT",
                                "type": "string",
                                "format": "date-time",
                                "pattern": "^(Mon|Tue|Wed|Thu|Fri|Sat|Sun), [0-3]{1}[0-9]{1} (Jan|Feb|Mar|Apr|May|Jun|Jul|Aug|Sep|Oct|Nov|Dec) [1-3][0-9]{3} [0-2][0-9]:[0-6][0-9]:[0-6][0-9] GMT$"
                            },
                            "ETag": {
                                "description": "The ETag header specifies the unique entity tag value for the returned resource.",
                                "x-example": "*",
                                "type": "string",
                                "minLength": 1,
                                "maxLength": 256,
                                "pattern": "^[\\S]*$"
                            },
                            "Location": {
                                "description": "The Location header specifies the URI of a created resource, or redirects the API consumer to an alternate resource location.",
                                "x-example": "http://api.t-mo.com/order-mgmt/v1/orders/123xyz-0/status",
                                "type": "string",
                                "minLength": 1,
                                "maxLength": 65536,
                                "pattern": "^[\\S]*$"
                            },
                            "Transfer-Encoding": {
                                "description": "The form of encoding used to safely transfer the entity to the user. Currently defined methods are: chunked, compress, deflate, gzip, identity.",
                                "x-example": "chunked",
                                "type": "string",
                                "minLength": 1,
                                "maxLength": 15,
                                "pattern": "^[\\S]*$"
                            }
                        }
                    },
                    "201": {
                        "description": "Created",
                        "headers": {
                            "Content-Length": {
                                "description": "Length of the response body in octets; not supported if Transfer-Endoding = chunked",
                                "x-example": "9112300000003",
                                "type": "integer",
                                "format": "int64",
                                "minimum": 0,
                                "pattern": "^[\\d]*$"
                            },
                            "Date": {
                                "description": "The Date general HTTP header contains the date and time at which the message was originated.",
                                "x-example": "Mon, 05 Mar 2018 16:38:08 GMT",
                                "type": "string",
                                "format": "date-time",
                                "pattern": "^(Mon|Tue|Wed|Thu|Fri|Sat|Sun), [0-3]{1}[0-9]{1} (Jan|Feb|Mar|Apr|May|Jun|Jul|Aug|Sep|Oct|Nov|Dec) [1-3][0-9]{3} [0-2][0-9]:[0-6][0-9]:[0-6][0-9] GMT$"
                            },
                            "ETag": {
                                "description": "The ETag header specifies the unique entity tag value for the returned resource.",
                                "x-example": "*",
                                "type": "string",
                                "minLength": 1,
                                "maxLength": 256,
                                "pattern": "^[\\S]*$"
                            },
                            "Location": {
                                "description": "The Location header specifies the URI of a created resource, or redirects the API consumer to an alternate resource location.",
                                "x-example": "http://api.t-mo.com/order-mgmt/v1/orders/123xyz-0/status",
                                "type": "string",
                                "minLength": 1,
                                "maxLength": 65536,
                                "pattern": "^[\\S]*$"
                            },
                            "Transfer-Encoding": {
                                "description": "The form of encoding used to safely transfer the entity to the user. Currently defined methods are: chunked, compress, deflate, gzip, identity.",
                                "x-example": "chunked",
                                "type": "string",
                                "minLength": 1,
                                "maxLength": 15,
                                "pattern": "^[\\S]*$"
                            },
                            "service-transaction-id": {
                                "description": "Request ID echoed back by server",
                                "x-example": "23409209723",
                                "type": "string",
                                "minLength": 1,
                                "maxLength": 256,
                                "pattern": "^[\\S]*$"
                            }
                        }
                    }
                },
				"security": [
					{
						"oauth2": [
							"downtime-forms"
						]
					}
				]
            }
        }
    },
    "definitions": {
        "Accounts": {
            "type": "object",
            "description": "The entity that captures all aspects of a customers account",
            "properties": {
                "accountNumber": {
                    "description": "The financial account number that identifies the account.",
                    "type": "string"
                },
                "customerId": {
                    "description": "Uniquely identifies the customer party.",
                    "type": "string",
                    "minLength": 1,
                    "maxLength": 50,
                    "pattern": "[a-zA-Z\\d-]*"
                },
                "primaryHolder": {
                    "$ref": "#/definitions/PrimaryHolder"
                },
                "status": {
                    "description": "The current status of the account.",
                    "type": "string"
                },
                "billingType": {
                    "description": "A shorthand identifying name for the type of billing settlement: Prepaid, Postpaid.",
                    "type": "string",
                    "enum": [
                        "Prepaid",
                        "Postpaid"
                    ]
                },
                "accountType": {
                    "description": "Type or classification of the account.",
                    "type": "string",
                    "minLength": 1,
                    "maxLength": 50,
                    "pattern": "[a-zA-Z\\d]*"
                },
                "accountSubType": {
                    "description": "account sub type",
                    "type": "string",
                    "minLength": 1,
                    "maxLength": 50,
                    "pattern": "[a-zA-Z\\d]*"
                },
                "businessName": {
                    "description": "Name of the business organization",
                    "type": "string",
                    "pattern": "\\i\\c*"
                },
                "serviceStartDate": {
                    "description": "The date when the service started",
                    "type": "string",
                    "format": "date"
                },
                "ezpayIndicator": {
                    "description": "To indicate if EasyPay is setup for recurring payments or not",
                    "type": "boolean"
                },
                "billFormat": {
                    "description": "Format of the bill; e.g; Paperless, Mail-In",
                    "type": "string"
                },
                "tenure": {
                    "description": "The duration of the account of this customer with T-Mobile. How long have they been our customer?",
                    "type": "string"
                },
                "billCycleStartDate": {
                    "description": "Start date of the bill cycle.",
                    "type": "string",
                    "format": "date"
                },
                "billCycleEndDate": {
                    "description": "End date of the bill cycle.",
                    "type": "string",
                    "format": "date"
                },
                "amountDue": {
                    "description": "Amount due in the given bill cycle.",
                    "type": "number",
                    "format": "double"
                },
                "dueDate": {
                    "description": "Due date",
                    "type": "string",
                    "format": "date"
                },
                "nextCycleDate": {
                    "description": "Next bill cycle date",
                    "type": "string",
                    "format": "date"
                },
                "billCycleDay": {
                    "description": "Day of the month when bill cycle normally runs.",
                    "type": "integer",
                    "format": "int32",
                    "minimum": -2147483648,
                    "maximum": 2147483647
                },
                "leaseIndicator": {
                    "description": "To indicate if the line of service has Lease",
                    "type": "boolean"
                },
                "loanIndicator": {
                    "description": "To indicate if the line of service has Loan (Equipment Installment Plan).",
                    "type": "boolean"
                },
                "b2bCustomerIndicator": {
                    "description": "Indicates that the customer is a business.",
                    "type": "boolean"
                },
                "b2rCustomerIndicator": {
                    "description": "Indicates that the customer is a reseller.",
                    "type": "boolean"
                }
            }
        },
        "Address": {
            "type": "object",
            "description": "The physical address of the entity.",
            "properties": {
                "addressLine1": {
                    "description": "The first free form line, expressed as text, of an address",
                    "type": "string"
                },
                "addressLine2": {
                    "description": "The second free form line, expressed as text, of an address",
                    "type": "string"
                },
                "cityName": {
                    "description": "The name, expressed as text, of the city, town or village of this address",
                    "type": "string"
                },
                "stateCode": {
                    "description": "Code of the state in which the city falls, where applicable(WA, TX, GA)",
                    "type": "string",
                    "minLength": 2,
                    "maxLength": 2
                },
                "countryCode": {
                    "description": "The unique identifier of a country for this address (Reference ISO 3166 and UN/ECE Rec 3)",
                    "type": "string",
                    "minLength": 3,
                    "maxLength": 3,
                    "pattern": "[A-Z][A-Z][A-Z]"
                },
                "postalCode": {
                    "description": "A code specifying the postal code of the address",
                    "type": "string"
                },
                "postalCodeExtension": {
                    "description": "An extension to the postalcode of the address, e.g., in 94070-3541, the extension is 3541.",
                    "type": "string"
                }
            }
        },
        "AlternateFormUseInfo": {
            "type": "object",
            "description": "Customer Lead or In-Store Device Return",
            "properties": {
                "customerLead": {
                    "description": "Is it customer lead",
                    "type": "boolean"
                },
                "inStoreDeviceReturn": {
                    "description": "Is it an In store device return transaction",
                    "type": "boolean"
                },
                "installationInfo": {
                    "$ref": "#/definitions/InstallationInfo"
                }
            }
        },
        "Attachment": {
            "type": "object",
            "description": "A file or file location containing information referenced by the owning business object.",
            "properties": {
                "typeCode": {
                    "description": "Type of attachment, e.g., URL, TEXT, JPG, PNG, HTML, PDF",
                    "type": "string",
                    "enum": [
                        "URL",
                        "TEXT",
                        "JPG",
                        "PDF",
                        "HTML",
                        "PNG",
                        "XML"
                    ]
                },
                "embeddedData": {
                    "$ref": "#/definitions/EmbeddedData"
                }
            }
        },
        "AuthorizedUserInfo": {
            "type": "object",
            "description": "Authorized User Details,different from Primay Account Holder",
            "properties": {
                "firstName": {
                    "description": "Authorized Users First Name",
                    "type": "string"
                },
                "lastName": {
                    "description": "Authorized Users Last Name",
                    "type": "string"
                },
                "fullName": {
                    "description": "Authorized Users Full Name",
                    "type": "string"
                }
            }
        },
        "Bank": {
            "type": "object",
            "description": "The financial institution.",
            "properties": {
                "bankName": {
                    "description": "Name of the bank",
                    "type": "string",
                    "pattern": "\\i\\c*"
                }
            }
        },
        "BankAccount": {
            "type": "object",
            "description": "An account held by a party at a financial institution.",
            "properties": {
                "accountNumber": {
                    "description": "Bank Account Number",
                    "type": "string"
                },
                "typeCode": {
                    "description": "Account Type. Examples are Checking, Savings etc",
                    "type": "string",
                    "minLength": 1,
                    "maxLength": 50,
                    "pattern": "[a-zA-Z\\d]*"
                },
                "bank": {
                    "$ref": "#/definitions/Bank"
                }
            }
        },
        "BoxDetailsInfo": {
            "type": "object",
            "description": "Box Details",
            "properties": {
                "color": {
                    "description": "color of the box",
                    "type": "string"
                },
                "serialNumber": {
                    "description": "serial number on the box",
                    "type": "string"
                },
				"lidColor": {
                    "description": "Lid Color of the box",
                    "type": "string"
                },
                "boxMRC": {
                    "description": "MRC on the box",
                    "type": "number",
                    "format": "double"
                }
            }
        },
        "BoxInformation": {
            "type": "object",
            "properties": {
                "GateWayBoxInfo": {
                    "$ref": "#/definitions/GateWayBoxInfo"
                },
                "LiteBoxInfo": {
                    "description": "An array of LiteBoxInfo objects.",
                    "type": "array",
                    "items": {
                        "$ref": "#/definitions/LiteBoxInfo"
                    }
                }
            }
        },
        "CardHolderAddress": {
            "type": "object",
            "description": "Address of the card holder.",
            "properties": {
                "addressLine1": {
                    "description": "The first free form line, expressed as text, of an address",
                    "type": "string"
                },
                "addressLine2": {
                    "description": "The second free form line, expressed as text, of an address",
                    "type": "string"
                },
                "cityName": {
                    "description": "The name, expressed as text, of the city, town or village of this address",
                    "type": "string"
                },
                "stateCode": {
                    "description": "Code of the state in which the city falls, where applicable(WA, TX, GA)",
                    "type": "string",
                    "minLength": 2,
                    "maxLength": 2
                },
                "countryCode": {
                    "description": "The unique identifier of a country for this address (Reference ISO 3166 and UN/ECE Rec 3)",
                    "type": "string",
                    "minLength": 3,
                    "maxLength": 3,
                    "pattern": "[A-Z][A-Z][A-Z]"
                },
                "postalCode": {
                    "description": "A code specifying the postal code of the address",
                    "type": "string"
                },
                "postalCodeExtension": {
                    "description": "An extension to the postalcode of the address, e.g., in 94070-3541, the extension is 3541.",
                    "type": "string"
                }
            }
        },
        "ConditionalParamsInfo": {
            "type": "object",
            "description": "Conditional Parameters Info",
            "properties": {
                "formOfPayment": {
                    "description": "Form of Payment like Credit/Debit",
                    "type": "boolean"
                },
                "alternateFormUseInfo": {
                    "$ref": "#/definitions/AlternateFormUseInfo"
                },
                "InstallationInfo": {
                    "$ref": "#/definitions/DowntimeRequestInstallationInfo"
                }
            }
        },
        "Customers": {
            "type": "object",
            "description": "Details concerning the person or organization that is a customer, primary Account Holder",
            "properties": {
                "fullName": {
                    "description": "Customers Full Name",
                    "type": "string"
                },
                "firstName": {
                    "description": "Customers First Name",
                    "type": "string"
                },
                "lastName": {
                    "description": "Customers Last Name",
                    "type": "string"
                },
				"internetServiceProvider": {
                    "description": "Internet  Service Provider",
                    "type": "string"
                },
                "phoneCommunications": {
                    "description": "An array of phoneCommunications objects.",
                    "type": "array",
                    "items": {
                        "$ref": "#/definitions/PhoneCommunication"
                    }
                },
                "emailCommunications": {
                    "description": "An array of emailCommunications objects.",
                    "type": "array",
                    "items": {
                        "$ref": "#/definitions/EmailCommunication"
                    }
                },
                "location": {
                    "$ref": "#/definitions/Location"
                },
                "authorizedUserInfo": {
                    "$ref": "#/definitions/AuthorizedUserInfo"
                }
            }
        },
        "DeviceProtection": {
            "type": "object",
            "description": "Protection Details of the financed device",
            "properties": {
                "productName": {
                    "description": "Device Protection Name",
                    "type": "string",
                    "pattern": "\\i\\c*"
                },
                "monthlyRecurringCharge": {
                    "description": "Monthly Charge for device protection",
                    "type": "number",
                    "format": "double"
                },
                "insuranceCharge": {
                    "description": "charge against insurance for device protection if exists",
                    "type": "number",
                    "format": "double"
                }
            }
        },
        "DeviceResolutionProperties": {
            "type": "object",
            "description": "Properties describing the resolution and dimensions of the device used by the customer while signing the document.",
            "properties": {
                "resolutionWidth": {
                    "description": "Horizontal resolution of the device in pixels",
                    "type": "number",
                    "format": "double"
                },
                "resolutionHeight": {
                    "description": "Vertical resolution of device in pixels",
                    "type": "number",
                    "format": "double"
                },
                "physicalScreenWidth": {
                    "description": "Width of the screen in millimeters",
                    "type": "number",
                    "format": "double"
                },
                "physicalScreenHeight": {
                    "description": "Height of the screen in millimeters",
                    "type": "number",
                    "format": "double"
                }
            }
        },
        "DocumentDetails": {
            "type": "object",
            "description": "Response object with details of the agreements requested for generation",
            "properties": {
                "documentType": {
                    "description": "Type of Document; Eg - Service Agreement, EIP etc;",
                    "type": "string"
                },
                "documentId": {
                    "description": "Unique document Id",
                    "type": "string"
                },
                "agreementId": {
                    "description": "Finance Agreement Id",
                    "type": "string"
                },
                "attachments": {
                    "$ref": "#/definitions/Attachment"
                }
            }
        },
        "DocumentFinancedEquipment": {
            "type": "object",
            "description": "Purchased equipment related details. When accessory grouping is disabled, this list will include accessories as well and when accessory grouping is enabled, please use the group info placeholder",
            "properties": {
                "financeId": {
                    "description": "Finance Id for equipment(s) under Loan / Lease",
                    "type": "string",
                    "minLength": 1,
                    "maxLength": 50,
                    "pattern": "[a-zA-Z\\d-]*"
                },
                "sku": {
                    "description": "SKU - Stock Keeping Unit",
                    "type": "string"
                },
                "description": {
                    "description": "Description of the SKU",
                    "type": "string",
                    "minLength": 1,
                    "maxLength": 4000,
                    "pattern": "[\\S ]*"
                },
                "serialNumber": {
                    "description": "Serial # of the SKU",
                    "type": "string",
                    "minLength": 1,
                    "maxLength": 50,
                    "pattern": "[a-zA-Z\\d]*"
                },
                "imei": {
                    "description": "International Mobile Equipment Identity",
                    "type": "string"
                },
                "salePrice": {
                    "description": "Sale Price of the Equipment",
                    "type": "string"
                },
                "phoneNumber": {
                    "description": "MSISDN for the equipment under finance",
                    "type": "string"
                },
                "baseDownPayment": {
                    "description": "Base Down Payment",
                    "type": "number",
                    "format": "double"
                },
                "amountFinanced": {
                    "description": "Financed Amount",
                    "type": "number",
                    "format": "double"
                },
                "deviceProtectionDetails": {
                    "description": "An array of deviceProtectionDetails objects.",
                    "type": "array",
                    "items": {
                        "$ref": "#/definitions/DeviceProtection"
                    }
                },
                "purchaseOptionPrice": {
                    "description": "Purchase Option Price",
                    "type": "number",
                    "format": "double"
                },
                "salesTaxOnDeviceDownPayment": {
                    "description": "The amount of sales tax due on down payment for the device",
                    "type": "number",
                    "format": "double"
                },
                "monthlyDevicePaymentWithTax": {
                    "description": "The amount due monthly for payment on the device (including estimated taxes)",
                    "type": "number",
                    "format": "double"
                },
                "discount": {
                    "description": "Rebate or promotional discount amount",
                    "type": "number",
                    "format": "double"
                }
            }
        },
        "Documents": {
            "type": "object",
            "description": "Document Info",
			"required": ["documentType"
			],
            "properties": {
                "documentType": {
                    "description": "Type of Document; Eg - Service Agreement, EIP etc;",
                    "type": "string"
                },
                "documentSubType": {
                    "description": "Sub Type of Document; Eg - Activation, Add a Line, RPC etc;",
                    "type": "string"
                },
                "templateState": {
                    "description": "Two letter state code",
                    "type": "string"
                },
                "transactionId": {
                    "description": "Idenitifies the transaction that this document supports.",
                    "type": "string"
                },
                "agreementId": {
                    "description": "Finance Agreement Id, Required when Document Type is EIP_DISCLOSURE",
                    "type": "string"
                }
            }
        },
        "DocumentSource": {
            "type": "object",
            "description": "source system details",
            "required": [
                "channelId",
                "applicationId"
            ],
            "properties": {
                "channelId": {
                    "description": "channel",
                    "example": "WEB,CARE,TELESALES",
                    "type": "string",
                    "pattern": "^[\\S]*$"
                },
                "applicationId": {
                    "description": "UI Application",
                    "example": "REBELLION,MYTMO",
                    "type": "string",
                    "pattern": "^[\\S]*$"
                },
                "partnerId": {
                    "description": "partner ID",
                    "example": "ACUI,MYTMO",
                    "type": "string"
                }
            }
        },
        "DocumentsResponse": {
            "type": "object",
            "description": "Response object for agreements API",
            "properties": {
                "documentDetails": {
                    "description": "An array of documentDetails objects.",
                    "type": "array",
                    "items": {
                        "$ref": "#/definitions/DocumentDetails"
                    }
                }
            }
        },
        "DowntimeRequest": {
            "type": "object",
            "description": "API Request Object",
            "properties": {
                "accounts": {
                    "description": "An array of accounts objects.",
                    "type": "array",
                    "items": {
                        "$ref": "#/definitions/Accounts"
                    }
                },
                "emailDetails": {
                    "$ref": "#/definitions/EmailDetails"
                },
                "transactionDateTime": {
                    "description": "transaction Date Time",
                    "type": "string",
                    "format": "date-time"
                },
                "serviceAgreement": {
                    "$ref": "#/definitions/ServiceAgreement"
                },
                "paymentCard": {
                    "$ref": "#/definitions/PaymentCard"
                },
                "bankAccount": {
                    "$ref": "#/definitions/BankAccount"
                },
                "seller": {
                    "$ref": "#/definitions/Seller"
                },
                "financeOrderDetails": {
                    "$ref": "#/definitions/FinanceOrderDetails"
                },
                "tradeInEquipment": {
                    "description": "An array of tradeInEquipment objects.",
                    "type": "array",
                    "items": {
                        "$ref": "#/definitions/TradeInEquipment"
                    }
                },
                "documentSet": {
                    "$ref": "#/definitions/GlobalDocumentSet"
                },
                "customers": {
                    "description": "An array of customers objects.",
                    "type": "array",
                    "items": {
                        "$ref": "#/definitions/Customers"
                    }
                },
                "layer3": {
                    "$ref": "#/definitions/Layer3"
                }
            }
        },
        "DowntimeRequestBoxDetailsInfo": {
            "type": "object",
            "properties": {
                "color": {
                    "description": "color of the box",
                    "type": "string"
                },
                "serialNumber": {
                    "description": "serial number on the box",
                    "type": "string"
                },
				"lidColor": {
                    "description": "Lid Color of the box",
                    "type": "string"
                },
                "boxMRC": {
                    "description": "MRC on the box",
                    "type": "number",
                    "format": "double"
                }
            }
        },
        "DowntimeRequestInstallationInfo": {
            "type": "object",
            "description": "Installation Info",
            "properties": {
                "selfInstall": {
                    "description": "Self Installation",
                    "type": "boolean"
                },
                "professionalInstall": {
                    "description": "professional Installation",
                    "type": "boolean"
                }
            }
        },
        "DowntimeResponse": {
            "type": "object",
            "description": "API response object",
            "properties": {
                "documentsResponse": {
                    "$ref": "#/definitions/DocumentsResponse"
                }
            }
        },
        "EmailCommunication": {
            "type": "object",
            "description": "Communication guidelines for email.",
            "properties": {
                "emailAddress": {
                    "description": "URI in the case of email communication",
                    "type": "string"
                }
            }
        },
        "EmailDetails": {
            "type": "object",
            "description": "Email Feature for the document",
            "properties": {
                "emailOption": {
                    "description": "Customer email option.Possible Values; EMAIL_WITH_LINK, EMAIL_WITH_PIN, DIRECT_LINK_NO_EMAIL, DIRECT_LINK_SIGN, EMAIL_DISCLOSURE_REQUEST",
                    "type": "string"
                },
                "sendEmail": {
                    "description": "Indicator for emailing PDF document to the customer",
                    "type": "boolean"
                }
            }
        },
        "EmbeddedData": {
            "type": "object",
            "description": "Element holding data embedded directly in the BOD instance",
            "properties": {
                "binaryContent": {
                    "description": "A set of finite-length sequences of binary octets",
                    "type": "string",
                    "format": "byte"
                },
                "characterSetCode": {
                    "description": "The character coding used for text in the binary object.",
                    "type": "string",
                    "minLength": 1,
                    "maxLength": 50,
                    "pattern": "[a-zA-Z\\d]*"
                },
                "fileName": {
                    "description": "The name of the file to which the binary object belongs.",
                    "type": "string",
                    "pattern": "[a-zA-Z\\d][a-zA-Z\\d-_(). ]*[.][a-zA-Z][a-zA-Z\\d]{0,4}"
                },
                "mimeCode": {
                    "description": "Multipurpose Internet Mail Extensions (MIME) code identifying the content type within the binary object.",
                    "type": "string",
                    "enum": [
                        "text/plain",
                        "text/html",
                        "image/jpeg",
                        "image/png",
                        "audio/mpeg",
                        "audio/ogg",
                        "video/mp4",
                        "application/json",
                        "application/javascript",
                        "application/ecmascript",
                        "application/octet-stream",
                        "text/markdown",
                        "image/gif",
                        "image/bmp",
                        "image/webp",
                        "audio/midi",
                        "audio/webm",
                        "audio/wav",
                        "video/webm",
                        "video/ogg",
                        "application/xhtml+xml",
                        "application/xml",
                        "application/pdf"
                    ]
                }
            }
        },
        "Error": {
            "type": "object",
            "description": "As defined in https://tmobileusa.sharepoint.com/teams/EnterpriseServices/ESG%20Standards%20Documents/APIs/T-Mobile%20API%20Design%20Guidelines%20v1.0.docx",
            "properties": {
                "code": {
                    "description": "A succinct, domain-specific, human-readable text string to identify the type of error for the given status code",
                    "type": "string"
                },
                "userMessage": {
                    "description": "A human-readable message describing the error.",
                    "type": "string"
                },
                "systemMessage": {
                    "description": "Text that provides a more detailed technical explanation of the error",
                    "type": "string"
                },
                "detailLink": {
                    "description": "link to custom information providing greater detail on error or errors",
                    "type": "string"
                }
            }
        },
        "FeatureCharges": {
            "type": "object",
            "description": "Information and charges for a feature.",
            "properties": {
                "featureName": {
                    "description": "Name of the feature.",
                    "type": "string",
                    "pattern": "\\i\\c*"
                },
                "featureCharge": {
                    "description": "Charge for the feature.",
                    "type": "number",
                    "format": "double"
                },
                "featureType": {
                    "description": "Type of the Feature like Prorated,First Month etc",
                    "type": "string",
                    "minLength": 1,
                    "maxLength": 50,
                    "pattern": "[a-zA-Z\\d]*"
                }
            }
        },
        "FinanceAgreements": {
            "type": "object",
            "description": "finance agreement information for an order",
            "properties": {
                "agreementId": {
                    "description": "Finance Agreement Id",
                    "type": "string"
                },
                "financeType": {
                    "description": "Possible values; LOAN, LEASE, POIP",
                    "type": "string"
                },
                "financeAgreementTotals": {
                    "$ref": "#/definitions/FinanceAgreementTotals"
                },
                "financeEquipmentDetails": {
                    "$ref": "#/definitions/DocumentFinancedEquipment"
                },
                "installmentSchedule": {
                    "$ref": "#/definitions/PaymentSchedule"
                }
            }
        },
        "FinanceAgreementTotals": {
            "type": "object",
            "description": "This complex type will be present when there is ONE or MORE accessory in the order and when accessory grouping is ON. This can also be used for EIP Loans for backward compatibility purposes",
            "properties": {
                "financeCharge": {
                    "description": "Finance Charge",
                    "type": "number",
                    "format": "double"
                },
                "annualPercentageRate": {
                    "description": "Annual Percentage Rate",
                    "type": "number",
                    "format": "double"
                },
                "upgradeSupportCharge": {
                    "description": "upgradeSupportCharge is a predefined object from an igniteXml model - cabinet 1030178313 build 1038833169 key 1036832394",
                    "type": "number",
                    "format": "double"
                },
                "totalPriceIncludingTaxesAndFees": {
                    "description": "Total Price of the line item including taxes and fee",
                    "type": "number",
                    "format": "double"
                },
                "numberOfPayments": {
                    "description": "Total number of payments in the financing agreement",
                    "type": "integer",
                    "format": "int32",
                    "pattern": "[\\-+]?[0-9]+"
                },
                "upgradeSupportChargeIndicator": {
                    "description": "Boolean for upgrade support charge",
                    "type": "boolean"
                },
                "totalSalesTax": {
                    "description": "Total Sales Tax for all the items in the disclosure",
                    "type": "number",
                    "format": "double"
                },
                "totalMonthlyPayment": {
                    "description": "Total Monthly Payment",
                    "type": "number",
                    "format": "double"
                },
                "totalLastMonthPayment": {
                    "description": "Total Last Month Payment",
                    "type": "number",
                    "format": "double"
                },
                "totalPrice": {
                    "description": "Total Priice",
                    "type": "number",
                    "format": "double"
                },
                "totalFinancedAmount": {
                    "description": "Total Financed Amount",
                    "type": "number",
                    "format": "double"
                },
                "totalDownPayment": {
                    "description": "Total Downpayment",
                    "type": "number",
                    "format": "double"
                },
                "finalMonthPaymentDueDate": {
                    "description": "Final Month Payment Due Date",
                    "type": "string",
                    "format": "date"
                },
                "firstMonthPaymentDueDate": {
                    "description": "First Month Payment Due Date",
                    "type": "string",
                    "format": "date"
                },
                "totalAmountOfMonthlyInstallments": {
                    "description": "Total amount of all monthly installments",
                    "type": "number",
                    "format": "double"
                },
                "planDate": {
                    "description": "Installment plan date",
                    "type": "string",
                    "format": "date"
                },
                "leaseEndDate": {
                    "description": "Lease End date",
                    "type": "string",
                    "format": "date"
                },
                "totalAmountAtLeaseSigning": {
                    "description": "Total amount due at lease signing",
                    "type": "number",
                    "format": "double"
                },
                "totalDiscount": {
                    "description": "Total discount amount",
                    "type": "number",
                    "format": "double"
                },
                "totalMonthlyDevicePayment": {
                    "description": "Total monthly payment amount on all devices",
                    "type": "number",
                    "format": "double"
                },
                "otherCharges": {
                    "description": "Other charges amount that are not part of the monthly payment",
                    "type": "number",
                    "format": "double"
                },
                "totalOfTaxes": {
                    "description": "Total tax amount",
                    "type": "number",
                    "format": "double"
                },
                "shippingCharges": {
                    "description": "Shipping Charges",
                    "type": "number",
                    "format": "double"
                },
                "shippingChargesWithTax": {
                    "description": "Shipping Charges including Tax",
                    "type": "number",
                    "format": "double"
                },
                "totalofPayments": {
                    "description": "Total Of all the Payments",
                    "type": "number",
                    "format": "double"
                }
            }
        },
        "FinanceOrderDetails": {
            "type": "object",
            "description": "Order that established financing agreements",
            "properties": {
                "orderId": {
                    "description": "Uniquely identifies an order",
                    "type": "string"
                },
                "orderType": {
                    "description": "Possible Values: ACTIVATION, ADD_A_LINE, UPGRADE, EXCHANGE_RETURN, ACCESSORIES",
                    "type": "string"
                },
                "financeOriginatingApplication": {
                    "description": "Application Id of the finance system",
                    "type": "string"
                },
                "deviceResolutionProperties": {
                    "$ref": "#/definitions/DeviceResolutionProperties"
                },
                "financeAgreements": {
                    "description": "An array of financeAgreements objects.",
                    "type": "array",
                    "items": {
                        "$ref": "#/definitions/FinanceAgreements"
                    }
                }
            }
        },
        "GateWayBoxInfo": {
            "type": "object",
            "description": "Gateway Box Information",
            "properties": {
                "boxDetailsInfo": {
                    "$ref": "#/definitions/BoxDetailsInfo"
                }
            }
        },
        "GlobalDocumentSet": {
            "type": "object",
            "description": "Document Details",
            "properties": {
                "returnPresentmentLink": {
                    "description": "Indicator to return link for presenting document(s)",
                    "type": "boolean"
                },
                "responsive": {
                    "description": "Indicator for responsive Vs desktop transactions",
                    "type": "boolean"
                },
                "documents": {
                    "description": "An array of documents objects.",
                    "type": "array",
                    "items": {
                        "$ref": "#/definitions/Documents"
                    }
                },
                "documentSource": {
                    "$ref": "#/definitions/DocumentSource"
                }
            }
        },
        "InstallationInfo": {
            "type": "object",
            "description": "Installation Information",
            "properties": {
                "selfInstall": {
                    "description": "Self Installation",
                    "type": "boolean"
                },
                "professionalInstall": {
                    "description": "professional Information",
                    "type": "boolean"
                }
            }
        },
        "Layer3": {
            "type": "object",
            "properties": {
                "planInformation": {
                    "$ref": "#/definitions/PlanInformation"
                },
                "boxInformation": {
                    "$ref": "#/definitions/BoxInformation"
                },
                "totals": {
                    "$ref": "#/definitions/Totals"
                },
                "ConditionalParamsInfo": {
                    "$ref": "#/definitions/ConditionalParamsInfo"
                }
            }
        },
        "LineOfServiceCharges": {
            "type": "object",
            "description": "Information on the subscriber-level service plans associated with the service line.",
            "properties": {
                "mobileNumber": {
                    "description": "Mobile number or MSISDN of a subscriber.",
                    "type": "string"
                },
                "sim": {
                    "description": "SIM is internationally identified by its Integrated Circuit Card Identifier (ICCID), often referred to as SIM number",
                    "type": "string"
                },
                "imei": {
                    "description": "Equipment IMEI number associated with the service line.",
                    "type": "string"
                },
                "planCharges": {
                    "description": "An array of planCharges objects.",
                    "type": "array",
                    "items": {
                        "$ref": "#/definitions/PlanCharges"
                    }
                },
                "activationFee": {
                    "description": "Activation fee due on the first bill.",
                    "type": "number",
                    "format": "double"
                },
                "depositAmount": {
                    "description": "Deposit Amount for at a line level.",
                    "type": "number",
                    "format": "double"
                },
                "featureCharges": {
                    "description": "An array of featureCharges objects.",
                    "type": "array",
                    "items": {
                        "$ref": "#/definitions/FeatureCharges"
                    }
                }
            }
        },
        "LiteBoxInfo": {
            "type": "object",
            "description": "Lite Box Information",
            "properties": {
                "boxDetailsInfo": {
                    "$ref": "#/definitions/DowntimeRequestBoxDetailsInfo"
                }
            }
        },
        "Location": {
            "type": "object",
            "description": "The location of an entity such as a store or warehouse, including address and phone numbers.",
            "properties": {
                "locationId": {
                    "description": "The unique  identifier of the location.",
                    "type": "string"
                },
                "locationName": {
                    "description": "The name of the entity located at the given address.",
                    "type": "string"
                },
                "address": {
                    "$ref": "#/definitions/Address"
                },
                "phoneCommunications": {
                    "description": "An array of phoneCommunications objects.",
                    "type": "array",
                    "items": {
                        "$ref": "#/definitions/PhoneCommunication"
                    }
                }
            }
        },
        "PaymentCard": {
            "type": "object",
            "description": "The Payment Card provides the core elements that are shared in common between Credit Card, Debit Card, and Prepaid Card. It can be used when it is not necessary to differentiate between those three.",
            "properties": {
                "typeCode": {
                    "description": "Type of Credit Card. Examples are Visa, MasterCard etc",
                    "type": "string",
                    "enum": [
                        "MASTERCARD",
                        "VISA",
                        "AMERICANEXPRESS",
                        "DISCOVER"
                    ]
                },
                "cardNumber": {
                    "description": "Payment card number",
                    "type": "string"
                },
                "maskingType": {
                    "description": "The type of masking to be applied to the credit card number for security and privacy. Controls which digits to reveal.",
                    "type": "string",
                    "enum": [
                        "Last4",
                        "Last6",
                        "NA",
                        "None",
                        "First5",
                        "First6andLast4"
                    ]
                },
                "cardHolderName": {
                    "description": "Name of the Card Holder",
                    "type": "string",
                    "pattern": "\\i\\c*"
                },
                "companyName": {
                    "description": "Business Name identified for the card if applicable",
                    "type": "string",
                    "pattern": "\\i\\c*"
                },
                "expirationMonthYear": {
                    "description": "Expiration month and year of the card",
                    "type": "string",
                    "minLength": 4,
                    "maxLength": 4,
                    "pattern": "[0-9]{4}"
                },
                "cardHolderAddress": {
                    "$ref": "#/definitions/CardHolderAddress"
                },
                "cardHolderFirstName": {
                    "description": "First name of the card holder",
                    "type": "string",
                    "pattern": "[a-zA-Z][a-zA-Z\\d .,() ]*"
                },
                "cardHolderLastName": {
                    "description": "Last name of the card holder",
                    "type": "string",
                    "pattern": "[a-zA-Z][a-zA-Z\\d .,() ]*"
                }
            }
        },
        "PaymentSchedule": {
            "type": "object",
            "description": "Schedule of payments for a financing plan (loan/lease) or payment arrangement.",
            "properties": {
                "totalScheduledAmount": {
                    "description": "The total monetary amount being paid through this payment schedule.",
                    "type": "number",
                    "format": "double"
                },
                "totalPlannedPaymentCount": {
                    "description": "Total number of planned payments defined under this payment schedule.",
                    "type": "number",
                    "format": "double"
                }
            }
        },
        "PhoneCommunication": {
            "type": "object",
            "description": "Communication guidelines for telephone.",
            "properties": {
                "phoneType": {
                    "description": "Indicates the type of phone: LANDLINE, MOBILE, FAX, SATELLITE.",
                    "type": "string",
                    "enum": [
                        "LANDLINE",
                        "MOBILE",
                        "FAX",
                        "SATELLITE"
                    ]
                },
                "phoneNumber": {
                    "description": "The complete number without separation between  country code, area code etc",
                    "type": "string"
                }
            }
        },
        "PlanCharges": {
            "type": "object",
            "description": "Newly selected or previously existing plan for the line of service.",
            "properties": {
                "planName": {
                    "description": "Service plan display name.",
                    "type": "string",
                    "pattern": "\\i\\c*"
                },
                "servicePeriodStartDate": {
                    "description": "Service period start date. This is typically the start date of the first bill cycle for the new service activations or rate plan changes, and of the last bill cycle for the prorations.",
                    "type": "string",
                    "format": "date"
                },
                "servicePeriodEndDate": {
                    "description": "Service period end date. This is typically the end date of the first bill cycle for the new service activations or rate plan changes, and of the last bill cycle for the prorations.",
                    "type": "string",
                    "format": "date"
                },
                "monthlyCharge": {
                    "description": "Monthly recurring charge of the service plan.",
                    "type": "number",
                    "format": "double"
                },
                "amountDue": {
                    "description": "Amount due for the service plan activation.",
                    "type": "number",
                    "format": "double"
                },
                "status": {
                    "description": "Service status like Added, Removed, Suspended.",
                    "type": "string"
                }
            }
        },
        "PlanInformation": {
            "type": "object",
            "description": "plan information",
            "properties": {
                "planLineLevelInfo": {
                    "description": "An array of planLineLevelInfo objects.",
                    "type": "array",
                    "items": {
                        "$ref": "#/definitions/PlanLineLevelInfo"
                    }
                },
                "subtotalMRC": {
                    "description": "Total of All Sub Total MRC",
                    "type": "number",
                    "format": "double"
                }
            }
        },
        "PlanLineLevelInfo": {
            "type": "object",
            "description": "Line Level information for each Plan",
            "properties": {
                "planName": {
                    "description": "Service plan display name.",
                    "type": "string"
                },
                "promoName": {
                    "description": "Promotion name",
                    "type": "string"
                },
                "planMRC": {
                    "description": "Plan MRC amount",
                    "type": "number",
                    "format": "double"
                },
                "promoMRC": {
                    "description": "promotional MRC",
                    "type": "number",
                    "format": "double"
                },
                "lineLevelMRCTotal": {
                    "description": "sub total of the MRC = Plan MRC - Promo MRC",
                    "type": "number",
                    "format": "double"
                }
            }
        },
        "PrimaryHolder": {
            "type": "object",
            "description": "Primary account holder",
            "properties": {
                "phoneNumber": {
                    "description": "The phone number that identifies the primary line of service on the account.",
                    "type": "string"
                }
            }
        },
        "Promotion": {
            "type": "object",
            "description": "Represents the promotion under which the order item is being purchased.",
            "properties": {
                "promotionId": {
                    "description": "Uniquely identifies a Promotion.",
                    "type": "string"
                },
                "promotionName": {
                    "description": "Commonly used name of the Promotion, as defined in the Product Catalog.",
                    "type": "string"
                },
                "promotionType": {
                    "description": "The type of promotion.",
                    "type": "string"
                },
                "promotionShortName": {
                    "description": "The brief name of the promotion.",
                    "type": "string"
                },
                "promotionCode": {
                    "description": "Code for this promotion. It is different from promotion ID.",
                    "type": "string"
                }
            }
        },
        "PromotionInfo": {
            "type": "object",
            "description": "Details of promotion",
            "properties": {
                "promotion": {
                    "description": "An array of promotion objects.",
                    "type": "array",
                    "items": {
                        "$ref": "#/definitions/Promotion"
                    }
                }
            }
        },
        "Seller": {
            "type": "object",
            "description": "seller details",
            "properties": {
                "storeId": {
                    "description": "The unique  identifier of the store, as defined by the T-Mobile system of record.",
                    "type": "string"
                },
                "location": {
                    "$ref": "#/definitions/Location"
                },
                "dealerCode": {
                    "description": "The Dealer that owns this store.",
                    "type": "string"
                },
                "partnerId": {
                    "description": "The Partner that owns this store.",
                    "type": "string"
                },
                "storeType": {
                    "description": "storeType is a predefined object from an igniteXml model - cabinet 1030178313 build 1038833169 key 1030658527",
                    "type": "string",
                    "enum": [
                        "RETAIL",
                        "TPR",
                        "DEALER",
                        "MPCS",
                        "NationalRetail"
                    ]
                },
                "licenseNumber": {
                    "description": "Store license number",
                    "type": "string"
                },
                "secondaryLicenseNumber": {
                    "description": "Stores secondary license number",
                    "type": "string"
                },
                "dealerName": {
                    "description": "The name of the dealer",
                    "type": "string",
                    "pattern": "\\i\\c*"
                },
                "merchantRegistryNumber": {
                    "description": "Merchant registry number of the store",
                    "type": "string"
                },
                "documentType": {
                    "description": "Type of Document; Eg - Service Agreement, EIP etc;",
                    "type": "string"
                },
                "salesRepNtid": {
                    "description": "NTID of the sales representative",
                    "type": "string"
                },
                "salesRepName": {
                    "description": "Name of the sales representative",
                    "type": "string"
                },
                "salesRepEmailAddress": {
                    "description": "Email address of the sales representative",
                    "type": "string"
                }
            }
        },
        "ServiceAgreement": {
            "type": "object",
            "description": "Service Agreement Information for Open Text Implementation, which includes the following transaction types: 1) Activation of a new account and Add-a-Line 2) Rate Plan Change 3) Rate Plan and Feature Add/Remove (combined with RPC)",
            "properties": {
                "regulatoryProgramFeeAmount": {
                    "description": "Regulatory program fee amount reference value.",
                    "type": "number",
                    "format": "double"
                },
                "lineOfServiceCharges": {
                    "description": "An array of lineOfServiceCharges objects.",
                    "type": "array",
                    "items": {
                        "$ref": "#/definitions/LineOfServiceCharges"
                    }
                },
                "totalActivationFee": {
                    "description": "Activation Fee.",
                    "type": "number",
                    "format": "double"
                },
                "previousTotalMonthlyCharges": {
                    "description": "Previous total monthly charges excluding taxes and fees (if there is a rate plan that is changing in mid-cycle).",
                    "type": "number",
                    "format": "double"
                },
                "firstBillTotalMonthlyCharges": {
                    "description": "First bill total monthly charges excluding taxes (may include prorated amounts and one-time charges due on the first bill cycle).",
                    "type": "number",
                    "format": "double"
                },
                "regularTotalMonthlyCharges": {
                    "description": "Estimated regular total monthly charges excluding taxes and fees.",
                    "type": "number",
                    "format": "double"
                },
                "totalMonthlyChargesDiff": {
                    "description": "Estimated difference between the regular total monthly charges and previous total monthly charges excluding taxes and fees.",
                    "type": "number",
                    "format": "double"
                },
                "totalAmountDue": {
                    "description": "Total amount due at signing, excluding taxes.",
                    "type": "number",
                    "format": "double"
                },
                "taxTreatment": {
                    "description": "Tax Treatment . Possible Values TI - Tax Inclusive   TE - Tax Exclusive",
                    "type": "string",
                    "enum": [
                        "TI",
                        "TE"
                    ]
                },
                "digitsIndicator": {
                    "description": "Flag for indicating if customer is availing DIGITS service",
                    "type": "boolean"
                }
            }
        },
        "Totals": {
            "type": "object",
            "description": "Totals",
            "properties": {
                "monthlyMRC": {
                    "description": "Monthly MRC for the box",
                    "type": "number",
                    "format": "double"
                },
                "totalMRC": {
                    "description": "Total of MRC for Box",
                    "type": "number",
                    "format": "double"
                }
            }
        },
        "TradeInEquipment": {
            "type": "object",
            "description": "Trade-In Equipment details",
            "properties": {
                "sku": {
                    "description": "Stock Keeping Unit",
                    "type": "string"
                },
                "serialNumber": {
                    "description": "serial Number of the equipment ~ Applicable for Accessories",
                    "type": "string"
                },
                "imei": {
                    "description": "International Mobile Equipment Identity ~ Applicable for Phones / Tablets",
                    "type": "string"
                },
                "make": {
                    "description": "Make / Maufacturer",
                    "type": "string"
                },
                "model": {
                    "description": "Model",
                    "type": "string"
                },
                "shortDescription": {
                    "description": "Short Description of the equipment",
                    "type": "string"
                },
                "longDescription": {
                    "description": "long Description of the equipment",
                    "type": "string"
                },
                "rmaNumber": {
                    "description": "Return Merchandise Authorization Number",
                    "type": "string"
                },
                "equipmentStatus": {
                    "description": "Status of the equipment; eg; Damaged, Canceled, Active, Suspended etc;",
                    "type": "string"
                },
                "equipmentStatusDescription": {
                    "description": "Description of Equipment Status",
                    "type": "string"
                },
                "tradeInStatus": {
                    "description": "Status of TradeIn; eg; Accepted, Deferred, Accept-Deferred",
                    "type": "string"
                },
                "tradeInStatusDescription": {
                    "description": "Description for Status of TradeIn",
                    "type": "string"
                },
                "leaseStatus": {
                    "description": "Lease Status",
                    "type": "string"
                },
                "quoteAmount": {
                    "description": "Quote Amount of the RMA",
                    "type": "string"
                },
                "promotionInfo": {
                    "$ref": "#/definitions/PromotionInfo"
                },
                "phoneNumber": {
                    "description": "MSISDN",
                    "type": "string"
                },
                "quoteExpirationDate": {
                    "description": "Quote Expiration Date",
                    "type": "string",
                    "format": "date-time"
                }
            }
        }
    },
	"securityDefinitions": {
		"oauth2": {
			"type": "oauth2",
			"description": "OAUTH2",
			"tokenUrl": "https://qlab02.core.op.api.t-mobile.com/v1/oauth2/accesstoken?grant_type=client_credentials",
			"flow": "application",
			"scopes": {
				"downtime-forms": ""
			}
		}
	}
}
