{
    "swagger": "2.0",
    "info": {
        "title": "save-receipt-tc",
        "description": "API documentaton for U2 Transaction Confirmation and Receipts",
        "version": "1.0.0",
        "x-createdBy": {
            "dateCreated": "Mon Apr 22 17:26:17 2019",
            "createdBy": "vjoshi8",
            "application": "Recite",
            "appVersion": "1.0.0.2891",
            "documentId": "0c491171-d196-4e06-b9ad-c666c6777f9c",
            "status": "Conceptual - Initial",
            "classification": "17.6.2 Contract Mgmt.",
            "profile": "Core Business Capability Service",
            "serviceLayer": "Resource - Other"
        }
    },
    "x-servers": [
		{
			"url": "https://transactionconfirmation-qlab02.test.px-npe01b.cf.t-mobile.com/legal/v1/agreements/save-receipt-tc",
			"description": "save-receipt-tc"
		}
	],
    "tags": [
        {
            "name": "save-receipt-tc",
            "description": "API to generate and ingest U2 Receipt & Transaction Confirmation"
        }
    ],
    "host": "dev01.api.t-mobile.com",
    "basePath": "/legal/v1/agreements/save-receipt-tc",
    "x-tryOut":"yes",
    "schemes": [
        "https"
    ],
    "paths": {
        "/": {
            "post": {
                "tags": [
                    "save-receipt-tc"
                ],
                "x-api-pattern": "CreateInCollection",
                "summary": "API to generate and ingest U2 Receipt & Transaction Confirmation",
                "description": "API to generate and ingest U2 Receipt & Transaction Confirmation",
                "operationId": "save-receipt-tc",
                "consumes": [
                    "application/json",
                    "application/xml"
                ],
                "produces": [
                    "application/json",
                    "application/xml"
                ],
                "parameters": [
                    {
                        "name": "orderDetails",
                        "in": "body",
                        "description": "Various transactional Details",
                        "required": true,
                        "schema": {
                            "$ref": "#/definitions/OrderDetails"
                        }
                    },
                    {
                        "name": "Authorization",
                        "in": "header",
                        "description": "The HTTP Authorization request header contains the credentials to authenticate a user agent with a server.",
                        "x-example": "Bearer mF_9.B5f-4.1JqM",
                        "required": true,
                        "type": "string",
                        "minLength": 1,
                        "maxLength": 256,
                        "pattern": "^[\\S ]+$"
                    },
                    {
                        "name": "Content-Type",
                        "in": "header",
                        "description": "The MIME type of this content",
                        "x-example": "text/xml",
                        "required": true,
                        "type": "string",
                        "minLength": 1,
                        "maxLength": 256,
                        "pattern": "^[ \\S]+$"
                    },
                    {
                        "name": "Date",
                        "in": "header",
                        "description": "The Date general HTTP header contains the date and time at which the message was originated.",
                        "x-example": "Mon, 05 Mar 2018 16:38:08 GMT",
                        "required": false,
                        "type": "string",
                        "format": "date-time",
                        "pattern": "^(Mon|Tue|Wed|Thu|Fri|Sat|Sun), [0-3]{1}[0-9]{1} (Jan|Feb|Mar|Apr|May|Jun|Jul|Aug|Sep|Oct|Nov|Dec) [1-3][0-9]{3} [0-2][0-9]:[0-6][0-9]:[0-6][0-9] GMT$"
                    },
                    {
                        "name": "timestamp",
                        "in": "header",
                        "description": "ms since 1/1/70 adjusted to GMT",
                        "x-example": "1524599536",
                        "required": false,
                        "type": "integer",
                        "format": "int64",
                        "minimum": 0,
                        "maximum": 999999999999,
                        "pattern": "^[\\d]*$"
                    }
                ],
                "responses": {
                    "200": {
                        "description": "Success",
                        "schema": {
                            "$ref": "#/definitions/Response"
                        },
                        "headers": {
                            "Content-Length": {
                                "description": "Length of the response body in octets; not supported if Transfer-Endoding = chunked",
                                "x-example": "9112300000003",
                                "type": "integer",
                                "format": "int64",
                                "minimum": 0,
                                "pattern": "^[\\d]*$"
                            },
                            "Content-Type": {
                                "description": "The MIME type of this content",
                                "x-example": "text/xml",
                                "type": "string",
                                "minLength": 1,
                                "maxLength": 256,
                                "pattern": "^[ \\S]+$"
                            },
                            "Date": {
                                "description": "The Date general HTTP header contains the date and time at which the message was originated.",
                                "x-example": "Mon, 05 Mar 2018 16:38:08 GMT",
                                "type": "string",
                                "format": "date-time",
                                "pattern": "^(Mon|Tue|Wed|Thu|Fri|Sat|Sun), [0-3]{1}[0-9]{1} (Jan|Feb|Mar|Apr|May|Jun|Jul|Aug|Sep|Oct|Nov|Dec) [1-3][0-9]{3} [0-2][0-9]:[0-6][0-9]:[0-6][0-9] GMT$"
                            },
                            "Location": {
                                "description": "The Location header specifies the URI of a created resource, or redirects the API consumer to an alternate resource location.",
                                "x-example": "http://api.t-mo.com/order-mgmt/v1/orders/123xyz-0/status",
                                "type": "string",
                                "minLength": 1,
                                "maxLength": 65536,
                                "pattern": "^[\\S]*$"
                            },
                            "Transfer-Encoding": {
                                "description": "The form of encoding used to safely transfer the entity to the user. Currently defined methods are: chunked, compress, deflate, gzip, identity.",
                                "x-example": "chunked",
                                "type": "string",
                                "minLength": 1,
                                "maxLength": 15,
                                "pattern": "^[\\S]*$"
                            }
                        }
                    },
                    "400": {
                        "description": "Bad Request",
                        "schema": {
                            "$ref": "#/definitions/Error"
                        },
                        "examples": {
                            "application/json": {
                                "code": "400",
                                "userMessage": "Bad Request",
                                "systemMessage": "Bad Request",
                                "detailLink": "http://www.tmus.com"
                            }
                        },
                        "headers": {}
                    },
                    "401": {
                        "description": "Unauthorized",
                        "schema": {
                            "$ref": "#/definitions/Error"
                        },
                        "examples": {
                            "application/json": {
                                "code": "401",
                                "userMessage": "Unauthorized",
                                "systemMessage": "Unauthorized",
                                "detailLink": "http://www.tmus.com"
                            }
                        },
                        "headers": {}
                    },
                    "404": {
                        "description": "Resource not found",
                        "schema": {
                            "$ref": "#/definitions/Error"
                        },
                        "examples": {
                            "application/json": {
                                "code": "404",
                                "userMessage": "Resource not found",
                                "systemMessage": "Resource not found",
                                "detailLink": "http://www.tmus.com"
                            }
                        },
                        "headers": {}
                    },
                    "406": {
                        "description": "Mismatching data format",
                        "schema": {
                            "$ref": "#/definitions/Error"
                        },
                        "examples": {
                            "application/json": {
                                "code": "406",
                                "userMessage": "Mismatching data format",
                                "systemMessage": "Mismatching data format",
                                "detailLink": "http://www.tmus.com"
                            }
                        },
                        "headers": {}
                    },
                    "409": {
                        "description": "Invalid data",
                        "schema": {
                            "$ref": "#/definitions/Error"
                        },
                        "examples": {
                            "application/json": {
                                "code": "409",
                                "userMessage": "Invalid data",
                                "systemMessage": "Invalid data",
                                "detailLink": "http://www.tmus.com"
                            }
                        },
                        "headers": {}
                    },
                    "500": {
                        "description": "System Error",
                        "schema": {
                            "$ref": "#/definitions/Error"
                        },
                        "examples": {
                            "application/json": {
                                "code": "500",
                                "userMessage": "System Error",
                                "systemMessage": "System Error",
                                "detailLink": "http://www.tmus.com"
                            }
                        },
                        "headers": {}
                    },
                    "503": {
                        "description": "Service unavailable",
                        "schema": {
                            "$ref": "#/definitions/Error"
                        },
                        "examples": {
                            "application/json": {
                                "code": "503",
                                "userMessage": "Service unavailable",
                                "systemMessage": "Service unavailable",
                                "detailLink": "http://www.tmus.com"
                            }
                        },
                        "headers": {}
                    }
                },
                "security": [
                  	{
						"oauth2": [
							"SaveReceiptTc"
						]
					}
                ]
            }
        }
    },
    "definitions": {
        "Accounts": {
            "description": "The entity that captures all aspects of a customers account",
            "type": "object",
            "properties": {
                "accountNumber": {
                    "description": "The financial account number that identifies the account.",
                    "type": "string"
                },
                "status": {
                    "description": "The current status of the account.",
                    "type": "string"
                },
                "billingType": {
                    "description": "A shorthand identifying name for the type of billing settlement: Prepaid, Postpaid.",
                    "type": "string"
                },
                "isPuertoricoIndicator": {
                    "description": "To indicate if the account is for PuertoRico customer.",
                    "type": "boolean"
                },
                "billFormat": {
                    "description": "Format of the bill; e.g; Paperless, Mail-In",
                    "type": "string"
                },
                "billCycleStartDate": {
                    "description": "Start date of the bill cycle.",
                    "type": "string",
                    "format": "date"
                },
                "billCycleEndDate": {
                    "description": "End date of the bill cycle.",
                    "type": "string",
                    "format": "date"
                },
                "serviceStartDate": {
                    "description": "The date when the service started",
                    "type": "string",
                    "format": "date"
                },
                "nextCycleDate": {
                    "description": "Next bill cycle date",
                    "type": "string",
                    "format": "date"
                },
                "ezpayIndicator": {
                    "description": "To indicate if EasyPay is setup for recurring payments or not",
                    "type": "boolean"
                },
                "autoPayEnabled": {
                    "description": "To indicate if the automatic payment is enabled",
                    "type": "string"
                },
                "b2bCustomerIndicator": {
                    "description": "Indicates that the customer is a business.",
                    "type": "boolean"
                },
                "b2rCustomerIndicator": {
                    "description": "Indicates that the customer is a reseller.",
                    "type": "boolean"
                },
                "creationDate": {
                    "description": "account creation datetime",
                    "type": "string",
                    "format": "date-time"
                },
                "terminationDate": {
                    "description": "termination date time of the account",
                    "type": "string",
                    "format": "date-time"
                },
                "initialAmount": {
                    "description": "Initial Account Balance",
                    "type": "number",
                    "format": "double"
                },
                "currentBalance": {
                    "description": "Current Account balance",
                    "type": "number",
                    "format": "double"
                },
                "additionalAmount": {
                    "description": "Only applicable to D2A, explicit, applicable only the EXTRA amount after payable amount.",
                    "type": "number",
                    "format": "double"
                },
                "orderLevel": {
                    "type": "array",
                    "description": "An array of orderLevel objects.",
                    "items": {
                        "type": "string",
                        "description": "A single instance of the orderLevel object."
                    }
                },
                "refillAmount": {
                    "description": "total refill amount including additional Fund",
                    "type": "number",
                    "format": "double"
                },
                "availedAmount": {
                    "description": "Amount availed from account against totals",
                    "type": "number",
                    "format": "double"
                },
                "paymentDueDate": {
                    "description": "Billing cycle payment due date",
                    "type": "string",
                    "format": "date"
                }
            }
        },
        "Address": {
            "description": "The physical address of the entity.",
            "type": "object",
            "properties": {
                "addressLine1": {
                    "description": "The first free form line, expressed as text, of an address",
                    "type": "string"
                },
                "addressLine2": {
                    "description": "The second free form line, expressed as text, of an address",
                    "type": "string"
                },
                "cityName": {
                    "description": "The name, expressed as text, of the city, town or village of this address",
                    "type": "string"
                },
                "stateCode": {
                    "description": "Code of the state in which the city falls, where applicable(WA, TX, GA)",
                    "type": "string",
                    "minLength": 2,
                    "maxLength": 2
                },
                "countryCode": {
                    "description": "The unique identifier of a country for this address (Reference ISO 3166 and UN/ECE Rec 3)",
                    "type": "string",
                    "minLength": 3,
                    "maxLength": 3,
                    "pattern": ".[A-Z][A-Z][A-Z]."
                },
                "postalCode": {
                    "description": "A code specifying the postal code of the address",
                    "type": "string"
                },
                "postalCodeExtension": {
                    "description": "An extension to the postalcode of the address, e.g., in 94070-3541, the extension is 3541.",
                    "type": "string"
                }
            }
        },
        "AppleCarePlan": {
            "description": "This consists of documentation of all Apple Care Legal text related info",
            "type": "object",
            "properties": {
                "protectionPlanStatementForIphone": {
                    "description": "Product Statement for iPhone",
                    "type": "string"
                },
                "protectionPlanStatementForIpad": {
                    "description": "Product Statement for iPad",
                    "type": "string"
                },
                "termsAndConditionsUrl": {
                    "description": "Terms and Conditions URL to be provided here",
                    "type": "string"
                }
            }
        },
        "Attachments": {
            "description": "Attachment Details",
            "type": "object",
            "properties": {
                "typeCode": {
                    "description": "Type of attachment, e.g., URL, TEXT, JPG, PNG, HTML, PDF",
                    "type": "string",
                    "enum": [
                        "URL",
                        "TEXT",
                        "JPG",
                        "PDF",
                        "HTML",
                        "PNG",
                        "XML"
                    ]
                },
                "embeddedData": {
                    "$ref": "#/definitions/EmbeddedData"
                }
            }
        },
        "CareProductInfo": {
            "description": "This consists of documentation of all Apple carerelated info",
            "type": "object",
            "properties": {
                "enrolledSerialNumber": {
                    "description": "Information on Enrolled Serial Number",
                    "type": "string"
                },
                "agreementNumber": {
                    "description": "Information on Agreement Number",
                    "type": "string"
                },
                "coverageStartDate": {
                    "description": "Coverage Start Date",
                    "type": "string",
                    "format": "date"
                },
                "coverageEndDate": {
                    "description": "Coverage End Date",
                    "type": "string",
                    "format": "date"
                }
            }
        },
        "Customers": {
            "description": "Details concerning the person or organization that is a customer",
            "type": "object",
            "properties": {
                "fullName": {
                    "description": "Customers Full Name",
                    "type": "string"
                },
                "firstName": {
                    "description": "Customers First Name",
                    "type": "string"
                },
                "lastName": {
                    "description": "Customers Last Name",
                    "type": "string"
                },
                "location": {
                    "$ref": "#/definitions/Location"
                },
                "businessName": {
                    "description": "Name of the business organization",
                    "type": "string"
                }
            }
        },
        "DocumentInfo": {
            "description": "DocumentInfo is a list of Document information for final response",
            "type": "object",
            "properties": {
                "documentId": {
                    "description": "A list of Unique Ids (for TC and Receipt) generated by document repository after successful saving",
                    "type": "string"
                },
                "documentType": {
                    "description": "Type of Document; Eg - Receipt, Transaction_Confirmation etc;",
                    "type": "string"
                },
                "Attachments": {
                    "$ref": "#/definitions/Attachments"
                }
            }
        },
        "Documents": {
            "description": "A list of Document information",
            "type": "object",
            "properties": {
                "documentId": {
                    "description": "A list of Unique Ids (for TC and Receipt) generated by document repository after successful saving",
                    "type": "string"
                },
                "documentType": {
                    "description": "Type of Document; Eg - Receipt, Transaction_Confirmation etc;",
                    "type": "string"
                },
                "templateLanguage": {
                    "description": "Possible Values; ENGLISH / SPANISH",
                    "type": "string"
                },
                "tagInfo": {
                    "$ref": "#/definitions/TagInfo"
                }
            }
        },
        "DocumentSet": {
            "description": "A set of documents",
            "type": "object",
            "properties": {
                "documents": {
                    "description": "An array of documents objects.",
                    "type": "array",
                    "items": {
                        "$ref": "#/definitions/Documents"
                    }
                },
                "saveDocument": {
                    "description": "Indicator to save the document",
                    "type": "boolean"
                },
                "returnContent": {
                    "description": "Indicator to return content such as PDF bytes, html etc;",
                    "type": "boolean"
                },
                "returnDocumentType": {
                    "description": "Indicates the format of content to be returned",
                    "type": "string",
                    "enum": [
                        "PDF",
                        "HTML"
                    ]
                }
            }
        },
        "EffectivePeriod": {
            "description": "A span of time defined by any two of these three: a start time, a duration, and an end time.",
            "type": "object",
            "properties": {
                "startTime": {
                    "description": "Start DateTime of the Time Period",
                    "type": "string",
                    "format": "date-time"
                },
                "endTime": {
                    "description": "End Date Time of the Time Period",
                    "type": "string",
                    "format": "date-time"
                },
                "duration": {
                    "description": "Duration of the Time Period. For additional information on the duration data type see:  http://www.w3schools.com/schema/schema_dtypes_date.asp",
                    "type": "string"
                }
            }
        },
        "EmbeddedData": {
            "description": "Element holding data embedded directly in the BOD instance",
            "type": "object",
            "properties": {
                "binaryContent": {
                    "description": "A set of finite-length sequences of binary octets",
                    "type": "string",
                    "format": "byte"
                }
            }
        },
        "EquipmentDetails": {
            "description": "This consists of documentation of all Device related info",
            "type": "object",
            "properties": {
                "color": {
                    "description": "Color",
                    "type": "string"
                },
                "size": {
                    "description": "Size",
                    "type": "string"
                },
                "model": {
                    "description": "Model",
                    "type": "string"
                },
                "imei": {
                    "description": "IMEI",
                    "type": "string",
                    "minLength": 15,
                    "maxLength": 16
                },
                "simNumber": {
                    "description": "Sim Number",
                    "type": "string",
                    "minLength": 19,
                    "maxLength": 20
                }
            }
        },
        "Error": {
            "description": "As defined in http://api-standards.apps.px-npe01.cf.t-mobile.com/http/status-codes/error-response-format/",
            "type": "object",
            "required": [
                "code",
                "userMessage"
            ],
            "properties": {
                "code": {
                    "description": "A succinct, domain-specific, human-readable text string to identify the type of error for the given status code",
                    "example": "ProductNotFound",
                    "type": "string",
                    "pattern": "^[\\S ]+$"
                },
                "userMessage": {
                    "description": "A human-readable message describing the error.",
                    "example": "Failed to find product.",
                    "type": "string",
                    "pattern": "^[\\S ]+$"
                },
                "systemMessage": {
                    "description": "Text that provides a more detailed technical explanation of the error",
                    "example": "PRODUCT_NOT_FOUND",
                    "type": "string"
                },
                "detailLink": {
                    "description": "link to custom information providing greater detail on error or errors",
                    "example": "http://aaa.bbb.ccc/",
                    "type": "string"
                }
            }
        },
        "FeeType": {
            "description": "A categorization of fees, used by UIs for the sales process.",
            "type": "object",
            "properties": {
                "name": {
                    "description": "name is a predefined object from an igniteXml model - cabinet 1030178313 build 1038833133 key 1030667425",
                    "type": "string"
                },
                "description": {
                    "description": "description is a predefined object from an igniteXml model - cabinet 1030178313 build 1038833133 key 1030667436",
                    "type": "string"
                },
                "code": {
                    "description": "The product catalogs short-hand name for the fee type.",
                    "type": "string"
                },
                "effectiveStartTime": {
                    "description": "Start DateTime of the Effective Time Period",
                    "type": "string",
                    "format": "date-time"
                },
                "effectiveEndTime": {
                    "description": "End Date Time of the Effective Time Period",
                    "type": "string",
                    "format": "date-time"
                },
                "feeTypeId": {
                    "description": "feeTypeId is a predefined object from an igniteXml model - cabinet 1030178313 build 1038833133 key 1030667460",
                    "type": "string"
                }
            }
        },
        "ItemInfo": {
            "description": "Product related Info.",
            "type": "object",
            "properties": {
                "items": {
                    "description": "An array of items objects.",
                    "type": "array",
                    "minItems": 1,
                    "items": {
                        "$ref": "#/definitions/Items"
                    }
                },
                "planFeatures": {
                    "description": "An array of planFeatures objects.",
                    "type": "array",
                    "items": {
                        "$ref": "#/definitions/PlanFeatures"
                    }
                },
                "serviceSuspension": {
                    "$ref": "#/definitions/ServiceSuspension"
                },
                "lineAlias": {
                    "description": "Alias or nickname for the line of service, set by customer, to be used in user interface.",
                    "type": "string"
                },
                "simChange": {
                    "$ref": "#/definitions/SimChange"
                }
            }
        },
        "Items": {
            "description": "All Product details",
            "type": "object",
            "properties": {
                "transactionType": {
                    "description": "Type of transaction in the originating order,  e.g. Activation, Add A Line, Upgrade etc.",
                    "type": "string",
                    "enum": [
                        "HandsetOrder",
                        "Exchange",
                        "Upgrade",
                        "SimOnly"
                    ]
                },
                "transactionSubtype": {
                    "description": "Transaction sub type",
                    "type": "string",
                    "enum": [
                        "FullPrice",
                        "EIP"
                    ]
                },
                "accountNumber": {
                    "description": "The financial account number that identifies the account.",
                    "type": "string"
                },
                "mobileNumber": {
                    "description": "Information about MSISDN",
                    "type": "string",
                    "minLength": 10,
                    "maxLength": 15,
                    "pattern": ".[0-9]{10,15}."
                },
                "offerId": {
                    "description": "Product Offering identifier",
                    "type": "string"
                },
                "offerType": {
                    "description": "Product Offer type",
                    "type": "string",
                    "enum": [
                        "Base",
                        "AddOn",
                        "OnDemand",
                        "TopOff"
                    ]
                },
                "offerSubtype": {
                    "description": "Product Offer Sub Type",
                    "type": "string",
                    "enum": [
                        "SoftGood",
                        "Package",
                        "HardGood"
                    ]
                },
                "offerLevel": {
                    "description": "Product Offer Level",
                    "type": "string",
                    "enum": [
                        "Line",
                        "Account",
                        "Product",
                        "Transaction"
                    ]
                },
                "productType": {
                    "description": "Categorizes the different types of product offered for sale: Service, Device, Accessory, or Financial.",
                    "type": "string",
                    "enum": [
                        "Service",
                        "Financial",
                        "Device",
                        "Accessory",
                        "PremiumContent",
                        "Plan"
                    ]
                },
                "productSubTypes": {
                    "description": "An array of productSubTypes objects.",
                    "type": "array",
                    "items": {
                        "type": "string",
                        "description": "A single instance of the productSubTypes object."
                    }
                },
                "name": {
                    "description": "Product Name",
                    "type": "string"
                },
                "description": {
                    "description": "Product Description",
                    "type": "string"
                },
                "shortDescription": {
                    "description": "Product Short Description",
                    "type": "string"
                },
                "addDate": {
                    "description": "Add Date",
                    "type": "string",
                    "format": "date-time"
                },
                "cancelDate": {
                    "description": "Cancel Date",
                    "type": "string",
                    "format": "date-time"
                },
                "sku": {
                    "description": "SKU",
                    "type": "string",
                    "maxLength": 50
                },
                "action": {
                    "description": "Action details",
                    "type": "string"
                },
                "quantity": {
                    "description": "Quantity",
                    "type": "string"
                },
                "price": {
                    "description": "Price",
                    "type": "number",
                    "format": "double"
                },
                "equipmentDetails": {
                    "$ref": "#/definitions/EquipmentDetails"
                },
                "careProductInfo": {
                    "$ref": "#/definitions/CareProductInfo"
                },
                "returnInfo": {
                    "$ref": "#/definitions/ReturnInfo"
                },
                "orderDocumentcharges": {
                    "description": "An array of orderDocumentcharges objects.",
                    "type": "array",
                    "items": {
                        "$ref": "#/definitions/OrderDocumentcharges"
                    }
                },
                "thirdPartyService": {
                    "description": "To indicate if T-Mobile bills the customer for third-party service.",
                    "type": "boolean"
                },
                "promotions": {
                    "description": "An array of promotions objects.",
                    "type": "array",
                    "items": {
                        "$ref": "#/definitions/Promotions"
                    }
                },
                "equipmentDownPayment": {
                    "description": "Down payment amount",
                    "type": "number",
                    "format": "double"
                },
                "epinSerialNumber": {
                    "description": "E-Pin Serial Number",
                    "type": "string"
                },
                "epinNumber": {
                    "description": "E-Pin Number",
                    "type": "string"
                },
                "productOfferingId": {
                    "description": "Product Offering Id",
                    "type": "string"
                }
            }
        },
        "LoanInfo": {
            "description": "Various EIP totals and details",
            "type": "object",
            "properties": {
                "paymentAmount": {
                    "description": "Payment amount",
                    "type": "number",
                    "format": "double"
                },
                "lastPaymentDueDate": {
                    "description": "due date for last payment",
                    "type": "number",
                    "format": "double"
                },
                "totalMonthlyPayment": {
                    "description": "Total Monthly Payment",
                    "type": "number",
                    "format": "double"
                },
                "lastPaymentIndicator": {
                    "description": "Last Payment Indicator for number of payments left",
                    "type": "number",
                    "format": "double"
                },
                "totalLastMonthPayment": {
                    "description": "Total Last Month Payment",
                    "type": "number",
                    "format": "double"
                },
                "totalFinancedAmount": {
                    "description": "Total Financed Amount",
                    "type": "number",
                    "format": "double"
                },
                "finalMonthPaymentDueDate": {
                    "description": "Final Month Payment Due Date",
                    "type": "string",
                    "format": "date"
                },
                "numberOfDevices": {
                    "description": "Device count",
                    "type": "number",
                    "format": "double"
                },
                "numberOfPayments": {
                    "description": "Number of Payments",
                    "type": "number",
                    "format": "double"
                }
            }
        },
        "Location": {
            "description": "The location of an entity such as a store or warehouse, including address and phone numbers.",
            "type": "object",
            "properties": {
                "locationName": {
                    "description": "The name of the entity located at the given address.",
                    "type": "string"
                },
                "address": {
                    "$ref": "#/definitions/Address"
                },
                "phoneCommunications": {
                    "description": "An array of phoneCommunications objects.",
                    "type": "array",
                    "items": {
                        "$ref": "#/definitions/PhoneCommunications"
                    }
                }
            }
        },
        "LotoInfo": {
            "description": "Loto Info.",
            "type": "object",
            "properties": {
                "merchantId": {
                    "description": "A unique ID used to identify the Merchant. The merchant must use the value assigned by payment gateway vendor. Each store is considered a separate merchant.",
                    "type": "string"
                }
            }
        },
        "OrderDetails": {
            "description": "Various transactional Details",
            "type": "object",
            "properties": {
                "stores": {
                    "$ref": "#/definitions/Stores"
                },
                "customers": {
                    "$ref": "#/definitions/Customers"
                },
                "accounts": {
                    "$ref": "#/definitions/Accounts"
                },
                "orderInfo": {
                    "$ref": "#/definitions/OrderInfo"
                },
                "shippingInfo": {
                    "$ref": "#/definitions/ShippingInfo"
                },
                "lotoInfo": {
                    "$ref": "#/definitions/LotoInfo"
                },
                "transactionDateTime": {
                    "description": "transaction Date Time",
                    "type": "string",
                    "format": "date-time"
                },
                "sendEmail": {
                    "description": "if email needs to be sent",
                    "type": "boolean"
                },
                "emailId": {
                    "description": "Email address to which this document needs to be sent via email.",
                    "type": "string"
                },
                "documentSet": {
                    "$ref": "#/definitions/DocumentSet"
                }
            }
        },
        "OrderDocumentcharges": {
            "description": "Details about the Charges applicable on the order schedule line",
            "type": "object",
            "properties": {
                "chargeId": {
                    "description": "Uniquely identifies the charge.",
                    "type": "string"
                },
                "typeCode": {
                    "description": "Type of Charge",
                    "type": "string",
                    "enum": [
                        "PayOffCharge",
                        "PrePaymentPenalty",
                        "Fee",
                        "Usage",
                        "Refund",
                        "Periodic",
                        "MandatoryDownPayment",
                        "DownPayment",
                        "Initial",
                        "AdditionalDownPayment",
                        "Final",
                        "FullPrice",
                        "Deposit",
                        "Discount",
                        "PeriodicDiscount"
                    ]
                },
                "chargeFrequencyCode": {
                    "description": "Frequency of Charge. Example monthly,yearly,quarterly",
                    "type": "string",
                    "enum": [
                        "Monthly",
                        "Weekly",
                        "SemiMonthly",
                        "BiWeekly",
                        "Yearly",
                        "Quarterly",
                        "OneTime",
                        "Daily"
                    ]
                },
                "amount": {
                    "description": "Charge Amount in the transactional currency",
                    "type": "number",
                    "format": "double"
                },
                "chargeCode": {
                    "description": "The billing system charge code that correspnods to this price component when it is added to the customer&apos;s bill.",
                    "type": "string"
                },
                "descriptions": {
                    "description": "An array of descriptions objects.",
                    "type": "array",
                    "items": {
                        "type": "string",
                        "description": "A single instance of the descriptions object."
                    }
                },
                "waived": {
                    "description": "Indicates whether the charge was waived.",
                    "type": "boolean"
                },
                "waiverReason": {
                    "description": "The reason the charge was waived, if applicable.",
                    "type": "string"
                },
                "feeType": {
                    "$ref": "#/definitions/FeeType"
                },
                "feeOverrideAllowed": {
                    "description": "Indicates if the fee is allowed for override",
                    "type": "boolean"
                },
                "prorated": {
                    "description": "To indicate if the charge is prorated",
                    "type": "boolean"
                },
                "feeWaiveAllowed": {
                    "description": "To indicate if the fee waive is allowed",
                    "type": "boolean"
                },
                "calculationType": {
                    "description": "Price calculation type for order schedule.",
                    "type": "string",
                    "enum": [
                        "Catalog",
                        "Quotation"
                    ]
                },
                "effectivePeriod": {
                    "$ref": "#/definitions/EffectivePeriod"
                }
            }
        },
        "OrderInfo": {
            "description": "Order Transactional Details",
            "type": "object",
            "properties": {
                "orderId": {
                    "description": "Uniquely identifies an order",
                    "type": "string"
                },
                "orderType": {
                    "description": "Possible Values: ACTIVATION,ADD_A_LINE,UPGRADE, etc",
                    "type": "string"
                },
                "transactionContentTypes": {
                    "description": "An array of transactionContentTypes objects.",
                    "type": "array",
                    "items": {
                        "type": "string",
                        "description": "A single instance of the transactionContentTypes object."
                    }
                },
                "subTotals": {
                    "description": "An array of subTotals objects.",
                    "type": "array",
                    "items": {
                        "$ref": "#/definitions/SubTotals"
                    }
                },
                "puertoRicoLotoNumber": {
                    "description": "Puerto Rico Lotto Control Number",
                    "type": "string"
                },
                "appleCarePlan": {
                    "description": "An array of appleCarePlan objects.",
                    "type": "array",
                    "items": {
                        "$ref": "#/definitions/AppleCarePlan"
                    }
                },
                "taxExempted": {
                    "description": "Indicates tax exemption on the order",
                    "type": "boolean"
                },
                "originalTransactionDetails": {
                    "$ref": "#/definitions/OriginalTransactionDetails"
                },
                "items": {
                    "description": "An array of items objects.",
                    "type": "array",
                    "items": {
                        "$ref": "#/definitions/Items"
                    }
                },
                "payments": {
                    "description": "An array of payments objects.",
                    "type": "array",
                    "items": {
                        "$ref": "#/definitions/Payments"
                    }
                },
                "orderStatus": {
                    "description": "State of the Order",
                    "type": "string"
                },
                "taxTreatment": {
                    "description": "Tax Treatment . Possible ValuesTI - Tax Inclusive   TE - Tax Exclusive",
                    "type": "string",
                    "enum": [
                        "TI",
                        "TE"
                    ]
                },
                "loanInfo": {
                    "$ref": "#/definitions/LoanInfo"
                },
                "orderTotals": {
                    "$ref": "#/definitions/OrderTotals"
                },
                "itemInfo": {
                    "$ref": "#/definitions/ItemInfo"
                }
            }
        },
        "OrderTotals": {
            "description": "Billing total related Info.",
            "type": "object",
            "properties": {
                "shippingFee": {
                    "description": "A list of (for TC and Receipt) Shipping Fee charged to the customer on the Receipt",
                    "type": "number",
                    "format": "double"
                },
                "subTotal": {
                    "description": "A list of (for TC and Receipt) Sub-Total - Total excluding taxes.",
                    "type": "number",
                    "format": "double"
                },
                "taxes": {
                    "description": "A list of (for TC and Receipt) State and local taxes charged to the customer",
                    "type": "number",
                    "format": "double"
                },
                "total": {
                    "description": "A list of (for TC and Receipt) Total amount including taxes",
                    "type": "number",
                    "format": "double"
                },
                "paperBillFee": {
                    "description": "Paper Bill Fee to be charged to a customer if he/she opts for itemized bill.",
                    "type": "number",
                    "format": "double"
                },
                "taxOnFinancedAmount": {
                    "description": "Taxes payed today on the Financed Amount",
                    "type": "number",
                    "format": "double"
                },
                "recurringTaxOnFinancedAmount": {
                    "description": "Monthly taxes on the financed Amount",
                    "type": "number",
                    "format": "double"
                },
                "nextBillTaxOnFinancedAmount": {
                    "description": "One time tax on Financed Amount",
                    "type": "number",
                    "format": "double"
                },
                "taxOnRegularAmount": {
                    "description": "Taxes payed today on non financed Amount",
                    "type": "number",
                    "format": "double"
                },
                "recurringTaxOnRegularAmount": {
                    "description": "Monthly taxes on the non financed Amount",
                    "type": "number",
                    "format": "double"
                },
                "nextBillTaxOnRegularAmount": {
                    "description": "One time tax on non Financed Amount",
                    "type": "number",
                    "format": "double"
                },
                "extendedAmountMonthly": {
                    "description": "The total monthly amount not including taxes or charges.",
                    "type": "number",
                    "format": "double"
                },
                "extendedAmountFinanced": {
                    "description": "The total finaced Amount not including taxes or charges.",
                    "type": "number",
                    "format": "double"
                },
                "totalCurrentRecurringAmount": {
                    "description": "Sum of current recurring due",
                    "type": "number",
                    "format": "double"
                },
                "estimatedDeltaMonthlyAmount": {
                    "description": "New changes from next bill",
                    "type": "number",
                    "format": "double"
                },
                "totalOneTimeChargeOnNextBill": {
                    "description": "Total One Time charge on Next Bill",
                    "type": "number",
                    "format": "double"
                },
                "newEstimatedTotalMonthly": {
                    "description": "New Estimated Total Monthly Charges",
                    "type": "number",
                    "format": "double"
                },
                "extendedAmountNextBill": {
                    "description": "one time charges subtotal",
                    "type": "number",
                    "format": "double"
                },
                "tax_911": {
                    "description": "911 Tax",
                    "type": "number",
                    "format": "double"
                },
                "mts_surcharge": {
                    "description": "Sub-Total - Total excluding taxes.",
                    "type": "number",
                    "format": "double"
                },
                "remainingTaxes": {
                    "description": "Tax without 911 and surcharge",
                    "type": "number",
                    "format": "double"
                }
            }
        },
        "OriginalTransactionDetails": {
            "description": "Original transaction details in case of return/exchanges",
            "type": "object",
            "properties": {
                "originalOrderId": {
                    "description": "Uniquely identifies the original transactionId",
                    "type": "string"
                },
                "originalTransactionDateTime": {
                    "description": "Uniquely identifies the original transactionId",
                    "type": "string",
                    "format": "date-time"
                },
                "originalStoreName": {
                    "description": "The name of the entity located at the given address where original transaction was made",
                    "type": "string"
                },
                "originalTerminalId": {
                    "description": "Unique identifier for the retail store terminal of the original transaction",
                    "type": "string"
                },
                "originalStoreId": {
                    "description": "Uniquely identifies the store location of the original transaction.",
                    "type": "string"
                }
            }
        },
        "Payments": {
            "description": "Payment related Info.",
            "type": "object",
            "properties": {
                "paymentMethodCode": {
                    "description": "Specifies the Payment Type. Example values can be: Card, Cash, Direct Debit, Draft, Letter of Credit, GIRO, Check ( Send me a bill)",
                    "type": "string",
                    "enum": [
                        "Cash",
                        "Credit",
                        "Debit",
                        "Check",
                        "eCheck",
                        "EBT",
                        "Prepaid",
                        "DelayPay",
                        "PLDebit",
                        "DebitSignature",
                        "PayPal",
                        "GiftCard",
                        "GPRCard",
                        "Voucher",
                        "DeductionFromAccountBalance",
                        "Hybrid"
                    ]
                },
                "paymentTransactionType": {
                    "description": "Information on Transaction Type",
                    "type": "string",
                    "enum": [
                        "PAYMENT",
                        "REFUND",
                        "DEPOSIT",
                        "VOUCHER_REFILL",
                        "INVOICE_TRANSFER",
                        "PAYMENT_TRANSFER",
                        "CLEARING",
                        "WRITE_OFF",
                        "OUTPAYMENT",
                        "TRANSFERFUND",
                        "DEPOSIT2FUND",
                        "OUTDEPOSIT",
                        "CLR-FPA",
                        "BACKOUT",
                        "TRANSPARTPAYMENT"
                    ]
                },
                "cardNumber": {
                    "description": "Payment card number",
                    "type": "string"
                },
                "maskingType": {
                    "description": "The type of masking to be applied to the credit card number for security and privacy. Controls which digits to reveal.",
                    "type": "string",
                    "enum": [
                        "Last4",
                        "Last6",
                        "NA",
                        "None",
                        "First5",
                        "First6andLast4"
                    ]
                },
                "typeCode": {
                    "description": "Type of Credit Card. Examples are Visa, MasterCard etc",
                    "type": "string",
                    "enum": [
                        "MASTERCARD",
                        "VISA",
                        "AMERICANEXPRESS",
                        "DISCOVER",
                        "BLANK",
                        "DEBIT"
                    ]
                },
                "checkNumber": {
                    "description": "The number uniquely identifying the check within the the set of checks written against the customer&apos;s bank account.",
                    "type": "string"
                },
                "paymentReferenceNumber": {
                    "description": "Payment Reference Number",
                    "type": "string"
                },
                "cardHolderName": {
                    "description": "Name of the Card Holder",
                    "type": "string"
                },
                "amount": {
                    "description": "Amount that the payment method authorizes or collected in the mode of cash/Check",
                    "type": "number",
                    "format": "double"
                },
                "authorizationResponseCode": {
                    "description": "Code that indicates the result of the authorization request. Code values will vary depending on the payment gateway vendor.",
                    "type": "string"
                },
                "terminalEntryMode": {
                    "description": "Indicates how the account number was entered on the transaction at Point of Sale (POS).",
                    "type": "string"
                },
                "signature": {
                    "description": "Customers signature on each tender",
                    "type": "string",
                    "format": "byte"
                },
                "cashReceivedAmount": {
                    "description": "Cash Received Customer",
                    "type": "number",
                    "format": "double"
                },
                "changeDueAmount": {
                    "description": "Change to be given back to customer by Sales Rep",
                    "type": "number",
                    "format": "double"
                },
                "remainingBalance": {
                    "description": "Remaining Balance on the Gift Card",
                    "type": "number",
                    "format": "double"
                },
                "cardAuthorizationMode": {
                    "description": "Authorization Mode, possible values are Online/Voice",
                    "type": "string"
                },
                "applicationIdentifier": {
                    "description": "EMV Application Identifier value",
                    "type": "string"
                },
                "verificationMethod": {
                    "description": "PIN verificationMethod",
                    "type": "string"
                },
                "applicationPreferredName": {
                    "description": "Application Preferred Name from EMV",
                    "type": "string"
                },
                "serialNumber": {
                    "description": "serial Number",
                    "type": "string"
                }
            }
        },
        "PhoneCommunications": {
            "description": "Communication guidelines for telephone.",
            "type": "object",
            "properties": {
                "phoneType": {
                    "description": "Indicates the type of phone: LANDLINE, MOBILE, FAX, SATELLITE.",
                    "type": "string",
                    "enum": [
                        "LANDLINE",
                        "MOBILE",
                        "FAX",
                        "SATELLITE"
                    ]
                },
                "phoneNumber": {
                    "description": "The complete number without separation between  country code, area code etc",
                    "type": "string"
                }
            }
        },
        "PlanFeatures": {
            "description": "This consists of documentation of all Plan Feature related info",
            "type": "object",
            "properties": {
                "name": {
                    "description": "Plan Feature Name",
                    "type": "string"
                },
                "id": {
                    "description": "Plan Feature description",
                    "type": "string"
                },
                "action": {
                    "description": "Plan Feature Action",
                    "type": "string"
                }
            }
        },
        "Promotions": {
            "description": "Promotion associated with the saleItem",
            "type": "object",
            "properties": {
                "promotionId": {
                    "description": "Uniquely identifies a promotion.",
                    "type": "string"
                },
                "promotionSystem": {
                    "description": "The system from which the promotion is initiated.",
                    "type": "string"
                },
                "promotionCode": {
                    "description": "Code for this promotion. It is different from promotion ID.",
                    "type": "string"
                },
                "promotionName": {
                    "description": "Commonly used name of the Promotion, as defined in the Product Catalog.",
                    "type": "string"
                },
                "promotionDescription": {
                    "description": "Decription of the promotion",
                    "type": "string"
                },
                "promotionShortDescription": {
                    "description": "Short description of the promotion",
                    "type": "string"
                },
                "effectiveStartTime": {
                    "description": "Start DateTime of the Effective Time Period",
                    "type": "string",
                    "format": "date-time"
                },
                "effectiveEndTime": {
                    "description": "End Date Time of the Effective Time Period",
                    "type": "string",
                    "format": "date-time"
                },
                "promotionType": {
                    "description": "The type of promotion.",
                    "type": "string"
                },
                "promotionShortName": {
                    "description": "The brief name of the promotion.",
                    "type": "string"
                },
                "promotionLongDescription": {
                    "description": "Long description of the promotion.",
                    "type": "string"
                },
                "promotionAlternateDescription": {
                    "description": "Alternative description for the promotion",
                    "type": "string"
                },
                "customerFacingCodeType": {
                    "description": "Valid promotion code type",
                    "type": "string",
                    "enum": [
                        "PromotionCode",
                        "CouponCode",
                        "PromotionOrCouponCode",
                        "None"
                    ]
                },
                "promotionAmount": {
                    "description": "Deduction amount for the promotion",
                    "type": "number",
                    "format": "double"
                },
                "promotionalActionType": {
                    "description": "Action to be applied as part of the promotion: Discount, Allowance, ProductAddition",
                    "type": "string",
                    "enum": [
                        "Discount",
                        "Allowance",
                        "ProductAddition"
                    ]
                },
                "prorated": {
                    "description": "To indicate if the charge is prorated",
                    "type": "boolean"
                },
                "skus": {
                    "description": "An array of skus objects.",
                    "type": "array",
                    "items": {
                        "type": "string",
                        "description": "A single instance of the skus object."
                    }
                }
            }
        },
        "Response": {
            "description": "list of response from receipt and TC API",
            "type": "object",
            "properties": {
                "DocumentInfo": {
                    "description": "An array of DocumentInfo objects.",
                    "type": "array",
                    "maxItems": 50,
                    "items": {
                        "$ref": "#/definitions/DocumentInfo"
                    }
                }
            }
        },
        "ReturnInfo": {
            "description": "This consists of documentation of all returnsrelated info",
            "type": "object",
            "properties": {
                "returnAuthorizationType": {
                    "description": "Return Type for product returns",
                    "type": "string",
                    "enum": [
                        "Warranty",
                        "Remorse",
                        "PHP",
                        "JUMP",
                        "Trade-In",
                        "MHP",
                        "SCORE"
                    ]
                },
                "returnReason": {
                    "description": "Reason of return",
                    "type": "string"
                }
            }
        },
        "RMAList": {
            "description": "A list of Authorization RMA (Return merchandise authorization) information returned from backend system",
            "type": "object",
            "properties": {
                "RMANumber": {
                    "description": "An array of RMANumber objects.",
                    "type": "array",
                    "items": {
                        "type": "string",
                        "description": "A single instance of the RMANumber object."
                    }
                }
            }
        },
        "ServiceSuspension": {
            "description": "This consists of documentation of different DocumentSuspension related info",
            "type": "object",
            "properties": {
                "suspendCode": {
                    "description": "Suspend Code",
                    "type": "string",
                    "enum": [
                        "LOST_STOLEN",
                        "MILITARY",
                        "SEASONAL"
                    ]
                },
                "effectiveStartTime": {
                    "description": "Start DateTime of the Effective Time Period",
                    "type": "string",
                    "format": "date-time"
                },
                "effectiveEndTime": {
                    "description": "End Date Time of the Effective Time Period",
                    "type": "string",
                    "format": "date-time"
                }
            }
        },
        "ShippingInfo": {
            "description": "This consists of all Shipping related info",
            "type": "object",
            "properties": {
                "serviceLevelCode": {
                    "description": "Shipping carrier priority code such as 2nd day, next day, priority, etc.",
                    "type": "string"
                },
                "trackingNumber": {
                    "description": "Tracking Number for shipping the device",
                    "type": "string"
                },
                "estimatedDeliveryTime": {
                    "description": "Identifies the default date goods or services must be delivered to the customer, as specified by the customer.",
                    "type": "string",
                    "format": "date-time"
                },
                "address": {
                    "$ref": "#/definitions/ShippingInfoAddress"
                },
                "shippingFeeWaived": {
                    "description": "Indicator for Shipping Fee waiver",
                    "type": "boolean"
                }
            }
        },
        "ShippingInfoAddress": {
            "description": "The physical address of the entity.",
            "type": "object",
            "properties": {
                "addressLine1": {
                    "description": "The first free form line, expressed as text, of an address",
                    "type": "string"
                },
                "addressLine2": {
                    "description": "The second free form line, expressed as text, of an address",
                    "type": "string"
                },
                "cityName": {
                    "description": "The name, expressed as text, of the city, town or village of this address",
                    "type": "string"
                },
                "stateCode": {
                    "description": "Code of the state in which the city falls, where applicable(WA, TX, GA)",
                    "type": "string",
                    "minLength": 2,
                    "maxLength": 2
                },
                "countryCode": {
                    "description": "The unique identifier of a country for this address (Reference ISO 3166 and UN/ECE Rec 3)",
                    "type": "string",
                    "minLength": 3,
                    "maxLength": 3,
                    "pattern": ".[A-Z][A-Z][A-Z]."
                },
                "postalCode": {
                    "description": "A code specifying the postal code of the address",
                    "type": "string"
                },
                "postalCodeExtension": {
                    "description": "An extension to the postalcode of the address, e.g., in 94070-3541, the extension is 3541.",
                    "type": "string"
                }
            }
        },
        "SimChange": {
            "description": "This consists of documentation of different  Sim Change related info",
            "type": "object",
            "properties": {
                "oldSim": {
                    "description": "All Old Sim details",
                    "type": "string",
                    "minLength": 19,
                    "maxLength": 20
                },
                "newSim": {
                    "description": "All New Sim details",
                    "type": "string",
                    "minLength": 19,
                    "maxLength": 20
                },
                "newImsi": {
                    "description": "All new IMSI details",
                    "type": "string",
                    "minLength": 15,
                    "maxLength": 15
                },
                "changeReasonCode": {
                    "description": "Change Reason Code",
                    "type": "string"
                }
            }
        },
        "Stores": {
            "description": "List of stores.",
            "type": "object",
            "properties": {
                "storeId": {
                    "description": "The unique  identifier of the store, as defined by the T-Mobile system of record.",
                    "type": "string"
                },
                "location": {
                    "$ref": "#/definitions/Location"
                },
                "dealerCode": {
                    "description": "The Dealer that owns this store.",
                    "type": "string"
                },
                "licenseNumber": {
                    "description": "Store license number",
                    "type": "string"
                },
                "secondaryLicenseNumber": {
                    "description": "Stores secondary license number",
                    "type": "string"
                },
                "dealerName": {
                    "description": "The name of the dealer",
                    "type": "string"
                },
                "merchantRegistryNumber": {
                    "description": "Merchant registry number of the store",
                    "type": "string"
                },
                "salesRepNtid": {
                    "description": "NTID of the sales representative",
                    "type": "string"
                },
                "salesRepName": {
                    "description": "Name of the sales representative",
                    "type": "string"
                },
                "employeeStore": {
                    "description": "Indicator if the Store is a T-Mobile employee store",
                    "type": "boolean"
                },
                "salesRepFirstName": {
                    "description": "First Name of the sales representative",
                    "type": "string"
                },
                "salesRepLastName": {
                    "description": "Family Name of the sales representative",
                    "type": "string"
                }
            }
        },
        "SubTotals": {
            "description": "A list of DocumentSubTotal is a predefined object from an igniteXml model - cabinet 1030178313 build 1038833133 key 1038831315",
            "type": "object",
            "properties": {
                "transactionSubtype": {
                    "description": "transactionSubtype is a predefined object from an igniteXml model - cabinet 1030178313 build 1038833133 key 1038831997",
                    "type": "string",
                    "enum": [
                        "FullPrice",
                        "EIP"
                    ]
                },
                "saleAmount": {
                    "description": "saleAmount is a predefined object from an igniteXml model - cabinet 1030178313 build 1038833133 key 1038832007",
                    "type": "number",
                    "format": "double"
                },
                "downPayment": {
                    "description": "downPayment is a predefined object from an igniteXml model - cabinet 1030178313 build 1038833133 key 1038832018",
                    "type": "number",
                    "format": "double"
                },
                "taxes": {
                    "description": "taxes is a predefined object from an igniteXml model - cabinet 1030178313 build 1038833133 key 1038832029",
                    "type": "number",
                    "format": "double"
                },
                "totalAmount": {
                    "description": "totalAmount is a predefined object from an igniteXml model - cabinet 1030178313 build 1038833133 key 1038832040",
                    "type": "number",
                    "format": "double"
                },
                "totalDownPayment": {
                    "description": "totalDownPayment is a predefined object from an igniteXml model - cabinet 1030178313 build 1038833133 key 1038832051",
                    "type": "number",
                    "format": "double"
                }
            }
        },
        "TagInfo": {
            "description": "Document MetaData",
            "type": "object",
            "properties": {
                "firstName": {
                    "description": "Represents the first name.",
                    "type": "string"
                },
                "lastName": {
                    "description": "Represents the last name.",
                    "type": "string"
                },
                "commonCustomerId": {
                    "description": "Common customer identifier (CCID)",
                    "type": "string"
                },
                "contractBan": {
                    "description": "Represents the customer account number.",
                    "type": "string"
                },
                "dateTime": {
                    "description": "Document retention will be based on this date. Should be in MM/DD/YYYY format",
                    "type": "string"
                },
                "storeId": {
                    "description": "Represents the store id for the T-Mobile store.",
                    "type": "string"
                },
                "storeCity": {
                    "description": "Provides the City name information.",
                    "type": "string"
                },
                "storeState": {
                    "description": "A pick list of two-letter abbreviations representing US states,       military post offices, US protectorates, and Canadian provinces in which the NPA is located in.",
                    "type": "string"
                },
                "registerId": {
                    "description": "Register ID of the customer",
                    "type": "string"
                },
                "transactionId": {
                    "description": "Document transaction ID.",
                    "type": "string"
                },
                "emailId": {
                    "description": "Email address to which this document was sent via email.",
                    "type": "string"
                },
                "deviceSerialNumber": {
                    "description": "A list of Serial Numbers of the Trade In devices",
                    "type": "string"
                },
                "RMAList": {
                    "$ref": "#/definitions/RMAList"
                },
                "documentOwner": {
                    "description": "Document owner who maintain the device tradeIn Agreement. e.g. Assurant",
                    "type": "string"
                },
                "orderNumber": {
                    "description": "Forward Order Number",
                    "type": "string"
                },
                "shippingCarrier": {
                    "description": "Carrier used for shipping the device",
                    "type": "string"
                },
                "trackingNumber": {
                    "description": "Tracking Number for shipping the device",
                    "type": "string"
                },
                "transactionType": {
                    "description": "Clients need to pass this value as meta data for all Financial Agreements.",
                    "type": "string"
                },
                "paymentStartDate": {
                    "description": "Clients need to pass this value as meta data for all Financial Agreements.",
                    "type": "string",
                    "format": "date"
                },
                "totalPrice": {
                    "description": "Clients need to pass this value as meta data for all Financial Agreements.",
                    "type": "number",
                    "format": "double"
                },
                "downPayment": {
                    "description": "For a PlanId, Clients need to send the downpayment.",
                    "type": "number",
                    "format": "double"
                },
                "term": {
                    "description": "Clients need to pass this value as meta data for all Financial Agreements.",
                    "type": "integer",
                    "format": "int32",
                    "minimum": -2147483648,
                    "maximum": 2147483647,
                    "pattern": "^[\\-+]?[0-9]+$"
                },
                "paymentEndDate": {
                    "description": "Payment End Date",
                    "type": "string",
                    "format": "date"
                },
                "documentDescription": {
                    "description": "documentDescription is a predefined object from an igniteXml model - cabinet 1030178313 build 1038833133 key 1036834621",
                    "type": "string"
                },
                "skus": {
                    "description": "An array of skus objects.",
                    "type": "array",
                    "items": {
                        "type": "string",
                        "description": "A single instance of the skus object."
                    }
                },
                "imeis": {
                    "description": "An array of imeis objects.",
                    "type": "array",
                    "items": {
                        "type": "string",
                        "description": "A single instance of the imeis object."
                    }
                },
                "mobileNumbers": {
                    "description": "An array of mobileNumbers objects.",
                    "type": "array",
                    "items": {
                        "type": "string",
                        "description": "A single instance of the mobileNumbers object."
                    }
                }
            }
        }
    },
    "securityDefinitions": {
      "oauth2": {
			"type": "oauth2",
			"description": "OAUTH2",
			"tokenUrl": "https://qlab02.core.op.api.t-mobile.com/v1/oauth2/accesstoken?grant_type=client_credentials",
			"flow": "application",
			"scopes": {
				"SaveReceiptTc": ""
			}
		}
    }
}
