{
    "swagger": "2.0",
    "info": {
        "title": "ServiceAgreement",
        "description": "This service support the use of the legalDocumentsMessage resource. Object for Document generation, presentment, saving and retrieval",
        "version": "1.0.0",
        "x-createdBy": {
            "dateCreated": "Thu Jun  6 18:49:52 2019",
            "createdBy": "Skambli1",
            "application": "Recite",
            "appVersion": "1.0.0.2891",
            "documentId": "3f6f5390-2a68-49a6-87f2-988e32393da2",
            "status": "Conceptual - Initial",
            "classification": "17.6.2 Contract Mgmt.",
            "profile": "Core Business Capability Service",
            "serviceLayer": "Enterprise - CustomerManagement"
        }
    },
    "x-servers": [
		{
			"url": "https://qlab02.core.op.api.t-mobile.com/legal/v1/agreements/serviceagreement",
			"description": "serviceagreement"
		}
	],
    "tags": [
        {
            "name": "Bind Service Agreement",
            "description": ""
        },
        {
            "name": "Generate Service Agreement",
            "description": ""
        }
    ],
    "host": "dev01.api.t-mobile.com",
    "basePath": "/legal/v1/agreements/serviceagreement",
    "x-tryOut":"yes",
    "schemes": [
        "https"
    ],
    "paths": {
        "/": {
            "post": {
                "tags": [
                    "Generate Service Agreement"
                ],
                "x-api-pattern": "CreateInCollection",
                "summary": "Generation of Service Agreement based on input data",
                "description": "Generation of Service Agreement based on input data",
                "operationId": "serviceAgreement",
                "consumes": [],
                "produces": [],
                "parameters": [
                    {
                        "name": "serviceAgreementRequest",
                        "in": "body",
                        "description": "Request and payload to generate and return Service Agreement as HTML",
                        "required": true,
                        "schema": {
                            "$ref": "#/definitions/ServiceAgreementRequest"
                        }
                    },
                    {
                        "name": "Authorization",
                        "in": "header",
                        "description": "The HTTP Authorization request header contains the credentials to authenticate a user agent with a server.",
                        "x-example": "Bearer mF_9.B5f-4.1JqM",
                        "required": true,
                        "type": "string",
                        "minLength": 1,
                        "maxLength": 256,
                        "pattern": "^[\\S ]+$"
                    },
                    {
                        "name": "Content-Type",
                        "in": "header",
                        "description": "The MIME type of this content",
                        "x-example": "text/xml",
                        "required": true,
                        "type": "string",
                        "minLength": 1,
                        "maxLength": 256,
                        "pattern": "^[ \\S]+$"
                    },
                    {
                        "name": "Date",
                        "in": "header",
                        "description": "The Date general HTTP header contains the date and time at which the message was originated.",
                        "x-example": "Mon, 05 Mar 2018 16:38:08 GMT",
                        "required": false,
                        "type": "string",
                        "format": "date-time",
                        "pattern": "^(Mon|Tue|Wed|Thu|Fri|Sat|Sun), [0-3]{1}[0-9]{1} (Jan|Feb|Mar|Apr|May|Jun|Jul|Aug|Sep|Oct|Nov|Dec) [1-3][0-9]{3} [0-2][0-9]:[0-6][0-9]:[0-6][0-9] GMT$"
                    },
                    {
                        "name": "timestamp",
                        "in": "header",
                        "description": "ms since 1/1/70 adjusted to GMT",
                        "x-example": "1524599536",
                        "required": false,
                        "type": "integer",
                        "format": "int64",
                        "minimum": 0,
                        "maximum": 999999999999,
                        "pattern": "^[\\d]*$"
                    },
                    {
                        "name": "x-auth-originator",
                        "in": "header",
                        "description": "API chain initiating callers access token",
                        "x-example": "c34e7acd-384b-4c22-8b02-ba3963682508",
                        "required": false,
                        "type": "string",
                        "minLength": 1,
                        "maxLength": 256,
                        "pattern": "^[\\S]*$"
                    }
                ],
                "responses": {
                    "200": {
                        "description": "The Service Agreement has been rendered and returned in HTML",
                        "schema": {
                            "$ref": "#/definitions/ServiceAgreementResponse"
                        },
                        "headers": {
                            "Content-Length": {
                                "description": "Length of the response body in octets; not supported if Transfer-Endoding = chunked",
                                "x-example": "9112300000003",
                                "type": "integer",
                                "format": "int64",
                                "minimum": 0,
                                "pattern": "^[\\d]*$"
                            },
                            "Content-Type": {
                                "description": "The MIME type of this content",
                                "x-example": "text/xml",
                                "type": "string",
                                "minLength": 1,
                                "maxLength": 256,
                                "pattern": "^[ \\S]+$"
                            },
                            "Date": {
                                "description": "The Date general HTTP header contains the date and time at which the message was originated.",
                                "x-example": "Mon, 05 Mar 2018 16:38:08 GMT",
                                "type": "string",
                                "format": "date-time",
                                "pattern": "^(Mon|Tue|Wed|Thu|Fri|Sat|Sun), [0-3]{1}[0-9]{1} (Jan|Feb|Mar|Apr|May|Jun|Jul|Aug|Sep|Oct|Nov|Dec) [1-3][0-9]{3} [0-2][0-9]:[0-6][0-9]:[0-6][0-9] GMT$"
                            },
                            "Location": {
                                "description": "The Location header specifies the URI of a created resource, or redirects the API consumer to an alternate resource location.",
                                "x-example": "http://api.t-mo.com/order-mgmt/v1/orders/123xyz-0/status",
                                "type": "string",
                                "minLength": 1,
                                "maxLength": 65536,
                                "pattern": "^[\\S]*$"
                            },
                            "Transfer-Encoding": {
                                "description": "The form of encoding used to safely transfer the entity to the user. Currently defined methods are: chunked, compress, deflate, gzip, identity.",
                                "x-example": "chunked",
                                "type": "string",
                                "minLength": 1,
                                "maxLength": 15,
                                "pattern": "^[\\S]*$"
                            }
                        }
                    },
                    "400": {
                        "description": "Bad Request",
                        "schema": {
                            "$ref": "#/definitions/Error"
                        },
                        "examples": {
                            "application/json": {
                                "code": "400",
                                "userMessage": "Bad Request",
                                "systemMessage": "Bad Request",
                                "detailLink": "http://www.tmus.com"
                            }
                        },
                        "headers": {}
                    },
                    "401": {
                        "description": "Unauthorized",
                        "schema": {
                            "$ref": "#/definitions/Error"
                        },
                        "examples": {
                            "application/json": {
                                "code": "401",
                                "userMessage": "Unauthorized",
                                "systemMessage": "Unauthorized",
                                "detailLink": "http://www.tmus.com"
                            }
                        },
                        "headers": {}
                    },
                    "404": {
                        "description": "Resource not found",
                        "schema": {
                            "$ref": "#/definitions/Error"
                        },
                        "examples": {
                            "application/json": {
                                "code": "404",
                                "userMessage": "Resource not found",
                                "systemMessage": "Resource not found",
                                "detailLink": "http://www.tmus.com"
                            }
                        },
                        "headers": {}
                    },
                    "405": {
                        "description": "Method Not Allowed",
                        "schema": {
                            "$ref": "#/definitions/Error"
                        },
                        "examples": {
                            "application/json": {
                                "code": "405",
                                "userMessage": "Method Not Allowed",
                                "systemMessage": "Method Not Allowed",
                                "detailLink": "http://www.tmus.com"
                            }
                        },
                        "headers": {}
                    },
                    "406": {
                        "description": "Mismatching data format",
                        "schema": {
                            "$ref": "#/definitions/Error"
                        },
                        "examples": {
                            "application/json": {
                                "code": "406",
                                "userMessage": "Mismatching data format",
                                "systemMessage": "Mismatching data format",
                                "detailLink": "http://www.tmus.com"
                            }
                        },
                        "headers": {}
                    },
                    "409": {
                        "description": "Invalid data",
                        "schema": {
                            "$ref": "#/definitions/Error"
                        },
                        "examples": {
                            "application/json": {
                                "code": "409",
                                "userMessage": "Invalid data",
                                "systemMessage": "Invalid data",
                                "detailLink": "http://www.tmus.com"
                            }
                        },
                        "headers": {}
                    },
                    "415": {
                        "description": "Unsupported Media Type",
                        "schema": {
                            "$ref": "#/definitions/Error"
                        },
                        "examples": {
                            "application/json": {
                                "code": "415",
                                "userMessage": "Unsupported Media Type",
                                "systemMessage": "Unsupported Media Type",
                                "detailLink": "http://www.tmus.com"
                            }
                        },
                        "headers": {}
                    },
                    "500": {
                        "description": "System Error",
                        "schema": {
                            "$ref": "#/definitions/Error"
                        },
                        "examples": {
                            "application/json": {
                                "code": "500",
                                "userMessage": "System Error",
                                "systemMessage": "System Error",
                                "detailLink": "http://www.tmus.com"
                            }
                        },
                        "headers": {}
                    },
                    "503": {
                        "description": "Service unavailable",
                        "schema": {
                            "$ref": "#/definitions/Error"
                        },
                        "examples": {
                            "application/json": {
                                "code": "503",
                                "userMessage": "Service unavailable",
                                "systemMessage": "Service unavailable",
                                "detailLink": "http://www.tmus.com"
                            }
                        },
                        "headers": {}
                    }
                },
                "security": [
					{
						"oauth2": [
							"ServiceAgreement"
						]
					}
				]
            }
        },
        "/accept": {
            "put": {
                "tags": [
                    "Bind Service Agreement"
                ],
                "x-api-pattern": "ReplaceResource",
                "summary": "Bind Signature Timestamp data and return docID",
                "description": "Bind Signature Timestamp data and return docID",
                "operationId": "bindAcceptanceServiceAgreement",
                "consumes": [],
                "produces": [],
                "parameters": [
                    {
                        "name": "signatureBindInfoRequest",
                        "in": "body",
                        "description": "request to generate pdf and save returning docID",
                        "required": true,
                        "schema": {
                            "$ref": "#/definitions/SignatureBindInfoRequest"
                        }
                    },
                    {
                        "name": "Authorization",
                        "in": "header",
                        "description": "The HTTP Authorization request header contains the credentials to authenticate a user agent with a server.",
                        "x-example": "Bearer mF_9.B5f-4.1JqM",
                        "required": true,
                        "type": "string",
                        "minLength": 1,
                        "maxLength": 256,
                        "pattern": "^[\\S ]+$"
                    },
                    {
                        "name": "Content-Type",
                        "in": "header",
                        "description": "The MIME type of this content",
                        "x-example": "text/xml",
                        "required": true,
                        "type": "string",
                        "minLength": 1,
                        "maxLength": 256,
                        "pattern": "^[ \\S]+$"
                    },
                    {
                        "name": "Date",
                        "in": "header",
                        "description": "The Date general HTTP header contains the date and time at which the message was originated.",
                        "x-example": "Mon, 05 Mar 2018 16:38:08 GMT",
                        "required": false,
                        "type": "string",
                        "format": "date-time",
                        "pattern": "^(Mon|Tue|Wed|Thu|Fri|Sat|Sun), [0-3]{1}[0-9]{1} (Jan|Feb|Mar|Apr|May|Jun|Jul|Aug|Sep|Oct|Nov|Dec) [1-3][0-9]{3} [0-2][0-9]:[0-6][0-9]:[0-6][0-9] GMT$"
                    },
                    {
                        "name": "If-Match",
                        "in": "header",
                        "description": "The If-Match header specifies an ETag-related condition to be placed on the execution of a request.  The request will only be executed if the ETag of the requested resource matches one of those specified in the If-Match header.  Because the behavior is complex, the details for usage are provided at http://www.w3.org/Protocols/rfc2616/rfc2616-sec14.html .",
                        "x-example": "*",
                        "required": false,
                        "type": "string",
                        "minLength": 1,
                        "maxLength": 256,
                        "pattern": "^[\\S]*$"
                    },
                    {
                        "name": "timestamp",
                        "in": "header",
                        "description": "ms since 1/1/70 adjusted to GMT",
                        "x-example": "1524599536",
                        "required": false,
                        "type": "integer",
                        "format": "int64",
                        "minimum": 0,
                        "maximum": 999999999999,
                        "pattern": "^[\\d]*$"
                    },
                    {
                        "name": "x-auth-originator",
                        "in": "header",
                        "description": "API chain initiating callers access token",
                        "x-example": "c34e7acd-384b-4c22-8b02-ba3963682508",
                        "required": false,
                        "type": "string",
                        "minLength": 1,
                        "maxLength": 256,
                        "pattern": "^[\\S]*$"
                    }
                ],
                "responses": {
                    "200": {
                        "description": "The serviceAgreement has been stored and returned docId of OTCS save activity.",
                        "schema": {
                            "$ref": "#/definitions/SignatureBindInfoResponse"
                        },
                        "headers": {
                            "Content-Length": {
                                "description": "Length of the response body in octets; not supported if Transfer-Endoding = chunked",
                                "x-example": "9112300000003",
                                "type": "integer",
                                "format": "int64",
                                "minimum": 0,
                                "pattern": "^[\\d]*$"
                            },
                            "Content-Type": {
                                "description": "The MIME type of this content",
                                "x-example": "text/xml",
                                "type": "string",
                                "minLength": 1,
                                "maxLength": 256,
                                "pattern": "^[ \\S]+$"
                            },
                            "Date": {
                                "description": "The Date general HTTP header contains the date and time at which the message was originated.",
                                "x-example": "Mon, 05 Mar 2018 16:38:08 GMT",
                                "type": "string",
                                "format": "date-time",
                                "pattern": "^(Mon|Tue|Wed|Thu|Fri|Sat|Sun), [0-3]{1}[0-9]{1} (Jan|Feb|Mar|Apr|May|Jun|Jul|Aug|Sep|Oct|Nov|Dec) [1-3][0-9]{3} [0-2][0-9]:[0-6][0-9]:[0-6][0-9] GMT$"
                            },
                            "Location": {
                                "description": "The Location header specifies the URI of a created resource, or redirects the API consumer to an alternate resource location.",
                                "x-example": "http://api.t-mo.com/order-mgmt/v1/orders/123xyz-0/status",
                                "type": "string",
                                "minLength": 1,
                                "maxLength": 65536,
                                "pattern": "^[\\S]*$"
                            },
                            "Transfer-Encoding": {
                                "description": "The form of encoding used to safely transfer the entity to the user. Currently defined methods are: chunked, compress, deflate, gzip, identity.",
                                "x-example": "chunked",
                                "type": "string",
                                "minLength": 1,
                                "maxLength": 15,
                                "pattern": "^[\\S]*$"
                            }
                        }
                    },
                    "400": {
                        "description": "Bad Request",
                        "schema": {
                            "$ref": "#/definitions/Error"
                        },
                        "examples": {
                            "application/json": {
                                "code": "400",
                                "userMessage": "Bad Request",
                                "systemMessage": "Bad Request",
                                "detailLink": "http://www.tmus.com"
                            }
                        },
                        "headers": {}
                    },
                    "401": {
                        "description": "Unauthorized",
                        "schema": {
                            "$ref": "#/definitions/Error"
                        },
                        "examples": {
                            "application/json": {
                                "code": "401",
                                "userMessage": "Unauthorized",
                                "systemMessage": "Unauthorized",
                                "detailLink": "http://www.tmus.com"
                            }
                        },
                        "headers": {}
                    },
                    "403": {
                        "description": "Client access denied",
                        "schema": {
                            "$ref": "#/definitions/Error"
                        },
                        "examples": {
                            "application/json": {
                                "code": "403",
                                "userMessage": "Client access denied",
                                "systemMessage": "Client access denied",
                                "detailLink": "http://www.tmus.com"
                            }
                        },
                        "headers": {}
                    },
                    "404": {
                        "description": "Resource not found",
                        "schema": {
                            "$ref": "#/definitions/Error"
                        },
                        "examples": {
                            "application/json": {
                                "code": "404",
                                "userMessage": "Resource not found",
                                "systemMessage": "Resource not found",
                                "detailLink": "http://www.tmus.com"
                            }
                        },
                        "headers": {}
                    },
                    "405": {
                        "description": "Method Not Allowed",
                        "schema": {
                            "$ref": "#/definitions/Error"
                        },
                        "examples": {
                            "application/json": {
                                "code": "405",
                                "userMessage": "Method Not Allowed",
                                "systemMessage": "Method Not Allowed",
                                "detailLink": "http://www.tmus.com"
                            }
                        },
                        "headers": {}
                    },
                    "409": {
                        "description": "Invalid data",
                        "schema": {
                            "$ref": "#/definitions/Error"
                        },
                        "examples": {
                            "application/json": {
                                "code": "409",
                                "userMessage": "Invalid data",
                                "systemMessage": "Invalid data",
                                "detailLink": "http://www.tmus.com"
                            }
                        },
                        "headers": {}
                    },
                    "412": {
                        "description": "Stale data",
                        "schema": {
                            "$ref": "#/definitions/Error"
                        },
                        "examples": {
                            "application/json": {
                                "code": "412",
                                "userMessage": "Stale data",
                                "systemMessage": "Stale data",
                                "detailLink": "http://www.tmus.com"
                            }
                        },
                        "headers": {}
                    },
                    "415": {
                        "description": "Unsupported Media Type",
                        "schema": {
                            "$ref": "#/definitions/Error"
                        },
                        "examples": {
                            "application/json": {
                                "code": "415",
                                "userMessage": "Unsupported Media Type",
                                "systemMessage": "Unsupported Media Type",
                                "detailLink": "http://www.tmus.com"
                            }
                        },
                        "headers": {}
                    },
                    "500": {
                        "description": "System Error",
                        "schema": {
                            "$ref": "#/definitions/Error"
                        },
                        "examples": {
                            "application/json": {
                                "code": "500",
                                "userMessage": "System Error",
                                "systemMessage": "System Error",
                                "detailLink": "http://www.tmus.com"
                            }
                        },
                        "headers": {}
                    },
                    "503": {
                        "description": "Service unavailable",
                        "schema": {
                            "$ref": "#/definitions/Error"
                        },
                        "examples": {
                            "application/json": {
                                "code": "503",
                                "userMessage": "Service unavailable",
                                "systemMessage": "Service unavailable",
                                "detailLink": "http://www.tmus.com"
                            }
                        },
                        "headers": {}
                    }
                },
                "security": [
					{
						"oauth2": [
							"ServiceAgreement"
						]
					}
				]
            }
        }
    },
    "definitions": {
        "Accounts": {
            "description": "accounts model container",
            "type": "object",
            "properties": {
                "accountNumber": {
                    "description": "The financial account number that identifies the account.",
                    "type": "string"
                },
                "billingType": {
                    "description": "A shorthand identifying name for the type of billing settlement: Prepaid, Postpaid.",
                    "type": "string"
                },
                "accountType": {
                    "description": "Type or classification of the account.",
                    "type": "string"
                },
                "accountSubType": {
                    "description": "account sub type",
                    "type": "string"
                },
                "businessName": {
                    "description": "Name of the business organization",
                    "type": "string"
                },
                "ezpayIndicator": {
                    "description": "To indicate if EasyPay is setup for recurring payments or not",
                    "type": "boolean"
                },
                "billFormat": {
                    "description": "Format of the bill; e.g; Paperless, Mail-In",
                    "type": "string"
                },
                "billCycleDay": {
                    "description": "Day of the month when bill cycle normally runs.",
                    "type": "integer",
                    "format": "int32",
                    "minimum": -2147483648,
                    "maximum": 2147483647,
                    "pattern": "^[\\-+]?[0-9]+$"
                },
                "b2bCustomerIndicator": {
                    "description": "Indicates that the customer is a business.",
                    "type": "boolean"
                },
                "b2rCustomerIndicator": {
                    "description": "Indicates that the customer is a reseller.",
                    "type": "boolean"
                },
                "isMcsaAccount": {
                    "description": "Identifier for account with pre-existing MCSA",
                    "type": "boolean"
                }
            }
        },
        "Address": {
            "description": "address",
            "type": "object",
            "properties": {
                "addressLine1": {
                    "description": "The first free form line, expressed as text, of an address",
                    "type": "string"
                },
                "addressLine2": {
                    "description": "The second free form line, expressed as text, of an address",
                    "type": "string"
                },
                "cityName": {
                    "description": "The name, expressed as text, of the city, town or village of this address",
                    "type": "string"
                },
                "stateCode": {
                    "description": "Code of the state in which the city falls, where applicable(WA, TX, GA)",
                    "type": "string"
                },
                "postalCode": {
                    "description": "A code specifying the postal code of the address",
                    "type": "string"
                },
                "postalCodeExtension": {
                    "description": "An extension to the postalcode of the address, e.g., in 94070-3541, the extension is 3541.",
                    "type": "string"
                }
            }
        },
        "Attachments": {
            "description": "attachement details",
            "type": "object",
            "properties": {
                "typeCode": {
                    "description": "Type of attachment, e.g., URL, TEXT, JPG, PNG, HTML, PDF",
                    "type": "string",
                    "enum": [
                        "URL",
                        "TEXT",
                        "JPG",
                        "PDF",
                        "HTML",
                        "PNG",
                        "XML"
                    ]
                },
                "signatureDate": {
                    "description": "Date of the signature equivalence event that gets bound to the document ID.",
                    "type": "string",
                    "format": "date-time"
                },
                "embeddedData": {
                    "$ref": "#/definitions/AttachmentsEmbeddedData"
                },
                "businessSubcriberTitle": {
                    "description": "Used to put title of signee under the signature",
                    "type": "string"
                }
            }
        },
        "AttachmentsEmbeddedData": {
            "description": "Element holding data embedded directly in the BOD instance",
            "type": "object",
            "properties": {
                "binaryContent": {
                    "description": "A set of finite-length sequences of binary octets",
                    "type": "string",
                    "format": "byte"
                },
                "characterSetCode": {
                    "description": "The character coding used for text in the binary object.",
                    "type": "string"
                },
                "fileName": {
                    "description": "The name of the file to which the binary object belongs.",
                    "type": "string"
                },
                "mimeCode": {
                    "description": "Multipurpose Internet Mail Extensions (MIME) code identifying the content type within the binary object.",
                    "type": "string"
                }
            }
        },
        "Customers": {
            "description": "Details concerning the person or organization that is a customer",
            "type": "object",
            "properties": {
                "fullName": {
                    "description": "Customers Full Name",
                    "type": "string"
                },
                "phoneCommunications": {
                    "description": "An array of phoneCommunications objects.",
                    "type": "array",
                    "items": {
                        "$ref": "#/definitions/PhoneCommunications"
                    }
                },
                "emailCommunications": {
                    "description": "An array of emailCommunications objects.",
                    "type": "array",
                    "items": {
                        "$ref": "#/definitions/EmailCommunications"
                    }
                },
                "documentIndexNumbers": {
                    "description": "Index Id to correlate various details in the document",
                    "type": "integer",
                    "format": "int32",
                    "minimum": -2147483648,
                    "maximum": 2147483647,
                    "pattern": "^[\\-+]?[0-9]+$"
                },
                "firstName": {
                    "description": "Customer Fisrt Name",
                    "type": "string"
                },
                "lastName": {
                    "description": "Customer Last Name",
                    "type": "string"
                },
                "location": {
                    "$ref": "#/definitions/Location"
                }
            }
        },
        "Documents": {
            "description": "document details",
            "type": "object",
            "properties": {
                "attachments": {
                    "$ref": "#/definitions/Attachments"
                },
                "saveDocument": {
                    "description": "Indicator to save the document",
                    "type": "boolean"
                },
                "returnContent": {
                    "description": "Indicator to return content such as PDF bytes, html etc;",
                    "type": "boolean"
                }
            }
        },
        "DocumentsAttachments": {
            "description": "attachment details",
            "type": "object",
            "properties": {
                "typeCode": {
                    "description": "Type of attachment, e.g., URL, TEXT, JPG, PNG, HTML, PDF",
                    "type": "string",
                    "enum": [
                        "URL",
                        "TEXT",
                        "JPG",
                        "PDF",
                        "HTML",
                        "PNG",
                        "XML"
                    ]
                },
                "signatureDate": {
                    "description": "Date of the signature equivalence event that gets bound to the document ID.",
                    "type": "string",
                    "format": "date-time"
                },
                "embeddedData": {
                    "$ref": "#/definitions/DocumentsAttachmentsEmbeddedData"
                },
                "businessSubscriberTitle": {
                    "description": "Used to put title of signee under the signature",
                    "type": "string"
                }
            }
        },
        "DocumentsAttachmentsEmbeddedData": {
            "description": "Element holding data embedded directly in the BOD instance",
            "type": "object",
            "properties": {
                "binaryContent": {
                    "description": "A set of finite-length sequences of binary octets",
                    "type": "string",
                    "format": "byte"
                },
                "characterSetCode": {
                    "description": "The character coding used for text in the binary object.",
                    "type": "string"
                },
                "fileName": {
                    "description": "The name of the file to which the binary object belongs.",
                    "type": "string"
                },
                "mimeCode": {
                    "description": "Multipurpose Internet Mail Extensions (MIME) code identifying the content type within the binary object.",
                    "type": "string"
                }
            }
        },
        "DocumentSet": {
            "description": "Document model container",
            "type": "object",
            "properties": {
                "documents": {
                    "$ref": "#/definitions/DocumentSetDocuments"
                }
            }
        },
        "DocumentSetDocuments": {
            "description": "Document details",
            "type": "object",
            "properties": {
                "documentType": {
                    "description": "Type of Document; Eg - Service Agreement, EIP etc;",
                    "type": "string"
                },
                "documentSubType": {
                    "description": "Sub Type of Document; Eg - Activation, Add a Line, RPC etc;",
                    "type": "string"
                },
                "templateLanguage": {
                    "description": "Possible Values; ENGLISH / SPANISH",
                    "type": "string"
                },
                "returnDocumentType": {
                    "description": "Identifier for which type of payload to return HTML or PDF",
                    "type": "string"
                },
                "attachments": {
                    "$ref": "#/definitions/DocumentsAttachments"
                }
            }
        },
        "DocumentSetDocumentsAttachments": {
            "description": "A file or file location containing information referenced by the owning business object.",
            "type": "object",
            "properties": {
                "typeCode": {
                    "description": "Type of attachment, e.g., URL, TEXT, JPG, PNG, HTML, PDF",
                    "type": "string",
                    "enum": [
                        "URL",
                        "TEXT",
                        "JPG",
                        "PDF",
                        "HTML",
                        "PNG",
                        "XML"
                    ]
                },
                "embeddedData": {
                    "$ref": "#/definitions/EmbeddedData"
                }
            }
        },
        "DocumentSetDocumentsAttachmentsEmbeddedData": {
            "description": "Element holding data embedded directly in the BOD instance",
            "type": "object",
            "properties": {
                "binaryContent": {
                    "description": "A set of finite-length sequences of binary octets",
                    "type": "string",
                    "format": "byte"
                },
                "characterSetCode": {
                    "description": "The character coding used for text in the binary object.",
                    "type": "string"
                },
                "fileName": {
                    "description": "The name of the file to which the binary object belongs.",
                    "type": "string"
                },
                "mimeCode": {
                    "description": "Multipurpose Internet Mail Extensions (MIME) code identifying the content type within the binary object.",
                    "type": "string"
                }
            }
        },
        "EmailCommunications": {
            "description": "Information for electronic mail communication (email).",
            "type": "object",
            "properties": {
                "emailAddress": {
                    "description": "URI in the case of email communication",
                    "type": "string"
                }
            }
        },
        "EmbeddedData": {
            "description": "Element holding data embedded directly in the BOD instance",
            "type": "object",
            "properties": {
                "binaryContent": {
                    "description": "A set of finite-length sequences of binary octets",
                    "type": "string",
                    "format": "byte"
                },
                "characterSetCode": {
                    "description": "The character coding used for text in the binary object.",
                    "type": "string"
                },
                "fileName": {
                    "description": "The name of the file to which the binary object belongs.",
                    "type": "string"
                },
                "mimeCode": {
                    "description": "Multipurpose Internet Mail Extensions (MIME) code identifying the content type within the binary object.",
                    "type": "string"
                }
            }
        },
        "Error": {
            "description": "As defined in http://api-standards.apps.px-npe01.cf.t-mobile.com/http/status-codes/error-response-format/",
            "type": "object",
            "required": [
                "code",
                "userMessage"
            ],
            "properties": {
                "code": {
                    "description": "A succinct, domain-specific, human-readable text string to identify the type of error for the given status code",
                    "example": "ProductNotFound",
                    "type": "string",
                    "pattern": "^[\\S ]+$"
                },
                "userMessage": {
                    "description": "A human-readable message describing the error.",
                    "example": "Failed to find product.",
                    "type": "string",
                    "pattern": "^[\\S ]+$"
                },
                "systemMessage": {
                    "description": "Text that provides a more detailed technical explanation of the error",
                    "example": "PRODUCT_NOT_FOUND",
                    "type": "string"
                },
                "detailLink": {
                    "description": "link to custom information providing greater detail on error or errors",
                    "example": "http://aaa.bbb.ccc/",
                    "type": "string"
                }
            }
        },
        "FeatureInformation": {
            "description": "Information for selected features.",
            "type": "object",
            "properties": {
                "featureName": {
                    "description": "Name of the feature.",
                    "type": "string"
                },
                "featureCharge": {
                    "description": "Charge for the feature.",
                    "type": "number",
                    "format": "double"
                },
                "featureChargeType": {
                    "description": "Type of the Feature like Prorated,First Month etc",
                    "type": "string"
                }
            }
        },
        "Location": {
            "description": "location",
            "type": "object",
            "properties": {
                "address": {
                    "$ref": "#/definitions/Address"
                }
            }
        },
        "LocationAddress": {
            "description": "address details",
            "type": "object",
            "properties": {
                "addressLine1": {
                    "description": "The first free form line, expressed as text, of an address",
                    "type": "string"
                },
                "addressLine2": {
                    "description": "The second free form line, expressed as text, of an address",
                    "type": "string"
                },
                "cityName": {
                    "description": "The name, expressed as text, of the city, town or village of this address",
                    "type": "string"
                },
                "stateCode": {
                    "description": "Code of the state in which the city falls, where applicable(WA, TX, GA)",
                    "type": "string"
                },
                "postalCode": {
                    "description": "A code specifying the postal code of the address",
                    "type": "string"
                },
                "postalCodeExtension": {
                    "description": "An extension to the postalcode of the address, e.g., in 94070-3541, the extension is 3541.",
                    "type": "string"
                }
            }
        },
        "PhoneCommunications": {
            "description": "Phone number",
            "type": "object",
            "properties": {
                "phoneNumber": {
                    "description": "The complete number without separation between  country code, area code etc",
                    "type": "string"
                }
            }
        },
        "PlanInformation": {
            "description": "Newly selected or previously existing plan for the line of service",
            "type": "object",
            "properties": {
                "planName": {
                    "description": "Service plan display name.",
                    "type": "string"
                },
                "servicePeriodStartDate": {
                    "description": "Service period start date. This is typically the start date of the first bill cycle for the new service activations or rate plan changes, and of the last bill cycle for the prorations.",
                    "type": "string",
                    "format": "date-time"
                },
                "servicePeriodEndDate": {
                    "description": "Service period end date. This is typically the end date of the first bill cycle for the new service activations or rate plan changes, and of the last bill cycle for the prorations.",
                    "type": "string",
                    "format": "date-time"
                },
                "monthlyCharge": {
                    "description": "Monthly recurring charge of the service plan.",
                    "type": "number",
                    "format": "double"
                },
                "amountDue": {
                    "description": "Amount due for the service plan activation.",
                    "type": "number",
                    "format": "double"
                },
                "status": {
                    "description": "Service status like Added,Removed, Suspended.",
                    "type": "string"
                }
            }
        },
        "ServiceAgreement": {
            "description": "Service Agreement Information for Open Text Implementation, which includes the following transaction types: 1) Activation of a new account and Add-a-Line. 2) Rate Plan Change 3) Rate Plan and Feature Add/Remove (combined with RPC)",
            "type": "object",
            "properties": {
                "regulatoryProgramFeeAmount": {
                    "description": "Regulatory program fee amount reference value.",
                    "type": "number",
                    "format": "double"
                },
                "serviceInformation": {
                    "description": "An array of serviceInformation objects.",
                    "type": "array",
                    "minItems": 1,
                    "items": {
                        "$ref": "#/definitions/ServiceInformation"
                    }
                },
                "totalActivationFee": {
                    "description": "Activation Fee.",
                    "type": "number",
                    "format": "double"
                },
                "previousTotalMonthlyCharges": {
                    "description": "Previous total monthly charges excluding taxes and fees (if there is a rate plan that is changing in mid-cycle).",
                    "type": "number",
                    "format": "double"
                },
                "firstBillTotalMonthlyCharges": {
                    "description": "First bill total monthly charges excluding taxes (may include prorated amounts and one-time charges due on the first bill cycle).",
                    "type": "number",
                    "format": "double"
                },
                "regularTotalMonthlyCharges": {
                    "description": "Estimated regular total monthly charges excluding taxes and fees.",
                    "type": "number",
                    "format": "double"
                },
                "totalMonthlyChargesDiff": {
                    "description": "Estimated difference between the regular total monthly charges and previous total monthly charges excluding taxes and fees.",
                    "type": "number",
                    "format": "double"
                },
                "totalAmountDue": {
                    "description": "Total amount due at signing, excluding taxes.",
                    "type": "number",
                    "format": "double"
                },
                "taxTreatment": {
                    "description": "Tax Treatment. Possible values TI tax inclusive and TE tax exclusifve",
                    "type": "string",
                    "enum": [
                        "TI",
                        "TE"
                    ]
                },
                "digitsIndicator": {
                    "description": "Flag for indicating if customer is availing DIGITS service",
                    "type": "boolean"
                }
            }
        },
        "ServiceAgreementRequest": {
            "description": "Request and payload to generate and return Service Agreement as HTML",
            "type": "object",
            "properties": {
                "stores": {
                    "$ref": "#/definitions/Stores"
                },
                "customers": {
                    "$ref": "#/definitions/Customers"
                },
                "transactionDateTime": {
                    "description": "transaction Date Time",
                    "type": "string",
                    "format": "date-time"
                },
                "documentSet": {
                    "$ref": "#/definitions/DocumentSet"
                },
                "accounts": {
                    "$ref": "#/definitions/Accounts"
                },
                "serviceAgreement": {
                    "$ref": "#/definitions/ServiceAgreement"
                }
            }
        },
        "ServiceAgreementResponse": {
            "description": "Returned HTML and xECM unique document ID",
            "type": "object",
            "properties": {
                "documentSet": {
                    "$ref": "#/definitions/ServiceAgreementResponseDocumentSet"
                },
                "acceptDocumentId": {
                    "description": "agnostic document ID",
                    "type": "string"
                },
                "acceptDocumentTimestamp": {
                    "description": "acceptance timestamp when ID generated in db",
                    "type": "string",
                    "format": "date-time"
                }
            }
        },
        "ServiceAgreementResponseDocumentSet": {
            "description": "Document model container",
            "type": "object",
            "properties": {
                "documents": {
                    "$ref": "#/definitions/ServiceAgreementResponseDocumentSetDocuments"
                }
            }
        },
        "ServiceAgreementResponseDocumentSetDocuments": {
            "description": "document details",
            "type": "object",
            "properties": {
                "documentType": {
                    "description": "Type of Document; Eg - Service Agreement, EIP etc;",
                    "type": "string"
                },
                "documentSubType": {
                    "description": "Sub Type of Document; Eg - Activation, Add a Line, RPC etc;",
                    "type": "string"
                },
                "attachments": {
                    "$ref": "#/definitions/DocumentSetDocumentsAttachments"
                },
                "documentId": {
                    "description": "Unique Document ID",
                    "type": "string"
                }
            }
        },
        "ServiceInformation": {
            "description": "Information on the subscriber-level service plans associated with the service line.",
            "type": "object",
            "properties": {
                "mobileNumber": {
                    "description": "Current Subscribers mobile number.",
                    "type": "string"
                },
                "sim": {
                    "description": "SIM is internationally identified by its Integrated Circuit Card Identifier (ICCID), often referred to as SIM number",
                    "type": "string"
                },
                "imei": {
                    "description": "Equipment IMEI number associated with the service line.",
                    "type": "string"
                },
                "planInformation": {
                    "description": "An array of planInformation objects.",
                    "type": "array",
                    "minItems": 1,
                    "items": {
                        "$ref": "#/definitions/PlanInformation"
                    }
                },
                "activationFee": {
                    "description": "Activation fee due on the first bill.",
                    "type": "number",
                    "format": "double"
                },
                "depositAmount": {
                    "description": "Deposit Amount for at a line level.",
                    "type": "number",
                    "format": "double"
                },
                "featureInformation": {
                    "description": "An array of featureInformation objects.",
                    "type": "array",
                    "items": {
                        "$ref": "#/definitions/FeatureInformation"
                    }
                }
            }
        },
        "SignatureBindInfoRequest": {
            "description": "request to generate pdf and save returning docID",
            "type": "object",
            "properties": {
                "transactionDateTime": {
                    "description": "transaction Date Time",
                    "type": "string",
                    "format": "date-time"
                },
                "documentSet": {
                    "$ref": "#/definitions/SignatureBindInfoRequestDocumentSet"
                },
                "acceptDocumentId": {
                    "description": "xECM specific document ID",
                    "type": "string"
                },
                "accounts": {
                    "$ref": "#/definitions/SignatureBindInfoRequestAccounts"
                },
                "acceptDocumentTimestamp": {
                    "description": "acceptance timestamp when ID generated in db",
                    "type": "string",
                    "format": "date-time"
                }
            }
        },
        "SignatureBindInfoRequestAccounts": {
            "description": "The entity that captures all aspects of a customers account",
            "type": "object",
            "properties": {
                "billingType": {
                    "description": "A shorthand identifying name for the type of billing settlement: Prepaid, Postpaid.",
                    "type": "string"
                },
                "accountType": {
                    "description": "Type or classification of the account.",
                    "type": "string"
                },
                "accountSubType": {
                    "description": "account sub type",
                    "type": "string"
                }
            }
        },
        "SignatureBindInfoRequestDocumentSet": {
            "description": "Document model container",
            "type": "object",
            "properties": {
                "documents": {
                    "$ref": "#/definitions/Documents"
                }
            }
        },
        "SignatureBindInfoResponse": {
            "description": "Response returning document ingest ID for asynchronous save",
            "type": "object",
            "properties": {
                "documentSet": {
                    "$ref": "#/definitions/SignatureBindInfoResponseDocumentSet"
                }
            }
        },
        "SignatureBindInfoResponseDocumentSet": {
            "description": "Document model container",
            "type": "object",
            "properties": {
                "documents": {
                    "$ref": "#/definitions/SignatureBindInfoResponseDocumentSetDocuments"
                }
            }
        },
        "SignatureBindInfoResponseDocumentSetDocuments": {
            "description": "document details",
            "type": "object",
            "properties": {
                "attachments": {
                    "$ref": "#/definitions/SignatureBindInfoResponseDocumentSetDocumentsAttachments"
                },
                "ingestDocumentId": {
                    "description": "Unique Id generated by document repository after succesful saving",
                    "type": "string"
                }
            }
        },
        "SignatureBindInfoResponseDocumentSetDocumentsAttachments": {
            "description": "attachment details",
            "type": "object",
            "properties": {
                "typeCode": {
                    "description": "Type of attachment, e.g., URL, TEXT, JPG, PNG, HTML, PDF",
                    "type": "string",
                    "enum": [
                        "URL",
                        "TEXT",
                        "JPG",
                        "PDF",
                        "HTML",
                        "PNG",
                        "XML"
                    ]
                },
                "signatureDate": {
                    "description": "Date of the signature equivalence event that gets bound to the document ID.",
                    "type": "string",
                    "format": "date-time"
                },
                "embeddedData": {
                    "$ref": "#/definitions/DocumentSetDocumentsAttachmentsEmbeddedData"
                }
            }
        },
        "Stores": {
            "description": "Listing of Store information",
            "type": "object",
            "properties": {
                "salesRepName": {
                    "description": "Name of the sales representative  or user account",
                    "type": "string"
                },
                "sellerName": {
                    "description": "name of the TFB channel",
                    "type": "string"
                },
                "storeId": {
                    "description": "The unique  identifier of the store, as defined by the T-Mobile system of record.",
                    "type": "string"
                },
                "partnerId": {
                    "description": "The Partner that owns this store.",
                    "type": "string"
                },
                "dealerCode": {
                    "description": "The Dealer that owns this store.",
                    "type": "string"
                },
                "storeType": {
                    "description": "storeType is a predefined object from an igniteXml model - cabinet 1030178313 build 1038833169 key 1030658527",
                    "type": "string"
                },
                "licenseNumber": {
                    "description": "Store license number",
                    "type": "string"
                },
                "secondaryLicenseNumber": {
                    "description": "Stores secondary license number",
                    "type": "string"
                },
                "dealerName": {
                    "description": "The name of the dealer",
                    "type": "string"
                },
                "merchantRegistryNumber": {
                    "description": "Merchant registry number of the store",
                    "type": "string"
                },
                "documentType": {
                    "description": "Type of Document; Eg - Service Agreement, EIP etc;",
                    "type": "string"
                },
                "salesRepNtid": {
                    "description": "NTID of the sales representative",
                    "type": "string"
                },
                "salesRepEmailAddress": {
                    "description": "Email address of the sales representative",
                    "type": "string"
                },
                "location": {
                    "$ref": "#/definitions/StoresLocation"
                },
                "isMobileTruck": {
                    "description": "Identifies if store type is Mobile truck",
                    "type": "boolean"
                }
            }
        },
        "StoresLocation": {
            "description": "location details",
            "type": "object",
            "properties": {
                "address": {
                    "$ref": "#/definitions/LocationAddress"
                }
            }
        }
    },
    "securityDefinitions": {
		"oauth2": {
			"type": "oauth2",
			"description": "OAUTH2",
			"tokenUrl": "https://qlab02.core.op.api.t-mobile.com/v1/oauth2/accesstoken?grant_type=client_credentials",
			"flow": "application",
			"scopes": {
				"ServiceAgreement": ""
			}
		}
	}
}
