@startuml

actor FPD as CR 
boundary Controller as C
control Service as S
database Repository as R

title Device Promotions /(GET) API (Find Applicable Device Promotions By EIP ID.)
|||
CR -> C: Request (GET)/
activate C
note over CR: query params:\neipId [mandatory]
C -> S: getPromotions()
activate S

S -> R: findAllByEipId()
activate R

R --> S: promotions
deactivate R

alt Transaction successful
    S --> C: promotionsResponse
else Error in transaction
    S --> C: errorResponse
    deactivate S
end

alt Transaction successful
    CR <-- C: promotionsResponse (Status: 200 OK)
else Error in transaction
    CR <-- C: errorResponse (Status: 400 to 500)
    deactivate C
end

|||
@enduml