@startuml
title U2.0 Prepaid Unification Session Pass Flow

participant SPA as SPA
participant "UI CACHE" as UICACHE
participant "API Gateway" as GatewayAPI
participant "Experience Services" as ES
participant "Experience Services CACHE" as ESCACHE
participant WSIL as WSIL
participant "E/// ON" as ON
participant EPC as EPC
participant "Elastic Search" as ElasticSearch

note over SPA: SPA initialized
note over SPA : AEM data is intialized


SPA -> SPA : Upon click on Change Session Passes \n CTA for Line Details

SPA -> UICACHE: Retrieve customer details like customerId, accountNumber, \n lineOfServiceId and customer active plans & services.
SPA <-- UICACHE

note over SPA: retrieve available session passes

SPA -> GatewayAPI : api_2138_retrieveSessionPass
GatewayAPI -> ES : api_2138_retrieveSessionPass
ES -> WSIL : productOfferingSummaryWSIL.getCatalogPriceData
WSIL --> ES:
ES -> ESCACHE: ES gets the active plan compatible offers from Elastic Search and filter out the compatible session passes which we get from getCatalogpriceData
ES -> ElasticSearch: calls elastic search
ElasticSearch --> ES:
/' note over ES : ES will aggregate the response and sends to UI in the required structure '/
ES --> GatewayAPI :
GatewayAPI --> SPA:


note over SPA: select session pass

/'****************************************************'/

SPA -> GatewayAPI : api_2147_addSessionPass
GatewayAPI -> ES : api_2147_addSessionPass
ES -> WSIL : cartWSIL.updateCart
WSIL --> ES :
ES --> GatewayAPI :
ES --> ESCACHE: ES saves the cart response in the REDIS cache.
GatewayAPI --> SPA:




note over SPA: add effective date to cart

/'****************************************************'/
SPA -> GatewayAPI : api_2133_setEffectiveDate
GatewayAPI -> ES : api_2133_setEffectiveDate
ES -> WSIL : cartWSIL.updateCart
WSIL --> ES :
ES --> GatewayAPI :
GatewayAPI --> SPA:

note over SPA: To checkout

/'****************************************************'/
SPA -> GatewayAPI : api_2120_checkout
GatewayAPI -> ES : api_2120_checkout
ES -> WSIL : cartWSIL.updateCart
WSIL --> ES :
ES --> GatewayAPI :
GatewayAPI --> SPA:

note over SPA: To Retrieve Terms and conditions

/'****************************************************'/
SPA -> GatewayAPI :api_2806_getTermsAndConditions
GatewayAPI -> ES: api_2806_getTermsAndConditions
ES -> WSIL : DocumentManagementWSIL.createDocument
WSIL --> ES :
ES --> GatewayAPI :
GatewayAPI --> SPA :

note over SPA: To submit Order

/'****************************************************'/

SPA -> GatewayAPI : api_2150_createCheckout
GatewayAPI -> ES : api_2150_createCheckout
ES -> WSIL : cartWSIL.updateCart
WSIL --> ES :
ES --> GatewayAPI :
GatewayAPI --> SPA:

note over SPA: To get order Details

/'****************************************************'/

SPA -> GatewayAPI : api_2814_getOrderDetails
GatewayAPI -> ES : api_2814_getOrderDetails
ES -> WSIL : orderWSIL.getOrderDetails
WSIL --> ES :
ES --> GatewayAPI :
GatewayAPI --> SPA:
@enduml
