{
  "swagger": "2.0",
  "info": {
    "description": "Batch Promo Enrollment Start Deep Event API",
    "version": "1.0",
    "title": "Batch Promo Enrollment Start Event"
  },
  "host": "localhost:8080",
  "basePath": "/deep/v1/events",
  "paths": {
    "/deep/v1/events/{eventType}": {
      "post": {
        "tags": [
          "createBatchEvent"
        ],
        "summary": "Batch Promo Enrollment Start Deep Event",
        "operationId": "createBatchEvent",
        "consumes": [
          "application/json"
        ],
        "produces": [
          "application/json"
        ],
        "parameters": [
          {
            "name": "eventType",
            "in": "path",
            "description": "Unique name of the event",
            "required": true,
            "type": "string"
          },
          {
            "in": "body",
            "name": "event",
            "description": "Event Complex Element",
            "required": true,
            "schema": {
              "$ref": "#/definitions/Event"
            }
          }
        ],
        "responses": {
          "200": {
            "description": "Event Received."
          },
          "401": {
            "description": "Unauthorized Access"
          },
          "404": {
            "description": "Not Found"
          },
          "500": {
            "description": "System Error"
          },
          "503": {
            "description": "Service Unavailable"
          }
        }
      }
    }
  },
  "definitions": {
    "AuditInfo": {
      "type": "object",
      "description": "Audit information used to search specific event. All elements included in this complex element will be searchable in DEEP.io.",
      "properties": {
        "accountNumber": {
          "description": "The financial account number.",
          "type": "string"
        },
        "batchId": {
          "description": "Identifier of batch job.",
          "type": "string"
        },
        "customerId": {
          "description": "Uniquely identifies the Customer.",
          "type": "string"
        },
        "iamUniqueId": {
          "description": "Unique identifier for Identity and Access Management.",
          "type": "string"
        },
        "lineId": {
          "description": "Uniquely identifies a  line of service.",
          "type": "string"
        },
        "orderId": {
          "description": "Identifier of order.",
          "type": "string"
        },
        "phoneNumber": {
          "description": "The phone number (MSISDN) associated with the line of service.",
          "type": "string"
        },
        "universalLineId": {
          "description": "ULID - Universal identifier of the LineofService, as defined in Customer Hub.",
          "type": "string"
        }
      }
    },
    "HeaderReference": {
      "type": "object",
      "description": "standard HTTP header elements to be able to deliver them to consumer without interruption",
      "properties": {
        "activityId": {
          "description": "Unique id alphanumeric value generated and sent by the partner to identify every service request uniquely.",
          "type": "string"
        },
        "applicationId": {
          "description": "Identifies the application, system or platform name that is being used to initiate the transaction  related to this request.",
          "type": "string"
        },
        "applicationUserId": {
          "description": "NT id of the rep who is managing the transaction from CARE/RETAIL channels. Required for assisted channels, not required for unassisted channels.",
          "type": "string"
        },
        "authCustomerId": {
          "description": "Customer Id of Tmo customer that is being served/using the application. (Required for non anonymous flows)",
          "type": "string"
        },
        "authFinancialAccountId": {
          "description": "Financial Account Id that the customer that is being served/using the application is working on.  (Required for non anonymous flows)",
          "type": "string"
        },
        "authLineOfServiceId": {
          "description": "Line of service Id , within the Financial Account of the customer that is being served/using the application is working on. (Required for non anonymous flows)",
          "type": "string"
        },
        "channelId": {
          "description": "Identifies the business unit or sales channel.",
          "type": "string"
        },
        "dealerCode": {
          "description": "Uniquely identifies the dealer/rep user.",
          "type": "string"
        },
        "interactionId": {
          "description": "Alphanumeric value represent a common transaction id across all calls made from UI, while completing all business activity needs of a particular customer.",
          "type": "string"
        },
        "masterDealerCode": {
          "description": "Code that uniquely identifies the master dealer for a large retail partner, such as Apple or Costco. Will not be applicable for TMo channels.",
          "type": "string"
        },
        "segmentationId": {
          "description": "Identifier of customerufffdufffdufffds primary data center.",
          "type": "string"
        },
        "senderId": {
          "description": "Uniquely identifies an Operation consumer/Partner.",
          "type": "string"
        },
        "sessionId": {
          "description": "A value populated by the sender used to track the transactions that occur during a session, a long-lasting interaction, managed by the sender. GUID generated by partner. Within one session (sessionid) for Rep/system can serve  multiple customers(interactionid) and in a given customer interaction ufffdufffdufffd multiple API calls (activityid) will be made to serve the customer. 1 sessionid -> many interactionid 1 interactionid -> many activityid",
          "type": "string"
        },
        "storeId": {
          "description": "Unique identifier for the retail store location.",
          "type": "string"
        },
        "terminalId": {
          "description": "Unique identifier for the retail store terminal.",
          "type": "string"
        },
        "tillId": {
          "description": "Unique identifier for the retail store terminal till number.",
          "type": "string"
        },
        "timestamp": {
          "description": "A timestamp provided by sender to track their workflow.",
          "type": "string",
          "format": "date-time"
        },
        "workflowId": {
          "description": "Name of business purpose/flow, for which the API is being invoked.",
          "type": "string"
        }
      }
    },
    "Specifications": {
      "type": "object",
      "properties": {
        "name": {
          "type": "string"
        },
        "value": {
          "type": "string"
        }
      },
      "description": "Name value pair."
    },
    "Event": {
      "type": "object",
      "required": [
        "eventProducerId",
        "eventTime",
        "eventType",
        "payload"
      ],
      "properties": {
        "auditInfo": {
          "$ref": "#/definitions/AuditInfo"
        },
        "eventId": {
          "description": "Unique identifier for the event generated by the event producer. This element will be searchable in DEEP.io UI",
          "type": "string"
        },
        "eventProducerId": {
          "description": "Unique identifier for the producer of the event.",
          "type": "string"
        },
        "eventTime": {
          "description": "The date and time that the event occurred.",
          "type": "string",
          "format": "date-time"
        },
        "eventType": {
          "description": "Event Name that you want to publish",
          "type": "string"
        },
        "eventVersion": {
          "description": "version of the event , will be used to distinguish different versions by a consumer",
          "type": "string"
        },
        "headerReference": {
          "$ref": "#/definitions/HeaderReference"
        },
        "specifications": {
          "type": "array",
          "description": "added for future reference so can ignore.",
          "items": {
            "$ref": "#/definitions/Specifications"
          }
        },
        "payload": {
          "$ref": "#/definitions/Payload"
        }
      }
    },
    "Payload": {
      "type": "object",
      "properties": {
        "createBatch": {
          "$ref": "#/definitions/CreateBatchRequest"
        }
      }
    },
    "CreateBatchRequest": {
      "type": "object",
      "required": [
        "interactionId",
        "fileName",
        "batchProcessName",
        "noOfRecords",
        "startTime"
      ],
      "properties": {
        "interactionId": {
          "description": "unique GUID for the file being processed, generated by the event producer",
          "type": "string"
        },
        "fileName": {
          "description": "Name of the File being processed",
          "type": "string"
        },
        "batchProcessName": {
          "description": "Type of the batch file being processed",
          "type": "string"
        },
        "sourceSystem": {
          "description": "Application/ System processing the files, ex - SAPPI, TIBCO, JPAY",
          "type": "string"
        },
        "noOfRecords": {
          "description": "Total number of records in the file being processed",
          "type": "integer",
          "format": "int32"
        },
        "amount": {
          "description": "Total amount processed in the batch",
          "type": "number",
          "format": "double"
        },
        "startTime": {
          "description": "The date and time that the event occurred.",
          "type": "string",
          "format": "date-time"
        }
      }
    }
  }
}