{
  "swagger": "2.0",
  "info": {
    "description": "Batch Loan Charge Injection Stop Event API",
    "version": "1.0",
    "title": "Batch Loan Charge Injection Stop Event"
  },
  "host": "localhost:8080",
  "basePath": "/deep/v1/events",
  "paths": {
    "/deep/v1/events/{eventType}": {
      "post": {
        "tags": [
          "updateBatchEvent"
        ],
        "summary": "Batch Loan Charge Injection Stop Deep event",
        "operationId": "updateBatchEvent",
        "consumes": [
          "application/json"
        ],
        "produces": [
          "application/json"
        ],
        "parameters": [
          {
            "name": "eventType",
            "in": "path",
            "description": "Unique name of the event",
            "required": true,
            "type": "string"
          },
          {
            "in": "body",
            "name": "event",
            "description": "Event Complex Element",
            "required": true,
            "schema": {
              "$ref": "#/definitions/Event"
            }
          }
        ],
        "responses": {
          "200": {
            "description": "Event Receieved."
          },
          "401": {
            "description": "Unauthorized Access"
          },
          "404": {
            "description": "Not Found"
          },
          "500": {
            "description": "System Error"
          },
          "503": {
            "description": "Service Unavailable"
          }
        }
      }
    }
  },
  "definitions": {
    "AuditInfo": {
      "type": "object",
      "properties": {
        "accountNumber": {
          "type": "string",
          "description": "The financial account number."
        },
        "batchId": {
          "type": "string",
          "description": "Identifier of batch job."
        },
        "customerId": {
          "type": "string",
          "description": "Uniquely identifies the Customer."
        },
        "iamUniqueId": {
          "type": "string",
          "description": "Unique identifier for Identity and Access Management."
        },
        "lineId": {
          "type": "string",
          "description": "Uniquely identifies a  line of service."
        },
        "orderId": {
          "type": "string",
          "description": "Identifier of order."
        },
        "phoneNumber": {
          "type": "string",
          "description": "The phone number (MSISDN) associated with the line of service."
        },
        "universalLineId": {
          "type": "string",
          "description": "ULID - Universal identifier of the LineofService, as defined in Customer Hub. "
        }
      },
      "description": "Audit information used to search specific event. All elements included in this complex element will be searchable in DEEP.io."
    },
    "HeaderReference": {
      "type": "object",
      "properties": {
        "activityId": {
          "type": "string",
          "description": "Unique id alphanumeric value generated and sent by the partner to identify every service request uniquely."
        },
        "applicationId": {
          "type": "string",
          "description": "Identifies the application, system or platform name that is being used to initiate the transaction  related to this request."
        },
        "applicationUserId": {
          "type": "string",
          "description": "NT id of the rep who is managing the transaction from CARE/RETAIL channels. Required for assisted channels, not required for unassisted channels."
        },
        "authCustomerId": {
          "type": "string",
          "description": "Customer Id of Tmo customer that is being served/using the application. (Required for non anonymous flows)"
        },
        "authFinancialAccountId": {
          "type": "string",
          "description": "Financial Account Id that the customer that is being served/using the application is working on.  (Required for non anonymous flows)"
        },
        "authLineOfServiceId": {
          "type": "string",
          "description": "Line of service Id , within the Financial Account of the customer that is being served/using the application is working on. (Required for non anonymous flows)"
        },
        "channelId": {
          "type": "string",
          "description": "Identifies the business unit or sales channel."
        },
        "dealerCode": {
          "type": "string",
          "description": "Uniquely identifies the dealer/rep user."
        },
        "interactionId": {
          "type": "string",
          "description": "Alphanumeric value represent a common transaction id across all calls made from UI, while completing all business activity needs of a particular customer."
        },
        "masterDealerCode": {
          "type": "string",
          "description": "Code that uniquely identifies the master dealer for a large retail partner, such as Apple or Costco. Will not be applicable for TMo channels."
        },
        "segmentationId": {
          "type": "string",
          "description": "Identifier of customerufffdufffdufffds primary data center."
        },
        "senderId": {
          "type": "string",
          "description": "Uniquely identifies an Operation consumer/Partner."
        },
        "sessionId": {
          "type": "string",
          "description": "A value populated by the sender used to track the transactions that occur during a session, a long-lasting interaction, managed by the sender. GUID generated by partner. Within one session (sessionid) for Rep/system can serve  multiple customers(interactionid) and in a given customer interaction ufffdufffdufffd multiple API calls (activityid) will be made to serve the customer. 1 sessionid -> many interactionid 1 interactionid -> many activityid"
        },
        "storeId": {
          "type": "string",
          "description": "Unique identifier for the retail store location."
        },
        "terminalId": {
          "type": "string",
          "description": "Unique identifier for the retail store terminal."
        },
        "tillId": {
          "type": "string",
          "description": "Unique identifier for the retail store terminal till number."
        },
        "timestamp": {
          "type": "string",
          "format": "date-time",
          "description": "A timestamp provided by sender to track their workflow."
        },
        "workflowId": {
          "type": "string",
          "description": "Name of business purpose/flow, for which the API is being invoked."
        }
      },
      "description": "standard HTTP header elements to be able to deliver them to consumer without interruption"
    },
    "Specifications": {
      "type": "object",
      "properties": {
        "name": {
          "type": "string"
        },
        "value": {
          "type": "string"
        }
      },
      "description": "Name value pair."
    },
    "Event": {
      "type": "object",
      "required": [
        "eventId",
        "eventType",
        "eventTime",
        "eventProducerId",
        "eventVersion",
        "payload"
      ],
      "properties": {
        "eventId": {
          "description": "Unique identifier for the event generated by the event producer.",
          "type": "string"
        },
        "eventType": {
          "description": "Name of the event.",
          "type": "string"
        },
        "eventTime": {
          "description": "The date and time that the event occurred.",
          "type": "string",
          "format": "date-time"
        },
        "eventProducerId": {
          "description": "Unique identifier for the producer of the event.",
          "type": "string"
        },
        "eventVersion": {
          "description": "Version of the event.",
          "type": "string"
        },
        "auditInfo": {
          "$ref": "#/definitions/AuditInfo"
        },
        "headerReference": {
          "$ref": "#/definitions/HeaderReference"
        },
        "payload": {
          "$ref": "#/definitions/Payload"
        },
        "specifications": {
          "type": "array",
          "description": "added for future reference so can ignore.",
          "items": {
            "$ref": "#/definitions/Specifications"
          }
        }
      }
    },
    "Payload": {
      "type": "object",
      "properties": {
        "updateBatch": {
          "$ref": "#/definitions/UpdateBatchRequest"
        }
      }
    },
    "UpdateBatchRequest": {
      "type": "object",
      "required": [
        "stopTime",
        "interactionId",
        "status"
      ],
      "properties": {
        "interactionId": {
          "description": "Uniquely identifies the batch",
          "type": "string"
        },
        "fileName": {
          "description": "Name of the File being processed",
          "type": "string"
        },
        "batchProcessName": {
          "description": "Type of the batch file being processed",
          "type": "string"
        },
        "sourceSystem": {
          "description": "Application/ System processing the files",
          "type": "string"
        },
        "stopTime": {
          "description": "The date and time that the event occurred.",
          "type": "string",
          "format": "date-time"
        },
        "status": {
          "description": "status of the stop batch with values {START,STOP, STOPWITHERROR, SUCCESS, RECONFAILED,RECONPASSED}",
          "type": "string"
        }
      }
    }
  }
}