{
    "swagger": "2.0",
    "info": {
        "description": "DEEP.io Publish Event API",
        "version": "1.0",
        "title": "DEEP.io Publish Event API"
    },
    "host": "localhost:8080",
    "basePath": "/deep/v1/events",
    "paths": {
        "/deep/v1/events/{eventType}": {
            "post": {
                "tags": [
                    "customer-search"
                ],
                "summary": "LoanBalanceTransferPaymentUpdate Deep event",
                "operationId": "LoanBalanceTransferPaymentUpdateDUsingPOST",
                "consumes": [
                    "application/json"
                ],
                "produces": [
                    "application/json"
                ],
                "parameters": [
                    {
                        "name": "eventType",
                        "in": "path",
                        "description": "Unique name of the event",
                        "required": true,
                        "type": "string"
                    },
                    {
                        "in": "body",
                        "name": "event",
                        "description": "Event Complex Element",
                        "required": true,
                        "schema": {
                            "$ref": "#/definitions/Event"
                        }
                    }
                ],
                "responses": {
                    "200": {
                        "description": "Event Receieved."
                    },
                    "401": {
                        "description": "Unauthorized Access"
                    },
                    "404": {
                        "description": "Not Found"
                    },
                    "500": {
                        "description": "System Error"
                    },
                    "503": {
                        "description": "Service Unavailable"
                    }
                }
            }
        }
    },
    "definitions": {
        "Event": {
            "type": "object",
            "required": [
                "eventId",
                "eventType",
                "eventTime",
                "eventProducerId",
                "eventVersion",
                "payload"
            ],
            "properties": {
                "eventId": {
                    "description": "Unique identifier for the event generated by the event producer.",
                    "type": "string"
                },
                "eventType": {
                    "description": "Name of the event.",
                    "type": "string"
                },
                "eventTime": {
                    "description": "The date and time that the event occurred.",
                    "type": "string",
                    "format": "date-time"
                },
                "eventProducerId": {
                    "description": "Unique identifier for the producer of the event.",
                    "type": "string"
                },
                "eventVersion": {
                    "description": "Version of the event.",
                    "type": "string"
                },
                "specifications": {
                    "description": "Name value pair.",
                    "type": "array",
                    "items": {
                        "$ref": "#/definitions/Specifications"
                    }
                },
                "auditInfo": {
                    "$ref": "#/definitions/AuditInfo"
                },
                "headerReference": {
                    "$ref": "#/definitions/HeaderReference"
                },
                "payload": {
                    "$ref": "#/definitions/Payload"
                }
            }
        },
        "AuditInfo": {
            "type": "object",
            "properties": {
                "accountNumber": {
                    "type": "string"
                },
                "batchId": {
                    "type": "string"
                },
                "customerId": {
                    "type": "string"
                },
                "iamUniqueId": {
                    "type": "string"
                },
                "lineId": {
                    "type": "string"
                },
                "orderId": {
                    "type": "string"
                },
                "phoneNumber": {
                    "type": "string"
                },
                "universalLineId": {
                    "type": "string"
                }
            }
        },
        "HeaderReference": {
            "type": "object",
            "properties": {
                "activityId": {
                    "type": "string"
                },
                "applicationId": {
                    "type": "string"
                },
                "applicationUserId": {
                    "type": "string"
                },
                "authCustomerId": {
                    "type": "string"
                },
                "authFinancialAccountId": {
                    "type": "string"
                },
                "authLineOfServiceId": {
                    "type": "string"
                },
                "channelId": {
                    "type": "string"
                },
                "dealerCode": {
                    "type": "string"
                },
                "interactionId": {
                    "type": "string"
                },
                "masterDealerCode": {
                    "type": "string"
                },
                "segmentationId": {
                    "type": "string"
                },
                "senderId": {
                    "type": "string"
                },
                "sessionId": {
                    "type": "string"
                },
                "storeId": {
                    "type": "string"
                },
                "terminalId": {
                    "type": "string"
                },
                "tillId": {
                    "type": "string"
                },
                "timestamp": {
                    "type": "string"
                },
                "workflowId": {
                    "type": "string"
                }
            }
        },
        "Specifications": {
            "type": "object",
            "description": "Name value pair.",
            "properties": {
                "name": {
                    "type": "string"
                },
                "value": {
                    "type": "string"
                }
            }
        },
        "Payload": {
            "type": "object",
            "properties": {
                "dealerInfo": {
                    "$ref": "#/definitions/DealerInfo"
                }
            }
        },
        "DealerInfo": {
            "type": "object",
            "description": "An User Defined Object",
            "properties": {
                "dealerId": {
                    "$ref": "#/definitions/DealerId"
                },
                "dealerCode": {
                    "description": "A 7-character, T-Mobile-assigned code used to identify a specific store, district, or region, defined by a partner and used in calculating commissions.",
                    "type": "string"
                },
                "masterDealerCode": {
                    "$ref": "#/definitions/CommissionsCode"
                },
                "dealerName": {
                    "description": "The name of the dealer",
                    "type": "string"
                },
                "dealerGroupNames": {
                    "description": "Name of one of the dealer groups associated with this dealer.",
                    "type": "array",
                    "items": {
                        "type": "string"
                    }
                },
                "subChannelCategories": {
                    "description": "Name of one of the subChannelCategory associated with this dealer.",
                    "type": "array",
                    "items": {
                        "type": "string"
                    }
                },
                "dealerCategory": {
                    "type": "string"
                },
                "brand": {
                    "$ref": "#/definitions/Brand"
                },
                "rsaTokenCount": {
                    "description": "RSA token count",
                    "type": "integer",
                    "format": "int32"
                },
                "additionalRSATokenCount": {
                    "description": "Additional RSA token count",
                    "type": "integer",
                    "format": "int32"
                },
                "salesChannel": {
                    "description": "Sales channel",
                    "type": "array",
                    "items": {
                        "$ref": "#/definitions/SalesChannel"
                    }
                },
                "twoFactorAuthenticationIndicator": {
                    "description": "Two Factor Authentication indicator",
                    "type": "string"
                },
                "twoFactorAuthenticatonUsageAgreement": {
                    "description": "Two Factor Authentication usage agreement",
                    "type": "string"
                },
                "twoFactorAuthenticationDisabledTilDate": {
                    "description": "Two Factor Authentication disabled until date",
                    "type": "string",
                    "format": "date"
                },
                "twoFactorAuthenticationDealerWorkstations": {
                    "description": "Two Factor Authentication workstation",
                    "type": "array",
                    "items": {
                        "type": "string"
                    }
                },
                "provisionedDate": {
                    "description": "Date the dealer was provisioned",
                    "type": "string",
                    "format": "date"
                },
                "enabledForTAM": {
                    "description": "Enabled for TAM (?)",
                    "type": "string"
                },
                "isCommissioned": {
                    "description": "Indicates whether the dealer is commissioned",
                    "type": "boolean"
                },
                "defaultLanguage": {
                    "$ref": "#/definitions/LanguageCode"
                },
                "defaultPaymentVendor": {
                    "description": "The default payment vendor for the dealer",
                    "type": "string"
                },
                "dealerContact": {
                    "$ref": "#/definitions/DealerContact"
                },
                "brightPointDealerId": {
                    "description": "Bright Point dealer identification code",
                    "type": "string"
                },
                "lastLoginDate": {
                    "description": "Last login date for the dealer",
                    "type": "string",
                    "format": "date"
                },
                "dealerStatus": {
                    "description": "Status of dealer",
                    "type": "string"
                },
                "locationName": {
                    "description": "Name of the dealer location",
                    "type": "string"
                },
                "companyName": {
                    "description": "Name of the dealer company",
                    "type": "string"
                },
                "lastUpdateDate": {
                    "description": "Last update date of dealer data.",
                    "type": "string",
                    "format": "date"
                },
                "userId": {
                    "description": "An User Defined Object",
                    "type": "string"
                },
                "managerName": {
                    "description": "An User Defined Object",
                    "type": "string"
                },
				"storeId": {
                    "description": "An User Defined Object",
                    "type": "string"
                },
                "dealerGroups": {
                    "$ref": "#/definitions/DealerGroups"
                },
                "additionalData": {
                    "description": "An User Defined Object",
                    "type": "array",
                    "items": {
                        "$ref": "#/definitions/AdditionalData"
                    }
                }
            }
        },
        "CommissionsCode": {
            "description": "The commissions code may be a dealer code or a rep id, depending on the context.",
            "type": "string"
        },
        "DealerId": {
            "description": "Uniquely identifies a dealer",
            "type": "string"
        },
        "Brand": {
            "description": "The business name under which a TMUS product is sold.  A Customer can have accounts in any Brand, within the same Business Unit. For example, a T-Mobile customer may also have a branded account with a national retailer.",
            "type": "string"
        },
        "LanguageCode": {
            "description": "The language per ISO 639-1 Code: en for English, es for espagnol (Spanish). Reference http://www.iso.org/iso/home/standards/language_codes.htm",
            "type": "string"
        },
        "DealerContact": {
            "type": "object",
            "description": "Dealer contact information",
            "properties": {
                "addresses": {
                    "type": "array",
                    "items": {
                        "$ref": "#/definitions/Addresses"
                    }
                },
                "emailCommunications": {
                    "type": "array",
                    "items": {
                        "$ref": "#/definitions/EmailCommunications"
                    }
                },
                "phoneNumbers": {
                    "type": "array",
                    "items": {
                        "$ref": "#/definitions/PhoneNumbers"
                    }
                }
            }
        },
        "PhoneNumbers": {
            "type": "object",
            "properties": {
                "phoneNumber": {
                    "description": "Phone number",
                    "type": "string"
                }
            }
        },
        "Addresses": {
            "type": "object",
            "properties": {
                "stateName": {
                    "description": "Name of the state",
                    "type": "string"
                },
                "addressLine1": {
                    "description": "The first line of the address, required.",
                    "type": "string"
                },
                "cityName": {
                    "description": "The name of the city in the mailing address. For military or diplomatic addresses should contain FPO, APO, or DPO.",
                    "type": "string"
                },
                "zip": {
                    "description": "The 5 digit zip or postal delivery code.",
                    "type": "string"
                }
            }
        },
        "EmailCommunications": {
            "type": "object",
            "properties": {
                "emailAddress": {
                    "description": "The email address used for the given purpose.",
                    "type": "string"
                }
            }
        },
        "SalesChannel": {
            "type": "object",
            "description": "Sales channel",
            "properties": {
                "salesSubChannelCategory": {
                    "description": "Sub-Channel category, such as Frontline Support Teams, Business TeleSales, Small Business TeleSales, Web TeleSales Inside Sales, Small Business Mid-Market, Major Accounts",
                    "type": "string"
                },
                "crmChannelCode": {
                    "type": "string"
                },
                "samsonChannelCode": {
                    "type": "string"
                }
            }
        },
        "AdditionalData": {
            "type": "object",
            "description": "An User Defined Object",
            "properties": {
                "Name": {
                    "description": "An User Defined Object",
                    "type": "string"
                },
                "value": {
                    "description": "An User Defined Object",
                    "type": "string"
                }
            }
        },
        "DealerGroups": {
            "type": "object",
            "description": "An User Defined Object",
            "properties": {
                "dealerGroupInfo": {
                    "description": "An User Defined Object",
                    "type": "array",
                    "items": {
                        "$ref": "#/definitions/DealerGroupInfo"
                    }
                }
            }
        },
        "DealerGroupInfo": {
            "type": "object",
            "description": "An User Defined Object",
            "properties": {
                "groupName": {
                    "description": "An User Defined Object",
                    "type": "string"
                },
                "groupTFAIndicator": {
                    "description": "An User Defined Object",
                    "type": "string"
                },
                "memberURL": {
                    "description": "An User Defined Object",
                    "type": "string"
                },
                "ipAddress": {
                    "description": "An User Defined Object",
                    "type": "array",
                    "items": {
                        "type": "string"
                    }
                }
            }
        }
    }
}