{
    "swagger": "2.0",
    "basePath": "/deep/v1",
    "schemes": [
        "http"
    ],
    "info": {
        "title": "Event",
        "description": "This API is for DEEP - OFSLL Loan Events",
        "contact": {},
        "version": "1"
    },
    "paths": {
        "/events/{eventtype}": {
            "post": {
                "tags": [
                    "Event"
                ],
                "consumes": [
                    "application/json",
                    "application/xml"
                ],
                "produces": [
                    "application/json",
                    "application/xml"
                ],
                "responses": {
                    "200": {
                        "description": "no description",
                        "schema": {
                            "maxItems": 1,
                            "type": "string"
                        }
                    },
                    "400": {
                        "description": "Bad Request"
                    },
                    "500": {
                        "description": "Service Unavailable"
                    }
                },
                "operationId": "Event",
                "parameters": [
                    {
                        "name": "eventtype",
                        "in": "path",
                        "required": true,
                        "description": "",
                        "type": "string"
                    },
                    {
                        "name": "leaseEventsRequest",
                        "in": "body",
                        "schema": {
                            "maxItems": 1,
                            "$ref": "#/definitions/leaseEventsRequest"
                        },
                        "description": ""
                    }
                ],
                "summary": "Event"
            }
        }
    },
    "tags": [
        {
            "name": "Event"
        }
    ],
    "definitions": {
        "auditInfo": {
            "type": "object",
            "properties": {
                "customerId": {
                    "description": "Uniquely identifies the Customer.",
                    "type": "string"
                },
                "accountNumber": {
                    "description": "The financial account number.",
                    "type": "string"
                },
                "universalLineId": {
                    "description": "ULID - Universal identifier of the LineofService, as defined in Customer Hub. ",
                    "type": "string"
                },
                "lineId": {
                    "description": "Uniquely identifies a  line of service.",
                    "type": "string"
                },
                "phoneNumber": {
                    "description": "The phone number (MSISDN) associated with the line of service.",
                    "type": "string"
                },
                "iamUniqueId": {
                    "description": "Unique identifier for Identity and Access Management.",
                    "type": "string"
                },
                "batchId": {
                    "description": "Identifer of batch job.",
                    "type": "string"
                },
                "orderId": {
                    "description": "Identifier of order.",
                    "type": "string"
                }
            }
        },
        "headerReference": {
            "required": [
                "timestamp",
                "channelId",
                "applicationId",
                "senderId"
            ],
            "type": "object",
            "properties": {
                "activityId": {
                    "type": "string"
                },
                "applicationId": {
                    "type": "string"
                },
                "applicationUserId": {
                    "type": "string"
                },
                "channelId": {
                    "type": "string"
                },
                "dealerCode": {
                    "type": "string"
                },
                "interactionId": {
                    "type": "string"
                },
                "segmentationId": {
                    "type": "string"
                },
                "senderId": {
                    "type": "string"
                },
                "sessionId": {
                    "type": "string"
                },
                "storeId": {
                    "type": "string"
                },
                "terminalId": {
                    "type": "string"
                },
                "tillId": {
                    "type": "string"
                },
                "workflowId": {
                    "type": "string"
                },
                "authCustomerId": {
                    "type": "string"
                },
                "authFinancialAccountId": {
                    "type": "string"
                },
                "authLineOfServiceId": {
                    "type": "string"
                },
                "timestamp": {
                    "type": "string"
                },
                "masterDealerCode": {
                    "type": "string"
                },
                "sourceSystemCode": {
                    "type": "string"
                }
            }
        },
        "Payload": {
            "type": "object",
            "properties": {
                "accountNumber": {
                    "type": "string"
                },
                "leaseId": {
                    "type": "string"
                },
                "leaseStatus": {
                    "type": "string"
                },
                "balanceAmount": {
                    "type": "number",
                    "format": "double"
                },
                "productType": {
                    "type": "string"
                },
                "residualAmount": {
                    "type": "number",
                    "format": "double"
                },
                "imei": {
                    "description": "International Mobile Equipment Identifier.  Unique identifier for a mobile device on a network.",
                    "type": "string"
                }
            }
        },
        "Event": {
            "required": [
                "eventProducerId",
                "eventTime",
                "eventType",
                "payload"
            ],
            "type": "object",
            "properties": {
                "eventId": {
                    "description": "Identifier of the event",
                    "type": "string"
                },
                "eventType": {
                    "description": "Type of event",
                    "type": "string"
                },
                "eventTime": {
                    "description": "The date and time that the event occurred.",
                    "type": "string",
                    "format": "date-time"
                },
                "eventProducerId": {
                    "description": "Identifier of the event producer",
                    "type": "string"
                },
                "eventVersion": {
                    "description": "Version of the event",
                    "type": "string"
                },
                "specifications": {
                    "description": "Name value pair",
                    "type": "array",
                    "items": {
                        "$ref": "#/definitions/specifications"
                    }
                },
                "auditInfo": {
                    "$ref": "#/definitions/auditInfo"
                },
                "payload": {
                    "$ref": "#/definitions/Payload"
                },
                "headerReference": {
                    "$ref": "#/definitions/headerReference"
                }
            }
        }
    }
}