{
    "swagger": "2.0",
    "info": {
        "description": "LoanPromotionAward DEEP.IO Event API",
        "version": "1.0",
        "title": "LoanPromotionAward DEEP.IO Event API"
    },
    "host": "localhost:8080",
    "basePath": "/deep/v1/events",
    "paths": {
        "/deep/v1/events/{eventType}": {
            "post": {
                "tags": [
                    "LoanPromotionAwardCreated",
                    "LoanPromotionAwardCanceled",
                    "LoanPromotionAwardResumed",
                    "LoanPromotionAwardCreditApplied",
                    "LoanPromotionAwardCreditCorrectionApplied",
                    "LoanPromotionAwardUnlinked",
                    "LoanPromotionAwardLinked"
                ],
                "summary": "LoanPromotionAward Deep event",
                "operationId": "LoanPromotionAward Using POST",
                "consumes": [
                    "application/json"
                ],
                "produces": [
                    "application/json"
                ],
                "parameters": [
                    {
                        "name": "eventType",
                        "in": "path",
                        "description": "Unique name of the event",
                        "required": true,
                        "type": "string"
                    },
                    {
                        "in": "body",
                        "name": "event",
                        "description": "Event Complex Element",
                        "required": true,
                        "schema": {
                            "$ref": "#/definitions/Event"
                        }
                    }
                ],
                "responses": {
                    "200": {
                        "description": "Event Receieved."
                    },
                    "401": {
                        "description": "Unauthorized Access"
                    },
                    "404": {
                        "description": "Not Found"
                    },
                    "500": {
                        "description": "System Error"
                    },
                    "503": {
                        "description": "Service Unavailable"
                    }
                }
            }
        }
    },
    "definitions": {
        "Event": {
            "type": "object",
            "required": [
                "eventId",
                "eventType",
                "eventTime",
                "eventProducerId",
                "eventVersion",
                "payload"
            ],
            "properties": {
                "eventId": {
                    "description": "Unique identifier for the event generated by the event producer.",
                    "type": "string"
                },
                "eventType": {
                    "description": "Name of the event.",
                    "type": "string"
                },
                "eventTime": {
                    "description": "The date and time that the event occurred.",
                    "type": "string",
                    "format": "date-time"
                },
                "eventProducerId": {
                    "description": "Unique identifier for the producer of the event.",
                    "type": "string"
                },
                "eventVersion": {
                    "description": "Version of the event.",
                    "type": "string"
                },
                "specifications": {
                    "description": "Name value pair.",
                    "type": "array",
                    "items": {
                        "$ref": "#/definitions/Specifications"
                    }
                },
                "auditInfo": {
                    "$ref": "#/definitions/AuditInfo"
                },
                "headerReference": {
                    "$ref": "#/definitions/HeaderReference"
                },
                "payload": {
                    "$ref": "#/definitions/Payload"
                }
            }
        },
        "AuditInfo": {
            "type": "object",
            "properties": {
                "accountNumber": {
                    "type": "string"
                },
                "batchId": {
                    "type": "string"
                },
                "customerId": {
                    "type": "string"
                },
                "iamUniqueId": {
                    "type": "string"
                },
                "lineId": {
                    "type": "string"
                },
                "orderId": {
                    "type": "string"
                },
                "phoneNumber": {
                    "type": "string"
                },
                "universalLineId": {
                    "type": "string"
                }
            }
        },
        "HeaderReference": {
            "type": "object",
            "properties": {
                "activityId": {
                    "type": "string"
                },
                "applicationId": {
                    "type": "string"
                },
                "applicationUserId": {
                    "type": "string"
                },
                "authCustomerId": {
                    "type": "string"
                },
                "authFinancialAccountId": {
                    "type": "string"
                },
                "authLineOfServiceId": {
                    "type": "string"
                },
                "channelId": {
                    "type": "string"
                },
                "dealerCode": {
                    "type": "string"
                },
                "interactionId": {
                    "type": "string"
                },
                "masterDealerCode": {
                    "type": "string"
                },
                "segmentationId": {
                    "type": "string"
                },
                "senderId": {
                    "type": "string"
                },
                "sessionId": {
                    "type": "string"
                },
                "storeId": {
                    "type": "string"
                },
                "terminalId": {
                    "type": "string"
                },
                "tillId": {
                    "type": "string"
                },
                "timestamp": {
                    "type": "string"
                },
                "workflowId": {
                    "type": "string"
                }
            }
        },
        "Specifications": {
            "type": "object",
            "description": "Name value pair.",
            "properties": {
                "name": {
                    "type": "string"
                },
                "value": {
                    "type": "string"
                }
            }
        },
        "Payload": {
            "type": "object",
            "required": [
                "correlationId",
                "eventNumber",
                "loanPromotionAwardId",
                "loanPromotionAwardContext",
                "occurredOn"
            ],
            "properties": {
                "loanPromotionAwardId": {
                    "description": "Unique Award Identifier",
                    "type": "string"
                },
                "occurredOn": {
                    "type": "string",
                    "format": "date-time",
                    "description": "Transaction completion time in system"
                },
                "correlationId": {
                    "type": "string"
                },
                "revision": {
                    "type": "integer",
                    "format": "int32"
                },
                "eventNumber": {
                    "type": "integer",
                    "format": "int32"
                },
                "loanPromotionAwardContext": {
                    "$ref": "#/definitions/LoanPromotionAwardContext"
                },
                "appliedCredits": {
                    "type": "array",
                    "items": {
                        "$ref": "#/definitions/AwardCredit"
                    },
                    "description": "List of credits applied if required"
                },
                "reversedCredits": {
                    "type": "array",
                    "items": {
                        "$ref": "#/definitions/AwardCredit"
                    },
                    "description": "List of credits reversed if required"
                }
            }
        },
        "AwardCredit": {
            "type": "object",
            "required": [
                "amountInCents",
                "id",
                "type",
                "creditNumber"
            ],
            "properties": {
                "amountInCents": {
                    "type": "integer",
                    "format": "int32"
                },
                "creditNumber": {
                    "type": "integer",
                    "format": "int32"
                },
                "forBillingMonth": {
                    "type": "integer",
                    "format": "int32"
                },
                "forBillingYear": {
                    "type": "integer",
                    "format": "int32"
                },
                "id": {
                    "type": "string"
                },
                "sourceId": {
                    "type": "string"
                },
                "type": {
                    "type": "string",
                    "enum": [
                        "OVERDUE",
                        "REGULAR",
                        "REVERSED"
                    ]
                }
            }
        },
        "LoanPromotionAwardContext": {
            "type": "object",
            "required": [
                "award",
                "billingAccount",
                "loan",
                "transactionReason",
                "shouldNotifyCustomer"
            ],
            "properties": {
                "award": {
                    "$ref": "#/definitions/Award"
                },
                "billingAccount": {
                    "$ref": "#/definitions/BillingAccount"
                },
                "loan": {
                    "$ref": "#/definitions/Loan"
                },
                "transactionReason": {
                    "type": "string"
                },
                "requestedBy": {
                    "type": "string"
                },
                "shouldNotifyCustomer": {
                    "type": "boolean",
                    "description": "true if customer notification is required otherwise false"
                }
            }
        },
        "BillingAccount": {
            "type": "object",
            "required": [
                "billingAccountNumber"
            ],
            "properties": {
                "billingAccountNumber": {
                    "type": "string"
                },
                "billCycleCloseDay": {
                    "type": "integer",
                    "format": "int32"
                }
            }
        },
        "Award": {
            "type": "object",
            "required": [
                "totalCreditAmountInCents",
                "awardCreatedOn",
                "communityDocumentId",
                "finalMonthCreditAmountInCents",
                "monthlyCreditAmountInCents",
                "totalNumberOfCredits",
                "promotionCode",
                "promotionDescription",
                "status",
                "isActive",
                "remainingCreditAmountInCents",
                "remainingNumberOfCredits",
                "isLoanLinked"
            ],
            "properties": {
                "promotionCode": {
                    "type": "string",
                    "description": "Promotion code set by marketing like BOGO"
                },
                "promotionDescription": {
                    "type": "string",
                    "description": "Promotion description for promotion code"
                },
                "totalCreditAmountInCents": {
                    "type": "integer",
                    "format": "int32",
                    "description": "Total credit amount in cents"
                },
                "totalNumberOfCredits": {
                    "type": "integer",
                    "format": "int32",
                    "description": "Initial number of credits to be awarded"
                },
                "awardCreatedOn": {
                    "type": "string",
                    "format": "date-time",
                    "description": "Award creation date"
                },
                "monthlyCreditAmountInCents": {
                    "type": "integer",
                    "format": "int32",
                    "description": "Monthly credit amount in cents"
                },
                "finalMonthCreditAmountInCents": {
                    "type": "integer",
                    "format": "int32",
                    "description": "Final month credit amount in cents"
                },
                "communityDocumentId": {
                    "type": "string",
                    "description": "Promotion offer document id aka T-Community doc id"
                },
                "status": {
                    "type": "string"
                },
                "isActive": {
                    "type": "boolean",
                    "description": "Award is ACTIVE or INACTIVE"
                },
                "remainingCreditAmountInCents": {
                    "type": "integer",
                    "format": "int32",
                    "description": "Remaining credit amount in cents"
                },
                "remainingNumberOfCredits": {
                    "type": "integer",
                    "format": "int32",
                    "description": "Remaining number of credits to be awarded"
                },
                "isLoanLinked": {
                    "type": "boolean",
                    "description": "Associated loan is paid-off or not - Orphan Award"
                },
                "nextCreditInjectionDate": {
                    "type": "string",
                    "format": "date",
                    "description": "Possible next credit injection date - For Orphan Award only"
                }
            }
        },
        "Loan": {
            "type": "object",
            "required": [
                "loanId"
            ],
            "properties": {
                "loanId": {
                    "type": "string"
                },
                "agreementNumber": {
                    "type": "string"
                },
                "currentLoanSystem": {
                    "type": "string"
                },
                "imei": {
                    "type": "string"
                },
                "msisdn": {
                    "type": "string"
                },
                "sku": {
                    "type": "string"
                },
                "skuDescription": {
                    "type": "string"
                },
                "universalLineIdentifier": {
                    "type": "string"
                }
            },
            "description": "Loan details which is linked to Award"
        }
    }
}