{
	"swagger": "2.0",
	"info": {
		"description": "DEEP.io Publish Event API",
		"version": "1.0",
		"title": "DEEP.io Publish Event API"
	},
	"host": "localhost:8080",
	"basePath": "/deep/v1/events",
	"paths": {
		"/deep/v1/events/{eventType}": {
			"post": {
				"tags": ["customer-search"],
				"summary": "LoanBalanceTransfer Generic Deep event for LoanBalanceTransferPendingUpdate , LoanBalanceTransferPendingUpdateCompleted , LoanBalanceTransferPendingDeclinedUpdate , LoanBalanceTransferPendingDeclinedUpdateCompleted , LoanBalanceTransferPendingExpiredUpdate , LoanBalanceTransferPendingExpiredUpdateCompleted , LoanBalanceTransferPendingCanceledUpdate , LoanBalanceTransferPendingCanceledUpdateCompleted",
				"operationId": "LoanBalanceTransfer UsingPOST",
				"consumes": ["application/json"],
				"produces": ["application/json"],
				"parameters": [{
					"name": "eventType",
					"in": "path",
					"description": "Unique name of the event",
					"required": true,
					"type": "string"
				},
				{
					"in": "body",
					"name": "event",
					"description": "Event Complex Element",
					"required": true,
					"schema": {
						"$ref": "#/definitions/Event"
					}
				}],
				"responses": {
					"200": {
						"description": "Event Receieved."
					},
					"401": {
						"description": "Unauthorized Access"
					},
					"404": {
						"description": "Not Found"
					},
					"500": {
						"description": "System Error"
					},
					"503": {
						"description": "Service Unavailable"
					}
				}
			}
		}
	},
	"definitions": {
		"Event": {
			"type": "object",
			"required": ["eventId",
			"eventType",
			"eventTime",
			"eventProducerId",
			"eventVersion",
			"payload"],
			"properties": {
				"eventId": {
					"description": "Unique identifier for the event generated by the event producer.",
					"type": "string"
				},
				"eventType": {
					"description": "Name of the event.",
					"type": "string"
				},
				"eventTime": {
					"description": "The date and time that the event occurred.",
					"type": "string",
					"format": "date-time"
				},
				"eventProducerId": {
					"description": "Unique identifier for the producer of the event.",
					"type": "string"
				},
				"eventVersion": {
					"description": "Version of the event.",
					"type": "string"
				},
				"specifications": {
					"description": "Name value pair.",
					"type": "array",
					"items": {
						"$ref": "#/definitions/Specifications"
					}
				},
				"auditInfo": {
					"$ref": "#/definitions/AuditInfo"
				},
				"headerReference": {
					"$ref": "#/definitions/HeaderReference"
				},
				"payload": {
					"$ref": "#/definitions/Payload"
				}
			}
		},
		"AuditInfo": {
			"type": "object",
			"properties": {
				"accountNumber": {
					"type": "string"
				},
				"batchId": {
					"type": "string"
				},
				"customerId": {
					"type": "string"
				},
				"iamUniqueId": {
					"type": "string"
				},
				"lineId": {
					"type": "string"
				},
				"orderId": {
					"type": "string"
				},
				"phoneNumber": {
					"type": "string"
				},
				"universalLineId": {
					"type": "string"
				}
			}
		},
		"HeaderReference": {
			"type": "object",
			"properties": {
				"activityId": {
					"type": "string"
				},
				"applicationId": {
					"type": "string"
				},
				"applicationUserId": {
					"type": "string"
				},
				"authCustomerId": {
					"type": "string"
				},
				"authFinancialAccountId": {
					"type": "string"
				},
				"authLineOfServiceId": {
					"type": "string"
				},
				"channelId": {
					"type": "string"
				},
				"dealerCode": {
					"type": "string"
				},
				"interactionId": {
					"type": "string"
				},
				"masterDealerCode": {
					"type": "string"
				},
				"segmentationId": {
					"type": "string"
				},
				"senderId": {
					"type": "string"
				},
				"sessionId": {
					"type": "string"
				},
				"storeId": {
					"type": "string"
				},
				"terminalId": {
					"type": "string"
				},
				"tillId": {
					"type": "string"
				},
				"timestamp": {
					"type": "string"
				},
				"workflowId": {
					"type": "string"
				}
			}
		},
		"Specifications": {
			"type": "object",
			"description": "Name value pair.",
			"properties": {
				"name": {
					"type": "string"
				},
				"value": {
					"type": "string"
				}
			}
		},
		"Payload": {
			"type": "object",
			"properties": {
				"loanBalanceTransferRequest": {
					"$ref": "#/definitions/LoanBalanceTransfer"
				}
			}
		},
		"LoanBalanceTransfer": {
			"type": "object",
			"description": "LoanBalanceTransfer payload",
			"properties": {
				"header": {
					"$ref": "#/definitions/Header"
				},
				"balanceTransferDetails": {
					"$ref": "#/definitions/BalanceTransferDetails"
				}
			}
		},
		"Header": {
			"type": "object",
			"description": "Loan reqeust header values.",
			"properties": {
				"senderid": {
					"type": "string"
				},
				"channelid": {
					"type": "string"
				},
				"applicationid": {
					"type": "string"
				},
				"applicationuserid": {
					"type": "string"
				},
				"sessionid": {
					"type": "string"
				},
				"interactionid": {
					"type": "string"
				},
				"activityid": {
					"type": "string"
				},
				"workflowid": {
					"type": "string"
				},
				"timestamp": {
					"type": "string"
				},
				"storeid": {
					"type": "string"
				},
				"dealercode": {
					"type": "string"
				},
				"masterdealercode": {
					"type": "string"
				},
				"originatingSenderId": {
					"type": "string"
				},
				"userid": {
					"type": "string"
				}
			}
		},
		"BalanceTransferDetails": {
			"type": "object",
			"required": ["oldLoanId"],
			"properties": {
				"loanId": {
					"description": "New LoanId",
					"type": "string"
				},
				"oldLoanId": {
					"description": "SourceLoanId",
					"type": "string"
				},
				"imei": {
					"description": "International Mobile Equipment Identifier. Unique identifier for a mobile device on a network",
					"type": "string"
				},
				"accountNumber": {
					"description": "sourceBAN",
					"type": "string"
				},
				"transferAccountNumber": {
					"description": "targetBAN",
					"type": "string"
				},
				"transferQuoteId": {
					"description": "transferQuoteId",
					"type": "string"
				},
				"transferInitiatedDate": {
					"description": "TransferInitiatedDate",
					"type": "string",
					"format": "date"
				},
				
				"transferType": {
					"description": "transferType",
					"type": "string"
				},
				"loanBalance": {
					"description": "Balance amount of the SourceLoanId",
					"type": "number",
					"format": "double"
				},
				"loanCondition": {
					"description": "SourceLoan's Condition from OFSLL",
					"type": "string"
				},
				"loanStatus": {
					"description": "SourceLoan's Status from OFSLL",
					"type": "string"
				},
				"unbilledAmount": {
					"description": "SourceLoan's unbilledAmount from OFSLL",
					"type": "number",
					"format": "double"
				}
			}
		}
	}
}