{
	"swagger": "2.0",
	"info": {
		"description": "The Generic version of DEEP.io Publish Event API",
		"version": "1.0",
		"title": "DEEP.io Publish Event POST API - Generic Version"
	},
	"host": "localhost:8080",
	"basePath": "/deep/v1/events",
	"paths": {
		"/{eventType}": {
			"post": {
				"summary": "LoanPayment Deep event",
				"operationId": "GenericPayloadForLoanPayments",
				"consumes": [
					"application/json"
				],
				"produces": [
					"application/json"
				],
				"parameters": [{
						"name": "eventType",
						"in": "path",
						"description": "Unique name of the event",
						"required": true,
						"type": "string"
					},
					{
						"in": "body",
						"name": "event",
						"description": "Event Complex Element",
						"required": true,
						"schema": {
							"$ref": "#/definitions/Event"
						}
					}
				],
				"responses": {
					"200": {
						"description": "Message Published Successfully."
					},
					"400": {
						"description": "Not a valid Request."
					},
					"500": {
						"description": "Error while sending message to Queue OR Error happened inside producer"
					},
					"501": {
						"description": "Rule is Not Configured For EventType"
					},
					"502": {
						"description": "Contract is Not Defined"
					},
					"503": {
						"description": "Contract is defined but payload posted is not valid as per uploaded contract"
					}
				}
			}
		}
	},
	"definitions": {
		"Event": {
			"type": "object",
			"required": [
				"eventId",
				"eventType",
				"eventTime",
				"eventProducerId",
				"payload"
			],
			"properties": {
				"eventId": {
					"description": "Unique identifier for the event generated by the event producer.",
					"type": "string"
				},
				"eventType": {
					"description": "Name of the event.",
					"type": "string"
				},
				"eventTime": {
					"description": "The date and time that the event occurred.",
					"type": "string",
					"format": "date-time"
				},
				"eventProducerId": {
					"description": "Unique identifier for the producer of the event.",
					"type": "string"
				},
				"eventVersion": {
					"description": "Version of the event.",
					"type": "string"
				},
				"specifications": {
					"description": "Name value pair.",
					"type": "array",
					"items": {
						"$ref": "#/definitions/Specifications"
					}
				},
				"auditInfo": {
					"$ref": "#/definitions/AuditInfo"
				},
				"headerReference": {
					"$ref": "#/definitions/HeaderReference"
				},
				"payload": {
					"$ref": "#/definitions/Payload"
				}
			}
		},
		"accountNumber": {
			"type": "string"
		},
		"AuditInfo": {
			"type": "object",
			"description": "Audit information.",
			"properties": {
				"customerId": {
					"description": "Uniquely identifies the Customer.",
					"type": "string"
				},
				"accountNumber": {
					"description": "The financial account number.",
					"type": "string"
				},
				"universalLineId": {
					"description": "ULID - Universal identifier of the LineofService, as defined in Customer Hub. ",
					"type": "string"
				},
				"lineId": {
					"description": "Uniquely identifies a  line of service.",
					"type": "string"
				},
				"phoneNumber": {
					"description": "The phone number (MSISDN) associated with the line of service.",
					"type": "string"
				},
				"iamUniqueId": {
					"description": "Unique identifier for Identity and Access Management.",
					"type": "string"
				},
				"batchId": {
					"description": "Identifer of batch job.",
					"type": "string"
				},
				"orderId": {
					"description": "Identifier of order.",
					"type": "string"
				}
			}
		},
		"Specifications": {
			"type": "object",
			"description": "Name value pair.",
			"properties": {
				"name": {
					"type": "string"
				},
				"value": {
					"type": "string"
				}
			}
		},
		"HeaderReference": {
			"type": "object",
			"description": "Header Parameters.",
			"properties": {
				"activityId": {
					"type": "string",
					"description": "Unique id alphanumeric value generated and sent by the partner to identify every service request uniquely."
				},
				"applicationId": {
					"type": "string",
					"description": "Identifies the application, system or platform name that is being used to initiate the transaction  related to this request."
				},
				"applicationUserId": {
					"type": "string",
					"description": "NT id of the rep who is managing the transaction from CARE/RETAIL channels. Required for assisted channels, not required for unassisted channels."
				},
				"authCustomerId": {
					"type": "string",
					"description": "Customer Id of Tmo customer that is being served/using the application. (Required for non anonymous flows)"
				},
				"authFinancialAccountId": {
					"type": "string",
					"description": "Financial Account Id that the customer that is being served/using the application is working on.  (Required for non anonymous flows)"
				},
				"authLineOfServiceId": {
					"type": "string",
					"description": "Line of service Id , within the Financial Account of the customer that is being served/using the application is working on. (Required for non anonymous flows)"
				},
				"channelId": {
					"type": "string",
					"description": "Identifies the business unit or sales channel."
				},
				"dealerCode": {
					"type": "string",
					"description": "Uniquely identifies the dealer/rep user."
				},
				"interactionId": {
					"type": "string",
					"description": "Alphanumeric value represent a common transaction id across all calls made from UI, while completing all business activity needs of a particular customer."
				},
				"masterDealerCode": {
					"type": "string",
					"description": "Code that uniquely identifies the master dealer for a large retail partner, such as Apple or Costco. Will not be applicable for TMo channels."
				},
				"segmentationId": {
					"type": "string",
					"description": "Identifier of customerâ€™s primary data center."
				},
				"senderId": {
					"type": "string",
					"description": "Uniquely identifies an Operation consumer/Partner."
				},
				"sessionId": {
					"type": "string",
					"description": "A value populated by the sender used to track the transactions that occur during a session, a long-lasting interaction, managed by the sender. GUID generated by partner. Within one session (sessionid) for Rep/system can serve  multiple customers(interactionid) and in a given customer interation â€“ multiple API calls (activityid) will be made to serve the customer. 1 sessionid -> many interactionid 1 interactionid -> many activityid"
				},
				"storeId": {
					"type": "string",
					"description": "Unique identifier for the retail store location."
				},
				"terminalId": {
					"type": "string",
					"description": "Unique identifier for the retail store terminal."
				},
				"tillId": {
					"type": "string",
					"description": "Unique identifier for the retail store terminal till number."
				},
				"workflowId": {
					"type": "string",
					"description": "Name of business purpose/flow, for which the API is being invoked."
				},
				"timestamp": {
					"description": "A timestamp provided by sender to track their workflow.",
					"type": "string",
					"format": "date-time"
				}
			}
		},
		"Payload": {
			"type": "object",
			"description": "Event specific information that can be modeled using APIv2 or inline elements.",
			"properties": {
				"postPaymentRequest": {
					"$ref": "#/definitions/PostPaymentRequest"
				}
			}
		},

		"PostPaymentRequest": {
			"type": "object",
			"description": "PostPaymentRequest payload",
			"properties": {
				"header": {
					"$ref": "#/definitions/Header"
				},
				"financialTransactions": {
					"$ref": "#/definitions/FinancialTransactions"
				}
			}
		},
		"Header": {
			"type": "object",
			"description": "Loan reqeust header values.",
			"properties": {
				"senderid": {
					"type": "string"
				},
				"channelid": {
					"type": "string"
				},
				"applicationid": {
					"type": "string"
				},
				"applicationuserid": {
					"type": "string"
				},
				"sessionid": {
					"type": "string"
				},
				"interactionid": {
					"type": "string"
				},
				"activityid": {
					"type": "string"
				},
				"workflowid": {
					"type": "string"
				},
				"timestamp": {
					"type": "string"
				},
				"storeid": {
					"type": "string"
				},
				"dealercode": {
					"type": "string"
				},
				"masterdealercode": {
					"type": "string"
				},
				"originatingSenderId": {
					"type": "string"
				},
				"userid": {
					"type": "string"
				}
			}
		},
		"Error": {
			"type": "object",
			"properties": {
				"errorCode": {
					"type": "string"
				},
				"errorDescription": {
					"type": "string"
				}
			}
		},
		"FinancingActivities": {
			"type": "object",
			"properties": {
				"activityType": {
					"description": "Type of the activity, such as EQUIPMENT_UPDATE, MSISDN_UPDATE",
					"type": "string"
				},
				"activityDescription": {
					"description": "Details about the activity.",
					"type": "string"
				},
				"activityTime": {
					"description": "Date and time when the activity occurred",
					"type": "string",
					"format": "date-time"
				},
				"salesChannelId": {
					"description": "Uniquely identifies the Sales Channel.",
					"type": "string"
				},
				"userId": {
					"description": "User identification used in the system",
					"type": "string"
				}
			}
		},
		"FinancialTransactions": {
			"type": "object",
			"properties": {
			
			"accountNumber": {
					"$ref": "#/definitions/accountNumber"
				},
				"agreementNumber": {
					"description": "Unique Identifier for the transaction where customer agrees to the Loan/Lease.",
					"type": "string"
				},
				"loanId": {
					"description": "Loan identifier",
					"type": "string"
				},
				"oldLoanId": {
					"description": "The loan id of a related loan, such as for a change of responsibility or exercising a JUMP option on an existing loan.  For example in change of responsibilityfor an existing loan, a new loan is created and the existing loan balance moved to the new loan.  The existing loan is then closed.  The new loans oldLoanId is populated with the closed loanId.",
					"type": "string"
				},
				"transferQuoteId": {
					"description": "Unique identifier generated for loan transfer estimate/reserve",
					"type": "string"
				},
				"transferInitiatedDate": {
					"description": "Loan balance transfer request date",
					"type": "string",
					"format": "date"
				},
				"transferAccountNumber": {
					"description": "Account number for balance transfer",
					"type": "string"
				},
				"transferType": {
					"description": "Indicates if loan was created due to transfer or if its transferred to another account. Values: TRANSFERRED,RECEIVED",
					"type": "string"
				},
				"errors": {
					"description": "Error Details",
					"type": "array",
					"items": {
						"$ref": "#/definitions/Error"
					}
				},				
				"quoteDate": {
					"description": "The date the financing transfer is quoted.",
					"type": "string",
					"format": "date"
				},
				
				
				"paymentTransactionId": {
					"description": "A value assigned by the merchant to uniquely reference a transaction and any subsequent related transactions",
					"type": "string"
				},
				"paymentId": {
					"description": "Identifier of payment",
					"type": "string"
				},
				"timePaymentProcessed": {
					"description": "The time the payment was made",
					"type": "string",
					"format": "date-time"
				},
				"paymentAmount": {
					"description": "Total payment amount",
					"type": "number",
					"format": "double"
				},
				"paymentMethodCode": {
					"description": "Code identifying the current payment method specified for the payment instrument, such as Cash/Credit.",
					"type": "string"
				},
				"paymentTransactionType": {
					"description": "Type of transaction, such as Balance/Reversal/Void",
					"type": "string"
				},
				"paymentTransactionSubType": {
					"description": "Payment transaction sub type",
					"type": "string"
				},
				"rmaNumber": {
					"description": "Identifier of Return Merchandise Authorization",
					"type": "string"
				},
				"pendingStatus": {
					"description": "Status of pending financial transaction, possible values:  INPROCESS, COMPLETE, ERROR.",
					"type": "string"
				},
				"statusCode": {
					"description": "Status code",
					"type": "string"
				},
				"paymentReasonCode": {
					"description": "Status reason code",
					"type": "string"
				},
				"workFlowConditions": {
					"description": "Describes workflow steps that have been completed or awaiting completion such as BalanceTransferComplete,shipmentPending.",
					"type": "array",
					"items": {
						"type": "string"
					}
				},
				"phoneNumber": {
					"description": "Customers phone number",
					"type": "string"
				},
				"last4CardNumber": {
					"description": "Last four digits of the card used for payment",
					"type": "string"
				},
				"imei": {
					"description": "International Mobile Equipment Identifier.  Unique identifier for a mobile device on a network.",
					"type": "string"
				},
				"eligibilities": {
					"description": "List of eligibility, such as refund, charge back.",
					"type": "array",
					"items": {
						"$ref": "#/definitions/Eligibilities"
					}
				},
				"paymentActivityId": {
					"description": "Identifier of payment activity",
					"type": "string"
				},
				"loanPaymentId": {
					"description": "Identifier of loan payment",
					"type": "string"
				},
				"loanInvoiceId": {
					"description": "Identifier to uniquely idehntify a charge on a loan,  generated by the loan system.  Called the statementId in the loan system.",
					"type": "string"
				},
				"invoiceItemId": {
					"description": "Alternate identifier for the loanInvoiceId in the billing system",
					"type": "string"
				},
				"balance": {
					"description": "Loan amount that is owed",
					"type": "number",
					"format": "double"
				},
				"financingActivities": {
					"type": "array",
					"items": {
						"$ref": "#/definitions/FinancingActivities"
					}
				},
				"targetLoanId": {
					"description": "Target loan identifier",
					"type": "string"
				},
				"sourceLoanPaymentId": {
					"description": "Identifier of source loan payment",
					"type": "string"
				},
				"loanChargeId": {
					"description": "Mercury charge identifier used for billing/posting scheduled payment purposes",
					"type": "string"
				},
				"eipPaymentTransactionId": {
					"description": "Identifier that a payment is made on an EIP loan",
					"type": "string"
				},
				"targetPaymentTransactionAmount": {
					"description": "Payment transaction amount to the target loan",
					"type": "number",
					"format": "double"
				},
				"syncPending": {
					"description": "To indicate if the synchronization is pending or not",
					"type": "boolean"
				},
				"originalLoanPaymentId": {
					"description": "Original Loan PaymentId identifier",
					"type": "string"
				},
				"billedAmount": {
					"description": "Total billed Amount",
					"type": "number",
					"format": "double"
				},
				"unbilledAmount": {
					"description": "Total Unbilled Amount",
					"type": "number",
					"format": "double"
				}
			}
		},
		"Eligibilities": {
			"type": "object",
			"properties": {
				"eligibilityType": {
					"description": "The type of eligibility being established.",
					"type": "string"
				},
				"ineligibleReasons": {
					"description": "The reason for ineligibility.",
					"type": "array",
					"items": {
						"$ref": "#/definitions/IneligibleReasons"
					}
				}
			}
		},
		"IneligibleReasons": {
			"type": "object",
			"properties": {
				"reasonCode": {
					"description": "Reason Code",
					"type": "string"
				}
			}
		}
	}
}