{
	"swagger": "2.0",
	"info": {
		"description": "DEEP.io Publish Event API for Loan Updates",
		"version": "1.0",
		"title": "DEEP.io Publish Event API"
	},
	"host": "localhost:8080",
	"basePath": "/deep/v1/events",
	"paths": {
		"/{eventType}": {
			"post": {
				"tags": [
					"LoanAccountStatusUpdate",
					"LoanAccelerationUpdate",
					"LoanMaturityDateChanged"
				],
				"summary": "Loan Status Update charges Deep event",
				"operationId": "LoanStatusUpdate Using POST",
				"consumes": [
					"application/json"
				],
				"produces": [
					"application/json"
				],
				"parameters": [
					{
						"name": "eventType",
						"in": "path",
						"description": "Unique name of the event",
						"required": true,
						"type": "string"
					},
					{
						"in": "body",
						"name": "event",
						"description": "Event Complex Element",
						"required": true,
						"schema": {
							"$ref": "#/definitions/Event"
						}
					}
				],
				"responses": {
					"200": {
						"description": "Message Published Successfully.",
						"schema": {
							"type": "object",
							"properties": {
								
							}
						}
					},
					"201": {
						"description": "Message Broker has not accepted the message but has been Saved and need resubmission from UI. Please Contact Admin to resubmit"
					},
					"400": {
						"description": "Not a valid Request"
					},
					"500": {
						"description": "Error while sending message to Queue OR Error happened inside producer",
						"schema": {
							"$ref": "#/definitions/Errors"
						}
					},
					"501": {
						"description": "Rule is Not Configured For EventType"
					},
					"502": {
						"description": "Contract is Not Defined",
						"schema": {
							"$ref": "#/definitions/Errors"
						}
					},
					"503": {
						"description": "Contract is defined but payload posted is not valid as per uploaded contract",
						"schema": {
							"$ref": "#/definitions/Errors"
						}
					}
				}
			}
		}
	},
	"definitions": {
		"Error": {
			"description": "Error object.",
			"type": "object",
			"properties": {
				"code": {
					"description": "A specific T-Mobile error code.",
					"type": "string"
				},
				"userMessage": {
					"description": "A human-readable message describing the error.",
					"type": "string"
				},
				"systemMessage": {
					"description": "Backend system error message.",
					"type": "string"
				}
			}
		},
		"Errors": {
			"description": "The array of error objects. As defined in https://tmobileusa.sharepoint.com/teams/EnterpriseServices/ESG%20Standards%20Documents/APIs/T-Mobile%20API%20Design%20Guidelines%20v1.0.docx",
			"type": "object",
			"properties": {
				"errors": {
					"type": "array",
					"items": {
						"$ref": "#/definitions/Error"
					}
				}
			}
		},
		"Event": {
			"type": "object",
			"required": [
				"eventId",
				"eventProducerId",
				"eventTime",
				"eventType",
				"payload"
			],
			"properties": {
				"auditInfo": {
					"$ref": "#/definitions/AuditInfo"
				},
				"eventId": {
					"type": "string",
					"example": "Event-123",
					"description": "Unique identifier for the event generated by the event producer. This element will be searchable in DEEP.io UI"
				},
				"eventProducerId": {
					"type": "string",
					"example": "Producer1",
					"description": "Unique identifier for the producer of the event."
				},
				"eventTime": {
					"type": "string",
					"format": "date-time",
					"example": "2017-03-27T16:20:11.108Z",
					"description": "The date and time that the event occurred."
				},
				"eventType": {
					"type": "string",
					"example": "Activation",
					"description": "Event Name that you want to publish"
				},
				"eventVersion": {
					"type": "string",
					"example": "1.0",
					"description": "version of the event , will be used to distinguish different versions by a consumer"
				},
				"headerReference": {
					"$ref": "#/definitions/HeaderReference"
				},
				"payload": {
					"$ref": "#/definitions/Payload"
				},
				"specifications": {
					"type": "array",
					"example": "null",
					"description": "added for future reference so can ignore.",
					"items": {
						"$ref": "#/definitions/Specifications"
					}
				}
			}
		},
		"AuditInfo": {
			"type": "object",
			"properties": {
				"accountNumber": {
					"type": "string",
					"example": "F123111",
					"description": "The financial account number."
				},
				"batchId": {
					"type": "string",
					"example": "batch0",
					"description": "Identifier of batch job."
				},
				"customerId": {
					"type": "string",
					"example": "Customer1",
					"description": "Uniquely identifies the Customer."
				},
				"iamUniqueId": {
					"type": "string",
					"example": "deepuser",
					"description": "Unique identifier for Identity and Access Management."
				},
				"lineId": {
					"type": "string",
					"example": "1234567890",
					"description": "Uniquely identifies a  line of service."
				},
				"orderId": {
					"type": "string",
					"example": "order1",
					"description": "Identifier of order."
				},
				"phoneNumber": {
					"type": "string",
					"example": "1234567890",
					"description": "The phone number (MSISDN) associated with the line of service."
				},
				"universalLineId": {
					"type": "string",
					"example": "1234567890",
					"description": "ULID - Universal identifier of the LineofService, as defined in Customer Hub. "
				}
			},
			"description": "Audit information used to search specific event. All elements included in this complex element will be searchable in DEEP.io.",
			"example": "null"
		},
		"HeaderReference": {
			"type": "object",
			"properties": {
				"activityId": {
					"type": "string",
					"example": "null",
					"description": "Unique id alphanumeric value generated and sent by the partner to identify every service request uniquely."
				},
				"applicationId": {
					"type": "string",
					"example": "null",
					"description": "Identifies the application, system or platform name that is being used to initiate the transaction  related to this request."
				},
				"applicationUserId": {
					"type": "string",
					"example": "null",
					"description": "NT id of the rep who is managing the transaction from CARE/RETAIL channels. Required for assisted channels, not required for unassisted channels."
				},
				"authCustomerId": {
					"type": "string",
					"example": "null",
					"description": "Customer Id of Tmo customer that is being served/using the application. (Required for non anonymous flows)"
				},
				"authFinancialAccountId": {
					"type": "string",
					"example": "null",
					"description": "Financial Account Id that the customer that is being served/using the application is working on.  (Required for non anonymous flows)"
				},
				"authLineOfServiceId": {
					"type": "string",
					"example": "null",
					"description": "Line of service Id , within the Financial Account of the customer that is being served/using the application is working on. (Required for non anonymous flows)"
				},
				"channelId": {
					"type": "string",
					"example": "null",
					"description": "Identifies the business unit or sales channel."
				},
				"dealerCode": {
					"type": "string",
					"example": "null",
					"description": "Uniquely identifies the dealer/rep user."
				},
				"interactionId": {
					"type": "string",
					"example": "null",
					"description": "Alphanumeric value represent a common transaction id across all calls made from UI, while completing all business activity needs of a particular customer."
				},
				"masterDealerCode": {
					"type": "string",
					"example": "null",
					"description": "Code that uniquely identifies the master dealer for a large retail partner, such as Apple or Costco. Will not be applicable for TMo channels."
				},
				"segmentationId": {
					"type": "string",
					"example": "null",
					"description": "Identifier of customer\ufffd\ufffd\ufffds primary data center."
				},
				"senderId": {
					"type": "string",
					"example": "null",
					"description": "Uniquely identifies an Operation consumer/Partner."
				},
				"sessionId": {
					"type": "string",
					"example": "null",
					"description": "A value populated by the sender used to track the transactions that occur during a session, a long-lasting interaction, managed by the sender. GUID generated by partner. Within one session (sessionid) for Rep/system can serve  multiple customers(interactionid) and in a given customer interation \ufffd\ufffd\ufffd multiple API calls (activityid) will be made to serve the customer. 1 sessionid -> many interactionid 1 interactionid -> many activityid"
				},
				"storeId": {
					"type": "string",
					"example": "null",
					"description": "Unique identifier for the retail store location."
				},
				"terminalId": {
					"type": "string",
					"example": "null",
					"description": "Unique identifier for the retail store terminal."
				},
				"tillId": {
					"type": "string",
					"example": "null",
					"description": "Unique identifier for the retail store terminal till number."
				},
				"timestamp": {
					"type": "string",
					"format": "date-time",
					"example": "null",
					"description": "A timestamp provided by sender to track their workflow."
				},
				"workflowId": {
					"type": "string",
					"example": "null",
					"description": "Name of business purpose/flow, for which the API is being invoked."
				}
			},
			"description": "standard HTTP header elements to be able to deliver them to consumer without interruption",
			"example": "null"
		},
		"Payload": {
			"type": "object",
			"description": "Loan specific information",
			"properties": {
				"loan": {
					"$ref": "#/definitions/Loans"
				}
			}
		},
		"Loans": {
			"type": "object",
			"required": [
				"loanId",
				"accountNumber"
			],
			"properties": {
				"account": {
					"$ref": "#/definitions/LoansAccount"
				},
				"loanId": {
					"type": "string"
				},
				"accountNumber": {
					"type": "string"
				},
				"balance": {
					"description": "Loan amount that is owed",
					"type": "number",
					"format": "double"
				},
				"currentBilledAmount": {
					"type": "number",
					"format": "double"
				},
				"unbilledAmount": {
					"type": "number",
					"format": "double"
				},
				"pastDueIndicator": {
					"type": "boolean"
				},
				"phoneNumber": {
					"description": "Phone number or MSISDN",
					"type": "string"
				},
				"statusCode": {
					"description": "Status code",
					"type": "string"
				},
				"workFlowConditions": {
					"description": "Describes workflow steps that have been completed or awaiting completion such as BalanceTransferComplete,shipmentPending.",
					"type": "array",
					"items": {
						"type": "string"
					}
				},
				"acceleratedAmount": {
					"description": "Unbilled amount and any additional charges on the financing program during customer account cancellation. Once customer pays the accelerated amount, financing program can be closed.",
					"type": "number",
					"format": "double"
				},
				"acceleratedDate": {
					"description": "The date loan will be accelerated",
					"type": "string",
					"format": "date"
				},
				"maturityDate": {
					"description": "The maturity date for the loan",
					"type": "string",
					"format": "date"
				},
				"maturityDateChangeReasonCode": {
					"description": "The reason code for the change in maturity date",
					"type": "string"
				},
				"sourceTransactionId": {
					"description": "Unique Transaction Id from front-end applications",
					"type": "string"
				},
				"sourceSubTransactionId": {
					"description": "Internal line Id created by ordering system NOT displayed to frontends for scenarios such as SHIP-TO",
					"type": "string"
				},
				"sourceTransactionTime": {
					"description": "Timestamp of the source transaction.",
					"type": "string",
					"format": "date-time"
				},
				"agreementNumber": {
					"description": "Unique Identifier for the transaction where customer agrees to the Loan/Lease.",
					"type": "string"
				},
				"purchasedEquipment": {
					"$ref": "#/definitions/PurchasedEquipment"
				}
			}
		},
		"LoansAccount": {
			"type": "object",
			"properties": {
				"commonCustomerId": {
					"type": "string"
				},
				"accountNumber": {
					"description": "The financial account number that identifies the account.",
					"type": "string"
				},
				"universalLineId": {
					"description": "ULID - Universal identifier of the LineofService, as defined in Customer Hub.",
					"type": "string"
				}
			}
		},
		"PurchasedEquipment": {
			"type": "object",
			"properties": {
				"imei": {
					"type": "string",
					"description": "International Mobile Equipment Identifier.  Unique identifier for a mobile device on a network."
				},
				"serialNumber": {
					"type": "string",
					"description": "Serial number of the equipment (device or accessory)."
				},
				"sku": {
					"type": "string",
					"description": "The sku of the device offer variant.  Only relevant if the customer purchased the device from T-Mobile."
				}
			}
		},
		"Specifications": {
			"type": "object",
			"properties": {
				"name": {
					"type": "string",
					"example": "null"
				},
				"value": {
					"type": "string",
					"example": "null"
				}
			},
			"description": "Name value pair."
		}
	}
}