{
  "swagger": "2.0",
  "info": {
    "description": "DEEP.io Publish Event API",
    "version": "1.0",
    "title": "DEEP.io Publish Event API"
  },
  "host": "localhost:8080",
  "basePath": "/deep/v1/events",
  "paths": {
    "/deep/v1/events/{eventType}": {
      "post": {
        "tags": [
          "PasswordRuleChange"
        ],
        "summary": "PasswordRuleChange Deep event",
        "operationId": "PasswordRuleChangeUsingPOST",
        "consumes": [
          "application/json"
        ],
        "produces": [
          "application/json"
        ],
        "parameters": [
          {
            "name": "eventType",
            "in": "path",
            "description": "Unique name of the event",
            "required": true,
            "type": "string"
          },
          {
            "in": "body",
            "name": "event",
            "description": "Event Complex Element",
            "required": true,
            "schema": {
              "$ref": "#/definitions/Event"
            }
          }
        ],
        "responses": {
          "200": {
            "description": "Event Receieved."
          },
          "401": {
            "description": "Unauthorized Access"
          },
          "404": {
            "description": "Not Found"
          },
          "500": {
            "description": "System Error"
          },
          "503": {
            "description": "Service Unavailable"
          }
        }
      }
    }
  },
  "definitions": {
    "Event": {
      "type": "object",
      "required": [
        "eventId",
        "eventType",
        "eventTime",
        "eventProducerId",
        "eventVersion",
        "payload"
      ],
      "properties": {
        "eventId": {
          "description": "Unique identifier for the event generated by the event producer.",
          "type": "string"
        },
        "eventType": {
          "description": "Name of the event.",
          "type": "string"
        },
        "eventTime": {
          "description": "The date and time that the event occurred.",
          "type": "string",
          "format": "date-time"
        },
        "eventProducerId": {
          "description": "Unique identifier for the producer of the event.",
          "type": "string"
        },
        "eventVersion": {
          "description": "Version of the event.",
          "type": "string"
        },
        "specifications": {
          "description": "Name value pair.",
          "type": "array",
          "items": {
            "$ref": "#/definitions/Specifications"
          }
        },
        "auditInfo": {
          "$ref": "#/definitions/AuditInfo"
        },
        "headerReference": {
          "$ref": "#/definitions/HeaderReference"
        },
        "payload": {
          "$ref": "#/definitions/Payload"
        }
      }
    },
    "AuditInfo": {
      "type": "object",
      "properties": {
        "accountNumber": {
          "type": "string"
        },
        "batchId": {
          "type": "string"
        },
        "customerId": {
          "type": "string"
        },
        "iamUniqueId": {
          "type": "string"
        },
        "lineId": {
          "type": "string"
        },
        "orderId": {
          "type": "string"
        },
        "phoneNumber": {
          "type": "string"
        },
        "universalLineId": {
          "type": "string"
        }
      }
    },
    "HeaderReference": {
      "type": "object",
      "properties": {
        "activityId": {
          "type": "string"
        },
        "applicationId": {
          "type": "string"
        },
        "applicationUserId": {
          "type": "string"
        },
        "authCustomerId": {
          "type": "string"
        },
        "authFinancialAccountId": {
          "type": "string"
        },
        "authLineOfServiceId": {
          "type": "string"
        },
        "channelId": {
          "type": "string"
        },
        "dealerCode": {
          "type": "string"
        },
        "interactionId": {
          "type": "string"
        },
        "masterDealerCode": {
          "type": "string"
        },
        "segmentationId": {
          "type": "string"
        },
        "senderId": {
          "type": "string"
        },
        "sessionId": {
          "type": "string"
        },
        "storeId": {
          "type": "string"
        },
        "terminalId": {
          "type": "string"
        },
        "tillId": {
          "type": "string"
        },
        "timestamp": {
          "type": "string"
        },
        "workflowId": {
          "type": "string"
        }
      }
    },
    "Specifications": {
      "type": "object",
      "description": "Name value pair.",
      "properties": {
        "name": {
          "type": "string"
        },
        "value": {
          "type": "string"
        }
      }
    },
    "Payload": {
      "type": "object",
      "properties": {
        "PasswordRuleChange": {
          "$ref": "#/definitions/PasswordRuleChange"
        }
      }
    },
    "PasswordRuleChange": {
      "type": "object",
      "properties": {
        "CreatedBy": {
          "type": "string"
        },
        "AccountType": {
          "type": "string"
        },
        "LettersRequired": {
          "type": "string"
        },
        "MaxLength": {
          "type": "string"
        },
        "MinLength": {
          "type": "string"
        },
        "NumbersRequired": {
          "type": "string"
        },
        "SpecialChar": {
          "type": "string"
        },
        "SpecialCharAllowed": {
          "type": "string"
        }
      }
    }
  }
}