{
  "swagger": "2.0",
  "info": {
    "description": "Samson exception notification to Promo team publish API",
    "version": "1.0",
    "title": "Samson publish event - SamsonExceptionNotified"
  },
  "host": "localhost:8080",
  "basePath": "/deep/v1/events",
  "paths": {
    "/{eventType}": {
      "post": {
        "summary": "This API shall be used to publish exceptions occurring during promo injection",
        "operationId": "publishEvent",
        "consumes": [
          "application/json"
        ],
        "produces": [
          "application/json"
        ],
        "parameters": [
          {
            "name": "eventType",
            "in": "path",
            "description": "SamsonExceptionNotified",
            "required": true,
            "type": "string"
          },
          {
            "in": "body",
            "name": "event",
            "description": "Event Complex Element",
            "required": true,
            "schema": {
              "$ref": "#/definitions/Event"
            }
          }
        ],
        "responses": {
          "200": {
            "description": "Message Published Successfully."
          },
          "400": {
            "description": "Not a valid Request."
          },
          "500": {
            "description": "Error while sending message to Queue OR Error happened inside producer"
          },
          "501": {
            "description": "Rule is Not Configured For EventType"
          },
          "502": {
            "description": "Contract is Not Defined"
          },
          "503": {
            "description": "Contract is defined but payload posted is not valid as per uploaded contract"
          }
        }
      }
    }
  },
  "definitions": {
    "Event": {
      "type": "object",
      "required": [
        "eventId",
        "eventType",
        "eventTime",
        "eventProducerId",
        "payload"
      ],
      "properties": {
        "eventId": {
          "description": "Unique identifier for the event generated by the event producer.",
          "type": "string"
        },
        "eventType": {
          "description": "Name of the event.",
          "type": "string"
        },
        "eventTime": {
          "description": "The date and time that the event occurred.",
          "type": "string",
          "format": "date-time"
        },
        "eventProducerId": {
          "description": "Unique identifier for the producer of the event.",
          "type": "string"
        },
        "payload": {
          "$ref": "#/definitions/Payload"
        }
      }
    },
    "Payload": {
      "type": "object",
      "description": "CIG_DETAIL information.",
      "properties": {
        "recordType": {
          "description": "Type of record.",
          "type": "string"
        },
        "rowNumber": {
          "description": "Record number in file.",
          "type": "string"
        },
        "transactionTime": {
          "description": "Time stamp for transaction",
          "type": "string"
        },
        "transactionType": {
          "description": "Type of transaction.",
          "type": "string"
        },
        "billingAccountNumber": {
          "description": "Unique customer identification id.",
          "type": "string"
        },
        "msisdn": {
          "description": "Susbcriber number",
          "type": "string"
        },
        "transactionDescription": {
          "description": "Description of transaction.",
          "type": "string"
        },
        "transactionAmount": {
          "description": "Amount received in transaction.",
          "type": "number"
        },
        "businessPartnerCd": {
          "description": "Business partner code.",
          "type": "string"
        },
        "errorCode": {
          "description": "Error code due to which record was rejcetd.",
          "type": "string"
        },
        "errorDescription": {
          "description": "Description related to the rror code",
          "type": "string"
        }
      }
    }
  }
}