{
	"swagger": "2.0",
	"info": {
		"description": "The Generic version of DEEP.io Publish Event API",
		"version": "1.0",
		"title": "DEEP.io Publish Event POST API - Generic Version"
	},
	"host": "localhost:8080",
	"basePath": "/deep/v1/events",
	"paths": {
		"/{eventType}": {
			"post": {
				"summary": "This Generic API shall be used by producers to publish events into DEEP.io.",
				"operationId": "publishEvent",
				"consumes": ["application/json"],
				"produces": ["application/json"],
				"parameters": [{
					"name": "eventType",
					"in": "path",
					"description": "Unique name of the event",
					"required": true,
					"type": "string"
				},
				{
					"in": "body",
					"name": "event",
					"description": "Event Complex Element",
					"required": true,
					"schema": {
						"$ref": "#/definitions/Event"
					}
				}],
				"responses": {
					"200": {
						"description": "Message Published Successfully."
					},
					"400": {
						"description": "Not a valid Request."
					},
					"500": {
						"description": "Error while sending message to Queue OR Error happened inside producer"
					},
					"501": {
						"description": "Rule is Not Configured For EventType"
					},
					"502": {
						"description": "Contract is Not Defined"
					},
					"503": {
						"description": "Contract is defined but payload posted is not valid as per uploaded contract"
					}
				}
			}
		}
	},
	"definitions": {
		"Event": {
			"type": "object",
			"required": ["eventId",
			"eventType",
			"eventTime",
			"eventProducerId",
			"payload"],
			"properties": {
				"eventId": {
					"description": "Unique identifier for the event generated by the event producer.",
					"type": "string"
				},
				"eventType": {
					"description": "Name of the event.",
					"type": "string"
				},
				"eventTime": {
					"description": "The date and time that the event occurred.",
					"type": "string",
					"format": "date-time"
				},
				"eventProducerId": {
					"description": "Unique identifier for the producer of the event.",
					"type": "string"
				},
				"eventVersion": {
					"description": "Version of the event.",
					"type": "string"
				},
				"specifications": {
					"description": "Name value pair.",
					"type": "array",
					"items": {
						"$ref": "#/definitions/Specifications"
					}
				},
				"auditInfo": {
					"$ref": "#/definitions/AuditInfo"
				},
				"headerReference": {
					"$ref": "#/definitions/HeaderReference"
				},
				"payload": {
					"$ref": "#/definitions/Payload"
				}
			}
		},
		"AuditInfo": {
			"type": "object",
			"description": "Audit information.",
			"properties": {
				"customerId": {
					"description": "Uniquely identifies the Customer.",
					"type": "string"
				},
				"accountNumber": {
					"description": "The financial account number.",
					"type": "string"
				},
				"universalLineId": {
					"description": "ULID - Universal identifier of the LineofService, as defined in Customer Hub. ",
					"type": "string"
				},
				"lineId": {
					"description": "Uniquely identifies a  line of service.",
					"type": "string"
				},
				"phoneNumber": {
					"description": "The phone number (MSISDN) associated with the line of service.",
					"type": "string"
				},
				"iamUniqueId": {
					"description": "Unique identifier for Identity and Access Management.",
					"type": "string"
				},
				"batchId": {
					"description": "Identifer of batch job.",
					"type": "string"
				},
				"orderId": {
					"description": "Identifier of order.",
					"type": "string"
				}
			}
		},
		"Specifications": {
			"type": "object",
			"description": "Name value pair.",
			"properties": {
				"name": {
					"type": "string"
				},
				"value": {
					"type": "string"
				}
			}
		},
		"HeaderReference": {
			"type": "object",
			"description": "Header Parameters.",
			"properties": {
				"activityId": {
					"type": "string",
					"description": "Unique id alphanumeric value generated and sent by the partner to identify every service request uniquely."
				},
				"applicationId": {
					"type": "string",
					"description": "Identifies the application, system or platform name that is being used to initiate the transaction  related to this request."
				},
				"applicationUserId": {
					"type": "string",
					"description": "NT id of the rep who is managing the transaction from CARE/RETAIL channels. Required for assisted channels, not required for unassisted channels."
				},
				"authCustomerId": {
					"type": "string",
					"description": "Customer Id of Tmo customer that is being served/using the application. (Required for non anonymous flows)"
				},
				"authFinancialAccountId": {
					"type": "string",
					"description": "Financial Account Id that the customer that is being served/using the application is working on.  (Required for non anonymous flows)"
				},
				"authLineOfServiceId": {
					"type": "string",
					"description": "Line of service Id , within the Financial Account of the customer that is being served/using the application is working on. (Required for non anonymous flows)"
				},
				"channelId": {
					"type": "string",
					"description": "Identifies the business unit or sales channel."
				},
				"dealerCode": {
					"type": "string",
					"description": "Uniquely identifies the dealer/rep user."
				},
				"interactionId": {
					"type": "string",
					"description": "Alphanumeric value represent a common transaction id across all calls made from UI, while completing all business activity needs of a particular customer."
				},
				"masterDealerCode": {
					"type": "string",
					"description": "Code that uniquely identifies the master dealer for a large retail partner, such as Apple or Costco. Will not be applicable for TMo channels."
				},
				"segmentationId": {
					"type": "string",
					"description": "Identifier of customer’s primary data center."
				},
				"senderId": {
					"type": "string",
					"description": "Uniquely identifies an Operation consumer/Partner."
				},
				"sessionId": {
					"type": "string",
					"description": "A value populated by the sender used to track the transactions that occur during a session, a long-lasting interaction, managed by the sender. GUID generated by partner. Within one session (sessionid) for Rep/system can serve  multiple customers(interactionid) and in a given customer interation – multiple API calls (activityid) will be made to serve the customer. 1 sessionid -> many interactionid 1 interactionid -> many activityid"
				},
				"storeId": {
					"type": "string",
					"description": "Unique identifier for the retail store location."
				},
				"terminalId": {
					"type": "string",
					"description": "Unique identifier for the retail store terminal."
				},
				"tillId": {
					"type": "string",
					"description": "Unique identifier for the retail store terminal till number."
				},
				"workflowId": {
					"type": "string",
					"description": "Name of business purpose/flow, for which the API is being invoked."
				},
				"timestamp": {
					"description": "A timestamp provided by sender to track their workflow.",
					"type": "string",
					"format": "date-time"
				}
			}
		},
		"Payload": {
			"required": ["MT_PHY_INV"],
			"properties": {
				"MT_PHY_INV": {
					"required": ["SERIAL",
					"HEADER",
					"ITEMS"],
					"properties": {
						"SERIAL": {
							"required": ["ROW"],
							"properties": {
								"ROW": {
									"type": "array",
									"items": {
										"type": "object",
										"properties": {
											"SERIALNUMBER": {
												"type": "string",
												"description": "Unique identifier Serial Number"
											},
											"SKU": {
												"type": "string",
												"description": "Unique identifier Sku ID"
											},
											"SELLABLEFLAG": {
												"type": "string",
												"description": "Sellable flag of Serial Number"
											}
										},
										"required": ["SERIALNUMBER",
										"SKU",
										"SELLABLEFLAG"]
									}
								}
							},
							"type": "object"
						},
						"HEADER": {
							"required": ["PLANT",
							"SESSIONID",
							"STORAGELOCATION",
							"GUID",
							"USERNAME",
							"POSTINGDATE"],
							"properties": {
								"PLANT": {
									"type": "string",
									"description": "Unique identifier for the Store"
								},
								"SESSIONID": {
									"type": "string",
									"description": "Unique identifier for session"
								},
								"STORAGELOCATION": {
									"type": "string",
									"description": "Determines whether it is a storagelocation or returnStorage"
								},
								"GUID": {
									"type": "string",
									"description": "The Unique Identifier"
								},
								"USERNAME": {
									"type": "string",
									"description": "The User Name"
								},
								"POSTINGDATE": {
									"type": "string",
									"description": "The Posting Date of the Event"
								}
							},
							"type": "object"
						},
						"ITEMS": {
							"required": ["ROW"],
							"properties": {
								"ROW": {
									"type": "array",
									"items": {
										"type": "object",
										"required": ["REASONFORMVT",
										"MOV_MAT",
										"COUNT",
										"SKU",
										"VARIANCEINDICATOR"],
										"properties": {
											"REASONFORMVT": {
												"type": "string",
												"description": "The Reason for the Movement"
											},
											"MOV_MAT": {
												"type": "string",
												"description": "The Sku ID of the material "
											},
											"COUNT": {
												"type": "string",
												"description": "The SKU Count "
											},
											"SKU": {
												"type": "string",
												"description": "The Sku ID of the material "
											},
											"VARIANCEINDICATOR": {
												"type": "string",
												"description": "The VarianceIndicator  "
											}
										}
									}
								}
							},
							"type": "object"
						}
					},
					"type": "object"
				}
			}
		}
	}
}