{
    "swagger": "2.0",
    "info": {
        "description": "The first version of DEEP.io Publish Event API for TmoneyAccount event",
        "version": "1.0",
        "title": "DEEP.io Publish Event POST API - TmoneyAccount event"
    },
    "host": "localhost:8080",
    "basePath": "/deep/v1.0/events",
    "paths": {
        "/{eventType}": {
            "post": {
                "summary": "This API shall be used by producers to publish events into DEEP.io.",
                "operationId": "publishEvent",
                "consumes": [
                    "application/json"
                ],
                "produces": [
                    "application/json"
                ],
                "parameters": [{
                        "name": "eventType",
                        "in": "path",
                        "description": "Unique name of the event - TmoneyAccount",
                        "required": true,
                        "type": "string"
                    },
                    {
                        "in": "body",
                        "name": "event",
                        "description": "Event Complex Element",
                        "required": true,
                        "schema": {
                            "$ref": "#/definitions/Event"
                        }
                    }
                ],
                "responses": {
                    "200": {
                        "description": "Event Received."
                    },
                    "401": {
                        "description": "Unauthorized Access"
                    },
                    "404": {
                        "description": "Not Found"
                    },
                    "500": {
                        "description": "System Error"
                    },
                    "503": {
                        "description": "Service Unavailable"
                    }
                }
            }
        }
    },
    "definitions": {
        "Event": {
            "type": "object",
            "required": [
                "eventId",
                "eventType",
                "eventTime",
                "eventProducerId",
                "eventVersion",
                "payload"
            ],
            "properties": {
                "eventId": {
                    "description": "Unique identifier for the event generated by the event producer.",
                    "type": "string"
                },
                "eventType": {
                    "description": "Name of the event.",
                    "type": "string"
                },
                "eventTime": {
                    "description": "The date and time that the event occurred.",
                    "type": "string",
                    "format": "date-time"
                },
                "eventProducerId": {
                    "description": "Unique identifier for the producer of the event.",
                    "type": "string"
                },
                "eventVersion": {
                    "description": "Version of the event.",
                    "type": "string"
                },
                "specifications": {
                    "description": "Name value pair.",
                    "type": "array",
                    "items": {
                        "$ref": "#/definitions/Specifications"
                    }
                },
                "auditInfo": {
                    "$ref": "#/definitions/AuditInfo"
                },
                "headerReference": {
                    "$ref": "#/definitions/HeaderReference"
                },
                "payload": {
                    "$ref": "#/definitions/Payload"
                }
            }
        },
        "AuditInfo": {
            "type": "object",
            "description": "Audit information.",
            "properties": {
                "customerId": {
                    "description": "Uniquely identifies the Customer.",
                    "type": "string"
                },
                "accountNumber": {
                    "description": "The financial account number.",
                    "type": "string"
                },
                "universalLineId": {
                    "description": "ULID - Universal identifier of the Line of Service, as defined in Customer Hub. ",
                    "type": "string"
                },
                "lineId": {
                    "description": "Uniquely identifies a  line of service.",
                    "type": "string"
                },
                "phoneNumber": {
                    "description": "The phone number (MSISDN) associated with the line of service.",
                    "type": "string"
                },
                "iamUniqueId": {
                    "description": "Unique identifier for Identity and Access Management.",
                    "type": "string"
                },
                "batchId": {
                    "description": "Identifier of batch job.",
                    "type": "string"
                },
                "orderId": {
                    "description": "Identifier of order.",
                    "type": "string"
                }
            }
        },
        "Specifications": {
            "type": "object",
            "description": "Name value pair.",
            "properties": {
                "name": {
                    "type": "string"
                },
                "value": {
                    "type": "string"
                }
            }
        },
        "HeaderReference": {
            "type": "object",
            "description": "Header Parameters.",
            "properties": {
                "activityId": {
                    "type": "string",
                    "description": "Unique id alphanumeric value generated and sent by the partner to identify every service request uniquely."
                },
                "applicationId": {
                    "type": "string",
                    "description": "Identifies the application, system or platform name that is being used to initiate the transaction  related to this request."
                },
                "applicationUserId": {
                    "type": "string",
                    "description": "NT id of the rep who is managing the transaction from CARE/RETAIL channels. Required for assisted channels, not required for unassisted channels."
                },
                "authCustomerId": {
                    "type": "string",
                    "description": "Customer Id of Tmo customer that is being served/using the application. (Required for non anonymous flows)"
                },
                "authFinancialAccountId": {
                    "type": "string",
                    "description": "Financial Account Id that the customer that is being served/using the application is working on.  (Required for non anonymous flows)"
                },
                "authLineOfServiceId": {
                    "type": "string",
                    "description": "Line of service Id , within the Financial Account of the customer that is being served/using the application is working on. (Required for non anonymous flows)"
                },
                "channelId": {
                    "type": "string",
                    "description": "Identifies the business unit or sales channel."
                },
                "dealerCode": {
                    "type": "string",
                    "description": "Uniquely identifies the dealer/rep user."
                },
                "interactionId": {
                    "type": "string",
                    "description": "Alphanumeric value represent a common transaction id across all calls made from UI, while completing all business activity needs of a particular customer."
                },
                "masterDealerCode": {
                    "type": "string",
                    "description": "Code that uniquely identifies the master dealer for a large retail partner, such as Apple or Costco. Will not be applicable for TMo channels."
                },
                "segmentationId": {
                    "type": "string",
                    "description": "Identifier of customer’s primary data center."
                },
                "senderId": {
                    "type": "string",
                    "description": "Uniquely identifies an Operation consumer/Partner."
                },
                "sessionId": {
                    "type": "string",
                    "description": "A value populated by the sender used to track the transactions that occur during a session, a long-lasting interaction, managed by the sender. GUID generated by partner. Within one session (sessionId) for Rep/system can serve  multiple customers(interactionId) and in a given customer interaction – multiple API calls (activityId) will be made to serve the customer. 1 sessionId -> many interactionId 1 interactionId -> many activityId"
                },
                "storeId": {
                    "type": "string",
                    "description": "Unique identifier for the retail store location."
                },
                "terminalId": {
                    "type": "string",
                    "description": "Unique identifier for the retail store terminal."
                },
                "tillId": {
                    "type": "string",
                    "description": "Unique identifier for the retail store terminal till number."
                },
                "workflowId": {
                    "type": "string",
                    "description": "Name of business purpose/flow, for which the API is being invoked."
                },
                "timestamp": {
                    "description": "A timestamp provided by sender to track their workflow.",
                    "type": "string",
                    "format": "date-time"
                }
            }
        },
        "Payload": {
            "type": "object",
            "description": "Event specific information that can be modeled using APIv2 or inline elements",
            "properties": {
                "customer": {
                    "$ref": "#/definitions/CustomerInfo"
                }
            }
        },
        "CustomerInfo": {
            "type": "object",
            "required": [
                "firstName",
                "familyName"
            ],
            "properties": {
                "customerId": {
                    "type": "string"
                },
                "tmoId": {
                    "type": "string"
                },
                "title": {
                    "type": "string"
                },
                "suffix": {
                    "type": "string"
                },
                "firstName": {
                    "type": "string"
                },
                "middleName": {
                    "type": "string"
                },
                "familyName": {
                    "type": "string"
                },
                "birthDate": {
                    "type": "string"
                },
                "contactPhoneNumber": {
                    "type": "string"
                },
                "mobilePhoneNumber": {
                    "type": "string"
                },
                "tmoIdEmailAddress": {
                    "type": "string"
                },
                "wirelessCustomerIndicator": {
                    "type": "string"
                },
                "addresses": {
                    "type": "array",
                    "items": {
                        "$ref": "#/definitions/Address"
                    }
                },
                "identifications": {
                    "type": "array",
                    "items": {
                        "$ref": "#/definitions/Identification"
                    }
                },
                "accounts": {
                    "type": "array",
                    "items": {
                        "$ref": "#/definitions/TmoAccount"
                    }
                },
                "bankAccounts": {
                    "type": "array",
                    "items": {
                        "$ref": "#/definitions/BankAccount"
                    }
                }
            }
        },
        "TmoAccount": {
            "type": "object",
            "properties": {
                "accountNumber": {
                    "type": "string"
                },
                "status": {
                    "type": "string"
                },
                "statusReasonCode": {
                    "description": "Indicates the reason for the current Account status.",
                    "type": "string"
                },
                "statusReasonDescription": {
                    "description": "Description translated from reason code.",
                    "type": "string"
                },
                "accountType": {
                    "type": "string"
                },
                "accountSubType": {
                    "type": "string"
                },
                "billingMethod": {
                    "type": "string"
                },
                "autoPaySetup": {
                    "type": "string"
                },
                "services": {
                    "type": "array",
                    "items": {
                        "$ref": "#/definitions/TmoService"
                    }
                },
                "lines": {
                    "type": "array",
                    "items": {
                        "$ref": "#/definitions/TmoSubscriber"
                    }
                }
            }
        },
        "TmoSubscriber": {
            "type": "object",
            "properties": {
                "phoneNumber": {
                    "type": "string"
                },
                "primaryAccountHolder": {
                    "type": "string"
                },
                "lineStatus": {
                    "type": "string"
                },
                "lineActivationDate": {
                    "type": "string",
                    "format": "date"
                },
                "lineStatusReasonCode": {
                    "description": "Indicates the reason for the current Line status.",
                    "type": "string"
                },
                "lineStatusReasonDescription": {
                    "description": "Description translated from reason code.",
                    "type": "string"
                },
                "services": {
                    "type": "array",
                    "items": {
                        "$ref": "#/definitions/TmoService"
                    }
                }
            }
        },
        "TmoService": {
            "type": "object",
            "properties": {
                "soc": {
                    "type": "string"
                },
                "socDescription": {
                    "type": "string"
                },
                "serviceType": {
                    "type": "string"
                },
                "serviceStatus": {
                    "type": "string"
                },
                "effectiveDate": {
                    "type": "string",
                    "format": "date"
                },
                "expirationDate": {
                    "type": "string",
                    "format": "date"
                },
                "isActive": {
                    "type": "boolean"
                },
                "productType": {
                    "type": "string"
                }
            }
        },
        "Address": {
            "type": "object",
            "required": [
                "addressLine1",
                "cityName",
                "stateCode",
                "zip"
            ],
            "properties": {
                "addressType": {
                    "type": "string"
                },
                "addressSource": {
                    "type": "string"
                },
                "addressLine1": {
                    "type": "string"
                },
                "addressLine2": {
                    "type": "string"
                },
                "cityName": {
                    "type": "string"
                },
                "stateCode": {
                    "type": "string"
                },
                "zip": {
                    "type": "string"
                }
            }
        },
        "Identification": {
            "type": "object",
            "required": [
                "idNumber"
            ],
            "properties": {
                "idType": {
                    "type": "string"
                },
                "idNumber": {
                    "type": "string"
                },
                "issuingState": {
                    "type": "string"
                },
                "issuingCountryCode": {
                    "type": "string"
                },
                "issueDate": {
                    "type": "string",
                    "format": "date"
                },
                "expirationDate": {
                    "type": "string",
                    "format": "date"
                }
            }
        },
        "BankDeposit": {
            "type": "object",
            "properties": {
                "action": {
                    "type": "string"
                },
                "accountIdentifier": {
                    "type": "string"
                },
                "amount": {
                    "type": "string"
                },
                "date": {
                    "type": "string",
                    "format": "date-time"
                }
            }
        },
        "BankAccount": {
            "type": "object",
            "properties": {
                "accountCreated": {
                    "type": "string"
                },
                "accountNumToken": {
                    "type": "string"
                },
                "routingNum": {
                    "type": "string"
                },
                "accountType": {
                    "type": "string"
                },
                "interestRate": {
                    "type": "string"
                },
                "nickName": {
                    "type": "string"
                },
                "status": {
                    "type": "string"
                },
                "dateCreated": {
                    "type": "string",
                    "format": "date-time"
                },
                "dateClosed": {
                    "type": "string",
                    "format": "date-time"
                },
                "pmof": {
                    "type": "string"
                },
                "autoPaySetup": {
                    "type": "string"
                },
                "directDeposit": {
                    "$ref": "#/definitions/BankDeposit"
                }
            }
        }
    }
}