{
  "swagger": "2.0",
  "info": {
    "description": "These APIs are used for Billing Account services",
    "version": "1.0.0",
    "title": "B2B Billing Accounts service",
    "contact": {
      "name": "Apigee/Documentation Support",
      "email": "TFB_DTD_API_DEVOPS@T-Mobile.com"
    }
  },
  "host": "core.saas.api.t-mobile.com",
  "basePath": "/b2b-experience/v2/billing-accounts",
  "x-servers": [
    {
      "url": "https://core.saas.api.t-mobile.com",
      "description": "server path"
    }
  ],
  "tags": [
    {
      "name": "Account Billing Service",
      "description": "Account billing APIs"
    },
    {
      "name": "Account Details Service",
      "description": "Account Details APIs"
    },
    {
      "name": "AutoPay Service",
      "description": "AutoPay APIs"
    }
  ],
  "securityDefinitions": {
    "OAuth2": {
      "type": "oauth2",
      "flow": "accessCode",
      "description": "Oauth2 Authorization",
      "authorizationUrl": "https://core.saas.api.t-mobile.com/v1/oauth2/accesstoken?grant_type=client_credentials",
      "tokenUrl": "https://core.saas.api.t-mobile.com/v1/oauth2/accesstoken?grant_type=client_credentials",
      "scopes": {
        "read": "Grants read access"
      }
    }
  },
  "schemes": [
    "https"
  ],
  "consumes": [
    "application/json"
  ],
  "produces": [
    "application/json"
  ],
  "paths": {
    "/{billing-account}/bill-history": {
      "get": {
        "security": [
          {
            "OAuth2": [
              "read"
            ]
          }
        ],
        "description": "The purpose of this API is to get the bill history for the given BAN.",
        "operationId": "getbillHistory",
        "x-api-pattern": "QueryCollection",
        "summary": "Bill History",
        "parameters": [
          {
            "$ref": "#/parameters/Accept"
          },
          {
            "$ref": "#/parameters/Authorization"
          },
          {
            "$ref": "#/parameters/billing-account"
          },
          {
            "$ref": "#/parameters/Cache-Control"
          },
          {
            "name": "cycle-count",
            "in": "query",
            "required": false,
            "type": "number",
            "description": "The number of past bill cycles to be fetched. Default value is 18",
            "minimum": 1,
            "maximum": 18,
            "x-example": "18",
            "pattern": "18"
          }
        ],
        "tags": [
          "Account Billing Service"
        ],
        "responses": {
          "200": {
            "description": "Successful response",
            "headers": {
              "Date": {
                "type": "string",
                "description": "Tue, 11 Sep 2018 20:42:21 GMT",
                "x-example": "Tue, 11 Sep 2018 20:42:21 GMT"
              },
              "Content-Type": {
                "type": "string",
                "description": "application/json;charset=UTF-8",
                "x-example": "application/json;charset=UTF-8"
              },
              "Cache-Control": {
                "type": "string",
                "description": "wether cache control is defined",
                "x-example": "no-cache"
              }
            },
            "schema": {
              "$ref": "#/definitions/BillHistoryResponse"
            },
            "examples": {
              "application/json": {
                "billSequenceNumber": 209,
                "billCycleStartDate": "2018-06-21",
                "billCycleCloseDate": "2018-07-20",
                "billStatus": {
                  "statusCode": "C"
                }
              }
            }
          },
          "400": {
            "description": "Bad Request",
            "schema": {
              "$ref": "#/definitions/ErrorResponse"
            },
            "examples": {
              "application/json": {
                "code": "SECURITY-0017",
                "userMessage": "Requested Resource or Method is not implemented."
              }
            }
          },
          "401": {
            "description": "Unauthorized",
            "schema": {
              "$ref": "#/definitions/ErrorResponse"
            },
            "examples": {
              "application/json": {
                "code": "SECURITY-0017",
                "userMessage": "Requested Resource or Method is not implemented."
              }
            }
          },
          "404": {
            "description": "Resource not found",
            "schema": {
              "$ref": "#/definitions/ErrorResponse"
            },
            "examples": {
              "application/json": {
                "code": "SECURITY-0017",
                "userMessage": "Requested Resource or Method is not implemented."
              }
            }
          },
          "405": {
            "description": "Resource not found",
            "schema": {
              "$ref": "#/definitions/ErrorResponse"
            },
            "examples": {
              "application/json": {
                "code": "SECURITY-0017",
                "userMessage": "Requested Resource or Method is not implemented."
              }
            },
            "headers": {
              "Allow": {
                "type": "string",
                "description": "List of supported methods for URI",
                "x-example": "GET"
              }
            }
          },
          "406": {
            "description": "Resource not found",
            "schema": {
              "$ref": "#/definitions/ErrorResponse"
            },
            "examples": {
              "application/json": {
                "code": "SECURITY-0017",
                "userMessage": "Requested Resource or Method is not implemented."
              }
            }
          },
          "500": {
            "description": "System Error",
            "schema": {
              "$ref": "#/definitions/ErrorResponse"
            },
            "examples": {
              "application/json": {
                "code": "SECURITY-0017",
                "userMessage": "Requested Resource or Method is not implemented."
              }
            }
          },
          "503": {
            "description": "Service unavailable",
            "schema": {
              "$ref": "#/definitions/ErrorResponse"
            },
            "examples": {
              "application/json": {
                "code": "SECURITY-0017",
                "userMessage": "Service Temporarily Unavailable. Please retry after few seconds."
              }
            }
          }
        }
      }
    },
    "/{billing-account}/e911-address": {
      "put": {
        "security": [
          {
            "OAuth2": [
              "read"
            ]
          }
        ],
        "description": "The purpose of this API is to update the e911 address (address used for emergency services) of a subscriber line. The service receives addressline1 (mandatory), addressline2 (optional), city (mandatory), state (required), zipcode (required) as parameters.",
        "operationId": "putEmergency",
        "x-api-pattern": "ReplaceResource",
        "summary": "E911 address details",
        "parameters": [
          {
            "$ref": "#/parameters/Accept"
          },
          {
            "$ref": "#/parameters/Authorization"
          },
          {
            "$ref": "#/parameters/Content-Type"
          },
          {
            "$ref": "#/parameters/billing-account"
          },
          {
            "$ref": "#/parameters/Cache-Control"
          },
          {
            "name": "body",
            "in": "body",
            "description": "Provide Request Payload",
            "required": true,
            "schema": {
              "$ref": "#/definitions/EmergencyRequest"
            }
          }
        ],
        "tags": [
          "Account Details Service"
        ],
        "responses": {
          "200": {
            "description": "Successful response",
            "headers": {
              "Date": {
                "type": "string",
                "description": "Tue, 11 Sep 2018 20:42:21 GMT",
                "x-example": "Tue, 11 Sep 2018 20:42:21 GMT"
              },
              "Content-Type": {
                "type": "string",
                "description": "application/json;charset=UTF-8",
                "x-example": "application/json;charset=UTF-8"
              },
              "Cache-Control": {
                "type": "string",
                "description": "whether cache control is defined",
                "x-example": "no-cache"
              }
            },
            "schema": {
              "$ref": "#/definitions/AddressResponse"
            },
            "examples": {
              "application/json": {
                "status": "",
                "message": "",
                "msisdn": "",
                "ban": "",
                "accountTransactionRefNum": ""
              }
            }
          },
          "400": {
            "description": "Bad Request",
            "schema": {
              "$ref": "#/definitions/ErrorResponse"
            },
            "examples": {
              "application/json": {
                "code": "SECURITY-0017",
                "userMessage": "Requested Resource or Method is not implemented."
              }
            }
          },
          "401": {
            "description": "Unauthorized",
            "schema": {
              "$ref": "#/definitions/ErrorResponse"
            },
            "examples": {
              "application/json": {
                "code": "SECURITY-0017",
                "userMessage": "Requested Resource or Method is not implemented."
              }
            }
          },
          "404": {
            "description": "Resource not found",
            "schema": {
              "$ref": "#/definitions/ErrorResponse"
            },
            "examples": {
              "application/json": {
                "code": "SECURITY-0017",
                "userMessage": "Requested Resource or Method is not implemented."
              }
            }
          },
          "405": {
            "description": "Resource not found",
            "schema": {
              "$ref": "#/definitions/ErrorResponse"
            },
            "examples": {
              "application/json": {
                "code": "SECURITY-0017",
                "userMessage": "Requested Resource or Method is not implemented."
              }
            },
            "headers": {
              "Allow": {
                "type": "string",
                "description": "List of supported methods for URI",
                "x-example": "GET"
              }
            }
          },
          "500": {
            "description": "System Error",
            "schema": {
              "$ref": "#/definitions/ErrorResponse"
            },
            "examples": {
              "application/json": {
                "code": "SECURITY-0017",
                "userMessage": "Requested Resource or Method is not implemented."
              }
            }
          },
          "503": {
            "description": "Service unavailable",
            "schema": {
              "$ref": "#/definitions/ErrorResponse"
            },
            "examples": {
              "application/json": {
                "code": "SECURITY-0017",
                "userMessage": "Service Temporarily Unavailable. Please retry after few seconds."
              }
            }
          }
        }
      }
    },
    "/{billing-account}/ppu-address": {
      "put": {
        "security": [
          {
            "OAuth2": [
              "read"
            ]
          }
        ],
        "description": "The purpose of this API is to update the primary place of use address (ppu address) of a subscriber line. The service receives addressline1 (mandatory), addressline2 (optional), city (mandatory), state (required), zipcode (required) as parameters.",
        "operationId": "putPrimary",
        "x-api-pattern": "ReplaceResource",
        "summary": "PPU address details",
        "parameters": [
          {
            "$ref": "#/parameters/Accept"
          },
          {
            "$ref": "#/parameters/Authorization"
          },
          {
            "$ref": "#/parameters/Content-Type"
          },
          {
            "$ref": "#/parameters/Cache-Control"
          },
          {
            "$ref": "#/parameters/billing-account"
          },
          {
            "name": "body",
            "in": "body",
            "description": "Provide Request Payload",
            "required": true,
            "schema": {
              "$ref": "#/definitions/PrimaryRequest"
            }
          }
        ],
        "tags": [
          "Account Details Service"
        ],
        "responses": {
          "200": {
            "description": "Successful response",
            "headers": {
              "Date": {
                "type": "string",
                "description": "Tue, 11 Sep 2018 20:42:21 GMT",
                "x-example": "Tue, 11 Sep 2018 20:42:21 GMT"
              },
              "Content-Type": {
                "type": "string",
                "description": "application/json;charset=UTF-8",
                "x-example": "application/json;charset=UTF-8"
              },
              "Cache-Control": {
                "type": "string",
                "description": "whether cache control is defined",
                "x-example": "no-cache"
              }
            },
            "schema": {
              "$ref": "#/definitions/AddressResponse"
            },
            "examples": {
              "application/json": {
                "status": "",
                "message": "",
                "msisdn": "",
                "ban": "",
                "accountTransactionRefNum": ""
              }
            }
          },
          "400": {
            "description": "Bad Request",
            "schema": {
              "$ref": "#/definitions/ErrorResponse"
            },
            "examples": {
              "application/json": {
                "code": "SECURITY-0017",
                "userMessage": "Requested Resource or Method is not implemented."
              }
            }
          },
          "401": {
            "description": "Unauthorized",
            "schema": {
              "$ref": "#/definitions/ErrorResponse"
            },
            "examples": {
              "application/json": {
                "code": "SECURITY-0017",
                "userMessage": "Requested Resource or Method is not implemented."
              }
            }
          },
          "404": {
            "description": "Resource not found",
            "schema": {
              "$ref": "#/definitions/ErrorResponse"
            },
            "examples": {
              "application/json": {
                "code": "SECURITY-0017",
                "userMessage": "Requested Resource or Method is not implemented."
              }
            }
          },
          "405": {
            "description": "Resource not found",
            "schema": {
              "$ref": "#/definitions/ErrorResponse"
            },
            "examples": {
              "application/json": {
                "code": "SECURITY-0017",
                "userMessage": "Requested Resource or Method is not implemented."
              }
            },
            "headers": {
              "Allow": {
                "type": "string",
                "description": "List of supported methods for URI",
                "x-example": "GET"
              }
            }
          },
          "500": {
            "description": "System Error",
            "schema": {
              "$ref": "#/definitions/ErrorResponse"
            },
            "examples": {
              "application/json": {
                "code": "SECURITY-0017",
                "userMessage": "Requested Resource or Method is not implemented."
              }
            }
          },
          "503": {
            "description": "Service unavailable",
            "schema": {
              "$ref": "#/definitions/ErrorResponse"
            },
            "examples": {
              "application/json": {
                "code": "SECURITY-0017",
                "userMessage": "Service Temporarily Unavailable. Please retry after few seconds."
              }
            }
          }
        }
      }
    },
    "/{billing-account}/paperless-billing": {
      "post": {
        "security": [
          {
            "OAuth2": [
              "read"
            ]
          }
        ],
        "description": "The purpose of this API is to enroll BAN/MSISDN to paperless billing",
        "operationId": "postPaperless",
        "x-api-pattern": "CreateInCollection",
        "summary": "Enroll paperless billing",
        "parameters": [
          {
            "$ref": "#/parameters/Accept"
          },
          {
            "$ref": "#/parameters/Authorization"
          },
          {
            "$ref": "#/parameters/Content-Type"
          },
          {
            "$ref": "#/parameters/billing-account"
          },
          {
            "$ref": "#/parameters/Cache-Control"
          },
          {
            "name": "body",
            "in": "body",
            "description": "Provide Request Payload",
            "required": true,
            "schema": {
              "$ref": "#/definitions/PaperlessRequest"
            }
          }
        ],
        "tags": [
          "Account Details Service"
        ],
        "responses": {
          "200": {
            "description": "Successful response",
            "headers": {
              "Date": {
                "type": "string",
                "description": "Tue, 11 Sep 2018 20:42:21 GMT",
                "x-example": "Tue, 11 Sep 2018 20:42:21 GMT"
              },
              "Content-Type": {
                "type": "string",
                "description": "application/json;charset=UTF-8",
                "x-example": "application/json;charset=UTF-8"
              },
              "Cache-Control": {
                "type": "string",
                "description": "whether cache control is defined",
                "x-example": "no-cache"
              }
            },
            "schema": {
              "$ref": "#/definitions/PaperlessResponse"
            },
            "examples": {
              "application/json": {
                "code": "",
                "message": "",
                "accountTransactionRefNum": ""
              }
            }
          },
          "400": {
            "description": "Bad Request",
            "schema": {
              "$ref": "#/definitions/ErrorResponse"
            },
            "examples": {
              "application/json": {
                "code": "SECURITY-0017",
                "userMessage": "Requested Resource or Method is not implemented."
              }
            }
          },
          "401": {
            "description": "Unauthorized",
            "schema": {
              "$ref": "#/definitions/ErrorResponse"
            },
            "examples": {
              "application/json": {
                "code": "SECURITY-0017",
                "userMessage": "Requested Resource or Method is not implemented."
              }
            }
          },
          "404": {
            "description": "Resource not found",
            "schema": {
              "$ref": "#/definitions/ErrorResponse"
            },
            "examples": {
              "application/json": {
                "code": "SECURITY-0017",
                "userMessage": "Requested Resource or Method is not implemented."
              }
            }
          },
          "405": {
            "description": "Resource not found",
            "schema": {
              "$ref": "#/definitions/ErrorResponse"
            },
            "examples": {
              "application/json": {
                "code": "SECURITY-0017",
                "userMessage": "Requested Resource or Method is not implemented."
              }
            },
            "headers": {
              "Allow": {
                "type": "string",
                "description": "List of supported methods for URI",
                "x-example": "GET"
              }
            }
          },
          "406": {
            "description": "Resource not found",
            "schema": {
              "$ref": "#/definitions/ErrorResponse"
            },
            "examples": {
              "application/json": {
                "code": "SECURITY-0017",
                "userMessage": "Requested Resource or Method is not implemented."
              }
            }
          },
          "500": {
            "description": "System Error",
            "schema": {
              "$ref": "#/definitions/ErrorResponse"
            },
            "examples": {
              "application/json": {
                "code": "SECURITY-0017",
                "userMessage": "Requested Resource or Method is not implemented."
              }
            }
          },
          "503": {
            "description": "Service unavailable",
            "schema": {
              "$ref": "#/definitions/ErrorResponse"
            },
            "examples": {
              "application/json": {
                "code": "SECURITY-0017",
                "userMessage": "Service Temporarily Unavailable. Please retry after few seconds."
              }
            }
          }
        }
      },
      "put": {
        "security": [
          {
            "OAuth2": [
              "read"
            ]
          }
        ],
        "description": "The purpose of this API is to update delivery method and/or email for paperless billing. Only update to delivery method and/or email is allowed",
        "operationId": "putPaperless",
        "x-api-pattern": "ReplaceResource",
        "summary": "Update paperless billing",
        "parameters": [
          {
            "$ref": "#/parameters/Accept"
          },
          {
            "$ref": "#/parameters/Authorization"
          },
          {
            "$ref": "#/parameters/Content-Type"
          },
          {
            "$ref": "#/parameters/billing-account"
          },
          {
            "$ref": "#/parameters/Cache-Control"
          },
          {
            "name": "body",
            "in": "body",
            "description": "Provide Request Payload",
            "required": true,
            "schema": {
              "$ref": "#/definitions/PaperlessRequest"
            }
          }
        ],
        "tags": [
          "Account Details Service"
        ],
        "responses": {
          "200": {
            "description": "Successful response",
            "headers": {
              "Date": {
                "type": "string",
                "description": "Tue, 11 Sep 2018 20:42:21 GMT",
                "x-example": "Tue, 11 Sep 2018 20:42:21 GMT"
              },
              "Content-Type": {
                "type": "string",
                "description": "application/json;charset=UTF-8",
                "x-example": "application/json;charset=UTF-8"
              },
              "Cache-Control": {
                "type": "string",
                "description": "whether cache control is defined",
                "x-example": "no-cache"
              }
            },
            "schema": {
              "$ref": "#/definitions/PaperlessResponse"
            },
            "examples": {
              "application/json": {
                "code": "",
                "message": "",
                "accountTransactionRefNum": ""
              }
            }
          },
          "400": {
            "description": "Bad Request",
            "schema": {
              "$ref": "#/definitions/ErrorResponse"
            },
            "examples": {
              "application/json": {
                "code": "SECURITY-0017",
                "userMessage": "Requested Resource or Method is not implemented."
              }
            }
          },
          "401": {
            "description": "Unauthorized",
            "schema": {
              "$ref": "#/definitions/ErrorResponse"
            },
            "examples": {
              "application/json": {
                "code": "SECURITY-0017",
                "userMessage": "Requested Resource or Method is not implemented."
              }
            }
          },
          "404": {
            "description": "Resource not found",
            "schema": {
              "$ref": "#/definitions/ErrorResponse"
            },
            "examples": {
              "application/json": {
                "code": "SECURITY-0017",
                "userMessage": "Requested Resource or Method is not implemented."
              }
            }
          },
          "405": {
            "description": "Resource not found",
            "schema": {
              "$ref": "#/definitions/ErrorResponse"
            },
            "examples": {
              "application/json": {
                "code": "SECURITY-0017",
                "userMessage": "Requested Resource or Method is not implemented."
              }
            },
            "headers": {
              "Allow": {
                "type": "string",
                "description": "List of supported methods for URI",
                "x-example": "GET"
              }
            }
          },
          "500": {
            "description": "System Error",
            "schema": {
              "$ref": "#/definitions/ErrorResponse"
            },
            "examples": {
              "application/json": {
                "code": "SECURITY-0017",
                "userMessage": "Requested Resource or Method is not implemented."
              }
            }
          },
          "503": {
            "description": "Service unavailable",
            "schema": {
              "$ref": "#/definitions/ErrorResponse"
            },
            "examples": {
              "application/json": {
                "code": "SECURITY-0017",
                "userMessage": "Service Temporarily Unavailable. Please retry after few seconds."
              }
            }
          }
        }
      },
      "delete": {
        "security": [
          {
            "OAuth2": [
              "read"
            ]
          }
        ],
        "description": "The purpose of this API is to unenroll BAN/MSISDN from paperless billing.",
        "operationId": "removePaperless",
        "x-api-pattern": "RemoveResource",
        "summary": "Unenroll paperless billing",
        "parameters": [
          {
            "$ref": "#/parameters/Accept"
          },
          {
            "$ref": "#/parameters/Authorization"
          },
          {
            "$ref": "#/parameters/Content-Type"
          },
          {
            "$ref": "#/parameters/billing-account"
          },
          {
            "$ref": "#/parameters/Cache-Control"
          },
          {
            "name": "body",
            "in": "body",
            "description": "Provide Request Payload",
            "required": true,
            "schema": {
              "$ref": "#/definitions/RemoveRequest"
            }
          }
        ],
        "tags": [
          "Account Details Service"
        ],
        "responses": {
          "200": {
            "description": "Successful response",
            "headers": {
              "Date": {
                "type": "string",
                "description": "Tue, 11 Sep 2018 20:42:21 GMT",
                "x-example": "Tue, 11 Sep 2018 20:42:21 GMT"
              },
              "Content-Type": {
                "type": "string",
                "description": "application/json;charset=UTF-8",
                "x-example": "application/json;charset=UTF-8"
              },
              "Cache-Control": {
                "type": "string",
                "description": "whether cache control is defined",
                "x-example": "no-cache"
              }
            },
            "schema": {
              "$ref": "#/definitions/PaperlessResponse"
            },
            "examples": {
              "application/json": {
                "code": "",
                "message": "",
                "accountTransactionRefNum": ""
              }
            }
          },
          "400": {
            "description": "Bad Request",
            "schema": {
              "$ref": "#/definitions/ErrorResponse"
            },
            "examples": {
              "application/json": {
                "code": "SECURITY-0017",
                "userMessage": "Requested Resource or Method is not implemented."
              }
            }
          },
          "401": {
            "description": "Unauthorized",
            "schema": {
              "$ref": "#/definitions/ErrorResponse"
            },
            "examples": {
              "application/json": {
                "code": "SECURITY-0017",
                "userMessage": "Requested Resource or Method is not implemented."
              }
            }
          },
          "404": {
            "description": "Resource not found",
            "schema": {
              "$ref": "#/definitions/ErrorResponse"
            },
            "examples": {
              "application/json": {
                "code": "SECURITY-0017",
                "userMessage": "Requested Resource or Method is not implemented."
              }
            }
          },
          "405": {
            "description": "Resource not found",
            "schema": {
              "$ref": "#/definitions/ErrorResponse"
            },
            "examples": {
              "application/json": {
                "code": "SECURITY-0017",
                "userMessage": "Requested Resource or Method is not implemented."
              }
            },
            "headers": {
              "Allow": {
                "type": "string",
                "description": "List of supported methods for URI",
                "x-example": "GET"
              }
            }
          },
          "500": {
            "description": "System Error",
            "schema": {
              "$ref": "#/definitions/ErrorResponse"
            },
            "examples": {
              "application/json": {
                "code": "SECURITY-0017",
                "userMessage": "Requested Resource or Method is not implemented."
              }
            }
          },
          "503": {
            "description": "Service unavailable",
            "schema": {
              "$ref": "#/definitions/ErrorResponse"
            },
            "examples": {
              "application/json": {
                "code": "SECURITY-0017",
                "userMessage": "Service Temporarily Unavailable. Please retry after few seconds."
              }
            }
          }
        }
      }
    },
    "/{billing-account}/billing-address": {
      "put": {
        "security": [
          {
            "OAuth2": [
              "read"
            ]
          }
        ],
        "description": "The purpose of this API is to update the billing-address.",
        "operationId": "putAddress",
        "x-api-pattern": "ReplaceResource",
        "summary": "Billing address details",
        "parameters": [
          {
            "$ref": "#/parameters/Accept"
          },
          {
            "$ref": "#/parameters/Authorization"
          },
          {
            "$ref": "#/parameters/Content-Type"
          },
          {
            "$ref": "#/parameters/Cache-Control"
          },
          {
            "$ref": "#/parameters/billing-account"
          },
          {
            "name": "body",
            "in": "body",
            "description": "Provide Request Payload",
            "required": true,
            "schema": {
              "$ref": "#/definitions/AddressRequest"
            }
          }
        ],
        "tags": [
          "Account Details Service"
        ],
        "responses": {
          "200": {
            "description": "Successful response",
            "headers": {
              "Date": {
                "type": "string",
                "description": "Tue, 11 Sep 2018 20:42:21 GMT",
                "x-example": "Tue, 11 Sep 2018 20:42:21 GMT"
              },
              "Content-Type": {
                "type": "string",
                "description": "application/json;charset=UTF-8",
                "x-example": "application/json;charset=UTF-8"
              },
              "Cache-Control": {
                "type": "string",
                "description": "whether cache control is defined",
                "x-example": "no-cache"
              }
            },
            "schema": {
              "$ref": "#/definitions/BillingAddressResponse"
            },
            "examples": {
              "application/json": {
                "status": "",
                "message": "",
                "ban": "",
                "accountTransactionRefNum": ""
              }
            }
          },
          "400": {
            "description": "Bad Request",
            "schema": {
              "$ref": "#/definitions/ErrorResponse"
            },
            "examples": {
              "application/json": {
                "code": "SECURITY-0017",
                "userMessage": "Requested Resource or Method is not implemented."
              }
            }
          },
          "401": {
            "description": "Unauthorized",
            "schema": {
              "$ref": "#/definitions/ErrorResponse"
            },
            "examples": {
              "application/json": {
                "code": "SECURITY-0017",
                "userMessage": "Requested Resource or Method is not implemented."
              }
            }
          },
          "404": {
            "description": "Resource not found",
            "schema": {
              "$ref": "#/definitions/ErrorResponse"
            },
            "examples": {
              "application/json": {
                "code": "SECURITY-0017",
                "userMessage": "Requested Resource or Method is not implemented."
              }
            }
          },
          "405": {
            "description": "Resource not found",
            "schema": {
              "$ref": "#/definitions/ErrorResponse"
            },
            "examples": {
              "application/json": {
                "code": "SECURITY-0017",
                "userMessage": "Requested Resource or Method is not implemented."
              }
            },
            "headers": {
              "Allow": {
                "type": "string",
                "description": "List of supported methods for URI",
                "x-example": "GET"
              }
            }
          },
          "500": {
            "description": "System Error",
            "schema": {
              "$ref": "#/definitions/ErrorResponse"
            },
            "examples": {
              "application/json": {
                "code": "SECURITY-0017",
                "userMessage": "Requested Resource or Method is not implemented."
              }
            }
          },
          "503": {
            "description": "Service unavailable",
            "schema": {
              "$ref": "#/definitions/ErrorResponse"
            },
            "examples": {
              "application/json": {
                "code": "SECURITY-0017",
                "userMessage": "Service Temporarily Unavailable. Please retry after few seconds."
              }
            }
          }
        }
      }
    },
    "/{billing-account}/password-change": {
      "put": {
        "security": [
          {
            "OAuth2": [
              "read"
            ]
          }
        ],
        "description": "The purpose of this API is to update the password.",
        "operationId": "putPassword",
        "x-api-pattern": "ReplaceResource",
        "summary": "Password Change",
        "parameters": [
          {
            "$ref": "#/parameters/Accept"
          },
          {
            "$ref": "#/parameters/Authorization"
          },
          {
            "$ref": "#/parameters/Content-Type"
          },
          {
            "$ref": "#/parameters/Cache-Control"
          },
          {
            "$ref": "#/parameters/billing-account"
          },
          {
            "name": "body",
            "in": "body",
            "description": "Provide Request Payload",
            "required": true,
            "schema": {
              "$ref": "#/definitions/PasswordRequest"
            }
          }
        ],
        "tags": [
          "Account Details Service"
        ],
        "responses": {
          "200": {
            "description": "Successful response",
            "headers": {
              "Date": {
                "type": "string",
                "description": "Tue, 11 Sep 2018 20:42:21 GMT",
                "x-example": "Tue, 11 Sep 2018 20:42:21 GMT"
              },
              "Content-Type": {
                "type": "string",
                "description": "application/json;charset=UTF-8",
                "x-example": "application/json;charset=UTF-8"
              },
              "Cache-Control": {
                "type": "string",
                "description": "whether cache control is defined",
                "x-example": "no-cache"
              }
            },
            "schema": {
              "$ref": "#/definitions/StatusResponse"
            },
            "examples": {
              "application/json": {
                "accountTransactionRefNum": "",
                "status": "",
                "message": ""
              }
            }
          },
          "400": {
            "description": "Bad Request",
            "schema": {
              "$ref": "#/definitions/ErrorResponse"
            },
            "examples": {
              "application/json": {
                "code": "SECURITY-0017",
                "userMessage": "Requested Resource or Method is not implemented."
              }
            }
          },
          "401": {
            "description": "Unauthorized",
            "schema": {
              "$ref": "#/definitions/ErrorResponse"
            },
            "examples": {
              "application/json": {
                "code": "SECURITY-0017",
                "userMessage": "Requested Resource or Method is not implemented."
              }
            }
          },
          "404": {
            "description": "Resource not found",
            "schema": {
              "$ref": "#/definitions/ErrorResponse"
            },
            "examples": {
              "application/json": {
                "code": "SECURITY-0017",
                "userMessage": "Requested Resource or Method is not implemented."
              }
            }
          },
          "405": {
            "description": "Resource not found",
            "schema": {
              "$ref": "#/definitions/ErrorResponse"
            },
            "examples": {
              "application/json": {
                "code": "SECURITY-0017",
                "userMessage": "Requested Resource or Method is not implemented."
              }
            },
            "headers": {
              "Allow": {
                "type": "string",
                "description": "List of supported methods for URI",
                "x-example": "GET"
              }
            }
          },
          "500": {
            "description": "System Error",
            "schema": {
              "$ref": "#/definitions/ErrorResponse"
            },
            "examples": {
              "application/json": {
                "code": "SECURITY-0017",
                "userMessage": "Requested Resource or Method is not implemented."
              }
            }
          },
          "503": {
            "description": "Service unavailable",
            "schema": {
              "$ref": "#/definitions/ErrorResponse"
            },
            "examples": {
              "application/json": {
                "code": "SECURITY-0017",
                "userMessage": "Service Temporarily Unavailable. Please retry after few seconds."
              }
            }
          }
        }
      }
    },
    "/{billing-account}/scheduled-payment": {
      "delete": {
        "security": [
          {
            "OAuth2": [
              "read"
            ]
          }
        ],
        "description": "The purpose of this API is process the request to delete a scheduled one-time payment for a BAN (pay bill). The API provides ability to delete a scheduled one-time payment for the billing account for a date in the future so that bill payment can be managed.",
        "operationId": "removePayment",
        "x-api-pattern": "RemoveResource",
        "summary": "Remove schedule payment",
        "parameters": [
          {
            "$ref": "#/parameters/Accept"
          },
          {
            "$ref": "#/parameters/Authorization"
          },
          {
            "$ref": "#/parameters/Content-Type"
          },
          {
            "$ref": "#/parameters/billing-account"
          },
          {
            "$ref": "#/parameters/Cache-Control"
          },
          {
            "name": "body",
            "in": "body",
            "description": "Provide Request Payload",
            "required": true,
            "schema": {
              "$ref": "#/definitions/RemovePaymentRequest"
            }
          }
        ],
        "tags": [
          "AutoPay Service"
        ],
        "responses": {
          "200": {
            "description": "Successful response",
            "headers": {
              "Date": {
                "type": "string",
                "description": "Tue, 11 Sep 2018 20:42:21 GMT",
                "x-example": "Tue, 11 Sep 2018 20:42:21 GMT"
              },
              "Content-Type": {
                "type": "string",
                "description": "application/json;charset=UTF-8",
                "x-example": "application/json;charset=UTF-8"
              },
              "Cache-Control": {
                "type": "string",
                "description": "whether cache control is defined",
                "x-example": "no-cache"
              }
            },
            "schema": {
              "$ref": "#/definitions/StatusResponse"
            },
            "examples": {
              "application/json": {
                "status": "",
                "message": "",
                "accountTransactionRefNum": ""
              }
            }
          },
          "400": {
            "description": "Bad Request",
            "schema": {
              "$ref": "#/definitions/ErrorResponse"
            },
            "examples": {
              "application/json": {
                "code": "SECURITY-0017",
                "userMessage": "Requested Resource or Method is not implemented."
              }
            }
          },
          "401": {
            "description": "Unauthorized",
            "schema": {
              "$ref": "#/definitions/ErrorResponse"
            },
            "examples": {
              "application/json": {
                "code": "SECURITY-0017",
                "userMessage": "Requested Resource or Method is not implemented."
              }
            }
          },
          "404": {
            "description": "Resource not found",
            "schema": {
              "$ref": "#/definitions/ErrorResponse"
            },
            "examples": {
              "application/json": {
                "code": "SECURITY-0017",
                "userMessage": "Requested Resource or Method is not implemented."
              }
            }
          },
          "405": {
            "description": "Resource not found",
            "schema": {
              "$ref": "#/definitions/ErrorResponse"
            },
            "examples": {
              "application/json": {
                "code": "SECURITY-0017",
                "userMessage": "Requested Resource or Method is not implemented."
              }
            },
            "headers": {
              "Allow": {
                "type": "string",
                "description": "List of supported methods for URI",
                "x-example": "GET"
              }
            }
          },
          "500": {
            "description": "System Error",
            "schema": {
              "$ref": "#/definitions/ErrorResponse"
            },
            "examples": {
              "application/json": {
                "code": "SECURITY-0017",
                "userMessage": "Requested Resource or Method is not implemented."
              }
            }
          },
          "503": {
            "description": "Service unavailable",
            "schema": {
              "$ref": "#/definitions/ErrorResponse"
            },
            "examples": {
              "application/json": {
                "code": "SECURITY-0017",
                "userMessage": "Service Temporarily Unavailable. Please retry after few seconds."
              }
            }
          }
        }
      }
    }
  },
  "parameters": {
    "Accept": {
      "name": "Accept",
      "in": "header",
      "description": "+   The request header must contain the Accept element.\n+   Accept header is used by HTTP clients to tell the server what content types they'll accept\n+   The default value is *'application/json'*.",
      "required": true,
      "type": "string",
      "x-example": "application/json",
      "pattern": "application/json"
    },
    "Cache-Control": {
      "name": "Cache-Control",
      "in": "header",
      "description": "+   no-cache",
      "required": false,
      "type": "string",
      "x-example": "no-cache",
      "pattern": "no-cache"
    },
    "Content-Type": {
      "name": "Content-Type",
      "in": "header",
      "required": true,
      "description": "\n+   The request header must contain the Content-Type element. \n\n\n+ In HTTP requests, API clients must specify the format in which the\n      data is submitted.\n\n\n\n+   The default value is *'application/json'*.",
      "type": "string",
      "x-example": "application/json",
      "pattern": "application/json"
    },
    "Authorization": {
      "name": "Authorization",
      "in": "header",
      "description": "+   The request header must contain a valid access token generated by APIGEE.\n+   The access token is environment specific and is generated dynamically.\n+   It is mandatory to be passed in the request parameter for authentication.\n+   The sample Value is *'EGQ94pYxAzk2JRmSoW1GTZifPAJI'*.",
      "required": true,
      "type": "string",
      "x-example": "EGQ94pYxAzk2JRmSoW1GTZifPAJI",
      "pattern": "EGQ94pYxAzk2JRmSoW1GTZifPAJI"
    },
    "billing-account": {
      "name": "billing-account",
      "in": "path",
      "required": true,
      "description": "+ BAN is a unique 9 digit number.",
      "type": "string",
      "x-example": "984512345",
      "pattern": "984512345"
    }
  },
  "definitions": {
    "RemovePaymentRequest": {
      "type": "object",
      "description": "Provide delete payment request details",
      "properties": {
        "trace": {
          "type": "object",
          "description": "Provide trace details",
          "properties": {
            "logonId": {
              "type": "string",
              "description": "Provide logonId"
            },
            "email": {
              "type": "string",
              "description": "Provide email"
            }
          }
        }
      }
    },
    "PasswordRequest": {
      "type": "object",
      "description": "Provide password change request",
      "properties": {
        "orgId": {
          "type": "string",
          "description": "Provide orgId"
        },
        "oldPassword": {
          "type": "string",
          "description": "Provide oldPassword"
        },
        "newPassword": {
          "type": "string",
          "description": "Provide newPassword"
        },
        "logonId": {
          "type": "string",
          "description": "Provide logonId"
        },
        "email": {
          "type": "string",
          "description": "Provide email"
        }
      }
    },
    "StatusResponse": {
      "type": "object",
      "description": "Return Password change response",
      "properties": {
        "accountTransactionRefNum": {
          "type": "string",
          "description": "Return accountTransactionRefNum"
        },
        "status": {
          "type": "string",
          "description": "Return status"
        },
        "message": {
          "type": "string",
          "description": "Return message"
        }
      }
    },
    "RemoveRequest": {
      "type": "object",
      "description": "Unenroll Paperless Response",
      "properties": {
        "msisdn": {
          "type": "string",
          "description": "Provide msisdn"
        },
        "email": {
          "type": "string",
          "description": "Provide email"
        },
        "billingEmail": {
          "type": "string",
          "description": "Provide billingEmail"
        },
        "logonId": {
          "type": "string",
          "description": "Provide logonId"
        }
      }
    },
    "PaperlessResponse": {
      "type": "object",
      "description": "PaperlessResponse",
      "properties": {
        "code": {
          "type": "string",
          "description": "Return code"
        },
        "message": {
          "type": "string",
          "description": "Return message"
        },
        "accountTransactionRefNum": {
          "type": "string",
          "description": "accountTransactionRefNum"
        }
      }
    },
    "PaperlessRequest": {
      "type": "object",
      "description": "PaperlessRequest",
      "properties": {
        "msisdn": {
          "type": "string",
          "description": "Provide msisdn"
        },
        "email": {
          "type": "string",
          "description": "Provide email"
        },
        "deliveryMethod": {
          "type": "string",
          "description": "Provide deliveryMethod"
        },
        "billingEmail": {
          "type": "string",
          "description": "Provide billingEmail"
        },
        "logonId": {
          "type": "string",
          "description": "Provide logonId"
        },
        "dealerCode": {
          "type": "string",
          "description": "Provide dealerCode"
        }
      }
    },
    "EmergencyRequest": {
      "type": "object",
      "description": "ppu address request",
      "properties": {
        "orgId": {
          "type": "string",
          "description": "Provide orgId"
        },
        "logonId": {
          "type": "string",
          "description": "Provide logonId"
        },
        "email": {
          "type": "string",
          "description": "Provide email"
        },
        "newE911Address": {
          "type": "object",
          "description": "Provide newPPUAddress",
          "properties": {
            "address1": {
              "type": "string",
              "description": "Provide address1"
            },
            "address2": {
              "type": "string",
              "description": "Provide address2"
            },
            "city": {
              "type": "string",
              "description": "Provide city"
            },
            "state": {
              "type": "string",
              "description": "Provide state"
            },
            "zipCode": {
              "type": "string",
              "description": "Provide zipCode"
            },
            "addressId": {
              "type": "string",
              "description": "Provide addressId"
            },
            "linkSeqNbr": {
              "type": "string",
              "description": "Provide linkSeqNbr"
            }
          }
        }
      }
    },
    "AddressRequest": {
      "type": "object",
      "description": "ppu address request",
      "properties": {
        "orgId": {
          "type": "string",
          "description": "Provide orgId"
        },
        "msisdn": {
          "type": "string",
          "description": "Provide msisdn"
        },
        "logonId": {
          "type": "string",
          "description": "Provide logonId"
        },
        "email": {
          "type": "string",
          "description": "Provide email"
        },
        "newBillingAddress": {
          "type": "object",
          "description": "Provide newBillingAddress",
          "properties": {
            "address1": {
              "type": "string",
              "description": "Provide address1"
            },
            "address2": {
              "type": "string",
              "description": "Provide address2"
            },
            "city": {
              "type": "string",
              "description": "Provide city"
            },
            "state": {
              "type": "string",
              "description": "Provide state"
            },
            "zipCode": {
              "type": "string",
              "description": "Provide zipCode"
            },
            "addressId": {
              "type": "string",
              "description": "Provide addressId"
            },
            "linkSeqNbr": {
              "type": "string",
              "description": "Provide linkSeqNbr"
            }
          }
        }
      }
    },
    "AddressResponse": {
      "type": "object",
      "description": "Return address response",
      "properties": {
        "status": {
          "type": "string",
          "description": "Return status"
        },
        "message": {
          "type": "string",
          "description": "Return message"
        },
        "msisdn": {
          "type": "string",
          "description": "Return msisdn"
        },
        "ban": {
          "type": "string",
          "description": "Return ban"
        },
        "accountTransactionRefNum": {
          "type": "string",
          "description": "Return accountTransactionRefNum"
        }
      }
    },
    "BillingAddressResponse": {
      "type": "object",
      "description": "Return address response",
      "properties": {
        "status": {
          "type": "string",
          "description": "Return status"
        },
        "message": {
          "type": "string",
          "description": "Return message"
        },
        "ban": {
          "type": "string",
          "description": "Return ban"
        },
        "accountTransactionRefNum": {
          "type": "string",
          "description": "Return accountTransactionRefNum"
        }
      }
    },
    "PrimaryRequest": {
      "type": "object",
      "description": "ppu address request",
      "properties": {
        "orgId": {
          "type": "string",
          "description": "Provide orgId"
        },
        "logonId": {
          "type": "string",
          "description": "Provide logonId"
        },
        "email": {
          "type": "string",
          "description": "Provide email"
        },
        "newPPUAddress": {
          "type": "object",
          "description": "Provide newPPUAddress",
          "properties": {
            "address1": {
              "type": "string",
              "description": "Provide address1"
            },
            "address2": {
              "type": "string",
              "description": "Provide address2"
            },
            "city": {
              "type": "string",
              "description": "Provide city"
            },
            "state": {
              "type": "string",
              "description": "Provide state"
            },
            "zipCode": {
              "type": "string",
              "description": "Provide zipCode"
            },
            "addressId": {
              "type": "string",
              "description": "Provide addressId"
            },
            "linkSeqNbr": {
              "type": "string",
              "description": "Provide linkSeqNbr"
            }
          }
        }
      }
    },
    "BillHistoryResponse": {
      "type": "object",
      "description": "Return BillHistoryResponse",
      "properties": {
        "billHistory": {
          "type": "array",
          "description": "Return bill history",
          "items": {
            "type": "object",
            "description": "Return items",
            "properties": {
              "billSequenceNumber": {
                "type": "string",
                "description": "Sequence number of the bill"
              },
              "billCycleStartDate": {
                "type": "string",
                "description": "Start date of the bill cycle"
              },
              "billCycleCloseDate": {
                "type": "string",
                "description": "End date of bill cycle"
              },
              "accountBillId": {
                "type": "string",
                "description": "Returns the accoutnt bill Id"
              },
              "currentBalanceAmount": {
                "type": "string",
                "description": "Returns the current balance amount for charge types"
              },
              "summaryBillStatus": {
                "type": "string",
                "description": "+ Status of summary bill requested\n\n+ Possible values are NOT REQUESTED/PENDING/READY"
              },
              "detailBillStatus": {
                "type": "string",
                "description": "+ Status of detail bill requested\n\n+ Possible values are NOT REQUESTED/PENDING/READY"
              },
              "billType": {
                "type": "string",
                "description": "+ Specifies type of the bill"
              },
              "cycleMonth": {
                "type": "integer",
                "description": "+ Returns the bill cycle month"
              },
              "cycleYear": {
                "type": "integer",
                "description": "+ Returns the bill cycle year"
              }
            }
          }
        },
        "status": {
          "type": "string",
          "description": "+ Status of the response"
        },
        "message": {
          "type": "string",
          "description": "+ Message indicating status of the response"
        }
      }
    },
    "ErrorResponse": {
      "type": "object",
      "description": "error response",
      "properties": {
        "code": {
          "type": "string",
          "description": "Provides the error code",
          "x-example": "ATWRK_ORDSVC_ERR_50205"
        },
        "userMessage": {
          "type": "string",
          "description": "Provides the error message",
          "x-example": "Cannot process request . Re-try required"
        }
      }
    }
  }
}
