{
  "swagger": "2.0",
  "info": {
    "title": "simResourceService",
    "description": "This service support the use of the simAging resource. an user defined resource",
    "version": "1.0.0",
    "x-createdBy": {
      "dateCreated": "Wed May 30 12:49:27 2018",
      "createdBy": "aditibh",
      "application": "Recite",
      "appVersion": "0.3.6.2170",
      "documentId": "46c69978-686d-47f7-bff0-0c4c8511dffe",
      "status": "Conceptual - Initial",
      "classification": "2.0 Product & Service Management",
      "profile": "Core Business Capability Service",
      "serviceLayer": "Resource - Billing"
    }
  },
  "host": "dev01.api.t-mobile.com",
  "basePath": "/resource/v1/sims",
  "schemes": [
    "https"
  ],
  "paths": {
    "/resource/v1/sims/{iccId}/status": {
      "patch": {
        "tags": [
          "simStatusChange"
        ],
        "summary": "A patch for the sim status change resource using Digital Archecture's QueryResource pattern.",
        "description": "Changes the status of sim using simStatusChangeRequest.",
        "operationId": "updateSimStatus",
        "consumes": [
          "application/json"
        ],
        "produces": [
          "application/json"
        ],
        "parameters": [
          {
            "name": "iccId",
            "in": "path",
            "description": "SIM is internationally identified by its Integrated Circuit Card Identifier (ICCID).Unique serial number for identifying an assigned product or the serial number of the device , which may be the IMEI for a GSM device.",
            "required": true,
            "type": "string",
            "x-example": "ODk0NTM2MTcyODYyNzQ1"
          },
          {
            "name": "simStatusChangeRequest",
            "in": "body",
            "description": "Describes request structure for sim status change.",
            "required": true,
            "schema": {
              "$ref": "#/definitions/simStatusChangeRequest"
            }
          },
          {
            "$ref": "#/parameters/header-accept"
          },
          {
            "$ref": "#/parameters/header-accept-charset"
          },
          {
            "$ref": "#/parameters/header-accept-encoding"
          },
          {
            "$ref": "#/parameters/header-accept-language"
          },
          {
            "$ref": "#/parameters/header-authorization"
          },
          {
            "$ref": "#/parameters/header-content-type"
          },
          {
            "$ref": "#/parameters/header-date"
          },
          {
            "$ref": "#/parameters/header-if-modified-since"
          },
          {
            "$ref": "#/parameters/header-if-none-match"
          },
          {
            "$ref": "#/parameters/header-activity-id"
          },
          {
            "$ref": "#/parameters/header-application-id"
          },
          {
            "$ref": "#/parameters/header-application-user-id"
          },
          {
            "$ref": "#/parameters/header-auth-customer-id"
          },
          {
            "$ref": "#/parameters/header-auth-financial-account-id"
          },
          {
            "$ref": "#/parameters/header-auth-line-of-service-id"
          },
          {
            "$ref": "#/parameters/header-channel-id"
          },
          {
            "$ref": "#/parameters/header-dealer-code"
          },
          {
            "$ref": "#/parameters/header-interaction-id"
          },
          {
            "$ref": "#/parameters/header-segmentation-id"
          },
          {
            "$ref": "#/parameters/header-sender-id"
          },
          {
            "$ref": "#/parameters/header-session-id"
          },
          {
            "$ref": "#/parameters/header-store-id"
          },
          {
            "$ref": "#/parameters/header-terminal-id"
          },
          {
            "$ref": "#/parameters/header-till-id"
          },
          {
            "$ref": "#/parameters/header-timestamp"
          },
          {
            "$ref": "#/parameters/header-work-flow-id"
          }
        ],
        "responses": {
          "204": {
            "description": "The sim status change request was successful. No content found.",
            "headers": {
              "Cache-Control": {
                "description": "No cache indicators supported at this time. Samples: no-cache",
                "type": "string",
                "x-example": "no-cache"
              },
              "Content-Encoding": {
                "description": "The type of encoding used on the data",
                "type": "string",
                "x-example": "gzip"
              },
              "Content-Language": {
                "description": "The natural language or languages of the intended audience for the enclosed content",
                "type": "string",
                "x-example": "en-US"
              },
              "Content-Length": {
                "description": "The Content-Length header specifies the actual length of the returned payload.",
                "type": "string",
                "x-example": "4546"
              },
              "Content-Type": {
                "description": "The Content-Length header specifies the actual length of the returned payload.",
                "type": "string",
                "x-example": "application/json"
              },
              "Date": {
                "description": "The date and time that the message was originated (in HTTP-date format as defined by RFC 7231 Date/Time Formats).",
                "type": "string",
                "format": "date-time",
                "x-example": "2017-08-05T07:00:00.000Z"
              },
              "ETag": {
                "description": "The ETag header specifies the unique entity tag value for the returned resource.",
                "type": "string",
                "x-example": "qweiopfdsfsdafjl"
              },
              "Last-Modified": {
                "description": "The Last-Modified entity-header field indicates the date and time at which the origin server believes the variant was last modified.",
                "type": "string",
                "format": "date-time",
                "x-example": "2017-08-05T07:00:00.000Z"
              },
              "Transfer-Encoding": {
                "description": "The form of encoding used to safely transfer the entity to the user. Currently defined methods are: chunked, compress, deflate, gzip, identity.",
                "type": "string",
                "x-example": "chunked"
              },
              "servicetransactionid": {
                "description": "Internal identifier for transaction tracking an individual transaction/API request within API platform. Don_t receive/don_t send to downstream",
                "type": "string",
                "x-example": "as231as321"
              }
            }
          },
          "400": {
            "description": "Bad Request",
            "schema": {
              "$ref": "#/definitions/errorCollection"
            }
          },
          "401": {
            "description": "Unauthorized",
            "schema": {
              "$ref": "#/definitions/errorCollection"
            }
          },
          "404": {
            "description": "Resource not found",
            "schema": {
              "$ref": "#/definitions/errorCollection"
            }
          },
          "405": {
            "description": "Method Not Allowed",
            "schema": {
              "$ref": "#/definitions/errorCollection"
            }
          },
          "500": {
            "description": "System Error",
            "schema": {
              "$ref": "#/definitions/errorCollection"
            }
          },
          "503": {
            "description": "Service unavailable",
            "schema": {
              "$ref": "#/definitions/errorCollection"
            }
          }
        },
        "security": []
      }
    }
  },
  "definitions": {
    "error": {
      "description": "Error object.",
      "type": "object",
      "properties": {
        "code": {
          "description": "A specific T-Mobile error code.",
          "type": "string"
        },
        "userMessage": {
          "description": "A human-readable message describing the error.",
          "type": "string"
        },
        "systemMessage": {
          "description": "Backend system error message.",
          "type": "string"
        },
        "detailLink": {
          "description": "link to custom information providing greater detail on error or errors",
          "example": null,
          "type": "string"
        }
      }
    },
    "errorCollection": {
      "description": "The array of error objects. As defined in https://tmobileusa.sharepoint.com/teams/EnterpriseServices/ESG%20Standards%20Documents/APIs/T-Mobile%20API%20Design%20Guidelines%20v1.0.docx",
      "type": "object",
      "properties": {
        "errors": {
          "type": "array",
          "description": "An array of error objects.",
          "items": {
            "$ref": "#/definitions/error"
          }
        }
      }
    },
    "simStatusChangeRequest": {
      "type": "object",
      "description": "Describes request structure for sim status change.",
      "properties": {
        "reasonCode": {
          "description": "Describes reason codes. IC_CANCEL[CNCL], VENDOR_RECEIPT[VNRC], VENDOR_RETURN[VNRT], TRANSFER_IN[TRIN], TRANSFER_OUT[TROU], ADJUSTMENT_IN[AJIN], ADJUSTMENT_OUT[AJOU], SEND_TO_REPAIR[SDTR], RETURN_FROM_REPAIR[RTFR], CHANGE_POOL[CHPL], ESN_DESCRIPTION_UPDATE[DPUP], ESN_MONTHLY_DESCRIPTION[MNDP], PURCHASE_ORDER[PROR], WAC_ADJUSTMENT[WCAD], PHYSICAL_COUNT[PHCO], INVOICE[INVC], RETURN_FROM_CUSTOMER[RTFC], AGENT_SALE[AGEN], TRADE_IN[TDIN], CHECK_IN[CHIN], REPAIR_IN[RPIN], REPAIR_OUT[RPOU], CHANGE_OWNERSHIP[CHOW], REPORT_AS_MISSING[RPTM], REPORT_FOUND[RPTF], PRICE_OVERRIDE[PROV], DRAWER_LOGON[LGON], DRAWER_LOGOF[LGOF], ADD_CASH[ADDC], CASH_PICKUP[P/UP], SINGLE_PAYMENT[PAYM], MULTI_PAYMENT[MUPY], VOID_PAYMENT[VDPY], CLOSE_DRAWER[CLSE], CHANGE_MAIN_USER[CMUS], PHYSICAL_OPEN_DRAWER[PHOD], DEPOSIT_TO_BANK[DEPO], OPEN_DRAWER[OPED], NEW_SUBSC_ORDER[NORD], CANCEL_ORDER[CNCO], CANCEL_INVOICE[CNCI], FREE_UPDATE[FRUP], ACTIVATION[ACTV], EQUIPMENT_ORDER[EORD], PRE_PROGRAM_ESN[PPRG], WAC_ADJ_FOR_RECEIPT[WCRC], RMS_CONVERSION[RMSC], EXPIRE_PHYSICAL_DEVICE[EXPH],  UPDATE_SERIAL_ITEM[UPSI], AGING_OUT_SIM[AGOS], RELEASE_SIM[RLSM], PREPAID_ACTIVATE[PACT], PREPAID_DEACTIVATE[PDAC], CONV_POST_TO_PRE[PTPR], CONV_PRE_TO_POST[PRTP], CNCL_POST_CONV_TO_PRE[CANP], WHOLESALE_ACTIVATE[WACT],  WHOLESALE_DEACTIVATE[WDAT],  WHOLESALE_RESUME[WRSM], WHOLESALE_RELEASE[WREL], WHOLS_RPRT_AS_MISSING[WMIS], WHOLS_RPRT_FOUND[WFND], WHOLS_REPAIR_IN[WRPI], WHOLS_REPAIR_OUT[WRPO], WHOLS_MOVE_TO_AA[WMAA], 2ND_BRAND_ACTIVATE[SACT],  2ND_BRAND_DEACTIVATE[SDAC], 2ND_BRAND_RESERVE[SRSV], MVNE2_ACTIVATE[MACT], MVNE2_DEACTIVATE[MDAC], MVNE2_RESERVE[MRSV], MPCS_ACTIVATE[MPAC], MPCS_DEACTIVATE[MPDC], MPCS_REACTIVATE[MPRC], ERC_DEACTIVATE_PREPAID[EDPR],  ERC_DEACTIVATE_PRE_AC[EDPC],  ERC_RESERVE[ERSV], ERC_ACTIVATE[EACT],  ERC_DEACTIVATE[EDAC], WHOLESALE_RESERVE[WRSV] .",
          "type": "string",
          "x-example": "ACT"
        },
        "status": {
          "description": "Defines the status to which Sim status has to be changed. Assigned In Use – AI, Assigned Reserved – AR, Assigned Ageing – AG, Assigned Suspended – AS",
          "type": "string",
          "x-example": "AI"
        }
      }
    }
  },
  "parameters": {
    "header-accept": {
      "in": "header",
      "name": "Accept",
      "description": "Content-Types that are acceptable including application/json or application/xml (default assumed application/json)",
      "required": false,
      "type": "string",
      "x-example": "application/json"
    },
    "header-accept-charset": {
      "in": "header",
      "name": "Accept-Charset",
      "description": "Character sets that are acceptable.",
      "required": false,
      "type": "string",
      "x-example": "*"
    },
    "header-accept-encoding": {
      "in": "header",
      "name": "Accept-Encoding",
      "description": "List of acceptable encodings. See HTTP compression.",
      "required": false,
      "type": "string",
      "x-example": "MTIzNDU2Nzg5"
    },
    "header-accept-language": {
      "in": "header",
      "name": "Accept-Language",
      "description": "List of acceptable human languages for response",
      "required": false,
      "type": "string",
      "x-example": "*"
    },
    "header-authorization": {
      "in": "header",
      "name": "Authorization",
      "description": "OAuth 2.0 access token with the authentication type set as Bearer.",
      "required": false,
      "type": "string",
      "x-example": "Basic DAf455d4f"
    },
    "header-content-type": {
      "in": "header",
      "name": "Content-Type",
      "description": "The Content-Length header specifies the actual length of the returned payload.",
      "required": true,
      "type": "string",
      "x-example": "application/json"
    },
    "header-date": {
      "in": "header",
      "name": "Date",
      "description": "The date and time that the message was originated (in HTTP-date format as defined by RFC 7231 Date/Time Formats).",
      "required": false,
      "type": "string",
      "format": "date-time",
      "x-example": "2017-08-05T07:00:00.000Z"
    },
    "header-if-modified-since": {
      "in": "header",
      "name": "If-Modified-Since",
      "description": "The If-Modified-Since header specifies date-related conditions to be placed on the execution of a request.  The request will only be executed if the requested resource has not been modified since the date-time specified.  Because the behavior is complex, the details for usage are provided at http://www.w3.org/Protocols/rfc2616/rfc2616-sec14.html",
      "required": false,
      "type": "string",
      "x-example": "2018-05-30T13:38:13.382Z"
    },
    "header-if-none-match": {
      "in": "header",
      "name": "If-None-Match",
      "description": "The If-None-Match header specifies an ETag-related condition to be placed on the execution of a request.  The request will NOT be executed if the ETag of the requested resource matches one of those specified in the If-None-Match header.  Because the behavior is complex, the details for usage are provided at http://www.w3.org/Protocols/rfc2616/rfc2616-sec14.html",
      "required": false,
      "type": "string",
      "x-example": "2018-05-30T13:38:13.382Z"
    },
    "header-activity-id": {
      "in": "header",
      "name": "activityid",
      "description": "Unique id alphanumeric value generated and sent by the partner to identify every the service request uniquely. Sample: XyzA:D1s5s1i-X6AFRvfiPBfs-1234  Pass as is to downstream calls.",
      "required": true,
      "type": "string",
      "x-example": "A342431"
    },
    "header-application-id": {
      "in": "header",
      "name": "applicationid",
      "description": "Identifies the application, system, or tool that is being used to perform the transaction related to this request. Below are the sample values.ACUI, ESERVICE, REBELLION, WARP",
      "required": false,
      "type": "string",
      "x-example": "rmeher1"
    },
    "header-application-user-id": {
      "in": "header",
      "name": "applicationuserid",
      "description": "NT id of the one who is managing the transaction from CARE/RETAIL channels.",
      "required": false,
      "type": "string",
      "x-example": "asd64fsd654"
    },
    "header-auth-customer-id": {
      "in": "header",
      "name": "authcustomerid",
      "description": "Customer id _ of the person that is interacting with the system.",
      "required": false,
      "type": "string",
      "x-example": "asd64fsd654"
    },
    "header-auth-financial-account-id": {
      "in": "header",
      "name": "authfinancialaccountid",
      "description": "Financial account that the customer intends to operate on, while interacting with the system.",
      "required": false,
      "type": "string",
      "x-example": "asd64fsd654"
    },
    "header-auth-line-of-service-id": {
      "in": "header",
      "name": "authlineofserviceid",
      "description": "Service Line that the customer intends to operate on, while interacting with the system.",
      "required": false,
      "type": "string",
      "x-example": "asd64fsd654"
    },
    "header-channel-id": {
      "in": "header",
      "name": "channelid",
      "description": "Identifies the business unit or sales channel for the Request.Below are the sample values:            Care            TeleSales            FullService            BusinessDirect            FinancePartners            NonFinancePartners            SelfServiceAuthenticated            SelfServiceAnonymous            InteractiveVoiceResponse",
      "required": false,
      "type": "string",
      "x-example": "60"
    },
    "header-dealer-code": {
      "in": "header",
      "name": "dealercode",
      "description": "Unique code to identify the dealer/rep user.",
      "required": false,
      "type": "integer",
      "format": "int32",
      "x-example": 2
    },
    "header-interaction-id": {
      "in": "header",
      "name": "interactionid",
      "description": "Alphanumeric value represent a common transaction id across all calls made from UI, while completing all business activity needs of a particular customer.",
      "required": false,
      "type": "string",
      "x-example": "asd64fsd654"
    },
    "header-segmentation-id": {
      "in": "header",
      "name": "segmentationid",
      "description": "Identifier of customers primary data center.Sample: Polaris,Titan",
      "required": false,
      "type": "string",
      "x-example": "asd64fsd654"
    },
    "header-sender-id": {
      "in": "header",
      "name": "senderid",
      "description": "Uniquely identifies an Operation consumer. Below are the sample values.ACUI, MYTMO, QVXP, REBELLION, WALMARTRETAIL, SAMSCLUBRETAIL.",
      "required": false,
      "type": "string",
      "x-example": "asd64fsd654"
    },
    "header-session-id": {
      "in": "header",
      "name": "sessionid",
      "description": "A value populated by the sender used to track the transactions that occur during a session, a long-lasting interaction that ismaintained by the sender.",
      "required": false,
      "type": "string",
      "x-example": "asd64fsd654"
    },
    "header-store-id": {
      "in": "header",
      "name": "storeid",
      "description": "Unique identifier for the retail store location.",
      "required": false,
      "type": "string",
      "x-example": "asd64fsd654"
    },
    "header-terminal-id": {
      "in": "header",
      "name": "terminalid",
      "description": "Unique identifier for the retail store terminal. Needed for FullService  (Tmobile RETAIL channel). Need to discuss with T-Mobile business liaison if there is a need for Partner to pass their retail Store Id).",
      "required": false,
      "type": "string",
      "x-example": "asd64fsd654"
    },
    "header-till-id": {
      "in": "header",
      "name": "tillid",
      "description": "Unique identifier for the retail register. Needed for FullService  (Tmobile RETAIL channel). Need to discuss with T-Mobile business liaison if there is a need for Partner to pass their retail Store Id).",
      "required": false,
      "type": "string",
      "x-example": "asd64fsd654"
    },
    "header-timestamp": {
      "in": "header",
      "name": "timestamp",
      "description": "A timestamp provided by sender to track their workflow. If it is empty APIGEE can send current system timestamp.",
      "required": true,
      "type": "string",
      "x-example": "2018-05-30T13:38:13.382Z"
    },
    "header-work-flow-id": {
      "in": "header",
      "name": "workflowid",
      "description": "Workflow name (NEW/ADD/EXCHANGE/RETURN)/OrderTypes _ ACTIVATION ADDALINE CHANGEDEVICE_JUMP CHANGEDEVICE",
      "required": false,
      "type": "string",
      "x-example": "asd64fsd654"
    }
  },
  "securityDefinitions": {}
}