@startuml
participant API_consumer
participant msg_ai_intent_info_collector #E20074
participant outbound_sms_cassandra #E6E6FA
participant account_activity_log #E6E6FA
participant intent_model 

API_consumer -> msg_ai_intent_info_collector : API is called
msg_ai_intent_info_collector -[#8A2BE2]> outbound_sms_cassandra : query cassandra table for SMS\nsent from T-Mobile to the specified msisdn\nin the past 24 hours
outbound_sms_cassandra -[#8A2BE2]> msg_ai_intent_info_collector : array of SMS from the past 24 hours is returned
msg_ai_intent_info_collector -[#8A2BE2]> account_activity_log : SOAP call is made to fetch account activity log (AAL) for the given msisdn
account_activity_log -[#8A2BE2]> msg_ai_intent_info_collector : an array of AAL events is returned
msg_ai_intent_info_collector -> intent_model : message, AAL, time of request, and sms\n are passed to the machine learning model
intent_model -> msg_ai_intent_info_collector : returns a list of all intents and the associated confidences
msg_ai_intent_info_collector -> API_consumer : returns requested information about intent and confidence
@enduml