@startuml
title <b> __LEADS DATA__
autonumber
actor Agent #Pink
Agent ->SalesForceWidget: Operates Widget for different purposes
SalesForceWidget -> LeadRestController :Calls RestController based on the request
alt Agent tries to create/edit Lead
LeadRestController->LeadManager : Posts request to https://dev.message.t-mobile.com/v1/leads/data/service/lead/upsert
LeadManager->LeadService : Requests Data from LeadsService to upsert Lead
LeadService->LeadManager : Returns Data as per the request
else
LeadService->LeadManager :Returns BadRequest
end
alt Agent tries to create/edit disposition
LeadRestController->LeadManager : Post request to https://dev.message.t-mobile.com/v1/leads/data/service/engagement/upsert
LeadManager->EngagementService : Requests Data from LeadsServiceto set disposition
EngagementService->LeadManager : Returns Data as per the request
else
LeadService->LeadManager :Returns BadRequest
end
alt Agent tries to search Lead Info
LeadRestController->LeadManager : Post request to https://dev.message.t-mobile.com/v1/leads/data/service/lead/search
LeadManager->LeadService : Requests Data from LeadsService to search for a particular Lead
LeadService->LeadManager : Returns Data as per the request
else if
LeadService->LeadManager :Returns ErrorList
end
@enduml