@startuml
participant ml_manager
participant msg_ai_c2_articles_recommendation


ml_manager -> msg_ai_c2_articles_recommendation : conversation message from ml manager(encrypted)
msg_ai_c2_articles_recommendation  -> ml_manager : top 5 recommended c2 articles ( object_id, titles, names, score)

@enduml