@startuml
actor Agent
actor Customer
collections LiveEngage
participant Listener
collections Kafka
participant RetailBot
participant CustomerState
participant RetailPromoService
participant StoresHoursService
participant AdminSettingsService
participant Sender

group Retail: For each new conversation initiated by agent
    RetailBot -> AdminSettingsService: Load bot configuration on start of the service
    Agent -> LiveEngage: Agent initiates new conversation with lead info
    LiveEngage -> Listener: Listener will listen to the message
    Listener -> Kafka: publish Message Receive event to Kafka
    Kafka -> RetailBot: Consume and process Message Receive event
    RetailBot -> CustomerState: Check for customer state, if not found
    RetailBot -> CustomerState: Create conversation state \n (channel\channelId\Tag:ClassName, Conv ID)
    RetailBot -> CustomerState: Create customer preference \n (channel\channelId\Tag:ClassName)
    RetailBot -> CustomerState: Request RetailContact item with channelId, get campaignId, ntId and storeId from the item
    RetailBot <-- CustomerState: Response with RetailContact item
    RetailBot -> RetailPromoService: Get promo message given campaignId, ntId and storeId
    RetailBot <-- RetailPromoService: Promo message
    RetailBot -> Kafka: Produce 1. Message send event - with Promo message \n 2.Conversation Close Event
    Kafka -> Sender: Consumer process Message Send and Conversation Close Event
    Sender -> LiveEngage: Sender agent sends the routing message and route conversation to the skill
    LiveEngage -> Customer: Customer receives Promo message
    LiveEngage -> LiveEngage: Conversation closed
end

group Retail: For each new conversation initiated by customer
    RetailBot -> AdminSettingsService: Load bot configuration on start of the service
    Customer -> LiveEngage: Customer initiates new conversation
    LiveEngage -> Listener: Listener will listen to the message
    Listener -> Kafka: publish Message Receive event to Kafka
    Kafka -> RetailBot: Consume and process Message Receive event
    RetailBot -> CustomerState: Check for customer state, if not found
    RetailBot -> CustomerState: Create conversation state \n (channel\channelId\Tag:ClassName, Conv ID)
    RetailBot -> CustomerState: Create customer preference \n (channel\channelId\Tag:ClassName)
    RetailBot -> CustomerState: Request RetailContact item with channelId, get skillId and skillName from the item
    RetailBot <-- CustomerState: Response with RetailContact item
    RetailBot -> StoresHoursService: Request store business status info with storeId
    RetailBot <-- StoresHoursService: Response with current store business status info (opening or closed, next open time)
    RetailBot -> Kafka: Produce 1. Message send event if the customer is not locked - with welcome/off-hour message \n 2.Conversation Transfer Event - for routing based on skillId
    Kafka -> Sender: Consumer process Message Send and Conversation Transfer (Route) Event
    Sender -> LiveEngage: Sender agent sends the routing message and route conversation to the skill
    LiveEngage -> Customer: Customer receives routing message \n and available agent can pick the conversation
end


@enduml