@startuml
actor User
control Service
database dynamoDB

group Exists endpoint
    User -> Service : [[https://bitbucket.corporate.t-mobile.com/projects/SOC/repos/msg-v1-cookbook/browse/msg-v1-cookbook.swagger.json GET /exists/(channel)/(channelId)/(section)]]
    Service -> dynamoDB : FindBy channel, channelId, section
    dynamoDB -> Service : ExistResult
    Service -> User : [[https://bitbucket.corporate.t-mobile.com/projects/SOC/repos/msg-v1-cookbook/browse/msg-v1-cookbook.swagger.json ExistsResponse]]
end
group ExistsAll endpoint
    User -> Service : [[https://bitbucket.corporate.t-mobile.com/projects/SOC/repos/msg-v1-cookbook/browse/msg-v1-cookbook.swagger.json GET /existsAll/(channel)/(channelId)]]
    Service -> dynamoDB : FindBy channel, channelId
    dynamoDB -> Service : ExistResultDetails
    Service -> User : [[https://bitbucket.corporate.t-mobile.com/projects/SOC/repos/msg-v1-cookbook/browse/msg-v1-cookbook.swagger.json ExistResultDetailsResponse]]
end

group Get endpoint
    User -> Service : [[https://bitbucket.corporate.t-mobile.com/projects/SOC/repos/msg-v1-cookbook/browse/msg-v1-cookbook.swagger.json GET /(channel)/(channelId)]]
    Service -> dynamoDB : FindBy channel, channelId
    dynamoDB -> Service : List of sections
    Service -> User : [[https://bitbucket.corporate.t-mobile.com/projects/SOC/repos/msg-v1-cookbook/browse/msg-v1-cookbook.swagger.json PIIResponse]]
end
group Set Endpoint
    User -> Service : [[https://bitbucket.corporate.t-mobile.com/projects/SOC/repos/msg-v1-cookbook/browse/msg-v1-cookbook.swagger.json POST PIIRequest /(channel)/(channelId)]]
    Service -> dynamoDB : List of sections
    Service -> User : [[https://bitbucket.corporate.t-mobile.com/projects/SOC/repos/msg-v1-cookbook/browse/msg-v1-cookbook.swagger.json PIIResponse]]
end
group Set Endpoint
    User -> Service : [[https://bitbucket.corporate.t-mobile.com/projects/SOC/repos/msg-v1-cookbook/browse/msg-v1-cookbook.swagger.json GET Set<String> /orders)]]
    Service -> dynamoDB : Set of order numbers
    Service -> User : [[https://bitbucket.corporate.t-mobile.com/projects/SOC/repos/msg-v1-cookbook/browse/msg-v1-cookbook.swagger.json Set<String>]]
end
group Get endpoint
    User -> Service : [[https://bitbucket.corporate.t-mobile.com/projects/SOC/repos/msg-v1-cookbook/browse/msg-v1-cookbook.swagger.json GET /process/(orderId)]]
    Service -> dynamoDB : FindBy orderId, CREATED
    dynamoDB -> Service : List of sections
    Service -> dynamoDB : Change status to PROCESSED
    Service -> User : [[https://bitbucket.corporate.t-mobile.com/projects/SOC/repos/msg-v1-cookbook/browse/msg-v1-cookbook.swagger.json PIIResponse]]
end
group Get endpoint
    User -> Service : [[https://bitbucket.corporate.t-mobile.com/projects/SOC/repos/msg-v1-cookbook/browse/msg-v1-cookbook.swagger.json GET /queue/(orderId)]]
    Service -> dynamoDB : FindBy orderId, PROCESSED
    dynamoDB -> Service : List of sections
    Service -> dynamoDB : Change status to CREATED
    Service -> User : [[https://bitbucket.corporate.t-mobile.com/projects/SOC/repos/msg-v1-cookbook/browse/msg-v1-cookbook.swagger.json PIIResponse]]
end
group Get endpoint
    User -> Service : [[https://bitbucket.corporate.t-mobile.com/projects/SOC/repos/msg-v1-cookbook/browse/msg-v1-cookbook.swagger.json GET /complete/(orderId)]]
    Service -> dynamoDB : FindBy orderId, PROCESSED
    dynamoDB -> Service : List of sections
    Service -> dynamoDB : Change status to COMPLETED
    Service -> User : [[https://bitbucket.corporate.t-mobile.com/projects/SOC/repos/msg-v1-cookbook/browse/msg-v1-cookbook.swagger.json PIIResponse]]
end
group Get endpoint
    User -> Service : [[https://bitbucket.corporate.t-mobile.com/projects/SOC/repos/msg-v1-cookbook/browse/msg-v1-cookbook.swagger.json GET /order/(orderId)]]
    Service -> dynamoDB : FindBy orderId
    dynamoDB -> Service : List of sections
    Service -> User : [[https://bitbucket.corporate.t-mobile.com/projects/SOC/repos/msg-v1-cookbook/browse/msg-v1-cookbook.swagger.json PIIResponse]]
end
group Get endpoint
    User -> Service : [[https://bitbucket.corporate.t-mobile.com/projects/SOC/repos/msg-v1-cookbook/browse/msg-v1-cookbook.swagger.json GET /order/all]]
    Service -> dynamoDB : FindAll
    dynamoDB -> Service : List of orderId
    Service -> User : [[https://bitbucket.corporate.t-mobile.com/projects/SOC/repos/msg-v1-cookbook/browse/msg-v1-cookbook.swagger.json Set<String>]]
end
@enduml
