@startuml
actor BotOrSTT #Magenta
note right: STT - Smart Tex Transfer
participant Service

box "SMPD and T-Mobile APIs" #LightMagenta
  entity "Customer State"
  entity "Common Config"
end box

group "Determine Customer Language"
  "BotOrSTT" --> "Service" : POST Request /determine BodyParam : Channel, ChannelId, SkillName
  "Service" --> "Customer State" : Call to Customer State to get if user has any language set.
  alt If Customer Language found
  "Service" --> BotOrSTT : return languageCode set up for Customer
  else If Check any language configured for given skill in admin console
      "Service" --> "Common Config" : Get language preference Settings from Admin Console
      alt if Language found for the given skill
      "Service" --> "BotOrSTT" : return LanguageCode for given skill
      else if
      "Service" -->"BotOrSTT" : return LanguageCode which is set up as Defualt
      end
  end
end

group "Set Customer Language"
  "BotOrSTT" --> "Service" : POST Request /set BodyParam : Channel, ChannelId, LanguageCode
  "Service" --> "Customer State" : Call to Customer State to check if given customer details exist
  alt If Customer found
    "Service" --> "Customer State" : Update Customer language to given language
  end
end

group "Get Customer Language"
  "BotOrSTT" --> "Service" : GET /{channel}/{channelId}
  "Service" --> "Customer State" : Call to Customer State to get the customer laguage
  "Service" --> "BotOrSTT" : return LanguageCode
end
@enduml
