@startuml
actor User
participant Service
database dynamoDB

group Activate/Deactivate Channel
    User -> Service : [[https://bitbucket.corporate.t-mobile.com/projects/SOC/repos/msg-api-v1-customer-id/browse/msg-api-v1-customer-id.swagger.json PUT /(channel)/(channelId)/(activate/deactivate)]]
    Service->Service : encode channelId
    Service->dynamoDB : get lId by encoded channelId
    dynamoDB-->Service : lId response
    Service->dynamoDB : get Link by lId
    dynamoDB-->Service : Link Response
    Service->Service : Set Link as activate/deactivate
    Service->dynamoDB : update Link
    dynamoDB-->Service : Updated Link
    Service --> User : [[https://bitbucket.corporate.t-mobile.com/projects/SOC/repos/msg-api-v1-customer-id/browse/msg-api-v1-customer-id.swagger.json Updated Link]]
end
group Combine two channels
    User -> Service : [[https://bitbucket.corporate.t-mobile.com/projects/SOC/repos/msg-api-v1-customer-id/browse/msg-api-v1-customer-id.swagger.json POST ChannelPairRequest /(channelId1)/(channelId2)]]
    Service -> dynamoDB : Find Link1 By ChannelId1 or Link2 By ChannelId2
    dynamoDB --> Service : Link1 or Link2
    Service ->dynamoDB : create combination link and channel
    dynamoDB-->Service : post Response
    Service --> User : [[https://bitbucket.corporate.t-mobile.com/projects/SOC/repos/msg-api-v1-customer-id/browse/msg-api-v1-customer-id.swagger.json POST Response]]
end
group Create Channel
    User -> Service : [[https://bitbucket.corporate.t-mobile.com/projects/SOC/repos/msg-api-v1-customer-id/browse/msg-api-v1-customer-id.swagger.json POST ChannelRequest /(channel)/(channelId2)]]
    Service -> dynamoDB : Channel
    dynamoDB-->Service : new Channel object
    Service --> User : [[https://bitbucket.corporate.t-mobile.com/projects/SOC/repos/msg-api-v1-customer-id/browse/msg-api-v1-customer-id.swagger.json POST Response]]
end
group GET Channel
    User -> Service : [[https://bitbucket.corporate.t-mobile.com/projects/SOC/repos/msg-api-v1-customer-id/browse/msg-api-v1-customer-id.swagger.json GET /(channel)/(channelId2)]]
    Service -> Service : Encode Channel and ChannelId
    Service -> dynamoDB : Get channel by encoded Id
    dynamoDB-->Service :  Channel object
    Service --> User : [[https://bitbucket.corporate.t-mobile.com/projects/SOC/repos/msg-api-v1-customer-id/browse/msg-api-v1-customer-id.swagger.json Channel]]
end

group GET Channel
    User -> Service : [[https://bitbucket.corporate.t-mobile.com/projects/SOC/repos/msg-api-v1-customer-id/browse/msg-api-v1-customer-id.swagger.json GET /(channel)/(channelId2)]]
    Service -> Service : Encode Channel and ChannelId
    Service -> dynamoDB : Get channel by encoded Id
    dynamoDB-->Service :  Channel object
    Service->dynamoDB : Delete channel in binded Link and Channel itself
    dynamoDB-->Service : Response(Status Code)
    Service --> User : [[https://bitbucket.corporate.t-mobile.com/projects/SOC/repos/msg-api-v1-customer-id/browse/msg-api-v1-customer-id.swagger.json Response(Status code)]]
end

group GET Link
    User -> Service : [[https://bitbucket.corporate.t-mobile.com/projects/SOC/repos/msg-api-v1-customer-id/browse/msg-api-v1-customer-id.swagger.json GET /(channel)/(channelId)]]
    Service->Service : encode channelId
    Service->dynamoDB : get lId by encoded channelId
    dynamoDB-->Service : lId response
    User -> Service : [[https://bitbucket.corporate.t-mobile.com/projects/SOC/repos/msg-api-v1-customer-id/browse/msg-api-v1-customer-id.swagger.json GET /(lId)]]
    Service->dynamoDB : get Link by lId
    dynamoDB-->Service : Link Response
    Service --> User : [[https://bitbucket.corporate.t-mobile.com/projects/SOC/repos/msg-api-v1-customer-id/browse/msg-api-v1-customer-id.swagger.json Link]]
end

@enduml
