@startuml
actor "UH Widget Front-end"
participant "UH Widget Back-end"
participant "UH API"
participant "Customer Auth Service"
entity "LE Message History API"
"UH Widget Front-end" -> "UH Widget Back-end" : [[https://bitbucket.corporate.t-mobile.com/projects/SOC/repos/msg-ui-le-unified-history-widget/browse/msg-ui-le-unified-history-widget.swagger.yaml channel/channelId]]
"UH Widget Back-end" -> "UH API" : [[https://bitbucket.corporate.t-mobile.com/projects/SOC/repos/msg-api-v1-unified-history/browse/msg-api-v1-unified-history.swagger.yaml channel/channelId]]
"UH API" -> "LE Message History API" : [[https://developers.liveperson.com/consumer-experience-messaging-history-overview.html channelId]]
"LE Message History API" -> "UH API" : [[https://developers.liveperson.com/consumer-experience-messaging-history-overview.html Conversation history for channelId]]
alt If non-ABC and MSISDN not available from UH Widget Front-end
  "UH API" -> "UH Widget Back-end" : [[https://bitbucket.corporate.t-mobile.com/projects/SOC/repos/msg-api-v1-unified-history/browse/msg-api-v1-unified-history.swagger.yaml Conversation history for channelId]]
  "UH Widget Back-end" -> "UH Widget Front-end" : [[https://bitbucket.corporate.t-mobile.com/projects/SOC/repos/msg-ui-le-unified-history-widget/browse/msg-ui-le-unified-history-widget.swagger.yaml Conversation history for channelId]]
else If ABC channelId
  "UH API" -> "Customer Auth Service" : [[https://bitbucket.corporate.t-mobile.com/projects/SOC/repos/msg-api-v1-customer-auth/browse/swagger.yaml channel/channelId]]
  "Customer Auth Service" -> "UH API" : [[https://bitbucket.corporate.t-mobile.com/projects/SOC/repos/msg-api-v1-customer-auth/browse/swagger.yaml MSISDN]]
  "UH API" -> "LE Message History API" : [[https://developers.liveperson.com/consumer-experience-messaging-history-overview.html MSISDN (date binding to 3-months before TMO-ID cutover)]]
  "LE Message History API" -> "UH API" : [[https://developers.liveperson.com/consumer-experience-messaging-history-overview.html Conversation history for MSISDN]]
  "UH API" -> "UH Widget Back-end" : [[https://bitbucket.corporate.t-mobile.com/projects/SOC/repos/msg-api-v1-unified-history/browse/msg-api-v1-unified-history.swagger.yaml Collated conversation history]]
  "UH Widget Back-end" -> "UH Widget Front-end" : [[https://bitbucket.corporate.t-mobile.com/projects/SOC/repos/msg-ui-le-unified-history-widget/browse/msg-ui-le-unified-history-widget.swagger.yaml Collated conversation history]]
else If non-ABC and MSISDN available from UH Widget Front-end
  "UH API" -> "UH Widget Back-end" : [[https://bitbucket.corporate.t-mobile.com/projects/SOC/repos/msg-api-v1-unified-history/browse/msg-api-v1-unified-history.swagger.yaml Conversation history for channelId]]
  "UH Widget Back-end" -> "UH Widget Front-end" : [[https://bitbucket.corporate.t-mobile.com/projects/SOC/repos/msg-ui-le-unified-history-widget/browse/msg-ui-le-unified-history-widget.swagger.yaml Conversation history for channelId]]
  "UH Widget Front-end" -> "UH Widget Back-end" : [[https://bitbucket.corporate.t-mobile.com/projects/SOC/repos/msg-ui-le-unified-history-widget/browse/msg-ui-le-unified-history-widget.swagger.yaml MSISDN]]
  "UH Widget Back-end" -> "UH API" : [[https://bitbucket.corporate.t-mobile.com/projects/SOC/repos/msg-api-v1-unified-history/browse/msg-api-v1-unified-history.swagger.yaml MSISDN]]
  "UH API" -> "LE Message History API" : [[https://developers.liveperson.com/consumer-experience-messaging-history-overview.html MSISDN]]
  "LE Message History API" -> "UH API" : [[https://developers.liveperson.com/consumer-experience-messaging-history-overview.html Conversation history for MSISDN]]
  "UH API" -> "UH Widget Back-end" : [[https://bitbucket.corporate.t-mobile.com/projects/SOC/repos/msg-api-v1-unified-history/browse/msg-api-v1-unified-history.swagger.yaml Conversation history for MSISDN]]
  "UH Widget Back-end" -> "UH Widget Front-end" : [[https://bitbucket.corporate.t-mobile.com/projects/SOC/repos/msg-ui-le-unified-history-widget/browse/msg-ui-le-unified-history-widget.swagger.yaml Conversation history for MSISDN]]
end
@enduml