@startuml
collections "Kafka\nMSG-{env}-LE-OMNI-RESPONSEEVENT-IN" as Kafka
participant "SDG Sender" as SdgSender
participant AdminSettingsService as Config
participant SDG

== SDG Sender on ==
loop For each new message
  Kafka -> SdgSender: Consume Message
  SdgSender -> Config: Check if the SDG Sender switch is on
  Config --> SdgSender: True
  SdgSender -> SdgSender: check if message not empty\n(drop if empty)
  SdgSender -> SDG: Send message
|||
end

== SDG Sender off ==
loop For each new message
  Kafka -> SdgSender: Consume Message
  loop Wait Till SDG Sender is on
      SdgSender -> Config: Check if SDG Sender switch is on
      Config --> SdgSender: False
      SdgSender -> SdgSender: Pause for 5 seconds
  end
end
@enduml