@startuml
actor User
database Kafka
participant ConversationTransfer
participant RoutingApi

group Rest
    User -> ConversationTransfer : manage/health Request
    ConversationTransfer -> User : Response "UP"

    User -> ConversationTransfer : status Request
    ConversationTransfer -> User : Response "artifactId,profile,startTime,version"
end

group Event
    Kafka -> ConversationTransfer : RoutingTransfer message received
    ConversationTransfer -> RoutingApi : Get the routing skill and message for the channel & Channel Id
    RoutingApi -> ConversationTransfer : Skill and message
    ConversationTransfer -> Kafka : Send TextMetaData message
end
@enduml