@startuml

IVR -> Voice: createConversation
Group /v1/voice/createConversation
Voice  -> ConversationService: creates conversation in LE
ConversationService --> Voice: status of conversation(created/failure)
end group
Voice--> IVR: status of conversation(created/failure)

@enduml