@startuml

actor "Care Agent" as agent
participant LiveEngage as le
box "SMPD" #pink
participant "<font color=white><b>SMPD Listener\n<font color=white><b>LE Async" as listener #ff009f
participant "SMPD Kafka \nMSG-{env}-LE-OMNI-RESPONSEEVENT-IN" as K
participant "EBB / \n Consumers" as ebb
end box
agent -> le: Agent types response
le -> listener: LE SMS API
listener --> le: Status code (200, 4xx, 5xx)
listener -> K: Publishes message and metadata
K -> ebb

@enduml