@startuml
group Conversation Audit
"Kafka In" -> "Bot Monster:\nInbound Channel": listen MessageReceive
"Bot Monster:\nInbound Channel" ---> "DynamoDB: Customer State": save visitorId and sessionId to conversation data
"Kafka In" -> "Conversation Audit Writer:\nInbound Channel": listen MessageReceive, \nConversationRoutingData and \nUserAuthenticated events
"Conversation Audit Writer:\nInbound Channel" --> Processor: choose processor \nfor specific message type
Processor --> Mapper: convert raw message to java/avro object
Mapper --> Processor: return data for EDS-service
Processor-->"Conversation Audit Writer:\nOutbound Channel": send message to outboutd channel
"Conversation Audit Writer:\nOutbound Channel" --> "Kafka Out": send message to EDS-topic in kafka

group update engagement attributes for LiveEngage
    "Audit Writer Service" ---> "Live Engage": on startup application: get liveEngage domain url
    Processor ---> "Audit Writer Service": update conversation data for Live Engage
    "Audit Writer Service" ---> Mapper: build engagement attributes
    "Audit Writer Service" ---> "DynamoDB: Customer State": get conversation data, \nthat hol visitor and sessionId
    "Audit Writer Service" ---> "Live Engage": post attributes by visitor Id and sessionId
end
end

group PIIFormEvenData
"Kafka In" -> "Conversation Audit Writer:\nInbound Channel" : Listen PiiFormEventTrack
"Conversation Audit Writer:\nInbound Channel" -> Processor : Process the Message and Encrypt data
Processor-->"Conversation Audit Writer:\nOutbound Channel": send message to PiiOutBound channel
"Conversation Audit Writer:\nOutbound Channel" --> "Kafka Out": send message to EDS-topic in kafka
end
@enduml
