{
	"swagger": "2.0",
	"info": {
		"title": "This service support Supply Chain Services - List of APIs for Order Cancellation in SAP.",
		"description": "Order Cancellation API in SAP. This API Will accept  Order for cancellation and sends the response with a status saying if the Order has been cancelled successfully or any errors.",
		"version": "1.0.0",
		"contact": {
			"name": "API Center For Enablement",
			"url": "http://www.t-mobile.com",
			"email": "APICFE@T-Mobile.com"
		},
		"license": {
			"name": "Proprietary software",
			"url": "https://en.wikipedia.org/wiki/Proprietary_software"
		},
		"termsOfService": "https://www.t-mobile.com/templates/popup.aspx?PAsset=Ftr_Ftr_TermsAndConditions",
		"x-createdBy": {
			"dateCreated": "Thu Dec 05 11:18:37 2019",
			"createdBy": "SPAPPU",
			"application": "Supply Chain",
			"appVersion": "1.0.0.2891",
			"documentId": "97053221-c5d2-44d8-8026-9b19cd6206a7",
			"status": "Conceptual - Initial",
			"classification": "11.3.8 Supply Chain Order Mgmt.",
			"profile": "Core Business Capability Service",
			"serviceLayer": "Resource - Supply Chain Management"
		}
	},
	"x-servers": [{
		"url": "http://127.0.0.1/",
		"description": "Test Server 1"
	}],
	"tags": [{
		"name": "execute-Order-Cancellation-details",
		"description": "The ExecuteFunction design pattern as defined by T-Mobile Digital Architecture."
	}],
	"host": "dev01.api.t-mobile.com",
	"basePath": "/supplychain/v1/sales-order-cancellation",
	"schemes": [
		"https"
	],
	"paths": {
		"/order-cancellation-request": {
			"post": {
				"tags": [
					"execute-Order-Cancellation"
				],
				"x-api-pattern": "ExecuteFunction",
				"summary": "Order Cancellation.",
				"description": "Consume Orders for cancellation in SAP.",
				"operationId": "OrderCancellationRequest",
				"consumes": [
					"application/json",
					"application/xml"
				],
				"produces": [
					"application/json",
					"application/xml"
				],
				"parameters": [{
						"name": "OrderCancellationRequest",
						"in": "body",
						"description": "Query execute request for order itemized information",
						"required": true,
						"schema": {
							"$ref": "#/definitions/OrderCancellationRequest"
						}
					},
					{
						"name": "Accept",
						"in": "header",
						"description": "Preferred content type _ default to application/json",
						"x-example": "application/json",
						"required": false,
						"type": "string",
						"minLength": 1,
						"maxLength": 256,
						"pattern": "^[ \\S]+$"
					},
					{
						"name": "Accept-Encoding",
						"in": "header",
						"description": "List of acceptable encodings. See HTTP compression.",
						"x-example": "gzip,deflate",
						"required": false,
						"type": "string",
						"minLength": 1,
						"maxLength": 256,
						"pattern": "^[\\S ]*$"
					},
					{
						"name": "Accept-Language",
						"in": "header",
						"description": "List of acceptable human languages for response",
						"x-example": "en-us,en;q=0.5",
						"required": false,
						"type": "string",
						"minLength": 1,
						"maxLength": 256,
						"pattern": "^[\\S ]*$"
					},
					{
						"name": "Authorization",
						"in": "header",
						"description": "The HTTP Authorization request header contains the credentials to authenticate a user agent with a server.",
						"x-example": "Bearer mF_9.B5f-4.1JqM",
						"required": true,
						"type": "string",
						"minLength": 1,
						"maxLength": 256,
						"pattern": "^[\\S ]+$"
					},
					{
						"name": "Date",
						"in": "header",
						"description": "The Date general HTTP header contains the date and time at which the message was originated.",
						"x-example": "Mon, 05 Mar 2018 16:38:08 GMT",
						"required": false,
						"type": "string",
						"format": "date-time",
						"pattern": "^(Mon|Tue|Wed|Thu|Fri|Sat|Sun), [0-3]{1}[0-9]{1} (Jan|Feb|Mar|Apr|May|Jun|Jul|Aug|Sep|Oct|Nov|Dec) [1-3][0-9]{3} [0-2][0-9]:[0-6][0-9]:[0-6][0-9] GMT$"
					},
					{
						"name": "Content-Type",
						"in": "header",
						"description": "The MIME type of this content",
						"x-example": "text/xml",
						"required": true,
						"type": "string",
						"minLength": 1,
						"maxLength": 256,
						"pattern": "^[ \\S]+$"
					},
					{
						"name": "activity-id",
						"in": "header",
						"description": "Unique id alphanumeric value generated and sent by the partner to identify every the service request uniquely. Sample: XyzA:D1s5s1i-X6AFRvfiPBfs-1234  Pass as is to downstream calls.",
						"x-example": "c34e7acd-384b-4c22-8b02-ba3963682508",
						"required": false,
						"type": "string",
						"minLength": 1,
						"maxLength": 256,
						"pattern": "^[\\S]*$"
					},
					{
						"name": "interaction-id",
						"in": "header",
						"description": "Alphanumeric value represent a common transaction id across all calls made from UI, while completing all business activity needs of a particular customer.",
						"x-example": "cc688d54-50d1-49d4-8c5d-95459d1172e8",
						"required": false,
						"type": "string",
						"minLength": 1,
						"maxLength": 256,
						"pattern": "^[\\S]*$"
					},
					{
						"name": "service-transaction-id",
						"in": "header",
						"description": "Request ID echoed back by server",
						"x-example": "23409209723",
						"required": false,
						"type": "string",
						"minLength": 1,
						"maxLength": 256,
						"pattern": "^[\\S]*$"
					},
					{
						"name": "session-id",
						"in": "header",
						"description": "A value populated by the sender used to track the transactions that occur during a session, a long-lasting interaction that ismaintained by the sender.",
						"x-example": "350b91ec-4a64-4b10-a3f3-a78c8db3924a",
						"required": false,
						"type": "string",
						"minLength": 1,
						"maxLength": 256,
						"pattern": "^[\\S]*$"
					},
					{
						"name": "timestamp",
						"in": "header",
						"description": "ms since 1/1/70 adjusted to GMT",
						"x-example": "1524599536",
						"required": false,
						"type": "integer",
						"format": "int64",
						"minimum": 0,
						"maximum": 999999999999,
						"pattern": "^[\\d]*$"
					},
					{
						"name": "workflow-id",
						"in": "header",
						"description": "Business Use Case",
						"x-example": "ACTIVATION",
						"required": false,
						"type": "string",
						"minLength": 1,
						"maxLength": 256,
						"pattern": "^[\\S]*$"
					},
					{
						"name": "x-auth-originator",
						"in": "header",
						"description": "API chain initiating callers access token",
						"x-example": "c34e7acd-384b-4c22-8b02-ba3963682508",
						"required": false,
						"type": "string",
						"minLength": 1,
						"maxLength": 256,
						"pattern": "^[\\S]*$"
					},
					{
						"name": "x-authorization",
						"in": "header",
						"description": "Contains Proof of Possession token generated by API caller",
						"x-example": "c34e7acd-384b-4c22-8b02-ba3963682508",
						"required": false,
						"type": "string",
						"minLength": 1,
						"maxLength": 256,
						"pattern": "^[\\S ]*$"
					}
				],
				"responses": {
					"200": {
						"description": "OK",
						"schema": {
							"$ref": "#/definitions/OrderCancellationResponse"
						},
						"examples": {
							"application/json": {
								"orderLines": [{
									"orderNumber": "71845678",
									"sapOrderNumber": "3000567458",
									"cancelStatus": "S",
									"cancelMessage": "SAP Order set to Cancelled Status Successfully"
								}]
							}
						},
						"headers": {
							"Cache-Control": {
								"description": "Cache policy supported for the resource by the server",
								"x-example": "no-cache",
								"type": "string",
								"minLength": 1,
								"maxLength": 256,
								"pattern": "^[\\S]*$"
							},
							"Content-Encoding": {
								"description": "The type of encoding used on the data",
								"x-example": "gzip,deflate",
								"type": "string",
								"minLength": 1,
								"maxLength": 15,
								"pattern": "^[\\S]*$"
							},
							"Content-Length": {
								"description": "Length of the response body in octets; not supported if Transfer-Endoding = chunked",
								"x-example": "9112300000003",
								"type": "integer",
								"format": "int64",
								"minimum": 0,
								"pattern": "^[\\d]*$"
							},
							"Content-Type": {
								"description": "The MIME type of this content",
								"x-example": "text/xml",
								"type": "string",
								"minLength": 1,
								"maxLength": 256,
								"pattern": "^[ \\S]+$"
							},
							"Date": {
								"description": "The Date general HTTP header contains the date and time at which the message was originated.",
								"x-example": "Mon, 05 Mar 2018 16:38:08 GMT",
								"type": "string",
								"format": "date-time",
								"pattern": "^(Mon|Tue|Wed|Thu|Fri|Sat|Sun), [0-3]{1}[0-9]{1} (Jan|Feb|Mar|Apr|May|Jun|Jul|Aug|Sep|Oct|Nov|Dec) [1-3][0-9]{3} [0-2][0-9]:[0-6][0-9]:[0-6][0-9] GMT$"
							},
							"ETag": {
								"description": "The ETag header specifies the unique entity tag value for the returned resource.",
								"x-example": "*",
								"type": "string",
								"minLength": 1,
								"maxLength": 256,
								"pattern": "^[\\S]*$"
							},
							"Transfer-Encoding": {
								"description": "The form of encoding used to safely transfer the entity to the user. Currently defined methods are: chunked, compress, deflate, gzip, identity.",
								"x-example": "chunked",
								"type": "string",
								"minLength": 1,
								"maxLength": 15,
								"pattern": "^[\\S]*$"
							},
							"service-transaction-id": {
								"description": "Request ID echoed back by server",
								"x-example": "23409209723",
								"type": "string",
								"minLength": 1,
								"maxLength": 256,
								"pattern": "^[\\S]*$"
							}
						}
					},
					"400": {
						"description": "Bad Request",
						"schema": {
							"$ref": "#/definitions/Error"
						},
						"examples": {
							"application/json": {
								"code": "400",
								"userMessage": "Bad Request",
								"systemMessage": "Bad Request",
								"detailLink": "http://www.tmus.com"
							}
						},
						"headers": {}
					},
					"401": {
						"description": "Unauthorized",
						"schema": {
							"$ref": "#/definitions/Error"
						},
						"examples": {
							"application/json": {
								"code": "401",
								"userMessage": "Unauthorized",
								"systemMessage": "Unauthorized",
								"detailLink": "http://www.tmus.com"
							}
						},
						"headers": {}
					},
					"404": {
						"description": "Resource not found",
						"schema": {
							"$ref": "#/definitions/Error"
						},
						"examples": {
							"application/json": {
								"code": "404",
								"userMessage": "No information found for Accounting document-1800046031 and orderfiscalyear-2019",
								"systemMessage": "No information found for Accounting document-1800046031 and orderfiscalyear-2019",
								"detailLink": "http://www.tmus.com"
							}
						},
						"headers": {}
					},
					"405": {
						"description": "Method Not Allowed",
						"schema": {
							"$ref": "#/definitions/Error"
						},
						"examples": {
							"application/json": {
								"code": "405",
								"userMessage": "Method Not Allowed",
								"systemMessage": "Method Not Allowed",
								"detailLink": "http://www.tmus.com"
							}
						},
						"headers": {
							"Allow": {
								"description": "list of supported methods for URI",
								"x-example": "GET",
								"type": "string",
								"minLength": 1,
								"maxLength": 256,
								"pattern": "^[\\S]*$"
							},
							"service-transaction-id": {
								"description": "Request ID echoed back by server",
								"x-example": "23409209723",
								"type": "string",
								"minLength": 1,
								"maxLength": 256,
								"pattern": "^[\\S]*$"
							}
						}
					},
					"409": {
						"description": "Invalid data",
						"schema": {
							"$ref": "#/definitions/Error"
						},
						"examples": {
							"application/json": {
								"code": "409",
								"userMessage": "Accounting document-1800046031 is not valid",
								"systemMessage": "Accounting document-1800046031 is not valid",
								"detailLink": "http://www.tmus.com"
							}
						},
						"headers": {}
					},
					"415": {
						"description": "Unsupported Media Type",
						"schema": {
							"$ref": "#/definitions/Error"
						},
						"examples": {
							"application/json": {
								"code": "415",
								"userMessage": "Unsupported Media Type",
								"systemMessage": "Unsupported Media Type",
								"detailLink": "http://www.tmus.com"
							}
						},
						"headers": {}
					},
					"500": {
						"description": "System Error",
						"schema": {
							"$ref": "#/definitions/Error"
						},
						"examples": {
							"application/json": {
								"code": "500",
								"userMessage": "System Error",
								"systemMessage": "System Error",
								"detailLink": "http://www.tmus.com"
							}
						},
						"headers": {}
					},
					"503": {
						"description": "Service unavailable",
						"schema": {
							"$ref": "#/definitions/Error"
						},
						"examples": {
							"application/json": {
								"code": "503",
								"userMessage": "Service unavailable",
								"systemMessage": "Service unavailable",
								"detailLink": "http://www.tmus.com"
							}
						},
						"headers": {}
					}
				},
				"security": [{
					"JWT": [
						"post:OrderCancellationRequest: Send Orders to SAP for Cancellation"
					]
				}]
			}
		}
	},
	"definitions": {
		"Error": {
			"description": "As defined in http://api-standards.apps.px-npe01.cf.t-mobile.com/http/status-codes/error-response-format/",
			"type": "object",
			"required": [
				"code",
				"userMessage"
			],
			"properties": {
				"code": {
					"description": "A succinct, domain-specific, human-readable text string to identify the type of error for the given status code",
					"example": "SAPOrderNotFound",
					"type": "string",
					"minLength": 1,
					"maxLength": 50,
					"pattern": "^[\\S ]+$"
				},
				"userMessage": {
					"description": "A human-readable message describing the error.",
					"example": "Failed to find SAP Order Number",
					"type": "string",
					"minLength": 1,
					"maxLength": 200,
					"pattern": "^[\\S ]+$"
				},
				"systemMessage": {
					"description": "Text that provides a more detailed technical explanation of the error",
					"example": "SAPORDER_NOT_FOUND",
					"type": "string",
					"minLength": 1,
					"maxLength": 30,
					"pattern": "^[\\S ]+$"
				},
				"detailLink": {
					"description": "link to custom information providing greater detail on error or errors",
					"example": "http://aaa.bbb.ccc/",
					"type": "string",
					"minLength": 1,
					"maxLength": 16,
					"pattern": "^[\\S ]+$"
				}
			}
		},
		"OrderCancellationRequest": {
			"description": "Send OrderCancellation Requestung by sending either Order Number or SAP Order Number",
			"type": "object",
			"properties": {
				"orderLines": {
					"description": "An array of orderLines objects.",
					"type": "array",
					"items": {
						"$ref": "#/definitions/OrderLines"
					}
				}
			}
		},
		"OrderCancellationResponse": {
			"description": "Response from SAP on the Order Cancelleations",
			"type": "object",
			"properties": {
				"orderLines": {
					"description": "An array of orderLines objects.",
					"type": "array",
					"items": {
						"$ref": "#/definitions/OrderLinesResponse"
					}
				}
			}
		},
		"OrderLines": {
			"description": "An array of orderLines objects.",
			"type": "object",
			"properties": {
				"orderNumber": {
					"description": "Front End unique order number Reference",
					"example": "71845678",
					"type": "string",
					"minLength": 1,
					"maxLength": 20,
					"pattern": "^[\\S ]+$"
				},
				"sapOrderNumber": {
					"description": "SAP Unique order number for an order FE Order number",
					"example": "3000567458",
					"type": "string",
					"minLength": 1,
					"maxLength": 20,
					"pattern": "^[\\S ]+$"
				},
				"cancellationCode": {
					"description": "Front End Cancellation Reason code",
					"example": "35",
					"type": "string",
					"minLength": 1,
					"maxLength": 4,
					"pattern": "^[\\S ]+$"
				},
				"cancellationDate": {
					"description": "Front End Cancellation Date",
					"example": "20191223",
					"type": "string",
					"minLength": 1,
					"maxLength": 8,
					"pattern": "^[\\S ]+$"
				}				
			}
		},
		"OrderLinesResponse": {
			"description": "An array of orderLines objects.",
			"type": "object",
			"properties": {
				"orderNumber": {
					"description": "Front End unique order number Reference",
					"example": "71845678",
					"type": "string",
					"minLength": 1,
					"maxLength": 20,
					"pattern": "^[\\S ]+$"
				},
				"sapOrderNumber": {
					"description": "SAP Unique order number for an order FE Order number",
					"example": "3000567458",
					"type": "string",
					"minLength": 1,
					"maxLength": 20,
					"pattern": "^[\\S ]+$"
				},
				"cancelStatus": {
					"description": "SAP Order Cancellation Status ",
					"example": "S/F",
					"type": "string",
					"minLength": 1,
					"maxLength": 1,
					"pattern": "^[\\S ]+$"
				},
				"cancelMessage": {
					"description": "SAP Order cancellation status message",
					"example": "SAP Order set to Cancelled Status Successfully",
					"type": "string",
					"minLength": 1,
					"maxLength": 200,
					"pattern": "^[\\S ]+$"
				}
			}
		}
	},
	"securityDefinitions": {
		"JWT": {
			"type": "oauth2",
			"description": "Standard security scheme to access the APIs flow is accessCode, for channels where customer is accessing the UI. Other flow types like - application may be supported if approved by Security teams at T-Mobile",
			"authorizationUrl": "https://example.com/oauth/authorize",
			"tokenUrl": "https://host-env:port/oauth2/v4/tokens",
			"flow": "accessCode",
			"scopes": {
				"post:OrderCancellationRequest: Send Orders to SAP for Cancellation": ""
			}
		}
	}
}