@startuml

!define MS_SERVICE account-authentication-management-v1
!define MS_OPERATION validate-otp
!define LAST_UPDATE %date[yyyy.MM.dd 'at' HH:mm]%
!define module(x) component x <<module>> 
!define send(a,b,c) a->b : c
!define response(a,b) a-->b : Response

title
 MS: MS_SERVICE/MS_OPERATION
 Last update: LAST_UPDATE
 
end title

hide footbox


center footer
 
 
Copyright (c) 2019 Amdocs.
 
Information Security Level 1 - Confidential
 
CONTAINS RESTRICTED - PROPRIETARY INFORMATION
 
This document is strictly confidential and proprietary; to be used only by authorized persons
on a need to know basis, and must not be distributed without specific permission.
 
In the event of unauthorized use of this document or the confidential information it contains,
violators will be subject to sever disciplinary action, based on Amdocs regulations, as well as
any other sanctions applicable by law.
 
endfooter

participant Channel


participant "account-\nauthentication-\nmanagement-v1\nMS" as AA

participant "Secure-Id" as SI

participant "security-\nmanagement-v2\nMS" as SME




skinparam sequenceArrowThickness 2
skinparam ArrowColor  #blue 

Channel -> AA: validate-otp
Activate SI#lightgreen

send(AA,SI,otpVerify(if secure ID up))
send(SI,AA,SUCCESS-IdToken)
send(AA,Channel,SUCCES)
send(AA,SME,validate-mfa-otp-v2(if secure ID is down))
send(SME,AA,SUCCESS-isValideCode)

@enduml