{
    "swagger": "2.0",
    "info": {
        "title": "dfs-equipment-returns-swagger-v1.0",
        "description": "This API is used for returning equipment. Initial version",
        "version": "1.0.0",
        "x-createdBy": {
            "dateCreated": "Fri Jun  7 22:39:18 2019",
            "createdBy": "bsailaj",
            "application": "Recite",
            "appVersion": "1.0.0.2891",
            "documentId": "324276fb-49ce-4bb3-b7a3-a6e67c038d7b",
            "status": "Conceptual - Initial",
            "classification": "6.3 Customer Loan / Lease / Insurance Mgmt",
            "profile": "Core Business Capability Service",
            "serviceLayer": "Enterprise - OrderManagement"
        }
    },
    "tags": [
        {
            "name": "returns",
            "description": "This API is used to return devices that exist on EIP plan"
        }
    ],
    "host": "dev01.api.t-mobile.com",
    "basePath": "/device-finance/v1",
    "schemes": [
        "https"
    ],
    "paths": {
        "/returns": {
            "post": {
                "tags": [
                    "returns"
                ],
                "x-api-pattern": "ExecuteFunction",
                "summary": "returns",
                "description": "This API is used to return devices that exist on EIP plan",
                "operationId": "returns",
                "consumes": [
                    "application/json",
                    "application/xml"
                ],
                "produces": [
                    "application/json",
                    "application/xml"
                ],
                "parameters": [
                    {
                        "name": "equipmentReturnRequest",
                        "in": "body",
                        "description": "Request for Equipment Return",
                        "required": true,
                        "schema": {
                            "$ref": "#/definitions/EquipmentReturnRequest"
                        }
                    },
                    {
                        "name": "Content-Type",
                        "in": "header",
                        "description": "The MIME type of this content",
                        "x-example": "text/xml",
                        "required": false,
                        "type": "string",
                        "minLength": 1,
                        "maxLength": 256,
                        "pattern": "^[ \\S]+$"
                    },
                    {
                        "name": "application-id",
                        "in": "header",
                        "description": "Identifies the application, system, or tool that is being used to perform the transaction related to this request. Sample values:ACUI, ESERVICE, REBELLION, WARP",
                        "x-example": "REBELLION",
                        "required": true,
                        "type": "string",
                        "minLength": 1,
                        "maxLength": 256,
                        "pattern": "^[\\S]*$"
                    },
                    {
                        "name": "interaction-id",
                        "in": "header",
                        "description": "Alphanumeric value represent a common transaction id across all calls made from UI, while completing all business activity needs of a particular customer.",
                        "x-example": "cc688d54-50d1-49d4-8c5d-95459d1172e8",
                        "required": false,
                        "type": "string",
                        "minLength": 1,
                        "maxLength": 256,
                        "pattern": "^[\\S]*$"
                    },
                    {
                        "name": "origin-sender-id",
                        "in": "header",
                        "description": "replaced by _aud_ in authorization",
                        "x-example": "Deprecated Header",
                        "required": false,
                        "type": "string",
                        "minLength": 1,
                        "maxLength": 256,
                        "pattern": "^[\\S ]*$"
                    },
                    {
                        "name": "sender-id",
                        "in": "header",
                        "description": "The related business partner or T-Mobile organization",
                        "x-example": "QVXP",
                        "required": false,
                        "type": "string",
                        "minLength": 1,
                        "maxLength": 256,
                        "pattern": "^[\\S]*$"
                    },
                    {
                        "name": "service-transaction-id",
                        "in": "header",
                        "description": "Request ID echoed back by server",
                        "x-example": "23409209723",
                        "required": false,
                        "type": "string",
                        "minLength": 1,
                        "maxLength": 256,
                        "pattern": "^[\\S]*$"
                    },
                    {
                        "name": "user-id",
                        "in": "header",
                        "description": "NT id of the one who is managing the transaction from CARE/RETAIL channels.",
                        "x-example": "Deprecated Header",
                        "required": true,
                        "type": "string",
                        "minLength": 1,
                        "maxLength": 256,
                        "pattern": "^[\\S ]*$"
                    }
                ],
                "responses": {
                    "200": {
                        "description": "Success",
                        "schema": {
                            "$ref": "#/definitions/EquipmentReturnResponse"
                        },
                        "headers": {
                            "Cache-Control": {
                                "description": "Cache policy supported for the resource by the server",
                                "x-example": "no-cache",
                                "type": "string",
                                "minLength": 1,
                                "maxLength": 256,
                                "pattern": "^[\\S]*$"
                            }
                        }
                    },
                    "400": {
                        "description": "Bad Request.",
                        "schema": {
                            "$ref": "#/definitions/ErrorResponse"
                        },
                        "examples": {
                            "application/json": {
                                "code": "400",
                                "userMessage": "Bad Request.",
                                "systemMessage": "Bad Request.",
                                "detailLink": "http://www.tmus.com"
                            }
                        },
                        "headers": {}
                    },
                    "401": {
                        "description": "Unauthorized",
                        "schema": {
                            "$ref": "#/definitions/ErrorResponse"
                        },
                        "examples": {
                            "application/json": {
                                "code": "401",
                                "userMessage": "Unauthorized",
                                "systemMessage": "Unauthorized",
                                "detailLink": "http://www.tmus.com"
                            }
                        },
                        "headers": {}
                    },
                    "404": {
                        "description": "Not found",
                        "schema": {
                            "$ref": "#/definitions/ErrorResponse"
                        },
                        "examples": {
                            "application/json": {
                                "code": "404",
                                "userMessage": "Not found",
                                "systemMessage": "Not found",
                                "detailLink": "http://www.tmus.com"
                            }
                        },
                        "headers": {}
                    },
                    "406": {
                        "description": "Mismatching data format",
                        "schema": {
                            "$ref": "#/definitions/ErrorResponse"
                        },
                        "examples": {
                            "application/json": {
                                "code": "406",
                                "userMessage": "Mismatching data format",
                                "systemMessage": "Mismatching data format",
                                "detailLink": "http://www.tmus.com"
                            }
                        },
                        "headers": {}
                    },
                    "409": {
                        "description": "Invalid data",
                        "schema": {
                            "$ref": "#/definitions/ErrorResponse"
                        },
                        "examples": {
                            "application/json": {
                                "code": "409",
                                "userMessage": "Invalid data",
                                "systemMessage": "Invalid data",
                                "detailLink": "http://www.tmus.com"
                            }
                        },
                        "headers": {}
                    },
                    "500": {
                        "description": "Internal Server Error",
                        "schema": {
                            "$ref": "#/definitions/ErrorResponse"
                        },
                        "examples": {
                            "application/json": {
                                "code": "500",
                                "userMessage": "Internal Server Error",
                                "systemMessage": "Internal Server Error",
                                "detailLink": "http://www.tmus.com"
                            }
                        },
                        "headers": {}
                    },
                    "503": {
                        "description": "Service unavailable",
                        "schema": {
                            "$ref": "#/definitions/ErrorResponse"
                        },
                        "examples": {
                            "application/json": {
                                "code": "503",
                                "userMessage": "Service unavailable",
                                "systemMessage": "Service unavailable",
                                "detailLink": "http://www.tmus.com"
                            }
                        },
                        "headers": {}
                    }
                },
                "security": [
                    {
                        "oauth2-application": []
                    }
                ]
            }
        }
    },
    "definitions": {
        "EffectiveDateOfNewEclmp": {
            "description": "User defined - Effective date",
            "type": "object",
            "properties": {
                "startDate": {
                    "description": "Start date",
                    "type": "string",
                    "format": "date"
                },
                "endDate": {
                    "description": "End date",
                    "type": "string",
                    "format": "date"
                }
            }
        },
        "Equipment": {
            "description": "Equipment details object",
            "type": "object",
            "properties": {
                "imei": {
                    "description": "International Mobile Equipment Identifier.  Unique identifier for a mobile device on a network.",
                    "type": "string"
                },
                "sku": {
                    "description": "Stock keeping unit (SKU).  Uniquely identifies the product in the inventory system.",
                    "type": "string"
                },
                "equipmentFinanceId": {
                    "description": "Use in place of eipEquipmentId",
                    "type": "string"
                },
                "orderId": {
                    "description": "Use in place of orderDetailId",
                    "type": "string"
                }
            }
        },
        "EquipmentConfirmationStatementInfo": {
            "description": "An array of equipmentConfirmationStatementInfo objects.",
            "type": "object",
            "properties": {
                "imei": {
                    "description": "International Mobile Equipment Identifier.  Unique identifier for a mobile device on a network.",
                    "type": "string"
                },
                "skuDescription": {
                    "description": "Description of the device variant of the make/model.",
                    "type": "string"
                },
                "equipmentFinanceId": {
                    "description": "User defined - EIP Equipment ID",
                    "type": "string"
                },
                "eclmpWithTax": {
                    "description": "User defined - ECMLP with tax",
                    "type": "number",
                    "format": "double"
                },
                "maxPotentialEquipmentCredit": {
                    "description": "ECLMP - The maximum potential amount (MPEC) that can be financed, determined by credit class, regardless of eligible subscriber contributions.",
                    "type": "number",
                    "format": "double"
                },
                "inactiveDate": {
                    "description": "User defined - Inactive date",
                    "type": "string",
                    "format": "date-time"
                },
                "activeIndicator": {
                    "description": "User defined - Status of the customer",
                    "type": "boolean"
                },
                "inactiveTransactionType": {
                    "description": "User defined - Inactive Transaction Type",
                    "type": "string"
                }
            }
        },
        "EquipmentResponse": {
            "description": "Equipment details object in Response",
            "type": "object",
            "properties": {
                "firstInstallmentAmount": {
                    "description": "User defined - First installment amount",
                    "type": "number",
                    "format": "double"
                },
                "price": {
                    "description": "Device price",
                    "type": "number",
                    "format": "double"
                },
                "percentTotal": {
                    "description": "User defined - Percent total",
                    "type": "number",
                    "format": "double"
                },
                "imei": {
                    "description": "International Mobile Equipment Identifier.  Unique identifier for a mobile device on a network.",
                    "type": "string"
                },
                "sku": {
                    "description": "Stock keeping unit (SKU).  Uniquely identifies the product in the inventory system.",
                    "type": "string"
                },
                "equipmentConfirmationStatementInfo": {
                    "description": "An array of equipmentConfirmationStatementInfo objects.",
                    "type": "array",
                    "items": {
                        "$ref": "#/definitions/EquipmentConfirmationStatementInfo"
                    }
                }
            }
        },
        "EquipmentReturnRequest": {
            "description": "Request for Equipment Return",
            "type": "object",
            "required": [
                "accountNumber",
                "transactionNumber"
            ],
            "properties": {
                "accountType": {
                    "description": "Type or classification of the account.",
                    "type": "string"
                },
                "accountNumber": {
                    "description": "The financial account number that identifies the account.",
                    "type": "string"
                },
                "transactionNumber": {
                    "description": "Transaction Number",
                    "type": "string"
                },
                "returnUiSource": {
                    "description": "Custom element. Denotes if the return request coming from UI",
                    "type": "string"
                },
                "equipment": {
                    "description": "An array of equipment objects.",
                    "type": "array",
                    "items": {
                        "$ref": "#/definitions/Equipment"
                    }
                },
                "status": {
                    "description": "User defined - The current status of the BAN.",
                    "type": "string"
                },
                "statusReasonCodes": {
                    "description": "BAN Status Reason - List of status change reason codes",
                    "type": "string"
                },
                "delinquentIndicator": {
                    "description": "BAN Deliquency indicator - To indicate if the account has been flagged as delinquent",
                    "type": "boolean"
                },
                "banRatePlanLength": {
                    "description": "User defined - BAN Rate plan length",
                    "type": "integer",
                    "format": "int32",
                    "pattern": ".[\\-+]?[0-9]+."
                },
                "creditClass": {
                    "description": "Credit class of the customer when the account is active",
                    "type": "string"
                },
                "state": {
                    "description": "Two letter state code",
                    "type": "string"
                },
                "planType": {
                    "description": "Usere defined - Type or classification of the plan.",
                    "type": "string"
                },
                "linesCount": {
                    "description": "Number of lines.",
                    "type": "integer",
                    "format": "int32",
                    "minimum": -2147483648,
                    "maximum": 2147483647,
                    "pattern": "^[\\-+]?[0-9]+$"
                },
                "msisdnBufferCount": {
                    "description": "User defined - Gives count of MSISDN Buffer object",
                    "type": "integer",
                    "format": "int32",
                    "pattern": ".[\\-+]?[0-9]+."
                },
                "msisdnBuffers": {
                    "description": "An array of msisdnBuffers objects.",
                    "type": "array",
                    "items": {
                        "$ref": "#/definitions/MsisdnBuffers"
                    }
                },
                "creditRiskProfileId": {
                    "description": "Unique identifier generated from risk system which is derived from multple business inputs -creditscore, tenure and payment history etc.",
                    "type": "string"
                },
                "behaviorScore": {
                    "description": "A numeric summary of the banks experience with the customer",
                    "type": "integer",
                    "format": "int32",
                    "pattern": ".[\\-+]?[0-9]+."
                },
                "tenure": {
                    "description": "The duration of the account of this customer with T-Mobile. How long have they been our customer?",
                    "type": "string"
                },
                "dealerId": {
                    "description": "Uniquely identifies a dealer",
                    "type": "string"
                },
                "emailAddress": {
                    "description": "Email address",
                    "type": "string"
                },
                "isEstimate": {
                    "description": "User defined - Estimate indicator",
                    "type": "boolean"
                },
                "isBanCancel": {
                    "description": "User defined - Is BAN Cancelled during return",
                    "type": "boolean"
                },
                "returnReason": {
                    "description": "Reason for return",
                    "type": "string"
                }
            }
        },
        "EquipmentReturnResponse": {
            "description": "Response for Euipment Return",
            "type": "object",
            "properties": {
                "accountNumber": {
                    "description": "BAN",
                    "type": "string"
                },
                "status": {
                    "description": "The current status of the account.",
                    "type": "string"
                },
                "equipmentCreditLimit": {
                    "description": "Equipment Credit Limit (ECL) or Current Equipment Credit Limit (CECL) when the account is active",
                    "type": "number",
                    "format": "double"
                },
                "equipmentCreditAvailableAmount": {
                    "description": "ECLA - The available equipment credit amount. It is the credit limit minus the credit used.",
                    "type": "number",
                    "format": "double"
                },
                "maxPotentialEquipmentCredit": {
                    "description": "ECLMP - The maximum potential amount (MPEC) that can be financed, determined by credit class, regardless of eligible subscriber contributions.",
                    "type": "number",
                    "format": "double"
                },
                "equipmentResponse": {
                    "description": "An array of equipmentResponse objects.",
                    "type": "array",
                    "items": {
                        "$ref": "#/definitions/EquipmentResponse"
                    }
                },
                "installmentAmountCredit": {
                    "description": "User defined - Credit for installment amount",
                    "type": "number",
                    "format": "double"
                },
                "installmentPlanId": {
                    "description": "User defined - Loan Id",
                    "type": "string"
                },
                "paymentSchedules": {
                    "description": "An array of paymentSchedules objects.",
                    "type": "array",
                    "items": {
                        "$ref": "#/definitions/PaymentSchedules"
                    }
                },
                "planRfa": {
                    "description": "User defined - Plan RFA",
                    "type": "number",
                    "format": "double"
                },
                "planStatus": {
                    "description": "User defined - Plan Status",
                    "type": "string"
                },
                "planTfa": {
                    "description": "User defined - Plan TFA",
                    "type": "number",
                    "format": "double"
                },
                "isCsRequired": {
                    "description": "User defined - Is CS Required",
                    "type": "boolean"
                },
                "originalPlanLevelEclb": {
                    "description": "User defined - Original ECLB",
                    "type": "number",
                    "format": "double"
                },
                "effectiveDateOfNewEclmp": {
                    "$ref": "#/definitions/EffectiveDateOfNewEclmp"
                },
                "equipmentCreditUsed": {
                    "description": "ECLB - The amount of equipment financing for the account with all active loan/lease current balance amounts, plus any reserved loan/lease amounts. Also known as the ECLB",
                    "type": "number",
                    "format": "double"
                },
                "lastInstallmentAmount": {
                    "description": "Last installment amount",
                    "type": "number",
                    "format": "double"
                },
                "effectiveDateOflastInstallment": {
                    "description": "User defined - last installment date",
                    "type": "string",
                    "format": "date-time"
                },
                "lastInstallmentWithTax": {
                    "description": "User defined - Last installment amount with Tax",
                    "type": "number",
                    "format": "double"
                },
                "financeType": {
                    "description": "Finance type",
                    "type": "string"
                },
                "remainingNumberOfInstallments": {
                    "description": "Remaining number of installments",
                    "type": "integer",
                    "format": "int32",
                    "pattern": ".[\\-+]?[0-9]+."
                },
                "planEndDate": {
                    "description": "Usere defined - plan End date",
                    "type": "string",
                    "format": "date-time"
                }
            }
        },
        "ErrorResponse": {
            "description": "As defined in http://api-standards.apps.px-npe01.cf.t-mobile.com/http/status-codes/error-response-format/",
            "type": "object",
            "properties": {
                "errors": {
                    "description": "An array of errors objects.",
                    "type": "array",
                    "minItems": 1,
                    "items": {
                        "$ref": "#/definitions/ErrorResponseErrors"
                    }
                }
            }
        },
        "ErrorResponseErrors": {
            "description": "As defined in http://api-standards.apps.px-npe01.cf.t-mobile.com/http/status-codes/error-response-format/",
            "type": "object",
            "required": [
                "code",
                "userMessage"
            ],
            "properties": {
                "code": {
                    "description": "A succinct, domain-specific, human-readable text string to identify the type of error for the given status code",
                    "example": "ProductNotFound",
                    "type": "string",
                    "pattern": "^[\\S ]+$"
                },
                "userMessage": {
                    "description": "A human-readable message describing the error.",
                    "example": "Failed to find product.",
                    "type": "string",
                    "pattern": "^[\\S ]+$"
                },
                "systemMessage": {
                    "description": "Text that provides a more detailed technical explanation of the error",
                    "example": "PRODUCT_NOT_FOUND",
                    "type": "string"
                },
                "detailLink": {
                    "description": "link to custom information providing greater detail on error or errors",
                    "example": "http://aaa.bbb.ccc/",
                    "type": "string"
                }
            }
        },
        "MsisdnBuffers": {
            "description": "MSISDN Buffers",
            "type": "object",
            "properties": {
                "msisdn": {
                    "description": "Phone number",
                    "type": "string"
                },
                "activationDate": {
                    "description": "Date when the line of service was originally activated.",
                    "type": "string",
                    "format": "date"
                },
                "subsidyType": {
                    "description": "User defined - subsidy type",
                    "type": "string"
                },
                "subsidyDate": {
                    "description": "User defined - Subsidy date",
                    "type": "string",
                    "format": "date"
                },
                "depositIndicator": {
                    "description": "To indicate if deposit is required",
                    "type": "boolean"
                },
                "mft": {
                    "description": "User defined - MFT",
                    "type": "string"
                },
                "isEipEligible": {
                    "description": "User defined - is EIP Eligible",
                    "type": "boolean"
                },
                "msisdnGroupId": {
                    "description": "User defined - MSISDN Group ID",
                    "type": "string"
                },
                "msisdnGroupCount": {
                    "description": "User defined - MSISDN Group Count",
                    "type": "integer",
                    "format": "int32",
                    "pattern": ".[\\-+]?[0-9]+."
                },
                "msisdnList": {
                    "description": "An array of msisdnList objects.",
                    "type": "array",
                    "items": {
                        "$ref": "#/definitions/MsisdnList"
                    }
                },
                "ratePlanType": {
                    "description": "User defined - Rate plan type",
                    "type": "string"
                },
                "ratePlanTerm": {
                    "description": "User defined - Term of the Rate plan",
                    "type": "integer",
                    "format": "int32",
                    "pattern": ".[\\-+]?[0-9]+."
                }
            }
        },
        "MsisdnList": {
            "description": "List of MSISDNs",
            "type": "object",
            "properties": {
                "msisdn": {
                    "description": "Phone number",
                    "type": "string"
                }
            }
        },
        "PaymentSchedules": {
            "description": "Payment schedule details",
            "type": "object",
            "properties": {
                "paymentAmount": {
                    "description": "Total payment amount",
                    "type": "number",
                    "format": "double"
                },
                "paymentDate": {
                    "description": "User defined - date of payment",
                    "type": "string",
                    "format": "date"
                },
                "paymentNumber": {
                    "description": "Installment number",
                    "type": "integer",
                    "format": "int32",
                    "pattern": ".[\\-+]?[0-9]+."
                },
                "taxAmount": {
                    "description": "Amount of tax included in the payment transaction.",
                    "type": "number",
                    "format": "double"
                }
            }
        }
    },
    "securityDefinitions": {
        "oauth2-application": {
            "type": "oauth2",
            "tokenUrl": "https://tmobileb-sb01.apigee.net/v1/oauth2/accesstoken?grant_type=client_credentials",
            "flow": "application",
            "scopes": {}
        }
    }
}