{
    "swagger": "2.0",
    "info": {
        "title": "dfs-common-event-swagger-new-v1.0",
        "description": "This swagger is used to publish event payloads for downstream consumers. Changes to v 1.0.6 include adding lastInstallmentAmountWithTax at agreements and equipments levels.",
        "version": "1.0.6",
        "x-createdBy": {
            "dateCreated": "Fri Jul 19 19:40:30 2019",
            "createdBy": "gshyand1",
            "application": "Recite",
            "appVersion": "1.0.0.2891",
            "documentId": "2d4df9b6-f7c2-4513-b9dc-6893f888ae4f",
            "status": "Conceptual - Initial",
            "classification": "6.3 Customer Loan / Lease / Insurance Mgmt",
            "profile": "Core Business Capability Service",
            "serviceLayer": "Enterprise - CustomerManagement"
        }
    },
    "tags": [
        {
            "name": "Equipment",
            "description": ""
        }
    ],
    "host": "device-finance",
    "basePath": "/",
    "schemes": [
        "https"
    ],
    "paths": {
        "/v1/event-type": {
            "post": {
                "tags": [
                    "Equipment"
                ],
                "x-api-pattern": "CreateInCollection",
                "description": "Loan, Lease or POIP",
                "operationId": "createEvent",
                "consumes": [
                    "application/json"
                ],
                "produces": [
                    "application/json"
                ],
                "parameters": [
                    {
                        "name": "createEventRequest",
                        "in": "body",
                        "required": true,
                        "schema": {
                            "$ref": "#/definitions/CreateEventRequest"
                        }
                    },
                    {
                        "name": "Accept",
                        "in": "header",
                        "description": "Preferred content type _ default to application/json",
                        "x-example": "application/json",
                        "required": false,
                        "type": "string",
                        "minLength": 1,
                        "maxLength": 256,
                        "pattern": "^[ \\S]+$"
                    },
                    {
                        "name": "Access-Control-Request-Headers",
                        "in": "header",
                        "description": "For CORS pre-flight OPTIONS requests sent by a browser, headers to be used.",
                        "x-example": "Authorization, Content-Type",
                        "required": false,
                        "type": "string",
                        "minLength": 1,
                        "maxLength": 256,
                        "pattern": "^[\\S ]*$"
                    },
                    {
                        "name": "Access-Control-Request-Method",
                        "in": "header",
                        "description": "In CORS, the Access-Control-Request-Method header indicates which method will be used in the actual request as part of a preflight request.",
                        "x-example": "POST",
                        "required": false,
                        "type": "string",
                        "minLength": 1,
                        "maxLength": 256,
                        "enum": [
                            "GET",
                            "HEAD",
                            "POST",
                            "PUT",
                            "DELETE",
                            "CONNECT",
                            "OPTIONS",
                            "TRACE"
                        ],
                        "pattern": "^[\\S]*$"
                    },
                    {
                        "name": "Authorization",
                        "in": "header",
                        "description": "The HTTP Authorization request header contains the credentials to authenticate a user agent with a server.",
                        "x-example": "Bearer mF_9.B5f-4.1JqM",
                        "required": true,
                        "type": "string",
                        "minLength": 1,
                        "maxLength": 256,
                        "pattern": "^[\\S ]+$"
                    },
                    {
                        "name": "If-Match",
                        "in": "header",
                        "description": "The If-Match header specifies an ETag-related condition to be placed on the execution of a request.  The request will only be executed if the ETag of the requested resource matches one of those specified in the If-Match header.  Because the behavior is complex, the details for usage are provided at http://www.w3.org/Protocols/rfc2616/rfc2616-sec14.html .",
                        "x-example": "*",
                        "required": false,
                        "type": "string",
                        "minLength": 1,
                        "maxLength": 256,
                        "pattern": "^[\\S]*$"
                    },
                    {
                        "name": "If-Modified-Since",
                        "in": "header",
                        "description": "The If-Modified-Since header specifies date-related conditions to be placed on the execution of a request.  The request will only be executed if the requested resource has not been modified since the date-time specified.  Because the behavior is complex, the details for usage are provided at http://www.w3.org/Protocols/rfc2616/rfc2616-sec14.html",
                        "x-example": "Mon, 05 Mar 2018 16:38:08 GMT",
                        "required": false,
                        "type": "string",
                        "format": "date-time",
                        "pattern": "^(Mon|Tue|Wed|Thu|Fri|Sat|Sun), [0-3]{1}[0-9]{1} (Jan|Feb|Mar|Apr|May|Jun|Jul|Aug|Sep|Oct|Nov|Dec) [1-3][0-9]{3} [0-2][0-9]:[0-6][0-9]:[0-6][0-9] GMT$"
                    },
                    {
                        "name": "If-None-Match",
                        "in": "header",
                        "description": "The If-None-Match header specifies an ETag-related condition to be placed on the execution of a request.  The request will NOT be executed if the ETag of the requested resource matches one of those specified in the If-None-Match header.  Because the behavior is complex, the details for usage are provided at http://www.w3.org/Protocols/rfc2616/rfc2616-sec14.html",
                        "x-example": "*",
                        "required": false,
                        "type": "string",
                        "minLength": 1,
                        "maxLength": 256,
                        "pattern": "^[\\S]*$"
                    },
                    {
                        "name": "Origin",
                        "in": "header",
                        "description": "For simple CORS requests, the host from which the request originated",
                        "x-example": "https://www.t-mobile.com",
                        "required": false,
                        "type": "string",
                        "minLength": 1,
                        "maxLength": 65536,
                        "pattern": "^[\\S]*$"
                    },
                    {
                        "name": "timestamp",
                        "in": "header",
                        "description": "ms since 1/1/70 adjusted to GMT",
                        "x-example": "1524599536",
                        "required": true,
                        "type": "integer",
                        "format": "int64",
                        "minimum": 0,
                        "maximum": 999999999999,
                        "pattern": "^[\\d]*$"
                    }
                ],
                "responses": {
                    "201": {
                        "description": "Success",
                        "headers": {}
                    },
                    "400": {
                        "description": "Bad Request",
                        "schema": {
                            "$ref": "#/definitions/ErrorResponse"
                        },
                        "examples": {
                            "application/json": {
                                "code": "400",
                                "userMessage": "Bad Request",
                                "systemMessage": "Bad Request",
                                "detailLink": "http://www.tmus.com"
                            }
                        },
                        "headers": {}
                    },
                    "404": {
                        "description": "Not Found",
                        "schema": {
                            "$ref": "#/definitions/ErrorResponse"
                        },
                        "examples": {
                            "application/json": {
                                "code": "404",
                                "userMessage": "Not Found",
                                "systemMessage": "Not Found",
                                "detailLink": "http://www.tmus.com"
                            }
                        },
                        "headers": {}
                    },
                    "500": {
                        "description": "Internal Server Error",
                        "schema": {
                            "$ref": "#/definitions/ErrorResponse"
                        },
                        "examples": {
                            "application/json": {
                                "code": "500",
                                "userMessage": "Internal Server Error",
                                "systemMessage": "Internal Server Error",
                                "detailLink": "http://www.tmus.com"
                            }
                        },
                        "headers": {}
                    },
                    "503": {
                        "description": "Service unavailable",
                        "schema": {
                            "$ref": "#/definitions/ErrorResponse"
                        },
                        "examples": {
                            "application/json": {
                                "code": "503",
                                "userMessage": "Service unavailable",
                                "systemMessage": "Service unavailable",
                                "detailLink": "http://www.tmus.com"
                            }
                        },
                        "headers": {}
                    }
                },
                "security": [
                    {
                        "Oauth": []
                    }
                ]
            }
        }
    },
    "definitions": {
        "Account": {
            "type": "object",
            "required": [
                "accountNumber",
                "billingAddress"
            ],
            "properties": {
                "accountNumber": {
                    "description": "The financial account number that identifies the account.",
                    "type": "string"
                },
                "accountType": {
                    "description": "Type or classification of the account.",
                    "type": "string"
                },
                "accountSubType": {
                    "description": "Account sub type",
                    "type": "string"
                },
                "billCycleCode": {
                    "description": "Bill cycle code",
                    "type": "string"
                },
                "commonCustomerId": {
                    "description": "Universal identifier of the customer, as defined in Customer Hub",
                    "type": "string"
                },
                "billingAddress": {
                    "$ref": "#/definitions/BillingAddress"
                },
                "status": {
                    "description": "The current status of the account.",
                    "type": "string"
                },
                "billCycleDay": {
                    "description": "Day of the month when bill cycle normally runs.",
                    "type": "integer",
                    "format": "int32",
                    "minimum": -2147483648,
                    "maximum": 2147483647,
                    "pattern": "^[\\-+]?[0-9]+$"
                },
                "paymentDueDay": {
                    "description": "Day of month on which the payment is due.",
                    "type": "integer",
                    "format": "int32",
                    "minimum": -2147483648,
                    "maximum": 2147483647,
                    "pattern": "^[\\-+]?[0-9]+$"
                },
                "primaryPlaceOfUseAddress": {
                    "$ref": "#/definitions/PrimaryPlaceOfUseAddress"
                },
                "activationDate": {
                    "description": "Date when the BAN was orignially activated.",
                    "type": "string",
                    "format": "date"
                },
                "transferAccountNumber": {
                    "description": "Account number for balance transfer",
                    "type": "string"
                },
                "equipmentCreditLimit": {
                    "description": "Equipment Credit Limit (ECL) or Current Equipment Credit Limit (CECL) when the account is active",
                    "type": "number",
                    "format": "double",
                    "minimum": -4294967296.0,
                    "maximum": 4294967296.0
                },
                "creditLimitAmount": {
                    "description": "The total amount that the customer is allowed to spend on purchases.",
                    "type": "number",
                    "format": "double",
                    "minimum": -4294967296.0,
                    "maximum": 4294967296.0
                },
                "equipmentCreditUsed": {
                    "description": "The amount of equipment financing for the account with all active loan/lease current balance amounts, plus any reserved loan/lease amounts. Also known as the ECLB",
                    "type": "number",
                    "format": "double",
                    "minimum": -4294967296.0,
                    "maximum": 4294967296.0
                }
            }
        },
        "Agreements": {
            "description": "An array of agreements objects.",
            "type": "object",
            "required": [
                "agreementNumber"
            ],
            "properties": {
                "agreementNumber": {
                    "type": "string"
                },
                "totalAmountFinanced": {
                    "description": "Total financed amount",
                    "type": "number",
                    "format": "double",
                    "minimum": -4294967296.0,
                    "maximum": 4294967296.0
                },
                "remainingFinancedAmount": {
                    "type": "number",
                    "format": "double",
                    "minimum": -4294967296.0,
                    "maximum": 4294967296.0
                },
                "recurringInstallmentAmount": {
                    "type": "number",
                    "format": "double",
                    "minimum": -4294967296.0,
                    "maximum": 4294967296.0
                },
                "firstInstallmentDueDate": {
                    "type": "string",
                    "format": "date-time"
                },
                "lastInstallmentAmount": {
                    "type": "number",
                    "format": "double",
                    "minimum": -4294967296.0,
                    "maximum": 4294967296.0
                },
                "lastInstallmentDueDate": {
                    "type": "string",
                    "format": "date-time"
                },
                "equipments": {
                    "description": "An array of equipments objects.",
                    "type": "array",
                    "minItems": 1,
                    "items": {
                        "$ref": "#/definitions/Equipments"
                    }
                },
                "numberOfMonthlyPayments": {
                    "description": "Agreement level terms for the loan/lease/poip",
                    "type": "integer",
                    "format": "int32",
                    "minimum": -2147483648,
                    "maximum": 2147483647,
                    "pattern": "^[\\-+]?[0-9]+$"
                },
                "remainingNumberOfPayments": {
                    "description": "remaining payments",
                    "type": "integer",
                    "format": "int32",
                    "minimum": -2147483648,
                    "maximum": 2147483647,
                    "pattern": "^[\\-+]?[0-9]+$"
                },
                "payOffAmount": {
                    "description": "Unbilled amount of the loan, it is balance minus billed amount",
                    "type": "number",
                    "format": "double",
                    "minimum": -4294967296.0,
                    "maximum": 4294967296.0
                },
                "effectiveStartDate": {
                    "description": "Effective start date",
                    "type": "string",
                    "format": "date-time"
                },
                "createdDate": {
                    "description": "Agreement created date",
                    "type": "string",
                    "format": "date-time"
                },
                "scmsReasonCode": {
                    "description": "Reason code that needs to be sent to SCMS",
                    "type": "string"
                },
                "bankName": {
                    "description": "Name of the bank",
                    "type": "string"
                },
                "bankId": {
                    "type": "string"
                },
                "oldAccountNumber": {
                    "description": "Account number used before",
                    "type": "string"
                },
                "oldAccountStatus": {
                    "type": "string"
                },
                "financeModel": {
                    "description": "Finance model",
                    "type": "string"
                },
                "shippingDate": {
                    "description": "Date of the shipment.",
                    "type": "string",
                    "format": "date"
                },
                "restartFinance": {
                    "type": "boolean"
                },
                "nominalInterestRate": {
                    "description": "Nominal interest rate",
                    "type": "number",
                    "format": "double",
                    "minimum": -4294967296.0,
                    "maximum": 4294967296.0
                },
                "masterDealerCode": {
                    "description": "A 7-character, T-Mobile-assigned code used to identifiy the master dealer contract for commissioning.",
                    "type": "string"
                },
                "financeType": {
                    "description": "Defines type of finance like LOAN,LEASE,POIP",
                    "type": "string"
                },
                "sameTaxIdTranfer": {
                    "description": "Indicator to indetify same tax ID transfer",
                    "type": "boolean"
                },
                "cashTransaction": {
                    "type": "boolean"
                },
                "delayPayIndicator": {
                    "description": "Indicates if the pay can be delayed, applies to financing plan(true/false)",
                    "type": "boolean"
                },
                "fulfillmentType": {
                    "description": "Describes whether the equipment was purchased in a retail store or shipped to the customer.",
                    "type": "string"
                },
                "orderLocationState": {
                    "description": "State where store is located and where purchase of this loan/lease is carried out - in case of Retail Channel",
                    "type": "string"
                },
                "orderLocationCity": {
                    "description": "City where store is located and where purchase of this loan/lease is carried out - in case of Retail Channel",
                    "type": "string"
                },
                "shipToState": {
                    "description": "Ship to state",
                    "type": "string"
                },
                "sourceTransactionId": {
                    "description": "Unique Transaction Id from frontend applications",
                    "type": "string"
                },
                "creditProfile": {
                    "$ref": "#/definitions/CreditProfile"
                },
                "salesChannelId": {
                    "description": "Uniquely identifies the Sales Channel.",
                    "type": "string"
                },
                "status": {
                    "description": "Status of an agreement",
                    "type": "string"
                },
                "ratePlanType": {
                    "description": "Rate plan assoicated with the agreeement",
                    "type": "string"
                },
                "downPaymentDetails": {
                    "$ref": "#/definitions/AgreementsDownPaymentDetails"
                },
                "returnedDate": {
                    "type": "string",
                    "format": "date-time"
                },
                "equipmentCreditBalanceAmount": {
                    "description": "equipment credit balance at the agreement level",
                    "type": "number",
                    "format": "double",
                    "minimum": -4294967296.0,
                    "maximum": 4294967296.0
                },
                "balanceOwed": {
                    "description": "Balance owed on the agreement.",
                    "type": "number",
                    "format": "double",
                    "minimum": -4294967296.0,
                    "maximum": 4294967296.0
                },
                "internalAgreementNumber": {
                    "description": "internal agreement in the finance system",
                    "type": "integer",
                    "format": "int32",
                    "pattern": ".[\\-+]?[0-9]+."
                },
                "applicationId": {
                    "description": "Application ID which originated the transaction",
                    "type": "string"
                },
                "internalTransactionId": {
                    "type": "string"
                },
                "originationInfo": {
                    "$ref": "#/definitions/OriginationInfo"
                },
                "agreementClosed": {
                    "type": "boolean"
                },
                "unbilledAmount": {
                    "description": "Unbilled amount = balance - currentBilledAmount",
                    "type": "number",
                    "format": "double",
                    "minimum": -4294967296.0,
                    "maximum": 4294967296.0
                },
                "confirmationStatementRequiredIndicator": {
                    "description": "Indicates whether Confirmation Statement is required.",
                    "type": "boolean"
                },
                "actualDownPaymentAmount": {
                    "description": "Custom element. Actual Down Payment amount.",
                    "type": "number",
                    "format": "double",
                    "minimum": -4294967296.0,
                    "maximum": 4294967296.0
                },
                "email": {
                    "description": "Email address",
                    "type": "string"
                },
                "newEffectiveDate": {
                    "description": "Custom element. New effective date.",
                    "type": "string",
                    "format": "date-time"
                },
                "previousBalance": {
                    "description": "Balance before payment is applied.",
                    "type": "number",
                    "format": "double",
                    "minimum": -4294967296.0,
                    "maximum": 4294967296.0
                },
                "effectiveEndDate": {
                    "description": "Plan end date",
                    "type": "string",
                    "format": "date"
                },
                "languagePreference": {
                    "description": "Language preferred by the customer for communications.",
                    "type": "string"
                },
                "refundAmount": {
                    "description": "Refund amount for returning order. This value is a sum of the loan level Total return credit amount.",
                    "type": "number",
                    "format": "double",
                    "minimum": -4294967296.0,
                    "maximum": 4294967296.0
                },
                "lastInstallmentAmountWithTax": {
                    "description": "Custom element. Last Installment Amount with Tax included.",
                    "type": "number",
                    "format": "double",
                    "minimum": -4294967296.0,
                    "maximum": 4294967296.0
                }
            }
        },
        "AgreementsDownPaymentDetails": {
            "type": "object",
            "properties": {
                "downPaymentAmount": {
                    "type": "number",
                    "format": "double",
                    "minimum": -4294967296.0,
                    "maximum": 4294967296.0
                },
                "additionalDownPaymentAmount": {
                    "description": "Additional down payment amount paid along with base down payment amount.",
                    "type": "number",
                    "format": "double",
                    "minimum": -4294967296.0,
                    "maximum": 4294967296.0
                },
                "additionalRequiredDownPayment": {
                    "type": "number",
                    "format": "double",
                    "minimum": -4294967296.0,
                    "maximum": 4294967296.0
                },
                "downPaymentAdjustment": {
                    "type": "number",
                    "format": "double",
                    "minimum": -4294967296.0,
                    "maximum": 4294967296.0
                }
            }
        },
        "AuditInfo": {
            "description": "auditInfo is a predefined object from an igniteXml model - cabinet 1026378528 build 1036265648 key 1032741284",
            "type": "object",
            "properties": {
                "customerId": {
                    "description": "Uniquely identifies the Customer.",
                    "type": "string"
                },
                "accountNumber": {
                    "description": "The financial account number.",
                    "type": "string"
                },
                "universalLineId": {
                    "description": "ULID - Universal identifier of the LineofService, as defined in Customer Hub.",
                    "type": "string"
                },
                "lineId": {
                    "description": "Uniquely identifies a  line of service.",
                    "type": "string"
                },
                "phoneNumber": {
                    "description": "The phone number (MSISDN) associated with the line of service.",
                    "type": "string"
                },
                "lineOrderId": {
                    "description": "Identifier of line for new customer",
                    "type": "string"
                },
                "lineType": {
                    "description": "Type of line of service: shared or individual.",
                    "type": "string"
                },
                "primaryLineId": {
                    "description": "Identifier of the primary line",
                    "type": "string"
                },
                "iamUniqueId": {
                    "description": "Unique identifier for Identity and Access Management.",
                    "type": "string"
                },
                "batchId": {
                    "description": "Identifer of batch job.",
                    "type": "string"
                },
                "orderId": {
                    "description": "Identifier of order.",
                    "type": "string"
                }
            }
        },
        "BillingAddress": {
            "type": "object",
            "required": [
                "stateCode"
            ],
            "properties": {
                "addressLine1": {
                    "description": "The first line of the address, required.",
                    "type": "string"
                },
                "addressLine2": {
                    "description": "The second line of the address, optional.",
                    "type": "string"
                },
                "cityName": {
                    "description": "The name of the city in the mailing address. For military or diplomatic addresses should contain FPO, APO, or DPO.",
                    "type": "string"
                },
                "stateCode": {
                    "description": "The two letter state code.",
                    "type": "string"
                },
                "zip": {
                    "description": "The 5 digit zip or postal delivery code.",
                    "type": "string"
                },
                "zipExt": {
                    "description": "The zip or postal delivery extension.",
                    "type": "string"
                }
            }
        },
        "CreateEventRequest": {
            "type": "object",
            "required": [
                "account"
            ],
            "properties": {
                "account": {
                    "$ref": "#/definitions/Account"
                },
                "internalTransactionId": {
                    "type": "string"
                },
                "agreements": {
                    "description": "An array of agreements objects.",
                    "type": "array",
                    "items": {
                        "$ref": "#/definitions/Agreements"
                    }
                },
                "Id": {
                    "type": "string"
                },
                "eventId": {
                    "description": "Identifier of the event",
                    "type": "string"
                },
                "eventType": {
                    "description": "Type of event",
                    "type": "string"
                },
                "eventTime": {
                    "description": "The date and time that the event occurred.",
                    "type": "string",
                    "format": "date-time"
                },
                "eventProducerId": {
                    "description": "Identifier of the event producer",
                    "type": "string"
                },
                "eventVersion": {
                    "description": "Version of the event",
                    "type": "string"
                },
                "specifications": {
                    "description": "An array of specifications objects.",
                    "type": "array",
                    "items": {
                        "$ref": "#/definitions/Specifications"
                    }
                },
                "auditInfo": {
                    "$ref": "#/definitions/AuditInfo"
                },
                "headerReference": {
                    "$ref": "#/definitions/HeaderReference"
                },
                "eipBatchId": {
                    "description": "Custom element. EIP Batch ID value for the Warranty Exchange Detail table.",
                    "type": "string"
                },
                "insufficientCreditAvailable": {
                    "description": "Custom element. Flag to check if credit available is insufficent or not",
                    "type": "boolean"
                }
            }
        },
        "CreditProfile": {
            "type": "object",
            "properties": {
                "accountTenure": {
                    "description": "The duration(in days) of the account of this customer with T-Mobile. How long have they been our customer?",
                    "type": "integer",
                    "format": "int32",
                    "minimum": -2147483648,
                    "maximum": 2147483647,
                    "pattern": "^[\\-+]?[0-9]+$"
                },
                "creditRiskProfileId": {
                    "description": "Unique identifier generated from risk system which is derived from multple business inputs -creditscore, tenure and payment history etc.",
                    "type": "string"
                },
                "decisionCriteria": {
                    "description": "Decision criteria on determining customers credit eg CREDIT_CLASS_BASED",
                    "type": "string"
                },
                "behaviorScore": {
                    "description": "A numeric summary of the banks experience with the customer",
                    "type": "integer",
                    "format": "int32",
                    "minimum": -2147483648,
                    "maximum": 2147483647,
                    "pattern": "^[\\-+]?[0-9]+$"
                },
                "creditClass": {
                    "description": "Credit class of the customer based on T-Mobile categories when the account is active",
                    "type": "string"
                }
            }
        },
        "DeviceChargeInfo": {
            "type": "object",
            "properties": {
                "chargeId": {
                    "description": "ChargeID associated with the charge",
                    "type": "string"
                },
                "chargeCloseDate": {
                    "description": "Date when the charge was closed",
                    "type": "string",
                    "format": "date"
                },
                "chargeAmount": {
                    "description": "Amount of charge",
                    "type": "number",
                    "format": "double",
                    "minimum": -4294967296.0,
                    "maximum": 4294967296.0
                },
                "chargeType": {
                    "description": "Type of charge,",
                    "type": "string",
                    "enum": [
                        "MonthlyBill",
                        "FirstInstallment",
                        "LastInstallment",
                        "OwnershipCertificate",
                        "BanCancelBill",
                        "AdhocBill"
                    ]
                },
                "chargePaymentNumber": {
                    "description": "Indicates the charge number",
                    "type": "integer",
                    "format": "int32",
                    "minimum": -2147483648,
                    "maximum": 2147483647,
                    "pattern": "^[\\-+]?[0-9]+$"
                },
                "chargeCreatedDate": {
                    "description": "Charge created date time",
                    "type": "string",
                    "format": "date-time"
                },
                "taxAmount": {
                    "description": "Amount of tax included in the payment transaction.",
                    "type": "number",
                    "format": "double",
                    "minimum": -4294967296.0,
                    "maximum": 4294967296.0
                }
            }
        },
        "DownPaymentDetails": {
            "type": "object",
            "properties": {
                "downPaymentAmount": {
                    "type": "number",
                    "format": "double",
                    "minimum": -4294967296.0,
                    "maximum": 4294967296.0
                },
                "additionalDownPaymentAmount": {
                    "description": "Additional down payment amount paid along with base down payment amount.",
                    "type": "number",
                    "format": "double",
                    "minimum": -4294967296.0,
                    "maximum": 4294967296.0
                },
                "additionalRequiredDownPayment": {
                    "type": "number",
                    "format": "double",
                    "minimum": -4294967296.0,
                    "maximum": 4294967296.0
                },
                "downPaymentAdjustment": {
                    "type": "number",
                    "format": "double",
                    "minimum": -4294967296.0,
                    "maximum": 4294967296.0
                }
            }
        },
        "Equipments": {
            "description": "An array of equipments objects. This used to be loans before.",
            "type": "object",
            "required": [
                "purchasedEquipment"
            ],
            "properties": {
                "equipmentFinanceId": {
                    "description": "Custom element. Equipment ID for a loan/ lease/ poip. This used to be loanId before.",
                    "type": "string"
                },
                "phoneNumber": {
                    "description": "Phone number or MSISDN",
                    "type": "string"
                },
                "numberOfMonthlyPayments": {
                    "description": "Total number of monthly payments",
                    "type": "integer",
                    "format": "int32",
                    "minimum": -2147483648,
                    "maximum": 2147483647,
                    "pattern": "^[\\-+]?[0-9]+$"
                },
                "remainingFinancedAmount": {
                    "type": "number",
                    "format": "double",
                    "minimum": -4294967296.0,
                    "maximum": 4294967296.0
                },
                "totalAmountFinanced": {
                    "description": "Total amount financed",
                    "type": "number",
                    "format": "double",
                    "minimum": -4294967296.0,
                    "maximum": 4294967296.0
                },
                "recurringInstallmentAmount": {
                    "type": "number",
                    "format": "double",
                    "minimum": -4294967296.0,
                    "maximum": 4294967296.0
                },
                "lastInstallmentAmount": {
                    "type": "number",
                    "format": "double",
                    "minimum": -4294967296.0,
                    "maximum": 4294967296.0
                },
                "actualDownPaymentAmount": {
                    "description": "Down payment plus additional down payments minus discount",
                    "type": "number",
                    "format": "double",
                    "minimum": -4294967296.0,
                    "maximum": 4294967296.0
                },
                "downPaymentDetails": {
                    "$ref": "#/definitions/DownPaymentDetails"
                },
                "purchasedEquipment": {
                    "$ref": "#/definitions/PurchasedEquipment"
                },
                "transactionType": {
                    "description": "Type of transaction,  e.g. ACTIVATION, ADDALINE, UPGRADE",
                    "type": "string"
                },
                "priceAfterDiscount": {
                    "type": "number",
                    "format": "double",
                    "minimum": -4294967296.0,
                    "maximum": 4294967296.0
                },
                "returnedDate": {
                    "description": "Date when the",
                    "type": "string",
                    "format": "date-time"
                },
                "unbilledAmount": {
                    "description": "Unbilled amount of the loan, it is balance minus billed amount",
                    "type": "number",
                    "format": "double",
                    "minimum": -4294967296.0,
                    "maximum": 4294967296.0
                },
                "oldPhoneNumber": {
                    "description": "Customers previous phone number",
                    "type": "string"
                },
                "bestPricingIndicator": {
                    "description": "Is the best price given to customer? (true/false)",
                    "type": "boolean"
                },
                "tmobileDevice": {
                    "description": "Indicates if the device belongs to T-mobile or not",
                    "type": "boolean"
                },
                "restartFinance": {
                    "type": "boolean"
                },
                "noServiceIndicator": {
                    "description": "indicator for no service loan",
                    "type": "string"
                },
                "cancelReason": {
                    "description": "Reason for calcelling the equipment",
                    "type": "string"
                },
                "residualAmount": {
                    "description": "Residual (pay out) amount, applicable for lease only.",
                    "type": "number",
                    "format": "double",
                    "minimum": -4294967296.0,
                    "maximum": 4294967296.0
                },
                "equipmentClosedDate": {
                    "description": "Equipment closed date",
                    "type": "string",
                    "format": "date-time"
                },
                "annualPercentageRate": {
                    "type": "number",
                    "format": "double",
                    "minimum": -4294967296.0,
                    "maximum": 4294967296.0
                },
                "tradeInAmount": {
                    "description": "Amount applied from a Device traded in by Customer.",
                    "type": "number",
                    "format": "double",
                    "minimum": -4294967296.0,
                    "maximum": 4294967296.0
                },
                "tradeInDevice": {
                    "description": "Trade in device indicator",
                    "type": "boolean"
                },
                "oldAgreementNumber": {
                    "description": "Previous agreement number",
                    "type": "string"
                },
                "originalFinancedAmount": {
                    "type": "number",
                    "format": "double",
                    "minimum": -4294967296.0,
                    "maximum": 4294967296.0
                },
                "remainingNumberOfInstallments": {
                    "description": "Installments remaining on the equipment",
                    "type": "integer",
                    "format": "int32",
                    "minimum": -2147483648,
                    "maximum": 2147483647,
                    "pattern": "^[\\-+]?[0-9]+$"
                },
                "equipmentAvailableBalance": {
                    "type": "number",
                    "format": "double",
                    "minimum": -4294967296.0,
                    "maximum": 4294967296.0
                },
                "paymentDetails": {
                    "type": "array",
                    "description": "An array of paymentDetails objects.",
                    "items": {
                        "$ref": "#/definitions/PaymentDetails"
                    }
                },
                "totalTransactionAmount": {
                    "type": "number",
                    "format": "double",
                    "minimum": -4294967296.0,
                    "maximum": 4294967296.0
                },
                "deviceChargeInfo": {
                    "$ref": "#/definitions/DeviceChargeInfo"
                },
                "masterDealerAcceptDownpayment": {
                    "description": "Indicates if the dealer accepted the downpayment",
                    "type": "boolean"
                },
                "userId": {
                    "type": "string"
                },
                "jumpStatus": {
                    "description": "status of the returned device",
                    "type": "string"
                },
                "equipmentBalance": {
                    "description": "Equipment level balance",
                    "type": "number",
                    "format": "double",
                    "minimum": -4294967296.0,
                    "maximum": 4294967296.0
                },
                "ratePlanCode": {
                    "description": "Rate plan code of the subscriber(SOC)",
                    "type": "string"
                },
                "universalLineId": {
                    "description": "ULID - Universal identifier of the LineofService, as defined in Customer Hub.",
                    "type": "string"
                },
                "upgradeProgram": {
                    "$ref": "#/definitions/UpgradeProgram"
                },
                "paymentSchedule": {
                    "description": "An array of paymentSchedule objects.",
                    "type": "array",
                    "items": {
                        "$ref": "#/definitions/PaymentSchedule"
                    }
                },
                "nominalInterestRate": {
                    "type": "number",
                    "format": "double",
                    "minimum": -4294967296.0,
                    "maximum": 4294967296.0
                },
                "deferredInterest": {
                    "description": "Custom element. Denotes the deferred interest amount",
                    "type": "number",
                    "format": "double",
                    "minimum": -4294967296.0,
                    "maximum": 4294967296.0
                },
                "deviceStatus": {
                    "description": "Status of the device.",
                    "type": "string"
                },
                "transferTransactionId": {
                    "description": "Custom Element - Transaction ID of the transfer.",
                    "type": "string"
                },
                "turnInIndicator": {
                    "description": "Indicator for lease turn in scenario",
                    "type": "boolean"
                },
                "endOfLeaseIndicator": {
                    "description": "Indicator to know if the lease is ended or not",
                    "type": "boolean"
                },
                "residualTaxAmount": {
                    "description": "Tax amount for residual",
                    "type": "number",
                    "format": "double",
                    "minimum": -4294967296.0,
                    "maximum": 4294967296.0
                },
                "remainingFinancedAmountWithTax": {
                    "description": "remaining financed amount + tax",
                    "type": "number",
                    "format": "double",
                    "minimum": -4294967296.0,
                    "maximum": 4294967296.0
                },
                "monthlyPaymentWithTax": {
                    "description": "Recurring installment amount + tax",
                    "type": "number",
                    "format": "double",
                    "minimum": -4294967296.0,
                    "maximum": 4294967296.0
                },
                "leaseEndDate": {
                    "description": "end date of lease",
                    "type": "string",
                    "format": "date"
                },
                "leaseResidualInjected": {
                    "description": "lease residual has been injected or not indicator",
                    "type": "boolean"
                },
                "equipmentCreditUsedTax": {
                    "description": "Custom element. Denotes ECLB tax amount.",
                    "type": "number",
                    "format": "double",
                    "minimum": -4294967296.0,
                    "maximum": 4294967296.0
                },
                "lastInstallmentAmountWithTax": {
                    "description": "Custom element. Last Installment Amount with Tax included.",
                    "type": "number",
                    "format": "double",
                    "minimum": -4294967296.0,
                    "maximum": 4294967296.0
                }
            }
        },
        "ErrorResponse": {
            "description": "As defined in http://api-standards.apps.px-npe01.cf.t-mobile.com/http/status-codes/error-response-format/",
            "type": "object",
            "properties": {
                "errors": {
                    "description": "An array of errors objects.",
                    "type": "array",
                    "minItems": 1,
                    "items": {
                        "$ref": "#/definitions/ErrorResponseErrors"
                    }
                }
            }
        },
        "ErrorResponseErrors": {
            "description": "As defined in http://api-standards.apps.px-npe01.cf.t-mobile.com/http/status-codes/error-response-format/",
            "type": "object",
            "required": [
                "code",
                "userMessage"
            ],
            "properties": {
                "code": {
                    "description": "A succinct, domain-specific, human-readable text string to identify the type of error for the given status code",
                    "example": "ProductNotFound",
                    "type": "string",
                    "pattern": "^[\\S ]+$"
                },
                "userMessage": {
                    "description": "A human-readable message describing the error.",
                    "example": "Failed to find product.",
                    "type": "string",
                    "pattern": "^[\\S ]+$"
                },
                "systemMessage": {
                    "description": "Text that provides a more detailed technical explanation of the error",
                    "example": "PRODUCT_NOT_FOUND",
                    "type": "string"
                },
                "detailLink": {
                    "description": "link to custom information providing greater detail on error or errors",
                    "example": "http://aaa.bbb.ccc/",
                    "type": "string"
                }
            }
        },
        "HeaderReference": {
            "type": "object",
            "properties": {
                "dealerCode": {
                    "description": "A 7-character, T-Mobile-assigned code used to identify a specific store, district, or region, defined by a partner and used in calculating commissions.",
                    "type": "string"
                },
                "storeId": {
                    "description": "Store identification",
                    "type": "string"
                },
                "channelId": {
                    "description": "Uniquely identifies the Sales Channel, such as WEB, CARE, RETAIL etc.",
                    "type": "string"
                },
                "applicationUserId": {
                    "description": "User identifier for the application",
                    "type": "string"
                },
                "subChannelType": {
                    "type": "string"
                },
                "masterDealerCode": {
                    "description": "A 7-character, T-Mobile-assigned code used to identifiy the master dealer contract for commissioning.",
                    "type": "string"
                },
                "applicationId": {
                    "description": "Application ID which originated the transaction",
                    "type": "string"
                },
                "senderId": {
                    "type": "string"
                },
                "secondaryApplicationId": {
                    "type": "string"
                }
            }
        },
        "OriginationInfo": {
            "description": "Loan Origination header elements",
            "type": "object",
            "properties": {
                "dealerCode": {
                    "description": "A 7-character, T-Mobile-assigned code used to identify a specific store, district, or region, defined by a partner and used in calculating commissions.",
                    "type": "string"
                },
                "channelId": {
                    "description": "Uniquely identifies the Sales Channel, such as WEB, CARE, RETAIL etc.",
                    "type": "string"
                },
                "applicationUserId": {
                    "description": "User identifier for the application",
                    "type": "string"
                },
                "masterDealerCode": {
                    "description": "A 7-character, T-Mobile-assigned code used to identifiy the master dealer contract for commissioning.",
                    "type": "string"
                },
                "applicationId": {
                    "description": "Application ID which originated the transaction",
                    "type": "string"
                },
                "storeId": {
                    "description": "Store identification",
                    "type": "string"
                },
                "secondaryApplicationId": {
                    "type": "string"
                },
                "subChannelType": {
                    "type": "string"
                },
                "senderId": {
                    "type": "string"
                }
            }
        },
        "PaymentDetails": {
            "type": "object",
            "properties": {
                "paymentId": {
                    "description": "Uniquely identifies the payment",
                    "type": "string"
                },
                "paymentReferenceId": {
                    "description": "Uniquely identifies the payment",
                    "type": "string"
                },
                "paymentAmount": {
                    "description": "Total payment amount",
                    "type": "number",
                    "format": "double",
                    "minimum": -4294967296.0,
                    "maximum": 4294967296.0
                },
                "paymentType": {
                    "type": "string"
                },
                "cardType": {
                    "description": "Card Type like {VISA, MASTER, EXPRESS, etc}",
                    "type": "string"
                },
                "last4CardNumber": {
                    "description": "Last four digits of the card used for payment",
                    "type": "string"
                },
                "internalPaymentId": {
                    "description": "Internal system generated payment reference ID",
                    "type": "string"
                },
                "paymentReasonCode": {
                    "description": "Reason code associated with the loan payment",
                    "type": "string"
                },
                "paymentTransactionId": {
                    "description": "A value assigned by the merchant to uniquely reference a transaction and any subsequent related transactions",
                    "type": "string"
                }
            }
        },
        "PaymentSchedule": {
            "description": "Schedule of payments for the loan/lease.",
            "type": "object",
            "properties": {
                "paymentDueDate": {
                    "description": "Due date of payment in a month",
                    "type": "string",
                    "format": "date"
                },
                "installmentNumber": {
                    "description": "Installment number of the scheduled payment",
                    "type": "integer",
                    "format": "int32",
                    "pattern": ".[\\-+]?[0-9]+."
                },
                "paymentAmount": {
                    "description": "Payment amount",
                    "type": "number",
                    "format": "double",
                    "minimum": -4294967296.0,
                    "maximum": 4294967296.0
                }
            }
        },
        "PrimaryPlaceOfUseAddress": {
            "type": "object",
            "properties": {
                "addressLine1": {
                    "description": "The first line of the address, required.",
                    "type": "string"
                },
                "addressLine2": {
                    "description": "The second line of the address, optional.",
                    "type": "string"
                },
                "cityName": {
                    "description": "The name of the city in the mailing address. For military or diplomatic addresses should contain FPO, APO, or DPO.",
                    "type": "string"
                },
                "stateCode": {
                    "description": "The two letter state code.",
                    "type": "string"
                },
                "zip": {
                    "description": "The 5 digit zip or postal delivery code.",
                    "type": "string"
                },
                "zipExt": {
                    "description": "The zip or postal delivery extension.",
                    "type": "string"
                }
            }
        },
        "PurchasedEquipment": {
            "type": "object",
            "properties": {
                "sku": {
                    "description": "Stock keeping unit",
                    "type": "string"
                },
                "imei": {
                    "description": "International Mobile Equipment Identifier.  Unique identifier for a mobile device on a network.",
                    "type": "string"
                },
                "orderLineId": {
                    "type": "string"
                },
                "skuDescription": {
                    "description": "Description of the device variant of the make/model.",
                    "type": "string"
                },
                "oldSKU": {
                    "description": "Previous SKU",
                    "type": "string"
                },
                "oldIMEI": {
                    "description": "International Mobile Equipment Identifier.  Unique identifier for a mobile device on a network.",
                    "type": "string"
                },
                "productType": {
                    "description": "DEVICE OR ACCESSORY",
                    "type": "string"
                },
                "productSubType": {
                    "description": "Secondary categorizations of the type of product included in the offer.",
                    "type": "string"
                },
                "fullRetailPrice": {
                    "description": "Actual device price (FRP) before discounts. This is MSRP.",
                    "type": "number",
                    "format": "double",
                    "minimum": -4294967296.0,
                    "maximum": 4294967296.0
                },
                "salePrice": {
                    "description": "Actual price customer paid for the equipment",
                    "type": "number",
                    "format": "double",
                    "minimum": -4294967296.0,
                    "maximum": 4294967296.0
                },
                "downPaymentAdjustment": {
                    "description": "Downpayment adjustment for the current device",
                    "type": "number",
                    "format": "double",
                    "minimum": -4294967296.0,
                    "maximum": 4294967296.0
                },
                "serialNumber": {
                    "description": "Serial number of the equipment (device or accessory).",
                    "type": "string"
                },
                "deviceId": {
                    "description": "Uniquely identifies a device",
                    "type": "string"
                },
                "oldEquipmentFinanceId": {
                    "description": "Old Equipment Finance Id in case of balance transfer, upgrade, jump etc. This used to be oldLoanId before.",
                    "type": "string"
                }
            }
        },
        "Specifications": {
            "description": "Name value pair",
            "type": "object",
            "properties": {
                "name": {
                    "description": "Name",
                    "type": "string"
                },
                "value": {
                    "description": "Value",
                    "type": "string"
                }
            }
        },
        "UpgradeProgram": {
            "description": "Upgrade program details",
            "type": "object",
            "properties": {
                "programType": {
                    "description": "Return authorization type, such as JUMP,JUMP2",
                    "type": "string"
                },
                "deviceRecoveryType": {
                    "description": "Indicate how the trade In device will be returned back to T-Mobile. A - Accept, D - Deferred, ACD - Authorization Code Deferred",
                    "type": "string"
                },
                "equipmentFinanceId": {
                    "description": "Equipment id of the old loan/ lease/ poip. This used to be loanId before.",
                    "type": "string"
                }
            }
        }
    },
    "securityDefinitions": {
        "Oauth": {
            "type": "oauth2",
            "tokenUrl": "https://dlab03.core.op.api.t-mobile.com:443/v2/oauth2/accesstoken?grant_type=client_credentials",
            "flow": "application",
            "scopes": {}
        }
    },
    "security": [
        {
            "Oauth": []
        }
    ]
}