{
    "swagger": "2.0",
    "info": {
        "title": "dfs-loan-payment-reversal-swagger",
        "description": "This API Reverses payments. Updated the reversal request and response object names",
        "version": "1.0.9",
        "x-createdBy": {
            "dateCreated": "Mon Jun 17 22:31:56 2019",
            "createdBy": "tbhanda1",
            "application": "Recite",
            "appVersion": "1.0.0.2891",
            "documentId": "76af8022-49e2-4e21-b5bd-cb93cd20034f",
            "status": "Conceptual - Initial",
            "classification": "6.3 Customer Loan / Lease / Insurance Mgmt",
            "profile": "Core Business Capability Service",
            "serviceLayer": "Enterprise - OrderManagement"
        }
    },
    "tags": [
        {
            "name": "reversePayments",
            "description": "This API reverses payments."
        }
    ],
    "host": "dev01.api.t-mobile.com",
    "basePath": "/customer-loan/v1",
    "schemes": [
        "https"
    ],
    "paths": {
        "/reversal": {
            "put": {
                "tags": [
                    "reversePayments"
                ],
                "x-api-pattern": "ModifyResource",
                "summary": "Reverses the payments",
                "description": "This API reverses payments.",
                "operationId": "reversePayments",
                "consumes": [
                    "application/json",
                    "application/xml"
                ],
                "produces": [
                    "application/json",
                    "application/xml"
                ],
                "parameters": [
                    {
                        "name": "reversalRequest",
                        "in": "body",
                        "description": "Reversal of payments",
                        "required": false,
                        "schema": {
                            "$ref": "#/definitions/ReversalRequest"
                        }
                    },
                    {
                        "name": "Accept",
                        "in": "header",
                        "description": "Preferred content type _ default to application/json",
                        "x-example": "application/json",
                        "required": false,
                        "type": "string",
                        "minLength": 1,
                        "maxLength": 256,
                        "pattern": "^[ \\S]+$"
                    },
                    {
                        "name": "Accept-Encoding",
                        "in": "header",
                        "description": "List of acceptable encodings. See HTTP compression.",
                        "x-example": "gzip,deflate",
                        "required": false,
                        "type": "string",
                        "minLength": 1,
                        "maxLength": 256,
                        "pattern": "^[\\S ]*$"
                    },
                    {
                        "name": "Accept-Language",
                        "in": "header",
                        "description": "List of acceptable human languages for response",
                        "x-example": "en-us,en;q=0.5",
                        "required": false,
                        "type": "string",
                        "minLength": 1,
                        "maxLength": 256,
                        "pattern": "^[\\S ]*$"
                    },
                    {
                        "name": "Authorization",
                        "in": "header",
                        "description": "The HTTP Authorization request header contains the credentials to authenticate a user agent with a server.",
                        "x-example": "Bearer mF_9.B5f-4.1JqM",
                        "required": false,
                        "type": "string",
                        "minLength": 1,
                        "maxLength": 256,
                        "pattern": "^[\\S ]+$"
                    },
                    {
                        "name": "Content-Type",
                        "in": "header",
                        "description": "The MIME type of this content",
                        "x-example": "text/xml",
                        "required": false,
                        "type": "string",
                        "minLength": 1,
                        "maxLength": 256,
                        "pattern": "^[ \\S]+$"
                    },
                    {
                        "name": "Date",
                        "in": "header",
                        "description": "The Date general HTTP header contains the date and time at which the message was originated.",
                        "x-example": "Mon, 05 Mar 2018 16:38:08 GMT",
                        "required": false,
                        "type": "string",
                        "format": "date-time",
                        "pattern": "^(Mon|Tue|Wed|Thu|Fri|Sat|Sun), [0-3]{1}[0-9]{1} (Jan|Feb|Mar|Apr|May|Jun|Jul|Aug|Sep|Oct|Nov|Dec) [1-3][0-9]{3} [0-2][0-9]:[0-6][0-9]:[0-6][0-9] GMT$"
                    },
                    {
                        "name": "activity-id",
                        "in": "header",
                        "description": "Unique id alphanumeric value generated and sent by the partner to identify every the service request uniquely. Sample: XyzA:D1s5s1i-X6AFRvfiPBfs-1234  Pass as is to downstream calls.",
                        "x-example": "c34e7acd-384b-4c22-8b02-ba3963682508",
                        "required": false,
                        "type": "string",
                        "minLength": 1,
                        "maxLength": 256,
                        "pattern": "^[\\S]*$"
                    },
                    {
                        "name": "application-id",
                        "in": "header",
                        "description": "Identifies the application, system, or tool that is being used to perform the transaction related to this request. Sample values:ACUI, ESERVICE, REBELLION, WARP",
                        "x-example": "REBELLION",
                        "required": true,
                        "type": "string",
                        "minLength": 1,
                        "maxLength": 256,
                        "pattern": "^[\\S]*$"
                    },
                    {
                        "name": "interaction-id",
                        "in": "header",
                        "description": "Alphanumeric value represent a common transaction id across all calls made from UI, while completing all business activity needs of a particular customer.",
                        "x-example": "cc688d54-50d1-49d4-8c5d-95459d1172e8",
                        "required": false,
                        "type": "string",
                        "minLength": 1,
                        "maxLength": 256,
                        "pattern": "^[\\S]*$"
                    },
                    {
                        "name": "service-transaction-id",
                        "in": "header",
                        "description": "Request ID echoed back by server",
                        "x-example": "23409209723",
                        "required": false,
                        "type": "string",
                        "minLength": 1,
                        "maxLength": 256,
                        "pattern": "^[\\S]*$"
                    },
                    {
                        "name": "session-id",
                        "in": "header",
                        "description": "A value populated by the sender used to track the transactions that occur during a session, a long-lasting interaction that ismaintained by the sender.",
                        "x-example": "350b91ec-4a64-4b10-a3f3-a78c8db3924a",
                        "required": false,
                        "type": "string",
                        "minLength": 1,
                        "maxLength": 256,
                        "pattern": "^[\\S]*$"
                    },
                    {
                        "name": "timestamp",
                        "in": "header",
                        "description": "ms since 1/1/70 adjusted to GMT",
                        "x-example": "1524599536",
                        "required": false,
                        "type": "integer",
                        "format": "int64",
                        "minimum": 0,
                        "maximum": 999999999999,
                        "pattern": "^[\\d]*$"
                    },
                    {
                        "name": "user-id",
                        "in": "header",
                        "description": "NT id of the one who is managing the transaction from CARE/RETAIL channels.",
                        "x-example": "Deprecated Header",
                        "required": true,
                        "type": "string",
                        "minLength": 1,
                        "maxLength": 256,
                        "pattern": "^[\\S ]*$"
                    },
                    {
                        "name": "workflow-id",
                        "in": "header",
                        "description": "Business Use Case",
                        "x-example": "ACTIVATION",
                        "required": false,
                        "type": "string",
                        "minLength": 1,
                        "maxLength": 256,
                        "pattern": "^[\\S]*$"
                    },
                    {
                        "name": "x-auth-originator",
                        "in": "header",
                        "description": "API chain initiating callers access token",
                        "x-example": "c34e7acd-384b-4c22-8b02-ba3963682508",
                        "required": false,
                        "type": "string",
                        "minLength": 1,
                        "maxLength": 256,
                        "pattern": "^[\\S]*$"
                    },
                    {
                        "name": "x-authorization",
                        "in": "header",
                        "description": "Contains Proof of Possession token generated by API caller",
                        "x-example": "c34e7acd-384b-4c22-8b02-ba3963682508",
                        "required": false,
                        "type": "string",
                        "minLength": 1,
                        "maxLength": 256,
                        "pattern": "^[\\S ]*$"
                    }
                ],
                "responses": {
                    "201": {
                        "description": "Ok",
                        "schema": {
                            "$ref": "#/definitions/ReversalResponse"
                        },
                        "headers": {
                            "Cache-Control": {
                                "description": "Cache policy supported for the resource by the server",
                                "x-example": "no-cache",
                                "type": "string",
                                "minLength": 1,
                                "maxLength": 256,
                                "pattern": "^[\\S]*$"
                            },
                            "Content-Encoding": {
                                "description": "The type of encoding used on the data",
                                "x-example": "gzip,deflate",
                                "type": "string",
                                "minLength": 1,
                                "maxLength": 15,
                                "pattern": "^[\\S]*$"
                            },
                            "Content-Length": {
                                "description": "Length of the response body in octets; not supported if Transfer-Endoding = chunked",
                                "x-example": "9112300000003",
                                "type": "integer",
                                "format": "int64",
                                "minimum": 0,
                                "pattern": "^[\\d]*$"
                            },
                            "Content-Type": {
                                "description": "The MIME type of this content",
                                "x-example": "text/xml",
                                "type": "string",
                                "minLength": 1,
                                "maxLength": 256,
                                "pattern": "^[ \\S]+$"
                            },
                            "Date": {
                                "description": "The Date general HTTP header contains the date and time at which the message was originated.",
                                "x-example": "Mon, 05 Mar 2018 16:38:08 GMT",
                                "type": "string",
                                "format": "date-time",
                                "pattern": "^(Mon|Tue|Wed|Thu|Fri|Sat|Sun), [0-3]{1}[0-9]{1} (Jan|Feb|Mar|Apr|May|Jun|Jul|Aug|Sep|Oct|Nov|Dec) [1-3][0-9]{3} [0-2][0-9]:[0-6][0-9]:[0-6][0-9] GMT$"
                            },
                            "ETag": {
                                "description": "The ETag header specifies the unique entity tag value for the returned resource.",
                                "x-example": "*",
                                "type": "string",
                                "minLength": 1,
                                "maxLength": 256,
                                "pattern": "^[\\S]*$"
                            },
                            "Transfer-Encoding": {
                                "description": "The form of encoding used to safely transfer the entity to the user. Currently defined methods are: chunked, compress, deflate, gzip, identity.",
                                "x-example": "chunked",
                                "type": "string",
                                "minLength": 1,
                                "maxLength": 15,
                                "pattern": "^[\\S]*$"
                            },
                            "service-transaction-id": {
                                "description": "Request ID echoed back by server",
                                "x-example": "23409209723",
                                "type": "string",
                                "minLength": 1,
                                "maxLength": 256,
                                "pattern": "^[\\S]*$"
                            }
                        }
                    },
                    "400": {
                        "description": "Bad Request",
                        "schema": {
                            "$ref": "#/definitions/Error"
                        },
                        "examples": {
                            "application/json": {
                                "code": "400",
                                "userMessage": "Bad Request",
                                "systemMessage": "Bad Request",
                                "detailLink": "http://www.tmus.com"
                            }
                        },
                        "headers": {}
                    },
                    "401": {
                        "description": "Unauthorized",
                        "schema": {
                            "$ref": "#/definitions/Error"
                        },
                        "examples": {
                            "application/json": {
                                "code": "401",
                                "userMessage": "Unauthorized",
                                "systemMessage": "Unauthorized",
                                "detailLink": "http://www.tmus.com"
                            }
                        },
                        "headers": {}
                    },
                    "403": {
                        "description": "Client access denied",
                        "schema": {
                            "$ref": "#/definitions/Error"
                        },
                        "examples": {
                            "application/json": {
                                "code": "403",
                                "userMessage": "Client access denied",
                                "systemMessage": "Client access denied",
                                "detailLink": "http://www.tmus.com"
                            }
                        },
                        "headers": {}
                    },
                    "404": {
                        "description": "Resource not found",
                        "schema": {
                            "$ref": "#/definitions/Error"
                        },
                        "examples": {
                            "application/json": {
                                "code": "404",
                                "userMessage": "Resource not found",
                                "systemMessage": "Resource not found",
                                "detailLink": "http://www.tmus.com"
                            }
                        },
                        "headers": {}
                    },
                    "405": {
                        "description": "Method Not Allowed",
                        "schema": {
                            "$ref": "#/definitions/Error"
                        },
                        "examples": {
                            "application/json": {
                                "code": "405",
                                "userMessage": "Method Not Allowed",
                                "systemMessage": "Method Not Allowed",
                                "detailLink": "http://www.tmus.com"
                            }
                        },
                        "headers": {
                            "Allow": {
                                "description": "list of supported methods for URI",
                                "x-example": "GET",
                                "type": "string",
                                "minLength": 1,
                                "maxLength": 256,
                                "pattern": "^[\\S]*$"
                            },
                            "service-transaction-id": {
                                "description": "Request ID echoed back by server",
                                "x-example": "23409209723",
                                "type": "string",
                                "minLength": 1,
                                "maxLength": 256,
                                "pattern": "^[\\S]*$"
                            }
                        }
                    },
                    "406": {
                        "description": "Mismatching data format",
                        "schema": {
                            "$ref": "#/definitions/Error"
                        },
                        "examples": {
                            "application/json": {
                                "code": "406",
                                "userMessage": "Mismatching data format",
                                "systemMessage": "Mismatching data format",
                                "detailLink": "http://www.tmus.com"
                            }
                        },
                        "headers": {}
                    },
                    "409": {
                        "description": "Invalid data",
                        "schema": {
                            "$ref": "#/definitions/Error"
                        },
                        "examples": {
                            "application/json": {
                                "code": "409",
                                "userMessage": "Invalid data",
                                "systemMessage": "Invalid data",
                                "detailLink": "http://www.tmus.com"
                            }
                        },
                        "headers": {}
                    },
                    "412": {
                        "description": "Stale data",
                        "schema": {
                            "$ref": "#/definitions/Error"
                        },
                        "examples": {
                            "application/json": {
                                "code": "412",
                                "userMessage": "Stale data",
                                "systemMessage": "Stale data",
                                "detailLink": "http://www.tmus.com"
                            }
                        },
                        "headers": {}
                    },
                    "415": {
                        "description": "Unsupported Media Type",
                        "schema": {
                            "$ref": "#/definitions/Error"
                        },
                        "examples": {
                            "application/json": {
                                "code": "415",
                                "userMessage": "Unsupported Media Type",
                                "systemMessage": "Unsupported Media Type",
                                "detailLink": "http://www.tmus.com"
                            }
                        },
                        "headers": {}
                    },
                    "500": {
                        "description": "System Error",
                        "schema": {
                            "$ref": "#/definitions/Error"
                        },
                        "examples": {
                            "application/json": {
                                "code": "500",
                                "userMessage": "System Error",
                                "systemMessage": "System Error",
                                "detailLink": "http://www.tmus.com"
                            }
                        },
                        "headers": {}
                    },
                    "503": {
                        "description": "Service unavailable",
                        "schema": {
                            "$ref": "#/definitions/Error"
                        },
                        "examples": {
                            "application/json": {
                                "code": "503",
                                "userMessage": "Service unavailable",
                                "systemMessage": "Service unavailable",
                                "detailLink": "http://www.tmus.com"
                            }
                        },
                        "headers": {}
                    }
                },
                "security": [
                    {
                        "oauth2-application": []
                    }
                ]
            }
        }
    },
    "definitions": {
        "AgreementInfo": {
            "description": "Agreements object",
            "type": "object",
            "properties": {
                "agreementNumber": {
                    "description": "Unique Identifier for the transaction where customer agrees to the Loan/Lease.",
                    "type": "string"
                },
                "agreementCreditAmount": {
                    "description": "Financing credit balance available (ECB)",
                    "type": "number",
                    "format": "double"
                },
                "unbilledAmount": {
                    "description": "Unbilled amount of the loan, it is balance minus billed amount",
                    "type": "number",
                    "format": "double"
                },
                "previousBalance": {
                    "description": "Previous Balance before the reversal",
                    "type": "number",
                    "format": "double"
                },
                "newEffectiveDate": {
                    "description": "Custom element. Effective Date of the new ECLMP amount.",
                    "type": "string",
                    "format": "date-time"
                },
                "equipments": {
                    "description": "An array of equipments objects.",
                    "type": "array",
                    "items": {
                        "$ref": "#/definitions/Equipments"
                    }
                }
            }
        },
        "Equipments": {
            "description": "Equipments object",
            "type": "object",
            "properties": {
                "loanId": {
                    "description": "Identifier of loan",
                    "type": "string"
                },
                "equipmentCreditAmount": {
                    "description": "The available equipment credit amount. It is the credit limit minus the credit used",
                    "type": "number",
                    "format": "double"
                },
                "paymentId": {
                    "description": "Uniquely identifies the payment",
                    "type": "string"
                },
                "paymentSchedule": {
                    "description": "An array of paymentSchedule objects.",
                    "type": "array",
                    "items": {
                        "$ref": "#/definitions/PaymentSchedule"
                    }
                }
            }
        },
        "Error": {
            "description": "As defined in http://api-standards.apps.px-npe01.cf.t-mobile.com/http/status-codes/error-response-format/",
            "type": "object",
            "required": [
                "code",
                "userMessage"
            ],
            "properties": {
                "code": {
                    "description": "A succinct, domain-specific, human-readable text string to identify the type of error for the given status code",
                    "example": "ProductNotFound",
                    "type": "string",
                    "pattern": "^[\\S ]+$"
                },
                "userMessage": {
                    "description": "A human-readable message describing the error.",
                    "example": "Failed to find product.",
                    "type": "string",
                    "pattern": "^[\\S ]+$"
                },
                "systemMessage": {
                    "description": "Text that provides a more detailed technical explanation of the error",
                    "example": "PRODUCT_NOT_FOUND",
                    "type": "string"
                },
                "detailLink": {
                    "description": "link to custom information providing greater detail on error or errors",
                    "example": "http://aaa.bbb.ccc/",
                    "type": "string"
                }
            }
        },
        "PaymentDetails": {
            "description": "An array of financialTransactions objects.",
            "type": "object",
            "properties": {
                "paymentTransactionId": {
                    "description": "Identifier of payment.",
                    "type": "string"
                },
                "paymentId": {
                    "description": "PaymentId for reversing payment. Same as the jpayId",
                    "type": "string"
                },
                "paymentReversalReasonCode": {
                    "description": "Reason code associated with the loan payment reversal itself, possible values are BACKOUT, REFUND",
                    "type": "string"
                },
                "paymentLoanDetails": {
                    "description": "An array of paymentLoanDetails objects.",
                    "type": "array",
                    "items": {
                        "$ref": "#/definitions/PaymentLoanDetails"
                    }
                }
            }
        },
        "PaymentLoanDetails": {
            "description": "An array of financialTransactions objects.",
            "type": "object",
            "properties": {
                "loanId": {
                    "description": "Identifier of loan.",
                    "type": "string"
                },
                "paymentReversalAmount": {
                    "description": "Total payment reversal amount",
                    "type": "number",
                    "format": "double"
                }
            }
        },
        "PaymentSchedule": {
            "description": "Schedule of payments",
            "type": "object",
            "properties": {
                "installmentNumber": {
                    "description": "Installment number of the scheduled payment",
                    "type": "integer",
                    "format": "int32",
                    "pattern": ".[\\-+]?[0-9]+."
                },
                "paymentDueDate": {
                    "description": "Due date of payment in a month",
                    "type": "string",
                    "format": "date-time"
                },
                "paymentAmount": {
                    "description": "Payment amount",
                    "type": "number",
                    "format": "double"
                }
            }
        },
        "ReversalRequest": {
            "description": "Reversal of payments",
            "type": "object",
            "required": [
                "accountNumber"
            ],
            "properties": {
                "accountNumber": {
                    "description": "The financial account number that identifies the account.",
                    "type": "string"
                },
                "email": {
                    "description": "Email of a customer used for sending Confirmation Statement. Mandatory for ship to",
                    "type": "string"
                },
                "isEstimate": {
                    "description": "Custom element. Denotes if the payment details is for an Estimate",
                    "type": "string"
                },
                "paymentUiSource": {
                    "description": "Custom element. Denotes if the payment coming from UI",
                    "type": "string"
                },
                "paymentDetails": {
                    "description": "An array of paymentDetails objects.",
                    "type": "array",
                    "items": {
                        "$ref": "#/definitions/PaymentDetails"
                    }
                }
            }
        },
        "ReversalResponse": {
            "description": "Reversal response",
            "type": "object",
            "properties": {
                "status": {
                    "description": "Status of response",
                    "type": "string"
                },
                "equipmentCreditAvailableAmount": {
                    "description": "The available equipment credit amount. It is the credit limit minus the credit used",
                    "type": "number",
                    "format": "double"
                },
                "equipmentCreditLimit": {
                    "description": "Equipment Credit Limit (ECL) or Current Equipment Credit Limit (CECL)",
                    "type": "number",
                    "format": "double"
                },
                "creditBalance": {
                    "description": "Financing credit balance available (ECB)",
                    "type": "number",
                    "format": "double"
                },
                "agreementInfo": {
                    "description": "An array of agreementInfo objects.",
                    "type": "array",
                    "items": {
                        "$ref": "#/definitions/AgreementInfo"
                    }
                }
            }
        }
    },
    "securityDefinitions": {
        "oauth2-application": {
            "type": "oauth2",
            "description": "When you sign up for an account, you are given your first API key. To do so please follow this link: https://www.t-mobile.com/site/signup/ Also you can generate additional API keys, and delete API keys (as you may need to rotate your keys in the future).",
            "tokenUrl": "https://dlab03.core.op.api.t-mobile.com:443/v2/oauth2/accesstoken?grant_type=client_credentials",
            "flow": "application",
            "scopes": {}
        }
    }
}