{
    "swagger": "2.0",
    "info": {
        "title": "PS-ShippingService",
        "description": "This service support the use of the shipping. A geographical shipping in the product catalog.",
        "version": "1.0.0",
        "contact": {
            "name": "Shailesh Nayak",
            "url": "http://www.t-mobile.com",
            "email": "Products_ServicesAPIDevOps@T-Mobile.com"
        },
        "x-createdBy": {
            "dateCreated": "Thu Sep 20 12:16:35 2018",
            "createdBy": "rvalluru",
            "application": "Recite",
            "appVersion": "0.3.15.2363",
            "documentId": "da3b6796-09ad-46c7-b538-d0d426405682",
            "status": "Conceptual - Initial",
            "classification": "2.2 Product & Service Delivery",
            "profile": "Core Business Capability Service",
            "serviceLayer": "Resource - Other"
        }
    },
    "tags": [
        {
            "name": "getShipMethods",
            "description": "Retrieves a single instance of the shipping methods resource."
        }
    ],
    "host": "ignitexml.internal.t-mobile.com",
    "basePath": "/products/v1",
    "schemes": [
        "https"
    ],
    "paths": {
        "/ship-methods": {
            "get": {
                "tags": [
                    "getShipMethods"
                ],
                "x-api-pattern": "QueryResource",
                "summary": "A get for the region resource using Digital Archecture's QueryResource pattern.",
                "description": "Retrieves a single instance of the region resource.",
                "operationId": "getShipMethods",
                "produces": [
                    "application/json"
                ],
                "parameters": [
                    {
                        "name": "channel",
                        "in": "query",
                        "description": "The U1 channel for the request",
                        "required": false,
                        "type": "array",
                        "items": {
                            "type": "string"
                        },
                        "collectionFormat": "csv",
                        "x-example": "?channel=TMO,MYT"
                    },
                    {
                        "name": "soc",
                        "in": "query",
                        "description": "Comma Separated Unique sku provided max limit is 25  ?soc={soc1,soc2,…}",
                        "required": false,
                        "type": "array",
                        "items": {
                            "type": "string"
                        },
                        "collectionFormat": "csv",
                        "x-example": "?soc=1422424,13243434"
                    },						
                    {
                        "name": "sku",
                        "in": "query",
                        "description": "Comma Separated Unique sku provided max limit is 25  ?sku={sku1,sku2,…}",
                        "required": false,
                        "type": "array",
                        "items": {
                            "type": "string"
                        },
                        "collectionFormat": "csv",
                        "x-example": "?sku=1422424,13243434"
                    },
                    {
                        "name": "productType",
                        "in": "query",
                        "description": "Comma Separated Unique sku provided max limit is 25  ?productType={productType1,productType2,…}",
                        "required": false,
                        "type": "array",
                        "items": {
                            "type": "string"
                        },
                        "collectionFormat": "csv",
                        "x-example": "?productType=name1,name2"
                    },
					{
                        "name": "transactionType",
                        "in": "query",
                        "description": "use for querying the attributes",
                        "required": false,
                        "type": "string"
                    },
                    {
                        "name": "Authorization",
                        "in": "header",
                        "description": "OAuth 2.0 access token with the authentication type set as Bearer.",
                        "x-example": "Basic YUFSbFZHQ1p5dE5KMzV6RVAzOVFneXFUS0tRM1VONHM6QmtYN0c5RmQxTnNEaHRsWg==",
                        "required": true,
                        "pattern": "^[\\S]*$",
                        "type": "string"
                    },
                    {
                        "name": "application",
                        "in": "header",
                        "description": "Calling application name.",
                        "x-example": "TMO",
                        "required": true,
                        "type": "string"
                    },
                    {
                        "name": "consumerType",
                        "in": "header",
                        "description": "calling consumer type Ex: RealTime, Batch, EventBased",
                        "x-example": "RealTime, Batch, EventBased",
                        "required": true,
                        "type": "string"
                    },
                    {
                        "name": "host",
                        "in": "header",
                        "description": "name of the host",
                        "x-example": "host name",
                        "required": false,
                        "type": "string"
                    },
                    {
                        "name": "responseTemplate",
                        "in": "header",
                        "description": "Service will apply response template value to populate response.Default is Default",
                        "x-example": "Default,FULL",
                        "required": false,
                        "type": "string"
                    },
                    {
                        "name": "timeZone",
                        "in": "header",
                        "description": "The Time Zone applied to all the timestamps in the request and response. Default to UTC if not specified in the request.",
                        "x-example": "UTC format",
                        "required": false,
                        "type": "string"
                    },
                    {
                        "name": "transactionId",
                        "in": "header",
                        "description": "Transaction Id.",
                        "x-example": "cc688d54-50d1-49d4-8c5d-95459d1172e8",
                        "required": false,
                        "type": "string"
                    }
                ],
                "responses": {
                    "200": {
                        "description": "Ok",
                        "schema": {
                            "$ref": "#/definitions/ShippingMethodResponse"
                        },
                        "headers": {
                            "Cache-Control": {
                                "description": "No cache indicators supported at this time. Samples: no-cache",
                                "x-example": "no-cache",
                                "type": "string"
                            },
                            "Content-Type": {
                                "description": "The MIME type of this content",
                                "x-example": "text/xml",
                                "pattern": "^[\\S]*$",
                                "type": "string"
                            },
                            "responseTemplate": {
                                "description": "Service will apply response template value to populate response.Default is Default",
                                "x-example": "Default,FULL",
                                "type": "string"
                            },
                            "timeZone": {
                                "description": "The Time Zone applied to all the timestamps in the request and response. Default to UTC if not specified in the request.",
                                "x-example": "UTC format",
                                "type": "string"
                            }
                        }
                    },
                    "304": {
                        "description": "Not Modified",
                        "headers": {
                            "Cache-Control": {
                                "description": "No cache indicators supported at this time. Samples: no-cache",
                                "x-example": "no-cache",
                                "type": "string"
                            },
                            "Date": {
                                "description": "The date and time that the message was originated (in HTTP-date format as defined by RFC 7231 Date/Time Formats).",
                                "x-example": "Wed, 18-Apr-2018 11:34:57 GMT",
                                "type": "string",
                                "format": "date-time"
                            },
                            "service-transaction-id": {
                                "description": "Internal identifier for transaction tracking an individual transaction/API request within API platform. Don_t receive/don_t send to downstream",
                                "x-example": "23409209723",
                                "type": "string"
                            }
                        }
                    },
                    "400": {
                        "description": "Bad Request",
                         "schema": {
                            "type": "array",
                            "description": "An array of error objects.",
                            "minItems": 1,
                            "items": {
                                "$ref": "#/definitions/Error"
                            }
						},
                        "examples": {
                            "application/json": {
                                "code": "400",
                                "userMessage": "Bad Request",
                                "systemMessage": "Bad Request",
                                "detailLink": "http://www.tmus.com"
                            }
                        },
                        "headers": {}
                    },
                    "401": {
                        "description": "Client not authorized",
                        "schema": {
                            "type": "array",
                            "description": "An array of error objects.",
                            "minItems": 1,
                            "items": {
                                "$ref": "#/definitions/Error"
                            }
						},
                        "examples": {
                            "application/json": {
                                "code": "401",
                                "userMessage": "Unauthorized",
                                "systemMessage": "Unauthorized",
                                "detailLink": "http://www.tmus.com"
                            }
                        },
                        "headers": {}
                    },
                    "403": {
                        "description": "Client access denied",
                        "schema": {
                            "type": "array",
                            "description": "An array of error objects.",
                            "minItems": 1,
                            "items": {
                                "$ref": "#/definitions/Error"
                            }
						},
                        "examples": {
                            "application/json": {
                                "code": "403",
                                "userMessage": "Client access denied",
                                "systemMessage": "Client access denied",
                                "detailLink": "http://www.tmus.com"
                            }
                        },
                        "headers": {}
                    },
                    "404": {
                        "description": "Resource not found",
                        "schema": {
                            "type": "array",
                            "description": "An array of error objects.",
                            "minItems": 1,
                            "items": {
                                "$ref": "#/definitions/Error"
                            }
						},
                        "examples": {
                            "application/json": {
                                "code": "404",
                                "userMessage": "Resource not found",
                                "systemMessage": "Resource not found",
                                "detailLink": "http://www.tmus.com"
                            }
                        },
                        "headers": {}
                    },
                    "500": {
                        "description": "System Error",
                        "schema": {
                            "type": "array",
                            "description": "An array of error objects.",
                            "minItems": 1,
                            "items": {
                                "$ref": "#/definitions/Error"
                            }
						},
                        "examples": {
                            "application/json": {
                                "code": "500",
                                "userMessage": "System Error",
                                "systemMessage": "System Error",
                                "detailLink": "http://www.tmus.com"
                            }
                        },
                        "headers": {}
                    },
                    "503": {
                        "description": "Service unavailable",
                        "schema": {
                            "type": "array",
                            "description": "An array of error objects.",
                            "minItems": 1,
                            "items": {
                                "$ref": "#/definitions/Error"
                            }
						},
                        "examples": {
                            "application/json": {
                                "code": "503",
                                "userMessage": "Service unavailable",
                                "systemMessage": "Service unavailable",
                                "detailLink": "http://www.tmus.com"
                            }
                        },
                        "headers": {}
                    }
                },
                "security": [
                    {
                        "implicit": [
                            "user",
                            "financial",
                            "read:customer"
                        ]
                    }
                ]
            }
        }
	},
    "definitions": {
        "Error": {
            "type": "object",
            "description": "As defined in http://api-standards.apps.px-npe01.cf.t-mobile.com/http/status-codes/error-response-format/",
            "required": [
                "code",
                "userMessage"
            ],
            "properties": {
                "code": {
                    "description": "A succinct, domain-specific, human-readable text string to identify the type of error for the given status code",
                    "example": "ProductNotFound",
                    "type": "string",
                    "pattern": "^[\\S ]+$"
                },
                "userMessage": {
                    "description": "A human-readable message describing the error.",
                    "example": "Failed to find product.",
                    "type": "string",
                    "pattern": "^[\\S ]+$"
                },
                "systemMessage": {
                    "description": "Text that provides a more detailed technical explanation of the error",
                    "example": "PRODUCT_NOT_FOUND",
                    "type": "string"
                },
                "detailLink": {
                    "description": "link to custom information providing greater detail on error or errors",
                    "example": "http://aaa.bbb.ccc/",
                    "type": "string"
                }
            }
        },
        "ShipMethod": {
            "type": "object",
            "description": "A geographical shipping method in the product catalog.",
            "properties": {
                "shippingMethodId": {
                    "description": "Display order for this rate.",
                    "type": "integer",
                    "format": "int32",
                    "pattern": "[\\-+]?[0-9]+"
                },
                "code": {
                    "description": "The name by which the region is known in the product catalog.",
                    "type": "string"
                },
                "description": {
                    "description": "The iso standard code of the geographical region.",
                    "type": "string"
                },
                "carrierName": {
                    "description": "The iso standard code of the geographical region.",
                    "type": "string"
                },
                "amount": {
                    "description": "The international dialing prefix to use when calling the region, as defined by the International Telecommunications Union (ITU).",
                     "type": "number",
                    "format": "double"
                },
                "isDefault": {
                    "description": "The international dialing prefix to use when calling the region, as defined by the International Telecommunications Union (ITU).",
                    "type": "boolean"
                },
                "status": {
                    "description": "The iso standard code of the geographical region.",
                    "type": "string"
                },	
				"deliveryDays": {
                    "description": "Display order for this rate.",
                    "type": "integer",
                    "format": "int32",
                    "pattern": "[\\-+]?[0-9]+"
                },	
				"sortOrder": {
                    "description": "Display order for this rate.",
                    "type": "integer",
                    "format": "int32",
                    "pattern": "[\\-+]?[0-9]+"
                }
            }
        },
        "ShippingMethodResponse": {
            "type": "object",
            "properties": {
                "shipMethods": {
                    "type": "array",
                    "description": "An array of ShipMethod objects.",
                    "minItems": 1,
                    "items": {
                        "$ref": "#/definitions/ShipMethod"
                    }
                }
            }
        }
	},
    "securityDefinitions": {
        "implicit": {
            "type": "oauth2",
            "authorizationUrl": "http://foo.com/oauth/dialo",
            "flow": "implicit",
            "scopes": {
                "user": "Grants read/write access to profile info only",
                "financial": "Grants read/write access to financial transactions",
                "read:customer": "read only access to customer information"
            }
        }
    }
}
