{
  "swagger": "2.0",
  "info": {
    "title": "API_2016_postCustomerVerification",
    "description": "Gateway for Customer Verification",
    "version": "1.1.0",
    "contact": {
      "name": "Postpaid",
      "email": "Postpaid@t-mobile.com"
    }
  },
  "host": "dit01.api.t-mobile.com",
  "schemes": [
    "https"
  ],
  "basePath": "/reb2-utility/v1",
  "consumes": [
    "application/json"
  ],
  "produces": [
    "application/json"
  ],
  "paths": {
    "/verification": {
      "post": {
        "summary": "customer Verification Event",
        "description": "API call is just a gateway pass through",
        "parameters": [
          {
            "name": "senderId",
            "in": "header",
            "type": "string",
            "required": true,
            "description": "Uniquely identifies an Operation consumer. Used for Tracking and in Business Rules.",
            "pattern": ".+",
            "x-example": {}
          },
          {
            "name": "channelId",
            "in": "header",
            "type": "string",
            "required": true,
            "description": "Identifies the business unit or sales channel for the Request.Property values relating to the target system are derived using partner, application, and channel information. This value may control business logic and data routing.",
            "pattern": ".+",
            "x-example": {}
          },
          {
            "name": "applicationId",
            "in": "header",
            "type": "string",
            "required": true,
            "description": "Identifies the application, system, or tool that is being used to perform the transaction(s) related to this request. Property values relating to the target system are derived using partner, application, and channel information.",
            "pattern": ".+",
            "x-example": {}
          },
          {
            "name": "billingType",
            "in": "header",
            "type": "string",
            "required": true,
            "description": "PREPAID/POSTPAID",
            "pattern": ".+",
            "x-example": {}
          },
          {
            "name": "origin",
            "in": "header",
            "type": "string",
            "required": false,
            "description": "origin",
            "x-example": {}
          },
          {
            "name": "accept-encoding",
            "in": "header",
            "type": "string",
            "required": false,
            "description": "accept-encoding",
            "x-example": {}
          },
          {
            "name": "accept-language",
            "in": "header",
            "type": "string",
            "required": false,
            "description": "accept-language",
            "x-example": {}
          },
          {
            "name": "authorization",
            "in": "header",
            "type": "string",
            "required": false,
            "description": "A user agent that wishes to authenticate itself with a server",
            "x-example": {}
          },
          {
            "name": "connection",
            "in": "header",
            "type": "string",
            "required": false,
            "description": "connection",
            "x-example": {}
          },
          {
            "name": "storeId",
            "in": "header",
            "type": "string",
            "required": false,
            "description": "Required only when ChannelId is RETAIL",
            "x-example": {}
          },
          {
            "name": "pragma",
            "in": "header",
            "type": "string",
            "required": false,
            "description": "pragma",
            "x-example": {}
          },
          {
            "name": "activityId",
            "in": "header",
            "type": "string",
            "required": true,
            "description": "A value populated by the Sender used to track a unit of work within a workflow. Senders are encouraged to develop a useful scheme. Do not use customer-sensitive information",
            "pattern": ".+",
            "x-example": {}
          },
          {
            "name": "user-agent",
            "in": "header",
            "type": "string",
            "required": false,
            "description": "The User-Agent request-header field contains information about the user agent originating the request",
            "x-example": {}
          },
          {
            "name": "content-type",
            "in": "header",
            "type": "string",
            "required": false,
            "description": "The Content-Type entity-header field indicates the media type of the entity-body sent to the recipient or, in the case of the HEAD method, the media type that would have been sent had the request been a GET",
            "x-example": {}
          },
          {
            "name": "accept",
            "in": "header",
            "type": "string",
            "required": true,
            "description": "accept",
            "pattern": ".+",
            "x-example": {}
          },
          {
            "name": "interactionId",
            "in": "header",
            "type": "string",
            "required": true,
            "description": "interactionId",
            "pattern": ".+",
            "x-example": {}
          },
          {
            "name": "cache-control",
            "in": "header",
            "type": "string",
            "required": false,
            "description": "The Cache-Control general-header field is used to specify directives that MUST be obeyed by all caching mechanisms along the request/response chain",
            "x-example": {}
          },
          {
            "name": "referer",
            "in": "header",
            "type": "string",
            "required": false,
            "description": "referer",
            "x-example": {}
          },
          {
            "name": "sessionId",
            "in": "header",
            "type": "string",
            "required": false,
            "description": "A value populated by the Sender used to track the transactions that occur during a session, a long-lasting interaction that is maintained by the sender. Senders are encouraged to develop a useful scheme. Do not use customer-sensitive information",
            "x-example": {}
          },
          {
            "name": "applicationUserId",
            "in": "header",
            "type": "string",
            "required": true,
            "description": "applicationUserId",
            "pattern": ".+",
            "x-example": {}
          },
          {
            "name": "body",
            "in": "body",
            "description": "request parameters",
            "required": true,
            "schema": {
              "$ref": "#/definitions/BodyParams"
            },
            "x-example": {}
          },
          {
            "name": "If-Modified-Since",
            "in": "header",
            "description": "The If-Modified-Since header specifies date-related conditions to be placed on the execution of a request.  The request will only be executed if the requested resource has not been modified since the date-time specified.  Because the behavior is complex, the details for usage are provided at http://www.w3.org/Protocols/rfc2616/rfc2616-sec14.html",
            "x-example": "Wed, 18-Apr-2018 11:34:57 GMT",
            "required": false,
            "type": "string"
          },
          {
            "name": "If-None-Match",
            "in": "header",
            "description": "The If-None-Match header specifies an ETag-related condition to be placed on the execution of a request.  The request will NOT be executed if the ETag of the requested resource matches one of those specified in the If-None-Match header.  Because the behavior is complex, the details for usage are provided at http://www.w3.org/Protocols/rfc2616/rfc2616-sec14.html",
            "x-example": "*",
            "required": false,
            "type": "string"
          }
        ],
        "tags": [
          "customerVerification"
        ],
        "responses": {
          "200": {
            "description": "Customer Verification Response",
            "schema": {
              "$ref": "#/definitions/PostCustomerVerificationResponse"
            },
            "headers": {
              "Cache-Control": {
                "description": "No cache indicators supported at this time. Samples: no-cache",
                "x-example": "no-cache",
                "type": "string"
              },
              "Content-Encoding": {
                "description": "The type of encoding used on the data",
                "x-example": "gzip,deflate",
                "type": "string"
              },
              "Content-Language": {
                "description": "The natural language or languages of the intended audience for the enclosed content",
                "x-example": "da",
                "type": "string"
              },
              "Content-Length": {
                "description": "The Content-Length header specifies the actual length of the returned payload.",
                "x-example": "1024",
                "type": "string"
              },
              "Content-Type": {
                "description": "The MIME type of this content",
                "x-example": "text/xml",
                "pattern": "^[\\S]*$",
                "type": "string"
              },
              "Date": {
                "description": "The date and time that the message was originated (in HTTP-date format as defined by RFC 7231 Date/Time Formats).",
                "x-example": "Wed, 18-Apr-2018 11:34:57 GMT",
                "type": "string",
                "format": "date-time"
              },
              "ETag": {
                "description": "The ETag header specifies the unique entity tag value for the returned resource.",
                "x-example": "*",
                "type": "string"
              },
              "Last-Modified": {
                "description": "The Last-Modified entity-header field indicates the date and time at which the origin server believes the variant was last modified.",
                "x-example": "Wed, 18-Apr-2018 11:34:57 GMT",
                "type": "string",
                "format": "date-time"
              },
              "Transfer-Encoding": {
                "description": "The form of encoding used to safely transfer the entity to the user. Currently defined methods are: chunked, compress, deflate, gzip, identity.",
                "x-example": "chunked",
                "type": "string"
              },
              "servicetransactionid": {
                "description": "Internal identifier for transaction tracking an individual transaction/API request within API platform. Don_t receive/don_t send to downstream",
                "x-example": "23409209723",
                "type": "string"
              },
              "If-Match": {
                "description": "the If-Match HTTP request header makes the request conditional. For GET and HEAD methods, the server will send back the requested resource only if it matches one of the listed ETags. For PUT and other non-safe methods, it will only upload the resource in this case.",
                "x-example": "*",
                "type": "string"
              },
              "If-None-Match": {
                "description": "the If-Match HTTP request header makes the request conditional. For GET and HEAD methods, the server will send back the requested resource only if it matches one of the listed ETags. For PUT and other non-safe methods, it will only upload the resource in this case.",
                "x-example": "*",
                "type": "string"
              }
            }
          },
          "304": {
            "description": "Not Modified",
            "headers": {
              "Cache-Control": {
                "description": "No cache indicators supported at this time. Samples: no-cache",
                "x-example": "no-cache",
                "type": "string"
              },
              "ETag": {
                "description": "The ETag header specifies the unique entity tag value for the returned resource.",
                "x-example": "*",
                "type": "string"
              }
            }
          },
          "400": {
            "description": "Bad Request",
            "schema": {
              "type": "array",
              "description": "An array of error objects.",
              "minItems": 1,
              "items": {
                "$ref": "#/definitions/Error"
              }
            },
            "examples": {
              "application/json": [
                {
                  "code": "400",
                  "userMessage": "Bad Request",
                  "systemMessage": "Bad Request"
                }
              ]
            },
            "headers": {}
          },
          "401": {
            "description": "Unauthorized",
            "schema": {
              "type": "array",
              "description": "An array of error objects.",
              "minItems": 1,
              "items": {
                "$ref": "#/definitions/Error"
              }
            },
            "examples": {
              "application/json": [
                {
                  "code": "401",
                  "userMessage": "Unauthorized",
                  "systemMessage": "Unauthorized"
                }
              ]
            },
            "headers": {}
          },
          "403": {
            "description": "Client access denied",
            "schema": {
              "type": "array",
              "description": "An array of error objects.",
              "minItems": 1,
              "items": {
                "$ref": "#/definitions/Error"
              }
            },
            "examples": {
              "application/json": [
                {
                  "code": "403",
                  "userMessage": "Client access denied",
                  "systemMessage": "Client access denied"
                }
              ]
            },
            "headers": {}
          },
          "404": {
            "description": "Resource not found",
            "schema": {
              "type": "array",
              "description": "An array of error objects.",
              "minItems": 1,
              "items": {
                "$ref": "#/definitions/Error"
              }
            },
            "examples": {
              "application/json": [
                {
                  "code": "404",
                  "userMessage": "Resource not found",
                  "systemMessage": "Resource not found"
                }
              ]
            },
            "headers": {}
          },
          "405": {
            "description": "Method Not Allowed",
            "schema": {
              "type": "array",
              "description": "An array of error objects.",
              "minItems": 1,
              "items": {
                "$ref": "#/definitions/Error"
              }
            },
            "examples": {
              "application/json": [
                {
                  "code": "405",
                  "userMessage": "Method Not Allowed",
                  "systemMessage": "Method Not Allowed"
                }
              ]
            },
            "headers": {}
          },
          "406": {
            "description": "Mismatching data format",
            "schema": {
              "type": "array",
              "description": "An array of error objects.",
              "minItems": 1,
              "items": {
                "$ref": "#/definitions/Error"
              }
            },
            "examples": {
              "application/json": [
                {
                  "code": "406",
                  "userMessage": "Mismatching data format",
                  "systemMessage": "Mismatching data format"
                }
              ]
            },
            "headers": {}
          },
          "500": {
            "description": "System Error",
            "schema": {
              "type": "array",
              "description": "An array of error objects.",
              "minItems": 1,
              "items": {
                "$ref": "#/definitions/Error"
              }
            },
            "examples": {
              "application/json": [
                {
                  "code": "500",
                  "userMessage": "System Error",
                  "systemMessage": "System Error"
                }
              ]
            },
            "headers": {}
          },
          "503": {
            "description": "Service unavailable",
            "schema": {
              "type": "array",
              "description": "An array of error objects.",
              "minItems": 1,
              "items": {
                "$ref": "#/definitions/Error"
              }
            },
            "examples": {
              "application/json": [
                {
                  "code": "503",
                  "userMessage": "Service unavailable",
                  "systemMessage": "Service unavailable"
                }
              ]
            },
            "headers": {}
          }
        },
        "operationId": "/*ToDo*/SomeOpId",
        "security": [
          {
            "Oauth": []
          }
        ]
      }
    }
  },
  "definitions": {
    "BodyParams": {
      "required": [
        "customerId",
        "accountId"
      ],
      "type": "object",
      "properties": {
        "msisdn": {
          "type": "string",
          "description": "Subscriber Number",
          "x-example": "/*ToDO*/ Some Example",
          "pattern": ".+"
        },
        "accountId": {
          "type": "string",
          "description": "Customer Account Id",
          "x-example": "/*ToDO*/ Some Example",
          "pattern": ".+"
        },
        "lineId": {
          "type": "string",
          "description": "optional",
          "x-example": "/*ToDO*/ Some Example",
          "pattern": ".+"
        },
        "customerId": {
          "type": "string",
          "description": "Valid Customer Id",
          "x-example": "/*ToDO*/ Some Example",
          "pattern": ".+"
        },
        "customerFullName": {
          "type": "string",
          "description": "Full name of customer",
          "x-example": "/*ToDO*/ Some Example",
          "pattern": ".+"
        },
        "customerRole": {
          "type": "string",
          "description": "Customer Role",
          "x-example": "/*ToDO*/ Some Example",
          "pattern": ".+"
        },
        "customerEmailAddress": {
          "type": "string",
          "description": "Email Address of the customer",
          "x-example": "/*ToDO*/ Some Example",
          "pattern": ".+"
        },
        "repNTId": {
          "type": "string",
          "description": "NTId of the rep",
          "x-example": "/*ToDO*/ Some Example",
          "pattern": ".+"
        },
        "repFullName": {
          "type": "string",
          "description": "Full name of the rep",
          "x-example": "/*ToDO*/ Some Example",
          "pattern": ".+"
        },
        "dealerCode": {
          "type": "string",
          "description": "This is the retail's rep dealer code",
          "x-example": "/*ToDO*/ Some Example",
          "pattern": ".+"
        },
        "dealerFullName": {
          "type": "string",
          "description": "This is the retail's rep dealer full name",
          "x-example": "/*ToDO*/ Some Example",
          "pattern": ".+"
        },
        "repStoreId": {
          "type": "string",
          "description": "This is the retail's rep store Id",
          "x-example": "/*ToDO*/ Some Example",
          "pattern": ".+"
        },
        "startTime": {
          "type": "string",
          "description": "Date format is MM-DD-YYYY",
          "x-example": "/*ToDO*/ Some Example",
          "pattern": ".+"
        },
        "verificationType": {
          "type": "string",
          "description": "After dealerVerifiedEvent, this will be 'dealer'",
          "enum": [
            "photoId",
            "PIN"
          ],
          "x-example": "/*ToDO*/ Some Example",
          "pattern": ".+"
        },
        "verificationIndicator": {
          "type": "string",
          "description": "verified/(not verified)",
          "x-example": "/*ToDO*/ Some Example",
          "pattern": ".+"
        },
        "repStoreName": {
          "type": "string",
          "description": "rep store name",
          "x-example": "/*ToDO*/ Some Example",
          "pattern": ".+"
        },
        "verificationMethod": {
          "type": "string",
          "enum": [
            "Manual",
            "Systematic"
          ],
          "description": "/*ToDo*/ Some description",
          "x-example": "/*ToDO*/ Some Example",
          "pattern": ".+"
        }
      },
      "description": "/*ToDo*/ Some description",
      "x-example": "/*ToDO*/ Some Example"
    },
    "PostCustomerVerificationResponse": {
      "type": "object",
      "properties": {
        "success": {
          "type": "boolean",
          "description": "/*ToDo*/ Some description",
          "x-example": "/*ToDO*/ Some Example",
          "enum": [
            true,
            false
          ]
        }
      },
      "description": "/*ToDo*/ Some description",
      "x-example": "/*ToDO*/ Some Example"
    },
    "Errors": {
      "type": "object",
      "properties": {
        "errorCode": {
          "type": "string",
          "description": "/*ToDo*/ Some description",
          "x-example": "/*ToDO*/ Some Example",
          "pattern": ".+"
        },
        "subStatusCode": {
          "type": "string",
          "description": "/*ToDo*/ Some description",
          "x-example": "/*ToDO*/ Some Example",
          "pattern": ".+"
        },
        "errorMessage": {
          "type": "string",
          "description": "/*ToDo*/ Some description",
          "x-example": "/*ToDO*/ Some Example",
          "pattern": ".+"
        }
      },
      "description": "/*ToDo*/ Some description",
      "x-example": "/*ToDO*/ Some Example"
    },
    "Error": {
      "type": "object",
      "description": "As defined in https://tmobileusa.sharepoint.com/teams/EnterpriseServices/ESG%20Standards%20Documents/APIs/T-Mobile%20API%20Design%20Guidelines%20v1.0.docx",
      "properties": {
        "code": {
          "description": "A succinct, domain-specific, human-readable text string to identify the type of error for the given status code",
          "type": "string"
        },
        "userMessage": {
          "description": "A human-readable message describing the error.",
          "type": "string"
        },
        "systemMessage": {
          "description": "Text that provides a more detailed technical explanation of the error",
          "type": "string"
        },
        "errorDetailUrl": {
          "description": "link to custom information providing greater detail on error or errors",
          "type": "string"
        }
      }
    }
  },
  "x-servers": [],
  "tags": [],
  "securityDefinitions": {
    "Oauth": {
      "type": "oauth2",
      "description": "When you sign up for an account, you are given your first API key\n",
      "tokenUrl": "https://dlab03.core.op.api.t-mobile.com:443/v2/oauth2/accesstoken?grant_type=client_credentials",
      "flow": "application",
      "scopes": {}
    }
  }
}