{
  "swagger": "2.0",
  "info": {
    "description": "Api Documentation",
    "version": "1.0",
    "title": "Api Documentation",
    "termsOfService": "urn:tos",
    "contact": {},
    "license": {
      "name": "Apache 2.0",
      "url": "http://www.apache.org/licenses/LICENSE-2.0"
    }
  },
  "host": "qa1r2-dev.apps.px-npe01.cf.t-mobile.com",
  "basePath": "/assisted-customer-manage-profile",
  "tags": [
    {
      "name": "assisted-customer-manage-profile-controller",
      "description": "Assisted Customer Manage Profile Controller"
    },
    {
      "name": "cache-util",
      "description": "Cache Util"
    }
  ],
  "paths": {
  "/v1/customers/{customerId}/accounts/{accountId}/special-instructions": {
      "post": {
        "tags": [
          "assisted-customer-manage-profile-controller"
        ],
        "summary": "postSpecialInstructions",
        "operationId": "postSpecialInstructionsUsingPOST",
        "consumes": [
          "application/json"
        ],
        "produces": [
          "application/json"
        ],
        "parameters": [
          {
            "in": "body",
            "name": "postSpecialInstructionRequest",
            "description": "postSpecialInstructionRequest",
            "required": true,
            "schema": {
              "$ref": "#/definitions/PostSpecialInstructionsReq"
            }
          },
          {
            "name": "User-Agent",
            "in": "header",
            "description": "User-Agent",
            "required": false,
            "type": "string"
          },
          {
            "name": "applicationUserId",
            "in": "header",
            "description": "applicationUserId",
            "required": false,
            "type": "string"
          },
          {
            "name": "customerId",
            "in": "path",
            "description": "customerId",
            "required": true,
            "type": "string"
          },
          {
            "name": "accountId",
            "in": "path",
            "description": "accountId",
            "required": true,
            "type": "string"
          }
        ],
        "responses": {
          "200": {
            "description": "OK",
            "schema": {
              "$ref": "#/definitions/PostSpecialInstructionsResponse"
            }
          },
          "201": {
            "description": "Created"
          },
          "401": {
            "description": "Unauthorized"
          },
          "403": {
            "description": "Forbidden"
          },
          "404": {
            "description": "Not Found"
          }
        }
      }
    }
	},
	 "definitions": {
	    "PostSpecialInstructionsReq": {
      "type": "object",
      "properties": {
        "ExpirationDate": {
          "type": "string"
        },
        "accountId": {
          "type": "string"
        },
        "actionCode": {
          "type": "string"
        },
        "applicableFor": {
          "type": "string"
        },
        "author": {
          "type": "string"
        },
        "customerId": {
          "type": "string"
        },
        "expirationDate": {
          "type": "string"
        },
        "id": {
          "type": "string"
        },
        "instruction": {
          "type": "string"
        },
        "instructionsType": {
          "type": "string"
        }
      },
      "title": "PostSpecialInstructionsReq"
    },
	 "PostSpecialInstructionsResponse": {
      "type": "object",
      "properties": {
        "success": {
          "type": "string"
        }
      },
      "title": "PostSpecialInstructionsResponse"
    }
	}
	}