{
  "swagger": "2.0",
  "info": {
    "title": "API_2020_postSaveMemoAndFollowUp",
    "description": "Create memos and follow ups ",
    "version": "2.0.0",
    "contact": {
      "name": "Postpaid",
      "email": "Postpaid@t-mobile.com"
    }
  },
  "host": "dit01.api.t-mobile.com",
  "schemes": [
    "https"
  ],
  "basePath": "/reb2-assisted-repdash/v1",
  "consumes": [
    "application/json"
  ],
  "produces": [
    "application/json"
  ],
  "paths": {
    "/reps/save-memo-followup": {
      "post": {
        "summary": "Memos and Follow Up Creations ",
        "description": "API is used to create memos and follow up",
        "parameters": [
          {
            "name": "authorization",
            "in": "header",
            "type": "string",
            "required": true,
            "description": "A user agent that wishes to authenticate itself with a server",
            "pattern": ".+",
            "x-example": {}
          },
          {
            "name": "accept",
            "in": "header",
            "type": "string",
            "required": true,
            "description": "accept",
            "pattern": ".+",
            "x-example": {}
          },
          {
            "name": "partnerId",
            "in": "query",
            "required": true,
            "description": "Identifies the business unit or sales channel for the Request ",
            "type": "string",
            "pattern": ".+",
            "x-example": {}
          },
          {
            "name": "requestId",
            "in": "header",
            "type": "string",
            "required": false,
            "description": "Randomly generated Value by UI to Uniquely identifies an Operation .",
            "x-example": {}
          },
          {
            "name": "TransactionId",
            "in": "header",
            "type": "string",
            "required": true,
            "description": "Randomly generated Value by UI to Uniquely identifies an Operation .",
            "pattern": ".+",
            "x-example": {}
          },
          {
            "name": "Timestamp",
            "in": "header",
            "type": "string",
            "required": true,
            "description": "Randomly generated Value by UI to Uniquely identifies an Operation .",
            "pattern": ".+",
            "x-example": {}
          },
          {
            "name": "interactionId",
            "in": "header",
            "type": "string",
            "required": true,
            "description": "interactionId",
            "pattern": ".+",
            "x-example": {}
          },
          {
            "name": "channel",
            "in": "header",
            "type": "string",
            "required": true,
            "description": "Identifies the business unit or sales channel for the Request.Property values relating to the target system are derived using partner, application, and channel information. This value may control business logic and data routing.",
            "pattern": ".+",
            "x-example": {}
          },
          {
            "name": "application",
            "in": "header",
            "type": "string",
            "required": true,
            "description": "Identifies the application, system, or tool that is being used to perform the transaction(s) related to this request. Property values relating to the target system are derived using partner, application, and channel information.",
            "pattern": ".+",
            "x-example": {}
          },
          {
            "name": "applicationUserId",
            "in": "header",
            "type": "string",
            "required": false,
            "description": "Application user ID",
            "x-example": {}
          },
          {
            "name": "rspTransactionId",
            "in": "header",
            "type": "string",
            "required": false,
            "description": "Tracks the request/response, populated by the backend systems",
            "x-example": {}
          },
          {
            "name": "authenticatedId",
            "in": "header",
            "type": "string",
            "required": false,
            "description": "Tracks the request/response, populated by the backend systems",
            "x-example": {}
          },
          {
            "name": "billingType",
            "in": "header",
            "type": "string",
            "required": true,
            "description": "PREPAID/POSTPAID",
            "pattern": ".+",
            "x-example": {}
          },
          {
            "name": "storeId",
            "in": "header",
            "type": "string",
            "required": true,
            "description": "storeId",
            "pattern": ".+",
            "x-example": {}
          },
          {
            "name": "dealerCode",
            "in": "header",
            "type": "string",
            "required": true,
            "description": "dealerCode",
            "pattern": ".+",
            "x-example": {}
          },
          {
            "name": "origin",
            "in": "header",
            "type": "string",
            "required": false,
            "description": "origin",
            "x-example": {}
          },
          {
            "name": "accept-encoding",
            "in": "header",
            "type": "string",
            "required": false,
            "description": "accept-encoding",
            "x-example": {}
          },
          {
            "name": "accept-language",
            "in": "header",
            "type": "string",
            "required": false,
            "description": "accept-language",
            "x-example": {}
          },
          {
            "name": "connection",
            "in": "header",
            "type": "string",
            "required": false,
            "description": "connection",
            "x-example": {}
          },
          {
            "name": "pragma",
            "in": "header",
            "type": "string",
            "required": false,
            "description": "pragma",
            "x-example": {}
          },
          {
            "name": "activityId",
            "in": "header",
            "type": "string",
            "required": true,
            "description": "A value populated by the Sender used to track a unit of work within a workflow. Senders are encouraged to develop a useful scheme. Do not use customer-sensitive information",
            "pattern": ".+",
            "x-example": {}
          },
          {
            "name": "user-agent",
            "in": "header",
            "type": "string",
            "required": false,
            "description": "The User-Agent request-header field contains information about the user agent originating the request",
            "x-example": {}
          },
          {
            "name": "content-type",
            "in": "header",
            "type": "string",
            "required": false,
            "description": "The Content-Type entity-header field indicates the media type of the entity-body sent to the recipient or, in the case of the HEAD method, the media type that would have been sent had the request been a GET",
            "x-example": {}
          },
          {
            "name": "cache-control",
            "in": "header",
            "type": "string",
            "required": false,
            "description": "The Cache-Control general-header field is used to specify directives that MUST be obeyed by all caching mechanisms along the request/response chain",
            "x-example": {}
          },
          {
            "name": "referer",
            "in": "header",
            "type": "string",
            "required": false,
            "description": "referer",
            "x-example": {}
          },
          {
            "name": "sessionId",
            "in": "header",
            "type": "string",
            "required": false,
            "description": "A value populated by the Sender used to track the transactions that occur during a session, a long-lasting interaction that is maintained by the sender. Senders are encouraged to develop a useful scheme. Do not use customer-sensitive information",
            "x-example": {}
          },
          {
            "name": "body",
            "in": "body",
            "required": true,
            "schema": {
              "$ref": "#/definitions/BodyParams"
            },
            "description": "body",
            "x-example": {}
          },
          {
            "name": "If-Modified-Since",
            "in": "header",
            "description": "The If-Modified-Since header specifies date-related conditions to be placed on the execution of a request.  The request will only be executed if the requested resource has not been modified since the date-time specified.  Because the behavior is complex, the details for usage are provided at http://www.w3.org/Protocols/rfc2616/rfc2616-sec14.html",
            "x-example": "Wed, 18-Apr-2018 11:34:57 GMT",
            "required": false,
            "type": "string"
          },
          {
            "name": "If-None-Match",
            "in": "header",
            "description": "The If-None-Match header specifies an ETag-related condition to be placed on the execution of a request.  The request will NOT be executed if the ETag of the requested resource matches one of those specified in the If-None-Match header.  Because the behavior is complex, the details for usage are provided at http://www.w3.org/Protocols/rfc2616/rfc2616-sec14.html",
            "x-example": "*",
            "required": false,
            "type": "string"
          }
        ],
        "tags": [
          "Memos and Follow Up Creations"
        ],
        "responses": {
          "200": {
            "description": "Memos and follow up creation response",
            "schema": {
              "$ref": "#/definitions/MemoFollowUp"
            },
            "headers": {
              "Cache-Control": {
                "description": "No cache indicators supported at this time. Samples: no-cache",
                "x-example": "no-cache",
                "type": "string"
              },
              "Content-Encoding": {
                "description": "The type of encoding used on the data",
                "x-example": "gzip,deflate",
                "type": "string"
              },
              "Content-Language": {
                "description": "The natural language or languages of the intended audience for the enclosed content",
                "x-example": "da",
                "type": "string"
              },
              "Content-Length": {
                "description": "The Content-Length header specifies the actual length of the returned payload.",
                "x-example": "1024",
                "type": "string"
              },
              "Content-Type": {
                "description": "The MIME type of this content",
                "x-example": "text/xml",
                "pattern": "^[\\S]*$",
                "type": "string"
              },
              "Date": {
                "description": "The date and time that the message was originated (in HTTP-date format as defined by RFC 7231 Date/Time Formats).",
                "x-example": "Wed, 18-Apr-2018 11:34:57 GMT",
                "type": "string",
                "format": "date-time"
              },
              "ETag": {
                "description": "The ETag header specifies the unique entity tag value for the returned resource.",
                "x-example": "*",
                "type": "string"
              },
              "Last-Modified": {
                "description": "The Last-Modified entity-header field indicates the date and time at which the origin server believes the variant was last modified.",
                "x-example": "Wed, 18-Apr-2018 11:34:57 GMT",
                "type": "string",
                "format": "date-time"
              },
              "Transfer-Encoding": {
                "description": "The form of encoding used to safely transfer the entity to the user. Currently defined methods are: chunked, compress, deflate, gzip, identity.",
                "x-example": "chunked",
                "type": "string"
              },
              "servicetransactionid": {
                "description": "Internal identifier for transaction tracking an individual transaction/API request within API platform. Don_t receive/don_t send to downstream",
                "x-example": "23409209723",
                "type": "string"
              },
              "If-Match": {
                "description": "the If-Match HTTP request header makes the request conditional. For GET and HEAD methods, the server will send back the requested resource only if it matches one of the listed ETags. For PUT and other non-safe methods, it will only upload the resource in this case.",
                "x-example": "*",
                "type": "string"
              },
              "If-None-Match": {
                "description": "the If-Match HTTP request header makes the request conditional. For GET and HEAD methods, the server will send back the requested resource only if it matches one of the listed ETags. For PUT and other non-safe methods, it will only upload the resource in this case.",
                "x-example": "*",
                "type": "string"
              }
            }
          },
          "304": {
            "description": "Not Modified",
            "headers": {
              "Cache-Control": {
                "description": "No cache indicators supported at this time. Samples: no-cache",
                "x-example": "no-cache",
                "type": "string"
              },
              "ETag": {
                "description": "The ETag header specifies the unique entity tag value for the returned resource.",
                "x-example": "*",
                "type": "string"
              }
            }
          },
          "400": {
            "description": "Bad Request",
            "schema": {
              "type": "array",
              "description": "An array of error objects.",
              "minItems": 1,
              "items": {
                "$ref": "#/definitions/Error"
              }
            },
            "examples": {
              "application/json": [
                {
                  "code": "400",
                  "userMessage": "Bad Request",
                  "systemMessage": "Bad Request"
                }
              ]
            },
            "headers": {}
          },
          "401": {
            "description": "Unauthorized",
            "schema": {
              "type": "array",
              "description": "An array of error objects.",
              "minItems": 1,
              "items": {
                "$ref": "#/definitions/Error"
              }
            },
            "examples": {
              "application/json": [
                {
                  "code": "401",
                  "userMessage": "Unauthorized",
                  "systemMessage": "Unauthorized"
                }
              ]
            },
            "headers": {}
          },
          "403": {
            "description": "Client access denied",
            "schema": {
              "type": "array",
              "description": "An array of error objects.",
              "minItems": 1,
              "items": {
                "$ref": "#/definitions/Error"
              }
            },
            "examples": {
              "application/json": [
                {
                  "code": "403",
                  "userMessage": "Client access denied",
                  "systemMessage": "Client access denied"
                }
              ]
            },
            "headers": {}
          },
          "404": {
            "description": "Resource not found",
            "schema": {
              "type": "array",
              "description": "An array of error objects.",
              "minItems": 1,
              "items": {
                "$ref": "#/definitions/Error"
              }
            },
            "examples": {
              "application/json": [
                {
                  "code": "404",
                  "userMessage": "Resource not found",
                  "systemMessage": "Resource not found"
                }
              ]
            },
            "headers": {}
          },
          "405": {
            "description": "Method Not Allowed",
            "schema": {
              "type": "array",
              "description": "An array of error objects.",
              "minItems": 1,
              "items": {
                "$ref": "#/definitions/Error"
              }
            },
            "examples": {
              "application/json": [
                {
                  "code": "405",
                  "userMessage": "Method Not Allowed",
                  "systemMessage": "Method Not Allowed"
                }
              ]
            },
            "headers": {}
          },
          "406": {
            "description": "Mismatching data format",
            "schema": {
              "type": "array",
              "description": "An array of error objects.",
              "minItems": 1,
              "items": {
                "$ref": "#/definitions/Error"
              }
            },
            "examples": {
              "application/json": [
                {
                  "code": "406",
                  "userMessage": "Mismatching data format",
                  "systemMessage": "Mismatching data format"
                }
              ]
            },
            "headers": {}
          },
          "500": {
            "description": "System Error",
            "schema": {
              "type": "array",
              "description": "An array of error objects.",
              "minItems": 1,
              "items": {
                "$ref": "#/definitions/Error"
              }
            },
            "examples": {
              "application/json": [
                {
                  "code": "500",
                  "userMessage": "System Error",
                  "systemMessage": "System Error"
                }
              ]
            },
            "headers": {}
          },
          "503": {
            "description": "Service unavailable",
            "schema": {
              "type": "array",
              "description": "An array of error objects.",
              "minItems": 1,
              "items": {
                "$ref": "#/definitions/Error"
              }
            },
            "examples": {
              "application/json": [
                {
                  "code": "503",
                  "userMessage": "Service unavailable",
                  "systemMessage": "Service unavailable"
                }
              ]
            },
            "headers": {}
          }
        },
        "operationId": "/*ToDo*/SomeOpId",
        "security": [
          {
            "Oauth": []
          }
        ]
      }
    }
  },
  "definitions": {
    "BodyParams": {
      "required": [
        "customerId",
        "accountId"
      ],
      "type": "object",
      "properties": {
        "customerId": {
          "type": "string",
          "description": "valid customer Id",
          "x-example": "/*ToDO*/ Some Example",
          "pattern": ".+"
        },
        "repId": {
          "type": "string",
          "description": "rep Id",
          "x-example": "/*ToDO*/ Some Example",
          "pattern": ".+"
        },
        "msisdn": {
          "type": "string",
          "description": "Subscriber Number",
          "x-example": "/*ToDO*/ Some Example",
          "pattern": ".+"
        },
        "accountId": {
          "type": "string",
          "description": "Subscriber account number",
          "x-example": "/*ToDO*/ Some Example",
          "pattern": ".+"
        },
        "creationDate": {
          "type": "string",
          "description": "The date of the memo creation.",
          "x-example": "/*ToDO*/ Some Example",
          "pattern": ".+"
        },
        "customerName": {
          "type": "string",
          "description": "Subscriber name",
          "x-example": "/*ToDO*/ Some Example",
          "pattern": ".+"
        },
        "requestorMsisdn": {
          "type": "string",
          "description": "The subscriber number that the request is created against",
          "x-example": "/*ToDO*/ Some Example",
          "pattern": ".+"
        },
        "requestorName": {
          "type": "string",
          "description": "The requester name",
          "x-example": "/*ToDO*/ Some Example",
          "pattern": ".+"
        },
        "productType": {
          "type": "string",
          "description": "A code needed by the backend systems to processes the request. This value must be in the request",
          "x-example": "/*ToDO*/ Some Example",
          "pattern": ".+"
        },
        "memo": {
          "type": "object",
          "properties": {
            "templateId": {
              "type": "string",
              "description": "The template Id for the Memo",
              "x-example": "/*ToDO*/ Some Example",
              "pattern": ".+"
            },
            "situationalCode": {
              "type": "string",
              "description": "The situation code ",
              "x-example": "/*ToDO*/ Some Example",
              "pattern": ".+"
            },
            "description": {
              "type": "string",
              "description": "Memo descritpion ",
              "x-example": "/*ToDO*/ Some Example",
              "pattern": ".+"
            }
          },
          "description": "/*ToDo*/ Some description",
          "x-example": "/*ToDO*/ Some Example"
        },
        "memoId": {
          "type": "string",
          "description": "Memo id",
          "x-example": "/*ToDO*/ Some Example",
          "pattern": ".+"
        },
        "memoType": {
          "type": "string",
          "description": "A code needed by the backend systems to processes the request.",
          "x-example": "/*ToDO*/ Some Example",
          "pattern": ".+"
        },
        "memoSource": {
          "type": "string",
          "description": "A code needed by the backend systems to processes the request.",
          "x-example": "/*ToDO*/ Some Example",
          "pattern": ".+"
        },
        "memoTextTruncated": {
          "type": "boolean",
          "description": "Pass TRUE if the text entered is more than 2000 characters. Default is FALSE.",
          "x-example": "/*ToDO*/ Some Example",
          "enum": [
            true,
            false
          ]
        },
        "containsMemo": {
          "type": "boolean",
          "description": "Pass TRUE if the text is entered manually by agent. If auto generated by the system, pass FALSE.",
          "x-example": "/*ToDO*/ Some Example",
          "enum": [
            true,
            false
          ]
        },
        "containsFollowUp": {
          "type": "boolean",
          "description": "True if the requst contains follow up creation.",
          "x-example": "/*ToDO*/ Some Example",
          "enum": [
            true,
            false
          ]
        },
        "followUp": {
          "type": "object",
          "properties": {
            "reasonCode": {
              "type": "string",
              "description": "The reason code for the follow up creation",
              "x-example": "/*ToDO*/ Some Example",
              "pattern": ".+"
            },
            "followUpDate": {
              "type": "string",
              "description": " Date format is MM-DD-YYYY. The expected follow up date. This value is required for the request",
              "x-example": "/*ToDO*/ Some Example",
              "pattern": ".+"
            },
            "description": {
              "type": "string",
              "description": "The description for the follow up",
              "x-example": "/*ToDO*/ Some Example",
              "pattern": ".+"
            }
          },
          "description": "/*ToDo*/ Some description",
          "x-example": "/*ToDO*/ Some Example"
        }
      },
      "description": "/*ToDo*/ Some description",
      "x-example": "/*ToDO*/ Some Example"
    },
    "MemoFollowUp": {
      "type": "object",
      "properties": {
        "memoId": {
          "type": "string",
          "description": "The Memo id returned for the created posted document",
          "x-example": "/*ToDO*/ Some Example",
          "pattern": ".+"
        },
        "followUpId": {
          "type": "string",
          "description": "Follow Up id number woth sucessful creation of follow up ",
          "x-example": "/*ToDO*/ Some Example",
          "pattern": ".+"
        },
        "message": {
          "type": "string",
          "description": "Success message from backend ",
          "x-example": "/*ToDO*/ Some Example",
          "pattern": ".+"
        },
        "statusCode": {
          "type": "string",
          "description": "Backend status code ",
          "x-example": "/*ToDO*/ Some Example",
          "pattern": ".+"
        }
      },
      "description": "/*ToDo*/ Some description",
      "x-example": "/*ToDO*/ Some Example"
    },
    "Errors": {
      "type": "object",
      "properties": {
        "errorCode": {
          "type": "string",
          "description": "/*ToDo*/ Some description",
          "x-example": "/*ToDO*/ Some Example",
          "pattern": ".+"
        },
        "subStatusCode": {
          "type": "string",
          "description": "/*ToDo*/ Some description",
          "x-example": "/*ToDO*/ Some Example",
          "pattern": ".+"
        },
        "errorMessage": {
          "type": "string",
          "description": "/*ToDo*/ Some description",
          "x-example": "/*ToDO*/ Some Example",
          "pattern": ".+"
        }
      },
      "description": "/*ToDo*/ Some description",
      "x-example": "/*ToDO*/ Some Example"
    },
    "Error": {
      "type": "object",
      "description": "As defined in https://tmobileusa.sharepoint.com/teams/EnterpriseServices/ESG%20Standards%20Documents/APIs/T-Mobile%20API%20Design%20Guidelines%20v1.0.docx",
      "properties": {
        "code": {
          "description": "A succinct, domain-specific, human-readable text string to identify the type of error for the given status code",
          "type": "string"
        },
        "userMessage": {
          "description": "A human-readable message describing the error.",
          "type": "string"
        },
        "systemMessage": {
          "description": "Text that provides a more detailed technical explanation of the error",
          "type": "string"
        },
        "errorDetailUrl": {
          "description": "link to custom information providing greater detail on error or errors",
          "type": "string"
        }
      }
    }
  },
  "x-servers": [],
  "tags": [],
  "securityDefinitions": {
    "Oauth": {
      "type": "oauth2",
      "description": "When you sign up for an account, you are given your first API key\n",
      "tokenUrl": "https://dlab03.core.op.api.t-mobile.com:443/v2/oauth2/accesstoken?grant_type=client_credentials",
      "flow": "application",
      "scopes": {}
    }
  }
}