{
  "swagger": "2.0",
  "info": {
    "title": "retrieveDeviceStatus",
    "description": "This service support the use of the retrieveDeviceStatus resource including the blocked reason code and description",
    "version": "1.4.0",
    "contact": {
      "name": "DSGDICE-DTIS",
      "email": "DSGDICE-DTIS@T-Mobile.com"
    },
    "x-createdBy": {
      "dateCreated": "2/4/2019",
      "createdBy": "DTIS",
      "application": "Recite",
      "appVersion": "0.3.7.2199",
      "documentId": "966da868-3c95-4726-bb19-23fl3cj9",
      "status": "Conceptual - Initial",
      "classification": "2.1 Product/Service Strategy & Planning",
      "profile": "Application Integration Service",
      "serviceLayer": "Enterprise - ProductManagement"
    }
  },
  "tags": [
    {
      "name": "retrieveDeviceStatus",
      "description": "A get for the retrieveDeviceStatus resource using Digital Architecture's QueryResource pattern."
    }
  ],
  "host": "dev01.api.t-mobile.com",
  "basePath": "/devicemanagement/v4/devices",
  "x-servers": [
    {
      "url": "https://tmobileb-sb01.apigee.net/devicemanagement/v4/devices/status",
      "description": "Sandbox Server"
    },
    {
      "url": "https://api.t-mobile.com/devicemanagement/v4/devices/status",
      "description": "Live Server"
    }
  ],
  "schemes": [
    "https"
  ],
  "paths": {
    "/status": {
      "post": {
        "tags": [
          "retrieveDeviceStatus"
        ],
        "summary": "A get for the retrieveDeviceStatus resource using Digital Architecture's QueryResource pattern.",
        "description": "Retrieves a single instance of the retrieveDeviceStatus resource.",
        "operationId": "retrieveDeviceStatus",
        "consumes": [
          "application/json",
          "application/xml"
        ],
        "produces": [
          "application/json",
          "application/xml"
        ],
        "parameters": [
          {
            "name": "DeviceStatusRequest",
            "in": "body",
            "description": "Device Status request IMEI",
            "required": true,
            "schema": {
              "$ref": "#/definitions/DeviceStatusRequest"
            }
          },
          {
            "name": "Accept",
            "in": "header",
            "description": "Content-Types that are acceptable including application/json or application/xml (default assumed application/json)",
            "x-example": "application/json,text/html,application/xhtml+xml,application/xml;q=0.9,*/*;q=0.8",
            "required": false,
            "type": "string"
          },
          {
            "name": "Accept-Charset",
            "in": "header",
            "description": "Character sets that are acceptable.",
            "x-example": "ISO-8859-1,utf-8;q=0.7,*;q=0.7",
            "required": false,
            "type": "string"
          },
          {
            "name": "Accept-Encoding",
            "in": "header",
            "description": "List of acceptable encodings. See HTTP compression.",
            "x-example": "gzip,deflate",
            "required": false,
            "type": "string"
          },
          {
            "name": "Accept-Language",
            "in": "header",
            "description": "List of acceptable human languages for response",
            "x-example": "en-us,en;q=0.5",
            "required": false,
            "type": "string"
          },
          {
            "name": "Authorization",
            "in": "header",
            "description": "OAuth 2.0 access token with the authentication type set as Bearer.",
            "x-example": "Bearer YUFSbFZHQ1p5dE5KMzV6RVAzOVFneXFUS0tRM1VONHM6QmtYN0c5RmQxTnNEaHRsWg==",
            "required": true,
            "pattern": "[*]",
            "type": "string"
          },
          {
            "name": "Content-Type",
            "in": "header",
            "description": "The Content-Length header specifies the actual length of the returned payload.",
            "x-example": "text/xml",
            "required": true,
            "pattern": "[*]",
            "type": "string"
          },
          {
            "name": "Date",
            "in": "header",
            "description": "The date and time that the message was originated (in HTTP-date format as defined by RFC 7231 Date/Time Formats).",
            "x-example": "Wed, 18-Apr-2018 11:34:57 GMT",
            "required": false,
            "type": "string",
            "format": "date-time"
          },
          {
            "name": "If-Modified-Since",
            "in": "header",
            "description": "The If-Modified-Since header specifies date-related conditions to be placed on the execution of a request.  The request will only be executed if the requested resource has not been modified since the date-time specified.  Because the behavior is complex, the details for usage are provided at http://www.w3.org/Protocols/rfc2616/rfc2616-sec14.html",
            "x-example": "Wed, 18-Apr-2018 11:34:57 GMT",
            "required": false,
            "type": "string"
          },
          {
            "name": "If-None-Match",
            "in": "header",
            "description": "The If-None-Match header specifies an ETag-related condition to be placed on the execution of a request.  The request will NOT be executed if the ETag of the requested resource matches one of those specified in the If-None-Match header.  Because the behavior is complex, the details for usage are provided at http://www.w3.org/Protocols/rfc2616/rfc2616-sec14.html",
            "x-example": "*",
            "required": false,
            "type": "string"
          },
          {
            "name": "activityid",
            "in": "header",
            "description": "Unique id alphanumeric value generated and sent by the partner to identify every the service request uniquely. Sample: XyzA:D1s5s1i-X6AFRvfiPBfs-1234  Pass as is to downstream calls.",
            "x-example": "TBD",
            "required": true,
            "pattern": "[*]",
            "type": "string"
          },
          {
            "name": "applicationid",
            "in": "header",
            "description": "Identifies the application, system, or tool that is being used to perform the transaction related to this request. Below are the sample values.ACUI, ESERVICE, REBELLION, WARP",
            "x-example": "QVXP",
            "required": false,
            "type": "string"
          },
          {
            "name": "applicationuserid",
            "in": "header",
            "description": "NT id of the one who is managing the transaction from CARE/RETAIL channels.",
            "x-example": "RETAIL",
            "required": false,
            "type": "string"
          },
          {
            "name": "authcustomerid",
            "in": "header",
            "description": "Customer id _ of the person that is interacting with the system.",
            "x-example": "NTID",
            "required": false,
            "type": "string"
          },
          {
            "name": "authfinancialaccountid",
            "in": "header",
            "description": "Financial account that the customer intends to operate on, while interacting with the system.",
            "x-example": "TBD",
            "required": false,
            "type": "string"
          },
          {
            "name": "authlineofserviceid",
            "in": "header",
            "description": "Service Line that the customer intends to operate on, while interacting with the system.",
            "x-example": "TBD",
            "required": false,
            "type": "string"
          },
          {
            "name": "channelid",
            "in": "header",
            "description": "Identifies the business unit or sales channel for the Request.Below are the sample values: Care   TeleSales  FullService BusinessDirect   FinancePartners NonFinancePartners SelfServiceAuthenticated  SelfServiceAnonymous  InteractiveVoiceResponse",
            "x-example": "Retail",
            "required": false,
            "type": "string"
          },
          {
            "name": "dealercode",
            "in": "header",
            "description": "Unique code to identify the dealer/rep user.",
            "x-example": "TBD",
            "required": false,
            "type": "integer",
            "format": "int32",
            "minimum": -2147483648,
            "maximum": 2147483647
          },
          {
            "name": "interactionid",
            "in": "header",
            "description": "Alphanumeric value represent a common transaction id across all calls made from UI, while completing all business activity needs of a particular customer.",
            "x-example": "TBD",
            "required": false,
            "type": "string"
          },
          {
            "name": "segmentationid",
            "in": "header",
            "description": "Identifier of customers primary data center.Sample: Polaris,Titan",
            "x-example": "TBD",
            "required": false,
            "type": "string"
          },
          {
            "name": "senderid",
            "in": "header",
            "description": "Uniquely identifies an Operation consumer. Below are the sample values.ACUI, MYTMO, QVXP, REBELLION, WALMARTRETAIL, SAMSCLUBRETAIL.",
            "x-example": "TBD",
            "required": false,
            "type": "string"
          },
          {
            "name": "sessionid",
            "in": "header",
            "description": "A value populated by the sender used to track the transactions that occur during a session, a long-lasting interaction that ismaintained by the sender.",
            "x-example": "TBD",
            "required": false,
            "type": "string"
          },
          {
            "name": "storeid",
            "in": "header",
            "description": "Unique identifier for the retail store location.",
            "x-example": "TBD",
            "required": false,
            "type": "string"
          },
          {
            "name": "terminalid",
            "in": "header",
            "description": "Unique identifier for the retail store terminal. Needed for FullService  (Tmobile RETAIL channel). Need to discuss with T-Mobile business liaison if there is a need for Partner to pass their retail Store Id).",
            "x-example": "TBD",
            "required": false,
            "type": "string"
          },
          {
            "name": "tillid",
            "in": "header",
            "description": "Unique identifier for the retail register. Needed for FullService  (Tmobile RETAIL channel). Need to discuss with T-Mobile business liaison if there is a need for Partner to pass their retail Store Id).",
            "x-example": "TBD",
            "required": false,
            "type": "string"
          },
          {
            "name": "timestamp",
            "in": "header",
            "description": "A timestamp provided by sender to track their workflow. If it is empty APIGEE can send current system timestamp.",
            "x-example": "TBD",
            "required": false,
            "type": "string",
            "format": "date-time"
          },
          {
            "name": "workflowid",
            "in": "header",
            "description": "Workflow name (NEW/ADD/EXCHANGE/RETURN)/OrderTypes _ ACTIVATION ADDALINE CHANGEDEVICE_JUMP CHANGEDEVICE",
            "x-example": "TBD",
            "required": false,
            "type": "string"
          }
        ],
        "responses": {
          "200": {
            "description": "The retrieveDeviceStatus resource has been found.  Returning the retrieveDeviceStatus.",
            "schema": {
              "$ref": "#/definitions/DeviceStatusResponse"
            },
            "headers": {
              "Cache-Control": {
                "description": "No cache indicators supported at this time. Samples: no-cache",
                "x-example": "no-cache",
                "type": "string"
              },
              "Content-Encoding": {
                "description": "The type of encoding used on the data",
                "x-example": "gzip,deflate",
                "type": "string"
              },
              "Content-Language": {
                "description": "The natural language or languages of the intended audience for the enclosed content",
                "x-example": "da",
                "type": "string"
              },
              "Content-Length": {
                "description": "The Content-Length header specifies the actual length of the returned payload.",
                "x-example": "1024",
                "type": "string"
              },
              "Content-Type": {
                "description": "The Content-Length header specifies the actual length of the returned payload.",
                "x-example": "text/xml",
                "type": "string"
              },
              "Date": {
                "description": "The date and time that the message was originated (in HTTP-date format as defined by RFC 7231 Date/Time Formats).",
                "x-example": "Wed, 18-Apr-2018 11:34:57 GMT",
                "type": "string",
                "format": "date-time"
              },
              "ETag": {
                "description": "The ETag header specifies the unique entity tag value for the returned resource.",
                "x-example": "*",
                "type": "string"
              },
              "Last-Modified": {
                "description": "The Last-Modified entity-header field indicates the date and time at which the origin server believes the variant was last modified.",
                "x-example": "Wed, 18-Apr-2018 11:34:57 GMT",
                "type": "string",
                "format": "date-time"
              },
              "Transfer-Encoding": {
                "description": "The form of encoding used to safely transfer the entity to the user. Currently defined methods are: chunked, compress, deflate, gzip, identity.",
                "x-example": "chunked",
                "type": "string"
              },
              "servicetransactionid": {
                "description": "Internal identifier for transaction tracking an individual transaction/API request within API platform. Don_t receive/don_t send to downstream",
                "x-example": "TBD",
                "type": "string"
              }
            }
          },
          "400": {
            "description": "Bad Request",
            "schema": {
              "$ref": "#/definitions/Errors"
            }
          },
          "401": {
            "description": "Unauthorised Access",
            "schema": {
              "$ref": "#/definitions/Errors"
            },
            "examples": {
              "application/json": {
                "errors": [
                  {
                    "code": "401",
                    "userMessage": "Unauthorised Access",
                    "systemMessage": "Unauthorised Access"
                  }
                ]
              }
            }
          },
          "403": {
            "description": "Forbidden",
            "schema": {
              "$ref": "#/definitions/Errors"
            },
            "examples": {
              "application/json": [
                {
                  "code": "403",
                  "userMessage": "Access Denied",
                  "systemMessage": "Forbidden"
                }
              ]
            }
          },
          "404": {
            "description": "The resource not found",
            "schema": {
              "$ref": "#/definitions/Errors"
            }
          },
          "500": {
            "description": "Internal Server Error",
            "schema": {
              "$ref": "#/definitions/Errors"
            }
          },
          "503": {
            "description": "Service Unavailable",
            "schema": {
              "$ref": "#/definitions/Errors"
            }
          }
        },
        "security": [
          {
            "Oauth": [
              "read:ContainerTracking"
            ]
          }
        ]
      }
    }
  },
  "definitions": {
    "Device": {
      "type": "object",
      "description": "an user defined resource",
      "required": [
        "imei"
      ],
      "properties": {
        "imei": {
          "description": "IMEI",
          "minLength": 15,
          "maxLength": 16,
          "x-example": "232343432333123",
          "pattern": "[0-9]{0,16}",
          "type": "string"
        },
        "blockStatus": {
          "description": "BLOCKED - Indicates imei is in blocked status, UNBLOCKED - Indicates imei is in unblocked status.This element will not be returned if backend does not return any value.This element will not be returned if backend does not return any value.",
          "type": "string"
        },
        "blockedReasonCode": {
          "description": "Indicates blocked reason code when status is BLOCKED",
          "x-example": "STL_INS",
          "type": "string"
        },
        "blockedReasonDescription": {
          "description": "Indicates blocked reason description when status is BLOCKED",
          "x-example": "Reported stolen by insurance",
          "type": "string"
        },
        "financingProgramType": {
          "description": "Indicates active financing program type. Possible values: LOAN,LEOP,POIP, NONE The value NONE indicates no financing program is associated with imei. This element will not be returned in response for backend failure.",
          "type": "string"
        }
      }
    },
    "DeviceStatusRequest": {
      "type": "object",
      "description": "IMEI status request.",
      "required": [
        "imei"
      ],
      "properties": {
        "imei": {
          "description": "imei input device status request",
          "minLength": 15,
          "maxLength": 16,
          "pattern": "[0-9]{0,16}",
          "x-example": "232343432333123",
          "type": "string"
        }
      }
    },
    "DeviceStatusResponse": {
      "type": "object",
      "description": "Device Status Response Object",
      "properties": {
        "device": {
          "$ref": "#/definitions/Device"
        }
      }
    },
    "Errors": {
      "type": "object",
      "description": "a collection of errors",
      "properties": {
        "errors": {
          "type": "array",
          "description": "a collection of Response Errors",
          "items": {
            "$ref": "#/definitions/ResponseError"
          }
        }
      }
    },
    "ResponseError": {
      "description": "Used to pass error information in a response.",
      "type": "object",
      "properties": {
        "code": {
          "description": "Used to pass error codes",
          "type": "string"
        },
        "userMessage": {
          "description": "Use to pass human friendly information to the user.",
          "type": "string"
        },
        "systemMessage": {
          "description": "Used to pass system information.",
          "type": "string"
        }
      }
    }
  },
  "securityDefinitions": {
    "Oauth": {
      "type": "oauth2",
      "description": "When you sign up for an account, you are given your first API key.\nTo do so please follow this link: https://www.t-mobile.com/site/signup/\nAlso you can generate additional API keys, and delete API keys (as you may\nneed to rotate your keys in the future).\n",
      "tokenUrl": "https://tmobileb-sb01.apigee.net/v1/oauth2/accesstoken?grant_type=client_credentials",
      "flow": "application",
      "scopes": {
        "read:ContainerTracking": "Container tracking information from SOA for the given tracking number/orderId."
      }
    }
  }
}