{
  "swagger": "2.0",
  "host": "dev01.api.t-mobile.com",
  "info": {
    "contact": {
      "email": "DSGDICE-DTIS@T-Mobile.com",
      "name": "DSGDICE-DTIS",
      "url": "http://www.t-mobile.com"
    },
    "description": "This swagger contains the specification of all the API operation that are applicable for Promotions processing .",
    "license": {
      "name": "Proprietary software",
      "url": "https://en.wikipedia.org/wiki/Proprietary_software"
    },
    "termsOfService": "https://www.t-mobile.com/templates/popup.aspx?PAsset=Ftr_Ftr_TermsAndConditions",
    "title": "Promotion Fulfillment",
    "version": "1.0.0",
    "x-createdBy": {
      "createdBy": "DSGDICE-DTIS@T-Mobile.com",
      "dateCreated": "09-04-2019"
    }
  },
  "basePath": "/devicemanagement/v1",
  "tags": [
    {
      "name": "Promotion Fulfillment",
      "description": "Promotion eligibility rules are executed by EFPE (Service Partner Management) and the eligible subscriber records should call this API for EIP and downstream processing"
    }
  ],
  "x-servers": {
    "url": "https://tmobileb-sb01.apigee.net/devicemanagement/v1",
    "description": "server path"
  },
  "paths": {
    "/fulfill-promotion": {
      "post": {
        "description": "Receives the request for Promotion fulfillment after the eligibility rules are executed by EFPE (ServicePartner Management) and the eligible subscriber records should call this API for EIP and downstream processing",
        "operationId": "FulfillPromotion",
        "parameters": [
          {
            "description": "Preferred content type _ default to application/json",
            "in": "header",
            "maxLength": 256,
            "minLength": 1,
            "name": "Accept",
            "pattern": "^[ \\S]+$",
            "required": false,
            "type": "string",
            "x-example": "application/json"
          },
          {
            "description": "List of acceptable encodings. See HTTP compression.",
            "in": "header",
            "maxLength": 256,
            "minLength": 1,
            "name": "Accept-Encoding",
            "pattern": "^[\\S ]*$",
            "required": false,
            "type": "string",
            "x-example": "gzip,deflate"
          },
          {
            "description": "List of acceptable human languages for response",
            "in": "header",
            "maxLength": 256,
            "minLength": 1,
            "name": "Accept-Language",
            "pattern": "^[\\S ]*$",
            "required": false,
            "type": "string",
            "x-example": "en-us,en;q=0.5"
          },
          {
            "description": "The MIME type of this content",
            "in": "header",
            "maxLength": 256,
            "minLength": 1,
            "name": "Content-Type",
            "pattern": "^[ \\S]+$",
            "required": true,
            "type": "string",
            "x-example": "application/json"
          },
          {
            "description": "The HTTP Authorization request header contains the credentials to authenticate a user agent with a server.",
            "in": "header",
            "maxLength": 256,
            "minLength": 1,
            "name": "Authorization",
            "pattern": "^[\\S ]+$",
            "required": true,
            "type": "string",
            "x-example": "Bearer mF_9.B5f-4.1JqM"
          },
          {
            "description": "The Date general HTTP header contains the date and time at which the message was originated.",
            "format": "date-time",
            "in": "header",
            "name": "Date",
            "pattern": "^(Mon|Tue|Wed|Thu|Fri|Sat|Sun), [0-3]{1}[0-9]{1} (Jan|Feb|Mar|Apr|May|Jun|Jul|Aug|Sep|Oct|Nov|Dec) [1-3][0-9]{3} [0-2][0-9]:[0-6][0-9]:[0-6][0-9] GMT$",
            "required": false,
            "type": "string",
            "x-example": "Mon, 05 Mar 2018 16:38:08 GMT"
          },
          {
            "description": "Unique id alphanumeric value generated and sent by the partner to identify every the service request uniquely. Sample: XyzA:D1s5s1i-X6AFRvfiPBfs-1234  Pass as is to downstream calls.",
            "in": "header",
            "maxLength": 256,
            "minLength": 1,
            "name": "activity-id",
            "pattern": "^[\\S]*$",
            "required": false,
            "type": "string",
            "x-example": "c34e7acd-384b-4c22-8b02-ba3963682508"
          },
          {
            "description": "Alphanumeric value represent a common transaction id across all calls made from UI, while completing all business activity needs of a particular customer.",
            "in": "header",
            "maxLength": 256,
            "minLength": 1,
            "name": "interaction-id",
            "pattern": "^[\\S]*$",
            "required": false,
            "type": "string",
            "x-example": "cc688d54-50d1-49d4-8c5d-95459d1172e8"
          },
          {
            "description": "Request ID echoed back by server",
            "in": "header",
            "maxLength": 256,
            "minLength": 1,
            "name": "service-transaction-id",
            "pattern": "^[\\S]*$",
            "required": false,
            "type": "string",
            "x-example": "23409209723"
          },
          {
            "description": "A value populated by the sender used to track the transactions that occur during a session, a long-lasting interaction that ismaintained by the sender.",
            "in": "header",
            "maxLength": 256,
            "minLength": 1,
            "name": "session-id",
            "pattern": "^[\\S]*$",
            "required": false,
            "type": "string",
            "x-example": "350b91ec-4a64-4b10-a3f3-a78c8db3924a"
          },
          {
            "description": "ms since 1/1/70 adjusted to GMT",
            "format": "int64",
            "in": "header",
            "maximum": 999999999999,
            "minimum": 0,
            "name": "timestamp",
            "pattern": "^[\\d]*$",
            "required": false,
            "type": "integer",
            "x-example": "1524599536"
          },
          {
            "description": "Business Use Case",
            "in": "header",
            "maxLength": 256,
            "minLength": 1,
            "name": "workflow-id",
            "pattern": "^[\\S]*$",
            "required": false,
            "type": "string",
            "x-example": "ACTIVATION"
          },
          {
            "description": "API chain initiating callers access token",
            "in": "header",
            "maxLength": 256,
            "minLength": 1,
            "name": "x-auth-originator",
            "pattern": "^[\\S]*$",
            "required": false,
            "type": "string",
            "x-example": "c34e7acd-384b-4c22-8b02-ba3963682508"
          },
          {
            "description": "Contains Proof of Possession token generated by API caller",
            "in": "header",
            "maxLength": 256,
            "minLength": 1,
            "name": "x-authorization",
            "pattern": "^[\\S ]*$",
            "required": false,
            "type": "string",
            "x-example": "c34e7acd-384b-4c22-8b02-ba3963682508"
          },
          {
            "description": "Request for processing promotion for eligible records",
            "in": "body",
            "name": "SubmitRequest",
            "required": true,
            "schema": {
              "description": "Response object containing promotion fulfillment confirmation",
              "properties": {
                "promoDate": {
                  "type": "string",
                  "description": "Customer Enrolled Promotion Date in YYYY-MM-DD format",
                  "example": "2018-09-20",
                  "maxLength": 38,
                  "minLength": 1
                },
                "equipmentIdQualDevice": {
                  "type": "string",
                  "description": "equipment Id Qual Device",
                  "example": "143851736",
                  "maxLength": 38,
                  "minLength": 1
                },
                "equipmentIdPartnerDevice": {
                  "type": "string",
                  "description": "equipment Id Partner Device",
                  "example": "143853786",
                  "maxLength": 38,
                  "minLength": 1
                },
                "promoCode": {
                  "type": "string",
                  "description": "Promotion Code",
                  "example": "TQ10",
                  "maxLength": 9,
                  "minLength": 1
                },
                "promoDescription": {
                  "type": "string",
                  "description": "Promotion Description",
                  "example": "2018 Apple Buy 2 and Save",
                  "maxLength": 50,
                  "minLength": 0
                },
                "promoDuration": {
                  "type": "number",
                  "format": "integer",
                  "description": "Promotion Duration",
                  "example": "12",
                  "maxLength": 4,
                  "minLength": 1
                },
                "promoAmount": {
                  "type": "number",
                  "format": "double",
                  "description": "Promotion Amount",
                  "example": "900.00",
                  "maxLength": 13,
                  "minLength": 1
                },
                "accountType": {
                  "type": "string",
                  "description": "Account Type",
                  "example": "I",
                  "maxLength": 1,
                  "minLength": 1
                },
                "accountSubtype": {
                  "type": "string",
                  "description": "Account Sub Type",
                  "example": "R",
                  "maxLength": 1,
                  "minLength": 1
                },
                "primaryMsisdn": {
                  "type": "string",
                  "description": "Billing Responsible Party MSISDN",
                  "example": "8045921099",
                  "maxLength": 20,
                  "minLength": 0
                },
                "promoMsisdn": {
                  "type": "string",
                  "description": "Promotion MSISDN",
                  "example": "8045921099",
                  "maxLength": 20,
                  "minLength": 0
                },
                "statusType": {
                  "type": "string",
                  "description": "Status Type",
                  "example": "Enrollment",
                  "maxLength": 150,
                  "minLength": 1
                },
                "statusReasonText": {
                  "type": "string",
                  "description": "Status Reason Text",
                  "example": "Device Purchase",
                  "maxLength": 150,
                  "minLength": 0
                },
                "isSmsRequired": {
                  "type": "boolean",
                  "description": "SMS Flag",
                  "example": "true",
                  "maxLength": 50,
                  "minLength": 0
                },
                "fairMarketValueCreditAmount": {
                  "type": "number",
                  "format": "double",
                  "description": "FMV credit Amount",
                  "example": "699.99",
                  "maxLength": 13,
                  "minLength": 0
                },
                "rmaNumber": {
                  "type": "string",
                  "description": "RMA number",
                  "example": "TMU563456346346346345",
                  "maxLength": 50,
                  "minLength": 0
                },
                "isTradeInComplete": {
                  "type": "boolean",
                  "description": "TI Complete Status",
                  "example": "true",
                  "maxLength": 1,
                  "minLength": 1
                },
                "fairMarketValueAvailable": {
                  "type": "boolean",
                  "description": "No FMV Flag",
                  "example": "true",
                  "maxLength": 1,
                  "minLength": 1
                },
                "creditFairMarketValueRequired": {
                  "type": "boolean",
                  "description": "Credit FMV Flag",
                  "example": "true",
                  "maxLength": 1,
                  "minLength": 1
                },
                "enrollmentType": {
                  "type": "string",
                  "description": "Enrollment Type",
                  "example": "SYSTEMATIC",
                  "maxLength": 50,
                  "minLength": 1,
                  "required": [
                    "equipmentIdQualDevice equipmentIdPartnerDevice promoCode promoDuration promoAmount primaryMsisdn promoMsisdn statusType"
                  ]
                }
              },
              "type": "object"
            }
          }
        ],
        "produces": [
          "application/json"
        ],
        "responses": {
          "200": {
            "description": "Confirmation of the EIP adjustment response",
            "examples": {
              "application/json": {
                "eipStatus": "Y",
                "promoBillCreditAmount": "10.00"
              }
            },
            "headers": {
              "Cache-Control": {
                "description": "Cache policy Supported for the resource by the server",
                "maxLength": 256,
                "minLength": 1,
                "pattern": "^[\\S]*$",
                "type": "string",
                "x-example": "no-cache"
              },
              "Content-Encoding": {
                "description": "The type of encoding used on the data",
                "maxLength": 15,
                "minLength": 1,
                "pattern": "^[\\S]*$",
                "type": "string",
                "x-example": "gzip,deflate"
              },
              "Content-Language": {
                "description": "The natural language or languages of the intended audience for the enclosed content",
                "maxLength": 15,
                "minLength": 1,
                "pattern": "^[\\S ]*$",
                "type": "string",
                "x-example": "da"
              },
              "Content-Length": {
                "description": "Length of the response body in octets; not Supported if Transfer-Endoding = chunked",
                "format": "int64",
                "minimum": 0,
                "pattern": "^[\\d]*$",
                "type": "integer",
                "x-example": "9112300000003"
              },
              "Content-Type": {
                "description": "The MIME type of this content",
                "maxLength": 256,
                "minLength": 1,
                "pattern": "^[ \\S]+$",
                "type": "string",
                "x-example": "application/json"
              },
              "Date": {
                "description": "The Date general HTTP header contains the date and time at which the message was originated.",
                "format": "date-time",
                "pattern": "^(Mon|Tue|Wed|Thu|Fri|Sat|Sun), [0-3]{1}[0-9]{1} (Jan|Feb|Mar|Apr|May|Jun|Jul|Aug|Sep|Oct|Nov|Dec) [1-3][0-9]{3} [0-2][0-9]:[0-6][0-9]:[0-6][0-9] GMT$",
                "type": "string",
                "x-example": "Mon, 05 Mar 2018 16:38:08 GMT"
              },
              "ETag": {
                "description": "The ETag header specifies the unique entity tag value for the returned resource.",
                "maxLength": 256,
                "minLength": 1,
                "pattern": "^[\\S]*$",
                "type": "string",
                "x-example": "*"
              },
              "Last-Modified": {
                "description": "The Last-Modified entity-header field indicates the date and time at which the origin server believes the variant was last modified.",
                "format": "date-time",
                "pattern": "^(Mon|Tue|Wed|Thu|Fri|Sat|Sun), [0-3]{1}[0-9]{1} (Jan|Feb|Mar|Apr|May|Jun|Jul|Aug|Sep|Oct|Nov|Dec) [1-3][0-9]{3} [0-2][0-9]:[0-6][0-9]:[0-6][0-9] GMT$",
                "type": "string",
                "x-example": "Mon, 05 Mar 2018 16:38:08 GMT"
              },
              "Transfer-Encoding": {
                "description": "The form of encoding used to safely transfer the entity to the user. Currently defined methods are: chunked, compress, deflate, gzip, identity.",
                "maxLength": 15,
                "minLength": 1,
                "pattern": "^[\\S]*$",
                "type": "string",
                "x-example": "chunked"
              },
              "service-transaction-id": {
                "description": "Request ID echoed back by server",
                "maxLength": 256,
                "minLength": 1,
                "pattern": "^[\\S]*$",
                "type": "string",
                "x-example": "23409209723"
              }
            },
            "schema": {
              "description": "Promotion fulfillment Response",
              "properties": {
                "eipConfirmation": {
                  "description": "Adjustment Status confirmation from EIP",
                  "properties": {
                    "eipStatus": {
                      "description": "Status of the EIP respone",
                      "example": "S",
                      "type": "string"
                    },
                    "promoBillCreditAmount": {
                      "description": "Promo Bill credit amount towards the EIP.",
                      "example": "10.00",
                      "type": "string"
                    }
                  },
                  "type": "object"
                },
                "notificationConfirmation": {
                  "description": "Notification confirmation from DND",
                  "properties": {
                    "smsStatus": {
                      "description": "Status of the SMS trigger",
                      "type": "string"
                    },
                    "smsStatusDescription": {
                      "description": "Detailed Status of the SMS trigger",
                      "type": "string"
                    },
                    "serviceGrade": {
                      "description": "Service Grade triggered.",
                      "example": "SG786",
                      "type": "string"
                    }
                  },
                  "type": "object"
                },
                "tradeInCreditDistributionConfirmation": {
                  "type": "object",
                  "description": "FMV adjustment confirmation from TradeIn",
                  "properties": {
                    "adjustmentStatus": {
                      "description": "Status of the adjustment",
                      "type": "string"
                    },
                    "adjustmentStatusDescription": {
                      "description": "Detailed Status of the adjustment trigger",
                      "type": "string"
                    },
                    "totalAmountApplied": {
                      "description": "FMV amount requested to be adjusted.",
                      "example": "100.00",
                      "type": "string"
                    },
                    "totalAmountRemaining": {
                      "description": "FMV amount remaining to be adjusted.",
                      "example": "10.00",
                      "type": "string"
                    },
                    "creditItems": {
                      "type": "object",
                      "description": "Detailed adjustment methof of TradeIn Credit",
                      "properties": {
                        "distributionReferenceId": {
                          "description": "Credit distribution reference identifier.",
                          "type": "string"
                        },
                        "target": {
                          "description": "Credit distribution target",
                          "type": "string",
                          "enum": [
                            "EIP",
                            "SAMSON",
                            "DOWNPAYMENT"
                          ]
                        },
                        "priority": {
                          "description": "Priority",
                          "type": "integer",
                          "format": "int32"
                        },
                        "distributionPaymentId": {
                          "description": "Identifier of distribution payment",
                          "type": "string"
                        },
                        "amount": {
                          "description": "Credit amount",
                          "type": "number",
                          "format": "double"
                        }
                      }
                    }
                  }
                }
              },
              "type": "object"
            }
          },
          "400": {
            "description": "Bad Request",
            "examples": {
              "application/json": {
                "code": "400",
                "detailLink": "http://www.tmus.com",
                "systemMessage": "Bad Request",
                "userMessage": "Bad Request"
              }
            },
            "headers": {},
            "schema": {
              "$ref": "#/definitions/Error"
            }
          },
          "401": {
            "description": "Unauthorized",
            "examples": {
              "application/json": {
                "code": "401",
                "detailLink": "http://www.tmus.com",
                "systemMessage": "Unauthorized",
                "userMessage": "Unauthorized"
              }
            },
            "headers": {},
            "schema": {
              "$ref": "#/definitions/Error"
            }
          },
          "404": {
            "description": "Resource not found",
            "examples": {
              "application/json": {
                "code": "404",
                "detailLink": "http://www.tmus.com",
                "systemMessage": "Resource not found",
                "userMessage": "Resource not found"
              }
            },
            "headers": {},
            "schema": {
              "$ref": "#/definitions/Error"
            }
          },
          "405": {
            "description": "Method Not Allowed",
            "examples": {
              "application/json": {
                "code": "405",
                "detailLink": "http://www.tmus.com",
                "systemMessage": "Method Not Allowed",
                "userMessage": "Method Not Allowed"
              }
            },
            "headers": {
              "Allow": {
                "description": "list of su methods for URI",
                "maxLength": 256,
                "minLength": 1,
                "pattern": "^[\\S]*$",
                "type": "string",
                "x-example": "GET"
              },
              "service-transaction-id": {
                "description": "Request ID echoed back by server",
                "maxLength": 256,
                "minLength": 1,
                "pattern": "^[\\S]*$",
                "type": "string",
                "x-example": "23409209723"
              }
            },
            "schema": {
              "$ref": "#/definitions/Error"
            }
          },
          "409": {
            "description": "Invalid data",
            "examples": {
              "application/json": {
                "code": "409",
                "detailLink": "http://www.tmus.com",
                "systemMessage": "Invalid data",
                "userMessage": "Invalid data"
              }
            },
            "headers": {},
            "schema": {
              "$ref": "#/definitions/Error"
            }
          },
          "415": {
            "description": "Unsupported Media Type",
            "examples": {
              "application/json": {
                "code": "415",
                "detailLink": "http://www.tmus.com",
                "systemMessage": "Unsupported Media Type",
                "userMessage": "Unsupported Media Type"
              }
            },
            "headers": {},
            "schema": {
              "$ref": "#/definitions/Error"
            }
          },
          "500": {
            "description": "System Error",
            "examples": {
              "application/json": {
                "code": "500",
                "detailLink": "http://www.tmus.com",
                "systemMessage": "System Error",
                "userMessage": "System Error"
              }
            },
            "headers": {},
            "schema": {
              "$ref": "#/definitions/Error"
            }
          },
          "503": {
            "description": "Service unavailable",
            "examples": {
              "application/json": {
                "code": "503",
                "detailLink": "http://www.tmus.com",
                "systemMessage": "Service unavailable",
                "userMessage": "Service unavailable"
              }
            },
            "headers": {},
            "schema": {
              "$ref": "#/definitions/Error"
            }
          }
        },
        "security": [
          {
            "JWT": []
          }
        ],
        "summary": "A Post for promotion fulfillment request",
        "tags": [
          "Promotion Fulfillment"
        ],
        "x-api-pattern": "ExecuteFunction"
      }
    }
  },
  "schemes": [
    "https"
  ],
  "definitions": {
    "Error": {
      "description": "Used to pass error information in a response. As defined in https://tmobileusa.sharepoint.com/teams/EnterpriseServices/ESG%20Standards%20Documents/APIs/T-Mobile%20API%20Design%20Guidelines%20v1.0.docx",
      "type": "object",
      "properties": {
        "code": {
          "type": "string",
          "description": "Represents the error code.",
          "minLength": 0,
          "maxLength": 20,
          "pattern": ".*$"
        },
        "userMessage": {
          "description": "Represents the human readable error message.",
          "type": "string",
          "minLength": 0,
          "maxLength": 500,
          "pattern": ".*$"
        },
        "systemMessage": {
          "description": "Represents the system error message.",
          "type": "string",
          "minLength": 0,
          "maxLength": 500,
          "pattern": ".*$"
        },
        "detailLink": {
          "description": "Represents the custom information providing greater detail on error",
          "type": "string",
          "minLength": 0,
          "maxLength": 500,
          "pattern": ".*$"
        }
      }
    }
  },
  "securityDefinitions": {
    "JWT": {
      "type": "apiKey",
      "description": "JWT is a means of representing claims to be transferred two parties. The claims in a JWT are encoded as a JSON object that is digitally signed using JSON Web Signature (JWS) and/or encrypted using JSON Web Encryption (JWE).",
      "name": "Authorization",
      "in": "header"
    }
  }
}