{
	"swagger": "2.0",
	"info": {
		"description": "Card Engine",
		"version": "1.0.0",
		"title": "Card Engine",
		"termsOfService": "urn:tos",
		"contact": {
			"name": "DAB Team",
			"email": "Dab_Team@t-mobile.com"
		},
		"license": {
			"name": "Apache 2.0",
			"url": "http://www.apache.org/licenses/LICENSE-2.0"
		}
	},
	"host": "card-engine.stg-int.dabnpe.t-mobile.com",
	"basePath": "/",
	"schemes": [
		"https"
	],
	"securityDefinitions": {},
	"x-servers": {
		"url": "card-engine.stg-int.dabnpe.t-mobile.com",
		"description": "STG environment"
	},
	"tags": [
		{
			"name": "card-controller",
			"description": "Card Controller"
		},
		{
			"name": "chrome-controller",
			"description": "Chrome Controller"
		},
		{
			"name": "cta-controller",
			"description": "Cta Controller"
		}
	],
	"paths": {
		"/1.0/chrome": {
			"get": {
				"tags": [
					"chrome-controller"
				],
				"summary": "getCurrentChrome",
				"operationId": "getCurrentChromeUsingGET",
				"security": [],
				"description": "getCurrentChromeUsingGET",
				"x-api-pattern": "QueryResource",
				"produces": [
					"application/json"
				],
				"parameters": [
					{
						"name": "Accept-Language-v2",
						"in": "header",
						"description": "Accept-Language-v2",
						"required": false,
						"type": "string",
						"x-example": "en-US"
					},
					{
						"name": "x-tmo-account-type",
						"in": "header",
						"description": "x-tmo-account-type",
						"required": false,
						"type": "string",
						"x-example": "IR"
					},
					{
						"name": "x-tmo-number-of-lines",
						"in": "header",
						"description": "x-tmo-number-of-lines",
						"required": false,
						"type": "string",
						"x-example": "5"
					},
					{
						"name": "x-tmo-prepaid-billing-system",
						"in": "header",
						"description": "x-tmo-prepaid-billing-system",
						"required": false,
						"type": "string",
						"x-example": "BillingSystem"
					}
				],
				"responses": {
					"200": {
						"description": "OK",
						"schema": {
							"$ref": "#/definitions/ChromeDefinition"
						},
						"headers": {
							"Cache-Control": {
								"type": "string",
								"x-example": "no-cache",
								"description": "Cache-Control"
							},
							"Content-Length": {
								"type": "string",
								"x-example": "1041",
								"description": "Content-Length"
							},
							"Content-Type": {
								"type": "string",
								"x-example": "application/json",
								"description": "Content-Type"
							},
							"Date": {
								"type": "string",
								"x-example": "Tue, 14 May 2019 19:10:50 GMT",
								"description": "Date"
							}
						}
					},
					"400": {
						"description": "Bad Request"
					},
					"401": {
						"description": "Unauthorized"
					},
					"404": {
						"description": "Not Found"
					},
					"405": {
						"description": "Method Not Allowed",
						"headers": {
							"Allow": {
								"type": "string",
								"description": "Allow",
								"x-example": "HEAD"
							}
						},
						"schema" : {}
					},
					"406": {
						"description": "Not Acceptable"
					},
					"500": {
						"description": "Internal Server Error"
					},
					"503": {
						"description": "Service Unavailable"
					}
				},
				"deprecated": false
			}
		},
		"/1.0/chrome/version/{version}": {
			"get": {
				"tags": [
					"chrome-controller"
				],
				"summary": "getChromeForVersion",
				"operationId": "getChromeForVersionUsingGET",
				"security": [],
				"description": "getChromeForVersionUsingGET",
				"x-api-pattern": "QueryResource",
				"produces": [
					"application/json"
				],
				"parameters": [
					{
						"name": "Accept-Language-v2",
						"in": "header",
						"description": "Accept-Language-v2",
						"required": false,
						"type": "string",
						"x-example": "en-US"
					},
					{
						"name": "version",
						"in": "path",
						"description": "version",
						"required": true,
						"type": "string",
						"x-example": "1.0.0",
						"pattern": "^[0-9]{1,3}.[0-9]{1,3}.[0-9]{1,5}$"
					},
					{
						"name": "x-tmo-account-type",
						"in": "header",
						"description": "x-tmo-account-type",
						"required": false,
						"type": "string",
						"x-example": "IR"
					},
					{
						"name": "x-tmo-number-of-lines",
						"in": "header",
						"description": "x-tmo-number-of-lines",
						"required": false,
						"type": "string",
						"x-example": "5"
					},
					{
						"name": "x-tmo-prepaid-billing-system",
						"in": "header",
						"description": "x-tmo-prepaid-billing-system",
						"required": false,
						"type": "string",
						"x-example": "BillingSystem"
					}
				],
				"responses": {
					"200": {
						"description": "OK",
						"schema": {
							"$ref": "#/definitions/ChromeDefinition"
						},
						"headers": {
							"Cache-Control": {
								"type": "string",
								"x-example": "no-cache",
								"description": "Cache-Control"
							},
							"Content-Length": {
								"type": "string",
								"x-example": "1041",
								"description": "Content-Length"
							},
							"Content-Type": {
								"type": "string",
								"x-example": "application/json",
								"description": "Content-Type"
							},
							"Date": {
								"type": "string",
								"x-example": "Tue, 14 May 2019 19:10:50 GMT",
								"description": "Date"
							}
						}
					},
					"400": {
						"description": "Bad Request"
					},
					"401": {
						"description": "Unauthorized"
					},
					"404": {
						"description": "Not Found"
					},
					"405": {
						"description": "Method Not Allowed",
						"headers": {
							"Allow": {
								"type": "string",
								"description": "Allow",
								"x-example": "HEAD"
							}
						},
						"schema" : {}
					},
					"406": {
						"description": "Not Acceptable"
					},
					"500": {
						"description": "Internal Server Error"
					},
					"503": {
						"description": "Service Unavailable"
					}
				},
				"deprecated": false
			}
		},
		"/1.0/evaluate/card/group/{group}": {
			"get": {
				"tags": [
					"card-controller"
				],
				"summary": "evaluateCardsByContainerName",
				"operationId": "evaluateCardsByContainerNameUsingGET",
				"security": [],
				"description": "evaluateCardsByContainerNameUsingGET",
				"x-api-pattern": "QueryResource",
				"produces": [
					"application/json"
				],
				"parameters": [
					{
						"name": "Accept-Language-v2",
						"in": "header",
						"description": "Accept-Language-v2",
						"required": false,
						"type": "string",
						"x-example": "en-US"
					},
					{
						"$ref": "#/parameters/AuthorizationParam"
					},
					{
						"$ref": "#/parameters/ContentTypeParam"
					},
					{
						"$ref": "#/parameters/CacheControlParam"
					},
					{
						"$ref": "#/parameters/BanParam"
					},
					{
						"$ref": "#/parameters/IdtMsisdnParam"
					},
					{
						"$ref": "#/parameters/MsisdnParam"
					},
					{
						"$ref": "#/parameters/TmoidParam"
					},
					{
						"name": "group",
						"in": "path",
						"description": "group",
						"required": true,
						"type": "string",
						"x-example": "Home",
						"format": "string"
					}
				],
				"responses": {
					"200": {
						"description": "OK",
						"schema": {
							"$ref": "#/definitions/cardEvaluationResponse"
						},
						"headers": {
							"Cache-Control": {
								"type": "string",
								"x-example": "no-cache",
								"description": "Cache-Control"
							},
							"Content-Length": {
								"type": "string",
								"x-example": "1041",
								"description": "Content-Length"
							},
							"Content-Type": {
								"type": "string",
								"x-example": "application/json",
								"description": "Content-Type"
							},
							"Date": {
								"type": "string",
								"x-example": "Tue, 14 May 2019 19:10:50 GMT",
								"description": "Date"
							}
						}
					},
					"400": {
						"description": "Bad Request"
					},
					"401": {
						"description": "Unauthorized"
					},
					"404": {
						"description": "Not Found"
					},
					"405": {
						"description": "Method Not Allowed",
						"headers": {
							"Allow": {
								"type": "string",
								"description": "Allow",
								"x-example": "HEAD"
							}
						},
						"schema" : {}
					},
					"406": {
						"description": "Not Acceptable"
					},
					"500": {
						"description": "Internal Server Error"
					},
					"503": {
						"description": "Service Unavailable"
					}
				},
				"deprecated": false
			},
			"post": {
				"tags": [
					"card-controller"
				],
				"summary": "evaluateCardsByContainerNameWithBody",
				"operationId": "evaluateCardsByContainerNameWithBodyUsingPOST",
				"security": [],
				"description": "evaluateCardsByContainerNameWithBodyUsingPOST",
				"x-api-pattern": "ExecuteFunction",
				"consumes": [
					"application/json"
				],
				"produces": [
					"application/json"
				],
				"parameters": [
					{
						"name": "Accept-Language-v2",
						"in": "header",
						"description": "Accept-Language-v2",
						"required": false,
						"type": "string",
						"x-example": "en-US"
					},
					{
						"$ref": "#/parameters/AuthorizationParam"
					},
					{
						"$ref": "#/parameters/ContentTypeParam"
					},
					{
						"$ref": "#/parameters/CacheControlParam"
					},
					{
						"$ref": "#/parameters/BanParam"
					},
					{
						"$ref": "#/parameters/IdtMsisdnParam"
					},
					{
						"$ref": "#/parameters/MsisdnParam"
					},
					{
						"$ref": "#/parameters/TmoidParam"
					},
					{
						"name": "group",
						"in": "path",
						"description": "group",
						"required": true,
						"type": "string",
						"x-example": "Home",
						"format": "string"
					},
					{
						"in": "body",
						"name": "namedGroupRequest",
						"description": "namedGroupRequest",
						"required": true,
						"schema": {
							"$ref": "#/definitions/namedGroupEvaluationRequest"
						}
					}
				],
				"responses": {
					"200": {
						"description": "OK",
						"schema": {
							"$ref": "#/definitions/cardEvaluationResponse"
						},
						"headers": {
							"Cache-Control": {
								"type": "string",
								"x-example": "no-cache",
								"description": "Cache-Control"
							},
							"Content-Length": {
								"type": "string",
								"x-example": "1041",
								"description": "Content-Length"
							},
							"Content-Type": {
								"type": "string",
								"x-example": "application/json",
								"description": "Content-Type"
							},
							"Date": {
								"type": "string",
								"x-example": "Tue, 14 May 2019 19:10:50 GMT",
								"description": "Date"
							}
						}
					},
					"400": {
						"description": "Bad Request"
					},
					"401": {
						"description": "Unauthorized"
					},
					"404": {
						"description": "Not Found"
					},
					"405": {
						"description": "Method Not Allowed",
						"headers": {
							"Allow": {
								"type": "string",
								"description": "Allow",
								"x-example": "HEAD"
							}
						},
						"schema" : {}
					},
					"409": {
						"description": "Conflict"
					},
					"415": {
						"description": "Unsupported Media Type"
					},
					"500": {
						"description": "Internal Server Error"
					},
					"503": {
						"description": "Service Unavailable"
					}
				},
				"deprecated": false
			}
		},
		"/1.0/evaluate/card/id/{id}": {
			"get": {
				"tags": [
					"card-controller"
				],
				"summary": "evaluateCardsById",
				"operationId": "evaluateCardsByIdUsingGET",
				"security": [],
				"description": "evaluateCardsByIdUsingGET",
				"x-api-pattern": "QueryResource",
				"produces": [
					"application/json"
				],
				"parameters": [
					{
						"name": "Accept-Language-v2",
						"in": "header",
						"description": "Accept-Language-v2",
						"required": false,
						"type": "string",
						"x-example": "en-US"
					},
					{
						"$ref": "#/parameters/AuthorizationParam"
					},
					{
						"$ref": "#/parameters/ContentTypeParam"
					},
					{
						"$ref": "#/parameters/CacheControlParam"
					},
					{
						"$ref": "#/parameters/BanParam"
					},
					{
						"$ref": "#/parameters/IdtMsisdnParam"
					},
					{
						"$ref": "#/parameters/MsisdnParam"
					},
					{
						"$ref": "#/parameters/TmoidParam"
					},
					{
						"name": "id",
						"in": "path",
						"description": "id",
						"required": true,
						"type": "string",
						"x-example": "welcomeCard",
						"format": "string"
					}
				],
				"responses": {
					"200": {
						"description": "OK",
						"schema": {
							"$ref": "#/definitions/cardEvaluationResponse"
						},
						"headers": {
							"Cache-Control": {
								"type": "string",
								"x-example": "no-cache",
								"description": "Cache-Control"
							},
							"Content-Length": {
								"type": "string",
								"x-example": "1041",
								"description": "Content-Length"
							},
							"Content-Type": {
								"type": "string",
								"x-example": "application/json",
								"description": "Content-Type"
							},
							"Date": {
								"type": "string",
								"x-example": "Tue, 14 May 2019 19:10:50 GMT",
								"description": "Date"
							}
						}
					},
					"400": {
						"description": "Bad Request"
					},
					"401": {
						"description": "Unauthorized"
					},
					"404": {
						"description": "Not Found"
					},
					"405": {
						"description": "Method Not Allowed",
						"headers": {
							"Allow": {
								"type": "string",
								"description": "Allow",
								"x-example": "HEAD"
							}
						},
						"schema" : {}
					},
					"406": {
						"description": "Not Acceptable"
					},
					"500": {
						"description": "Internal Server Error"
					},
					"503": {
						"description": "Service Unavailable"
					}
				},
				"deprecated": false
			},
			"post": {
				"tags": [
					"card-controller"
				],
				"summary": "evaluateCardsByIdWithBody",
				"operationId": "evaluateCardsByIdWithBodyUsingPOST",
				"security": [],
				"description": "evaluateCardsByIdWithBodyUsingPOST",
				"x-api-pattern": "ExecuteFunction",
				"consumes": [
					"application/json"
				],
				"produces": [
					"application/json"
				],
				"parameters": [
					{
						"name": "Accept-Language-v2",
						"in": "header",
						"description": "Accept-Language-v2",
						"required": false,
						"type": "string",
						"x-example": "en-US"
					},
					{
						"$ref": "#/parameters/AuthorizationParam"
					},
					{
						"$ref": "#/parameters/ContentTypeParam"
					},
					{
						"$ref": "#/parameters/CacheControlParam"
					},
					{
						"$ref": "#/parameters/BanParam"
					},
					{
						"$ref": "#/parameters/IdtMsisdnParam"
					},
					{
						"$ref": "#/parameters/MsisdnParam"
					},
					{
						"$ref": "#/parameters/TmoidParam"
					},
					{
						"in": "body",
						"name": "cardRequest",
						"description": "cardRequest",
						"required": true,
						"schema": {
							"$ref": "#/definitions/CardEvaluationRequest"
						}
					},
					{
						"name": "id",
						"in": "path",
						"description": "id",
						"required": true,
						"type": "string",
						"x-example": "welcomeCard",
						"format": "string"
					}
				],
				"responses": {
					"200": {
						"description": "OK",
						"schema": {
							"$ref": "#/definitions/cardEvaluationResponse"
						},
						"headers": {
							"Cache-Control": {
								"type": "string",
								"x-example": "no-cache",
								"description": "Cache-Control"
							},
							"Content-Length": {
								"type": "string",
								"x-example": "1041",
								"description": "Content-Length"
							},
							"Content-Type": {
								"type": "string",
								"x-example": "application/json",
								"description": "Content-Type"
							},
							"Date": {
								"type": "string",
								"x-example": "Tue, 14 May 2019 19:10:50 GMT",
								"description": "Date"
							}
						}
					},
					"400": {
						"description": "Bad Request"
					},
					"401": {
						"description": "Unauthorized"
					},
					"404": {
						"description": "Not Found"
					},
					"405": {
						"description": "Method Not Allowed",
						"headers": {
							"Allow": {
								"type": "string",
								"description": "Allow",
								"x-example": "HEAD"
							}
						},
						"schema" : {}
					},
					"409": {
						"description": "Conflict"
					},
					"415": {
						"description": "Unsupported Media Type"
					},
					"500": {
						"description": "Internal Server Error"
					},
					"503": {
						"description": "Service Unavailable"
					}
				},
				"deprecated": false
			}
		},
		"/1.0/evaluate/cta/id/{id}": {
			"get": {
				"tags": [
					"cta-controller"
				],
				"summary": "evaluateCtaById",
				"operationId": "evaluateCtaByIdUsingGET",
				"security": [],
				"description": "evaluateCtaByIdUsingGET",
				"x-api-pattern": "QueryResource",
				"produces": [
					"application/json"
				],
				"parameters": [
					{
						"name": "Accept-Language-v2",
						"in": "header",
						"description": "Accept-Language-v2",
						"required": false,
						"type": "string",
						"x-example": "en-US"
					},
					{
						"$ref": "#/parameters/AuthorizationParam"
					},
					{
						"$ref": "#/parameters/ContentTypeParam"
					},
					{
						"$ref": "#/parameters/CacheControlParam"
					},
					{
						"$ref": "#/parameters/BanParam"
					},
					{
						"$ref": "#/parameters/IdtMsisdnParam"
					},
					{
						"$ref": "#/parameters/MsisdnParam"
					},
					{
						"$ref": "#/parameters/TmoidParam"
					},
					{
						"name": "id",
						"in": "path",
						"description": "id",
						"required": true,
						"type": "string",
						"x-example": "chrome_chat",
						"format": "string"
					}
				],
				"responses": {
					"200": {
						"description": "OK",
						"schema": {
							"$ref": "#/definitions/ctaEvaluationResponse"
						},
						"headers": {
							"Cache-Control": {
								"type": "string",
								"x-example": "no-cache",
								"description": "Cache-Control"
							},
							"Content-Length": {
								"type": "string",
								"x-example": "1041",
								"description": "Content-Length"
							},
							"Content-Type": {
								"type": "string",
								"x-example": "application/json",
								"description": "Content-Type"
							},
							"Date": {
								"type": "string",
								"x-example": "Tue, 14 May 2019 19:10:50 GMT",
								"description": "Date"
							}
						}
					},
					"400": {
						"description": "Bad Request"
					},
					"401": {
						"description": "Unauthorized"
					},
					"404": {
						"description": "Not Found"
					},
					"405": {
						"description": "Method Not Allowed",
						"headers": {
							"Allow": {
								"type": "string",
								"description": "Allow",
								"x-example": "HEAD"
							}
						},
						"schema" : {}
					},
					"406": {
						"description": "Not Acceptable"
					},
					"500": {
						"description": "Internal Server Error"
					},
					"503": {
						"description": "Service Unavailable"
					}
				},
				"deprecated": false
			},
			"post": {
				"tags": [
					"cta-controller"
				],
				"summary": "evaluateCtaByIdWithBody",
				"security": [],
				"operationId": "evaluateCtaByIdWithBodyUsingPOST",
				"description": "evaluateCtaByIdWithBodyUsingPOST",
				"x-api-pattern": "ExecuteFunction",
				"consumes": [
					"application/json"
				],
				"produces": [
					"application/json"
				],
				"parameters": [
					{
						"name": "Accept-Language-v2",
						"in": "header",
						"description": "Accept-Language-v2",
						"required": false,
						"type": "string",
						"x-example": "en-US"
					},
					{
						"$ref": "#/parameters/AuthorizationParam"
					},
					{
						"$ref": "#/parameters/ContentTypeParam"
					},
					{
						"$ref": "#/parameters/CacheControlParam"
					},
					{
						"$ref": "#/parameters/BanParam"
					},
					{
						"$ref": "#/parameters/IdtMsisdnParam"
					},
					{
						"$ref": "#/parameters/MsisdnParam"
					},
					{
						"$ref": "#/parameters/TmoidParam"
					},
					{
						"in": "body",
						"name": "ctaEvaluationRequest",
						"description": "ctaEvaluationRequest",
						"required": true,
						"schema": {
							"$ref": "#/definitions/CtaEvaluationRequest"
						}
					},
					{
						"name": "id",
						"in": "path",
						"description": "id",
						"required": true,
						"type": "string",
						"x-example": "chrome_chat",
						"format": "string"
					}
				],
				"responses": {
					"200": {
						"description": "OK",
						"schema": {
							"$ref": "#/definitions/ctaEvaluationResponse"
						},
						"headers": {
							"Cache-Control": {
								"type": "string",
								"x-example": "no-cache",
								"description": "Cache-Control"
							},
							"Content-Length": {
								"type": "string",
								"x-example": "1041",
								"description": "Content-Length"
							},
							"Content-Type": {
								"type": "string",
								"x-example": "application/json",
								"description": "Content-Type"
							},
							"Date": {
								"type": "string",
								"x-example": "Tue, 14 May 2019 19:10:50 GMT",
								"description": "Date"
							}
						}
					},
					"400": {
						"description": "Bad Request"
					},
					"401": {
						"description": "Unauthorized"
					},
					"404": {
						"description": "Not Found"
					},
					"405": {
						"description": "Method Not Allowed",
						"headers": {
							"Allow": {
								"type": "string",
								"description": "Allow",
								"x-example": "HEAD"
							}
						},
						"schema" : {}
					},
					"409": {
						"description": "Conflict"
					},
					"415": {
						"description": "Unsupported Media Type"
					},
					"500": {
						"description": "Internal Server Error"
					},
					"503": {
						"description": "Service Unavailable"
					}
				},
				"deprecated": false
			}
		}
	},
	"definitions": {
		"card": {
			"type": "object",
			"properties": {
				"campaign_id": {
					"type": "string",
					"description": "campaign_id"
				},
				"card_id": {
					"type": "string",
					"description": "card_id"
				},
				"card_render_uuid": {
					"type": "string",
					"format": "uuid",
					"description": "card_render_uuid"
				},
				"ctas": {
					"type": "array",
					"items": {
						"$ref": "#/definitions/cardCta"
					},
					"description": "ctas"
				},
				"display_from": {
					"type": "string",
					"format": "date-time"
				,
					"description": "display_from"
				},
				"display_until": {
					"type": "string",
					"format": "date-time",
					"description": "display_until"
				},
				"payload": {
					"$ref": "#/definitions/cardPayload"
				},
				"template_id": {
					"type": "string",
					"description": "template_id"
				},
				"type": {
					"type": "string",
					"enum": [
						"flavour",
						"billing",
						"promo",
						"welcome",
						"info",
						"engagement",
						"service",
						"offer",
						"benefit",
						"other",
						"hero",
						"evergreen",
						"critical",
						"error",
						"warn",
						"okay"
					],
					"description": "card-type"
				},
				"variant_id": {
					"type": "string",
					"description": "variant_id"
				},
				"weight": {
					"type": "integer",
					"format": "int32",
					"description": "weight"
				}
			},
			"title": "Card"
		},
		"cardCta": {
			"type": "object",
			"properties": {
				"cta_id": {
					"type": "string",
					"description": "cta_id"
				},
				"cta_payload": {
					"$ref": "#/definitions/jsonNode"
				},
				"url": {
					"type": "string",
					"description": "url"
				}
			},
			"title": "CardCta"
		},
		"CardEvaluationRequest": {
			"type": "object",
			"properties": {
				"facts": {
					"type": "object",
					"additionalProperties": {
						"$ref": "#/definitions/unprocessedFact"
					},
					"description": "facts"
				},
				"complete_facts": {
					"type": "boolean",
					"description": "Complete facts flag to know whether card engine should call facts-controller or not"
				}
			},
			"title": "CardEvaluationRequest"
		},
		"cardEvaluationResponse": {
			"type": "object",
			"properties": {
				"cards": {
					"type": "array",
					"items": {
						"$ref": "#/definitions/card"
					},
					"description": "cards"
				},
				"evaluation_uuid": {
					"type": "string",
					"format": "uuid",
					"description": "evaluation_uuid"
				},
				"page_id": {
					"type": "string",
					"description": "page_id"
				},
				"payload": {
					"$ref": "#/definitions/jsonNode"
				},
				"request_uuid": {
					"type": "string",
					"format": "uuid",
					"description": "request_uuid"
				}
			},
			"title": "CardEvaluationResponse"
		},
		"cardPayload": {
			"type": "object",
			"properties": {
				"content_elements": {
					"type": "array",
					"items": {
						"$ref": "#/definitions/jsonNode"
					},
					"description": "content_elements"
				}
			},
			"title": "CardPayload"
		},
		"ChromeDefinition": {
			"type": "object",
			"properties": {
				"id": {
					"type": "string",
					"description": "id"
				}
			},
			"title": "ChromeDefinition"
		},
		"CtaEvaluationRequest": {
			"type": "object",
			"properties": {
				"facts": {
					"type": "object",
					"additionalProperties": {
						"$ref": "#/definitions/unprocessedFact"
					},
					"description": "facts"
				},
				"complete_facts": {
					"type": "boolean",
					"description": "complete_facts"
				}
			},
			"title": "CtaEvaluationRequest"
		},
		"ctaEvaluationResponse": {
			"type": "object",
			"properties": {
				"ctas": {
					"type": "array",
					"items": {
						"$ref": "#/definitions/cardCta"
					},
					"description": "ctas"
				},
				"evaluation_uuid": {
					"type": "string",
					"format": "uuid",
					"description": "evaluation_uuid"
				},
				"request_uuid": {
					"type": "string",
					"format": "uuid",
					"description": "request_uuid"
				}
			},
			"title": "CtaEvaluationResponse"
		},
		"jsonNode": {
			"type": "object",
			"properties": {
				"array": {
					"type": "boolean",
					"description": "array"
				},
				"bigDecimal": {
					"type": "boolean",
					"description": "bigDecimal"
				},
				"bigInteger": {
					"type": "boolean",
					"description": "bigInteger"
				},
				"binary": {
					"type": "boolean",
					"description": "binary"
				},
				"boolean": {
					"type": "boolean",
					"description": "boolean"
				},
				"containerNode": {
					"type": "boolean",
					"description": "containerNode"
				},
				"double": {
					"type": "boolean",
					"description": "double"
				},
				"float": {
					"type": "boolean",
					"description": "float"
				},
				"floatingPointNumber": {
					"type": "boolean",
					"description": "floatingPointNumber"
				},
				"int": {
					"type": "boolean",
					"description": "int"
				},
				"integralNumber": {
					"type": "boolean",
					"description": "integralNumber"
				},
				"long": {
					"type": "boolean",
					"description": "long"
				},
				"missingNode": {
					"type": "boolean",
					"description": "missingNode"
				},
				"nodeType": {
					"type": "string",
					"enum": [
						"ARRAY",
						"BINARY",
						"BOOLEAN",
						"MISSING",
						"NULL",
						"NUMBER",
						"OBJECT",
						"POJO",
						"STRING"
					],
					"description": "nodeType"
				},
				"number": {
					"type": "boolean",
					"description": "number"
				},
				"object": {
					"type": "boolean",
					"description": "object"
				},
				"pojo": {
					"type": "boolean",
					"description": "pojo"
				},
				"short": {
					"type": "boolean",
					"description": "short"
				},
				"textual": {
					"type": "boolean",
					"description": "textual"
				},
				"valueNode": {
					"type": "boolean",
					"description": "valueNode"
				}
			},
			"title": "JsonNode"
		},
		"metaData": {
			"type": "object",
			"properties": {
				"lastKnown": {
					"type": "string",
					"format": "date-time",
					"description": "lastKnown"
				},
				"source": {
					"type": "string",
					"description": "source"
				},
				"lastModified": {
					"type": "string",
					"format": "date-time",
					"description": "lastModified"
				},
				"sensitivity": {
					"type": "string",
					"enum": [
						"UNRESTRICTED",
						"SENSITIVE",
						"RESTRICTED"
					],
					"description": "sensitivity"
				},
				"expires": {
					"type": "string",
					"format": "date-time",
					"description": "expires"
				},
				"tags": {
					"type": "array",
					"items": {
						"type": "string"
					},
					"description": "tags"
				}
			},
			"title": "MetaData"
		},
		"namedGroupEvaluationRequest": {
			"type": "object",
			"properties": {
				"facts": {
					"type": "object",
					"additionalProperties": {
						"$ref": "#/definitions/unprocessedFact"
					},
					"description": "facts"
				},
				"complete_facts": {
					"type": "boolean",
					"description": "complete facts"
				}
			},
			"title": "NamedGroupEvaluationRequest"
		},
		"unprocessedFact": {
			"type": "object",
			"properties": {
				"meta": {
					"$ref": "#/definitions/metaData"
				},
				"subfacts": {
					"$ref": "#/definitions/jsonNode"
				}
			},
			"title": "UnprocessedFact"
		}
	},
	"parameters": {
		"AuthorizationParam": {
			"name": "auth",
			"in": "header",
			"required": false,
			"type": "string",
			"description": "JWT Token",
			"x-example" : "eyJhbGciOiJSUzI1NiIsInR5cCI6IkpXVCIsImtpZCI6IlVGSlBSRVJCVkMweU1ERTUifQ.eyJpYXQiOjE1NTc4NTQ5OTEsImV4cCI6MTU1Nzg1ODU5MCwiaXNzIjoiaHR0cHM6Ly9icmFzcy5hY2NvdW50LnQtbW9iaWxlLmNvbSIsImF1ZCI6IlRNT0FwcCIsIkFUIjoiMDEuVVNSLk5Kb0RaSFk5VlIzUzM1QnY5Iiwic3ViIjoiVS0zNzc4Y2RmOC1iYWQ1LTRjNjQtYjNjZS1jMTE5ZmZjZTc5MDAiLCJhY3IiOiJsb2EyIiwiYW1yIjpbInBhc3N3b3JkIiwic2VjdXJpdHlfcXVlc3Rpb24iXSwidXNuIjoiNTg0NGZhMDJlZTIwMjdlOSIsImVudF90eXBlIjoiZGlyZWN0IiwiZW50Ijp7ImFjY3QiOlt7InIiOiJBTyIsImlkIjoiOTY0NTU5ODE3IiwidHN0IjoiSVIiLCJsaW5lX2NvdW50IjoxLCJsaW5lcyI6W3sicGhudW0iOiIyMDYzMDc2NTYxIiwiciI6IkQifV19XX19.R0-XnYppIx6qByTWHzYGg1cs2yVjhoh7Dl1oSga9Kccp8113vmv-5vRPklbalOXxdDsso-hiuqGES8f4-qb0UWc4yCMUYm4mDWA3sywix5d8Qum4SVbztPpsRW2dNsWL2d5kMGdrwBCQv9EXyN5irh-XlkbxyOkL7YsJOCkOvutTSjnaFNi51NXQtIiJGPn0MaiQDG6pelTHBG5HTt_pZeTAuTxrU-jXui7-pqjmbxwucFm8wP3ibTc5ljRE7mZEvfqcipxCcgFNS9IpeXtsRcQysBS9KrzTZDS0p-KawMOukVUuRfg1D6IBnTF7edq-UlHlUj3L_5Hu_ABw3Zdp4w"
		},
		"ContentTypeParam": {
			"name": "Content-Type",
			"in": "header",
			"required": true,
			"type": "string",
			"description" : "Content-Type",
			"x-example" : "application/json",
			"format": "string"
		},
		"CacheControlParam": {
			"name": "Cache-Control",
			"in": "header",
			"required": false,
			"type": "string",
			"description" : "Cache-Control",
			"x-example" : "no-cache"
		},
		"BanParam": {
			"name": "x-tmo-ban",
			"in": "header",
			"required": false,
			"type": "string",
			"description" : "Account Number",
			"x-example" : "939854294"
		},
		"IdtMsisdnParam": {
			"name": "x-tmo-idt-msisdn",
			"in": "header",
			"required": false,
			"type": "string",
			"description" : "IDT msisdn",
			"x-example" : "4044579105"
		},
		"MsisdnParam": {
			"name": "x-tmo-msisdn",
			"in": "header",
			"required": false,
			"type": "string",
			"description" : "device msisdn",
			"x-example" : "4044579105"
		},
		"TmoidParam": {
			"name": "x-tmo-tmoid",
			"in": "header",
			"required": false,
			"type": "string",
			"description" : "TMOID",
			"x-example" : "U-9a413c20-bb54-49eb-8c75-c65a248f36fd"
		}
	}
}