{
	"swagger": "2.0",
	"info": {
		"description": "Facts-Controller",
		"version": "1.0.0",
		"title": "Facts-Controller",
		"termsOfService": "urn:tos",
		"contact": {
			"name": "DAB Team",
			"email": "Dab_Team@t-mobile.com"
		},
		"license": {
			"name": "Apache 2.0",
			"url": "http://www.apache.org/licenses/LICENSE-2.0"
		}
	},
	"host": "facts-controller.stg-int.dabnpe.t-mobile.com",
	"basePath": "/2.0/facts",
	"schemes": [
		"https"
	],
	"securityDefinitions": {},
	"x-servers": {
		"url": "facts-controller.stg-int.dabnpe.t-mobile.com",
		"description": "STG environment"
	},
	"tags": [
		{
			"name": "facts-cache-controller",
			"description": "Facts Cache Controller"
		},
		{
			"name": "facts-dictionary-controller",
			"description": "Facts Dictionary Controller"
		},
		{
			"name": "facts-gather-controller",
			"description": "Facts Gather Controller"
		}
	],
	"paths": {
		"/2.0/facts/cache/deposit": {
			"put": {
				"tags": [
					"facts-cache-controller"
				],
				"summary": "depositFactsEndpoint",
				"operationId": "depositFactsEndpointUsingPUT",
				"description": "Deposit Facts",
				"security": [],
				"x-api-pattern": "ReplaceResource",
				"consumes": [
					"application/json"
				],
				"produces": [
					"*/*"
				],
				"parameters": [
					{
						"$ref": "#/parameters/AuthorizationParam"
					},
					{
						"$ref": "#/parameters/ContentTypeParam"
					},
					{
						"in": "body",
						"name": "request",
						"description": "request",
						"required": true,
						"schema": {
							"$ref": "#/definitions/depositRequest"
						}
					}
				],
				"responses": {
					"204": {
						"headers": {
							"Date": {
								"type": "string",
								"x-example": "Tue, 14 May 2019 19:10:50 GMT",
								"description": "Date"
							}
						},
						"description": "No Content"
					},
					"400": {
						"description": "Bad Request"
					},
					"401": {
						"description": "Unauthorized"
					},
					"403": {
						"description": "Forbidden"
					},
					"404": {
						"description": "Not Found"
					},
					"405": {
						"description": "Method Not Allowed",
						"headers": {
							"Allow": {
								"type": "string",
								"description": "Allow",
								"x-example": "HEAD"
							}
						},
						"schema" : {}
					},
					"409": {
						"description": "Conflict"
					},
					"412": {
						"description": "Precondition Failed"
					},
					"415": {
						"description": "Unsupported Media Type"
					},
					"500": {
						"description": "Internal Server Error"
					},
					"503": {
						"description": "Service Unavailable"
					}
				},
				"deprecated": false
			}
		},
		"/2.0/facts/cache/fetch": {
			"post": {
				"tags": [
					"facts-cache-controller"
				],
				"summary": "fetchFactsEndpoint",
				"operationId": "fetchFactsEndpointUsingPOST",
				"description": "Fetch Facts",
				"x-api-pattern": "ExecuteFunction",
				"security": [],
				"consumes": [
					"application/json"
				],
				"produces": [
					"application/json"
				],
				"parameters": [
					{
						"$ref": "#/parameters/AuthorizationParam"
					},
					{
						"$ref": "#/parameters/ContentTypeParam"
					},
					{
						"in": "body",
						"name": "request",
						"description": "request",
						"required": true,
						"schema": {
							"$ref": "#/definitions/cacheFetchRequest"
						}
					}
				],
				"responses": {
					"200": {
						"description": "OK",
						"schema": {
							"$ref": "#/definitions/gatherResponse"
						},
						"examples": {
							"application/json": {
								"flatFacts": {
									"location.isSimpleGlobalCountry": {
										"value": false,
										"meta": {
											"lastKnown": "2019-05-14T19:10:50.97Z",
											"source": "UNION",
											"sensitivity": "SENSITIVE",
											"expires": "2019-05-17T19:10:50.97Z",
											"tags": [
												"FCGathered"
											]
										}
									},
									"location.utcOffset": {
										"value": "-06:00",
										"meta": {
											"lastKnown": "2019-05-14T19:10:50.97Z",
											"source": "UNION",
											"sensitivity": "SENSITIVE",
											"expires": "2019-05-17T19:10:50.97Z",
											"tags": [
												"FCGathered"
											]
										}
									},
									"location.countryCode": {
										"value": "US",
										"meta": {
											"lastKnown": "2019-05-14T19:10:50.97Z",
											"source": "UNION",
											"sensitivity": "SENSITIVE",
											"expires": "2019-05-17T19:10:50.97Z",
											"tags": [
												"FCGathered"
											]
										}
									},
									"location.countryName": {
										"value": "United States",
										"meta": {
											"lastKnown": "2019-05-14T19:10:50.97Z",
											"source": "UNION",
											"sensitivity": "SENSITIVE",
											"expires": "2019-05-17T19:10:50.97Z",
											"tags": [
												"FCGathered"
											]
										}
									}
								},
								"arrayFacts": {}
							}
						},
						"headers": {
							"Cache-Control": {
								"type": "string",
								"x-example": "no-cache",
								"description": "Cache-Control"
							},
							"Content-Length": {
								"type": "string",
								"x-example": "1041",
								"description": "Content-Length"
							},
							"Content-Type": {
								"type": "string",
								"x-example": "application/json",
								"description": "Content-Type"
							},
							"Date": {
								"type": "string",
								"x-example": "Tue, 14 May 2019 19:10:50 GMT",
								"description": "Date"
							}
						}
					},
					"400": {
						"description": "Bad Request"
					},
					"401": {
						"description": "Unauthorized"
					},
					"404": {
						"description": "Not Found"
					},
					"405": {
						"description": "Method Not Allowed",
						"headers": {
							"Allow": {
								"type": "string",
								"description": "Allow",
								"x-example": "HEAD"
							}
						},
						"schema" : {}
					},
					"409": {
						"description": "Conflict"
					},
					"415": {
						"description": "Unsupported Media Type"
					},
					"500": {
						"description": "Internal Server Error"
					},
					"503": {
						"description": "Service Unavailable"
					}
				},
				"deprecated": false
			}
		},
		"/2.0/facts/controller/dictionaryupdate": {
			"post": {
				"tags": [
					"facts-gather-controller"
				],
				"summary": "updateFactsDictionary",
				"operationId": "updateFactsDictionaryUsingPOST",
				"security": [],
				"description": "Update Facts Dictionary",
				"x-api-pattern": "ExecuteFunction",
				"consumes": [
					"application/json"
				],
				"produces": [
					"application/json"
				],
				"parameters": [
					{
						"$ref": "#/parameters/AuthorizationParam"
					},
					{
						"$ref": "#/parameters/ContentTypeParam"
					},
					{

						"in": "body",
						"name": "request",
						"description": "request",
						"required": true,
						"schema": {
							"$ref": "#/definitions/gatherFactsRequest"
						}
					}
				],
				"responses": {
					"200": {
						"description": "OK",
						"schema": {
							"$ref": "#/definitions/gatherResponse"
						},
						"examples": {
							"application/json": {
								"flatFacts": {
									"location.isSimpleGlobalCountry": {
										"value": false,
										"meta": {
											"lastKnown": "2019-05-14T19:10:50.97Z",
											"source": "UNION",
											"sensitivity": "SENSITIVE",
											"expires": "2019-05-17T19:10:50.97Z",
											"tags": [
												"FCGathered"
											]
										}
									},
									"location.utcOffset": {
										"value": "-06:00",
										"meta": {
											"lastKnown": "2019-05-14T19:10:50.97Z",
											"source": "UNION",
											"sensitivity": "SENSITIVE",
											"expires": "2019-05-17T19:10:50.97Z",
											"tags": [
												"FCGathered"
											]
										}
									},
									"location.countryCode": {
										"value": "US",
										"meta": {
											"lastKnown": "2019-05-14T19:10:50.97Z",
											"source": "UNION",
											"sensitivity": "SENSITIVE",
											"expires": "2019-05-17T19:10:50.97Z",
											"tags": [
												"FCGathered"
											]
										}
									},
									"location.countryName": {
										"value": "United States",
										"meta": {
											"lastKnown": "2019-05-14T19:10:50.97Z",
											"source": "UNION",
											"sensitivity": "SENSITIVE",
											"expires": "2019-05-17T19:10:50.97Z",
											"tags": [
												"FCGathered"
											]
										}
									}
								},
								"arrayFacts": {}
							}
						},
						"headers": {
							"Cache-Control": {
								"type": "string",
								"x-example": "no-cache",
								"description": "Cache-Control"
							},
							"Content-Length": {
								"type": "string",
								"x-example": "1041",
								"description": "Content-Length"
							},
							"Content-Type": {
								"type": "string",
								"x-example": "application/json",
								"description": "Content-Type"
							},
							"Date": {
								"type": "string",
								"x-example": "Tue, 14 May 2019 19:10:50 GMT",
								"description": "Date"
							}
						}
					},
					"400": {
						"description": "Bad Request"
					},
					"401": {
						"description": "Unauthorized"
					},
					"404": {
						"description": "Not Found"
					},
					"405": {
						"description": "Method Not Allowed",
						"headers": {
							"Allow": {
								"type": "string",
								"description": "Allow",
								"x-example": "HEAD"
							}
						},
						"schema" : {}
					},
					"409": {
						"description": "Conflict"
					},
					"415": {
						"description": "Unsupported Media Type"
					},
					"500": {
						"description": "Internal Server Error"
					},
					"503": {
						"description": "Service Unavailable"
					}
				},
				"deprecated": false
			}
		},
		"/2.0/facts/controller/gather": {
			"post": {
				"tags": [
					"facts-gather-controller"
				],
				"summary": "gatherFactsEndpoint",
				"operationId": "gatherFactsEndpointUsingPOST",
				"description": "Gather facts from downstream",
				"security": [],
				"x-api-pattern": "ExecuteFunction",
				"consumes": [
					"application/json"
				],
				"produces": [
					"application/json"
				],
				"parameters": [
					{
						"$ref": "#/parameters/AuthorizationParam"
					},
					{
						"$ref": "#/parameters/ContentTypeParam"
					},
					{
						"in": "body",
						"name": "request",
						"description": "request",
						"required": true,
						"schema": {
							"$ref": "#/definitions/gatherFactsRequest"
						}
					}
				],
				"responses": {
					"200": {
						"description": "OK",
						"schema": {
							"$ref": "#/definitions/gatherResponse"
						},
						"examples": {
							"application/json": {
								"flatFacts": {
									"location.isSimpleGlobalCountry": {
										"value": false,
										"meta": {
											"lastKnown": "2019-05-14T19:10:50.97Z",
											"source": "UNION",
											"sensitivity": "SENSITIVE",
											"expires": "2019-05-17T19:10:50.97Z",
											"tags": [
												"FCGathered"
											]
										}
									},
									"location.utcOffset": {
										"value": "-06:00",
										"meta": {
											"lastKnown": "2019-05-14T19:10:50.97Z",
											"source": "UNION",
											"sensitivity": "SENSITIVE",
											"expires": "2019-05-17T19:10:50.97Z",
											"tags": [
												"FCGathered"
											]
										}
									},
									"location.countryCode": {
										"value": "US",
										"meta": {
											"lastKnown": "2019-05-14T19:10:50.97Z",
											"source": "UNION",
											"sensitivity": "SENSITIVE",
											"expires": "2019-05-17T19:10:50.97Z",
											"tags": [
												"FCGathered"
											]
										}
									},
									"location.countryName": {
										"value": "United States",
										"meta": {
											"lastKnown": "2019-05-14T19:10:50.97Z",
											"source": "UNION",
											"sensitivity": "SENSITIVE",
											"expires": "2019-05-17T19:10:50.97Z",
											"tags": [
												"FCGathered"
											]
										}
									}
								},
								"arrayFacts": {}
							}
						},
						"headers": {
							"Cache-Control": {
								"type": "string",
								"x-example": "no-cache",
								"description": "Cache-Control"
							},
							"Content-Length": {
								"type": "string",
								"x-example": "1041",
								"description": "Content-Length"
							},
							"Content-Type": {
								"type": "string",
								"x-example": "application/json",
								"description": "Content-Type"
							},
							"Date": {
								"type": "string",
								"x-example": "Tue, 14 May 2019 19:10:50 GMT",
								"description": "Date"
							}
						}
					},
					"400": {
						"description": "Bad Request"
					},
					"401": {
						"description": "Unauthorized"
					},
					"404": {
						"description": "Not Found"
					},
					"405": {
						"description": "Method Not Allowed",
						"headers": {
							"Allow": {
								"type": "string",
								"description": "Allow",
								"x-example": "HEAD"
							}
						},
						"schema" : {}
					},
					"409": {
						"description": "Conflict"
					},
					"415": {
						"description": "Unsupported Media Type"
					},
					"500": {
						"description": "Internal Server Error"
					},
					"503": {
						"description": "Service Unavailable"
					}
				},
				"deprecated": false
			}
		},
		"/2.0/facts/dictionary": {
			"get": {
				"tags": [
					"facts-dictionary-controller"
				],
				"summary": "dictionaryEndpoint",
				"operationId": "dictionaryEndpointUsingGET",
				"description": "GET Dictionary",
				"x-api-pattern": "QueryResource",
				"security": [],
				"produces": [
					"text/html",
					"application/json"
				],
				"parameters": [
					{
						"$ref": "#/parameters/AuthorizationParam"
					}
				],
				"responses": {
					"200": {
						"description": "OK",
						"schema": {
							"type": "string"
						},
						"examples" : {
							"application/json": {
								"exampleFact": {
									"description": "A sample entry in the facts dictionary to demonstrate how you may write it into the yaml.",
									"sources": [
										"FactsController"
									],
									"defaults": {
										"meta": {
											"sensitivity": "RESTRICTED",
											"expires": null,
											"tags": [
												"META_FACT"
											]
										},
										"cacheable": false
									}
								}
							}
						},
						"headers": {
							"Cache-Control": {
								"type": "string",
								"x-example": "no-cache",
								"description": "Cache-Control"
							},
							"Content-Length": {
								"type": "string",
								"x-example": "1041",
								"description": "Content-Length"
							},
							"Content-Type": {
								"type": "string",
								"x-example": "application/json",
								"description": "Content-Type"
							},
							"Date": {
								"type": "string",
								"x-example": "Tue, 14 May 2019 19:10:50 GMT",
								"description": "Date"
							}
						}
					},
					"400": {
						"description": "Bad Request"
					},
					"401": {
						"description": "Unauthorized"
					},
					"404": {
						"description": "Not Found"
					},
					"405": {
						"description": "Method Not Allowed",
						"headers": {
							"Allow": {
								"type": "string",
								"description": "Allow",
								"x-example": "HEAD"
							}
						},
						"schema" : {}
					},
					"406": {
						"description": "Not Acceptable"
					},
					"500": {
						"description": "Internal Server Error"
					},
					"503": {
						"description": "Service Unavailable"
					}
				},
				"deprecated": false
			}
		}
	},
	"definitions": {
		"arrayFact": {
			"type": "object",
			"properties": {
				"meta": {
					"$ref": "#/definitions/metaData"
				},
				"subfacts": {
					"type": "array",
					"description": "subfacts",
					"items": {
						"$ref": "#/definitions/subFacts"
					}
				}
			},
			"title": "ArrayFact"
		},
		"cacheFetchRequest": {
			"type": "object",
			"properties": {
				"identifiers": {
					"$ref": "#/definitions/subjectIdentifiers"
				},
				"authorization": {
					"type": "string",
					"description": "JWT token"
				},
				"requiredFacts": {
					"type": "array",
					"description": "Required Facts",
					"items": {
						"type": "string"
					}
				}
			},
			"title": "CacheFetchRequest"
		},
		"depositRequest": {
			"type": "object",
			"properties": {
				"identifiers": {
					"$ref": "#/definitions/subjectIdentifiers"
				},
				"facts": {
					"type": "object",
					"description": "facts",
					"additionalProperties": {
						"$ref": "#/definitions/unprocessedFact"
					}
				}
			},
			"title": "DepositRequest"
		},
		"flatFact": {
			"type": "object",
			"properties": {
				"meta": {
					"$ref": "#/definitions/metaData"
				},
				"value": {
					"$ref": "#/definitions/valueNode"
				}
			},
			"title": "FlatFact"
		},
		"gatherFactsRequest": {
			"type": "object",
			"properties": {
				"identifiers": {
					"$ref": "#/definitions/subjectIdentifiers"
				},
				"authorization": {
					"type": "string",
					"description": "JWT token"
				},
				"requiredFacts": {
					"type": "array",
					"description": "Required Facts",
					"items": {
						"type": "string"
					}
				},
				"factsSourcesWhitelist": {
					"type": "array",
					"description": "List of Whitelisted Facts Sources",
					"items": {
						"type": "string"
					}
				},
				"factsSourcesBlacklist": {
					"type": "array",
					"description": "List of Blacklisted Facts Sources",
					"items": {
						"type": "string"
					}
				},
				"gatherTimeout": {
					"type": "integer",
					"format": "int64",
					"description": "Optional gatherTimeout"
				}
			},
			"title": "GatherFactsRequest"
		},
		"gatherResponse": {
			"type": "object",
			"properties": {
				"arrayFacts": {
					"type": "object",
					"description": "Array Facts",
					"additionalProperties": {
						"$ref": "#/definitions/arrayFact"
					}
				},
				"flatFacts": {
					"type": "object",
					"description": "Flat Facts",
					"additionalProperties": {
						"$ref": "#/definitions/flatFact"
					}
				}
			},
			"title": "GatherResponse"
		},
		"jsonNode": {
			"type": "object",
			"title": "JsonNode"
		},
		"metaData": {
			"type": "object",
			"properties": {
				"expires": {
					"type": "string",
					"format": "date-time",
					"description": "Fact Expires in"
				},
				"lastKnown": {
					"type": "string",
					"format": "date-time",
					"description": "Fact last Known"
				},
				"lastModified": {
					"type": "string",
					"format": "date-time",
					"description": "Fact Last Modified"
				},
				"sensitivity": {
					"type": "string",
					"description": "Sensitivity",
					"enum": [
						"UNRESTRICTED",
						"SENSITIVE",
						"RESTRICTED"
					]
				},
				"source": {
					"type": "string",
					"description": "Source of Fact"
				},
				"tags": {
					"type": "array",
					"description": "Tags",
					"items": {
						"type": "string"
					}
				}
			},
			"title": "MetaData"
		},
		"subFacts": {
			"type": "object",
			"title": "SubFacts"
		},
		"subjectIdentifiers": {
			"type": "object",
			"properties": {
				"msisdn": {
					"type": "string",
					"description": "Phone Number"
				},
				"tmoid": {
					"type": "string",
					"description": "TMOID"
				},
				"ban": {
					"type": "string",
					"description": "Account Number"
				},
				"imei": {
					"type": "string",
					"description": "IMEI"
				},
				"imsi": {
					"type": "string",
					"description": "IMSI"
				},
				"account_type": {
					"type": "string",
					"description": "Account Type"
				},
				"subject_feature": {
					"type": "string",
					"description": "Subject Feature"
				},
				"number_of_lines": {
					"type": "integer",
					"format": "int32",
					"description": "Number of Lines"
				},
				"prepaid_billing_system": {
					"type": "string",
					"description": "Prepaid Billing System"
				},
				"orderId": {
					"type": "string",
					"description": "Order ID"
				}
			},
			"title": "SubjectIdentifiers"
		},
		"unprocessedFact": {
			"type": "object",
			"properties": {
				"meta": {
					"$ref": "#/definitions/metaData"
				},
				"subfacts": {
					"$ref": "#/definitions/jsonNode"
				}
			},
			"title": "UnprocessedFact"
		},
		"valueNode": {
			"type": "object",
			"properties": {
				"array": {
					"type": "boolean",
					"description": "array"
				},
				"bigDecimal": {
					"type": "boolean",
					"description": "bigDecimal"
				},
				"bigInteger": {
					"type": "boolean",
					"description": "bigInteger"
				},
				"binary": {
					"type": "boolean",
					"description": "binary"
				},
				"boolean": {
					"type": "boolean",
					"description": "boolean"
				},
				"containerNode": {
					"type": "boolean",
					"description": "containerNode"
				},
				"double": {
					"type": "boolean",
					"description": "double"
				},
				"float": {
					"type": "boolean",
					"description": "float"
				},
				"floatingPointNumber": {
					"type": "boolean",
					"description": "floatingPointNumber"
				},
				"int": {
					"type": "boolean",
					"description": "int"
				},
				"integralNumber": {
					"type": "boolean",
					"description": "integralNumber"
				},
				"long": {
					"type": "boolean",
					"description": "long"
				},
				"missingNode": {
					"type": "boolean",
					"description": "missingNode"
				},
				"nodeType": {
					"type": "string",
					"description": "nodeType",
					"enum": [
						"ARRAY",
						"BINARY",
						"BOOLEAN",
						"MISSING",
						"NULL",
						"NUMBER",
						"OBJECT",
						"POJO",
						"STRING"
					]
				},
				"number": {
					"type": "boolean",
					"description": "number"
				},
				"object": {
					"type": "boolean",
					"description": "object"
				},
				"pojo": {
					"type": "boolean",
					"description": "pojo"
				},
				"short": {
					"type": "boolean",
					"description": "short"
				},
				"textual": {
					"type": "boolean",
					"description": "textual"
				},
				"valueNode": {
					"type": "boolean",
					"description": "valueNode"
				}
			},
			"title": "ValueNode"
		}
	},
	"parameters": {
		"AuthorizationParam": {
			"name": "Authorization",
			"in": "header",
			"required": false,
			"type": "string",
			"description": "JWT Token",
			"x-example" : "eyJhbGciOiJSUzI1NiIsInR5cCI6IkpXVCIsImtpZCI6IlVGSlBSRVJCVkMweU1ERTUifQ.eyJpYXQiOjE1NTc4NTQ5OTEsImV4cCI6MTU1Nzg1ODU5MCwiaXNzIjoiaHR0cHM6Ly9icmFzcy5hY2NvdW50LnQtbW9iaWxlLmNvbSIsImF1ZCI6IlRNT0FwcCIsIkFUIjoiMDEuVVNSLk5Kb0RaSFk5VlIzUzM1QnY5Iiwic3ViIjoiVS0zNzc4Y2RmOC1iYWQ1LTRjNjQtYjNjZS1jMTE5ZmZjZTc5MDAiLCJhY3IiOiJsb2EyIiwiYW1yIjpbInBhc3N3b3JkIiwic2VjdXJpdHlfcXVlc3Rpb24iXSwidXNuIjoiNTg0NGZhMDJlZTIwMjdlOSIsImVudF90eXBlIjoiZGlyZWN0IiwiZW50Ijp7ImFjY3QiOlt7InIiOiJBTyIsImlkIjoiOTY0NTU5ODE3IiwidHN0IjoiSVIiLCJsaW5lX2NvdW50IjoxLCJsaW5lcyI6W3sicGhudW0iOiIyMDYzMDc2NTYxIiwiciI6IkQifV19XX19.R0-XnYppIx6qByTWHzYGg1cs2yVjhoh7Dl1oSga9Kccp8113vmv-5vRPklbalOXxdDsso-hiuqGES8f4-qb0UWc4yCMUYm4mDWA3sywix5d8Qum4SVbztPpsRW2dNsWL2d5kMGdrwBCQv9EXyN5irh-XlkbxyOkL7YsJOCkOvutTSjnaFNi51NXQtIiJGPn0MaiQDG6pelTHBG5HTt_pZeTAuTxrU-jXui7-pqjmbxwucFm8wP3ibTc5ljRE7mZEvfqcipxCcgFNS9IpeXtsRcQysBS9KrzTZDS0p-KawMOukVUuRfg1D6IBnTF7edq-UlHlUj3L_5Hu_ABw3Zdp4w"
		},
		"ContentTypeParam": {
			"name": "Content-Type",
			"in": "header",
			"required": false,
			"type": "string",
			"description" : "Content-Type",
			"x-example" : "application/json"
		}
	}
}