@startuml
skinparam SequenceMessageAlign left
Actor "MBC" as Source
participant "HAProxy" as Gateway
participant "TIBCOCE" as TIBCOCE 
participant "REEF" as REEF
participant "PublishEvent" as PublishEvent

Source -> Gateway : "Client" makes a SOAP call by invoking \n NotificationService.notifyDataUsage operation \n [[https://bitbucket.service.edp.t-mobile.com/projects/EITCODEDOC/repos/flow-documentation/browse/swagger/ce.dsg.dice.metro/NotificationService.wsdl NotificationService.notifyDataUsage]] SOAP call
note right: NB sequence diagram not available in Clearwater for this API
	Gateway -> TIBCOCE : Receives request and routes it to TIBCOCE handler \n <Color:green><B>"NotificationService.notifyDataUsage"</B></Color>
		alt if TMO/Env/EventManagement/useTIBCOBEEventFramework="true"
		group REEFNotifyDataUsageActivity
			TIBCOCE -> REEF : Initiate [[../TIBCO/ce.dsg.dice.mpcs.notification.notifyDataUsage.reef.svg REEFNotifyDataUsageActivity]] flow by Publishing a message to JMS Queue \n 'TMOBILE.',$_globalVariables/pfx3:GlobalVariables/TMO/Env/Env_Name_BE,'.EVENTFRAMEWORK.REQUEST' (REEF)
			REEF -> TIBCOCE : Return Response to TIBCOCE
			end
		else else
		group PublishEvent [[https://bitbucket.service.edp.t-mobile.com/projects/EITCODEDOC/repos/flow-documentation/browse/swagger/ce.dsg.dice.metro/PublishEventService.wsdl WSDL]]
			TIBCOCE -> PublishEvent : Invoke [[../PublishEvent/ce.dsg.dice.mpcs.publishEvent.postEvent.svg PublishEvent.postEvent]] operation by SOAP Call
			PublishEvent -> TIBCOCE : Return Response to TIBCOCE
		end	
		end
	TIBCOCE->Gateway : Return Response to Client
Gateway->Source : Return Response to Client
@enduml