@startuml

!define MS_SERVICE Manage-Account-And-Subscriber-v4
!define MS_OPERATION update-account-security-information
!define LAST_UPDATE %date[yyyy.MM.dd 'at' HH:mm]%
!define module(x) component x <<module>> 
!define send(a,b,c) a->b : c
!define response(a,b) a-->b : Response

left header
<font color=blue>MS: MS_SERVICE/MS_OPERATION</font>
endheader

title
MS: MS_SERVICE/MS_OPERATION
Last update: LAST_UPDATE
end title

/' 
 ' This is our suppression for the footbox (aka. our diagrams box a the bottom of each flow
' tower - comment out the next line and regenerate the diagram, to see what I mean)
'/
hide footbox


/'
' The spacing in the following text is important. 
 ' 
 ' Trust me.
'/ 
center footer

 
Copyright (c) 2019 Amdocs.

Information Security Level 1 - Confidential

CONTAINS RESTRICTED - PROPRIETARY INFORMATION

This document is strictly confidential and proprietary; to be used only by authorized persons
on a need to know basis, and must not be distributed without specific permission.

In the event of unauthorized use of this document or the confidential information it contains,
violators will be subject to sever disciplinary action, based on Amdocs regulations, as well as
any other sanctions applicable by law.

endfooter

participant Channel
participant "Manage-Account-\nAnd-Subscriber-V4\n-MS" as MAAS
participant "Subscriber-\nManagement-V3\n-MS" as SM
participant "ASAP"
participant "ACCOUNT_MANAGEMENT_V3" as AM

skinparam sequenceArrowThickness 2
skinparam ArrowColor  #blue

Channel -> MAAS: update-account-security-information\n


send(MAAS,SM,searchSubscriber)
activate SM#lightgreen
ref over SM
searchSubscriber
end
response(SM,MAAS)
deactivate SM

send(MAAS,ASAP,createBan)
activate ASAP#lightgreen
ref over ASAP
createBan
end
response(ASAP,MAAS)
deactivate ASAP


send(MAAS,ASAP,getBanTaxExemption)
activate ASAP#lightgreen
ref over ASAP
getBanTaxExemption
end
response(ASAP,MAAS)
deactivate ASAP

send(MAAS,ASAP,getBanAddress)
activate ASAP#lightgreen
ref over ASAP
getBanAddress
end
response(ASAP,MAAS)
deactivate ASAP

send(MAAS,ASAP,getName)
activate ASAP#lightgreen
ref over ASAP
getName
end
response(ASAP,MAAS)
deactivate ASAP

send(MAAS,ASAP,getTimeStampStruct)
activate ASAP#lightgreen
ref over ASAP
getTimeStampStruct
end
response(ASAP,MAAS)
deactivate ASAP

send(MAAS,ASAP,getSecurityInfo)
activate ASAP#lightgreen
ref over ASAP
getSecurityInfo
end
response(ASAP,MAAS)
deactivate ASAP

send(MAAS,ASAP,getBanTaxExemption)
activate ASAP#lightgreen
ref over ASAP
getBanTaxExemption
end
response(ASAP,MAAS)
deactivate ASAP

MAAS ->MAAS: validate \n JWT

send(MAAS,AM,updateAccountSecurityInformation)
activate AM#lightgreen
ref over AM
updateAccountSecurityInformation
end
response(AM,MAAS)
deactivate AM

response(MAAS,Channel)
deactivate MAAS

@enduml