@startuml
title QVXP Upgrades- Payment screen (Payment Tokenization Changes_V3 version)

actor retailrep

participant QVXP #LightPink
participant TIBCO #LightPink
participant APIGEE #LightPink
participant EBS #LightPink
|||

/'
**below lines are commented as per scope baselined for DPE-CCS MVP only. Proposed plan for post-MPV scope is to be able to use payment methods stored at susbcriber level
alt <font color=green> On page load
QVXP-[#Black]>APIGEE: Request for **/payments/V3/spi/search**
QVXP<[#green]--APIGEE: Returns the paymentInstrument details \n(existing stored payment methods)
end
'/

retailrep-[#Black]>QVXP: Rep lands on payment screen 
QVXP<-QVXP: Displays options to choose paymemt method \n(New card OR post charges to bill)
retailrep-[#Black]>QVXP: Rep continues to choose payment method

alt 1] <font color=blue> *New card* is selected & no existing stored payment
QVXP-> QVXP: Rep enters atleast 6 digits of credit/debit card details
QVXP-[#Black]>APIGEE: Request for **/payments/v3/cardTypevalidation**
QVXP<[#green]--APIGEE: Validates & returns the cardType details
||| 
    note right of QVXP: Rep clicks on **"Check Credit card"** CTA 
    QVXP-[#Black]> APIGEE: Request for KeyManager API 
    QVXP<[#green]--TIBCO:Returns encrypted key (JWK format)
    QVXP-> QVXP: ENcrypt the cardNumber using Javascript (call as **EncryptedCreditCardNo**)
    QVXP->QVXP: Block the user similar to the scenario of NegativeFile API fails.
    note right of QVXP: If KeyManager API is success 
    QVXP-[#Black]> TIBCO:Request for **Payments/NegativeFile API** 
    QVXP<[#green]--TIBCO: Returns the details of EmtityType & other flag details 
|||   
QVXP->QVXP: Rep selects billing address & agrees T&C's
|||
    note right of QVXP: Rep clicks on **"Continue to Final instructions"** CTA
    QVXP-[#Black]> TIBCO: Request for **CommerceCheckout.UpdateOptionsDetails** \n(Pass **EncryptedCreditCardNo** as String)
    TIBCO-[#Black]>EBS: Pass the details  
    note right of QVXP: Pass below details in request: \n1.order/inputParameter/**HasStoredPayment= FALSE** \n2.order/inputParameter/**IsStoredPayment=FALSE** \n3.order/inputParameter/**ConfigureStoredPayment=FALSE**\n(As part of DPE CCS MVP scope, ability to save payment card will be made dormant) /'if rep wishes to save the new card details as stored paymt)'/
    TIBCO<--EBS: Success Response
    QVXP<--TIBCO: Success Response
end 
|||

alt 2] <font color=blue> If **New card is selected & has an Existing Stored method**
QVXP-> QVXP: Rep enters atleast 6 digits of credit/debit card details
QVXP-[#Black]>APIGEE: Request for **/payments/v3/cardTypevalidation**
QVXP<[#green]--APIGEE: Validates & returns the cardType details
||| 
    note right of QVXP: Rep clicks on **"Check Credit card"** CTA 
    QVXP-[#Black]> APIGEE: Request for KeyManager API 
    QVXP<[#green]--TIBCO:Returns encrypted key (JWK format)
    QVXP-> QVXP: ENcrypt the cardNumber using Javascript (call as **EncryptedCreditCardNo**)
    QVXP->QVXP: Block the user similar to the scenario of NegativeFile API fails.
    note right of QVXP: If KeyManager API is success 
    QVXP-[#Black]> TIBCO:Request for **Payments/NegativeFile API** 
    QVXP<[#green]--TIBCO: Returns the details of EmtityType & other flag details 
|||   
QVXP->QVXP: Rep selects billing address & agrees T&C's
|||
note right of QVXP: Rep clicks on **"Continue to Final instructions"** CTA
QVXP-[#Black]> TIBCO: Request for **CommerceCheckout.UpdateOptionsDetails** \n(Pass **EncryptedCreditCardNo** as String)
TIBCO-[#Black]>EBS: Pass the details 
note right of QVXP: Pass below details in request: \n1.order/inputParameter/**HasStoredPayment= FALSE** \n2.order/inputParameter/**IsStoredPayment=FALSE** \n3.order/inputParameter/**ConfigureStoredPayment=FALSE**\n(As part of DPE CCS MVP scope, ability to save payment card will be made dormant) /'if rep wishes to save the new card details as stored paymt)'/
TIBCO<--EBS: Success Response
QVXP<--TIBCO: Success Response
end 

/'
**below lines are commented as per scope baselined for DPE-CCS MVP only. Proposed plan for post-MPV scope is to be able to use payment methods stored at susbcriber level
alt 3] <font color=blue> If **Existing Stored card** is selected [<font color=Red>**Only for POIP flow**]
QVXP->QVXP: Rep selects existing stored payment method
QVXP->QVXP: Rep clicks on **"Continue to Final instructions"** CTA
QVXP-[#Black]> TIBCO: Request for **CommerceCheckout.UpdateOptionsDetails** \n(Pass **cardNumber** as String)
TIBCO-[#Black]>EBS: Pass the details
note right of QVXP: Pass below details in request: \n1.order/inputParameter/**HasStoredPayment= TRUE** \n2.order/inputParameter/**IsStoredPayment=TRUE** \n3.order/inputParameter/**ConfigureStoredPayment=FALSE**
TIBCO<--EBS: Success Response
QVXP<--TIBCO: Success Response
end
'/


@enduml