@startuml
title Accessory Selection with Additional Terms Changes highlighted in Green  (Regular Upgrades Flows for  Retail, CARE and Bulk Upgrades )
actor  Rep
participant QVXP
participant EBS
participant CatalogService

==== Accessory Catalog Page ==
     Rep -[#Black]> QVXP : Rep Clicks on "Add to CART" button on New Device Pricing Page (With No PHP Screen Required) or on PHP Screen
     QVXP -[#Black]> EBS: CommercePackage.UpdatePackage
     EBS -[#Green]> QVXP : Success
          alt
                   EBS -[#Red]--> QVXP : Failure with possible error codes are TIBCO: 102/56106/5601.
                   QVXP -[#Red]--> QVXP : Display UI friendly Error for the  received description and allow to access "Remove from Cart" Button
          end alt

      Note over QVXP
          If UpdatePackage results  in success
          1. Adding the selected device to CART
          2. Also passes Accessories compatible with the added device
      End Note

   QVXP -[#Black]> CatalogService :(QVXP Internal Cache)
   CatalogService -[#Green]--> QVXP: Passes info from Cache

    alt Cache has no info
     CatalogService -[#Red]--> QVXP: No accessories received
     QVXP -[#Black]> EBS : CommerceCatalog.GetProductDetails
     EBS -[#Green]> QVXP : Success. Cache the Catalog info into CatalogService (internal cache)
     else
     EBS ---[#Red]-> QVXP : Error: TIBCO 102/ IO Exception/ Output data invalid (Load the page with error  message as-is received from the service ).No products are displayed
    end alt


   QVXP -[#Green]> QVXP : Compare the Response from UpdatePackageResponse and getProductDetailsResponse (or Cache). Display the matched items
       alt UpdatePackageResponse Success. But no accessories received
           QVXP -[#Red]> QVXP : No accessories are presented
         else No match found
         EBS -[#Green]> QVXP : Success. Accessories are recieved but donot match getProductDetailsResponse
         QVXP -[#Red]> QVXP : No accessories are presented
         else Error
         EBS ---[#Red]-> QVXP : Error: TIBCO 102 (Load the page with error  message as-is received from the service ). No accessories are presented
       end alt




==== Access Display Details Link ====

Note Over QVXP #lightGreen : Providing a link is a change as part of Additional Terms Project

    Rep -[#Black]> QVXP : Rep clicks on Display Details Link on each Accessory Tile
    QVXP -[#Black]> QVXP : Use Cache from CatalogService or getProductDetailsResponse to display the info

==== Accessory Selection on Catalog ==

   Rep -[#Black]> QVXP: Rep selects available accessory and  its Quantity
   QVXP -[#Black]> QVXP: Enable the "Next" Button to proceed to Accessory Pricing Page


@enduml