@startuml

title Accessory Selection with Additional Terms Changes highlighted in Green (Standalone Accessories )
actor  Rep
participant QVXP
participant EBS
participant CatalogService


==== Accessory Catalog Page ==
     Rep -[#Black]> QVXP : Rep access Accessory Catalog
     QVXP -[#Black]> CatalogService :(QVXP Internal Cache)
        CatalogService -[#Green]--> QVXP: Passes info from Cache

         alt Cache has no info
          CatalogService -[#Red]--> QVXP: No accessories received
          QVXP -[#Black]> EBS : CommerceCatalog.GetProductDetails
          EBS -[#Green]> QVXP : Success. Cache the Catalog info into CatalogService (internal cache)
          else
          EBS ---[#Red]-> QVXP : Error: TIBCO 102/ IO Exception/ Output data invalid (Load the page with error  message as-is received from the service ).No products are displayed
         end alt

     QVXP -[#Black]> EBS : CommerceAuthentication.CreateSession
        EBS -[#Green]--> QVXP: Success
        EBS ---[#Red]-> QVXP : Error: TIBCO 102 (Load the page with error  message as-is received from the service ).
           Note right EBS
                Establishes OMNI session
           End Note

        QVXP -[#Black]> EBS : CommercePackage.CreatePackage
        EBS -[#Green]> QVXP : Success with atlease one Accessory received
        QVXP -[#Green]> QVXP : Compare the Response from UpdatePackageResponse and getProductDetailsResponse (or Cache). Display the matched items
            alt
              EBS -[#Green]> QVXP : Success. But no accessories received
              QVXP -[#Red]> QVXP : No accessories are presented
              else No match found
              EBS -[#Green]> QVXP : Success. Accessories are recieved but donot match getProductDetailsResponse
              QVXP -[#Red]> QVXP : No accessories are presented
              else Error
              EBS ---[#Red]-> QVXP : Error: TIBCO 102 (Load the page with error  message as-is received from the service ).Donot display Devices
            end alt




   QVXP -[#Green]> QVXP : Compare the Response from CreatePackageResponse and getProductDetailsResponse (or Cache). Display the matched items
       alt CreatePackageResponse Success. But no accessories received
           QVXP -[#Red]> QVXP : No accessories are presented
         else No match found
         EBS -[#Green]> QVXP : Success. Accessories are recieved but donot match getProductDetailsResponse
         QVXP -[#Red]> QVXP : No accessories are presented
         else Error
         EBS ---[#Red]-> QVXP : Error: TIBCO 102 (Load the page with error  message as-is received from the service ). No accessories are presented
       end alt




==== Access Display Details Link ====

Note Over QVXP #lightGreen : Providing a link is a change as part of Additional Terms Project

    Rep -[#Black]> QVXP : Rep clicks on Display Details Link on each Accessory Tile
    QVXP -[#Black]> QVXP : Use Cache from CatalogService or getProductDetailsResponse to display the info

==== Accessory Selection on Catalog ==

   Rep -[#Black]> QVXP: Rep selects available accessory and  its Quantity
   QVXP -[#Black]> QVXP: Enable the "Next" Button to proceed to Accessory Pricing Page



@enduml