{
    "swagger": "2.0",
    "basePath": "/reb2-product/v1",
    "host": "qlab22.op.api.t-mobile.com",
    "x-servers": [
        {
            "url": "qlab02.op.api.t-mobile.com"
        },
        {
            "descritpion": "qlab environment"
        }
    ],
    "info": {
        "description": "This experience service is used to retrieve the session passes",
        "version": "2.0.1",
        "title": "API_2318_retrieveSessionPass",
        "contact": {
            "name": "Anil bandi",
            "email": "anilkumar.bandi1@T-mobile.com"
        }
    },
    "schemes": [
        "https"
    ],
    "tags": [
        {
            "name": "Session Pass"
        }
    ],
    "paths": {
        "/products/onDemandPass": {
            "post": {
                "summary": "This API retrieves the compatible session passes for the active plan",
                "description": "retrieve session passes",
                "tags": [
                    "Session Pass"
                ],
                "operationId": "POSTretrieveSessionPass",
                "security": [
                    {
                        "Oauth": []
                    }
                ],
                "consumes": [
                    "application/json",
                    "application/xml"
                ],
                "produces": [
                    "application/json"
                ],
                "parameters": [
                    {
                        "name": "content-type",
                        "in": "header",
                        "description": "content type",
                        "required": false,
                        "type": "string",
                        "x-example": "application/json"
                    },
                    {
                        "name": "cache-control",
                        "in": "header",
                        "description": "cache control param",
                        "required": false,
                        "type": "string",
                        "x-example": "no-cache"
                    },
                    {
                        "name": "senderid",
                        "in": "header",
                        "description": "senderid",
                        "required": false,
                        "type": "string",
                        "x-example": "SOA"
                    },
                    {
                        "name": "channelid",
                        "in": "header",
                        "description": "channelid",
                        "required": true,
                        "type": "string",
                        "x-example": "receive",
                        "pattern": ".+"
                    },
                    {
                        "name": "applicationid",
                        "in": "header",
                        "description": "applicationid",
                        "required": true,
                        "type": "string",
                        "x-example": "4654623324534",
                        "pattern": ".+"
                    },
                    {
                        "name": "applicationuserid",
                        "in": "header",
                        "description": "applicationuserid",
                        "required": true,
                        "type": "string",
                        "x-example": "Bellarmin",
                        "pattern": ".+"
                    },
                    {
                        "name": "activityid",
                        "in": "header",
                        "description": "activityid",
                        "required": true,
                        "type": "string",
                        "x-example": "745545345",
                        "pattern": ".+"
                    },
                    {
                        "name": "interactionid",
                        "in": "header",
                        "description": "interactionid",
                        "required": true,
                        "type": "string",
                        "x-example": "68564653454",
                        "pattern": ".+"
                    },
                    {
                        "name": "sessionid",
                        "in": "header",
                        "description": "sessionid",
                        "required": true,
                        "type": "string",
                        "x-example": "98657463542342335",
                        "pattern": ".+"
                    },
                    {
                        "name": "dealercode",
                        "in": "header",
                        "description": "dealercode, in case of RETAAIL channel",
                        "required": true,
                        "type": "string",
                        "x-example": "SOA",
                        "pattern": ".+"
                    },
                    {
                        "name": "masterdealercode",
                        "in": "header",
                        "description": "masterdealercode",
                        "required": false,
                        "type": "string",
                        "x-example": "SOA"
                    },
                    {
                        "name": "workflowid",
                        "in": "header",
                        "description": "workflowid",
                        "required": true,
                        "type": "string",
                        "x-example": "SOA",
                        "pattern": ".+"
                    },
                    {
                        "name": "storeId",
                        "in": "header",
                        "description": "storeid needed foe Retail channel, in case of REMO/TABLET UI gets the storeId based on the MAC address (api call to get the storeId based on the MAC address ) and sends it in header",
                        "required": true,
                        "type": "string",
                        "x-example": "2011",
                        "pattern": ".+"
                    },
                    {
                        "name": "timestamp",
                        "in": "header",
                        "description": "timestamp",
                        "required": true,
                        "type": "string",
                        "x-example": "2018-04-23T07:24:46+00:00",
                        "pattern": ".+"
                    },
                    {
                        "name": "Authorization",
                        "in": "header",
                        "description": "Authorization",
                        "required": false,
                        "type": "string",
                        "x-example": "KKJAemHqsy9TVQ2ljqFxzSLwNzjC"
                    },
                    {
                        "name": "body",
                        "in": "body",
                        "description": "Body of the request containing key value criteria.",
                        "schema": {
                            "$ref": "#/definitions/SessionPassRequestPayload"
                        },
                        "required": true,
                        "x-example": {}
                    },
                    {
                        "name": "If-Modified-Since",
                        "in": "header",
                        "description": "The If-Modified-Since header specifies date-related conditions to be placed on the execution of a request.  The request will only be executed if the requested resource has not been modified since the date-time specified.  Because the behavior is complex, the details for usage are provided at http://www.w3.org/Protocols/rfc2616/rfc2616-sec14.html",
                        "x-example": "Wed, 18-Apr-2018 11:34:57 GMT",
                        "required": false,
                        "type": "string"
                    },
                    {
                        "name": "If-None-Match",
                        "in": "header",
                        "description": "The If-None-Match header specifies an ETag-related condition to be placed on the execution of a request.  The request will NOT be executed if the ETag of the requested resource matches one of those specified in the If-None-Match header.  Because the behavior is complex, the details for usage are provided at http://www.w3.org/Protocols/rfc2616/rfc2616-sec14.html",
                        "x-example": "*",
                        "required": false,
                        "type": "string"
                    }
                ],
                "responses": {
                    "200": {
                        "description": "Successful response.",
                        "headers": {
                            "Cache-Control": {
                                "description": "No cache indicators supported at this time. Samples: no-cache",
                                "x-example": "no-cache",
                                "type": "string"
                            },
                            "Content-Encoding": {
                                "description": "The type of encoding used on the data",
                                "x-example": "gzip,deflate",
                                "type": "string"
                            },
                            "Content-Language": {
                                "description": "The natural language or languages of the intended audience for the enclosed content",
                                "x-example": "da",
                                "type": "string"
                            },
                            "Content-Length": {
                                "description": "The Content-Length header specifies the actual length of the returned payload.",
                                "x-example": "1024",
                                "type": "string"
                            },
                            "Content-Type": {
                                "description": "The MIME type of this content",
                                "x-example": "text/xml",
                                "pattern": "^[\\S]*$",
                                "type": "string"
                            },
                            "Date": {
                                "description": "The date and time that the message was originated (in HTTP-date format as defined by RFC 7231 Date/Time Formats).",
                                "x-example": "Wed, 18-Apr-2018 11:34:57 GMT",
                                "type": "string",
                                "format": "date-time"
                            },
                            "ETag": {
                                "description": "The ETag header specifies the unique entity tag value for the returned resource.",
                                "x-example": "*",
                                "type": "string"
                            },
                            "Last-Modified": {
                                "description": "The Last-Modified entity-header field indicates the date and time at which the origin server believes the variant was last modified.",
                                "x-example": "Wed, 18-Apr-2018 11:34:57 GMT",
                                "type": "string",
                                "format": "date-time"
                            },
                            "Transfer-Encoding": {
                                "description": "The form of encoding used to safely transfer the entity to the user. Currently defined methods are: chunked, compress, deflate, gzip, identity.",
                                "x-example": "chunked",
                                "type": "string"
                            },
                            "servicetransactionid": {
                                "description": "Internal identifier for transaction tracking an individual transaction/API request within API platform. Don_t receive/don_t send to downstream",
                                "x-example": "23409209723",
                                "type": "string"
                            },
                            "If-Match": {
                                "description": "the If-Match HTTP request header makes the request conditional. For GET and HEAD methods, the server will send back the requested resource only if it matches one of the listed ETags. For PUT and other non-safe methods, it will only upload the resource in this case.",
                                "x-example": "*",
                                "type": "string"
                            },
                            "If-None-Match": {
                                "description": "the If-Match HTTP request header makes the request conditional. For GET and HEAD methods, the server will send back the requested resource only if it matches one of the listed ETags. For PUT and other non-safe methods, it will only upload the resource in this case.",
                                "x-example": "*",
                                "type": "string"
                            },
                            "Location": {
                                "description": "The Location header specifies the URI of a created resource, or redirects the API consumer to an alternate resource location.",
                                "type": "string",
                                "x-example": "URL"
                            }
                        },
                        "schema": {
                            "$ref": "#/definitions/Categories"
                        }
                    },
                    "304": {
                        "description": "Not Modified",
                        "headers": {
                            "Cache-Control": {
                                "description": "No cache indicators supported at this time. Samples: no-cache",
                                "x-example": "no-cache",
                                "type": "string"
                            },
                            "ETag": {
                                "description": "The ETag header specifies the unique entity tag value for the returned resource.",
                                "x-example": "*",
                                "type": "string"
                            }
                        }
                    },
                    "400": {
                        "description": "Bad Request",
                        "schema": {
                            "type": "array",
                            "description": "An array of error objects.",
                            "minItems": 1,
                            "items": {
                                "$ref": "#/definitions/Error"
                            }
                        },
                        "examples": {
                            "application/json": [
                                {
                                    "code": "400",
                                    "userMessage": "Bad Request",
                                    "systemMessage": "Bad Request"
                                }
                            ]
                        },
                        "headers": {}
                    },
                    "401": {
                        "description": "Unauthorized",
                        "schema": {
                            "type": "array",
                            "description": "An array of error objects.",
                            "minItems": 1,
                            "items": {
                                "$ref": "#/definitions/Error"
                            }
                        },
                        "examples": {
                            "application/json": [
                                {
                                    "code": "401",
                                    "userMessage": "Unauthorized",
                                    "systemMessage": "Unauthorized"
                                }
                            ]
                        },
                        "headers": {}
                    },
                    "403": {
                        "description": "Client access denied",
                        "schema": {
                            "type": "array",
                            "description": "An array of error objects.",
                            "minItems": 1,
                            "items": {
                                "$ref": "#/definitions/Error"
                            }
                        },
                        "examples": {
                            "application/json": [
                                {
                                    "code": "403",
                                    "userMessage": "Client access denied",
                                    "systemMessage": "Client access denied"
                                }
                            ]
                        },
                        "headers": {}
                    },
                    "404": {
                        "description": "Resource not found",
                        "schema": {
                            "type": "array",
                            "description": "An array of error objects.",
                            "minItems": 1,
                            "items": {
                                "$ref": "#/definitions/Error"
                            }
                        },
                        "examples": {
                            "application/json": [
                                {
                                    "code": "404",
                                    "userMessage": "Resource not found",
                                    "systemMessage": "Resource not found"
                                }
                            ]
                        },
                        "headers": {}
                    },
                    "405": {
                        "description": "Method Not Allowed",
                        "schema": {
                            "type": "array",
                            "description": "An array of error objects.",
                            "minItems": 1,
                            "items": {
                                "$ref": "#/definitions/Error"
                            }
                        },
                        "examples": {
                            "application/json": [
                                {
                                    "code": "405",
                                    "userMessage": "Method Not Allowed",
                                    "systemMessage": "Method Not Allowed"
                                }
                            ]
                        },
                        "headers": {}
                    },
                    "406": {
                        "description": "Mismatching data format",
                        "schema": {
                            "type": "array",
                            "description": "An array of error objects.",
                            "minItems": 1,
                            "items": {
                                "$ref": "#/definitions/Error"
                            }
                        },
                        "examples": {
                            "application/json": [
                                {
                                    "code": "406",
                                    "userMessage": "Mismatching data format",
                                    "systemMessage": "Mismatching data format"
                                }
                            ]
                        },
                        "headers": {}
                    },
                    "500": {
                        "description": "System Error",
                        "schema": {
                            "type": "array",
                            "description": "An array of error objects.",
                            "minItems": 1,
                            "items": {
                                "$ref": "#/definitions/Error"
                            }
                        },
                        "examples": {
                            "application/json": [
                                {
                                    "code": "500",
                                    "userMessage": "System Error",
                                    "systemMessage": "System Error"
                                }
                            ]
                        },
                        "headers": {}
                    },
                    "503": {
                        "description": "Service unavailable",
                        "schema": {
                            "type": "array",
                            "description": "An array of error objects.",
                            "minItems": 1,
                            "items": {
                                "$ref": "#/definitions/Error"
                            }
                        },
                        "examples": {
                            "application/json": [
                                {
                                    "code": "503",
                                    "userMessage": "Service unavailable",
                                    "systemMessage": "Service unavailable"
                                }
                            ]
                        },
                        "headers": {}
                    }
                }
            }
        }
    },
    "definitions": {
        "SessionPassRequestPayload": {
            "type": "object",
            "description": "This is the request to get sesssion pass",
            "properties": {
                "customerId": {
                    "type": "string",
                    "description": "Customer ID for the existing customers in CPS FLOW",
                    "x-example": "/*ToDO*/ Some Example",
                    "pattern": ".+"
                },
                "accountId": {
                    "type": "number",
                    "description": "Financial account number of the customer",
                    "minimum": -999999999,
                    "maximum": 999999999,
                    "x-example": "/*ToDO*/ Some Example",
                    "pattern": ".+"
                },
                "cartId": {
                    "type": "string",
                    "description": "Cart ID to use as context along with LineID for returning the product offers",
                    "x-example": "/*ToDO*/ Some Example",
                    "pattern": ".+"
                },
                "lineOfServiceId": {
                    "type": "string",
                    "description": "Required for only CPS flow",
                    "x-example": "/*ToDO*/ Some Example",
                    "pattern": ".+"
                },
                "pageSize": {
                    "type": "string",
                    "description": "# of results per page",
                    "x-example": "/*ToDO*/ Some Example",
                    "pattern": ".+"
                },
                "pageNumber": {
                    "type": "string",
                    "description": "Page number of the result",
                    "x-example": "/*ToDO*/ Some Example",
                    "pattern": ".+"
                }
            },
            "x-example": "/*ToDO*/ Some Example"
        },
        "Categories": {
            "type": "object",
            "description": "this describes how session pass are goruped by category name",
            "properties": {
                "category": {
                    "type": "array",
                    "description": "category",
                    "items": {
                        "description": "items of the category",
                        "properties": {
                            "categoryName": {
                                "type": "string",
                                "description": "GRANDFATHERED or Not",
                                "enum": [
                                    "FORSALE",
                                    "GRANDFATHERED"
                                ],
                                "x-example": "/*ToDO*/ Some Example",
                                "pattern": ".+"
                            },
                            "categoryType": {
                                "type": "array",
                                "description": "type of categories ",
                                "items": {
                                    "properties": {
                                        "productSubType": {
                                            "type": "string",
                                            "description": "DATA, VOICE, TEXT",
                                            "enum": [
                                                "DATA",
                                                "VOICE | TEXT"
                                            ],
                                            "x-example": "/*ToDO*/ Some Example",
                                            "pattern": ".+"
                                        },
                                        "family": {
                                            "type": "array",
                                            "items": {
                                                "properties": {
                                                    "familyName": {
                                                        "type": "string",
                                                        "description": "family Name of the session pass",
                                                        "x-example": "/*ToDO*/ Some Example",
                                                        "pattern": ".+"
                                                    },
                                                    "familyDescription": {
                                                        "type": "string",
                                                        "description": "family description",
                                                        "x-example": "/*ToDO*/ Some Example",
                                                        "pattern": ".+"
                                                    },
                                                    "sessionPass": {
                                                        "type": "array",
                                                        "items": {
                                                            "properties": {
                                                                "id": {
                                                                    "type": "string",
                                                                    "description": "id of the session pass",
                                                                    "x-example": "/*ToDO*/ Some Example",
                                                                    "pattern": ".+"
                                                                },
                                                                "name": {
                                                                    "type": "string",
                                                                    "description": "nam of the session pass",
                                                                    "x-example": "/*ToDO*/ Some Example",
                                                                    "pattern": ".+"
                                                                },
                                                                "shortDescription": {
                                                                    "type": "string",
                                                                    "description": "short description",
                                                                    "x-example": "/*ToDO*/ Some Example",
                                                                    "pattern": ".+"
                                                                },
                                                                "longDescription": {
                                                                    "type": "string",
                                                                    "description": "long description",
                                                                    "x-example": "/*ToDO*/ Some Example",
                                                                    "pattern": ".+"
                                                                },
                                                                "alternateDescription": {
                                                                    "type": "string",
                                                                    "description": "LEGAL_DISCLOSURES",
                                                                    "x-example": "/*ToDO*/ Some Example",
                                                                    "pattern": ".+"
                                                                },
                                                                "offerCode": {
                                                                    "type": "string",
                                                                    "description": "offerCode",
                                                                    "x-example": "/*ToDO*/ Some Example",
                                                                    "pattern": ".+"
                                                                },
                                                                "displayPrice": {
                                                                    "type": "string",
                                                                    "description": "price of the session pass",
                                                                    "x-example": "/*ToDO*/ Some Example",
                                                                    "pattern": ".+"
                                                                }
                                                            },
                                                            "type": "object",
                                                            "description": "/*ToDo*/ Some description",
                                                            "x-example": "/*ToDO*/ Some Example"
                                                        },
                                                        "description": "/*ToDo*/ Some description",
                                                        "x-example": "/*ToDO*/ Some Example"
                                                    }
                                                },
                                                "type": "object",
                                                "description": "/*ToDo*/ Some description",
                                                "x-example": "/*ToDO*/ Some Example"
                                            },
                                            "description": "/*ToDo*/ Some description",
                                            "x-example": "/*ToDO*/ Some Example"
                                        }
                                    },
                                    "type": "object",
                                    "description": "/*ToDo*/ Some description",
                                    "x-example": "/*ToDO*/ Some Example"
                                },
                                "x-example": "/*ToDO*/ Some Example"
                            }
                        },
                        "type": "object",
                        "x-example": "/*ToDO*/ Some Example"
                    },
                    "x-example": "/*ToDO*/ Some Example"
                }
            },
            "x-example": "/*ToDO*/ Some Example"
        },
        "Errors": {
            "description": "Describes the collection of error",
            "type": "array",
            "items": {
                "$ref": "#/definitions/Error"
            },
            "x-example": "/*ToDO*/ Some Example"
        },
        "Error": {
            "type": "object",
            "description": "As defined in https://tmobileusa.sharepoint.com/teams/EnterpriseServices/ESG%20Standards%20Documents/APIs/T-Mobile%20API%20Design%20Guidelines%20v1.0.docx",
            "properties": {
                "code": {
                    "description": "A succinct, domain-specific, human-readable text string to identify the type of error for the given status code",
                    "type": "string"
                },
                "userMessage": {
                    "description": "A human-readable message describing the error.",
                    "type": "string"
                },
                "systemMessage": {
                    "description": "Text that provides a more detailed technical explanation of the error",
                    "type": "string"
                },
                "errorDetailUrl": {
                    "description": "link to custom information providing greater detail on error or errors",
                    "type": "string"
                }
            }
        },
        "ErrorCode": {
            "type": "string",
            "description": "Error Code as per the T-Mobile standards",
            "x-example": "/*ToDO*/ Some Example",
            "pattern": ".+"
        },
        "SystemMessage": {
            "type": "string",
            "description": "Error information from the system",
            "x-example": "/*ToDO*/ Some Example",
            "pattern": ".+"
        },
        "UserMessage": {
            "type": "string",
            "description": "User friendly information for the error",
            "x-example": "/*ToDO*/ Some Example",
            "pattern": ".+"
        }
    },
    "securityDefinitions": {
        "Oauth": {
            "type": "oauth2",
            "description": "When you sign up for an account, you are given your first API key\n",
            "tokenUrl": "https://dlab03.core.op.api.t-mobile.com:443/v2/oauth2/accesstoken?grant_type=client_credentials",
            "flow": "application",
            "scopes": {}
        }
    }
}