@startuml
CANVAS -> APIGEE: allup 
APIGEE -> API:allup
API -> UDP: allup 
API <- UDP: Get  Incident Data with respective count to priority ,environmen,availability and allocation(200, resource representation)
APIGEE <- API: Get  Incident Data with respective count to priority ,environmen,availability and allocation(200, resource representation)
CANVAS <- APIGEE: Get  Incident Data with respective count to priority ,environmen,availability and allocation(200, resource representation)
@enduml