@startuml
CANVAS -> APIGEE: allup or VP Name
APIGEE -> API:allup or VP Name
API -> UDP: allup or VP Name
API <- UDP: Get Security Summary under VP/all VPs(200, resource representation)
APIGEE <- API: Get Security Summary under VP/all VPS(200, resource representation)
CANVAS <- APIGEE: Get Security Summary under VP/all VPS(200, resource representation)
@enduml