{
  "swagger": "2.0",
  "info": {
    "description": "This experience service is used to create a new temp pin",
    "version": "1.0.0",
    "title": "API_2213_generatetemppin",
    "contact": {
      "name": "Feroz Ali Khan",
      "email": "ferozkhan44@t-mobile.com"
    }
  },
  "host": "qlab22.op.api.t-mobile.com",
  "schemes": [
    "https"
  ],
  "x-servers": [
    {
      "url": "qlab02.op.api.t-mobile.com"
    },
    {
      "descritpion": "qlab environment"
    }
  ],
  "basePath": "/reb2-assisted-lookup/v1",
  "tags": [
    {
      "name": "generateTempPin"
    }
  ],
  "paths": {
    "/generateTempPin": {
      "post": {
        "tags": [
          "generateTempPin"
        ],
        "summary": "generateTempPin",
        "operationId": "generateTempPinUsingPOST",
        "security": [
          {
            "Oauth": []
          }
        ],
        "consumes": [
          "application/json"
        ],
        "produces": [
          "application/json"
        ],
        "parameters": [
          {
            "in": "body",
            "name": "CreatePinRequest",
            "description": "CreatePinRequest",
            "required": true,
            "x-example": "request body",
            "schema": {
              "$ref": "#/definitions/CreatePinRequest"
            }
          },
          {
            "name": "If-Modified-Since",
            "in": "header",
            "description": "The If-Modified-Since header specifies date-related conditions to be placed on the execution of a request.  The request will only be executed if the requested resource has not been modified since the date-time specified.  Because the behavior is complex, the details for usage are provided at http://www.w3.org/Protocols/rfc2616/rfc2616-sec14.html",
            "x-example": "Wed, 18-Apr-2018 11:34:57 GMT",
            "required": false,
            "type": "string"
          },
          {
            "name": "If-None-Match",
            "in": "header",
            "description": "The If-None-Match header specifies an ETag-related condition to be placed on the execution of a request.  The request will NOT be executed if the ETag of the requested resource matches one of those specified in the If-None-Match header.  Because the behavior is complex, the details for usage are provided at http://www.w3.org/Protocols/rfc2616/rfc2616-sec14.html",
            "x-example": "*",
            "required": false,
            "type": "string"
          }
        ],
        "responses": {
          "201": {
            "description": "OK",
            "headers": {
              "Cache-Control": {
                "description": "No cache indicators supported at this time. Samples: no-cache",
                "x-example": "no-cache",
                "type": "string"
              },
              "Content-Encoding": {
                "description": "The type of encoding used on the data",
                "x-example": "gzip,deflate",
                "type": "string"
              },
              "Content-Language": {
                "description": "The natural language or languages of the intended audience for the enclosed content",
                "x-example": "da",
                "type": "string"
              },
              "Content-Length": {
                "description": "The Content-Length header specifies the actual length of the returned payload.",
                "x-example": "1024",
                "type": "string"
              },
              "Content-Type": {
                "description": "The MIME type of this content",
                "x-example": "text/xml",
                "pattern": "^[\\S]*$",
                "type": "string"
              },
              "Date": {
                "description": "The date and time that the message was originated (in HTTP-date format as defined by RFC 7231 Date/Time Formats).",
                "x-example": "Wed, 18-Apr-2018 11:34:57 GMT",
                "type": "string",
                "format": "date-time"
              },
              "ETag": {
                "description": "The ETag header specifies the unique entity tag value for the returned resource.",
                "x-example": "*",
                "type": "string"
              },
              "Last-Modified": {
                "description": "The Last-Modified entity-header field indicates the date and time at which the origin server believes the variant was last modified.",
                "x-example": "Wed, 18-Apr-2018 11:34:57 GMT",
                "type": "string",
                "format": "date-time"
              },
              "Transfer-Encoding": {
                "description": "The form of encoding used to safely transfer the entity to the user. Currently defined methods are: chunked, compress, deflate, gzip, identity.",
                "x-example": "chunked",
                "type": "string"
              },
              "servicetransactionid": {
                "description": "Internal identifier for transaction tracking an individual transaction/API request within API platform. Don_t receive/don_t send to downstream",
                "x-example": "23409209723",
                "type": "string"
              },
              "If-Match": {
                "description": "the If-Match HTTP request header makes the request conditional. For GET and HEAD methods, the server will send back the requested resource only if it matches one of the listed ETags. For PUT and other non-safe methods, it will only upload the resource in this case.",
                "x-example": "*",
                "type": "string"
              },
              "If-None-Match": {
                "description": "the If-Match HTTP request header makes the request conditional. For GET and HEAD methods, the server will send back the requested resource only if it matches one of the listed ETags. For PUT and other non-safe methods, it will only upload the resource in this case.",
                "x-example": "*",
                "type": "string"
              },
              "Location": {
                "description": "The Location header specifies the URI of a created resource, or redirects the API consumer to an alternate resource location.",
                "type": "string",
                "x-example": "URL"
              }
            },
            "schema": {
              "$ref": "#/definitions/CreatePinResponse"
            }
          },
          "204": {
            "description": "No Content",
            "headers": {
              "Cache-Control": {
                "description": "No cache indicators supported at this time. Samples: no-cache",
                "x-example": "no-cache",
                "type": "string"
              },
              "Content-Encoding": {
                "description": "The type of encoding used on the data",
                "x-example": "gzip,deflate",
                "type": "string"
              },
              "Content-Language": {
                "description": "The natural language or languages of the intended audience for the enclosed content",
                "x-example": "da",
                "type": "string"
              },
              "Content-Length": {
                "description": "The Content-Length header specifies the actual length of the returned payload.",
                "x-example": "1024",
                "type": "string"
              },
              "Content-Type": {
                "description": "The MIME type of this content",
                "x-example": "text/xml",
                "pattern": "^[\\S]*$",
                "type": "string"
              },
              "Date": {
                "description": "The date and time that the message was originated (in HTTP-date format as defined by RFC 7231 Date/Time Formats).",
                "x-example": "Wed, 18-Apr-2018 11:34:57 GMT",
                "type": "string",
                "format": "date-time"
              },
              "ETag": {
                "description": "The ETag header specifies the unique entity tag value for the returned resource.",
                "x-example": "*",
                "type": "string"
              },
              "Last-Modified": {
                "description": "The Last-Modified entity-header field indicates the date and time at which the origin server believes the variant was last modified.",
                "x-example": "Wed, 18-Apr-2018 11:34:57 GMT",
                "type": "string",
                "format": "date-time"
              },
              "Transfer-Encoding": {
                "description": "The form of encoding used to safely transfer the entity to the user. Currently defined methods are: chunked, compress, deflate, gzip, identity.",
                "x-example": "chunked",
                "type": "string"
              },
              "servicetransactionid": {
                "description": "Internal identifier for transaction tracking an individual transaction/API request within API platform. Don_t receive/don_t send to downstream",
                "x-example": "23409209723",
                "type": "string"
              },
              "If-Match": {
                "description": "the If-Match HTTP request header makes the request conditional. For GET and HEAD methods, the server will send back the requested resource only if it matches one of the listed ETags. For PUT and other non-safe methods, it will only upload the resource in this case.",
                "x-example": "*",
                "type": "string"
              },
              "If-None-Match": {
                "description": "the If-Match HTTP request header makes the request conditional. For GET and HEAD methods, the server will send back the requested resource only if it matches one of the listed ETags. For PUT and other non-safe methods, it will only upload the resource in this case.",
                "x-example": "*",
                "type": "string"
              },
              "Location": {
                "description": "The Location header specifies the URI of a created resource, or redirects the API consumer to an alternate resource location.",
                "type": "string",
                "x-example": "URL"
              }
            }
          },
          "304": {
            "description": "Not Modified",
            "headers": {
              "Cache-Control": {
                "description": "No cache indicators supported at this time. Samples: no-cache",
                "x-example": "no-cache",
                "type": "string"
              },
              "ETag": {
                "description": "The ETag header specifies the unique entity tag value for the returned resource.",
                "x-example": "*",
                "type": "string"
              }
            }
          },
          "400": {
            "description": "Bad Request",
            "schema": {
              "type": "array",
              "description": "An array of error objects.",
              "minItems": 1,
              "items": {
                "$ref": "#/definitions/Error"
              }
            },
            "examples": {
              "application/json": [
                {
                  "code": "400",
                  "userMessage": "Bad Request",
                  "systemMessage": "Bad Request"
                }
              ]
            },
            "headers": {}
          },
          "401": {
            "description": "Unauthorized",
            "schema": {
              "type": "array",
              "description": "An array of error objects.",
              "minItems": 1,
              "items": {
                "$ref": "#/definitions/Error"
              }
            },
            "examples": {
              "application/json": [
                {
                  "code": "401",
                  "userMessage": "Unauthorized",
                  "systemMessage": "Unauthorized"
                }
              ]
            },
            "headers": {}
          },
          "403": {
            "description": "Client access denied",
            "schema": {
              "type": "array",
              "description": "An array of error objects.",
              "minItems": 1,
              "items": {
                "$ref": "#/definitions/Error"
              }
            },
            "examples": {
              "application/json": [
                {
                  "code": "403",
                  "userMessage": "Client access denied",
                  "systemMessage": "Client access denied"
                }
              ]
            },
            "headers": {}
          },
          "404": {
            "description": "Resource not found",
            "schema": {
              "type": "array",
              "description": "An array of error objects.",
              "minItems": 1,
              "items": {
                "$ref": "#/definitions/Error"
              }
            },
            "examples": {
              "application/json": [
                {
                  "code": "404",
                  "userMessage": "Resource not found",
                  "systemMessage": "Resource not found"
                }
              ]
            },
            "headers": {}
          },
          "405": {
            "description": "Method Not Allowed",
            "schema": {
              "type": "array",
              "description": "An array of error objects.",
              "minItems": 1,
              "items": {
                "$ref": "#/definitions/Error"
              }
            },
            "examples": {
              "application/json": [
                {
                  "code": "405",
                  "userMessage": "Method Not Allowed",
                  "systemMessage": "Method Not Allowed"
                }
              ]
            },
            "headers": {}
          },
          "406": {
            "description": "Mismatching data format",
            "schema": {
              "type": "array",
              "description": "An array of error objects.",
              "minItems": 1,
              "items": {
                "$ref": "#/definitions/Error"
              }
            },
            "examples": {
              "application/json": [
                {
                  "code": "406",
                  "userMessage": "Mismatching data format",
                  "systemMessage": "Mismatching data format"
                }
              ]
            },
            "headers": {}
          },
          "500": {
            "description": "System Error",
            "schema": {
              "type": "array",
              "description": "An array of error objects.",
              "minItems": 1,
              "items": {
                "$ref": "#/definitions/Error"
              }
            },
            "examples": {
              "application/json": [
                {
                  "code": "500",
                  "userMessage": "System Error",
                  "systemMessage": "System Error"
                }
              ]
            },
            "headers": {}
          },
          "503": {
            "description": "Service unavailable",
            "schema": {
              "type": "array",
              "description": "An array of error objects.",
              "minItems": 1,
              "items": {
                "$ref": "#/definitions/Error"
              }
            },
            "examples": {
              "application/json": [
                {
                  "code": "503",
                  "userMessage": "Service unavailable",
                  "systemMessage": "Service unavailable"
                }
              ]
            },
            "headers": {}
          }
        }
      }
    }
  },
  "definitions": {
    "Errors": {
      "description": "Describes the collection of error",
      "type": "array",
      "items": {
        "$ref": "#/definitions/Error"
      },
      "x-example": "/*ToDO*/ Some Example"
    },
    "Error": {
      "type": "object",
      "description": "As defined in https://tmobileusa.sharepoint.com/teams/EnterpriseServices/ESG%20Standards%20Documents/APIs/T-Mobile%20API%20Design%20Guidelines%20v1.0.docx",
      "properties": {
        "code": {
          "description": "A succinct, domain-specific, human-readable text string to identify the type of error for the given status code",
          "type": "string"
        },
        "userMessage": {
          "description": "A human-readable message describing the error.",
          "type": "string"
        },
        "systemMessage": {
          "description": "Text that provides a more detailed technical explanation of the error",
          "type": "string"
        },
        "errorDetailUrl": {
          "description": "link to custom information providing greater detail on error or errors",
          "type": "string"
        }
      }
    },
    "ErrorCode": {
      "type": "string",
      "description": "Error Code as per the T-Mobile standards",
      "x-example": "/*ToDO*/ Some Example",
      "pattern": ".+"
    },
    "SystemMessage": {
      "type": "string",
      "description": "Error information from the system",
      "x-example": "/*ToDO*/ Some Example",
      "pattern": ".+"
    },
    "UserMessage": {
      "type": "string",
      "description": "User friendly information for the error",
      "x-example": "/*ToDO*/ Some Example",
      "pattern": ".+"
    },
    "CreatePinRequest": {
      "type": "object",
      "description": "CreatePinRequest",
      "properties": {
        "bscsCustomerId": {
          "type": "string",
          "description": "customerId"
        },
        "email": {
          "type": "string",
          "description": "email",
          "x-example": "/*ToDO*/ Some Example",
          "pattern": ".+"
        },
        "msisdn": {
          "type": "string",
          "description": "msisdn",
          "x-example": "/*ToDO*/ Some Example",
          "pattern": ".+"
        },
        "userId": {
          "type": "string",
          "description": "user id",
          "x-example": "/*ToDO*/ Some Example",
          "pattern": ".+"
        },
        "userName": {
          "type": "string",
          "description": "username",
          "x-example": "/*ToDO*/ Some Example",
          "pattern": ".+"
        }
      },
      "title": "CreatePinRequest",
      "x-example": "/*ToDO*/ Some Example"
    },
    "CreatePinResponse": {
      "type": "object",
      "description": "CreatePinResponse",
      "properties": {
        "userId": {
          "type": "string",
          "description": "userId"
        },
        "tempPin": {
          "type": "string",
          "description": "temp pin",
          "x-example": "/*ToDO*/ Some Example",
          "pattern": ".+"
        },
        "tempPinExpirationTime": {
          "type": "string",
          "description": "tempPinExpirationTime"
        }
      },
      "title": "CreatePinResponse",
      "x-example": "/*ToDO*/ Some Example"
    }
  },
  "securityDefinitions": {
    "Oauth": {
      "type": "oauth2",
      "description": "When you sign up for an account, you are given your first API key\n",
      "tokenUrl": "https://dlab03.core.op.api.t-mobile.com:443/v2/oauth2/accesstoken?grant_type=client_credentials",
      "flow": "application",
      "scopes": {}
    }
  }
}