@startuml

!define MS_SERVICE Dealer-Management-V2
!define MS_OPERATION get-submarket-list-for-dealer
!define LAST_UPDATE %date[yyyy.MM.dd 'at' HH:mm]%

title
MS: MS_SERVICE/MS_OPERATION
Last update: LAST_UPDATE

end title

/' 
 ' This is our suppression for the footbox (aka. our diagrams box a the bottom of each flow
' tower - comment out the next line and regenerate the diagram, to see what I mean)
'/
hide footbox


/'
' The spacing in the following text is important. 
 ' 
 ' Trust me.
'/ 
center footer

 
Copyright (c) 2019 Amdocs.

Information Security Level 1 - Confidential

CONTAINS RESTRICTED - PROPRIETARY INFORMATION

This document is strictly confidential and proprietary; to be used only by authorized persons
on a need to know basis, and must not be distributed without specific permission.

In the event of unauthorized use of this document or the confidential information it contains,
violators will be subject to sever disciplinary action, based on Amdocs regulations, as well as
any other sanctions applicable by law.

endfooter

participant Channel
participant "Dealer-\nManagement-V2\nMS" as DM
participant "DB" as DB

Channel -> DM : MS_OPERATION\n(dealerCode)
activate DM

DM -> DB : getSubMarketListForDealerDAO
activate DB
DB --> DM : Market list
deactivate DB

DM --> Channel : Response
deactivate DM

@enduml