{
  "swagger": "2.0",
  "info": {
    "description": "Rest API with Swagger 2.0",
    "version": "1.0",
    "title": "Rest API with Swagger 2.0",
    "license": {
      "name": "Tmobile"
    }
  },
  "host": "service-memo.apps.px-01.cf.t-mobile.com",
  "basePath": "/",
  "tags": [
    {
      "name": "Memo API",
      "description": "Memo Controller"
    }
  ],
  "paths": {
    "/billing/v1/memos": {
      "post": {
        "tags": [
          "Memo API"
        ],
        "summary": "memo",
        "description": "Create memo in Billing System",
        "operationId": "invokeUsingPOST",
        "consumes": [
          "application/json"
        ],
        "produces": [
          "application/json",
          "*/*"
        ],
        "parameters": [
          {
            "in": "body",
            "name": "memoRequest",
            "description": "memoRequest",
            "required": true,
            "schema": {
              "$ref": "#/definitions/MemoRequest"
            }
          }
        ],
        "responses": {
          "200": {
            "description": "OK"
          },
          "201": {
            "description": "Created"
          },
          "401": {
            "description": "Unauthorized"
          },
          "403": {
            "description": "Forbidden"
          },
          "404": {
            "description": "Not Found"
          }
        }
      }
    }
  },
  "definitions": {
    "MemoRequest": {
      "type": "object",
      "properties": {
        "accountNumber": {
          "type": "string"
        },
        "applicationId": {
          "type": "string"
        },
        "applicationUserId": {
          "type": "string"
        },
        "channelId": {
          "type": "string"
        },
        "dealerCode": {
          "type": "string"
        },
        "memoSource": {
          "type": "string"
        },
        "memoText": {
          "type": "string"
        },
        "memoType": {
          "type": "string"
        },
        "operatorId": {
          "type": "integer",
          "format": "int32"
        },
        "storeId": {
          "type": "string"
        },
        "subscriberNumber": {
          "type": "string"
        },
        "systemMemoParameter": {
          "type": "array",
          "items": {
            "type": "string"
          }
        },
        "transactionId": {
          "type": "string"
        },
        "workflowId": {
          "type": "string"
        }
      }
    }
  }
}