<?xml version="1.0" encoding="UTF-8" standalone="no"?><svg xmlns="http://www.w3.org/2000/svg" xmlns:xlink="http://www.w3.org/1999/xlink" contentScriptType="application/ecmascript" contentStyleType="text/css" height="1433px" preserveAspectRatio="none" style="width:1919px;height:1433px;" version="1.1" viewBox="0 0 1919 1433" width="1919px" zoomAndPan="magnify"><defs><filter height="300%" id="fwo291rx231ue" width="300%" x="-1" y="-1"><feGaussianBlur result="blurOut" stdDeviation="2.0"/><feColorMatrix in="blurOut" result="blurOut2" type="matrix" values="0 0 0 0 0 0 0 0 0 0 0 0 0 0 0 0 0 0 .4 0"/><feOffset dx="4.0" dy="4.0" in="blurOut2" result="blurOut3"/><feBlend in="SourceGraphic" in2="blurOut3" mode="normal"/></filter></defs><g><text fill="#000000" font-family="sans-serif" font-size="14" font-weight="bold" lengthAdjust="spacingAndGlyphs" textLength="257" x="826.5" y="22.9951">One Site Search for TMO/MyTMO</text><rect fill="#FFFFFF" filter="url(#fwo291rx231ue)" height="162.7969" style="stroke: #000000; stroke-width: 2.0;" width="1657.5" x="13" y="1106.1094"/><rect fill="#FFFFFF" filter="url(#fwo291rx231ue)" height="46.2656" style="stroke: #000000; stroke-width: 2.0;" width="574.5" x="13" y="1282.9063"/><line style="stroke: #A80036; stroke-width: 1.0; stroke-dasharray: 5.0,5.0;" x1="42" x2="42" y1="116.5938" y2="1346.1719"/><line style="stroke: #A80036; stroke-width: 1.0; stroke-dasharray: 5.0,5.0;" x1="561.5" x2="561.5" y1="116.5938" y2="1346.1719"/><line style="stroke: #A80036; stroke-width: 1.0; stroke-dasharray: 5.0,5.0;" x1="1099" x2="1099" y1="116.5938" y2="1346.1719"/><line style="stroke: #A80036; stroke-width: 1.0; stroke-dasharray: 5.0,5.0;" x1="1628.5" x2="1628.5" y1="116.5938" y2="1346.1719"/><text fill="#000000" font-family="sans-serif" font-size="14" lengthAdjust="spacingAndGlyphs" textLength="32" x="23" y="113.292">User</text><ellipse cx="42" cy="43.2969" fill="#E20074" filter="url(#fwo291rx231ue)" rx="8" ry="8" style="stroke: #A80036; stroke-width: 2.0;"/><path d="M42,51.2969 L42,78.2969 M29,59.2969 L55,59.2969 M42,78.2969 L29,93.2969 M42,78.2969 L55,93.2969 " fill="none" filter="url(#fwo291rx231ue)" style="stroke: #A80036; stroke-width: 2.0;"/><text fill="#000000" font-family="sans-serif" font-size="14" lengthAdjust="spacingAndGlyphs" textLength="32" x="23" y="1358.167">User</text><ellipse cx="42" cy="1371.4688" fill="#E20074" filter="url(#fwo291rx231ue)" rx="8" ry="8" style="stroke: #A80036; stroke-width: 2.0;"/><path d="M42,1379.4688 L42,1406.4688 M29,1387.4688 L55,1387.4688 M42,1406.4688 L29,1421.4688 M42,1406.4688 L55,1421.4688 " fill="none" filter="url(#fwo291rx231ue)" style="stroke: #A80036; stroke-width: 2.0;"/><rect fill="#FEFECE" filter="url(#fwo291rx231ue)" height="30.2969" style="stroke: #A80036; stroke-width: 1.5;" width="27" x="546.5" y="81.2969"/><text fill="#000000" font-family="sans-serif" font-size="14" lengthAdjust="spacingAndGlyphs" textLength="13" x="553.5" y="101.292">UI</text><rect fill="#FEFECE" filter="url(#fwo291rx231ue)" height="30.2969" style="stroke: #A80036; stroke-width: 1.5;" width="27" x="546.5" y="1345.1719"/><text fill="#000000" font-family="sans-serif" font-size="14" lengthAdjust="spacingAndGlyphs" textLength="13" x="553.5" y="1365.167">UI</text><rect fill="#FEFECE" filter="url(#fwo291rx231ue)" height="30.2969" style="stroke: #A80036; stroke-width: 1.5;" width="44" x="1075" y="81.2969"/><text fill="#000000" font-family="sans-serif" font-size="14" lengthAdjust="spacingAndGlyphs" textLength="30" x="1082" y="101.292">Hapi</text><rect fill="#FEFECE" filter="url(#fwo291rx231ue)" height="30.2969" style="stroke: #A80036; stroke-width: 1.5;" width="44" x="1075" y="1345.1719"/><text fill="#000000" font-family="sans-serif" font-size="14" lengthAdjust="spacingAndGlyphs" textLength="30" x="1082" y="1365.167">Hapi</text><rect fill="#FEFECE" filter="url(#fwo291rx231ue)" height="30.2969" style="stroke: #A80036; stroke-width: 1.5;" width="59" x="1597.5" y="81.2969"/><text fill="#000000" font-family="sans-serif" font-size="14" lengthAdjust="spacingAndGlyphs" textLength="45" x="1604.5" y="101.292">Adobe</text><rect fill="#FEFECE" filter="url(#fwo291rx231ue)" height="30.2969" style="stroke: #A80036; stroke-width: 1.5;" width="59" x="1597.5" y="1345.1719"/><text fill="#000000" font-family="sans-serif" font-size="14" lengthAdjust="spacingAndGlyphs" textLength="45" x="1604.5" y="1365.167">Adobe</text><path d="M1634,131.5938 L1634,171.5938 L1898,171.5938 L1898,141.5938 L1888,131.5938 L1634,131.5938 " fill="#E20074" filter="url(#fwo291rx231ue)" style="stroke: #A80036; stroke-width: 1.0;"/><path d="M1888,131.5938 L1888,141.5938 L1898,141.5938 L1888,131.5938 " fill="#E20074" style="stroke: #A80036; stroke-width: 1.0;"/><text fill="#000000" font-family="sans-serif" font-size="13" lengthAdjust="spacingAndGlyphs" textLength="243" x="1640" y="148.6606">S&amp;P gets catalog feed from WPC/MPM</text><text fill="#000000" font-family="sans-serif" font-size="13" lengthAdjust="spacingAndGlyphs" textLength="230" x="1640" y="163.7935">Support &amp; Newsroom data from ***</text><polygon fill="#A80036" points="550,197.9922,560,201.9922,550,205.9922,554,201.9922" style="stroke: #A80036; stroke-width: 1.0;"/><line style="stroke: #A80036; stroke-width: 1.0;" x1="42" x2="556" y1="201.9922" y2="201.9922"/><text fill="#000000" font-family="sans-serif" font-size="13" lengthAdjust="spacingAndGlyphs" textLength="491" x="49" y="196.9263">User requests t-mobile.com/search?q={searchTerm}&amp;unav={unavClientId}</text><polygon fill="#A80036" points="573,242.2578,563,246.2578,573,250.2578,569,246.2578" style="stroke: #A80036; stroke-width: 1.0;"/><line style="stroke: #A80036; stroke-width: 1.0; stroke-dasharray: 2.0,2.0;" x1="567" x2="1098" y1="246.2578" y2="246.2578"/><text fill="#000000" font-family="sans-serif" font-size="13" lengthAdjust="spacingAndGlyphs" textLength="503" x="579" y="226.0591">Search result UI will be displayed from SSR as prospect user &amp; UNAV based on</text><text fill="#000000" font-family="sans-serif" font-size="13" lengthAdjust="spacingAndGlyphs" textLength="345" x="579" y="241.1919">value of unavClientId &amp; then updated based on cookie</text><rect fill="#EEEEEE" filter="url(#fwo291rx231ue)" height="3" style="stroke: #EEEEEE; stroke-width: 1.0;" width="1904" x="3" y="274.8242"/><line style="stroke: #000000; stroke-width: 1.0;" x1="3" x2="1907" y1="274.8242" y2="274.8242"/><line style="stroke: #000000; stroke-width: 1.0;" x1="3" x2="1907" y1="277.8242" y2="277.8242"/><rect fill="#EEEEEE" filter="url(#fwo291rx231ue)" height="23.1328" style="stroke: #000000; stroke-width: 2.0;" width="374" x="768" y="264.2578"/><text fill="#000000" font-family="sans-serif" font-size="13" font-weight="bold" lengthAdjust="spacingAndGlyphs" textLength="355" x="774" y="280.3247">On click of any Tab/Filter/Sort option/Pagination</text><polygon fill="#A80036" points="550,314.5234,560,318.5234,550,322.5234,554,318.5234" style="stroke: #A80036; stroke-width: 1.0;"/><line style="stroke: #A80036; stroke-width: 1.0;" x1="42" x2="556" y1="318.5234" y2="318.5234"/><text fill="#000000" font-family="sans-serif" font-size="13" lengthAdjust="spacingAndGlyphs" textLength="268" x="49" y="313.4575">Select any tab/filter/sort option/Pagination</text><polygon fill="#A80036" points="1087,358.7891,1097,362.7891,1087,366.7891,1091,362.7891" style="stroke: #A80036; stroke-width: 1.0;"/><line style="stroke: #A80036; stroke-width: 1.0;" x1="562" x2="1093" y1="362.7891" y2="362.7891"/><text fill="#000000" font-family="sans-serif" font-size="13" lengthAdjust="spacingAndGlyphs" textLength="443" x="569" y="342.5903">API will be triggered based on user authentication status from cookie(</text><text fill="#000000" font-family="sans-serif" font-size="13" font-weight="bold" lengthAdjust="spacingAndGlyphs" textLength="65" x="1012" y="342.5903">tmoUnav</text><text fill="#000000" font-family="sans-serif" font-size="13" lengthAdjust="spacingAndGlyphs" textLength="5" x="1077" y="342.5903">)</text><text fill="#E20074" font-family="sans-serif" font-size="13" lengthAdjust="spacingAndGlyphs" text-decoration="underline" textLength="25" x="569" y="357.7231">GET</text><text fill="#000000" font-family="sans-serif" font-size="13" lengthAdjust="spacingAndGlyphs" textLength="217" x="598" y="357.7231">api/search?searchQuery={query}</text><polygon fill="#A80036" points="1617,387.9219,1627,391.9219,1617,395.9219,1621,391.9219" style="stroke: #A80036; stroke-width: 1.0;"/><line style="stroke: #A80036; stroke-width: 1.0;" x1="1099" x2="1623" y1="391.9219" y2="391.9219"/><text fill="#E20074" font-family="sans-serif" font-size="13" lengthAdjust="spacingAndGlyphs" text-decoration="underline" textLength="25" x="1106" y="386.856">GET</text><text fill="#000000" font-family="sans-serif" font-size="13" lengthAdjust="spacingAndGlyphs" textLength="323" x="1135" y="386.856">https://sp10050ebc.guided.ss-omtrdc.net?{query}</text><polygon fill="#A80036" points="1110,417.0547,1100,421.0547,1110,425.0547,1106,421.0547" style="stroke: #A80036; stroke-width: 1.0;"/><line style="stroke: #A80036; stroke-width: 1.0; stroke-dasharray: 2.0,2.0;" x1="1104" x2="1628" y1="421.0547" y2="421.0547"/><text fill="#000000" font-family="sans-serif" font-size="13" font-weight="bold" lengthAdjust="spacingAndGlyphs" textLength="71" x="1116" y="415.9888">{{Data}}</text><polygon fill="#A80036" points="573,446.1875,563,450.1875,573,454.1875,569,450.1875" style="stroke: #A80036; stroke-width: 1.0;"/><line style="stroke: #A80036; stroke-width: 1.0; stroke-dasharray: 2.0,2.0;" x1="567" x2="1098" y1="450.1875" y2="450.1875"/><text fill="#000000" font-family="sans-serif" font-size="13" font-weight="bold" lengthAdjust="spacingAndGlyphs" textLength="170" x="579" y="445.1216">{{Transformed Data}}</text><polygon fill="#A80036" points="53,475.3203,43,479.3203,53,483.3203,49,479.3203" style="stroke: #A80036; stroke-width: 1.0;"/><line style="stroke: #A80036; stroke-width: 1.0; stroke-dasharray: 2.0,2.0;" x1="47" x2="561" y1="479.3203" y2="479.3203"/><text fill="#000000" font-family="sans-serif" font-size="13" lengthAdjust="spacingAndGlyphs" textLength="379" x="59" y="474.2544">Search results will be displayed based on selected category</text><rect fill="#EEEEEE" filter="url(#fwo291rx231ue)" height="3" style="stroke: #EEEEEE; stroke-width: 1.0;" width="1904" x="3" y="507.8867"/><line style="stroke: #000000; stroke-width: 1.0;" x1="3" x2="1907" y1="507.8867" y2="507.8867"/><line style="stroke: #000000; stroke-width: 1.0;" x1="3" x2="1907" y1="510.8867" y2="510.8867"/><rect fill="#EEEEEE" filter="url(#fwo291rx231ue)" height="23.1328" style="stroke: #000000; stroke-width: 2.0;" width="200" x="855" y="497.3203"/><text fill="#000000" font-family="sans-serif" font-size="13" font-weight="bold" lengthAdjust="spacingAndGlyphs" textLength="181" x="861" y="513.3872">On click of suppport tab</text><polygon fill="#A80036" points="550,547.5859,560,551.5859,550,555.5859,554,551.5859" style="stroke: #A80036; stroke-width: 1.0;"/><line style="stroke: #A80036; stroke-width: 1.0;" x1="42" x2="556" y1="551.5859" y2="551.5859"/><text fill="#000000" font-family="sans-serif" font-size="13" lengthAdjust="spacingAndGlyphs" textLength="118" x="49" y="546.52">Select support tab</text><polygon fill="#A80036" points="1087,576.7188,1097,580.7188,1087,584.7188,1091,580.7188" style="stroke: #A80036; stroke-width: 1.0;"/><line style="stroke: #A80036; stroke-width: 1.0;" x1="562" x2="1093" y1="580.7188" y2="580.7188"/><text fill="#E20074" font-family="sans-serif" font-size="13" lengthAdjust="spacingAndGlyphs" text-decoration="underline" textLength="25" x="569" y="575.6528">GET</text><text fill="#000000" font-family="sans-serif" font-size="13" lengthAdjust="spacingAndGlyphs" textLength="313" x="598" y="575.6528">api/search/myTmoSupport?searchQuery={data}</text><polygon fill="#A80036" points="1617,605.8516,1627,609.8516,1617,613.8516,1621,609.8516" style="stroke: #A80036; stroke-width: 1.0;"/><line style="stroke: #A80036; stroke-width: 1.0;" x1="1099" x2="1623" y1="609.8516" y2="609.8516"/><text fill="#E20074" font-family="sans-serif" font-size="13" lengthAdjust="spacingAndGlyphs" text-decoration="underline" textLength="25" x="1106" y="604.7856">GET</text><text fill="#000000" font-family="sans-serif" font-size="13" lengthAdjust="spacingAndGlyphs" textLength="307" x="1135" y="604.7856">http://sp1004ccc8.guided.ss-omtrdc.net?{data}</text><polygon fill="#A80036" points="1110,634.9844,1100,638.9844,1110,642.9844,1106,638.9844" style="stroke: #A80036; stroke-width: 1.0;"/><line style="stroke: #A80036; stroke-width: 1.0; stroke-dasharray: 2.0,2.0;" x1="1104" x2="1628" y1="638.9844" y2="638.9844"/><text fill="#000000" font-family="sans-serif" font-size="13" font-weight="bold" lengthAdjust="spacingAndGlyphs" textLength="71" x="1116" y="633.9185">{{Data}}</text><polygon fill="#A80036" points="573,664.1172,563,668.1172,573,672.1172,569,668.1172" style="stroke: #A80036; stroke-width: 1.0;"/><line style="stroke: #A80036; stroke-width: 1.0; stroke-dasharray: 2.0,2.0;" x1="567" x2="1098" y1="668.1172" y2="668.1172"/><text fill="#000000" font-family="sans-serif" font-size="13" font-weight="bold" lengthAdjust="spacingAndGlyphs" textLength="170" x="579" y="663.0513">{{Transformed Data}}</text><polygon fill="#A80036" points="53,693.25,43,697.25,53,701.25,49,697.25" style="stroke: #A80036; stroke-width: 1.0;"/><line style="stroke: #A80036; stroke-width: 1.0; stroke-dasharray: 2.0,2.0;" x1="47" x2="561" y1="697.25" y2="697.25"/><text fill="#000000" font-family="sans-serif" font-size="13" lengthAdjust="spacingAndGlyphs" textLength="379" x="59" y="692.1841">Search results will be displayed based on selected category</text><rect fill="#EEEEEE" filter="url(#fwo291rx231ue)" height="3" style="stroke: #EEEEEE; stroke-width: 1.0;" width="1904" x="3" y="725.8164"/><line style="stroke: #000000; stroke-width: 1.0;" x1="3" x2="1907" y1="725.8164" y2="725.8164"/><line style="stroke: #000000; stroke-width: 1.0;" x1="3" x2="1907" y1="728.8164" y2="728.8164"/><rect fill="#EEEEEE" filter="url(#fwo291rx231ue)" height="23.1328" style="stroke: #000000; stroke-width: 2.0;" width="112" x="899" y="715.25"/><text fill="#000000" font-family="sans-serif" font-size="13" font-weight="bold" lengthAdjust="spacingAndGlyphs" textLength="93" x="905" y="731.3169">Inline search</text><polygon fill="#A80036" points="550,765.5156,560,769.5156,550,773.5156,554,769.5156" style="stroke: #A80036; stroke-width: 1.0;"/><line style="stroke: #A80036; stroke-width: 1.0;" x1="42" x2="556" y1="769.5156" y2="769.5156"/><text fill="#000000" font-family="sans-serif" font-size="13" lengthAdjust="spacingAndGlyphs" textLength="277" x="49" y="764.4497">Starts typing new query in inline search box</text><polygon fill="#A80036" points="1087,794.6484,1097,798.6484,1087,802.6484,1091,798.6484" style="stroke: #A80036; stroke-width: 1.0;"/><line style="stroke: #A80036; stroke-width: 1.0;" x1="562" x2="1093" y1="798.6484" y2="798.6484"/><text fill="#E20074" font-family="sans-serif" font-size="13" lengthAdjust="spacingAndGlyphs" text-decoration="underline" textLength="25" x="569" y="793.5825">GET</text><text fill="#000000" font-family="sans-serif" font-size="13" lengthAdjust="spacingAndGlyphs" textLength="343" x="598" y="793.5825">api/search/suggestions?searchQuery={searchQuery}</text><polygon fill="#A80036" points="1617,838.9141,1627,842.9141,1617,846.9141,1621,842.9141" style="stroke: #A80036; stroke-width: 1.0;"/><line style="stroke: #A80036; stroke-width: 1.0;" x1="1099" x2="1623" y1="842.9141" y2="842.9141"/><text fill="#E20074" font-family="sans-serif" font-size="13" lengthAdjust="spacingAndGlyphs" text-decoration="underline" textLength="25" x="1106" y="822.7153">GET</text><text fill="#000000" font-family="sans-serif" font-size="13" lengthAdjust="spacingAndGlyphs" textLength="477" x="1135" y="822.7153">https://content.atomz.com/autocomplete/sp10/05/0e/bc/?max_results=5&amp;</text><text fill="#000000" font-family="sans-serif" font-size="13" lengthAdjust="spacingAndGlyphs" textLength="236" x="1106" y="837.8481">beginning=1&amp;query={searchQuery}</text><polygon fill="#A80036" points="1110,868.0469,1100,872.0469,1110,876.0469,1106,872.0469" style="stroke: #A80036; stroke-width: 1.0;"/><line style="stroke: #A80036; stroke-width: 1.0; stroke-dasharray: 2.0,2.0;" x1="1104" x2="1628" y1="872.0469" y2="872.0469"/><text fill="#000000" font-family="sans-serif" font-size="13" font-weight="bold" lengthAdjust="spacingAndGlyphs" textLength="71" x="1116" y="866.981">{{Data}}</text><polygon fill="#A80036" points="573,897.1797,563,901.1797,573,905.1797,569,901.1797" style="stroke: #A80036; stroke-width: 1.0;"/><line style="stroke: #A80036; stroke-width: 1.0; stroke-dasharray: 2.0,2.0;" x1="567" x2="1098" y1="901.1797" y2="901.1797"/><text fill="#000000" font-family="sans-serif" font-size="13" font-weight="bold" lengthAdjust="spacingAndGlyphs" textLength="170" x="579" y="896.1138">{{Transformed Data}}</text><polygon fill="#A80036" points="53,926.3125,43,930.3125,53,934.3125,49,930.3125" style="stroke: #A80036; stroke-width: 1.0;"/><line style="stroke: #A80036; stroke-width: 1.0; stroke-dasharray: 2.0,2.0;" x1="47" x2="561" y1="930.3125" y2="930.3125"/><text fill="#000000" font-family="sans-serif" font-size="13" lengthAdjust="spacingAndGlyphs" textLength="298" x="59" y="925.2466">Show list of search keys available for the query</text><polygon fill="#A80036" points="550,970.5781,560,974.5781,550,978.5781,554,974.5781" style="stroke: #A80036; stroke-width: 1.0;"/><line style="stroke: #A80036; stroke-width: 1.0;" x1="42" x2="556" y1="974.5781" y2="974.5781"/><text fill="#000000" font-family="sans-serif" font-size="13" lengthAdjust="spacingAndGlyphs" textLength="492" x="49" y="954.3794">Select's one of the option from the auto-complete list or search for any other</text><text fill="#000000" font-family="sans-serif" font-size="13" lengthAdjust="spacingAndGlyphs" textLength="36" x="49" y="969.5122">query</text><polygon fill="#A80036" points="1087,999.7109,1097,1003.7109,1087,1007.7109,1091,1003.7109" style="stroke: #A80036; stroke-width: 1.0;"/><line style="stroke: #A80036; stroke-width: 1.0;" x1="562" x2="1093" y1="1003.7109" y2="1003.7109"/><text fill="#E20074" font-family="sans-serif" font-size="13" lengthAdjust="spacingAndGlyphs" text-decoration="underline" textLength="25" x="569" y="998.645">GET</text><text fill="#000000" font-family="sans-serif" font-size="13" lengthAdjust="spacingAndGlyphs" textLength="260" x="598" y="998.645">api/search/categories?q={searchQuery}</text><polygon fill="#A80036" points="1617,1028.8438,1627,1032.8438,1617,1036.8438,1621,1032.8438" style="stroke: #A80036; stroke-width: 1.0;"/><line style="stroke: #A80036; stroke-width: 1.0;" x1="1099" x2="1623" y1="1032.8438" y2="1032.8438"/><text fill="#E20074" font-family="sans-serif" font-size="13" lengthAdjust="spacingAndGlyphs" text-decoration="underline" textLength="25" x="1106" y="1027.7778">GET</text><text fill="#000000" font-family="sans-serif" font-size="13" lengthAdjust="spacingAndGlyphs" textLength="461" x="1135" y="1027.7778">https://sp10050ebc.guided.ss-omtrdc.net?do=count&amp;q={searchQuery}</text><polygon fill="#A80036" points="1110,1057.9766,1100,1061.9766,1110,1065.9766,1106,1061.9766" style="stroke: #A80036; stroke-width: 1.0;"/><line style="stroke: #A80036; stroke-width: 1.0; stroke-dasharray: 2.0,2.0;" x1="1104" x2="1628" y1="1061.9766" y2="1061.9766"/><text fill="#000000" font-family="sans-serif" font-size="13" font-weight="bold" lengthAdjust="spacingAndGlyphs" textLength="71" x="1116" y="1056.9106">{{Data}}</text><polygon fill="#A80036" points="573,1087.1094,563,1091.1094,573,1095.1094,569,1091.1094" style="stroke: #A80036; stroke-width: 1.0;"/><line style="stroke: #A80036; stroke-width: 1.0; stroke-dasharray: 2.0,2.0;" x1="567" x2="1098" y1="1091.1094" y2="1091.1094"/><text fill="#000000" font-family="sans-serif" font-size="13" font-weight="bold" lengthAdjust="spacingAndGlyphs" textLength="170" x="579" y="1086.0435">{{Transformed Data}}</text><path d="M13,1106.1094 L352,1106.1094 L352,1113.1094 L342,1123.1094 L13,1123.1094 L13,1106.1094 " fill="#EEEEEE" style="stroke: #000000; stroke-width: 1.0;"/><rect fill="none" height="162.7969" style="stroke: #000000; stroke-width: 2.0;" width="1657.5" x="13" y="1106.1094"/><text fill="#000000" font-family="sans-serif" font-size="13" font-weight="bold" lengthAdjust="spacingAndGlyphs" textLength="294" x="28" y="1119.1763">If Categories Available for search query</text><polygon fill="#A80036" points="1087,1140.375,1097,1144.375,1087,1148.375,1091,1144.375" style="stroke: #A80036; stroke-width: 1.0;"/><line style="stroke: #A80036; stroke-width: 1.0;" x1="562" x2="1093" y1="1144.375" y2="1144.375"/><text fill="#E20074" font-family="sans-serif" font-size="13" lengthAdjust="spacingAndGlyphs" text-decoration="underline" textLength="25" x="569" y="1139.3091">GET</text><text fill="#000000" font-family="sans-serif" font-size="13" lengthAdjust="spacingAndGlyphs" textLength="262" x="598" y="1139.3091">api/search?searchQuery={searchQuery}</text><polygon fill="#A80036" points="1617,1169.5078,1627,1173.5078,1617,1177.5078,1621,1173.5078" style="stroke: #A80036; stroke-width: 1.0;"/><line style="stroke: #A80036; stroke-width: 1.0;" x1="1099" x2="1623" y1="1173.5078" y2="1173.5078"/><text fill="#E20074" font-family="sans-serif" font-size="13" lengthAdjust="spacingAndGlyphs" text-decoration="underline" textLength="25" x="1106" y="1168.4419">GET</text><text fill="#000000" font-family="sans-serif" font-size="13" lengthAdjust="spacingAndGlyphs" textLength="368" x="1135" y="1168.4419">https://sp10050ebc.guided.ss-omtrdc.net?{searchQuery}</text><polygon fill="#A80036" points="1110,1198.6406,1100,1202.6406,1110,1206.6406,1106,1202.6406" style="stroke: #A80036; stroke-width: 1.0;"/><line style="stroke: #A80036; stroke-width: 1.0; stroke-dasharray: 2.0,2.0;" x1="1104" x2="1628" y1="1202.6406" y2="1202.6406"/><text fill="#000000" font-family="sans-serif" font-size="13" font-weight="bold" lengthAdjust="spacingAndGlyphs" textLength="71" x="1116" y="1197.5747">{{Data}}</text><polygon fill="#A80036" points="573,1227.7734,563,1231.7734,573,1235.7734,569,1231.7734" style="stroke: #A80036; stroke-width: 1.0;"/><line style="stroke: #A80036; stroke-width: 1.0; stroke-dasharray: 2.0,2.0;" x1="567" x2="1098" y1="1231.7734" y2="1231.7734"/><text fill="#000000" font-family="sans-serif" font-size="13" font-weight="bold" lengthAdjust="spacingAndGlyphs" textLength="170" x="579" y="1226.7075">{{Transformed Data}}</text><polygon fill="#A80036" points="53,1256.9063,43,1260.9063,53,1264.9063,49,1260.9063" style="stroke: #A80036; stroke-width: 1.0;"/><line style="stroke: #A80036; stroke-width: 1.0; stroke-dasharray: 2.0,2.0;" x1="47" x2="561" y1="1260.9063" y2="1260.9063"/><text fill="#000000" font-family="sans-serif" font-size="13" lengthAdjust="spacingAndGlyphs" textLength="233" x="59" y="1255.8403">Displays search results for the query</text><path d="M13,1282.9063 L178,1282.9063 L178,1289.9063 L168,1299.9063 L13,1299.9063 L13,1282.9063 " fill="#EEEEEE" style="stroke: #000000; stroke-width: 1.0;"/><rect fill="none" height="46.2656" style="stroke: #000000; stroke-width: 2.0;" width="574.5" x="13" y="1282.9063"/><text fill="#000000" font-family="sans-serif" font-size="13" font-weight="bold" lengthAdjust="spacingAndGlyphs" textLength="120" x="28" y="1295.9731">No Results Case</text><polygon fill="#A80036" points="53,1317.1719,43,1321.1719,53,1325.1719,49,1321.1719" style="stroke: #A80036; stroke-width: 1.0;"/><line style="stroke: #A80036; stroke-width: 1.0; stroke-dasharray: 2.0,2.0;" x1="47" x2="561" y1="1321.1719" y2="1321.1719"/><text fill="#000000" font-family="sans-serif" font-size="13" lengthAdjust="spacingAndGlyphs" textLength="439" x="59" y="1316.106">No Results message if there are no categories avaibale for the query</text><!--MD5=[155e6d62546ad326c4f6abc1384caddf]
@startuml
skinparam maxmessagesize 510

title One Site Search for TMO/MyTMO
actor User #e20074
participant UI
participant Hapi
participant Adobe
note right of Adobe #e20074
 S&P gets catalog feed from WPC/MPM
 Support & Newsroom data from ***
end note

User->UI:User requests t-mobile.com/search?q={searchTerm}&unav={unavClientId}
Hapi- ->UI: Search result UI will be displayed from SSR as prospect user & UNAV based on value of unavClientId & then updated based on cookie

== On click of any Tab/Filter/Sort option/Pagination ==
User ->UI: Select any tab/filter/sort option/Pagination
UI->Hapi: API will be triggered based on user authentication status from cookie(**tmoUnav**) <color #e20074>__GET__</color> api/search?searchQuery={query}
Hapi->Adobe: <color #e20074>__GET__</color> https://sp10050ebc.guided.ss-omtrdc.net?{query}
Adobe - ->Hapi: **{{Data}}**
Hapi - ->UI: **{{Transformed Data}}**
UI - ->User: Search results will be displayed based on selected category

== On click of suppport tab ==
User ->UI: Select support tab
UI->Hapi: <color #e20074>__GET__</color> api/search/myTmoSupport?searchQuery={data}
Hapi->Adobe: <color #e20074>__GET__</color> http://sp1004ccc8.guided.ss-omtrdc.net?{data}
Adobe - ->Hapi: **{{Data}}**
Hapi - ->UI: **{{Transformed Data}}**
UI - ->User: Search results will be displayed based on selected category

== Inline search ==
User ->UI: Starts typing new query in inline search box
UI->Hapi: <color #e20074>__GET__</color> api/search/suggestions?searchQuery={searchQuery}
Hapi->Adobe: <color #e20074>__GET__</color> https://content.atomz.com/autocomplete/sp10/05/0e/bc/?max_results=5&beginning=1&query={searchQuery}
Adobe - ->Hapi: **{{Data}}**
Hapi - ->UI: **{{Transformed Data}}**
UI - ->User: Show list of search keys available for the query
User ->UI: Select's one of the option from the auto-complete list or search for any other query
UI->Hapi: <color #e20074>__GET__</color> api/search/categories?q={searchQuery}
Hapi->Adobe: <color #e20074>__GET__</color> https://sp10050ebc.guided.ss-omtrdc.net?do=count&q={searchQuery}
Adobe - ->Hapi: **{{Data}}**
Hapi - ->UI: **{{Transformed Data}}**
group If Categories Available for search query
  UI->Hapi: <color #e20074>__GET__</color> api/search?searchQuery={searchQuery}
  Hapi->Adobe: <color #e20074>__GET__</color> https://sp10050ebc.guided.ss-omtrdc.net?{searchQuery}
  Adobe - ->Hapi: **{{Data}}**
  Hapi - ->UI: **{{Transformed Data}}**
  UI - ->User: Displays search results for the query
end
group No Results Case
  UI- -> User: No Results message if there are no categories avaibale for the query
end
@enduml

PlantUML version 1.2019.11(Sun Sep 22 10:02:15 UTC 2019)
(GPL source distribution)
Java Runtime: Java(TM) SE Runtime Environment
JVM: Java HotSpot(TM) 64-Bit Server VM
Java Version: 1.7.0_25-b15
Operating System: Linux
Default Encoding: UTF-8
Language: en
Country: US
--></g></svg>